rosbagTimestamp,header,seq,stamp,secs,nsecs,frame_id,set_point,process_value,process_value_dot,error,time_step,command,p,i,d,i_clamp
1513267150803059536,,707326,,1513267148,985445376,'',1.36135681656,1.3537094375,-0.011324112164,-0.00764737905467,0.001,32.8837299351,4300.0,0.0,0.0,0.0
1513267150813165106,,707327,,1513267148,995445376,'',1.36135681656,1.35232180824,-0.0382963123483,-0.00903500831863,0.001,38.8505357701,4300.0,0.0,0.0,0.0
1513267150823202706,,707328,,1513267149,5445376,'',1.36135681656,1.3537094375,-0.011942743572,-0.00764737905467,0.001,32.8837299351,4300.0,0.0,0.0,0.0
1513267150833118881,,707329,,1513267149,15445376,'',1.36135681656,1.35232180824,-0.0378161979534,-0.00903500831863,0.001,38.8505357701,4300.0,0.0,0.0,0.0
1513267150842954938,,707330,,1513267149,25445376,'',1.36135681656,1.3537094375,-0.00855834183687,-0.00764737905467,0.001,32.8837299351,4300.0,0.0,0.0,0.0
1513267150852972185,,707331,,1513267149,35445376,'',1.36135681656,1.35509706676,0.0180021391479,-0.00625974979072,0.001,26.9169241001,4300.0,0.0,0.0,0.0
1513267150863234720,,707332,,1513267149,45445376,'',1.36135681656,1.35509706676,0.0188596990275,-0.00625974979072,0.001,26.9169241001,4300.0,0.0,0.0,0.0
1513267150873152217,,707333,,1513267149,55445376,'',1.36135681656,1.35509706676,0.0195484651507,-0.00625974979072,0.001,26.9169241001,4300.0,0.0,0.0,0.0
1513267150883084835,,707334,,1513267149,65445376,'',1.36135681656,1.3537094375,-0.00849665514554,-0.00764737905467,0.001,32.8837299351,4300.0,0.0,0.0,0.0
1513267150893070044,,707335,,1513267149,75445376,'',1.36135681656,1.3537094375,-0.00997219554286,-0.00764737905467,0.001,32.8837299351,4300.0,0.0,0.0,0.0
1513267150902957310,,707336,,1513267149,85445376,'',1.36135681656,1.35232180824,-0.0362002014067,-0.00903500831863,0.001,38.8505357701,4300.0,0.0,0.0,0.0
1513267150912953591,,707337,,1513267149,95445376,'',1.36135681656,1.35509706676,0.0202247937271,-0.00625974979072,0.001,26.9169241001,4300.0,0.0,0.0,0.0
1513267150922878540,,707338,,1513267149,105445376,'',1.36135681656,1.35509706676,0.0194871666517,-0.00625974979072,0.001,26.9169241001,4300.0,0.0,0.0,0.0
1513267150932773526,,707339,,1513267149,115445376,'',1.36135681656,1.35509706676,0.0185207508739,-0.00625974979072,0.001,26.9169241001,4300.0,0.0,0.0,0.0
1513267150943054595,,707340,,1513267149,125445376,'',1.36135681656,1.3537094375,-0.00934576596404,-0.00764737905467,0.001,32.8837299351,4300.0,0.0,0.0,0.0
1513267150952979804,,707341,,1513267149,135445376,'',1.36135681656,1.35509706676,0.0184634347438,-0.00625974979072,0.001,26.9169241001,4300.0,0.0,0.0,0.0
1513267150962970980,,707342,,1513267149,145445376,'',1.36135681656,1.35509706676,0.0172006914488,-0.00625974979072,0.001,26.9169241001,4300.0,0.0,0.0,0.0
1513267150972840436,,707343,,1513267149,155445376,'',1.36135681656,1.35509706676,0.0187033926144,-0.00625974979072,0.001,26.9169241001,4300.0,0.0,0.0,0.0
1513267150982859130,,707344,,1513267149,165445376,'',1.36135681656,1.3537094375,-0.00715257395451,-0.00764737905467,0.001,32.8837299351,4300.0,0.0,0.0,0.0
1513267150992810131,,707345,,1513267149,175445376,'',1.36135681656,1.3537094375,-0.00689015344922,-0.00764737905467,0.001,32.8837299351,4300.0,0.0,0.0,0.0
1513267151002774547,,707346,,1513267149,185445376,'',1.36135681656,1.35509706676,0.0212770973464,-0.00625974979072,0.001,26.9169241001,4300.0,0.0,0.0,0.0
1513267151012750865,,707347,,1513267149,195445376,'',1.36135681656,1.35509706676,0.021910529366,-0.00625974979072,0.001,26.9169241001,4300.0,0.0,0.0,0.0
1513267151023145208,,707348,,1513267149,205445376,'',1.36135681656,1.3537094375,-0.00458311666529,-0.00764737905467,0.001,32.8837299351,4300.0,0.0,0.0,0.0
1513267151033120988,,707349,,1513267149,215445376,'',1.36135681656,1.35509706676,0.0211541675013,-0.00625974979072,0.001,26.9169241001,4300.0,0.0,0.0,0.0
1513267151043017953,,707350,,1513267149,225445376,'',1.36135681656,1.35509706676,0.0198002730966,-0.00625974979072,0.001,26.9169241001,4300.0,0.0,0.0,0.0
1513267151052896113,,707351,,1513267149,235445376,'',1.36135681656,1.35509706676,0.0197914202209,-0.00625974979072,0.001,26.9169241001,4300.0,0.0,0.0,0.0
1513267151062761002,,707352,,1513267149,245445376,'',1.36135681656,1.35509706676,0.0217739474893,-0.00625974979072,0.001,26.9169241001,4300.0,0.0,0.0,0.0
1513267151073233119,,707353,,1513267149,255445376,'',1.36135681656,1.3537094375,-0.00656417268636,-0.00764737905467,0.001,32.8837299351,4300.0,0.0,0.0,0.0
1513267151083121365,,707354,,1513267149,265445376,'',1.36135681656,1.35509706676,0.019651578908,-0.00625974979072,0.001,26.9169241001,4300.0,0.0,0.0,0.0
1513267151093021874,,707355,,1513267149,275445376,'',1.36135681656,1.3537094375,-0.00588758945462,-0.00764737905467,0.001,32.8837299351,4300.0,0.0,0.0,0.0
1513267151103027709,,707356,,1513267149,285445376,'',1.36135681656,1.3537094375,-0.00490654472116,-0.00764737905467,0.001,32.8837299351,4300.0,0.0,0.0,0.0
1513267151112945562,,707357,,1513267149,295445376,'',1.36135681656,1.3537094375,-0.00511241638763,-0.00764737905467,0.001,32.8837299351,4300.0,0.0,0.0,0.0
1513267151122904102,,707358,,1513267149,305445376,'',1.36135681656,1.3537094375,-0.00415368354757,-0.00764737905467,0.001,32.8837299351,4300.0,0.0,0.0,0.0
1513267151132759312,,707359,,1513267149,315445376,'',1.36135681656,1.35232180824,-0.0323272327258,-0.00903500831863,0.001,38.8505357701,4300.0,0.0,0.0,0.0
1513267151143233645,,707360,,1513267149,325445376,'',1.36135681656,1.3537094375,-0.00597496039803,-0.00764737905467,0.001,32.8837299351,4300.0,0.0,0.0,0.0
1513267151153158735,,707361,,1513267149,335445376,'',1.36135681656,1.3537094375,-0.00385759051796,-0.00764737905467,0.001,32.8837299351,4300.0,0.0,0.0,0.0
1513267151162956193,,707362,,1513267149,345445376,'',1.36135681656,1.3537094375,-0.00507619909363,-0.00764737905467,0.001,32.8837299351,4300.0,0.0,0.0,0.0
1513267151172872524,,707363,,1513267149,355445376,'',1.36135681656,1.3537094375,-0.00374349401665,-0.00764737905467,0.001,32.8837299351,4300.0,0.0,0.0,0.0
1513267151182868698,,707364,,1513267149,365445376,'',1.36135681656,1.35509706676,0.0219289405181,-0.00625974979072,0.001,26.9169241001,4300.0,0.0,0.0,0.0
1513267151192722719,,707365,,1513267149,375445376,'',1.36135681656,1.35509706676,0.0235090857354,-0.00625974979072,0.001,26.9169241001,4300.0,0.0,0.0,0.0
1513267151202673996,,707366,,1513267149,385445376,'',1.36135681656,1.3537094375,-0.00573705803183,-0.00764737905467,0.001,32.8837299351,4300.0,0.0,0.0,0.0
1513267151213133513,,707367,,1513267149,395445376,'',1.36135681656,1.3537094375,-0.00425282449146,-0.00764737905467,0.001,32.8837299351,4300.0,0.0,0.0,0.0
1513267151223082545,,707368,,1513267149,405445376,'',1.36135681656,1.3537094375,-0.00392407742188,-0.00764737905467,0.001,32.8837299351,4300.0,0.0,0.0,0.0
1513267151232986433,,707369,,1513267149,415445376,'',1.36135681656,1.35509706676,0.0232351616009,-0.00625974979072,0.001,26.9169241001,4300.0,0.0,0.0,0.0
1513267151242949772,,707370,,1513267149,425445376,'',1.36135681656,1.3537094375,-0.00652241616839,-0.00764737905467,0.001,32.8837299351,4300.0,0.0,0.0,0.0
1513267151253010036,,707371,,1513267149,435445376,'',1.36135681656,1.3537094375,-0.00726377512006,-0.00764737905467,0.001,32.8837299351,4300.0,0.0,0.0,0.0
1513267151262844693,,707372,,1513267149,445445376,'',1.36135681656,1.35232180824,-0.0344801421656,-0.00903500831863,0.001,38.8505357701,4300.0,0.0,0.0,0.0
1513267151272718977,,707373,,1513267149,455445376,'',1.36135681656,1.35509706676,0.0217997744346,-0.00625974979072,0.001,26.9169241001,4300.0,0.0,0.0,0.0
1513267151283250777,,707374,,1513267149,465445376,'',1.36135681656,1.35509706676,0.02189030971,-0.00625974979072,0.001,26.9169241001,4300.0,0.0,0.0,0.0
1513267151293001776,,707375,,1513267149,475445376,'',1.36135681656,1.35509706676,0.0223931746458,-0.00625974979072,0.001,26.9169241001,4300.0,0.0,0.0,0.0
1513267151302914204,,707376,,1513267149,485445376,'',1.36135681656,1.35509706676,0.0229281904852,-0.00625974979072,0.001,26.9169241001,4300.0,0.0,0.0,0.0
1513267151312887353,,707377,,1513267149,495445376,'',1.36135681656,1.3537094375,-0.00515852628469,-0.00764737905467,0.001,32.8837299351,4300.0,0.0,0.0,0.0
1513267151322824599,,707378,,1513267149,505445376,'',1.36135681656,1.3537094375,-0.00368421687769,-0.00764737905467,0.001,32.8837299351,4300.0,0.0,0.0,0.0
1513267151332820848,,707379,,1513267149,515445376,'',1.36135681656,1.3537094375,-0.00459021692859,-0.00764737905467,0.001,32.8837299351,4300.0,0.0,0.0,0.0
1513267151343229270,,707380,,1513267149,525445376,'',1.36135681656,1.3537094375,-0.00376606021768,-0.00764737905467,0.001,32.8837299351,4300.0,0.0,0.0,0.0
1513267151353140139,,707381,,1513267149,535445376,'',1.36135681656,1.35509706676,0.0239439488756,-0.00625974979072,0.001,26.9169241001,4300.0,0.0,0.0,0.0
1513267151362994822,,707382,,1513267149,545445376,'',1.36135681656,1.3537094375,-0.00381386628546,-0.00764737905467,0.001,32.8837299351,4300.0,0.0,0.0,0.0
1513267151372936930,,707383,,1513267149,555445376,'',1.36135681656,1.35232180824,-0.0311342583834,-0.00903500831863,0.001,38.8505357701,4300.0,0.0,0.0,0.0
1513267151382860997,,707384,,1513267149,565445376,'',1.36135681656,1.3537094375,-0.00446300747803,-0.00764737905467,0.001,32.8837299351,4300.0,0.0,0.0,0.0
1513267151392916351,,707385,,1513267149,575445376,'',1.36135681656,1.3537094375,-0.00617328376095,-0.00764737905467,0.001,32.8837299351,4300.0,0.0,0.0,0.0
1513267151403271925,,707386,,1513267149,585445376,'',1.36135681656,1.3537094375,-0.00511400429982,-0.00764737905467,0.001,32.8837299351,4300.0,0.0,0.0,0.0
1513267151413303656,,707387,,1513267149,595445376,'',1.36135681656,1.3537094375,-0.00320679898214,-0.00764737905467,0.001,32.8837299351,4300.0,0.0,0.0,0.0
1513267151423166410,,707388,,1513267149,605445376,'',1.36135681656,1.35232180824,-0.0325492891943,-0.00903500831863,0.001,38.8505357701,4300.0,0.0,0.0,0.0
1513267151433090038,,707389,,1513267149,615445376,'',1.36135681656,1.3537094375,-0.00478331607789,-0.00764737905467,0.001,32.8837299351,4300.0,0.0,0.0,0.0
1513267151443152163,,707390,,1513267149,625445376,'',1.36135681656,1.3537094375,-0.00541277086579,-0.00764737905467,0.001,32.8837299351,4300.0,0.0,0.0,0.0
1513267151453009681,,707391,,1513267149,635445376,'',1.36135681656,1.35509706676,0.0215500608795,-0.00625974979072,0.001,26.9169241001,4300.0,0.0,0.0,0.0
1513267151462957511,,707392,,1513267149,645445376,'',1.36135681656,1.35232180824,-0.0326882978284,-0.00903500831863,0.001,38.8505357701,4300.0,0.0,0.0,0.0
1513267151472907906,,707393,,1513267149,655445376,'',1.36135681656,1.3537094375,-0.00421035554564,-0.00764737905467,0.001,32.8837299351,4300.0,0.0,0.0,0.0
1513267151482871719,,707394,,1513267149,665445376,'',1.36135681656,1.35509706676,0.0215089354928,-0.00625974979072,0.001,26.9169241001,4300.0,0.0,0.0,0.0
1513267151492847109,,707395,,1513267149,675445376,'',1.36135681656,1.35509706676,0.0210984530387,-0.00625974979072,0.001,26.9169241001,4300.0,0.0,0.0,0.0
1513267151502797612,,707396,,1513267149,685445376,'',1.36135681656,1.35648469603,0.0467183970653,-0.00487212052677,0.001,20.9501182651,4300.0,0.0,0.0,0.0
1513267151512734221,,707397,,1513267149,695445376,'',1.36135681656,1.3537094375,-0.00671095977934,-0.00764737905467,0.001,32.8837299351,4300.0,0.0,0.0,0.0
1513267151523224984,,707398,,1513267149,705445376,'',1.36135681656,1.3537094375,-0.00659225227374,-0.00764737905467,0.001,32.8837299351,4300.0,0.0,0.0,0.0
1513267151533229703,,707399,,1513267149,715445376,'',1.36135681656,1.3537094375,-0.00643906698074,-0.00764737905467,0.001,32.8837299351,4300.0,0.0,0.0,0.0
1513267151543039718,,707400,,1513267149,725445376,'',1.36135681656,1.3537094375,-0.00674618566165,-0.00764737905467,0.001,32.8837299351,4300.0,0.0,0.0,0.0
1513267151552997753,,707401,,1513267149,735445376,'',1.36135681656,1.35232180824,-0.0339675073839,-0.00903500831863,0.001,38.8505357701,4300.0,0.0,0.0,0.0
1513267151562861337,,707402,,1513267149,745445376,'',1.36135681656,1.3537094375,-0.00535839778953,-0.00764737905467,0.001,32.8837299351,4300.0,0.0,0.0,0.0
1513267151572786490,,707403,,1513267149,755445376,'',1.36135681656,1.35509706676,0.0215856703416,-0.00625974979072,0.001,26.9169241001,4300.0,0.0,0.0,0.0
1513267151583262603,,707404,,1513267149,765445376,'',1.36135681656,1.3537094375,-0.0067392348321,-0.00764737905467,0.001,32.8837299351,4300.0,0.0,0.0,0.0
1513267151593181088,,707405,,1513267149,775445376,'',1.36135681656,1.3537094375,-0.00648950802041,-0.00764737905467,0.001,32.8837299351,4300.0,0.0,0.0,0.0
1513267151602924770,,707406,,1513267149,785445376,'',1.36135681656,1.3537094375,-0.0067714576208,-0.00764737905467,0.001,32.8837299351,4300.0,0.0,0.0,0.0
1513267151612895879,,707407,,1513267149,795445376,'',1.36135681656,1.35232180824,-0.0320958426552,-0.00903500831863,0.001,38.8505357701,4300.0,0.0,0.0,0.0
1513267151622830348,,707408,,1513267149,805445376,'',1.36135681656,1.3537094375,-0.0048995400983,-0.00764737905467,0.001,32.8837299351,4300.0,0.0,0.0,0.0
1513267151633286807,,707409,,1513267149,815445376,'',1.36135681656,1.3537094375,-0.0055001572978,-0.00764737905467,0.001,32.8837299351,4300.0,0.0,0.0,0.0
1513267151643319237,,707410,,1513267149,825445376,'',1.36135681656,1.3537094375,-0.00703692784062,-0.00764737905467,0.001,32.8837299351,4300.0,0.0,0.0,0.0
1513267151653158441,,707411,,1513267149,835445376,'',1.36135681656,1.3537094375,-0.00730535431026,-0.00764737905467,0.001,32.8837299351,4300.0,0.0,0.0,0.0
1513267151663143724,,707412,,1513267149,845445376,'',1.36135681656,1.35509706676,0.0179759639572,-0.00625974979072,0.001,26.9169241001,4300.0,0.0,0.0,0.0
1513267151673055707,,707413,,1513267149,855445376,'',1.36135681656,1.35509706676,0.0168440983947,-0.00625974979072,0.001,26.9169241001,4300.0,0.0,0.0,0.0
1513267151683054724,,707414,,1513267149,865445376,'',1.36135681656,1.35509706676,0.0169048880893,-0.00625974979072,0.001,26.9169241001,4300.0,0.0,0.0,0.0
1513267151693064767,,707415,,1513267149,875445376,'',1.36135681656,1.35509706676,0.0163493995411,-0.00625974979072,0.001,26.9169241001,4300.0,0.0,0.0,0.0
1513267151702868066,,707416,,1513267149,885445376,'',1.36135681656,1.3537094375,-0.0116589640691,-0.00764737905467,0.001,32.8837299351,4300.0,0.0,0.0,0.0
1513267151712955237,,707417,,1513267149,895445376,'',1.36135681656,1.35232180824,-0.0395712825314,-0.00903500831863,0.001,38.8505357701,4300.0,0.0,0.0,0.0
1513267151723276674,,707418,,1513267149,905445376,'',1.36135681656,1.35509706676,0.0169719081177,-0.00625974979072,0.001,26.9169241001,4300.0,0.0,0.0,0.0
1513267151733285803,,707419,,1513267149,915445376,'',1.36135681656,1.35509706676,0.0168722643626,-0.00625974979072,0.001,26.9169241001,4300.0,0.0,0.0,0.0
1513267151743333474,,707420,,1513267149,925445376,'',1.36135681656,1.3537094375,-0.0110874299582,-0.00764737905467,0.001,32.8837299351,4300.0,0.0,0.0,0.0
1513267151753174730,,707421,,1513267149,935445376,'',1.36135681656,1.3537094375,-0.00904045305165,-0.00764737905467,0.001,32.8837299351,4300.0,0.0,0.0,0.0
1513267151763177498,,707422,,1513267149,945445376,'',1.36135681656,1.3537094375,-0.00795488925276,-0.00764737905467,0.001,32.8837299351,4300.0,0.0,0.0,0.0
1513267151773019699,,707423,,1513267149,955445376,'',1.36135681656,1.3537094375,-0.00956357981692,-0.00764737905467,0.001,32.8837299351,4300.0,0.0,0.0,0.0
1513267151782891701,,707424,,1513267149,965445376,'',1.36135681656,1.3537094375,-0.0103278061949,-0.00764737905467,0.001,32.8837299351,4300.0,0.0,0.0,0.0
1513267151792845197,,707425,,1513267149,975445376,'',1.36135681656,1.35509706676,0.0174344878249,-0.00625974979072,0.001,26.9169241001,4300.0,0.0,0.0,0.0
1513267151803216160,,707426,,1513267149,985445376,'',1.36135681656,1.35509706676,0.017803438473,-0.00625974979072,0.001,26.9169241001,4300.0,0.0,0.0,0.0
1513267151813173796,,707427,,1513267149,995445376,'',1.36135681656,1.3537094375,-0.0104247420292,-0.00764737905467,0.001,32.8837299351,4300.0,0.0,0.0,0.0
1513267151823123856,,707428,,1513267150,5445376,'',1.36135681656,1.3537094375,-0.0100182097315,-0.00764737905467,0.001,32.8837299351,4300.0,0.0,0.0,0.0
1513267151833043117,,707429,,1513267150,15445376,'',1.36135681656,1.35509706676,0.0161782874125,-0.00625974979072,0.001,26.9169241001,4300.0,0.0,0.0,0.0
1513267151843017594,,707430,,1513267150,25445376,'',1.36135681656,1.35509706676,0.0147808517733,-0.00625974979072,0.001,26.9169241001,4300.0,0.0,0.0,0.0
1513267151852778194,,707431,,1513267150,35445376,'',1.36135681656,1.35509706676,0.0121013094314,-0.00625974979072,0.001,26.9169241001,4300.0,0.0,0.0,0.0
1513267151863180189,,707432,,1513267150,45445376,'',1.36135681656,1.35509706676,0.00990610994866,-0.00625974979072,0.001,26.9169241001,4300.0,0.0,0.0,0.0
1513267151873192580,,707433,,1513267150,55445376,'',1.36135681656,1.35648469603,0.0355898651171,-0.00487212052677,0.001,20.9501182651,4300.0,0.0,0.0,0.0
1513267151883056982,,707434,,1513267150,65445376,'',1.36135681656,1.35509706676,0.00571808927635,-0.00625974979072,0.001,26.9169241001,4300.0,0.0,0.0,0.0
1513267151893214710,,707435,,1513267150,75445376,'',1.36135681656,1.35509706676,0.00365080506407,-0.00625974979072,0.001,26.9169241001,4300.0,0.0,0.0,0.0
1513267151903044959,,707436,,1513267150,85445376,'',1.36135681656,1.35509706676,0.00250611477735,-0.00625974979072,0.001,26.9169241001,4300.0,0.0,0.0,0.0
1513267151913067694,,707437,,1513267150,95445376,'',1.36135681656,1.35509706676,0.00053997477938,-0.00625974979072,0.001,26.9169241001,4300.0,0.0,0.0,0.0
1513267151922952500,,707438,,1513267150,105445376,'',1.36135681656,1.35509706676,-0.000565966563459,-0.00625974979072,0.001,26.9169241001,4300.0,0.0,0.0,0.0
1513267151932895470,,707439,,1513267150,115445376,'',1.36135681656,1.35648469603,0.0255486889571,-0.00487212052677,0.001,20.9501182651,4300.0,0.0,0.0,0.0
1513267151942954368,,707440,,1513267150,125445376,'',1.36135681656,1.35648469603,0.0223648463116,-0.00487212052677,0.001,20.9501182651,4300.0,0.0,0.0,0.0
1513267151952816617,,707441,,1513267150,135445376,'',1.36135681656,1.35648469603,0.0188586932236,-0.00487212052677,0.001,20.9501182651,4300.0,0.0,0.0,0.0
1513267151962760693,,707442,,1513267150,145445376,'',1.36135681656,1.35787232529,0.0429196826754,-0.00348449126282,0.001,14.9833124301,4300.0,0.0,0.0,0.0
1513267151973245491,,707443,,1513267150,155445376,'',1.36135681656,1.35648469603,0.0106577167069,-0.00487212052677,0.001,20.9501182651,4300.0,0.0,0.0,0.0
1513267151983028061,,707444,,1513267150,165445376,'',1.36135681656,1.35787232529,0.0331801193994,-0.00348449126282,0.001,14.9833124301,4300.0,0.0,0.0,0.0
1513267151992999419,,707445,,1513267150,175445376,'',1.36135681656,1.35787232529,0.0291651962411,-0.00348449126282,0.001,14.9833124301,4300.0,0.0,0.0,0.0
1513267152002883711,,707446,,1513267150,185445376,'',1.36135681656,1.35925995456,0.053284050379,-0.00209686199886,0.001,9.01650659511,4300.0,0.0,0.0,0.0
1513267152012807858,,707447,,1513267150,195445376,'',1.36135681656,1.35787232529,0.0215946913074,-0.00348449126282,0.001,14.9833124301,4300.0,0.0,0.0,0.0
1513267152022810163,,707448,,1513267150,205445376,'',1.36135681656,1.35787232529,0.017714517283,-0.00348449126282,0.001,14.9833124301,4300.0,0.0,0.0,0.0
1513267152032744383,,707449,,1513267150,215445376,'',1.36135681656,1.35925995456,0.0409396654182,-0.00209686199886,0.001,9.01650659511,4300.0,0.0,0.0,0.0
1513267152043273362,,707450,,1513267150,225445376,'',1.36135681656,1.35925995456,0.0339882781954,-0.00209686199886,0.001,9.01650659511,4300.0,0.0,0.0,0.0
1513267152053183223,,707451,,1513267150,235445376,'',1.36135681656,1.35925995456,0.0283449946898,-0.00209686199886,0.001,9.01650659511,4300.0,0.0,0.0,0.0
1513267152063006744,,707452,,1513267150,245445376,'',1.36135681656,1.35925995456,0.023168272722,-0.00209686199886,0.001,9.01650659511,4300.0,0.0,0.0,0.0
1513267152072840392,,707453,,1513267150,255445376,'',1.36135681656,1.36064758382,0.044470054008,-0.000709232734909,0.001,3.04970076011,4300.0,0.0,0.0,0.0
1513267152082838973,,707454,,1513267150,265445376,'',1.36135681656,1.35925995456,0.0103304151365,0.0,0.001,0.0,4300.0,0.0,0.0,0.0
1513267152092984431,,707455,,1513267150,275445376,'',1.36135681656,1.36203521308,0.0598725527353,0.0,0.001,0.0,4300.0,0.0,0.0,0.0
1513267152102808866,,707456,,1513267150,285445376,'',1.36135681656,1.36064758382,0.0266064927151,0.0,0.001,0.0,4300.0,0.0,0.0,0.0
1513267152112960350,,707457,,1513267150,295445376,'',1.36135681656,1.36064758382,0.0212824568112,0.0,0.001,0.0,4300.0,0.0,0.0,0.0
1513267152122966247,,707458,,1513267150,305445376,'',1.36135681656,1.36064758382,0.0148448663097,0.0,0.001,0.0,4300.0,0.0,0.0,0.0
1513267152132831336,,707459,,1513267150,315445376,'',1.36135681656,1.36203521308,0.0381166735315,0.0,0.001,0.0,4300.0,0.0,0.0,0.0
1513267152143267158,,707460,,1513267150,325445376,'',1.36135681656,1.36203521308,0.0326765871247,0.0,0.001,0.0,4300.0,0.0,0.0,0.0
1513267152153450130,,707461,,1513267150,335445376,'',1.36135681656,1.36203521308,0.0287486712667,0.0,0.001,0.0,4300.0,0.0,0.0,0.0
1513267152163340021,,707462,,1513267150,345445376,'',1.36135681656,1.36203521308,0.0245921611724,0.0,0.001,0.0,4300.0,0.0,0.0,0.0
1513267152173147557,,707463,,1513267150,355445376,'',1.36135681656,1.36342284235,0.0486560368406,0.0,0.001,0.0,4300.0,0.0,0.0,0.0
1513267152183105315,,707464,,1513267150,365445376,'',1.36135681656,1.36342284235,0.0434190281518,0.0,0.001,0.0,4300.0,0.0,0.0,0.0
1513267152192969974,,707465,,1513267150,375445376,'',1.36135681656,1.36203521308,0.0100574741486,0.0,0.001,0.0,4300.0,0.0,0.0,0.0
1513267152203017959,,707466,,1513267150,385445376,'',1.36135681656,1.36342284235,0.0341659894707,0.0,0.001,0.0,4300.0,0.0,0.0,0.0
1513267152212938306,,707467,,1513267150,395445376,'',1.36135681656,1.36203521308,0.00248162689776,0.0,0.001,0.0,4300.0,0.0,0.0,0.0
1513267152222895891,,707468,,1513267150,405445376,'',1.36135681656,1.36203521308,0.000957814868681,0.0,0.001,0.0,4300.0,0.0,0.0,0.0
1513267152232840535,,707469,,1513267150,415445376,'',1.36135681656,1.36203521308,-0.00169137757349,0.0,0.001,0.0,4300.0,0.0,0.0,0.0
1513267152242919937,,707470,,1513267150,425445376,'',1.36135681656,1.36203521308,-0.0029305387562,0.0,0.001,0.0,4300.0,0.0,0.0,0.0
1513267152253313480,,707471,,1513267150,435445376,'',1.36135681656,1.36203521308,-0.00389198575932,0.0,0.001,0.0,4300.0,0.0,0.0,0.0
1513267152263085155,,707472,,1513267150,445445376,'',1.36135681656,1.36342284235,0.0212887606812,0.0,0.001,0.0,4300.0,0.0,0.0,0.0
1513267152272992627,,707473,,1513267150,455445376,'',1.36135681656,1.36203521308,-0.00747084119794,0.0,0.001,0.0,4300.0,0.0,0.0,0.0
1513267152282992960,,707474,,1513267150,465445376,'',1.36135681656,1.36342284235,0.0208450991241,0.0,0.001,0.0,4300.0,0.0,0.0,0.0
1513267152292731913,,707475,,1513267150,475445376,'',1.36135681656,1.36342284235,0.0185648221566,0.0,0.001,0.0,4300.0,0.0,0.0,0.0
1513267152303323954,,707476,,1513267150,485445376,'',1.36135681656,1.36203521308,-0.0112933102145,0.0,0.001,0.0,4300.0,0.0,0.0,0.0
1513267152313196694,,707477,,1513267150,495445376,'',1.36135681656,1.36203521308,-0.0118485079426,0.0,0.001,0.0,4300.0,0.0,0.0,0.0
1513267152323175985,,707478,,1513267150,505445376,'',1.36135681656,1.36342284235,0.0137599239882,0.0,0.001,0.0,4300.0,0.0,0.0,0.0
1513267152332893043,,707479,,1513267150,515445376,'',1.36135681656,1.36342284235,0.0117432546841,0.0,0.001,0.0,4300.0,0.0,0.0,0.0
1513267152343325654,,707480,,1513267150,525445376,'',1.36135681656,1.36481047161,0.0370563586785,0.0,0.001,0.0,4300.0,0.0,0.0,0.0
1513267152353319701,,707481,,1513267150,535445376,'',1.36135681656,1.36342284235,0.00687695804526,0.0,0.001,0.0,4300.0,0.0,0.0,0.0
1513267152363283311,,707482,,1513267150,545445376,'',1.36135681656,1.36342284235,0.00608921242469,0.0,0.001,0.0,4300.0,0.0,0.0,0.0
1513267152373332741,,707483,,1513267150,555445376,'',1.36135681656,1.36342284235,0.00539938745378,0.0,0.001,0.0,4300.0,0.0,0.0,0.0
1513267152383123681,,707484,,1513267150,565445376,'',1.36135681656,1.36342284235,0.00343616219239,0.0,0.001,0.0,4300.0,0.0,0.0,0.0
1513267152392965411,,707485,,1513267150,575445376,'',1.36135681656,1.36342284235,0.00281317147364,0.0,0.001,0.0,4300.0,0.0,0.0,0.0
1513267152402893338,,707486,,1513267150,585445376,'',1.36135681656,1.36481047161,0.0292396848788,0.0,0.001,0.0,4300.0,0.0,0.0,0.0
1513267152413096613,,707487,,1513267150,595445376,'',1.36135681656,1.36481047161,0.0279684161131,0.0,0.001,0.0,4300.0,0.0,0.0,0.0
1513267152423309097,,707488,,1513267150,605445376,'',1.36135681656,1.36342284235,-5.41206306139e-05,0.0,0.001,0.0,4300.0,0.0,0.0,0.0
1513267152432805850,,707489,,1513267150,615445376,'',1.36135681656,1.36342284235,-0.00102496777401,0.0,0.001,0.0,4300.0,0.0,0.0,0.0
1513267152443289448,,707490,,1513267150,625445376,'',1.36135681656,1.36342284235,-0.00190521968702,0.0,0.001,0.0,4300.0,0.0,0.0,0.0
1513267152453352173,,707491,,1513267150,635445376,'',1.36135681656,1.36342284235,-0.00155976556026,0.0,0.001,0.0,4300.0,0.0,0.0,0.0
1513267152463167838,,707492,,1513267150,645445376,'',1.36135681656,1.36342284235,-0.00174661684693,0.0,0.001,0.0,4300.0,0.0,0.0,0.0
1513267152473119606,,707493,,1513267150,655445376,'',1.36135681656,1.36481047161,0.026157403568,0.0,0.001,0.0,4300.0,0.0,0.0,0.0
1513267152483048056,,707494,,1513267150,665445376,'',1.36135681656,1.36481047161,0.0244275123568,0.0,0.001,0.0,4300.0,0.0,0.0,0.0
1513267152493322163,,707495,,1513267150,675445376,'',1.36135681656,1.36342284235,-0.00492024089744,0.0,0.001,0.0,4300.0,0.0,0.0,0.0
1513267152503159486,,707496,,1513267150,685445376,'',1.36135681656,1.36342284235,-0.00608841803616,0.0,0.001,0.0,4300.0,0.0,0.0,0.0
1513267152513440643,,707497,,1513267150,695445376,'',1.36135681656,1.36481047161,0.0198385947433,0.0,0.001,0.0,4300.0,0.0,0.0,0.0
1513267152523223242,,707498,,1513267150,705445376,'',1.36135681656,1.36342284235,-0.00928790294401,0.0,0.001,0.0,4300.0,0.0,0.0,0.0
1513267152533484795,,707499,,1513267150,715445376,'',1.36135681656,1.36342284235,-0.00810371683622,0.0,0.001,0.0,4300.0,0.0,0.0,0.0
1513267152543448528,,707500,,1513267150,725445376,'',1.36135681656,1.36342284235,-0.00966686830536,0.0,0.001,0.0,4300.0,0.0,0.0,0.0
1513267152553490127,,707501,,1513267150,735445376,'',1.36135681656,1.36342284235,-0.0109267897987,0.0,0.001,0.0,4300.0,0.0,0.0,0.0
1513267152563068703,,707502,,1513267150,745445376,'',1.36135681656,1.36342284235,-0.0124990468288,0.0,0.001,0.0,4300.0,0.0,0.0,0.0
1513267152573258546,,707503,,1513267150,755445376,'',1.36135681656,1.36481047161,0.0142269556383,0.0,0.001,0.0,4300.0,0.0,0.0,0.0
1513267152583350247,,707504,,1513267150,765445376,'',1.36135681656,1.36619810088,0.0395658250116,0.0,0.001,0.0,4300.0,0.0,0.0,0.0
1513267152593118947,,707505,,1513267150,775445376,'',1.36135681656,1.36619810088,0.0375158395579,0.0,0.001,0.0,4300.0,0.0,0.0,0.0
1513267152602950176,,707506,,1513267150,785445376,'',1.36135681656,1.36619810088,0.0352299976671,0.0,0.001,0.0,4300.0,0.0,0.0,0.0
1513267152613234748,,707507,,1513267150,795445376,'',1.36135681656,1.36481047161,0.00586930166136,0.0,0.001,0.0,4300.0,0.0,0.0,0.0
1513267152623246760,,707508,,1513267150,805445376,'',1.36135681656,1.36481047161,0.0052993585923,0.0,0.001,0.0,4300.0,0.0,0.0,0.0
1513267152633406514,,707509,,1513267150,815445376,'',1.36135681656,1.36481047161,0.00393944966348,0.0,0.001,0.0,4300.0,0.0,0.0,0.0
1513267152643457180,,707510,,1513267150,825445376,'',1.36135681656,1.36481047161,0.00216608443759,0.0,0.001,0.0,4300.0,0.0,0.0,0.0
1513267152653164869,,707511,,1513267150,835445376,'',1.36135681656,1.36481047161,0.001280830539,0.0,0.001,0.0,4300.0,0.0,0.0,0.0
1513267152663372618,,707512,,1513267150,845445376,'',1.36135681656,1.36619810088,0.0259658420586,0.0,0.001,0.0,4300.0,0.0,0.0,0.0
1513267152672921475,,707513,,1513267150,855445376,'',1.36135681656,1.36481047161,-0.00215716138489,0.0,0.001,0.0,4300.0,0.0,0.0,0.0
1513267152683468177,,707514,,1513267150,865445376,'',1.36135681656,1.36342284235,-0.0300998991106,0.0,0.001,0.0,4300.0,0.0,0.0,0.0
1513267152693334410,,707515,,1513267150,875445376,'',1.36135681656,1.36481047161,-0.00165433971628,0.0,0.001,0.0,4300.0,0.0,0.0,0.0
1513267152703183279,,707516,,1513267150,885445376,'',1.36135681656,1.36481047161,-0.00087645451508,0.0,0.001,0.0,4300.0,0.0,0.0,0.0
1513267152713175209,,707517,,1513267150,895445376,'',1.36135681656,1.36481047161,-0.000202609904181,0.0,0.001,0.0,4300.0,0.0,0.0,0.0
1513267152723069078,,707518,,1513267150,905445376,'',1.36135681656,1.36342284235,-0.0275708769513,0.0,0.001,0.0,4300.0,0.0,0.0,0.0
1513267152733003501,,707519,,1513267150,915445376,'',1.36135681656,1.36342284235,-0.0276089627703,0.0,0.001,0.0,4300.0,0.0,0.0,0.0
1513267152743034961,,707520,,1513267150,925445376,'',1.36135681656,1.36619810088,0.0267264196816,0.0,0.001,0.0,4300.0,0.0,0.0,0.0
1513267152753416728,,707521,,1513267150,935445376,'',1.36135681656,1.36481047161,-0.00210613978231,0.0,0.001,0.0,4300.0,0.0,0.0,0.0
1513267152763373423,,707522,,1513267150,945445376,'',1.36135681656,1.36619810088,0.0242726325136,0.0,0.001,0.0,4300.0,0.0,0.0,0.0
1513267152773293660,,707523,,1513267150,955445376,'',1.36135681656,1.36619810088,0.0228673865172,0.0,0.001,0.0,4300.0,0.0,0.0,0.0
1513267152783432313,,707524,,1513267150,965445376,'',1.36135681656,1.36481047161,-0.00417253820625,0.0,0.001,0.0,4300.0,0.0,0.0,0.0
1513267152793409675,,707525,,1513267150,975445376,'',1.36135681656,1.36481047161,-0.00437895968942,0.0,0.001,0.0,4300.0,0.0,0.0,0.0
1513267152803152952,,707526,,1513267150,985445376,'',1.36135681656,1.36619810088,0.0234019994043,0.0,0.001,0.0,4300.0,0.0,0.0,0.0
1513267152813448814,,707527,,1513267150,995445376,'',1.36135681656,1.36481047161,-0.00529535533689,0.0,0.001,0.0,4300.0,0.0,0.0,0.0
1513267152823298567,,707528,,1513267151,5445376,'',1.36135681656,1.36481047161,-0.0053889137995,0.0,0.001,0.0,4300.0,0.0,0.0,0.0
1513267152833511593,,707529,,1513267151,15445376,'',1.36135681656,1.36619810088,0.0220207479228,0.0,0.001,0.0,4300.0,0.0,0.0,0.0
1513267152843330394,,707530,,1513267151,25445376,'',1.36135681656,1.36481047161,-0.00545943916403,0.0,0.001,0.0,4300.0,0.0,0.0,0.0
1513267152853097525,,707531,,1513267151,35445376,'',1.36135681656,1.36619810088,0.0215454491221,0.0,0.001,0.0,4300.0,0.0,0.0,0.0
1513267152863290100,,707532,,1513267151,45445376,'',1.36135681656,1.36481047161,-0.00536319247929,0.0,0.001,0.0,4300.0,0.0,0.0,0.0
1513267152873251400,,707533,,1513267151,55445376,'',1.36135681656,1.36481047161,-0.00582721072944,0.0,0.001,0.0,4300.0,0.0,0.0,0.0
1513267152883136999,,707534,,1513267151,65445376,'',1.36135681656,1.36481047161,-0.00566863902869,0.0,0.001,0.0,4300.0,0.0,0.0,0.0
1513267152893462305,,707535,,1513267151,75445376,'',1.36135681656,1.36619810088,0.020724831628,0.0,0.001,0.0,4300.0,0.0,0.0,0.0
1513267152903332876,,707536,,1513267151,85445376,'',1.36135681656,1.36619810088,0.0199389877354,0.0,0.001,0.0,4300.0,0.0,0.0,0.0
1513267152913389390,,707537,,1513267151,95445376,'',1.36135681656,1.36619810088,0.0177535333479,0.0,0.001,0.0,4300.0,0.0,0.0,0.0
1513267152923085583,,707538,,1513267151,105445376,'',1.36135681656,1.36481047161,-0.0109863975276,0.0,0.001,0.0,4300.0,0.0,0.0,0.0
1513267152932908418,,707539,,1513267151,115445376,'',1.36135681656,1.36619810088,0.0144210101168,0.0,0.001,0.0,4300.0,0.0,0.0,0.0
1513267152943817287,,707540,,1513267151,125445376,'',1.36135681656,1.36481047161,-0.0136581535708,0.0,0.001,0.0,4300.0,0.0,0.0,0.0
1513267152953399331,,707541,,1513267151,135445376,'',1.36135681656,1.36481047161,-0.013962028015,0.0,0.001,0.0,4300.0,0.0,0.0,0.0
1513267152963369351,,707542,,1513267151,145445376,'',1.36135681656,1.36619810088,0.0120303528111,0.0,0.001,0.0,4300.0,0.0,0.0,0.0
1513267152973416239,,707543,,1513267151,155445376,'',1.36135681656,1.36619810088,0.0118966083163,0.0,0.001,0.0,4300.0,0.0,0.0,0.0
1513267152983490094,,707544,,1513267151,165445376,'',1.36135681656,1.36619810088,0.0118180532972,0.0,0.001,0.0,4300.0,0.0,0.0,0.0
1513267152993534500,,707545,,1513267151,175445376,'',1.36135681656,1.36619810088,0.0117056622564,0.0,0.001,0.0,4300.0,0.0,0.0,0.0
1513267153003451092,,707546,,1513267151,185445376,'',1.36135681656,1.36619810088,0.0110269516662,0.0,0.001,0.0,4300.0,0.0,0.0,0.0
1513267153013396415,,707547,,1513267151,195445376,'',1.36135681656,1.36619810088,0.0109527849961,0.0,0.001,0.0,4300.0,0.0,0.0,0.0
1513267153023328398,,707548,,1513267151,205445376,'',1.36135681656,1.36481047161,-0.0170854144837,0.0,0.001,0.0,4300.0,0.0,0.0,0.0
1513267153033347957,,707549,,1513267151,215445376,'',1.36135681656,1.36481047161,-0.0185434672193,0.0,0.001,0.0,4300.0,0.0,0.0,0.0
1513267153043057054,,707550,,1513267151,225445376,'',1.36135681656,1.36481047161,-0.0171826274914,0.0,0.001,0.0,4300.0,0.0,0.0,0.0
1513267153053355859,,707551,,1513267151,235445376,'',1.36135681656,1.36481047161,-0.0165194158448,0.0,0.001,0.0,4300.0,0.0,0.0,0.0
1513267153063403468,,707552,,1513267151,245445376,'',1.36135681656,1.36342284235,-0.0440769145116,0.0,0.001,0.0,4300.0,0.0,0.0,0.0
1513267153073148549,,707553,,1513267151,255445376,'',1.36135681656,1.36758573014,0.038285577721,0.0,0.001,0.0,4300.0,0.0,0.0,0.0
1513267153083222809,,707554,,1513267151,265445376,'',1.36135681656,1.36619810088,0.00992722303023,0.0,0.001,0.0,4300.0,0.0,0.0,0.0
1513267153093088644,,707555,,1513267151,275445376,'',1.36135681656,1.36619810088,0.00958560474235,0.0,0.001,0.0,4300.0,0.0,0.0,0.0
1513267153103144489,,707556,,1513267151,285445376,'',1.36135681656,1.36619810088,0.00887522194708,0.0,0.001,0.0,4300.0,0.0,0.0,0.0
1513267153113038933,,707557,,1513267151,295445376,'',1.36135681656,1.36481047161,-0.020242546974,0.0,0.001,0.0,4300.0,0.0,0.0,0.0
1513267153123438840,,707558,,1513267151,305445376,'',1.36135681656,1.36481047161,-0.0191740637752,0.0,0.001,0.0,4300.0,0.0,0.0,0.0
1513267153133318365,,707559,,1513267151,315445376,'',1.36135681656,1.36619810088,0.00819437915534,0.0,0.001,0.0,4300.0,0.0,0.0,0.0
1513267153143313734,,707560,,1513267151,325445376,'',1.36135681656,1.36619810088,0.00668352202023,0.0,0.001,0.0,4300.0,0.0,0.0,0.0
1513267153153239246,,707561,,1513267151,335445376,'',1.36135681656,1.36619810088,0.00492399606836,0.0,0.001,0.0,4300.0,0.0,0.0,0.0
1513267153163039903,,707562,,1513267151,345445376,'',1.36135681656,1.36619810088,0.00564531555795,0.0,0.001,0.0,4300.0,0.0,0.0,0.0
1513267153173324002,,707563,,1513267151,355445376,'',1.36135681656,1.36619810088,0.0056789180914,0.0,0.001,0.0,4300.0,0.0,0.0,0.0
1513267153183481415,,707564,,1513267151,365445376,'',1.36135681656,1.36481047161,-0.0233417192425,0.0,0.001,0.0,4300.0,0.0,0.0,0.0
1513267153193060553,,707565,,1513267151,375445376,'',1.36135681656,1.36619810088,0.00479972453881,0.0,0.001,0.0,4300.0,0.0,0.0,0.0
1513267153203016936,,707566,,1513267151,385445376,'',1.36135681656,1.36619810088,0.00392904580072,0.0,0.001,0.0,4300.0,0.0,0.0,0.0
1513267153213105971,,707567,,1513267151,395445376,'',1.36135681656,1.36619810088,0.00468242905353,0.0,0.001,0.0,4300.0,0.0,0.0,0.0
1513267153223037928,,707568,,1513267151,405445376,'',1.36135681656,1.36619810088,0.00430179618714,0.0,0.001,0.0,4300.0,0.0,0.0,0.0
1513267153233825166,,707569,,1513267151,415445376,'',1.36135681656,1.36619810088,0.00493607708479,0.0,0.001,0.0,4300.0,0.0,0.0,0.0
1513267153243422826,,707570,,1513267151,425445376,'',1.36135681656,1.36619810088,0.00498361946808,0.0,0.001,0.0,4300.0,0.0,0.0,0.0
1513267153253292885,,707571,,1513267151,435445376,'',1.36135681656,1.36619810088,0.00461098078527,0.0,0.001,0.0,4300.0,0.0,0.0,0.0
1513267153263175489,,707572,,1513267151,445445376,'',1.36135681656,1.36619810088,0.0038078564047,0.0,0.001,0.0,4300.0,0.0,0.0,0.0
1513267153273064647,,707573,,1513267151,455445376,'',1.36135681656,1.36619810088,0.00412055796654,0.0,0.001,0.0,4300.0,0.0,0.0,0.0
1513267153283242462,,707574,,1513267151,465445376,'',1.36135681656,1.36619810088,0.002423737932,0.0,0.001,0.0,4300.0,0.0,0.0,0.0
1513267153293484084,,707575,,1513267151,475445376,'',1.36135681656,1.36619810088,0.00250364338622,0.0,0.001,0.0,4300.0,0.0,0.0,0.0
1513267153303497936,,707576,,1513267151,485445376,'',1.36135681656,1.36619810088,0.00204973203956,0.0,0.001,0.0,4300.0,0.0,0.0,0.0
1513267153313011471,,707577,,1513267151,495445376,'',1.36135681656,1.36619810088,0.00122133269488,0.0,0.001,0.0,4300.0,0.0,0.0,0.0
1513267153323271311,,707578,,1513267151,505445376,'',1.36135681656,1.36619810088,0.000999880847374,0.0,0.001,0.0,4300.0,0.0,0.0,0.0
1513267153333250868,,707579,,1513267151,515445376,'',1.36135681656,1.36619810088,0.000275959153651,0.0,0.001,0.0,4300.0,0.0,0.0,0.0
1513267153342986660,,707580,,1513267151,525445376,'',1.36135681656,1.36758573014,0.0271829573269,0.0,0.001,0.0,4300.0,0.0,0.0,0.0
1513267153353365377,,707581,,1513267151,535445376,'',1.36135681656,1.36758573014,0.0262071829525,0.0,0.001,0.0,4300.0,0.0,0.0,0.0
1513267153363536527,,707582,,1513267151,545445376,'',1.36135681656,1.36481047161,-0.0309721868371,0.0,0.001,0.0,4300.0,0.0,0.0,0.0
1513267153373298921,,707583,,1513267151,555445376,'',1.36135681656,1.36619810088,-0.00292484420748,0.0,0.001,0.0,4300.0,0.0,0.0,0.0
1513267153383095285,,707584,,1513267151,565445376,'',1.36135681656,1.36619810088,-0.0028630779477,0.0,0.001,0.0,4300.0,0.0,0.0,0.0
1513267153393205735,,707585,,1513267151,575445376,'',1.36135681656,1.36758573014,0.0235561890926,0.0,0.001,0.0,4300.0,0.0,0.0,0.0
1513267153402924648,,707586,,1513267151,585445376,'',1.36135681656,1.36619810088,-0.00620270027439,0.0,0.001,0.0,4300.0,0.0,0.0,0.0
1513267153413232840,,707587,,1513267151,595445376,'',1.36135681656,1.36619810088,-0.00557401378028,0.0,0.001,0.0,4300.0,0.0,0.0,0.0
1513267153423102424,,707588,,1513267151,605445376,'',1.36135681656,1.36758573014,0.0225018146691,0.0,0.001,0.0,4300.0,0.0,0.0,0.0
1513267153433009482,,707589,,1513267151,615445376,'',1.36135681656,1.36619810088,-0.00500092820604,0.0,0.001,0.0,4300.0,0.0,0.0,0.0
1513267153442824584,,707590,,1513267151,625445376,'',1.36135681656,1.36619810088,-0.00556848031617,0.0,0.001,0.0,4300.0,0.0,0.0,0.0
1513267153453289991,,707591,,1513267151,635445376,'',1.36135681656,1.36619810088,-0.00455871741075,0.0,0.001,0.0,4300.0,0.0,0.0,0.0
1513267153463089981,,707592,,1513267151,645445376,'',1.36135681656,1.36619810088,-0.00633856666148,0.0,0.001,0.0,4300.0,0.0,0.0,0.0
1513267153472820670,,707593,,1513267151,655445376,'',1.36135681656,1.36758573014,0.0198179038673,0.0,0.001,0.0,4300.0,0.0,0.0,0.0
1513267153483037861,,707594,,1513267151,665445376,'',1.36135681656,1.36619810088,-0.00821073193536,0.0,0.001,0.0,4300.0,0.0,0.0,0.0
1513267153493289702,,707595,,1513267151,675445376,'',1.36135681656,1.36619810088,-0.00826461868621,0.0,0.001,0.0,4300.0,0.0,0.0,0.0
1513267153503320934,,707596,,1513267151,685445376,'',1.36135681656,1.36758573014,0.0181807411964,0.0,0.001,0.0,4300.0,0.0,0.0,0.0
1513267153513241733,,707597,,1513267151,695445376,'',1.36135681656,1.36758573014,0.0178382256896,0.0,0.001,0.0,4300.0,0.0,0.0,0.0
1513267153523150000,,707598,,1513267151,705445376,'',1.36135681656,1.36619810088,-0.00878033431202,0.0,0.001,0.0,4300.0,0.0,0.0,0.0
1513267153533101598,,707599,,1513267151,715445376,'',1.36135681656,1.36619810088,-0.0111915488104,0.0,0.001,0.0,4300.0,0.0,0.0,0.0
1513267153543022775,,707600,,1513267151,725445376,'',1.36135681656,1.36758573014,0.0163389131697,0.0,0.001,0.0,4300.0,0.0,0.0,0.0
1513267153552872608,,707601,,1513267151,735445376,'',1.36135681656,1.36619810088,-0.0105271094524,0.0,0.001,0.0,4300.0,0.0,0.0,0.0
1513267153562987927,,707602,,1513267151,745445376,'',1.36135681656,1.36758573014,0.0172953501836,0.0,0.001,0.0,4300.0,0.0,0.0,0.0
1513267153572835273,,707603,,1513267151,755445376,'',1.36135681656,1.36619810088,-0.0107377275626,0.0,0.001,0.0,4300.0,0.0,0.0,0.0
1513267153583237964,,707604,,1513267151,765445376,'',1.36135681656,1.36758573014,0.0151949329182,0.0,0.001,0.0,4300.0,0.0,0.0,0.0
1513267153593174045,,707605,,1513267151,775445376,'',1.36135681656,1.36758573014,0.0139549645003,0.0,0.001,0.0,4300.0,0.0,0.0,0.0
1513267153603064667,,707606,,1513267151,785445376,'',1.36135681656,1.36758573014,0.0134743513379,0.0,0.001,0.0,4300.0,0.0,0.0,0.0
1513267153612983510,,707607,,1513267151,795445376,'',1.36135681656,1.36758573014,0.0124807964936,0.0,0.001,0.0,4300.0,0.0,0.0,0.0
1513267153623082172,,707608,,1513267151,805445376,'',1.36135681656,1.36758573014,0.0127344429541,0.0,0.001,0.0,4300.0,0.0,0.0,0.0
1513267153632814435,,707609,,1513267151,815445376,'',1.36135681656,1.36758573014,0.0119404765697,0.0,0.001,0.0,4300.0,0.0,0.0,0.0
1513267153643239332,,707610,,1513267151,825445376,'',1.36135681656,1.36758573014,0.0108368178073,0.0,0.001,0.0,4300.0,0.0,0.0,0.0
1513267153653074583,,707611,,1513267151,835445376,'',1.36135681656,1.36758573014,0.00982900024769,0.0,0.001,0.0,4300.0,0.0,0.0,0.0
1513267153663149881,,707612,,1513267151,845445376,'',1.36135681656,1.36758573014,0.00961268779481,0.0,0.001,0.0,4300.0,0.0,0.0,0.0
1513267153673001893,,707613,,1513267151,855445376,'',1.36135681656,1.36758573014,0.00940795726616,0.0,0.001,0.0,4300.0,0.0,0.0,0.0
1513267153682947312,,707614,,1513267151,865445376,'',1.36135681656,1.36758573014,0.00921853115422,0.0,0.001,0.0,4300.0,0.0,0.0,0.0
1513267153692874683,,707615,,1513267151,875445376,'',1.36135681656,1.36758573014,0.00902238682812,0.0,0.001,0.0,4300.0,0.0,0.0,0.0
1513267153703409522,,707616,,1513267151,885445376,'',1.36135681656,1.36758573014,0.00837485367907,0.0,0.001,0.0,4300.0,0.0,0.0,0.0
1513267153713403563,,707617,,1513267151,895445376,'',1.36135681656,1.36619810088,-0.0196398917586,0.0,0.001,0.0,4300.0,0.0,0.0,0.0
1513267153723254557,,707618,,1513267151,905445376,'',1.36135681656,1.36619810088,-0.019057427166,0.0,0.001,0.0,4300.0,0.0,0.0,0.0
1513267153733201391,,707619,,1513267151,915445376,'',1.36135681656,1.36619810088,-0.0196521537833,0.0,0.001,0.0,4300.0,0.0,0.0,0.0
1513267153743082537,,707620,,1513267151,925445376,'',1.36135681656,1.36619810088,-0.0206210408343,0.0,0.001,0.0,4300.0,0.0,0.0,0.0
1513267153753248159,,707621,,1513267151,935445376,'',1.36135681656,1.36758573014,0.00753375581734,0.0,0.001,0.0,4300.0,0.0,0.0,0.0
1513267153763077815,,707622,,1513267151,945445376,'',1.36135681656,1.36619810088,-0.0208682580223,0.0,0.001,0.0,4300.0,0.0,0.0,0.0
1513267153772942668,,707623,,1513267151,955445376,'',1.36135681656,1.36758573014,0.00636072033884,0.0,0.001,0.0,4300.0,0.0,0.0,0.0
1513267153783748929,,707624,,1513267151,965445376,'',1.36135681656,1.36758573014,0.00623534388624,0.0,0.001,0.0,4300.0,0.0,0.0,0.0
1513267153793644207,,707625,,1513267151,975445376,'',1.36135681656,1.36758573014,0.0071180369701,0.0,0.001,0.0,4300.0,0.0,0.0,0.0
1513267153803356657,,707626,,1513267151,985445376,'',1.36135681656,1.36758573014,0.00735438749305,0.0,0.001,0.0,4300.0,0.0,0.0,0.0
1513267153813410035,,707627,,1513267151,995445376,'',1.36135681656,1.36619810088,-0.021967810155,0.0,0.001,0.0,4300.0,0.0,0.0,0.0
1513267153823050614,,707628,,1513267152,5445376,'',1.36135681656,1.3689733594,0.0324477336143,0.0,0.001,0.0,4300.0,0.0,0.0,0.0
1513267153833480546,,707629,,1513267152,15445376,'',1.36135681656,1.36758573014,0.00361389721195,0.0,0.001,0.0,4300.0,0.0,0.0,0.0
1513267153843460304,,707630,,1513267152,25445376,'',1.36135681656,1.36758573014,0.00394894170558,0.0,0.001,0.0,4300.0,0.0,0.0,0.0
1513267153853495093,,707631,,1513267152,35445376,'',1.36135681656,1.3689733594,0.0302691943507,0.0,0.001,0.0,4300.0,0.0,0.0,0.0
1513267153863458553,,707632,,1513267152,45445376,'',1.36135681656,1.36758573014,0.00283191175031,0.0,0.001,0.0,4300.0,0.0,0.0,0.0
1513267153873387489,,707633,,1513267152,55445376,'',1.36135681656,1.36758573014,0.00381854274687,0.0,0.001,0.0,4300.0,0.0,0.0,0.0
1513267153883255257,,707634,,1513267152,65445376,'',1.36135681656,1.36758573014,0.00512068825547,0.0,0.001,0.0,4300.0,0.0,0.0,0.0
1513267153893395676,,707635,,1513267152,75445376,'',1.36135681656,1.36758573014,0.00414911147884,0.0,0.001,0.0,4300.0,0.0,0.0,0.0
1513267153903176489,,707636,,1513267152,85445376,'',1.36135681656,1.36758573014,0.00437345669433,0.0,0.001,0.0,4300.0,0.0,0.0,0.0
1513267153913155124,,707637,,1513267152,95445376,'',1.36135681656,1.36758573014,0.00356499989703,0.0,0.001,0.0,4300.0,0.0,0.0,0.0
1513267153923048853,,707638,,1513267152,105445376,'',1.36135681656,1.36758573014,0.00388178060941,0.0,0.001,0.0,4300.0,0.0,0.0,0.0
1513267153933478294,,707639,,1513267152,115445376,'',1.36135681656,1.36758573014,0.00480550000691,0.0,0.001,0.0,4300.0,0.0,0.0,0.0
1513267153943381761,,707640,,1513267152,125445376,'',1.36135681656,1.36758573014,0.00348489880761,0.0,0.001,0.0,4300.0,0.0,0.0,0.0
1513267153953199249,,707641,,1513267152,135445376,'',1.36135681656,1.3689733594,0.0298136499405,0.0,0.001,0.0,4300.0,0.0,0.0,0.0
1513267153963210248,,707642,,1513267152,145445376,'',1.36135681656,1.36758573014,0.000938643511039,0.0,0.001,0.0,4300.0,0.0,0.0,0.0
1513267153973203602,,707643,,1513267152,155445376,'',1.36135681656,1.36758573014,0.000715631351021,0.0,0.001,0.0,4300.0,0.0,0.0,0.0
1513267153983675697,,707644,,1513267152,165445376,'',1.36135681656,1.36758573014,0.000570633360793,0.0,0.001,0.0,4300.0,0.0,0.0,0.0
1513267153993380970,,707645,,1513267152,175445376,'',1.36135681656,1.3689733594,0.0264152251681,0.0,0.001,0.0,4300.0,0.0,0.0,0.0
1513267154003453317,,707646,,1513267152,185445376,'',1.36135681656,1.3689733594,0.0255779792637,0.0,0.001,0.0,4300.0,0.0,0.0,0.0
1513267154013229284,,707647,,1513267152,195445376,'',1.36135681656,1.36758573014,-0.00299927836958,0.0,0.001,0.0,4300.0,0.0,0.0,0.0
1513267154023169535,,707648,,1513267152,205445376,'',1.36135681656,1.36758573014,-0.00192545761375,0.0,0.001,0.0,4300.0,0.0,0.0,0.0
1513267154033055987,,707649,,1513267152,215445376,'',1.36135681656,1.36758573014,-0.00210426046453,0.0,0.001,0.0,4300.0,0.0,0.0,0.0
1513267154043377178,,707650,,1513267152,225445376,'',1.36135681656,1.36758573014,-0.00270850100057,0.0,0.001,0.0,4300.0,0.0,0.0,0.0
1513267154053219664,,707651,,1513267152,235445376,'',1.36135681656,1.36758573014,-0.0016467297954,0.0,0.001,0.0,4300.0,0.0,0.0,0.0
1513267154063373689,,707652,,1513267152,245445376,'',1.36135681656,1.3689733594,0.0256660392605,0.0,0.001,0.0,4300.0,0.0,0.0,0.0
1513267154073419419,,707653,,1513267152,255445376,'',1.36135681656,1.36758573014,-0.00289286637038,0.0,0.001,0.0,4300.0,0.0,0.0,0.0
1513267154083077864,,707654,,1513267152,265445376,'',1.36135681656,1.36758573014,-0.00189449592337,0.0,0.001,0.0,4300.0,0.0,0.0,0.0
1513267154093286466,,707655,,1513267152,275445376,'',1.36135681656,1.36758573014,-0.00253994743136,0.0,0.001,0.0,4300.0,0.0,0.0,0.0
1513267154103335087,,707656,,1513267152,285445376,'',1.36135681656,1.36758573014,-0.00399304480823,0.0,0.001,0.0,4300.0,0.0,0.0,0.0
1513267154113420218,,707657,,1513267152,295445376,'',1.36135681656,1.36758573014,-0.00525005089429,0.0,0.001,0.0,4300.0,0.0,0.0,0.0
1513267154123201938,,707658,,1513267152,305445376,'',1.36135681656,1.36758573014,-0.00577067221787,0.0,0.001,0.0,4300.0,0.0,0.0,0.0
1513267154133622623,,707659,,1513267152,315445376,'',1.36135681656,1.36619810088,-0.0311922035697,0.0,0.001,0.0,4300.0,0.0,0.0,0.0
1513267154143412121,,707660,,1513267152,325445376,'',1.36135681656,1.3689733594,0.0238707796964,0.0,0.001,0.0,4300.0,0.0,0.0,0.0
1513267154153590627,,707661,,1513267152,335445376,'',1.36135681656,1.3689733594,0.0240668663759,0.0,0.001,0.0,4300.0,0.0,0.0,0.0
1513267154163158080,,707662,,1513267152,345445376,'',1.36135681656,1.3689733594,0.0228150240351,0.0,0.001,0.0,4300.0,0.0,0.0,0.0
1513267154173234544,,707663,,1513267152,355445376,'',1.36135681656,1.3689733594,0.0216835448178,0.0,0.001,0.0,4300.0,0.0,0.0,0.0
1513267154183284532,,707664,,1513267152,365445376,'',1.36135681656,1.3689733594,0.0207223048446,0.0,0.001,0.0,4300.0,0.0,0.0,0.0
1513267154193410697,,707665,,1513267152,375445376,'',1.36135681656,1.3689733594,0.0209804006211,0.0,0.001,0.0,4300.0,0.0,0.0,0.0
1513267154203298346,,707666,,1513267152,385445376,'',1.36135681656,1.36758573014,-0.00629433771599,0.0,0.001,0.0,4300.0,0.0,0.0,0.0
1513267154213262910,,707667,,1513267152,395445376,'',1.36135681656,1.36758573014,-0.00674350974584,0.0,0.001,0.0,4300.0,0.0,0.0,0.0
1513267154222961893,,707668,,1513267152,405445376,'',1.36135681656,1.36758573014,-0.00806638184243,0.0,0.001,0.0,4300.0,0.0,0.0,0.0
1513267154233255296,,707669,,1513267152,415445376,'',1.36135681656,1.36758573014,-0.00660353487644,0.0,0.001,0.0,4300.0,0.0,0.0,0.0
1513267154243186274,,707670,,1513267152,425445376,'',1.36135681656,1.36758573014,-0.00588615427478,0.0,0.001,0.0,4300.0,0.0,0.0,0.0
1513267154253443108,,707671,,1513267152,435445376,'',1.36135681656,1.36758573014,-0.00628441555623,0.0,0.001,0.0,4300.0,0.0,0.0,0.0
1513267154263033610,,707672,,1513267152,445445376,'',1.36135681656,1.3689733594,0.0213323503587,0.0,0.001,0.0,4300.0,0.0,0.0,0.0
1513267154273024455,,707673,,1513267152,455445376,'',1.36135681656,1.36758573014,-0.00749232751865,0.0,0.001,0.0,4300.0,0.0,0.0,0.0
1513267154283153885,,707674,,1513267152,465445376,'',1.36135681656,1.36758573014,-0.00774398735312,0.0,0.001,0.0,4300.0,0.0,0.0,0.0
1513267154292943728,,707675,,1513267152,475445376,'',1.36135681656,1.37036098867,0.0481683041293,0.0,0.001,0.0,4300.0,0.0,0.0,0.0
1513267154303406211,,707676,,1513267152,485445376,'',1.36135681656,1.36758573014,-0.00650757443317,0.0,0.001,0.0,4300.0,0.0,0.0,0.0
1513267154313468559,,707677,,1513267152,495445376,'',1.36135681656,1.36758573014,-0.00634685130432,0.0,0.001,0.0,4300.0,0.0,0.0,0.0
1513267154323226634,,707678,,1513267152,505445376,'',1.36135681656,1.36758573014,-0.00717282672797,0.0,0.001,0.0,4300.0,0.0,0.0,0.0
1513267154333421281,,707679,,1513267152,515445376,'',1.36135681656,1.36758573014,-0.00732581802123,0.0,0.001,0.0,4300.0,0.0,0.0,0.0
1513267154343260304,,707680,,1513267152,525445376,'',1.36135681656,1.36758573014,-0.00646707400978,0.0,0.001,0.0,4300.0,0.0,0.0,0.0
1513267154353312950,,707681,,1513267152,535445376,'',1.36135681656,1.36758573014,-0.0058301310197,0.0,0.001,0.0,4300.0,0.0,0.0,0.0
1513267154362998668,,707682,,1513267152,545445376,'',1.36135681656,1.36758573014,-0.00474603730731,0.0,0.001,0.0,4300.0,0.0,0.0,0.0
1513267154372979073,,707683,,1513267152,555445376,'',1.36135681656,1.36758573014,-0.00544831981404,0.0,0.001,0.0,4300.0,0.0,0.0,0.0
1513267154383342616,,707684,,1513267152,565445376,'',1.36135681656,1.36758573014,-0.00497445969347,0.0,0.001,0.0,4300.0,0.0,0.0,0.0
1513267154393511170,,707685,,1513267152,575445376,'',1.36135681656,1.36758573014,-0.00602713866245,0.0,0.001,0.0,4300.0,0.0,0.0,0.0
1513267154403381590,,707686,,1513267152,585445376,'',1.36135681656,1.3689733594,0.0205162850121,0.0,0.001,0.0,4300.0,0.0,0.0,0.0
1513267154413628304,,707687,,1513267152,595445376,'',1.36135681656,1.3689733594,0.0208029483991,0.0,0.001,0.0,4300.0,0.0,0.0,0.0
1513267154423255052,,707688,,1513267152,605445376,'',1.36135681656,1.36758573014,-0.00591409651245,0.0,0.001,0.0,4300.0,0.0,0.0,0.0
1513267154433390744,,707689,,1513267152,615445376,'',1.36135681656,1.3689733594,0.0206550329863,0.0,0.001,0.0,4300.0,0.0,0.0,0.0
1513267154443059960,,707690,,1513267152,625445376,'',1.36135681656,1.36758573014,-0.00697220081839,0.0,0.001,0.0,4300.0,0.0,0.0,0.0
1513267154453349974,,707691,,1513267152,635445376,'',1.36135681656,1.3689733594,0.020216010213,0.0,0.001,0.0,4300.0,0.0,0.0,0.0
1513267154463509637,,707692,,1513267152,645445376,'',1.36135681656,1.3689733594,0.0199989555024,0.0,0.001,0.0,4300.0,0.0,0.0,0.0
1513267154473456704,,707693,,1513267152,655445376,'',1.36135681656,1.3689733594,0.0193846579899,0.0,0.001,0.0,4300.0,0.0,0.0,0.0
1513267154483625363,,707694,,1513267152,665445376,'',1.36135681656,1.36758573014,-0.00814524469342,0.0,0.001,0.0,4300.0,0.0,0.0,0.0
1513267154493322839,,707695,,1513267152,675445376,'',1.36135681656,1.3689733594,0.020326172248,0.0,0.001,0.0,4300.0,0.0,0.0,0.0
1513267154503228630,,707696,,1513267152,685445376,'',1.36135681656,1.36758573014,-0.00829644199484,0.0,0.001,0.0,4300.0,0.0,0.0,0.0
1513267154513270507,,707697,,1513267152,695445376,'',1.36135681656,1.36619810088,-0.0357371181881,0.0,0.001,0.0,4300.0,0.0,0.0,0.0
1513267154523327993,,707698,,1513267152,705445376,'',1.36135681656,1.36758573014,-0.00883553504861,0.0,0.001,0.0,4300.0,0.0,0.0,0.0
1513267154533168815,,707699,,1513267152,715445376,'',1.36135681656,1.36758573014,-0.010265822685,0.0,0.001,0.0,4300.0,0.0,0.0,0.0
1513267154543332683,,707700,,1513267152,725445376,'',1.36135681656,1.36758573014,-0.00941877132433,0.0,0.001,0.0,4300.0,0.0,0.0,0.0
1513267154553464607,,707701,,1513267152,735445376,'',1.36135681656,1.3689733594,0.0187841299164,0.0,0.001,0.0,4300.0,0.0,0.0,0.0
1513267154563498420,,707702,,1513267152,745445376,'',1.36135681656,1.3689733594,0.0190068609722,0.0,0.001,0.0,4300.0,0.0,0.0,0.0
1513267154573463639,,707703,,1513267152,755445376,'',1.36135681656,1.3689733594,0.0175868923514,0.0,0.001,0.0,4300.0,0.0,0.0,0.0
1513267154583227272,,707704,,1513267152,765445376,'',1.36135681656,1.36758573014,-0.0100919809917,0.0,0.001,0.0,4300.0,0.0,0.0,0.0
1513267154593267565,,707705,,1513267152,775445376,'',1.36135681656,1.36758573014,-0.00978739545425,0.0,0.001,0.0,4300.0,0.0,0.0,0.0
