rosbagTimestamp,header,seq,stamp,secs,nsecs,frame_id,set_point,process_value,process_value_dot,error,time_step,command,p,i,d,i_clamp
1513267150803460218,,707318,,1513267148,985445376,'',0.296705972839,0.273963483263,0.00491015771831,-0.0227424895757,0.001,134.986507483,6000.0,0.0,300.0,0.0
1513267150813159783,,707319,,1513267148,995445376,'',0.296705972839,0.273950968921,-0.0101933270501,-0.0227550039179,0.001,139.583195948,6000.0,0.0,300.0,0.0
1513267150822953239,,707320,,1513267149,5445376,'',0.296705972839,0.273912207807,-0.00941234003077,-0.0227937650318,0.001,139.594927376,6000.0,0.0,300.0,0.0
1513267150832932400,,707321,,1513267149,15445376,'',0.296705972839,0.273882128255,-0.00880798328218,-0.0228238445842,0.001,139.600868941,6000.0,0.0,300.0,0.0
1513267150842958053,,707322,,1513267149,25445376,'',0.296705972839,0.273926297862,0.00564536629395,-0.0227796749772,0.001,134.977698202,6000.0,0.0,300.0,0.0
1513267150853252920,,707323,,1513267149,35445376,'',0.296705972839,0.273936264629,0.00544654594723,-0.02276970821,0.001,135.052844965,6000.0,0.0,300.0,0.0
1513267150862831671,,707324,,1513267149,45445376,'',0.296705972839,0.273916048613,0.00585232994212,-0.0227899242258,0.001,134.976829381,6000.0,0.0,300.0,0.0
1513267150872978641,,707325,,1513267149,55445376,'',0.296705972839,0.27394196591,0.00533039190571,-0.0227640069294,0.001,134.972481314,6000.0,0.0,300.0,0.0
1513267150882791328,,707326,,1513267149,65445376,'',0.296705972839,0.273919263899,0.0057846709818,-0.0227867089401,0.001,135.013888944,6000.0,0.0,300.0,0.0
1513267150893218661,,707327,,1513267149,75445376,'',0.296705972839,0.273903807411,0.00609905828252,-0.0228021654284,0.001,134.977554412,6000.0,0.0,300.0,0.0
1513267150903116526,,707328,,1513267149,85445376,'',0.296705972839,0.273930102564,0.00556796562021,-0.0227758702753,0.001,134.979629918,6000.0,0.0,300.0,0.0
1513267150913109425,,707329,,1513267149,95445376,'',0.296705972839,0.273939402542,0.00538371115946,-0.0227665702975,0.001,134.978809075,6000.0,0.0,300.0,0.0
1513267150922894632,,707330,,1513267149,105445376,'',0.296705972839,0.273892185004,-0.00899857575601,-0.0228137878345,0.001,139.599885894,6000.0,0.0,300.0,0.0
1513267150933234429,,707331,,1513267149,115445376,'',0.296705972839,0.273865157522,0.00688115432265,-0.0228408153168,0.001,134.976492041,6000.0,0.0,300.0,0.0
1513267150942796388,,707332,,1513267149,125445376,'',0.296705972839,0.273900916832,0.00615655149827,-0.022805056007,0.001,135.011131876,6000.0,0.0,300.0,0.0
1513267150953139793,,707333,,1513267149,135445376,'',0.296705972839,0.273873184451,-0.00862942096112,-0.0228327883877,0.001,139.48537611,6000.0,0.0,300.0,0.0
1513267150962990083,,707334,,1513267149,145445376,'',0.296705972839,0.273891275454,-0.00899632826444,-0.0228146973853,0.001,139.601751148,6000.0,0.0,300.0,0.0
1513267150972844218,,707335,,1513267149,155445376,'',0.296705972839,0.273894465254,0.00628522411489,-0.0228115075846,0.001,134.931375445,6000.0,0.0,300.0,0.0
1513267150982868540,,707336,,1513267149,165445376,'',0.296705972839,0.273937068182,0.00542458168402,-0.0227689046574,0.001,135.021342917,6000.0,0.0,300.0,0.0
1513267150992802045,,707337,,1513267149,175445376,'',0.296705972839,0.273932793383,0.005524663553,-0.0227731794564,0.001,135.016484092,6000.0,0.0,300.0,0.0
1513267151002776553,,707338,,1513267149,185445376,'',0.296705972839,0.273886058839,-0.00887558235992,-0.0228199140005,0.001,139.542191924,6000.0,0.0,300.0,0.0
1513267151012758770,,707339,,1513267149,195445376,'',0.296705972839,0.273902693623,0.00613415671242,-0.0228032792157,0.001,134.977466499,6000.0,0.0,300.0,0.0
1513267151023280528,,707340,,1513267149,205445376,'',0.296705972839,0.273914967053,-0.00945737464062,-0.0227910057861,0.001,139.595825347,6000.0,0.0,300.0,0.0
1513267151033123064,,707341,,1513267149,215445376,'',0.296705972839,0.273938810622,0.00541087575423,-0.0227671622168,0.001,134.935892436,6000.0,0.0,300.0,0.0
1513267151043040688,,707342,,1513267149,225445376,'',0.296705972839,0.273947498587,0.00523940770001,-0.0227584742517,0.001,134.977987705,6000.0,0.0,300.0,0.0
1513267151052897727,,707343,,1513267149,235445376,'',0.296705972839,0.273965874023,0.00486692930288,-0.0227400988162,0.001,134.979652655,6000.0,0.0,300.0,0.0
1513267151062819715,,707344,,1513267149,245445376,'',0.296705972839,0.273928351357,0.00562366291769,-0.0227776214824,0.001,134.979491694,6000.0,0.0,300.0,0.0
1513267151072773401,,707345,,1513267149,255445376,'',0.296705972839,0.273869288195,-0.00852946918533,-0.0228366846442,0.001,139.537887608,6000.0,0.0,300.0,0.0
1513267151083253247,,707346,,1513267149,265445376,'',0.296705972839,0.273861387748,0.00697019306994,-0.022844585091,0.001,134.969682826,6000.0,0.0,300.0,0.0
1513267151093174284,,707347,,1513267149,275445376,'',0.296705972839,0.273841337243,-0.00797280096771,-0.0228646355963,0.001,139.596934826,6000.0,0.0,300.0,0.0
1513267151103098397,,707348,,1513267149,285445376,'',0.296705972839,0.273894578064,0.00629272853943,-0.0228113947751,0.001,134.97500934,6000.0,0.0,300.0,0.0
1513267151113117373,,707349,,1513267149,295445376,'',0.296705972839,0.273854043045,-0.00823233461472,-0.0228519297936,0.001,139.601136907,6000.0,0.0,300.0,0.0
1513267151123102309,,707350,,1513267149,305445376,'',0.296705972839,0.273849342482,-0.00813401845666,-0.0228566303567,0.001,139.603003191,6000.0,0.0,300.0,0.0
1513267151132760492,,707351,,1513267149,315445376,'',0.296705972839,0.273900140882,0.00618555401927,-0.0228058319573,0.001,135.016952713,6000.0,0.0,300.0,0.0
1513267151142803799,,707352,,1513267149,325445376,'',0.296705972839,0.273955552385,0.00506399036087,-0.0227504204542,0.001,134.981638702,6000.0,0.0,300.0,0.0
1513267151152713554,,707353,,1513267149,335445376,'',0.296705972839,0.273986463075,0.00444178169885,-0.0227195097636,0.001,134.97607712,6000.0,0.0,300.0,0.0
1513267151163131769,,707354,,1513267149,345445376,'',0.296705972839,0.273944896852,0.00527875779749,-0.022761075987,0.001,134.976229086,6000.0,0.0,300.0,0.0
1513267151172957336,,707355,,1513267149,355445376,'',0.296705972839,0.273966765144,0.00483922536244,-0.0227392076953,0.001,134.981128581,6000.0,0.0,300.0,0.0
1513267151182867827,,707356,,1513267149,365445376,'',0.296705972839,0.273954543337,-0.0102604940687,-0.0227514295016,0.001,139.604885032,6000.0,0.0,300.0,0.0
1513267151192734209,,707357,,1513267149,375445376,'',0.296705972839,0.273957838348,-0.0103254554979,-0.0227481344906,0.001,139.539478196,6000.0,0.0,300.0,0.0
1513267151203190519,,707358,,1513267149,385445376,'',0.296705972839,0.273918332406,-0.00952721993004,-0.0227876404332,0.001,139.532705708,6000.0,0.0,300.0,0.0
1513267151213084807,,707359,,1513267149,395445376,'',0.296705972839,0.273914635728,-0.00944689639109,-0.0227913371106,0.001,139.606739232,6000.0,0.0,300.0,0.0
1513267151223086767,,707360,,1513267149,405445376,'',0.296705972839,0.273897847097,-0.00911202095302,-0.0228081257417,0.001,139.599747936,6000.0,0.0,300.0,0.0
1513267151233005301,,707361,,1513267149,415445376,'',0.296705972839,0.27391285231,0.00592393332284,-0.0227931205288,0.001,134.978268336,6000.0,0.0,300.0,0.0
1513267151242961190,,707362,,1513267149,425445376,'',0.296705972839,0.273939227523,0.00539290803422,-0.0227667453159,0.001,134.977238286,6000.0,0.0,300.0,0.0
1513267151253039973,,707363,,1513267149,435445376,'',0.296705972839,0.273974406959,0.00468065639534,-0.0227315658795,0.001,134.981438731,6000.0,0.0,300.0,0.0
1513267151262850234,,707364,,1513267149,445445376,'',0.296705972839,0.274016359774,0.0038318143568,-0.0226896130651,0.001,134.982844953,6000.0,0.0,300.0,0.0
1513267151273292179,,707365,,1513267149,455445376,'',0.296705972839,0.273994538035,-0.0110701577114,-0.0227114348039,0.001,139.530890523,6000.0,0.0,300.0,0.0
1513267151283257357,,707366,,1513267149,465445376,'',0.296705972839,0.273992843202,0.00430472218619,-0.0227131296374,0.001,134.984582109,6000.0,0.0,300.0,0.0
1513267151293150407,,707367,,1513267149,475445376,'',0.296705972839,0.273988267851,-0.0109467415607,-0.0227177049884,0.001,139.61110564,6000.0,0.0,300.0,0.0
1513267151303021452,,707368,,1513267149,485445376,'',0.296705972839,0.273959204308,-0.0103658818275,-0.0227467685313,0.001,139.60530735,6000.0,0.0,300.0,0.0
1513267151313015291,,707369,,1513267149,495445376,'',0.296705972839,0.273947785574,0.00521094219428,-0.0227581872649,0.001,134.979519698,6000.0,0.0,300.0,0.0
1513267151322836793,,707370,,1513267149,505445376,'',0.296705972839,0.273953430477,0.00509920264551,-0.0227525423621,0.001,135.007612388,6000.0,0.0,300.0,0.0
1513267151332828010,,707371,,1513267149,515445376,'',0.296705972839,0.273958806648,0.00499467849456,-0.0227471661914,0.001,135.045299589,6000.0,0.0,300.0,0.0
1513267151342795597,,707372,,1513267149,525445376,'',0.296705972839,0.273949140199,0.00518879847832,-0.0227568326405,0.001,134.976638338,6000.0,0.0,300.0,0.0
1513267151353216910,,707373,,1513267149,535445376,'',0.296705972839,0.273939717235,0.00537471772094,-0.0227662556045,0.001,134.980388815,6000.0,0.0,300.0,0.0
1513267151363269508,,707374,,1513267149,545445376,'',0.296705972839,0.273906501462,0.00603458775943,-0.0227994713771,0.001,135.023613346,6000.0,0.0,300.0,0.0
1513267151373170675,,707375,,1513267149,555445376,'',0.296705972839,0.273932802086,0.00550917789832,-0.0227731707529,0.001,135.014890875,6000.0,0.0,300.0,0.0
1513267151383139792,,707376,,1513267149,565445376,'',0.296705972839,0.273914265277,0.00588858837078,-0.0227917075625,0.001,134.974976523,6000.0,0.0,300.0,0.0
1513267151392954607,,707377,,1513267149,575445376,'',0.296705972839,0.273941401899,0.00534035119519,-0.0227645709402,0.001,134.972419508,6000.0,0.0,300.0,0.0
1513267151402934649,,707378,,1513267149,585445376,'',0.296705972839,0.273907225517,-0.0093125702033,-0.022798747322,0.001,139.544754999,6000.0,0.0,300.0,0.0
1513267151412892710,,707379,,1513267149,595445376,'',0.296705972839,0.273891390822,0.00635367655636,-0.0228145820171,0.001,135.013270924,6000.0,0.0,300.0,0.0
1513267151422815806,,707380,,1513267149,605445376,'',0.296705972839,0.273882113055,0.00653420689216,-0.0228238597843,0.001,134.964032961,6000.0,0.0,300.0,0.0
1513267151432797177,,707381,,1513267149,615445376,'',0.296705972839,0.273901273157,0.00615529527331,-0.0228046996816,0.001,134.938241497,6000.0,0.0,300.0,0.0
1513267151442731649,,707382,,1513267149,625445376,'',0.296705972839,0.273860174593,-0.00835632794582,-0.0228457982462,0.001,139.5939175,6000.0,0.0,300.0,0.0
1513267151453133975,,707383,,1513267149,635445376,'',0.296705972839,0.273826772565,-0.00768261976204,-0.0228792002745,0.001,139.556094752,6000.0,0.0,300.0,0.0
1513267151463134945,,707384,,1513267149,645445376,'',0.296705972839,0.273843118175,0.00732771449862,-0.0228628546635,0.001,135.012979734,6000.0,0.0,300.0,0.0
1513267151473222489,,707385,,1513267149,655445376,'',0.296705972839,0.27382608735,-0.00767134702834,-0.0228798854894,0.001,139.595464041,6000.0,0.0,300.0,0.0
1513267151483113692,,707386,,1513267149,665445376,'',0.296705972839,0.273825315883,-0.00765502496192,-0.0228806569565,0.001,139.593176075,6000.0,0.0,300.0,0.0
1513267151492959589,,707387,,1513267149,675445376,'',0.296705972839,0.273838186399,-0.00791602885792,-0.0228677864398,0.001,139.616086681,6000.0,0.0,300.0,0.0
1513267151503099604,,707388,,1513267149,685445376,'',0.296705972839,0.273848392444,-0.00812371012929,-0.0228575803955,0.001,139.592918737,6000.0,0.0,300.0,0.0
1513267151513019664,,707389,,1513267149,695445376,'',0.296705972839,0.273885269733,0.00647697321267,-0.0228207031064,0.001,134.974220281,6000.0,0.0,300.0,0.0
1513267151523228245,,707390,,1513267149,705445376,'',0.296705972839,0.273891099633,0.00635601835881,-0.0228148732059,0.001,134.97104058,6000.0,0.0,300.0,0.0
1513267151533283180,,707391,,1513267149,715445376,'',0.296705972839,0.273891910414,-0.00899983569859,-0.0228140624254,0.001,139.544571963,6000.0,0.0,300.0,0.0
1513267151543037290,,707392,,1513267149,725445376,'',0.296705972839,0.273907048703,-0.00929630831133,-0.0227989241359,0.001,139.527278755,6000.0,0.0,300.0,0.0
1513267151553102016,,707393,,1513267149,735445376,'',0.296705972839,0.273890543455,-0.00895797469491,-0.0228154293843,0.001,139.694462073,6000.0,0.0,300.0,0.0
1513267151562869730,,707394,,1513267149,745445376,'',0.296705972839,0.273907171622,0.0060426019512,-0.0227988012167,0.001,134.983048954,6000.0,0.0,300.0,0.0
1513267151572875363,,707395,,1513267149,755445376,'',0.296705972839,0.273946231066,-0.0100931597222,-0.0227597417728,0.001,139.595373721,6000.0,0.0,300.0,0.0
1513267151582942651,,707396,,1513267149,765445376,'',0.296705972839,0.273922246965,-0.00961763566693,-0.0227837258738,0.001,139.602653606,6000.0,0.0,300.0,0.0
1513267151592770916,,707397,,1513267149,775445376,'',0.296705972839,0.273918509265,-0.00953914886733,-0.0227874635738,0.001,139.538208648,6000.0,0.0,300.0,0.0
1513267151603255893,,707398,,1513267149,785445376,'',0.296705972839,0.273917203187,0.00582854782594,-0.0227887696523,0.001,135.021134786,6000.0,0.0,300.0,0.0
1513267151613191173,,707399,,1513267149,795445376,'',0.296705972839,0.273915127482,0.00587407153928,-0.0227908453575,0.001,134.973357961,6000.0,0.0,300.0,0.0
1513267151622990139,,707400,,1513267149,805445376,'',0.296705972839,0.273830105172,-0.00775396537081,-0.0228758676667,0.001,139.591368539,6000.0,0.0,300.0,0.0
1513267151633050700,,707401,,1513267149,815445376,'',0.296705972839,0.273829134958,0.00760901612273,-0.022876837881,0.001,134.969461781,6000.0,0.0,300.0,0.0
1513267151642938719,,707402,,1513267149,825445376,'',0.296705972839,0.273842599771,0.00734690217594,-0.0228633730677,0.001,134.89478517,6000.0,0.0,300.0,0.0
1513267151652986405,,707403,,1513267149,835445376,'',0.296705972839,0.273867106102,0.00684653702207,-0.0228388667366,0.001,134.970703555,6000.0,0.0,300.0,0.0
1513267151662859630,,707404,,1513267149,845445376,'',0.296705972839,0.273887648302,0.00643074763487,-0.0228183245374,0.001,135.009235608,6000.0,0.0,300.0,0.0
1513267151672824691,,707405,,1513267149,855445376,'',0.296705972839,0.273905734319,0.0060635462776,-0.0228002385204,0.001,134.92821496,6000.0,0.0,300.0,0.0
1513267151683255213,,707406,,1513267149,865445376,'',0.296705972839,0.273918689665,0.00579835205089,-0.0227872831743,0.001,134.973282541,6000.0,0.0,300.0,0.0
1513267151693237536,,707407,,1513267149,875445376,'',0.296705972839,0.273927539692,-0.00971541268958,-0.0227784331474,0.001,139.531494174,6000.0,0.0,300.0,0.0
1513267151703110903,,707408,,1513267149,885445376,'',0.296705972839,0.273964570054,0.00487989125956,-0.0227414027846,0.001,134.97636641,6000.0,0.0,300.0,0.0
1513267151713090130,,707409,,1513267149,895445376,'',0.296705972839,0.273941069052,0.00535123361675,-0.0227649037871,0.001,135.016412457,6000.0,0.0,300.0,0.0
1513267151722933780,,707410,,1513267149,905445376,'',0.296705972839,0.273932858265,-0.00983202106339,-0.0227731145737,0.001,139.600078836,6000.0,0.0,300.0,0.0
1513267151732961511,,707411,,1513267149,915445376,'',0.296705972839,0.273901969461,0.00614439302165,-0.0228040033782,0.001,134.973862432,6000.0,0.0,300.0,0.0
1513267151743246594,,707412,,1513267149,925445376,'',0.296705972839,0.273931277643,0.00555109678076,-0.0227746951956,0.001,134.981725544,6000.0,0.0,300.0,0.0
1513267151753178607,,707413,,1513267149,935445376,'',0.296705972839,0.273981034862,0.00454474617164,-0.0227249379767,0.001,134.982010247,6000.0,0.0,300.0,0.0
1513267151763182370,,707414,,1513267149,945445376,'',0.296705972839,0.273995418592,0.00425268280591,-0.0227105542472,0.001,135.01302009,6000.0,0.0,300.0,0.0
1513267151772932991,,707415,,1513267149,955445376,'',0.296705972839,0.273980203435,0.00456607651315,-0.022725769404,0.001,134.982267734,6000.0,0.0,300.0,0.0
1513267151783192509,,707416,,1513267149,965445376,'',0.296705972839,0.273966663895,-0.0105061247152,-0.0227393089445,0.001,139.586992122,6000.0,0.0,300.0,0.0
1513267151793228520,,707417,,1513267149,975445376,'',0.296705972839,0.273954249861,0.0050922317468,-0.022751722978,0.001,134.98006767,6000.0,0.0,300.0,0.0
1513267151803128826,,707418,,1513267149,985445376,'',0.296705972839,0.273973044619,0.00471073734135,-0.0227329282205,0.001,134.984717469,6000.0,0.0,300.0,0.0
1513267151813076112,,707419,,1513267149,995445376,'',0.296705972839,0.273973544421,0.00469596915545,-0.0227324284177,0.001,135.007116063,6000.0,0.0,300.0,0.0
1513267151822861160,,707420,,1513267150,5445376,'',0.296705972839,0.2740156455,0.00384451511664,-0.022690327339,0.001,134.98638192,6000.0,0.0,300.0,0.0
1513267151832907801,,707421,,1513267150,15445376,'',0.296705972839,0.27420636744,0.0306796090406,-0.0224996053991,0.001,125.71124542,6000.0,0.0,300.0,0.0
1513267151843291337,,707422,,1513267150,25445376,'',0.296705972839,0.274624983594,0.052909446504,-0.0220809892448,0.001,116.530514094,6000.0,0.0,300.0,0.0
1513267151853306961,,707423,,1513267150,35445376,'',0.296705972839,0.275341194781,0.084472608892,-0.0213647780582,0.001,102.744866272,6000.0,0.0,300.0,0.0
1513267151863298750,,707424,,1513267150,45445376,'',0.296705972839,0.276353456084,0.110056449895,-0.0203525167555,0.001,88.9254432504,6000.0,0.0,300.0,0.0
1513267151873196855,,707425,,1513267150,55445376,'',0.296705972839,0.277496729067,0.117647993402,-0.0192092437724,0.001,79.8864661905,6000.0,0.0,300.0,0.0
1513267151883268940,,707426,,1513267150,65445376,'',0.296705972839,0.27867797062,0.109128149755,-0.0180280022189,0.001,75.2967749769,6000.0,0.0,300.0,0.0
1513267151893210299,,707427,,1513267150,75445376,'',0.296705972839,0.279769832007,0.102423126089,-0.0169361408317,0.001,69.960730774,6000.0,0.0,300.0,0.0
1513267151903052447,,707428,,1513267150,85445376,'',0.296705972839,0.28067226551,0.084195606645,-0.016033707329,0.001,71.3305176525,6000.0,0.0,300.0,0.0
1513267151912974078,,707429,,1513267150,95445376,'',0.296705972839,0.281429752736,0.0688921419318,-0.0152762201033,0.001,70.8435138914,6000.0,0.0,300.0,0.0
1513267151922833624,,707430,,1513267150,105445376,'',0.296705972839,0.282089602389,0.0708999183923,-0.0146163704496,0.001,66.3833067646,6000.0,0.0,300.0,0.0
1513267151933118488,,707431,,1513267150,115445376,'',0.296705972839,0.282756796847,0.072761704923,-0.0139491759924,0.001,61.7507730723,6000.0,0.0,300.0,0.0
1513267151943278838,,707432,,1513267150,125445376,'',0.296705972839,0.283593595043,0.0865425873511,-0.0131123777965,0.001,52.6043459134,6000.0,0.0,300.0,0.0
1513267151953173854,,707433,,1513267150,135445376,'',0.296705972839,0.28458015416,0.112638788608,-0.0121258186786,0.001,39.6769056177,6000.0,0.0,300.0,0.0
1513267151963066190,,707434,,1513267150,145445376,'',0.296705972839,0.285692027352,0.12087127542,-0.0110139454873,0.001,30.3716634685,6000.0,0.0,300.0,0.0
1513267151972935344,,707435,,1513267150,155445376,'',0.296705972839,0.286806585422,0.113700818268,-0.00989938741686,0.001,25.9424832451,6000.0,0.0,300.0,0.0
1513267151982837410,,707436,,1513267150,165445376,'',0.296705972839,0.287884301884,0.107277124197,-0.00882167095458,0.001,20.514525502,6000.0,0.0,300.0,0.0
1513267151993319741,,707437,,1513267150,175445376,'',0.296705972839,0.288818301596,0.0884127081788,-0.00788767124329,0.001,21.2820347335,6000.0,0.0,300.0,0.0
1513267152003216095,,707438,,1513267150,185445376,'',0.296705972839,0.289696440628,0.0860182135369,-0.00700953221105,0.001,16.0973626158,6000.0,0.0,300.0,0.0
1513267152013013442,,707439,,1513267150,195445376,'',0.296705972839,0.290540307043,0.0843160238172,-0.00616566579564,0.001,11.7490811515,6000.0,0.0,300.0,0.0
1513267152022910079,,707440,,1513267150,205445376,'',0.296705972839,0.291326202211,0.083781961973,-0.00537977062795,0.001,7.01737342613,6000.0,0.0,300.0,0.0
1513267152032830348,,707441,,1513267150,215445376,'',0.296705972839,0.292163728739,0.082206027886,-0.00454224409965,0.001,2.96584632884,6000.0,0.0,300.0,0.0
1513267152042879214,,707442,,1513267150,225445376,'',0.296705972839,0.293069066888,0.0946046528193,-0.00363690595107,0.001,-5.99274913977,6000.0,0.0,300.0,0.0
1513267152052790708,,707443,,1513267150,235445376,'',0.296705972839,0.294017053902,0.0908030542336,-0.0026889189369,0.001,-11.2700948211,6000.0,0.0,300.0,0.0
1513267152063294541,,707444,,1513267150,245445376,'',0.296705972839,0.294986483333,0.101912292129,-0.00171948950589,0.001,-20.320178196,6000.0,0.0,300.0,0.0
1513267152073157776,,707445,,1513267150,255445376,'',0.296705972839,0.295931123732,0.0981740457053,-0.000774849106567,0.001,-24.9562929331,6000.0,0.0,300.0,0.0
1513267152083125557,,707446,,1513267150,265445376,'',0.296705972839,0.296841738235,0.0951335298534,0.000135765396373,0.001,-29.465460955,6000.0,0.0,300.0,0.0
1513267152093222583,,707447,,1513267150,275445376,'',0.296705972839,0.297711463456,0.0929059657488,0.0,0.001,0.0,6000.0,0.0,300.0,0.0
1513267152103130211,,707448,,1513267150,285445376,'',0.296705972839,0.298550003656,0.091313170347,0.0,0.001,0.0,6000.0,0.0,300.0,0.0
1513267152112907596,,707449,,1513267150,295445376,'',0.296705972839,0.29936785522,0.0747890830492,0.0,0.001,0.0,6000.0,0.0,300.0,0.0
1513267152122950432,,707450,,1513267150,305445376,'',0.296705972839,0.300164336036,0.0740392190905,0.0,0.001,0.0,6000.0,0.0,300.0,0.0
1513267152132819062,,707451,,1513267150,315445376,'',0.296705972839,0.300941531779,0.0890245577433,0.0,0.001,0.0,6000.0,0.0,300.0,0.0
1513267152143392757,,707452,,1513267150,325445376,'',0.296705972839,0.301729891196,0.0730961468067,0.0,0.001,0.0,6000.0,0.0,300.0,0.0
1513267152153456901,,707453,,1513267150,335445376,'',0.296705972839,0.302415298041,0.0592496228181,0.0,0.001,0.0,6000.0,0.0,300.0,0.0
1513267152162962970,,707454,,1513267150,345445376,'',0.296705972839,0.303045733695,0.0618617626444,0.0,0.001,0.0,6000.0,0.0,300.0,0.0
1513267152172884007,,707455,,1513267150,355445376,'',0.296705972839,0.303641095027,0.0498313823549,0.0,0.001,0.0,6000.0,0.0,300.0,0.0
1513267152182800562,,707456,,1513267150,365445376,'',0.296705972839,0.304200210081,0.0538813202883,0.0,0.001,0.0,6000.0,0.0,300.0,0.0
1513267152193173466,,707457,,1513267150,375445376,'',0.296705972839,0.304683808226,0.0441117783137,0.0,0.001,0.0,6000.0,0.0,300.0,0.0
1513267152203109199,,707458,,1513267150,385445376,'',0.296705972839,0.305164822472,0.0497399891703,0.0,0.001,0.0,6000.0,0.0,300.0,0.0
1513267152212904698,,707459,,1513267150,395445376,'',0.296705972839,0.305596854052,0.0410089978797,0.0,0.001,0.0,6000.0,0.0,300.0,0.0
1513267152222754075,,707460,,1513267150,405445376,'',0.296705972839,0.305992382704,0.0330164449499,0.0,0.001,0.0,6000.0,0.0,300.0,0.0
1513267152233175745,,707461,,1513267150,415445376,'',0.296705972839,0.306289584965,0.0270126234668,0.0,0.001,0.0,6000.0,0.0,300.0,0.0
1513267152243198065,,707462,,1513267150,425445376,'',0.296705972839,0.306586076169,0.0210215300026,0.0,0.001,0.0,6000.0,0.0,300.0,0.0
1513267152253001423,,707463,,1513267150,435445376,'',0.296705972839,0.306871968606,0.0305827096178,0.0,0.001,0.0,6000.0,0.0,300.0,0.0
1513267152263026079,,707464,,1513267150,445445376,'',0.296705972839,0.307160137223,0.0247643553062,0.0,0.001,0.0,6000.0,0.0,300.0,0.0
1513267152273216895,,707465,,1513267150,455445376,'',0.296705972839,0.307396101559,0.0200025214651,0.0106901287203,0.001,-500.0,6000.0,0.0,300.0,0.0
1513267152283185081,,707466,,1513267150,465445376,'',0.296705972839,0.307589875396,0.0160886412753,0.0108839025567,0.001,-70.1507706872,6000.0,0.0,300.0,0.0
1513267152293251039,,707467,,1513267150,475445376,'',0.296705972839,0.307774923663,0.0123582532544,0.0110689508235,0.001,-70.131513808,6000.0,0.0,300.0,0.0
1513267152303172734,,707468,,1513267150,485445376,'',0.296705972839,0.307971005669,0.0237386837426,0.0112650328302,0.001,-74.7420021597,6000.0,0.0,300.0,0.0
1513267152313207397,,707469,,1513267150,495445376,'',0.296705972839,0.30810283179,0.0210719168512,0.011396858951,0.001,-74.7428164999,6000.0,0.0,300.0,0.0
1513267152323183056,,707470,,1513267150,505445376,'',0.296705972839,0.308239173846,0.0183188090005,0.0115332010068,0.001,-74.7122601025,6000.0,0.0,300.0,0.0
1513267152332856242,,707471,,1513267150,515445376,'',0.296705972839,0.308403317487,0.0150032537514,0.0116973446475,0.001,-74.703640373,6000.0,0.0,300.0,0.0
1513267152343328614,,707472,,1513267150,525445376,'',0.296705972839,0.308538019276,0.0122823976527,0.0118320464372,0.001,-74.6922218112,6000.0,0.0,300.0,0.0
1513267152353337464,,707473,,1513267150,535445376,'',0.296705972839,0.308648292752,0.0100549717147,0.0119423199134,0.001,-74.6828740179,6000.0,0.0,300.0,0.0
1513267152363342011,,707474,,1513267150,545445376,'',0.296705972839,0.308738568016,0.00823149185058,0.0120325951768,0.001,-74.6175408992,6000.0,0.0,300.0,0.0
1513267152373230018,,707475,,1513267150,555445376,'',0.296705972839,0.308812319013,0.00674178744726,0.0121063461736,0.001,-74.6261102324,6000.0,0.0,300.0,0.0
1513267152383255394,,707476,,1513267150,565445376,'',0.296705972839,0.308857703408,-0.0095205012785,0.0121517305689,0.001,-70.0316063075,6000.0,0.0,300.0,0.0
1513267152393119116,,707477,,1513267150,575445376,'',0.296705972839,0.308909988316,0.00476939317804,0.012204015477,0.001,-74.6624132676,6000.0,0.0,300.0,0.0
1513267152403047520,,707478,,1513267150,585445376,'',0.296705972839,0.308965690388,0.00364221099399,0.012259717549,0.001,-74.6549153212,6000.0,0.0,300.0,0.0
1513267152413151446,,707479,,1513267150,595445376,'',0.296705972839,0.308985586775,0.00324390854545,0.0122796139362,0.001,-74.6552188941,6000.0,0.0,300.0,0.0
1513267152422980057,,707480,,1513267150,605445376,'',0.296705972839,0.308987790098,0.00319904495634,0.0122818172586,0.001,-74.6328444177,6000.0,0.0,300.0,0.0
1513267152432878794,,707481,,1513267150,615445376,'',0.296705972839,0.309016497155,0.00261889473535,0.0123105243157,0.001,-74.6524181865,6000.0,0.0,300.0,0.0
1513267152442867606,,707482,,1513267150,625445376,'',0.296705972839,0.309039996133,0.00214399626992,0.0123340232939,0.001,-74.6510632319,6000.0,0.0,300.0,0.0
1513267152453195356,,707483,,1513267150,635445376,'',0.296705972839,0.309033153554,0.00228126665091,0.0123271807153,0.001,-74.6331118964,6000.0,0.0,300.0,0.0
1513267152463061801,,707484,,1513267150,645445376,'',0.296705972839,0.309040766647,0.00213041724014,0.0123347938084,0.001,-74.650219192,6000.0,0.0,300.0,0.0
1513267152473023705,,707485,,1513267150,655445376,'',0.296705972839,0.309059828519,0.00174482906881,0.0123538556798,0.001,-74.6384222204,6000.0,0.0,300.0,0.0
1513267152482949801,,707486,,1513267150,665445376,'',0.296705972839,0.309061235794,0.00171602818992,0.012355262955,0.001,-74.6483645369,6000.0,0.0,300.0,0.0
1513267152493335428,,707487,,1513267150,675445376,'',0.296705972839,0.309048926349,0.00196173880249,0.0123429535103,0.001,-74.650047105,6000.0,0.0,300.0,0.0
1513267152503203097,,707488,,1513267150,685445376,'',0.296705972839,0.309037192457,-0.013149153738,0.012331219618,0.001,-70.0280827905,6000.0,0.0,300.0,0.0
1513267152513000718,,707489,,1513267150,695445376,'',0.296705972839,0.309001538477,-0.0124332736864,0.0122955656379,0.001,-70.0275145323,6000.0,0.0,300.0,0.0
1513267152523233801,,707490,,1513267150,705445376,'',0.296705972839,0.30901432437,0.00265519798774,0.0123083515312,0.001,-74.6372329841,6000.0,0.0,300.0,0.0
1513267152533555594,,707491,,1513267150,715445376,'',0.296705972839,0.309038213236,0.00217379937784,0.0123322403974,0.001,-74.6506079957,6000.0,0.0,300.0,0.0
1513267152543551324,,707492,,1513267150,725445376,'',0.296705972839,0.309002201392,0.00290159341311,0.0122962285533,0.001,-74.6705172302,6000.0,0.0,300.0,0.0
1513267152553501616,,707493,,1513267150,735445376,'',0.296705972839,0.309014892812,0.00264690996156,0.0123089199725,0.001,-74.6517976274,6000.0,0.0,300.0,0.0
1513267152563086424,,707494,,1513267150,745445376,'',0.296705972839,0.308995930889,-0.0123152678358,0.0122899580501,0.001,-70.0386960552,6000.0,0.0,300.0,0.0
1513267152572939353,,707495,,1513267150,755445376,'',0.296705972839,0.308981886273,-0.0120223146539,0.0122759134344,0.001,-70.0362468692,6000.0,0.0,300.0,0.0
1513267152583510006,,707496,,1513267150,765445376,'',0.296705972839,0.308928088314,-0.010932772201,0.0122221154746,0.001,-70.0373314605,6000.0,0.0,300.0,0.0
1513267152593315972,,707497,,1513267150,775445376,'',0.296705972839,0.30888744559,0.00522998112589,0.012181472751,0.001,-74.6644887067,6000.0,0.0,300.0,0.0
1513267152603335060,,707498,,1513267150,785445376,'',0.296705972839,0.308866483002,0.0056524440623,0.0121605101628,0.001,-74.6713159709,6000.0,0.0,300.0,0.0
1513267152613304344,,707499,,1513267150,795445376,'',0.296705972839,0.308836278145,-0.00908076691657,0.0121303053061,0.001,-70.0424883331,6000.0,0.0,300.0,0.0
1513267152623164189,,707500,,1513267150,805445376,'',0.296705972839,0.308782692306,0.00734558369563,0.0120767194674,0.001,-74.6757242126,6000.0,0.0,300.0,0.0
1513267152633113517,,707501,,1513267150,815445376,'',0.296705972839,0.30873822676,-0.00710441845427,0.012032253921,0.001,-70.0493191086,6000.0,0.0,300.0,0.0
1513267152643085331,,707502,,1513267150,825445376,'',0.296705972839,0.30874244041,0.00815593376705,0.0120364675708,0.001,-74.677249742,6000.0,0.0,300.0,0.0
1513267152652875370,,707503,,1513267150,835445376,'',0.296705972839,0.308706337741,-0.00645904947031,0.012000364902,0.001,-70.0990645813,6000.0,0.0,300.0,0.0
1513267152663672015,,707504,,1513267150,845445376,'',0.296705972839,0.308689106052,-0.0061092063892,0.0119831332132,0.001,-70.0911485454,6000.0,0.0,300.0,0.0
1513267152673266788,,707505,,1513267150,855445376,'',0.296705972839,0.308661842728,-0.00555925244154,0.0119558698887,0.001,-70.0582934641,6000.0,0.0,300.0,0.0
1513267152683213632,,707506,,1513267150,865445376,'',0.296705972839,0.308611921043,-0.00455127138643,0.0119059482036,0.001,-70.0628167357,6000.0,0.0,300.0,0.0
1513267152693551787,,707507,,1513267150,875445376,'',0.296705972839,0.308609940955,-0.00451156592773,0.0119039681159,0.001,-70.0629961462,6000.0,0.0,300.0,0.0
1513267152703068931,,707508,,1513267150,885445376,'',0.296705972839,0.308584034092,-0.00398558799333,0.0118780612531,0.001,-70.0676497967,6000.0,0.0,300.0,0.0
1513267152713339513,,707509,,1513267150,895445376,'',0.296705972839,0.308587430492,-0.00405392975801,0.0118814576526,0.001,-70.0638627484,6000.0,0.0,300.0,0.0
1513267152723274313,,707510,,1513267150,905445376,'',0.296705972839,0.308592664171,-0.00415703467726,0.0118866913317,0.001,-70.0669686148,6000.0,0.0,300.0,0.0
1513267152733327573,,707511,,1513267150,915445376,'',0.296705972839,0.30862254616,-0.00476571342735,0.0119165733211,0.001,-70.0632320217,6000.0,0.0,300.0,0.0
1513267152743181987,,707512,,1513267150,925445376,'',0.296705972839,0.308607988414,-0.00447479854125,0.0119020155748,0.001,-70.090321078,6000.0,0.0,300.0,0.0
1513267152753281286,,707513,,1513267150,935445376,'',0.296705972839,0.308606452661,-0.00444367149591,0.011900479822,0.001,-70.0620281434,6000.0,0.0,300.0,0.0
1513267152763098283,,707514,,1513267150,945445376,'',0.296705972839,0.308594334187,-0.00419630989845,0.0118883613484,0.001,-70.0349807741,6000.0,0.0,300.0,0.0
1513267152773171700,,707515,,1513267150,955445376,'',0.296705972839,0.308556734025,-0.00343709058687,0.0118507611859,0.001,-70.0655810153,6000.0,0.0,300.0,0.0
1513267152783225756,,707516,,1513267150,965445376,'',0.296705972839,0.308513296752,-0.00255728152997,0.0118073239126,0.001,-70.0700873551,6000.0,0.0,300.0,0.0
1513267152793149915,,707517,,1513267150,975445376,'',0.296705972839,0.308489787796,-0.0174251869813,0.0117838149573,0.001,-65.5634607375,6000.0,0.0,300.0,0.0
1513267152803274522,,707518,,1513267150,985445376,'',0.296705972839,0.30845657939,-0.00140933803161,0.0117506065514,0.001,-70.0875248384,6000.0,0.0,300.0,0.0
1513267152813541163,,707519,,1513267150,995445376,'',0.296705972839,0.308443871664,-0.00115373106783,0.0117378988246,0.001,-70.0783781143,6000.0,0.0,300.0,0.0
1513267152823175247,,707520,,1513267151,5445376,'',0.296705972839,0.308407235983,-0.000416881383882,0.011701263144,0.001,-70.0814836913,6000.0,0.0,300.0,0.0
1513267152833301688,,707521,,1513267151,15445376,'',0.296705972839,0.308360493355,0.000529474617431,0.0116545205163,0.001,-70.0855979323,6000.0,0.0,300.0,0.0
1513267152843350806,,707522,,1513267151,25445376,'',0.296705972839,0.308323613176,0.00127136308258,0.0116176403371,0.001,-70.0877461127,6000.0,0.0,300.0,0.0
1513267152852998822,,707523,,1513267151,35445376,'',0.296705972839,0.308276387502,0.00216421472609,0.0115704146633,0.001,-70.0784342617,6000.0,0.0,300.0,0.0
1513267152863301421,,707524,,1513267151,45445376,'',0.296705972839,0.308228187586,0.00314285495261,0.0115222147467,0.001,-70.0975858075,6000.0,0.0,300.0,0.0
1513267152873264434,,707525,,1513267151,55445376,'',0.296705972839,0.308133126038,-0.0102714087796,0.0114271531992,0.001,-65.5538029921,6000.0,0.0,300.0,0.0
1513267152883464421,,707526,,1513267151,65445376,'',0.296705972839,0.308069865173,0.00635968598421,0.0113638923344,0.001,-70.1137796569,6000.0,0.0,300.0,0.0
1513267152893486171,,707527,,1513267151,75445376,'',0.296705972839,0.308002206074,-0.00760911924386,0.0112962332353,0.001,-65.4918023732,6000.0,0.0,300.0,0.0
1513267152903040150,,707528,,1513267151,85445376,'',0.296705972839,0.307962490654,-0.00679889476526,0.0112565178147,0.001,-65.5428960261,6000.0,0.0,300.0,0.0
1513267152913409632,,707529,,1513267151,95445376,'',0.296705972839,0.307929698591,-0.00613991240548,0.0112237257522,0.001,-65.497930191,6000.0,0.0,300.0,0.0
1513267152923130928,,707530,,1513267151,105445376,'',0.296705972839,0.307874798944,-0.00502655257122,0.0111688261054,0.001,-65.5047934344,6000.0,0.0,300.0,0.0
1513267152933343844,,707531,,1513267151,115445376,'',0.296705972839,0.307857452301,-0.00467359531511,0.0111514794621,0.001,-65.5049181291,6000.0,0.0,300.0,0.0
1513267152943834061,,707532,,1513267151,125445376,'',0.296705972839,0.307842839879,-0.00437150267187,0.0111368670403,0.001,-65.5046665173,6000.0,0.0,300.0,0.0
1513267152953415423,,707533,,1513267151,135445376,'',0.296705972839,0.307829423522,-0.00410178776804,0.0111234506829,0.001,-64.4950490345,6000.0,0.0,300.0,0.0
1513267152963523557,,707534,,1513267151,145445376,'',0.296705972839,0.307807235645,-0.00365106341525,0.0111012628064,0.001,-65.5084155136,6000.0,0.0,300.0,0.0
1513267152973534131,,707535,,1513267151,155445376,'',0.296705972839,0.307829360921,-0.00409059997513,0.0111233880816,0.001,-65.5331617036,6000.0,0.0,300.0,0.0
1513267152983506762,,707536,,1513267151,165445376,'',0.296705972839,0.307805455118,-0.00360818834378,0.0110994822792,0.001,-65.5106716545,6000.0,0.0,300.0,0.0
1513267152993440012,,707537,,1513267151,175445376,'',0.296705972839,0.307773010883,-0.00295241728939,0.0110670380443,0.001,-65.4891112109,6000.0,0.0,300.0,0.0
1513267153003777697,,707538,,1513267151,185445376,'',0.296705972839,0.307745764461,-0.0024043212823,0.0110397916224,0.001,-65.5172923934,6000.0,0.0,300.0,0.0
1513267153013741337,,707539,,1513267151,195445376,'',0.296705972839,0.307737214487,-0.00222554634437,0.0110312416479,0.001,-65.5171001441,6000.0,0.0,300.0,0.0
1513267153023666388,,707540,,1513267151,205445376,'',0.296705972839,0.307730788591,-0.00209962608854,0.0110248157515,0.001,-65.5010823037,6000.0,0.0,300.0,0.0
1513267153033695189,,707541,,1513267151,215445376,'',0.296705972839,0.307725715567,-0.00199993778499,0.0110197427275,0.001,-65.5446660589,6000.0,0.0,300.0,0.0
1513267153043167780,,707542,,1513267151,225445376,'',0.296705972839,0.307734594198,-0.00217850105242,0.011028621359,0.001,-65.515264333,6000.0,0.0,300.0,0.0
1513267153053377384,,707543,,1513267151,235445376,'',0.296705972839,0.307715035739,-0.0017827133621,0.0110090628999,0.001,-65.5183364321,6000.0,0.0,300.0,0.0
1513267153063435873,,707544,,1513267151,245445376,'',0.296705972839,0.307713659648,-0.00174752349902,0.011007686809,0.001,-65.5295888412,6000.0,0.0,300.0,0.0
1513267153073481332,,707545,,1513267151,255445376,'',0.296705972839,0.307684272271,-0.00115449958253,0.0109782994323,0.001,-65.5198563835,6000.0,0.0,300.0,0.0
1513267153083409027,,707546,,1513267151,265445376,'',0.296705972839,0.307688413567,-0.00123828035521,0.0109824407278,0.001,-65.5213109341,6000.0,0.0,300.0,0.0
1513267153093284031,,707547,,1513267151,275445376,'',0.296705972839,0.307677264348,-0.00101369755477,0.0109712915088,0.001,-65.5218320772,6000.0,0.0,300.0,0.0
1513267153103417156,,707548,,1513267151,285445376,'',0.296705972839,0.307655063897,-0.000562800939266,0.0109490910582,0.001,-65.527031597,6000.0,0.0,300.0,0.0
1513267153113136322,,707549,,1513267151,295445376,'',0.296705972839,0.307664155436,-0.000748057350175,0.0109581825967,0.001,-65.527211194,6000.0,0.0,300.0,0.0
1513267153123184234,,707550,,1513267151,305445376,'',0.296705972839,0.307657406996,-0.000612408031071,0.0109514341566,0.001,-65.5308667736,6000.0,0.0,300.0,0.0
1513267153133089603,,707551,,1513267151,315445376,'',0.296705972839,0.307666982581,0.0145385837936,0.0109610097424,0.001,-70.1442343734,6000.0,0.0,300.0,0.0
1513267153143052478,,707552,,1513267151,325445376,'',0.296705972839,0.307659722261,-0.000660830270001,0.0109537494222,0.001,-65.5230253109,6000.0,0.0,300.0,0.0
1513267153153479284,,707553,,1513267151,335445376,'',0.296705972839,0.307654563809,-0.000560907224465,0.0109485909695,0.001,-65.5227771659,6000.0,0.0,300.0,0.0
1513267153163271909,,707554,,1513267151,345445376,'',0.296705972839,0.307636903735,-0.000207229021743,0.0109309308964,0.001,-65.5264280098,6000.0,0.0,300.0,0.0
1513267153173143601,,707555,,1513267151,355445376,'',0.296705972839,0.307635100574,-0.000169725493611,0.0109291277349,0.001,-65.5250529194,6000.0,0.0,300.0,0.0
1513267153183243742,,707556,,1513267151,365445376,'',0.296705972839,0.307633620683,-0.000138945593994,0.0109276478439,0.001,-65.5252379206,6000.0,0.0,300.0,0.0
1513267153192978749,,707557,,1513267151,375445376,'',0.296705972839,0.307632409302,-0.000113750374049,0.0109264364632,0.001,-65.5252767489,6000.0,0.0,300.0,0.0
1513267153203002653,,707558,,1513267151,385445376,'',0.296705972839,0.307631417199,-9.3115849852e-05,0.0109254443598,0.001,-65.5253724329,6000.0,0.0,300.0,0.0
1513267153213488916,,707559,,1513267151,395445376,'',0.296705972839,0.307643265588,-0.000328905291105,0.0109372927485,0.001,-65.5265166935,6000.0,0.0,300.0,0.0
1513267153223491406,,707560,,1513267151,405445376,'',0.296705972839,0.307668480488,-0.000840978162511,0.0109625076489,0.001,-65.5268292536,6000.0,0.0,300.0,0.0
1513267153233536730,,707561,,1513267151,415445376,'',0.296705972839,0.307660949871,-0.00068852168506,0.0109549770317,0.001,-65.5233183437,6000.0,0.0,300.0,0.0
1513267153243457707,,707562,,1513267151,425445376,'',0.296705972839,0.307682807814,-0.00113190483254,0.0109768349745,0.001,-65.5134834456,6000.0,0.0,300.0,0.0
1513267153253307234,,707563,,1513267151,435445376,'',0.296705972839,0.307660346877,-0.000675186502282,0.0109543740381,0.001,-65.5231673924,6000.0,0.0,300.0,0.0
1513267153263219731,,707564,,1513267151,445445376,'',0.296705972839,0.307654273289,-0.000552432420919,0.0109483004497,0.001,-65.5188183931,6000.0,0.0,300.0,0.0
1513267153273068772,,707565,,1513267151,455445376,'',0.296705972839,0.307649338717,-0.000452699141659,0.0109433658775,0.001,-65.5267817379,6000.0,0.0,300.0,0.0
1513267153283589093,,707566,,1513267151,465445376,'',0.296705972839,0.307657915018,-0.000625559282391,0.0109519421788,0.001,-65.5233593419,6000.0,0.0,300.0,0.0
1513267153293508711,,707567,,1513267151,475445376,'',0.296705972839,0.30768017863,-0.00107855393403,0.0109742057911,0.001,-65.5212912411,6000.0,0.0,300.0,0.0
1513267153303638065,,707568,,1513267151,485445376,'',0.296705972839,0.307670526487,-0.000883011760834,0.0109645536483,0.001,-65.5218549818,6000.0,0.0,300.0,0.0
1513267153313158085,,707569,,1513267151,495445376,'',0.296705972839,0.30766262343,-0.000722904210596,0.0109566505913,0.001,-65.5234043303,6000.0,0.0,300.0,0.0
1513267153323287308,,707570,,1513267151,505445376,'',0.296705972839,0.307669318498,-0.000857384974987,0.0109633456593,0.001,-65.5296938045,6000.0,0.0,300.0,0.0
1513267153333476214,,707571,,1513267151,515445376,'',0.296705972839,0.307676367213,-0.00100404352972,0.0109703943744,0.001,-65.513460316,6000.0,0.0,300.0,0.0
1513267153343250464,,707572,,1513267151,525445376,'',0.296705972839,0.307654087231,-0.000552660153932,0.0109481143915,0.001,-65.526790945,6000.0,0.0,300.0,0.0
1513267153353345202,,707573,,1513267151,535445376,'',0.296705972839,0.307649164089,-0.000452434644503,0.0109431912501,0.001,-65.5271631783,6000.0,0.0,300.0,0.0
1513267153363387022,,707574,,1513267151,545445376,'',0.296705972839,0.307673308208,-0.000936756319667,0.0109673353692,0.001,-65.5213322285,6000.0,0.0,300.0,0.0
1513267153373112898,,707575,,1513267151,555445376,'',0.296705972839,0.30766490077,-0.000766903814678,0.010958927931,0.001,-65.5225863329,6000.0,0.0,300.0,0.0
1513267153383112787,,707576,,1513267151,565445376,'',0.296705972839,0.307658016582,-0.000627824988455,0.0109520437427,0.001,-65.5275231535,6000.0,0.0,300.0,0.0
1513267153393420994,,707577,,1513267151,575445376,'',0.296705972839,0.307652382911,-0.000514009921118,0.0109464100716,0.001,-65.523313246,6000.0,0.0,300.0,0.0
1513267153403314222,,707578,,1513267151,585445376,'',0.296705972839,0.307619590063,0.000146288294436,0.0109136172235,0.001,-65.5255370596,6000.0,0.0,300.0,0.0
1513267153413250858,,707579,,1513267151,595445376,'',0.296705972839,0.307620704707,0.000125059600301,0.0109147318685,0.001,-65.5257231361,6000.0,0.0,300.0,0.0
1513267153423269254,,707580,,1513267151,605445376,'',0.296705972839,0.307621834792,0.000102394554772,0.010915861953,0.001,-65.5256409957,6000.0,0.0,300.0,0.0
1513267153433099043,,707581,,1513267151,615445376,'',0.296705972839,0.307622760745,8.38235940325e-05,0.0109167879055,0.001,-65.5261036096,6000.0,0.0,300.0,0.0
1513267153442976665,,707582,,1513267151,625445376,'',0.296705972839,0.307638632305,0.0151084374245,0.0109326594662,0.001,-70.1510038494,6000.0,0.0,300.0,0.0
1513267153452847313,,707583,,1513267151,635445376,'',0.296705972839,0.307650734277,-0.000482512738916,0.0109447614376,0.001,-65.5271550578,6000.0,0.0,300.0,0.0
1513267153463443222,,707584,,1513267151,645445376,'',0.296705972839,0.307660941522,-0.000688252627347,0.0109549686828,0.001,-65.523318954,6000.0,0.0,300.0,0.0
1513267153473281748,,707585,,1513267151,655445376,'',0.296705972839,0.30768129284,-0.00109954981032,0.0109753200008,0.001,-65.5219107367,6000.0,0.0,300.0,0.0
1513267153483246283,,707586,,1513267151,665445376,'',0.296705972839,0.307685405194,-0.00117920925557,0.0109794323552,0.001,-65.529123398,6000.0,0.0,300.0,0.0
1513267153493219866,,707587,,1513267151,675445376,'',0.296705972839,0.307674806387,-0.000965436654455,0.0109688335476,0.001,-65.5211877357,6000.0,0.0,300.0,0.0
1513267153503096515,,707588,,1513267151,685445376,'',0.296705972839,0.307666143746,-0.000790715563628,0.010960170907,0.001,-65.5270575801,6000.0,0.0,300.0,0.0
1513267153513125785,,707589,,1513267151,695445376,'',0.296705972839,0.30768562792,-0.00118390310796,0.0109796550809,0.001,-65.528022992,6000.0,0.0,300.0,0.0
1513267153522906726,,707590,,1513267151,705445376,'',0.296705972839,0.30767498759,-0.000969256474052,0.010969014751,0.001,-65.5214507731,6000.0,0.0,300.0,0.0
1513267153532818294,,707591,,1513267151,715445376,'',0.296705972839,0.307693583382,-0.00134849208236,0.010987610543,0.001,-65.5209330557,6000.0,0.0,300.0,0.0
1513267153543182730,,707592,,1513267151,725445376,'',0.296705972839,0.307696753293,0.0139345500005,0.0109907804535,0.001,-70.1890319711,6000.0,0.0,300.0,0.0
1513267153553156378,,707593,,1513267151,735445376,'',0.296705972839,0.307685227599,-0.00117667382476,0.0109792547595,0.001,-65.5204378793,6000.0,0.0,300.0,0.0
1513267153563060436,,707594,,1513267151,745445376,'',0.296705972839,0.307674661897,-0.00096337923329,0.0109686890575,0.001,-65.5211320173,6000.0,0.0,300.0,0.0
1513267153573045054,,707595,,1513267151,755445376,'',0.296705972839,0.307666009194,-0.000788703226713,0.0109600363551,0.001,-65.5224923727,6000.0,0.0,300.0,0.0
1513267153583014057,,707596,,1513267151,765445376,'',0.296705972839,0.307645294579,-0.000369904873893,0.0109393217396,0.001,-65.521327609,6000.0,0.0,300.0,0.0
1513267153593099454,,707597,,1513267151,775445376,'',0.296705972839,0.307641981048,-0.000303125615113,0.0109360082088,0.001,-65.5263728595,6000.0,0.0,300.0,0.0
1513267153603064663,,707598,,1513267151,785445376,'',0.296705972839,0.307639253845,-0.000248162927408,0.0109332810063,0.001,-65.5261799282,6000.0,0.0,300.0,0.0
1513267153612985016,,707599,,1513267151,795445376,'',0.296705972839,0.307651794533,0.0148400675689,0.0109458216941,0.001,-70.046888164,6000.0,0.0,300.0,0.0
1513267153623097843,,707600,,1513267151,805445376,'',0.296705972839,0.307660722606,-0.000681687751609,0.0109547497671,0.001,-65.5227432855,6000.0,0.0,300.0,0.0
1513267153633253439,,707601,,1513267151,815445376,'',0.296705972839,0.307654597847,-0.000558097544217,0.0109486250077,0.001,-65.5234597034,6000.0,0.0,300.0,0.0
1513267153643222428,,707602,,1513267151,825445376,'',0.296705972839,0.307636018441,-0.000179371309649,0.0109300456024,0.001,-65.5265977148,6000.0,0.0,300.0,0.0
1513267153653068116,,707603,,1513267151,835445376,'',0.296705972839,0.307647739317,-0.000419884476267,0.0109417664778,0.001,-65.5232821293,6000.0,0.0,300.0,0.0
1513267153663049645,,707604,,1513267151,845445376,'',0.296705972839,0.30765795231,-0.000622409608375,0.0109519794708,0.001,-65.5235374451,6000.0,0.0,300.0,0.0
1513267153672890603,,707605,,1513267151,855445376,'',0.296705972839,0.307652328716,-0.000509544679556,0.0109463558774,0.001,-65.5228738579,6000.0,0.0,300.0,0.0
1513267153683331466,,707606,,1513267151,865445376,'',0.296705972839,0.307647735686,-0.000417363032943,0.0109417628466,0.001,-65.5264387231,6000.0,0.0,300.0,0.0
1513267153693189317,,707607,,1513267151,875445376,'',0.296705972839,0.307643965784,-0.000341701498961,0.0109379929447,0.001,-65.5243609748,6000.0,0.0,300.0,0.0
1513267153703286820,,707608,,1513267151,885445376,'',0.296705972839,0.307640878443,-0.000279738902564,0.0109349056044,0.001,-65.5263311739,6000.0,0.0,300.0,0.0
1513267153713141878,,707609,,1513267151,895445376,'',0.296705972839,0.307652831128,-0.000524788086354,0.0109468582889,0.001,-65.5236094667,6000.0,0.0,300.0,0.0
1513267153723100091,,707610,,1513267151,905445376,'',0.296705972839,0.307662332848,-0.000716976218375,0.0109563600093,0.001,-65.5223907539,6000.0,0.0,300.0,0.0
1513267153732878238,,707611,,1513267151,915445376,'',0.296705972839,0.307655916566,-0.000586996597665,0.0109499437269,0.001,-65.523517082,6000.0,0.0,300.0,0.0
1513267153743336163,,707612,,1513267151,925445376,'',0.296705972839,0.307676880652,-0.00100834802198,0.0109709078133,0.001,-65.5224454554,6000.0,0.0,300.0,0.0
1513267153753620189,,707613,,1513267151,935445376,'',0.296705972839,0.307667825459,-0.000825514521057,0.0109618526201,0.001,-65.5215626353,6000.0,0.0,300.0,0.0
1513267153763483753,,707614,,1513267151,945445376,'',0.296705972839,0.307646194761,-0.000385565385855,0.0109402219221,0.001,-65.5245092467,6000.0,0.0,300.0,0.0
1513267153773221772,,707615,,1513267151,955445376,'',0.296705972839,0.307642702627,-0.000315636670808,0.0109367297878,0.001,-65.5241689687,6000.0,0.0,300.0,0.0
1513267153783437505,,707616,,1513267151,965445376,'',0.296705972839,0.307639845634,-0.000258426428295,0.0109338727949,0.001,-65.5247102365,6000.0,0.0,300.0,0.0
1513267153793264424,,707617,,1513267151,975445376,'',0.296705972839,0.307651138153,-0.000490165708715,0.0109451653135,0.001,-65.5238942476,6000.0,0.0,300.0,0.0
1513267153803185562,,707618,,1513267151,985445376,'',0.296705972839,0.307659669774,-0.000661354277781,0.0109536969346,0.001,-65.5272326073,6000.0,0.0,300.0,0.0
1513267153813670641,,707619,,1513267151,995445376,'',0.296705972839,0.307653735765,-0.000541447953866,0.0109477629262,0.001,-65.5272863677,6000.0,0.0,300.0,0.0
1513267153822898607,,707620,,1513267152,5445376,'',0.296705972839,0.307635440178,-0.000175519964858,0.010929467339,0.001,-65.526063567,6000.0,0.0,300.0,0.0
1513267153833787194,,707621,,1513267152,15445376,'',0.296705972839,0.307633899264,-0.000143700879943,0.0109279264246,0.001,-65.5261891468,6000.0,0.0,300.0,0.0
1513267153843506415,,707622,,1513267152,25445376,'',0.296705972839,0.307617552075,-0.0151577431606,0.0109115792356,0.001,-60.909155143,6000.0,0.0,300.0,0.0
1513267153853363329,,707623,,1513267152,35445376,'',0.296705972839,0.30761925433,0.00015381341368,0.0109132814906,0.001,-65.5265567066,6000.0,0.0,300.0,0.0
1513267153863512292,,707624,,1513267152,45445376,'',0.296705972839,0.307620648052,0.000125921588501,0.010914675213,0.001,-65.5264202539,6000.0,0.0,300.0,0.0
1513267153873400068,,707625,,1513267152,55445376,'',0.296705972839,0.30763491546,-0.000164514784959,0.0109289426205,0.001,-65.5250234004,6000.0,0.0,300.0,0.0
1513267153883270538,,707626,,1513267152,65445376,'',0.296705972839,0.30763346942,-0.00013468563288,0.0109274965805,0.001,-65.5252983903,6000.0,0.0,300.0,0.0
1513267153893417717,,707627,,1513267152,75445376,'',0.296705972839,0.307644964759,-0.000365474660413,0.0109389919195,0.001,-65.5242762925,6000.0,0.0,300.0,0.0
1513267153903279848,,707628,,1513267152,85445376,'',0.296705972839,0.307669271546,-0.000857994256292,0.0109632987071,0.001,-65.5230189887,6000.0,0.0,300.0,0.0
1513267153913164952,,707629,,1513267152,95445376,'',0.296705972839,0.307673969732,-0.000954649312856,0.0109679968925,0.001,-65.5211997839,6000.0,0.0,300.0,0.0
1513267153923481793,,707630,,1513267152,105445376,'',0.296705972839,0.307678391811,-0.00104479329925,0.0109724189715,0.001,-65.5280496772,6000.0,0.0,300.0,0.0
1513267153933144072,,707631,,1513267152,115445376,'',0.296705972839,0.307655681099,-0.000582017760871,0.0109497082601,0.001,-65.5265553529,6000.0,0.0,300.0,0.0
1513267153943429531,,707632,,1513267152,125445376,'',0.296705972839,0.307650470703,-0.000476504571081,0.0109444978641,0.001,-65.5235004611,6000.0,0.0,300.0,0.0
1513267153952919202,,707633,,1513267152,135445376,'',0.296705972839,0.307661318268,0.0146497004488,0.0109553454287,0.001,-70.1489483344,6000.0,0.0,300.0,0.0
1513267153963580489,,707634,,1513267152,145445376,'',0.296705972839,0.307668706472,-0.000845521237734,0.0109627336326,0.001,-65.5217150844,6000.0,0.0,300.0,0.0
1513267153973303207,,707635,,1513267152,155445376,'',0.296705972839,0.30765974443,-0.000664731817781,0.0109537715905,0.001,-65.5230234317,6000.0,0.0,300.0,0.0
1513267153983393766,,707636,,1513267152,165445376,'',0.296705972839,0.307668303239,-0.000837448969324,0.0109623304003,0.001,-65.5228412304,6000.0,0.0,300.0,0.0
1513267153993170154,,707637,,1513267152,175445376,'',0.296705972839,0.307658744951,-0.000642743879932,0.0109527721122,0.001,-65.527563442,6000.0,0.0,300.0,0.0
1513267154003024071,,707638,,1513267152,185445376,'',0.296705972839,0.307666081475,-0.000791550839188,0.0109601086359,0.001,-65.5217435625,6000.0,0.0,300.0,0.0
1513267154013013360,,707639,,1513267152,195445376,'',0.296705972839,0.307657119249,-0.000612346027095,0.0109511464097,0.001,-65.5228495339,6000.0,0.0,300.0,0.0
1513267154023414306,,707640,,1513267152,205445376,'',0.296705972839,0.30765164825,-0.00050133705869,0.0109456754114,0.001,-65.523853985,6000.0,0.0,300.0,0.0
1513267154033253133,,707641,,1513267152,215445376,'',0.296705972839,0.307647168289,-0.000410436661074,0.0109411954497,0.001,-65.52373521,6000.0,0.0,300.0,0.0
1513267154043438380,,707642,,1513267152,225445376,'',0.296705972839,0.307629561151,-5.72570396441e-05,0.010923588312,0.001,-65.5255667424,6000.0,0.0,300.0,0.0
1513267154053118560,,707643,,1513267152,235445376,'',0.296705972839,0.307643913775,-0.000346003801569,0.0109379409363,0.001,-65.524464476,6000.0,0.0,300.0,0.0
1513267154062981443,,707644,,1513267152,245445376,'',0.296705972839,0.307640835866,-0.000283261045176,0.0109348630269,0.001,-65.5244437618,6000.0,0.0,300.0,0.0
1513267154073193357,,707645,,1513267152,255445376,'',0.296705972839,0.307638316796,-0.000231910150383,0.0109323439568,0.001,-65.524706997,6000.0,0.0,300.0,0.0
1513267154083598833,,707646,,1513267152,265445376,'',0.296705972839,0.307622860787,8.0189511878e-05,0.0109168879481,0.001,-65.5256261843,6000.0,0.0,300.0,0.0
1513267154093467078,,707647,,1513267152,275445376,'',0.296705972839,0.307622449397,9.08813707919e-05,0.0109164765578,0.001,-65.5251431379,6000.0,0.0,300.0,0.0
1513267154103220087,,707648,,1513267152,285445376,'',0.296705972839,0.307623263284,7.44105808501e-05,0.0109172904454,0.001,-65.5260890764,6000.0,0.0,300.0,0.0
1513267154113420196,,707649,,1513267152,295445376,'',0.296705972839,0.307637002735,-0.000206532896899,0.0109310298955,0.001,-65.5248924802,6000.0,0.0,300.0,0.0
1513267154123054284,,707650,,1513267152,305445376,'',0.296705972839,0.307635178199,-0.000169084385302,0.01092920536,0.001,-65.5260555736,6000.0,0.0,300.0,0.0
1513267154133316200,,707651,,1513267152,315445376,'',0.296705972839,0.307647576578,-0.00042339962483,0.0109416037391,0.001,-65.529233289,6000.0,0.0,300.0,0.0
1513267154143257046,,707652,,1513267152,325445376,'',0.296705972839,0.307656392579,-0.000603419591883,0.0109504197397,0.001,-65.5231356178,6000.0,0.0,300.0,0.0
1513267154153227842,,707653,,1513267152,335445376,'',0.296705972839,0.30765105228,-0.000494007648682,0.0109450794407,0.001,-65.5233027456,6000.0,0.0,300.0,0.0
1513267154163031539,,707654,,1513267152,345445376,'',0.296705972839,0.307646689792,-0.000404629086083,0.0109407169531,0.001,-65.529805927,6000.0,0.0,300.0,0.0
1513267154173346265,,707655,,1513267152,355445376,'',0.296705972839,0.307657047311,-0.000616543680394,0.0109510744723,0.001,-65.5269424611,6000.0,0.0,300.0,0.0
1513267154183483347,,707656,,1513267152,365445376,'',0.296705972839,0.307664703804,-0.000772229469042,0.0109587309654,0.001,-65.5228234952,6000.0,0.0,300.0,0.0
1513267154193426262,,707657,,1513267152,375445376,'',0.296705972839,0.307643914655,-0.000353398980758,0.0109379418156,0.001,-65.5242662094,6000.0,0.0,300.0,0.0
1513267154203446047,,707658,,1513267152,385445376,'',0.296705972839,0.307640835459,-0.000289291764579,0.0109348626204,0.001,-65.5247885706,6000.0,0.0,300.0,0.0
1513267154213435852,,707659,,1513267152,395445376,'',0.296705972839,0.307652848154,-0.000530989519324,0.010946875315,0.001,-65.5270860856,6000.0,0.0,300.0,0.0
1513267154223372999,,707660,,1513267152,405445376,'',0.296705972839,0.307662664556,-0.000724821672727,0.010956691717,0.001,-65.5229844554,6000.0,0.0,300.0,0.0
1513267154233163527,,707661,,1513267152,415445376,'',0.296705972839,0.307656185908,-0.000593374487911,0.0109502130685,0.001,-65.5229835994,6000.0,0.0,300.0,0.0
1513267154243314430,,707662,,1513267152,425445376,'',0.296705972839,0.307638242769,-0.000230968791682,0.0109322699298,0.001,-65.5247141366,6000.0,0.0,300.0,0.0
1513267154253198340,,707663,,1513267152,435445376,'',0.296705972839,0.307636193391,-0.000189089567579,0.0109302205515,0.001,-65.5249658127,6000.0,0.0,300.0,0.0
1513267154263427785,,707664,,1513267152,445445376,'',0.296705972839,0.307634515172,-0.000154795019949,0.0109285423326,0.001,-65.5251178717,6000.0,0.0,300.0,0.0
1513267154273382054,,707665,,1513267152,455445376,'',0.296705972839,0.307647945997,0.0149161686713,0.0109419731577,0.001,-70.0553177894,6000.0,0.0,300.0,0.0
1513267154283380125,,707666,,1513267152,465445376,'',0.296705972839,0.307630211045,-6.93280019226e-05,0.0109242382055,0.001,-65.5258706125,6000.0,0.0,300.0,0.0
1513267154293272492,,707667,,1513267152,475445376,'',0.296705972839,0.307629618245,-5.67631435197e-05,0.0109236454063,0.001,-65.5255928385,6000.0,0.0,300.0,0.0
1513267154303360007,,707668,,1513267152,485445376,'',0.296705972839,0.307629131567,-4.64475983199e-05,0.0109231587277,0.001,-65.5252825492,6000.0,0.0,300.0,0.0
1513267154313472742,,707669,,1513267152,495445376,'',0.296705972839,0.307641871257,-0.000300649107954,0.0109358984181,0.001,-65.5226204055,6000.0,0.0,300.0,0.0
1513267154323369663,,707670,,1513267152,505445376,'',0.296705972839,0.307639169559,-0.000246248157791,0.0109331967197,0.001,-65.5247675469,6000.0,0.0,300.0,0.0
1513267154333465644,,707671,,1513267152,515445376,'',0.296705972839,0.307652052192,0.0148383468111,0.0109460793533,0.001,-70.1455000104,6000.0,0.0,300.0,0.0
1513267154343425365,,707672,,1513267152,525445376,'',0.296705972839,0.307647498892,-0.000415056443236,0.0109415260525,0.001,-65.5239114446,6000.0,0.0,300.0,0.0
1513267154353482782,,707673,,1513267152,535445376,'',0.296705972839,0.307643770552,-0.000339785513771,0.0109377977134,0.001,-65.523959914,6000.0,0.0,300.0,0.0
1513267154363003379,,707674,,1513267152,545445376,'',0.296705972839,0.307653844212,-0.000543495114129,0.0109478713733,0.001,-65.5246622552,6000.0,0.0,300.0,0.0
1513267154372998843,,707675,,1513267152,555445376,'',0.296705972839,0.307620753152,0.000121521023889,0.0109147803127,0.001,-65.5254890712,6000.0,0.0,300.0,0.0
1513267154383359741,,707676,,1513267152,565445376,'',0.296705972839,0.307621875205,9.94825819913e-05,0.0109159023663,0.001,-65.5255831714,6000.0,0.0,300.0,0.0
1513267154393517580,,707677,,1513267152,575445376,'',0.296705972839,0.30763730474,-0.000208749128338,0.0109313319008,0.001,-65.5249256261,6000.0,0.0,300.0,0.0
1513267154403388641,,707678,,1513267152,585445376,'',0.296705972839,0.307648125839,-0.00042583584117,0.0109421530001,0.001,-65.5270996907,6000.0,0.0,300.0,0.0
1513267154413506127,,707679,,1513267152,595445376,'',0.296705972839,0.307658509162,-0.00063582423975,0.010952536323,0.001,-65.518288984,6000.0,0.0,300.0,0.0
1513267154422994921,,707680,,1513267152,605445376,'',0.296705972839,0.307652785208,-0.000520539173136,0.0109468123687,0.001,-65.520783745,6000.0,0.0,300.0,0.0
1513267154433130072,,707681,,1513267152,615445376,'',0.296705972839,0.307634734242,-0.000155965594039,0.0109287614032,0.001,-65.5251435251,6000.0,0.0,300.0,0.0
1513267154443068695,,707682,,1513267152,625445376,'',0.296705972839,0.307645869214,-0.000384624969502,0.0109398963754,0.001,-65.5240891119,6000.0,0.0,300.0,0.0
1513267154453388027,,707683,,1513267152,635445376,'',0.296705972839,0.307642435828,-0.000314860809098,0.0109364629889,0.001,-65.5218438275,6000.0,0.0,300.0,0.0
1513267154463383786,,707684,,1513267152,645445376,'',0.296705972839,0.307639627435,-0.000257796111238,0.0109336545961,0.001,-65.5247287331,6000.0,0.0,300.0,0.0
1513267154473063646,,707685,,1513267152,655445376,'',0.296705972839,0.307650444986,-0.000478580290272,0.010944472147,0.001,-65.5236402068,6000.0,0.0,300.0,0.0
1513267154483343728,,707686,,1513267152,665445376,'',0.296705972839,0.307646173563,-0.000391609937435,0.0109402007242,0.001,-65.5211132257,6000.0,0.0,300.0,0.0
1513267154493074159,,707687,,1513267152,675445376,'',0.296705972839,0.307628202911,-2.78733192116e-05,0.0109222300715,0.001,-65.5256879659,6000.0,0.0,300.0,0.0
1513267154503366173,,707688,,1513267152,685445376,'',0.296705972839,0.307627973938,-2.28188982219e-05,0.0109220010989,0.001,-65.5257030115,6000.0,0.0,300.0,0.0
1513267154513430907,,707689,,1513267152,695445376,'',0.296705972839,0.307627786539,-1.8682181007e-05,0.0109218136996,0.001,-65.5257374172,6000.0,0.0,300.0,0.0
1513267154523448662,,707690,,1513267152,705445376,'',0.296705972839,0.307627633069,-1.52944392351e-05,0.01092166023,0.001,-65.5257404295,6000.0,0.0,300.0,0.0
1513267154533441560,,707691,,1513267152,715445376,'',0.296705972839,0.307627507659,-1.2526091096e-05,0.0109215348199,0.001,-65.5257387235,6000.0,0.0,300.0,0.0
1513267154543492327,,707692,,1513267152,725445376,'',0.296705972839,0.307612333397,-0.0150504918963,0.0109063605577,0.001,-60.9139161227,6000.0,0.0,300.0,0.0
1513267154553179549,,707693,,1513267152,735445376,'',0.296705972839,0.307628657111,-3.52053340437e-05,0.0109226842715,0.001,-65.5256361254,6000.0,0.0,300.0,0.0
1513267154563395186,,707694,,1513267152,745445376,'',0.296705972839,0.307641724226,-0.000302657426633,0.010935751387,0.001,-65.5422531076,6000.0,0.0,300.0,0.0
1513267154573149588,,707695,,1513267152,755445376,'',0.296705972839,0.307639044341,-0.000247794990834,0.0109330715016,0.001,-65.5246368285,6000.0,0.0,300.0,0.0
1513267154583045728,,707696,,1513267152,765445376,'',0.296705972839,0.307624238154,4.90958481203e-05,0.0109182653146,0.001,-65.5263961718,6000.0,0.0,300.0,0.0
1513267154593485157,,707697,,1513267152,775445376,'',0.296705972839,0.307624726982,4.02139260766e-05,0.010918754143,0.001,-65.5260209054,6000.0,0.0,300.0,0.0
