rosbagTimestamp,header,seq,stamp,secs,nsecs,frame_id,set_point,process_value,process_value_dot,error,time_step,command,p,i,d,i_clamp
1513264676734806003,,459934,,1513264674,965675230,'',0.907571211037,0.170358749045,0.00690158127501,-0.737212461992,0.001,550.0,3100.0,0.0,3000.0,0.0
1513264676745310949,,459935,,1513264674,975675230,'',0.907571211037,0.170373449932,0.00660563420938,-0.737197761105,0.001,550.0,3100.0,0.0,3000.0,0.0
1513264676755253784,,459936,,1513264674,985675230,'',0.907571211037,0.170378814745,0.000538412238667,-0.737192396292,0.001,550.0,3100.0,0.0,3000.0,0.0
1513264676765203346,,459937,,1513264674,995675230,'',0.907571211037,0.170394549061,0.00617688242818,-0.737176661976,0.001,550.0,3100.0,0.0,3000.0,0.0
1513264676775098294,,459938,,1513264675,5675230,'',0.907571211037,0.170427807831,-0.000451698264579,-0.737143403206,0.001,550.0,3100.0,0.0,3000.0,0.0
1513264676785096296,,459939,,1513264675,15675230,'',0.907571211037,0.170434755577,-0.000590763886098,-0.73713645546,0.001,550.0,3100.0,0.0,3000.0,0.0
1513264676794948022,,459940,,1513264675,25675230,'',0.907571211037,0.170456647213,0.00492059063271,-0.737114563824,0.001,550.0,3100.0,0.0,3000.0,0.0
1513264676804844009,,459941,,1513264675,35675230,'',0.907571211037,0.17047442543,-0.00139721995471,-0.737096785607,0.001,550.0,3100.0,0.0,3000.0,0.0
1513264676815176501,,459942,,1513264675,45675230,'',0.907571211037,0.170466830354,-0.00124412079094,-0.737104380683,0.001,550.0,3100.0,0.0,3000.0,0.0
1513264676825183184,,459943,,1513264675,55675230,'',0.907571211037,0.170477926403,0.00448620600367,-0.737093284634,0.001,550.0,3100.0,0.0,3000.0,0.0
1513264676835110826,,459944,,1513264675,65675230,'',0.907571211037,0.170470641898,0.00463393871953,-0.737100569139,0.001,550.0,3100.0,0.0,3000.0,0.0
1513264676844999164,,459945,,1513264675,75675230,'',0.907571211037,0.170469771307,0.00465260772431,-0.73710143973,0.001,550.0,3100.0,0.0,3000.0,0.0
1513264676855007755,,459946,,1513264675,85675230,'',0.907571211037,0.170479597324,-0.0015019240952,-0.737091613713,0.001,550.0,3100.0,0.0,3000.0,0.0
1513264676864826002,,459947,,1513264675,95675230,'',0.907571211037,0.170492755854,-0.00176424770487,-0.737078455183,0.001,550.0,3100.0,0.0,3000.0,0.0
1513264676874816941,,459948,,1513264675,105675230,'',0.907571211037,0.170504392444,0.00991444465494,-0.737066818593,0.001,550.0,3100.0,0.0,3000.0,0.0
1513264676884798030,,459949,,1513264675,115675230,'',0.907571211037,0.170496435124,-0.00183727174327,-0.737074775914,0.001,550.0,3100.0,0.0,3000.0,0.0
1513264676894777627,,459950,,1513264675,125675230,'',0.907571211037,0.170484586127,-0.00755498765591,-0.73708662491,0.001,550.0,3100.0,0.0,3000.0,0.0
1513264676905237789,,459951,,1513264675,135675230,'',0.907571211037,0.170490514934,-0.00172142815667,-0.737080696104,0.001,550.0,3100.0,0.0,3000.0,0.0
1513264676915218570,,459952,,1513264675,145675230,'',0.907571211037,0.170502081553,0.00400120269099,-0.737069129484,0.001,550.0,3100.0,0.0,3000.0,0.0
1513264676925161022,,459953,,1513264675,155675230,'',0.907571211037,0.170527400469,0.00349132414828,-0.737043810568,0.001,550.0,3100.0,0.0,3000.0,0.0
1513264676935150308,,459954,,1513264675,165675230,'',0.907571211037,0.170547761185,0.00308041471878,-0.737023449852,0.001,550.0,3100.0,0.0,3000.0,0.0
1513264676945042503,,459955,,1513264675,175675230,'',0.907571211037,0.17054822308,0.00307322111931,-0.737022987958,0.001,550.0,3100.0,0.0,3000.0,0.0
1513264676954987400,,459956,,1513264675,185675230,'',0.907571211037,0.170544216672,0.00315668645162,-0.737026994365,0.001,550.0,3100.0,0.0,3000.0,0.0
1513264676965321335,,459957,,1513264675,195675230,'',0.907571211037,0.170550363945,0.00303178341959,-0.737020847092,0.001,550.0,3100.0,0.0,3000.0,0.0
1513264676975275769,,459958,,1513264675,205675230,'',0.907571211037,0.170571592808,0.00260316524497,-0.736999618229,0.001,550.0,3100.0,0.0,3000.0,0.0
1513264676985202743,,459959,,1513264675,215675230,'',0.907571211037,0.170557712519,0.00288537027216,-0.737013498518,0.001,550.0,3100.0,0.0,3000.0,0.0
1513264676995088164,,459960,,1513264675,225675230,'',0.907571211037,0.170557009669,0.00289874825897,-0.737014201368,0.001,550.0,3100.0,0.0,3000.0,0.0
1513264677004817619,,459961,,1513264675,235675230,'',0.907571211037,0.170560373865,-0.00312905823196,-0.737010837172,0.001,550.0,3100.0,0.0,3000.0,0.0
1513264677014900315,,459962,,1513264675,245675230,'',0.907571211037,0.170547926237,-0.00287770237629,-0.7370232848,0.001,550.0,3100.0,0.0,3000.0,0.0
1513264677024827240,,459963,,1513264675,255675230,'',0.907571211037,0.170527526245,-0.00246562739343,-0.737043684792,0.001,550.0,3100.0,0.0,3000.0,0.0
1513264677035237062,,459964,,1513264675,265675230,'',0.907571211037,0.170522039,0.00360239651823,-0.737049172037,0.001,550.0,3100.0,0.0,3000.0,0.0
1513264677045135025,,459965,,1513264675,275675230,'',0.907571211037,0.170527863411,0.00348246917074,-0.737043347626,0.001,550.0,3100.0,0.0,3000.0,0.0
1513264677055149559,,459966,,1513264675,285675230,'',0.907571211037,0.170525539715,-0.00242522090323,-0.737045671322,0.001,550.0,3100.0,0.0,3000.0,0.0
1513264677065018592,,459967,,1513264675,295675230,'',0.907571211037,0.17053086926,-0.0025318812298,-0.737040341777,0.001,550.0,3100.0,0.0,3000.0,0.0
1513264677075108991,,459968,,1513264675,305675230,'',0.907571211037,0.170551028931,0.0030168480138,-0.737020182106,0.001,550.0,3100.0,0.0,3000.0,0.0
1513264677085105026,,459969,,1513264675,315675230,'',0.907571211037,0.170562926058,0.00278028611231,-0.73700828498,0.001,550.0,3100.0,0.0,3000.0,0.0
1513264677094936930,,459970,,1513264675,325675230,'',0.907571211037,0.170582848904,0.00237520873942,-0.736988362133,0.001,550.0,3100.0,0.0,3000.0,0.0
1513264677105259431,,459971,,1513264675,335675230,'',0.907571211037,0.170615212226,0.00767448279385,-0.736955998811,0.001,550.0,3100.0,0.0,3000.0,0.0
1513264677115271080,,459972,,1513264675,345675230,'',0.907571211037,0.170624466645,-0.00442283362519,-0.736946744393,0.001,550.0,3100.0,0.0,3000.0,0.0
1513264677125154946,,459973,,1513264675,355675230,'',0.907571211037,0.170642824184,0.00116246602195,-0.736928386854,0.001,550.0,3100.0,0.0,3000.0,0.0
1513264677135000000,,459974,,1513264675,365675230,'',0.907571211037,0.170638117915,0.00125618990424,-0.736933093122,0.001,550.0,3100.0,0.0,3000.0,0.0
1513264677144912026,,459975,,1513264675,375675230,'',0.907571211037,0.170627818328,0.00146622696991,-0.736943392709,0.001,550.0,3100.0,0.0,3000.0,0.0
1513264677154924823,,459976,,1513264675,385675230,'',0.907571211037,0.170647575843,0.00702436260164,-0.736923635194,0.001,550.0,3100.0,0.0,3000.0,0.0
1513264677164816121,,459977,,1513264675,395675230,'',0.907571211037,0.17065160725,0.000986055021874,-0.736919603787,0.001,550.0,3100.0,0.0,3000.0,0.0
1513264677174741611,,459978,,1513264675,405675230,'',0.907571211037,0.170671099174,0.000592136496403,-0.736900111863,0.001,550.0,3100.0,0.0,3000.0,0.0
1513264677184818349,,459979,,1513264675,415675230,'',0.907571211037,0.170677045775,0.00642685144762,-0.736894165262,0.001,550.0,3100.0,0.0,3000.0,0.0
1513264677194729426,,459980,,1513264675,425675230,'',0.907571211037,0.1706805794,0.000398684426466,-0.736890631637,0.001,550.0,3100.0,0.0,3000.0,0.0
1513264677205153985,,459981,,1513264675,435675230,'',0.907571211037,0.170683931486,0.000331920334118,-0.736887279551,0.001,550.0,3100.0,0.0,3000.0,0.0
1513264677215076573,,459982,,1513264675,445675230,'',0.907571211037,0.170675057244,-0.00544455296577,-0.736896153793,0.001,550.0,3100.0,0.0,3000.0,0.0
1513264677225009044,,459983,,1513264675,455675230,'',0.907571211037,0.170696715026,7.01208051416e-05,-0.736874496011,0.001,550.0,3100.0,0.0,3000.0,0.0
1513264677234932120,,459984,,1513264675,465675230,'',0.907571211037,0.170708205535,-0.000160282244881,-0.736863005502,0.001,550.0,3100.0,0.0,3000.0,0.0
1513264677244909062,,459985,,1513264675,475675230,'',0.907571211037,0.170727405847,-0.000547189131813,-0.73684380519,0.001,550.0,3100.0,0.0,3000.0,0.0
1513264677254809638,,459986,,1513264675,485675230,'',0.907571211037,0.170738476636,0.00518438858105,-0.736832734401,0.001,550.0,3100.0,0.0,3000.0,0.0
1513264677265282850,,459987,,1513264675,495675230,'',0.907571211037,0.170752101002,-0.0070066326612,-0.736819110035,0.001,550.0,3100.0,0.0,3000.0,0.0
1513264677275271189,,459988,,1513264675,505675230,'',0.907571211037,0.170764394452,0.010609979205,-0.736806816585,0.001,550.0,3100.0,0.0,3000.0,0.0
1513264677285163739,,459989,,1513264675,515675230,'',0.907571211037,0.17078529778,0.00423265630322,-0.736785913257,0.001,550.0,3100.0,0.0,3000.0,0.0
1513264677295230303,,459990,,1513264675,525675230,'',0.907571211037,0.170790617178,-0.00182889671254,-0.736780593859,0.001,550.0,3100.0,0.0,3000.0,0.0
1513264677305139287,,459991,,1513264675,535675230,'',0.907571211037,0.170800945233,0.00391611089603,-0.736770265804,0.001,550.0,3100.0,0.0,3000.0,0.0
1513264677315154248,,459992,,1513264675,545675230,'',0.907571211037,0.170814779262,0.00363621157316,-0.736756431775,0.001,550.0,3100.0,0.0,3000.0,0.0
1513264677325117121,,459993,,1513264675,555675230,'',0.907571211037,0.170821462304,-0.00245530083448,-0.736749748733,0.001,550.0,3100.0,0.0,3000.0,0.0
1513264677335080087,,459994,,1513264675,565675230,'',0.907571211037,0.170841302572,0.00310252968388,-0.736729908465,0.001,550.0,3100.0,0.0,3000.0,0.0
1513264677345368525,,459995,,1513264675,575675230,'',0.907571211037,0.170854884488,0.00878785927633,-0.736716326549,0.001,550.0,3100.0,0.0,3000.0,0.0
1513264677355250501,,459996,,1513264675,585675230,'',0.907571211037,0.17085416823,0.00284877623163,-0.736717042807,0.001,550.0,3100.0,0.0,3000.0,0.0
1513264677365207727,,459997,,1513264675,595675230,'',0.907571211037,0.170868781441,0.00255250601323,-0.736702429596,0.001,550.0,3100.0,0.0,3000.0,0.0
1513264677375458073,,459998,,1513264675,605675230,'',0.907571211037,0.170854425999,-0.00311392906121,-0.736716785038,0.001,550.0,3100.0,0.0,3000.0,0.0
1513264677385049476,,459999,,1513264675,615675230,'',0.907571211037,0.170848166625,-0.00298632508348,-0.736723044412,0.001,550.0,3100.0,0.0,3000.0,0.0
1513264677394984365,,460000,,1513264675,625675230,'',0.907571211037,0.170875231367,0.00837878091385,-0.73669597967,0.001,550.0,3100.0,0.0,3000.0,0.0
1513264677404985351,,460001,,1513264675,635675230,'',0.907571211037,0.170870359015,0.00251914608162,-0.736700852022,0.001,550.0,3100.0,0.0,3000.0,0.0
1513264677414871549,,460002,,1513264675,645675230,'',0.907571211037,0.170871337841,-0.00345747827396,-0.736699873196,0.001,550.0,3100.0,0.0,3000.0,0.0
1513264677424778121,,460003,,1513264675,655675230,'',0.907571211037,0.170882734783,-0.00368309449084,-0.736688476254,0.001,550.0,3100.0,0.0,3000.0,0.0
1513264677435243447,,460004,,1513264675,665675230,'',0.907571211037,0.17088132955,0.0022984156052,-0.736689881487,0.001,550.0,3100.0,0.0,3000.0,0.0
1513264677445145450,,460005,,1513264675,675675230,'',0.907571211037,0.170869628838,-0.00341893684372,-0.736701582199,0.001,550.0,3100.0,0.0,3000.0,0.0
1513264677455220933,,460006,,1513264675,685675230,'',0.907571211037,0.170865059775,0.00262514003699,-0.736706151262,0.001,550.0,3100.0,0.0,3000.0,0.0
1513264677465142177,,460007,,1513264675,695675230,'',0.907571211037,0.17087229364,0.00247815714878,-0.736698917397,0.001,550.0,3100.0,0.0,3000.0,0.0
1513264677475128323,,460008,,1513264675,705675230,'',0.907571211037,0.170872163079,-0.00347734140019,-0.736699047958,0.001,550.0,3100.0,0.0,3000.0,0.0
1513264677485109121,,460009,,1513264675,715675230,'',0.907571211037,0.170906144956,0.00179572127579,-0.736665066081,0.001,550.0,3100.0,0.0,3000.0,0.0
1513264677495016382,,460010,,1513264675,725675230,'',0.907571211037,0.170911973593,0.00167718484037,-0.736659237444,0.001,550.0,3100.0,0.0,3000.0,0.0
1513264677505035399,,460011,,1513264675,735675230,'',0.907571211037,0.170920257736,-0.00444476995897,-0.736650953301,0.001,550.0,3100.0,0.0,3000.0,0.0
1513264677514992432,,460012,,1513264675,745675230,'',0.907571211037,0.170945331642,0.00100624852599,-0.736625879395,0.001,550.0,3100.0,0.0,3000.0,0.0
1513264677524792642,,460013,,1513264675,755675230,'',0.907571211037,0.170932158949,-0.00468896238776,-0.736639052088,0.001,550.0,3100.0,0.0,3000.0,0.0
1513264677535244370,,460014,,1513264675,765675230,'',0.907571211037,0.170943029825,0.00104785923149,-0.736628181212,0.001,550.0,3100.0,0.0,3000.0,0.0
1513264677545223060,,460015,,1513264675,775675230,'',0.907571211037,0.170958483603,0.00669114294052,-0.736612727434,0.001,550.0,3100.0,0.0,3000.0,0.0
1513264677554787349,,460016,,1513264675,785675230,'',0.907571211037,0.170959444626,-0.00524428101046,-0.736611766411,0.001,550.0,3100.0,0.0,3000.0,0.0
1513264677564785982,,460017,,1513264675,795675230,'',0.907571211037,0.170966889332,0.00652040446603,-0.736604321705,0.001,550.0,3100.0,0.0,3000.0,0.0
1513264677575306332,,460018,,1513264675,805675230,'',0.907571211037,0.17098711285,0.00015609649664,-0.736584098187,0.001,550.0,3100.0,0.0,3000.0,0.0
1513264677585138514,,460019,,1513264675,815675230,'',0.907571211037,0.170987381871,0.000153808589227,-0.736583829166,0.001,550.0,3100.0,0.0,3000.0,0.0
1513264677595114197,,460020,,1513264675,825675230,'',0.907571211037,0.171000069228,0.005853403614,-0.736571141809,0.001,550.0,3100.0,0.0,3000.0,0.0
1513264677605127043,,460021,,1513264675,835675230,'',0.907571211037,0.170992432924,-0.00590302837874,-0.736578778113,0.001,550.0,3100.0,0.0,3000.0,0.0
1513264677615037880,,460022,,1513264675,845675230,'',0.907571211037,0.171007999465,-0.00621743496691,-0.736563211572,0.001,550.0,3100.0,0.0,3000.0,0.0
1513264677624915078,,460023,,1513264675,855675230,'',0.907571211037,0.171021170587,-0.000522255288283,-0.73655004045,0.001,550.0,3100.0,0.0,3000.0,0.0
1513264677635058461,,460024,,1513264675,865675230,'',0.907571211037,0.171033471471,-0.00077181797458,-0.736537739566,0.001,550.0,3100.0,0.0,3000.0,0.0
1513264677644832091,,460025,,1513264675,875675230,'',0.907571211037,0.171043131499,0.00499006272203,-0.736528079538,0.001,550.0,3100.0,0.0,3000.0,0.0
1513264677655019640,,460026,,1513264675,885675230,'',0.907571211037,0.171061770113,0.00461374053581,-0.736509440924,0.001,550.0,3100.0,0.0,3000.0,0.0
1513264677665204094,,460027,,1513264675,895675230,'',0.907571211037,0.171070385009,-0.00151860808524,-0.736500826028,0.001,550.0,3100.0,0.0,3000.0,0.0
1513264677675174648,,460028,,1513264675,905675230,'',0.907571211037,0.171046933109,-0.00104747924647,-0.736524277928,0.001,550.0,3100.0,0.0,3000.0,0.0
1513264677685088979,,460029,,1513264675,915675230,'',0.907571211037,0.171076007407,0.0043231928529,-0.73649520363,0.001,550.0,3100.0,0.0,3000.0,0.0
1513264677695163983,,460030,,1513264675,925675230,'',0.907571211037,0.17108276729,0.00418331425895,-0.736488443747,0.001,550.0,3100.0,0.0,3000.0,0.0
1513264677705077371,,460031,,1513264675,935675230,'',0.907571211037,0.171093526989,-0.00198573048489,-0.736477684048,0.001,550.0,3100.0,0.0,3000.0,0.0
1513264677715250882,,460032,,1513264675,945675230,'',0.907571211037,0.171097725533,0.00388283672899,-0.736473485504,0.001,550.0,3100.0,0.0,3000.0,0.0
1513264677725121031,,460033,,1513264675,955675230,'',0.907571211037,0.171084509523,0.00414644036225,-0.736486701514,0.001,550.0,3100.0,0.0,3000.0,0.0
1513264677734970363,,460034,,1513264675,965675230,'',0.907571211037,0.171116915809,0.0034921288982,-0.736454295228,0.001,550.0,3100.0,0.0,3000.0,0.0
1513264677745026253,,460035,,1513264675,975675230,'',0.907571211037,0.17112117219,-0.00254808404624,-0.736450038847,0.001,550.0,3100.0,0.0,3000.0,0.0
1513264677754892098,,460036,,1513264675,985675230,'',0.907571211037,0.171136947074,0.00310278904551,-0.736434263963,0.001,550.0,3100.0,0.0,3000.0,0.0
1513264677764749206,,460037,,1513264675,995675230,'',0.907571211037,0.171160018474,0.00263155977856,-0.736411192563,0.001,550.0,3100.0,0.0,3000.0,0.0
1513264677775333184,,460038,,1513264676,5675230,'',0.907571211037,0.171167840873,0.00246982859069,-0.736403370164,0.001,550.0,3100.0,0.0,3000.0,0.0
1513264677785142610,,460039,,1513264676,15675230,'',0.907571211037,0.171147905088,-0.00308128729822,-0.736423305949,0.001,550.0,3100.0,0.0,3000.0,0.0
1513264677795120906,,460040,,1513264676,25675230,'',0.907571211037,0.17115235673,0.00278485921693,-0.736418854307,0.001,550.0,3100.0,0.0,3000.0,0.0
1513264677805062904,,460041,,1513264676,35675230,'',0.907571211037,0.171156186899,0.00270564325484,-0.736415024138,0.001,550.0,3100.0,0.0,3000.0,0.0
1513264677814920084,,460042,,1513264676,45675230,'',-0.25,0.171185309774,0.0021152178152,0.421185309774,0.001,-550.0,3100.0,0.0,3000.0,0.0
1513264677824963358,,460043,,1513264676,55675230,'',-0.25,0.171193561121,0.00194536515155,0.421193561121,0.001,-550.0,3100.0,0.0,3000.0,0.0
1513264677834859065,,460044,,1513264676,65675230,'',-0.25,0.171189383329,-0.00392569146724,0.421189383329,0.001,-550.0,3100.0,0.0,3000.0,0.0
1513264677844857593,,460045,,1513264676,75675230,'',-0.25,0.171202302684,0.00176819701652,0.421202302684,0.001,-550.0,3100.0,0.0,3000.0,0.0
1513264677855261211,,460046,,1513264676,85675230,'',-0.25,0.171140818962,-0.0208122160814,0.421140818962,0.001,-550.0,3100.0,0.0,3000.0,0.0
1513264677865138766,,460047,,1513264676,95675230,'',-0.25,0.170697329621,-0.0773677564629,0.420697329621,0.001,-550.0,3100.0,0.0,3000.0,0.0
1513264677875104073,,460048,,1513264676,105675230,'',-0.25,0.169345322048,-0.187037566474,0.419345322048,0.001,-550.0,3100.0,0.0,3000.0,0.0
1513264677884989169,,460049,,1513264676,115675230,'',-0.25,0.166842140897,-0.315137786278,0.416842140897,0.001,-344.812529949,3100.0,0.0,3000.0,0.0
1513264677894773105,,460050,,1513264676,125675230,'',-0.25,0.162893322318,-0.461685303193,0.412893322318,0.001,110.65817382,3100.0,0.0,3000.0,0.0
1513264677905218097,,460051,,1513264676,135675230,'',-0.25,0.157827845299,-0.532073022091,0.407827845299,0.001,338.371412423,3100.0,0.0,3000.0,0.0
1513264677915200430,,460052,,1513264676,145675230,'',-0.25,0.15254212544,-0.514629622838,0.40254212544,0.001,268.019730687,3100.0,0.0,3000.0,0.0
1513264677924862556,,460053,,1513264676,155675230,'',-0.25,0.147711028708,-0.4468129227,0.397711028708,0.001,122.292278145,3100.0,0.0,3000.0,0.0
1513264677934926078,,460054,,1513264676,165675230,'',-0.25,0.143642197173,-0.370572523511,0.393642197173,0.001,-106.238539525,3100.0,0.0,3000.0,0.0
1513264677945219132,,460055,,1513264676,175675230,'',-0.25,0.140287435011,-0.308755809584,0.390287435011,0.001,-278.102757324,3100.0,0.0,3000.0,0.0
1513264677955026069,,460056,,1513264676,185675230,'',-0.25,0.137486207259,-0.258124877638,0.387486207259,0.001,-422.220789953,3100.0,0.0,3000.0,0.0
1513264677965087985,,460057,,1513264676,195675230,'',-0.25,0.135074394065,-0.233225237438,0.385074394065,0.001,-491.907174739,3100.0,0.0,3000.0,0.0
1513264677974978344,,460058,,1513264676,205675230,'',-0.25,0.132583535554,-0.266285032271,0.382583535554,0.001,-398.546713842,3100.0,0.0,3000.0,0.0
1513264677984871892,,460059,,1513264676,215675230,'',-0.25,0.129569362901,-0.330467166899,0.379569362901,0.001,-180.074958696,3100.0,0.0,3000.0,0.0
1513264677995330892,,460060,,1513264676,225675230,'',-0.25,0.125875420083,-0.392827057281,0.375875420083,0.001,20.5674045449,3100.0,0.0,3000.0,0.0
1513264678005182574,,460061,,1513264676,235675230,'',-0.25,0.121713091966,-0.427854800365,0.371713091966,0.001,110.468209621,3100.0,0.0,3000.0,0.0
1513264678015162577,,460062,,1513264676,245675230,'',-0.25,0.117461308758,-0.41343168994,0.367461308758,0.001,108.557216396,3100.0,0.0,3000.0,0.0
1513264678025060691,,460063,,1513264676,255675230,'',-0.25,0.113562461946,-0.370407091681,0.363562461946,0.001,-10.277004884,3100.0,0.0,3000.0,0.0
1513264678034976247,,460064,,1513264676,265675230,'',-0.25,0.110166720646,-0.313718714931,0.360166720646,0.001,-190.601302729,3100.0,0.0,3000.0,0.0
1513264678044998557,,460065,,1513264676,275675230,'',-0.25,0.10727642928,-0.2672411879,0.35727642928,0.001,-300.278049568,3100.0,0.0,3000.0,0.0
1513264678055404989,,460066,,1513264676,285675230,'',-0.25,0.104825660961,-0.235602509034,0.354825660961,0.001,-390.304129232,3100.0,0.0,3000.0,0.0
1513264678065243338,,460067,,1513264676,295675230,'',-0.25,0.102461203726,-0.241437892607,0.352461203726,0.001,-378.475060799,3100.0,0.0,3000.0,0.0
1513264678075262512,,460068,,1513264676,305675230,'',-0.25,0.0999060493439,-0.273200934825,0.349906049344,0.001,-261.012326787,3100.0,0.0,3000.0,0.0
1513264678085182199,,460069,,1513264676,315675230,'',-0.25,0.0969389731642,-0.314512126533,0.346938973164,0.001,-126.134469515,3100.0,0.0,3000.0,0.0
1513264678095093126,,460070,,1513264676,325675230,'',-0.25,0.0935889554253,-0.348083903792,0.343588955425,0.001,-36.7865153019,3100.0,0.0,3000.0,0.0
1513264678105107007,,460071,,1513264676,335675230,'',-0.25,0.0901216204599,-0.343551387812,0.34012162046,0.001,-15.3523962858,3100.0,0.0,3000.0,0.0
1513264678115009004,,460072,,1513264676,345675230,'',-0.25,0.0868123287974,-0.31839102444,0.336812328797,0.001,-89.0131451986,3100.0,0.0,3000.0,0.0
1513264678124781649,,460073,,1513264676,355675230,'',-0.25,0.0837684216625,-0.286674348998,0.333768421662,0.001,-171.186007411,3100.0,0.0,3000.0,0.0
1513264678134740210,,460074,,1513264676,365675230,'',-0.25,0.0810564539192,-0.261666189864,0.331056453919,0.001,-237.344336566,3100.0,0.0,3000.0,0.0
1513264678145128467,,460075,,1513264676,375675230,'',-0.25,0.0786388693701,-0.230698490954,0.32863886937,0.001,-307.054627195,3100.0,0.0,3000.0,0.0
1513264678155040829,,460076,,1513264676,385675230,'',-0.25,0.0764335957334,-0.215928289321,0.326433595733,0.001,-361.54744837,3100.0,0.0,3000.0,0.0
1513264678165159208,,460077,,1513264676,395675230,'',-0.25,0.0743134535199,-0.20883657558,0.32431345352,0.001,-388.414599307,3100.0,0.0,3000.0,0.0
1513264678175114061,,460078,,1513264676,405675230,'',-0.25,0.0721965801972,-0.213718669404,0.322196580197,0.001,-353.071048689,3100.0,0.0,3000.0,0.0
1513264678184922602,,460079,,1513264676,415675230,'',-0.25,0.0700848688367,-0.212748822971,0.320084868837,0.001,-350.836597123,3100.0,0.0,3000.0,0.0
1513264678194938616,,460080,,1513264676,425675230,'',-0.25,0.0679145167604,-0.222506762886,0.31791451676,0.001,-328.833687561,3100.0,0.0,3000.0,0.0
1513264678205206956,,460081,,1513264676,435675230,'',-0.25,0.0656845048587,-0.225104725494,0.315684504859,0.001,-268.381387845,3100.0,0.0,3000.0,0.0
1513264678215141966,,460082,,1513264676,445675230,'',-0.25,0.063375404894,-0.232056938779,0.313375404894,0.001,-270.312202599,3100.0,0.0,3000.0,0.0
1513264678225102515,,460083,,1513264676,455675230,'',-0.25,0.0610933174082,-0.22169121945,0.311093317408,0.001,-313.296223267,3100.0,0.0,3000.0,0.0
1513264678235061310,,460084,,1513264676,465675230,'',-0.25,0.0589593830509,-0.202406747068,0.308959383051,0.001,-346.800121766,3100.0,0.0,3000.0,0.0
1513264678245160736,,460085,,1513264676,475675230,'',-0.25,0.0570327156474,-0.181351861015,0.307032715647,0.001,-405.5596774,3100.0,0.0,3000.0,0.0
1513264678255283268,,460086,,1513264676,485675230,'',-0.25,0.0553314264868,-0.158892037456,0.305331426487,0.001,-479.404304635,3100.0,0.0,3000.0,0.0
1513264678265171857,,460087,,1513264676,495675230,'',-0.25,0.0538564364671,-0.135051599099,0.303856436467,0.001,-545.31054025,3100.0,0.0,3000.0,0.0
1513264678275165623,,460088,,1513264676,505675230,'',-0.25,0.0525391291719,-0.126307062128,0.302539129172,0.001,-550.0,3100.0,0.0,3000.0,0.0
1513264678285083323,,460089,,1513264676,515675230,'',-0.25,0.0513871785486,-0.108992260707,0.301387178549,0.001,-550.0,3100.0,0.0,3000.0,0.0
1513264678294989524,,460090,,1513264676,525675230,'',-0.25,0.0503718437229,-0.10038946775,0.300371843723,0.001,-550.0,3100.0,0.0,3000.0,0.0
1513264678304931190,,460091,,1513264676,535675230,'',-0.25,0.0494757812328,-0.0822869561389,0.299475781233,0.001,-550.0,3100.0,0.0,3000.0,0.0
1513264678315260162,,460092,,1513264676,545675230,'',-0.25,0.0486570701715,-0.0776597149391,0.298657070172,0.001,-550.0,3100.0,0.0,3000.0,0.0
1513264678325204575,,460093,,1513264676,555675230,'',-0.25,0.0479597946511,-0.0635748300508,0.297959794651,0.001,-550.0,3100.0,0.0,3000.0,0.0
1513264678335177533,,460094,,1513264676,565675230,'',-0.25,0.0473567587865,-0.0633049112607,0.297356758787,0.001,-550.0,3100.0,0.0,3000.0,0.0
1513264678345380816,,460095,,1513264676,575675230,'',-0.25,0.0467874981015,-0.0518051929406,0.296787498102,0.001,-550.0,3100.0,0.0,3000.0,0.0
1513264678355135964,,460096,,1513264676,585675230,'',-0.25,0.0462674390597,-0.0532136253773,0.29626743906,0.001,-550.0,3100.0,0.0,3000.0,0.0
1513264678365058181,,460097,,1513264676,595675230,'',-0.25,0.0458269079801,-0.0502698401726,0.29582690798,0.001,-550.0,3100.0,0.0,3000.0,0.0
1513264678375088837,,460098,,1513264676,605675230,'',-0.25,0.0454168583039,-0.0419862795764,0.295416858304,0.001,-550.0,3100.0,0.0,3000.0,0.0
1513264678384891040,,460099,,1513264676,615675230,'',-0.25,0.0450345492273,-0.0342631537335,0.295034549227,0.001,-550.0,3100.0,0.0,3000.0,0.0
1513264678394950253,,460100,,1513264676,625675230,'',-0.25,0.0446728128151,-0.0329101569221,0.294672812815,0.001,-550.0,3100.0,0.0,3000.0,0.0
1513264678405076228,,460101,,1513264676,635675230,'',-0.25,0.0443279804831,-0.0318982284101,0.294327980483,0.001,-550.0,3100.0,0.0,3000.0,0.0
1513264678414854728,,460102,,1513264676,645675230,'',-0.25,0.0440143804238,-0.031521832411,0.294014380424,0.001,-550.0,3100.0,0.0,3000.0,0.0
1513264678425393018,,460103,,1513264676,655675230,'',-0.25,0.0437318128733,-0.025811553171,0.293731812873,0.001,-550.0,3100.0,0.0,3000.0,0.0
1513264678435218530,,460104,,1513264676,665675230,'',-0.25,0.0434733987683,-0.0265500708788,0.293473398768,0.001,-550.0,3100.0,0.0,3000.0,0.0
1513264678445253582,,460105,,1513264676,675675230,'',-0.25,0.0432567819106,-0.0162162526867,0.293256781911,0.001,-550.0,3100.0,0.0,3000.0,0.0
1513264678455282210,,460106,,1513264676,685675230,'',-0.25,0.0430528847933,-0.0180524398927,0.293052884793,0.001,-550.0,3100.0,0.0,3000.0,0.0
1513264678465278030,,460107,,1513264676,695675230,'',-0.25,0.0428419050497,-0.0197569895225,0.29284190505,0.001,-550.0,3100.0,0.0,3000.0,0.0
1513264678475194762,,460108,,1513264676,705675230,'',-0.25,0.0426382439217,-0.0156423669997,0.292638243922,0.001,-550.0,3100.0,0.0,3000.0,0.0
1513264678485088574,,460109,,1513264676,715675230,'',-0.25,0.042444071556,-0.0176737312624,0.292444071556,0.001,-550.0,3100.0,0.0,3000.0,0.0
1513264678495032541,,460110,,1513264676,725675230,'',-0.25,0.0422528054812,-0.0197646589723,0.292252805481,0.001,-550.0,3100.0,0.0,3000.0,0.0
1513264678504935910,,460111,,1513264676,735675230,'',-0.25,0.0420753905185,-0.0161796997309,0.292075390519,0.001,-550.0,3100.0,0.0,3000.0,0.0
1513264678515202763,,460112,,1513264676,745675230,'',-0.25,0.0418923006885,-0.0184347012106,0.291892300688,0.001,-550.0,3100.0,0.0,3000.0,0.0
1513264678525180476,,460113,,1513264676,755675230,'',-0.25,0.0417263743802,-0.0210370535757,0.29172637438,0.001,-550.0,3100.0,0.0,3000.0,0.0
1513264678535208873,,460114,,1513264676,765675230,'',-0.25,0.0415740565869,-0.01796024176,0.291574056587,0.001,-550.0,3100.0,0.0,3000.0,0.0
1513264678545182780,,460115,,1513264676,775675230,'',-0.25,0.0414335250462,-0.0151214166483,0.291433525046,0.001,-550.0,3100.0,0.0,3000.0,0.0
1513264678555178758,,460116,,1513264676,785675230,'',-0.25,0.0413088260035,-0.00664612124327,0.291308826004,0.001,-550.0,3100.0,0.0,3000.0,0.0
1513264678565038543,,460117,,1513264676,795675230,'',-0.25,0.0412013678529,-0.0104319480773,0.291201367853,0.001,-550.0,3100.0,0.0,3000.0,0.0
1513264678574972560,,460118,,1513264676,805675230,'',-0.25,0.0411021828369,-0.0143804855673,0.291102182837,0.001,-550.0,3100.0,0.0,3000.0,0.0
1513264678584776140,,460119,,1513264676,815675230,'',-0.25,0.0410316990664,-0.00700472428933,0.291031699066,0.001,-550.0,3100.0,0.0,3000.0,0.0
1513264678594910598,,460120,,1513264676,825675230,'',-0.25,0.0410119469877,-0.000649824380139,0.291011946988,0.001,-550.0,3100.0,0.0,3000.0,0.0
1513264678605324498,,460121,,1513264676,835675230,'',-0.25,0.0409953012324,-0.000313034610964,0.290995301232,0.001,-550.0,3100.0,0.0,3000.0,0.0
1513264678615278689,,460122,,1513264676,845675230,'',-0.25,0.0410148598682,0.00524933487824,0.291014859868,0.001,-550.0,3100.0,0.0,3000.0,0.0
1513264678625269224,,460123,,1513264676,855675230,'',-0.25,0.0410619741536,0.00429744435566,0.291061974154,0.001,-550.0,3100.0,0.0,3000.0,0.0
1513264678635088800,,460124,,1513264676,865675230,'',-0.25,0.0411114446995,0.00924991429219,0.2911114447,0.001,-550.0,3100.0,0.0,3000.0,0.0
1513264678645112087,,460125,,1513264676,875675230,'',-0.25,0.0411895109925,0.00767586475902,0.291189510993,0.001,-550.0,3100.0,0.0,3000.0,0.0
1513264678655059541,,460126,,1513264676,885675230,'',-0.25,0.0413242195124,0.0109103825994,0.291324219512,0.001,-550.0,3100.0,0.0,3000.0,0.0
1513264678665044517,,460127,,1513264676,895675230,'',-0.25,0.0415245712819,0.0187754894992,0.291524571282,0.001,-550.0,3100.0,0.0,3000.0,0.0
1513264678674968952,,460128,,1513264676,905675230,'',-0.25,0.0417905737079,0.025314039509,0.291790573708,0.001,-550.0,3100.0,0.0,3000.0,0.0
1513264678684863655,,460129,,1513264676,915675230,'',-0.25,0.0420680835408,0.0316193409391,0.292068083541,0.001,-550.0,3100.0,0.0,3000.0,0.0
1513264678694913904,,460130,,1513264676,925675230,'',-0.25,0.0423852792051,0.0311672370107,0.292385279205,0.001,-550.0,3100.0,0.0,3000.0,0.0
1513264678705440431,,460131,,1513264676,935675230,'',-0.25,0.0426770056185,0.0312355447816,0.292677005619,0.001,-550.0,3100.0,0.0,3000.0,0.0
1513264678715231828,,460132,,1513264676,945675230,'',-0.25,0.0429147449561,0.0204790520944,0.292914744956,0.001,-550.0,3100.0,0.0,3000.0,0.0
1513264678725078769,,460133,,1513264676,955675230,'',-0.25,0.0431637634603,0.0273599389436,0.29316376346,0.001,-550.0,3100.0,0.0,3000.0,0.0
1513264678735057361,,460134,,1513264676,965675230,'',-0.25,0.0433325791425,0.000123846291992,0.293332579142,0.001,-550.0,3100.0,0.0,3000.0,0.0
1513264678745015523,,460135,,1513264676,975675230,'',-0.25,0.0432067613467,-0.044981713673,0.293206761347,0.001,-550.0,3100.0,0.0,3000.0,0.0
1513264678754997999,,460136,,1513264676,985675230,'',-0.25,0.0420347130559,-0.194020236381,0.292034713056,0.001,-333.222744936,3100.0,0.0,3000.0,0.0
1513264678764968037,,460137,,1513264676,995675230,'',-0.25,0.0390341606423,-0.407369693629,0.289034160642,0.001,329.855325994,3100.0,0.0,3000.0,0.0
1513264678774960565,,460138,,1513264677,5675230,'',-0.25,0.0335451193508,-0.641919461244,0.283545119351,0.001,550.0,3100.0,0.0,3000.0,0.0
1513264678784835776,,460139,,1513264677,15675230,'',-0.25,0.0262767430693,-0.744228559856,0.276276743069,0.001,550.0,3100.0,0.0,3000.0,0.0
1513264678794856303,,460140,,1513264677,25675230,'',-0.25,0.0196664146054,-0.582856549812,0.269666414605,0.001,550.0,3100.0,0.0,3000.0,0.0
1513264678805317619,,460141,,1513264677,35675230,'',-0.25,0.0145018801025,-0.459969948348,0.264501880102,0.001,550.0,3100.0,0.0,3000.0,0.0
1513264678815197663,,460142,,1513264677,45675230,'',-0.25,0.0103896091867,-0.367619182244,0.260389609187,0.001,277.771991027,3100.0,0.0,3000.0,0.0
1513264678825189865,,460143,,1513264677,55675230,'',-0.25,0.00703214140918,-0.299789688627,0.257032141409,0.001,133.491227636,3100.0,0.0,3000.0,0.0
1513264678835141066,,460144,,1513264677,65675230,'',-0.25,0.00427217804828,-0.253312266605,0.254272178048,0.001,-23.778298932,3100.0,0.0,3000.0,0.0
1513264678845140036,,460145,,1513264677,75675230,'',-0.25,0.00199466965515,-0.207304249206,0.251994669655,0.001,-170.539766526,3100.0,0.0,3000.0,0.0
1513264678855143195,,460146,,1513264677,85675230,'',-0.25,0.000198186633522,-0.17101152838,0.250198186634,0.001,-259.888278298,3100.0,0.0,3000.0,0.0
1513264678865207702,,460147,,1513264677,95675230,'',-0.25,-0.0012447651943,-0.132585268393,0.248755234806,0.001,-371.014021909,3100.0,0.0,3000.0,0.0
1513264678875072384,,460148,,1513264677,105675230,'',-0.25,-0.00242410514038,-0.108761373782,0.24757589486,0.001,-446.483945755,3100.0,0.0,3000.0,0.0
1513264678884966866,,460149,,1513264677,115675230,'',-0.25,-0.0033343337628,-0.0810928624373,0.246665666237,0.001,-525.550285767,3100.0,0.0,3000.0,0.0
1513264678894982759,,460150,,1513264677,125675230,'',-0.25,-0.00410421648709,-0.0748134071036,0.245895783513,0.001,-543.230164933,3100.0,0.0,3000.0,0.0
1513264678905113927,,460151,,1513264677,135675230,'',-0.25,-0.00472745721299,-0.0622227439093,0.245272542787,0.001,-550.0,3100.0,0.0,3000.0,0.0
1513264678915040847,,460152,,1513264677,145675230,'',-0.25,-0.00524328718481,-0.0425257955646,0.244756712815,0.001,-550.0,3100.0,0.0,3000.0,0.0
1513264678925051578,,460153,,1513264677,155675230,'',-0.25,-0.00569189277665,-0.0427393707056,0.244308107223,0.001,-550.0,3100.0,0.0,3000.0,0.0
1513264678935182075,,460154,,1513264677,165675230,'',-0.25,-0.00644670031967,-0.11099925507,0.24355329968,0.001,-420.013948442,3100.0,0.0,3000.0,0.0
1513264678945078676,,460155,,1513264677,175675230,'',-0.25,-0.00861872418046,-0.326912988114,0.24138127582,0.001,251.318724287,3100.0,0.0,3000.0,0.0
1513264678955436410,,460156,,1513264677,185675230,'',-0.25,-0.0136335711781,-0.64313401083,0.236366428822,0.001,550.0,3100.0,0.0,3000.0,0.0
1513264678965097563,,460157,,1513264677,195675230,'',-0.25,-0.0212152776849,-0.78688958527,0.228784722315,0.001,550.0,3100.0,0.0,3000.0,0.0
1513264678974961652,,460158,,1513264677,205675230,'',-0.25,-0.0283321786075,-0.633832035306,0.221667821393,0.001,550.0,3100.0,0.0,3000.0,0.0
1513264678985008882,,460159,,1513264677,215675230,'',-0.25,-0.0340292707849,-0.509468862361,0.215970729215,0.001,550.0,3100.0,0.0,3000.0,0.0
1513264678995044510,,460160,,1513264677,225675230,'',-0.25,-0.038559666186,-0.40867179933,0.211440333814,0.001,513.531251063,3100.0,0.0,3000.0,0.0
1513264679005126098,,460161,,1513264677,235675230,'',-0.25,-0.0421869000869,-0.326124880307,0.207813099913,0.001,339.03733879,3100.0,0.0,3000.0,0.0
1513264679015426351,,460162,,1513264677,245675230,'',-0.25,-0.0450981170185,-0.267316501292,0.204901882982,0.001,169.206250295,3100.0,0.0,3000.0,0.0
1513264679025563425,,460163,,1513264677,255675230,'',-0.25,-0.0474846532139,-0.209821606547,0.202515346786,0.001,61.4184556036,3100.0,0.0,3000.0,0.0
1513264679034811611,,460164,,1513264677,265675230,'',-0.25,-0.0493814490336,-0.180778217527,0.200618550966,0.001,-88.8656653712,3100.0,0.0,3000.0,0.0
1513264679045405761,,460165,,1513264677,275675230,'',-0.25,-0.0508673650002,-0.132209387004,0.199132635,0.001,-197.859038155,3100.0,0.0,3000.0,0.0
1513264679055366652,,460166,,1513264677,285675230,'',-0.25,-0.0520401037188,-0.099242517435,0.197959896281,0.001,-321.628343308,3100.0,0.0,3000.0,0.0
1513264679065257666,,460167,,1513264677,295675230,'',-0.25,-0.0528949555604,-0.0819717101323,0.19710504444,0.001,-369.322966661,3100.0,0.0,3000.0,0.0
1513264679075151640,,460168,,1513264677,305675230,'',-0.25,-0.0535213519566,-0.0507602902727,0.196478648043,0.001,-456.179462855,3100.0,0.0,3000.0,0.0
1513264679085165085,,460169,,1513264677,315675230,'',-0.25,-0.0539259508536,-0.033307292948,0.196074049146,0.001,-507.274674305,3100.0,0.0,3000.0,0.0
1513264679095038079,,460170,,1513264677,325675230,'',-0.25,-0.0542079403647,-0.0276094928924,0.195792059635,0.001,-524.114701303,3100.0,0.0,3000.0,0.0
1513264679105234037,,460171,,1513264677,335675230,'',-0.25,-0.0543880301453,-0.0146917279352,0.195611969855,0.001,-550.0,3100.0,0.0,3000.0,0.0
1513264679115304511,,460172,,1513264677,345675230,'',-0.25,-0.0545287242442,-0.0118485931995,0.195471275756,0.001,-550.0,3100.0,0.0,3000.0,0.0
1513264679125292186,,460173,,1513264677,355675230,'',-0.25,-0.05463497328,-0.00970372414513,0.19536502672,0.001,-550.0,3100.0,0.0,3000.0,0.0
1513264679135052956,,460174,,1513264677,365675230,'',-0.25,-0.0549293312843,-0.0594293458633,0.195070668716,0.001,-425.698328122,3100.0,0.0,3000.0,0.0
1513264679144984469,,460175,,1513264677,375675230,'',-0.25,-0.0563220138021,-0.226140438748,0.193677986198,0.001,65.7395977734,3100.0,0.0,3000.0,0.0
1513264679154952957,,460176,,1513264677,385675230,'',-0.25,-0.0600210767996,-0.49471956117,0.1899789232,0.001,550.0,3100.0,0.0,3000.0,0.0
1513264679165289366,,460177,,1513264677,395675230,'',-0.25,-0.0661998506235,-0.676088811498,0.183800149376,0.001,550.0,3100.0,0.0,3000.0,0.0
1513264679175261629,,460178,,1513264677,405675230,'',-0.25,-0.0725893279151,-0.584126965503,0.177410672085,0.001,550.0,3100.0,0.0,3000.0,0.0
1513264679185160364,,460179,,1513264677,415675230,'',-0.25,-0.0778275125876,-0.478308940316,0.172172487412,0.001,550.0,3100.0,0.0,3000.0,0.0
1513264679195094487,,460180,,1513264677,425675230,'',-0.25,-0.0821427704132,-0.391136758298,0.167857229587,0.001,550.0,3100.0,0.0,3000.0,0.0
1513264679205114254,,460181,,1513264677,435675230,'',-0.25,-0.0855610987864,-0.312807286803,0.164438901214,0.001,433.552040682,3100.0,0.0,3000.0,0.0
1513264679215208883,,460182,,1513264677,445675230,'',-0.25,-0.0883048804453,-0.248097957936,0.161695119555,0.001,230.257358165,3100.0,0.0,3000.0,0.0
1513264679225136048,,460183,,1513264677,455675230,'',-0.25,-0.0905654758408,-0.20243131326,0.159434524159,0.001,114.898637061,3100.0,0.0,3000.0,0.0
1513264679235052737,,460184,,1513264677,465675230,'',-0.25,-0.0923902626765,-0.16556892438,0.157609737324,0.001,10.7045243292,3100.0,0.0,3000.0,0.0
1513264679245091029,,460185,,1513264677,475675230,'',-0.25,-0.0938764550349,-0.135545408333,0.156123544965,0.001,-75.2281122109,3100.0,0.0,3000.0,0.0
1513264679255018262,,460186,,1513264677,485675230,'',-0.25,-0.095177412179,-0.127823534698,0.154822587821,0.001,-102.337122525,3100.0,0.0,3000.0,0.0
1513264679264863737,,460187,,1513264677,495675230,'',-0.25,-0.0962300317128,-0.08800093996,0.153769968287,0.001,-212.203569213,3100.0,0.0,3000.0,0.0
1513264679275096688,,460188,,1513264677,505675230,'',-0.25,-0.0968535385269,-0.0568468223222,0.153146461473,0.001,-303.860363629,3100.0,0.0,3000.0,0.0
1513264679285031721,,460189,,1513264677,515675230,'',-0.25,-0.0973317385029,-0.0471844039091,0.152668261497,0.001,-330.97629617,3100.0,0.0,3000.0,0.0
1513264679295141635,,460190,,1513264677,525675230,'',-0.25,-0.0976960103305,-0.0398280570172,0.15230398967,0.001,-352.067511787,3100.0,0.0,3000.0,0.0
1513264679305231275,,460191,,1513264677,535675230,'',-0.25,-0.0979693576224,-0.015748809762,0.152030642378,0.001,-424.385438282,3100.0,0.0,3000.0,0.0
1513264679315017050,,460192,,1513264677,545675230,'',-0.25,-0.0981684180076,-0.0210062600136,0.151831581992,0.001,-408.684741342,3100.0,0.0,3000.0,0.0
1513264679325322925,,460193,,1513264677,555675230,'',-0.25,-0.0983169448204,-0.0180052514916,0.15168305518,0.001,-415.870242128,3100.0,0.0,3000.0,0.0
1513264679335374680,,460194,,1513264677,565675230,'',-0.25,-0.0984450444929,-0.00613872958232,0.151554955507,0.001,-451.314210222,3100.0,0.0,3000.0,0.0
1513264679345171043,,460195,,1513264677,575675230,'',-0.25,-0.0985241729814,-0.00453983802345,0.151475827019,0.001,-456.2195069,3100.0,0.0,3000.0,0.0
1513264679355226178,,460196,,1513264677,585675230,'',-0.25,-0.0985740679325,-0.0128106355698,0.151425932067,0.001,-430.835582366,3100.0,0.0,3000.0,0.0
1513264679365128157,,460197,,1513264677,595675230,'',-0.25,-0.0987978039021,-0.0546833048392,0.151202196098,0.001,-303.664379263,3100.0,0.0,3000.0,0.0
1513264679375116802,,460198,,1513264677,605675230,'',-0.25,-0.100218359898,-0.239386186726,0.149781640102,0.001,241.514254222,3100.0,0.0,3000.0,0.0
1513264679385029867,,460199,,1513264677,615675230,'',-0.25,-0.104233659529,-0.538690434196,0.145766340471,0.001,550.0,3100.0,0.0,3000.0,0.0
1513264679395076772,,460200,,1513264677,625675230,'',-0.25,-0.110450832832,-0.635776633168,0.139549167168,0.001,550.0,3100.0,0.0,3000.0,0.0
1513264679405073761,,460201,,1513264677,635675230,'',-0.25,-0.116239556653,-0.528115342309,0.133760443347,0.001,550.0,3100.0,0.0,3000.0,0.0
1513264679414950649,,460202,,1513264677,645675230,'',-0.25,-0.12097281594,-0.432498145413,0.12902718406,0.001,550.0,3100.0,0.0,3000.0,0.0
1513264679424946239,,460203,,1513264677,655675230,'',-0.25,-0.124720621137,-0.328950122302,0.125279378863,0.001,550.0,3100.0,0.0,3000.0,0.0
1513264679434888403,,460204,,1513264677,665675230,'',-0.25,-0.127566957305,-0.25289512537,0.122433042695,0.001,382.921213503,3100.0,0.0,3000.0,0.0
1513264679445293949,,460205,,1513264677,675675230,'',-0.25,-0.129829254762,-0.207195582746,0.120170745238,0.001,252.895176378,3100.0,0.0,3000.0,0.0
1513264679455318014,,460206,,1513264677,685675230,'',-0.25,-0.131620624345,-0.171004052712,0.118379375655,0.001,136.736417317,3100.0,0.0,3000.0,0.0
1513264679465037362,,460207,,1513264677,695675230,'',-0.25,-0.133040774996,-0.133040969653,0.116959225004,0.001,38.142842598,3100.0,0.0,3000.0,0.0
1513264679475419130,,460208,,1513264677,705675230,'',-0.25,-0.134158412756,-0.0919072773949,0.115841587244,0.001,-83.4212360162,3100.0,0.0,3000.0,0.0
1513264679485370826,,460209,,1513264677,715675230,'',-0.25,-0.134980670971,-0.0752949149789,0.115019329029,0.001,-134.344503361,3100.0,0.0,3000.0,0.0
1513264679495324733,,460210,,1513264677,725675230,'',-0.25,-0.135596947085,-0.0535677234851,0.114403052915,0.001,-193.156915112,3100.0,0.0,3000.0,0.0
1513264679505388840,,460211,,1513264677,735675230,'',-0.25,-0.136070153339,-0.0440097732613,0.113929846661,0.001,-220.765452909,3100.0,0.0,3000.0,0.0
1513264679515230526,,460212,,1513264677,745675230,'',-0.25,-0.136422173695,-0.0368886733917,0.113577826305,0.001,-243.205213964,3100.0,0.0,3000.0,0.0
1513264679525155227,,460213,,1513264677,755675230,'',-0.25,-0.136662117452,-0.0227634978894,0.113337882548,0.001,-280.844905706,3100.0,0.0,3000.0,0.0
1513264679534997261,,460214,,1513264677,765675230,'',-0.25,-0.13684875326,-0.00970849780449,0.11315124674,0.001,-320.785604888,3100.0,0.0,3000.0,0.0
1513264679545403309,,460215,,1513264677,775675230,'',-0.25,-0.136994521097,-0.0160430558279,0.113005478903,0.001,-302.649736357,3100.0,0.0,3000.0,0.0
1513264679555097091,,460216,,1513264677,785675230,'',-0.25,-0.137096296825,-0.00471858673465,0.112903703175,0.001,-335.790046452,3100.0,0.0,3000.0,0.0
1513264679565892858,,460217,,1513264677,795675230,'',-0.25,-0.137147112685,-0.00369396142976,0.112852887315,0.001,-336.302869802,3100.0,0.0,3000.0,0.0
1513264679575638039,,460218,,1513264677,805675230,'',-0.25,-0.137179548049,-0.00303830900599,0.112820451951,0.001,-340.588837382,3100.0,0.0,3000.0,0.0
1513264679585408934,,460219,,1513264677,815675230,'',-0.25,-0.137199029875,-0.00264632591364,0.112800970125,0.001,-341.705457845,3100.0,0.0,3000.0,0.0
1513264679595821912,,460220,,1513264677,825675230,'',-0.25,-0.137198528099,-0.002655119242,0.112801471901,0.001,-341.693666574,3100.0,0.0,3000.0,0.0
1513264679605597007,,460221,,1513264677,835675230,'',-0.25,-0.137173144723,-0.0031696929812,0.112826855277,0.001,-340.227835222,3100.0,0.0,3000.0,0.0
1513264679615414009,,460222,,1513264677,845675230,'',-0.25,-0.13720156662,-0.0025948162796,0.11279843338,0.001,-341.876623634,3100.0,0.0,3000.0,0.0
1513264679625124740,,460223,,1513264677,855675230,'',-0.25,-0.137612170982,-0.0778098511578,0.112387829018,0.001,-114.056033214,3100.0,0.0,3000.0,0.0
1513264679635106968,,460224,,1513264677,865675230,'',-0.25,-0.139228628633,-0.240000596404,0.110771371367,0.001,364.925740117,3100.0,0.0,3000.0,0.0
1513264679645092690,,460225,,1513264677,875675230,'',-0.25,-0.14274201418,-0.419546400799,0.10725798582,0.001,550.0,3100.0,0.0,3000.0,0.0
1513264679655569128,,460226,,1513264677,885675230,'',-0.25,-0.147077573995,-0.406185121124,0.102922426005,0.001,550.0,3100.0,0.0,3000.0,0.0
1513264679665253944,,460227,,1513264677,895675230,'',-0.25,-0.150743391421,-0.332130383921,0.0992566085786,0.001,550.0,3100.0,0.0,3000.0,0.0
1513264679675799441,,460228,,1513264677,905675230,'',-0.25,-0.153725778562,-0.27188132979,0.0962742214383,0.001,520.461997041,3100.0,0.0,3000.0,0.0
1513264679685578141,,460229,,1513264677,915675230,'',-0.25,-0.156004019567,-0.18874192606,0.0939959804329,0.001,276.019263376,3100.0,0.0,3000.0,0.0
1513264679695567375,,460230,,1513264677,925675230,'',-0.25,-0.15768841059,-0.145436440042,0.0923115894095,0.001,144.014043407,3100.0,0.0,3000.0,0.0
1513264679705653981,,460231,,1513264677,935675230,'',-0.25,-0.1589744139,-0.119458750915,0.0910255860996,0.001,78.4063247032,3100.0,0.0,3000.0,0.0
1513264679715502312,,460232,,1513264677,945675230,'',-0.25,-0.159954710416,-0.0903760268867,0.0900452895837,0.001,-6.92747738922,3100.0,0.0,3000.0,0.0
1513264679725416514,,460233,,1513264677,955675230,'',-0.25,-0.160688223336,-0.0662728946179,0.0893117766641,0.001,-86.4709016931,3100.0,0.0,3000.0,0.0
1513264679735346913,,460234,,1513264677,965675230,'',-0.25,-0.161265662562,-0.0453285885891,0.0887343374378,0.001,-138.362513321,3100.0,0.0,3000.0,0.0
1513264679745524510,,460235,,1513264677,975675230,'',-0.25,-0.16168175984,-0.0369236155655,0.0883182401604,0.001,-159.298958553,3100.0,0.0,3000.0,0.0
1513264679755580802,,460236,,1513264677,985675230,'',-0.25,-0.162011763708,-0.0209768017157,0.0879882362924,0.001,-209.24068766,3100.0,0.0,3000.0,0.0
1513264679765541615,,460237,,1513264677,995675230,'',-0.25,-0.162282575056,-0.0247843218869,0.087717424944,0.001,-198.82652005,3100.0,0.0,3000.0,0.0
1513264679775586462,,460238,,1513264678,5675230,'',-0.25,-0.162496813456,-0.0204554445574,0.0875031865437,0.001,-210.686721817,3100.0,0.0,3000.0,0.0
1513264679785450607,,460239,,1513264678,15675230,'',-0.25,-0.162663105792,-0.0170960959118,0.0873368942083,0.001,-220.312647136,3100.0,0.0,3000.0,0.0
1513264679795451479,,460240,,1513264678,25675230,'',-0.25,-0.162807788426,-0.0141753281136,0.0871922115737,0.001,-227.539508743,3100.0,0.0,3000.0,0.0
1513264679805507146,,460241,,1513264678,35675230,'',-0.25,-0.162934892157,-0.0116087680906,0.0870651078432,0.001,-235.658677914,3100.0,0.0,3000.0,0.0
1513264679815299782,,460242,,1513264678,45675230,'',-0.25,-0.162997785647,-0.0103407123682,0.0870022143529,0.001,-238.612175771,3100.0,0.0,3000.0,0.0
1513264679824939625,,460243,,1513264678,55675230,'',-0.25,-0.163048154422,-3.86940319811e-05,0.0869518455776,0.001,-269.408418049,3100.0,0.0,3000.0,0.0
1513264679835605186,,460244,,1513264678,65675230,'',-0.25,-0.163065490619,0.000309679799078,0.0869345093806,0.001,-270.388367583,3100.0,0.0,3000.0,0.0
1513264679845639655,,460245,,1513264678,75675230,'',-0.25,-0.163062770084,0.000253493651563,0.0869372299164,0.001,-270.254596831,3100.0,0.0,3000.0,0.0
1513264679855666191,,460246,,1513264678,85675230,'',-0.25,-0.163060544149,0.000207522306996,0.0869394558509,0.001,-270.123138676,3100.0,0.0,3000.0,0.0
1513264679865487929,,460247,,1513264678,95675230,'',-0.25,-0.163058721223,0.000169874143937,0.0869412787766,0.001,-270.01497432,3100.0,0.0,3000.0,0.0
1513264679875333777,,460248,,1513264678,105675230,'',-0.25,-0.163134431621,-0.0168541763257,0.0868655683787,0.001,-218.386569809,3100.0,0.0,3000.0,0.0
1513264679885129730,,460249,,1513264678,115675230,'',-0.25,-0.163518813359,-0.0647635234415,0.0864811866414,0.001,-73.1975033983,3100.0,0.0,3000.0,0.0
1513264679895122593,,460250,,1513264678,125675230,'',-0.25,-0.164649981228,-0.162529535123,0.0853500187722,0.001,216.644470194,3100.0,0.0,3000.0,0.0
1513264679905703559,,460251,,1513264678,135675230,'',-0.25,-0.16682261333,-0.257819962619,0.0831773866704,0.001,521.145309508,3100.0,0.0,3000.0,0.0
1513264679915559601,,460252,,1513264678,145675230,'',-0.25,-0.169468187775,-0.25076857074,0.0805318122249,0.001,505.683729179,3100.0,0.0,3000.0,0.0
1513264679925276617,,460253,,1513264678,155675230,'',-0.25,-0.17170714479,-0.20553894519,0.0782928552105,0.001,362.730127854,3100.0,0.0,3000.0,0.0
1513264679935534401,,460254,,1513264678,165675230,'',-0.25,-0.173544343622,-0.168427033613,0.0764556563785,0.001,270.781884151,3100.0,0.0,3000.0,0.0
1513264679945606016,,460255,,1513264678,175675230,'',-0.25,-0.174927107475,-0.121932713307,0.0750728925245,0.001,126.446255024,3100.0,0.0,3000.0,0.0
1513264679955748905,,460256,,1513264678,185675230,'',-0.25,-0.175851919327,-0.0754145867132,0.0741480806731,0.001,-2.91584804534,3100.0,0.0,3000.0,0.0
1513264679965608440,,460257,,1513264678,195675230,'',-0.25,-0.176478815113,-0.0534779061239,0.0735211848865,0.001,-66.846855212,3100.0,0.0,3000.0,0.0
1513264679975714620,,460258,,1513264678,205675230,'',-0.25,-0.176957863674,-0.043799884873,0.0730421363263,0.001,-101.278953471,3100.0,0.0,3000.0,0.0
1513264679985148166,,460259,,1513264678,215675230,'',-0.25,-0.177327588433,-0.0363307423019,0.0726724115666,0.001,-115.756567279,3100.0,0.0,3000.0,0.0
1513264679995518826,,460260,,1513264678,225675230,'',-0.25,-0.177611538559,-0.0213109894959,0.0723884614414,0.001,-162.730623491,3100.0,0.0,3000.0,0.0
1513264680005692412,,460261,,1513264678,235675230,'',-0.25,-0.177810575635,-0.0172905015298,0.0721894243653,0.001,-171.587676828,3100.0,0.0,3000.0,0.0
1513264680015658803,,460262,,1513264678,245675230,'',-0.25,-0.177998477152,-0.0134944392481,0.0720015228483,0.001,-182.551003196,3100.0,0.0,3000.0,0.0
1513264680025618660,,460263,,1513264678,255675230,'',-0.25,-0.178143601539,-0.0105633926039,0.0718563984606,0.001,-191.671859956,3100.0,0.0,3000.0,0.0
1513264680035112254,,460264,,1513264678,265675230,'',-0.25,-0.178246451807,-0.00848495426895,0.0717535481934,0.001,-196.920023577,3100.0,0.0,3000.0,0.0
1513264680045052416,,460265,,1513264678,275675230,'',-0.25,-0.17832253618,-0.00694841827846,0.0716774638203,0.001,-201.681382474,3100.0,0.0,3000.0,0.0
1513264680055680371,,460266,,1513264678,285675230,'',-0.25,-0.178375795513,0.00340606130975,0.0716242044866,0.001,-232.307114454,3100.0,0.0,3000.0,0.0
1513264680065387093,,460267,,1513264678,295675230,'',-0.25,-0.178411307374,-0.00515396800962,0.0715886926257,0.001,-206.405899795,3100.0,0.0,3000.0,0.0
1513264680075496449,,460268,,1513264678,305675230,'',-0.25,-0.178457554087,-0.00422031660522,0.0715424459127,0.001,-209.281276365,3100.0,0.0,3000.0,0.0
1513264680085860665,,460269,,1513264678,315675230,'',-0.25,-0.178487513368,-0.00361380140168,0.0715124866321,0.001,-210.757735336,3100.0,0.0,3000.0,0.0
1513264680095408019,,460270,,1513264678,325675230,'',-0.25,-0.178520013942,-0.00295796916458,0.0714799860585,0.001,-212.820424845,3100.0,0.0,3000.0,0.0
1513264680105537973,,460271,,1513264678,335675230,'',-0.25,-0.178632910889,-0.0192361321288,0.0713670891113,0.001,-165.100028269,3100.0,0.0,3000.0,0.0
1513264680115582265,,460272,,1513264678,345675230,'',-0.25,-0.179046275176,-0.0572751259832,0.0709537248237,0.001,-47.4287111614,3100.0,0.0,3000.0,0.0
1513264680125494562,,460273,,1513264678,355675230,'',-0.25,-0.179919590507,-0.113861115387,0.0700804094928,0.001,119.218960724,3100.0,0.0,3000.0,0.0
1513264680135513159,,460274,,1513264678,365675230,'',-0.25,-0.181335633664,-0.159484388722,0.0686643663365,0.001,267.520884913,3100.0,0.0,3000.0,0.0
1513264680145463774,,460275,,1513264678,375675230,'',-0.25,-0.182911792886,-0.146203194441,0.0670882071142,0.001,233.240724125,3100.0,0.0,3000.0,0.0
1513264680155303378,,460276,,1513264678,385675230,'',-0.25,-0.184238801137,-0.119397256134,0.0657611988628,0.001,149.985425249,3100.0,0.0,3000.0,0.0
1513264680165224094,,460277,,1513264678,395675230,'',-0.25,-0.185318213571,-0.0975911930661,0.0646817864292,0.001,93.4304329958,3100.0,0.0,3000.0,0.0
1513264680175390704,,460278,,1513264678,405675230,'',-0.25,-0.18620288632,-0.0797193808143,0.0637971136798,0.001,43.0913815013,3100.0,0.0,3000.0,0.0
1513264680185456585,,460279,,1513264678,415675230,'',-0.25,-0.186949091581,-0.0646472373456,0.063050908419,0.001,-9.75871717,3100.0,0.0,3000.0,0.0
1513264680195192329,,460280,,1513264678,425675230,'',-0.25,-0.187538381976,-0.0527479258265,0.0624616180242,0.001,-34.588650425,3100.0,0.0,3000.0,0.0
1513264680205341192,,460281,,1513264678,435675230,'',-0.25,-0.188011825609,-0.043182033117,0.0619881743909,0.001,-61.9946717785,3100.0,0.0,3000.0,0.0
1513264680215226311,,460282,,1513264678,445675230,'',-0.25,-0.18837337043,-0.0358771486641,0.0616266295697,0.001,-85.1743486957,3100.0,0.0,3000.0,0.0
1513264680225177834,,460283,,1513264678,455675230,'',-0.25,-0.188670646236,-0.0298712008959,0.0613293537643,0.001,-100.251124382,3100.0,0.0,3000.0,0.0
1513264680235461433,,460284,,1513264678,465675230,'',-0.25,-0.188913950751,-0.0249538749274,0.0610860492488,0.001,-114.215089889,3100.0,0.0,3000.0,0.0
1513264680245858925,,460285,,1513264678,475675230,'',-0.25,-0.189112810443,-0.0116552518189,0.0608871895573,0.001,-153.721732114,3100.0,0.0,3000.0,0.0
1513264680255549039,,460286,,1513264678,485675230,'',-0.25,-0.189291628069,-0.00804303876173,0.0607083719312,0.001,-163.995497549,3100.0,0.0,3000.0,0.0
1513264680265373543,,460287,,1513264678,495675230,'',-0.25,-0.189431312102,-0.0145005050022,0.060568687898,0.001,-145.013143675,3100.0,0.0,3000.0,0.0
1513264680275518858,,460288,,1513264678,505675230,'',-0.25,-0.18953606707,-0.0123824300754,0.0604639329305,0.001,-150.811726802,3100.0,0.0,3000.0,0.0
1513264680285397527,,460289,,1513264678,515675230,'',-0.25,-0.189638808695,-0.0103070223234,0.0603611913048,0.001,-156.014387598,3100.0,0.0,3000.0,0.0
1513264680295308235,,460290,,1513264678,525675230,'',-0.25,-0.18970692817,-0.0089311378092,0.0602930718296,0.001,-159.220262226,3100.0,0.0,3000.0,0.0
1513264680305361829,,460291,,1513264678,535675230,'',-0.25,-0.189778171746,-0.00749251419092,0.060221828254,0.001,-164.143508464,3100.0,0.0,3000.0,0.0
1513264680315086667,,460292,,1513264678,545675230,'',-0.25,-0.189845444483,-0.0061333877714,0.060154555517,0.001,-168.00670293,3100.0,0.0,3000.0,0.0
1513264680324986906,,460293,,1513264678,555675230,'',-0.25,-0.190029520404,-0.0302491227445,0.0599704795956,0.001,-94.9699803577,3100.0,0.0,3000.0,0.0
1513264680334914920,,460294,,1513264678,565675230,'',-0.25,-0.190456621133,-0.0587325210672,0.0595433788674,0.001,-7.33104344463,3100.0,0.0,3000.0,0.0
1513264680345576434,,460295,,1513264678,575675230,'',-0.25,-0.191335181089,-0.105934835716,0.0586648189107,0.001,137.607558447,3100.0,0.0,3000.0,0.0
1513264680355708404,,460296,,1513264678,585675230,'',-0.25,-0.19258874387,-0.12700808143,0.05741125613,0.001,186.043898994,3100.0,0.0,3000.0,0.0
1513264680365442570,,460297,,1513264678,595675230,'',-0.25,-0.193729106473,-0.103970568127,0.0562708935274,0.001,138.4166049,3100.0,0.0,3000.0,0.0
1513264680375456453,,460298,,1513264678,605675230,'',-0.25,-0.194671461445,-0.0849320583703,0.055328538555,0.001,84.5436881339,3100.0,0.0,3000.0,0.0
1513264680385187084,,460299,,1513264678,615675230,'',-0.25,-0.195467733226,-0.0781246410796,0.054532266774,0.001,66.4883303257,3100.0,0.0,3000.0,0.0
1513264680395168868,,460300,,1513264678,625675230,'',-0.25,-0.196144518788,-0.0644550248125,0.0538554812123,0.001,27.1797506335,3100.0,0.0,3000.0,0.0
1513264680405066537,,460301,,1513264678,635675230,'',-0.25,-0.19664789687,-0.0542832127127,0.0533521031302,0.001,-5.49648835871,3100.0,0.0,3000.0,0.0
1513264680415296682,,460302,,1513264678,645675230,'',-0.25,-0.197096078662,-0.0452287548454,0.0529039213377,0.001,-24.7636707272,3100.0,0.0,3000.0,0.0
1513264680425438641,,460303,,1513264678,655675230,'',-0.25,-0.197434104231,-0.0291211899644,0.0525658957692,0.001,-74.8803087714,3100.0,0.0,3000.0,0.0
1513264680435272789,,460304,,1513264678,665675230,'',-0.25,-0.197710251699,-0.0235427151398,0.0522897483005,0.001,-92.6134092184,3100.0,0.0,3000.0,0.0
1513264680445373902,,460305,,1513264678,675675230,'',-0.25,-0.19793821971,-0.0189381475925,0.0520617802899,0.001,-104.29478026,3100.0,0.0,3000.0,0.0
1513264680455363792,,460306,,1513264678,685675230,'',-0.25,-0.198116314949,-0.0153399967256,0.0518836850512,0.001,-114.634099383,3100.0,0.0,3000.0,0.0
1513264680465471336,,460307,,1513264678,695675230,'',-0.25,-0.198277958766,-0.0120730172503,0.0517220412336,0.001,-124.736192531,3100.0,0.0,3000.0,0.0
1513264680475134868,,460308,,1513264678,705675230,'',-0.25,-0.198413030055,-0.0186251371126,0.0515869699454,0.001,-103.700432611,3100.0,0.0,3000.0,0.0
1513264680485469445,,460309,,1513264678,715675230,'',-0.25,-0.198538855382,-0.00680483370485,0.0514611446177,0.001,-139.034834154,3100.0,0.0,3000.0,0.0
1513264680495016022,,460310,,1513264678,725675230,'',-0.25,-0.198615423103,-0.00525969471067,0.051384576897,0.001,-143.775449051,3100.0,0.0,3000.0,0.0
1513264680505431656,,460311,,1513264678,735675230,'',-0.25,-0.198678859601,-0.0039783266213,0.0513211403992,0.001,-147.119754635,3100.0,0.0,3000.0,0.0
1513264680515669635,,460312,,1513264678,745675230,'',-0.25,-0.198722335637,-0.00310161793327,0.0512776643626,0.001,-149.610252682,3100.0,0.0,3000.0,0.0
1513264680525321275,,460313,,1513264678,755675230,'',-0.25,-0.198766777137,-0.00220243369242,0.0512332228627,0.001,-152.336627019,3100.0,0.0,3000.0,0.0
1513264680534959162,,460314,,1513264678,765675230,'',-0.25,-0.198803721451,-0.00145553437059,0.0511962785486,0.001,-154.326037534,3100.0,0.0,3000.0,0.0
1513264680545450081,,460315,,1513264678,775675230,'',-0.25,-0.198963105837,-0.0353462495774,0.0510368941627,0.001,-51.9499290455,3100.0,0.0,3000.0,0.0
1513264680555461895,,460316,,1513264678,785675230,'',-0.25,-0.199428196788,-0.0630665690221,0.0505718032116,0.001,33.5496559695,3100.0,0.0,3000.0,0.0
1513264680565234736,,460317,,1513264678,795675230,'',-0.25,-0.200269836941,-0.101737068101,0.0497301630587,0.001,151.971391139,3100.0,0.0,3000.0,0.0
1513264680575244641,,460318,,1513264678,805675230,'',-0.25,-0.201258490753,-0.10031766567,0.048741509247,0.001,136.216294935,3100.0,0.0,3000.0,0.0
1513264680584957457,,460319,,1513264678,815675230,'',-0.25,-0.202143653945,-0.0824376407317,0.0478563460552,0.001,100.427622684,3100.0,0.0,3000.0,0.0
1513264680594898608,,460320,,1513264678,825675230,'',-0.25,-0.202882575842,-0.0675103385531,0.0471174241583,0.001,52.7937628877,3100.0,0.0,3000.0,0.0
1513264680605556739,,460321,,1513264678,835675230,'',-0.25,-0.203488846433,-0.0552627866111,0.0465111535672,0.001,15.9234566985,3100.0,0.0,3000.0,0.0
1513264680615348401,,460322,,1513264678,845675230,'',-0.25,-0.203985214394,-0.0452354284066,0.0460147856062,0.001,-5.70837678148,3100.0,0.0,3000.0,0.0
1513264680625223700,,460323,,1513264678,855675230,'',-0.25,-0.204390816211,-0.0370413753942,0.0456091837894,0.001,-29.8173004741,3100.0,0.0,3000.0,0.0
1513264680635057189,,460324,,1513264678,865675230,'',-0.25,-0.204723482792,-0.0303238674785,0.0452765172075,0.001,-46.4423081564,3100.0,0.0,3000.0,0.0
1513264680645378266,,460325,,1513264678,875675230,'',-0.25,-0.204994626083,-0.0248459179833,0.0450053739171,0.001,-66.1036551755,3100.0,0.0,3000.0,0.0
1513264680655360397,,460326,,1513264678,885675230,'',-0.25,-0.205217810755,-0.0203368838216,0.0447821892454,0.001,-77.2070079932,3100.0,0.0,3000.0,0.0
1513264680665460884,,460327,,1513264678,895675230,'',-0.25,-0.205408731475,-0.0164839511693,0.0445912685247,0.001,-89.5994051873,3100.0,0.0,3000.0,0.0
1513264680675722215,,460328,,1513264678,905675230,'',-0.25,-0.205565275153,-0.013318206487,0.0444347248466,0.001,-97.4760379243,3100.0,0.0,3000.0,0.0
1513264680685354113,,460329,,1513264678,915675230,'',-0.25,-0.205684607709,-0.0109070954434,0.0443153922905,0.001,-105.223966411,3100.0,0.0,3000.0,0.0
1513264680695383512,,460330,,1513264678,925675230,'',-0.25,-0.20579995104,-0.0178557794556,0.0442000489602,0.001,-83.1283186924,3100.0,0.0,3000.0,0.0
1513264680705252275,,460331,,1513264678,935675230,'',-0.25,-0.205884882157,-0.00686026004617,0.0441151178428,0.001,-116.571807348,3100.0,0.0,3000.0,0.0
1513264680715478939,,460332,,1513264678,945675230,'',-0.25,-0.20595525849,-0.00543838491448,0.0440447415101,0.001,-120.521585785,3100.0,0.0,3000.0,0.0
1513264680725563686,,460333,,1513264678,955675230,'',-0.25,-0.206004095102,-0.00445168220428,0.0439959048977,0.001,-122.980432883,3100.0,0.0,3000.0,0.0
1513264680735343884,,460334,,1513264678,965675230,'',-0.25,-0.206043985117,-0.00364573797572,0.0439560148827,0.001,-125.526230954,3100.0,0.0,3000.0,0.0
1513264680745433145,,460335,,1513264678,975675230,'',-0.25,-0.206084901258,-0.00282137009691,0.043915098742,0.001,-127.740468688,3100.0,0.0,3000.0,0.0
1513264680755792292,,460336,,1513264678,985675230,'',-0.25,-0.206110184252,-0.00231013016854,0.0438898157479,0.001,-129.128512556,3100.0,0.0,3000.0,0.0
1513264680765330761,,460337,,1513264678,995675230,'',-0.25,-0.206208120928,-0.0188871623908,0.0437918790719,0.001,-80.0686298301,3100.0,0.0,3000.0,0.0
1513264680775323023,,460338,,1513264679,5675230,'',-0.25,-0.206456288157,-0.0324328725106,0.0435437118428,0.001,-37.5157143469,3100.0,0.0,3000.0,0.0
1513264680785142217,,460339,,1513264679,15675230,'',-0.25,-0.206878122334,-0.0517468821812,0.0431218776661,0.001,22.3262592735,3100.0,0.0,3000.0,0.0
1513264680795484363,,460340,,1513264679,25675230,'',-0.25,-0.207409670113,-0.0502867748331,0.0425903298866,0.001,16.3771611565,3100.0,0.0,3000.0,0.0
1513264680805513595,,460341,,1513264679,35675230,'',-0.25,-0.207929662185,-0.0490604998478,0.0420703378146,0.001,21.069592683,3100.0,0.0,3000.0,0.0
1513264680815228011,,460342,,1513264679,45675230,'',-0.25,-0.208395568571,-0.0489289512232,0.0416044314288,0.001,17.9297215141,3100.0,0.0,3000.0,0.0
1513264680825364393,,460343,,1513264679,55675230,'',-0.25,-0.208792620528,-0.0316346553827,0.0412073794723,0.001,-34.5883992462,3100.0,0.0,3000.0,0.0
1513264680835170683,,460344,,1513264679,65675230,'',-0.25,-0.209136696371,-0.0339598860435,0.0408633036285,0.001,-25.1205283279,3100.0,0.0,3000.0,0.0
1513264680844898327,,460345,,1513264679,75675230,'',-0.25,-0.209424461567,-0.0281478543535,0.0405755384327,0.001,-41.0269738095,3100.0,0.0,3000.0,0.0
1513264680854877200,,460346,,1513264679,85675230,'',-0.25,-0.209660685619,-0.0233699343369,0.0403393143806,0.001,-56.0018395643,3100.0,0.0,3000.0,0.0
1513264680865297139,,460347,,1513264679,95675230,'',-0.25,-0.209862787953,-0.0192867249697,0.0401372120469,0.001,-66.1024430824,3100.0,0.0,3000.0,0.0
1513264680875233223,,460348,,1513264679,105675230,'',-0.25,-0.210019824938,-0.0161119842559,0.0399801750615,0.001,-75.3147058429,3100.0,0.0,3000.0,0.0
1513264680885202247,,460349,,1513264679,115675230,'',-0.25,-0.210155278742,-0.00409879399839,0.0398447212584,0.001,-111.437602996,3100.0,0.0,3000.0,0.0
1513264680895183802,,460350,,1513264679,125675230,'',-0.25,-0.210266965094,-0.0111220939458,0.0397330349058,0.001,-89.6796079122,3100.0,0.0,3000.0,0.0
1513264680905084922,,460351,,1513264679,135675230,'',-0.25,-0.210366634787,-0.00910817341491,0.0396333652127,0.001,-95.9878330693,3100.0,0.0,3000.0,0.0
1513264680915115842,,460352,,1513264679,145675230,'',-0.25,-0.210432179675,-0.00778323272853,0.0395678203248,0.001,-99.2203686363,3100.0,0.0,3000.0,0.0
1513264680924946859,,460353,,1513264679,155675230,'',-0.25,-0.21051048268,-0.00620091071105,0.0394895173198,0.001,-103.724268021,3100.0,0.0,3000.0,0.0
1513264680935178370,,460354,,1513264679,165675230,'',-0.25,-0.210582453353,-0.00474291248572,0.0394175466473,0.001,-108.556418858,3100.0,0.0,3000.0,0.0
1513264680945380717,,460355,,1513264679,175675230,'',-0.25,-0.210651107424,-0.0126342454308,0.0393488925758,0.001,-83.9888120092,3100.0,0.0,3000.0,0.0
1513264680955166171,,460356,,1513264679,185675230,'',-0.25,-0.210756809362,-0.0104996254094,0.0392431906381,0.001,-90.0805132018,3100.0,0.0,3000.0,0.0
1513264680965179012,,460357,,1513264679,195675230,'',-0.25,-0.210934979217,-0.016180982152,0.0390650207829,0.001,-73.4485625858,3100.0,0.0,3000.0,0.0
1513264680975195900,,460358,,1513264679,205675230,'',-0.25,-0.211181837504,-0.0297535434658,0.0388181624959,0.001,-30.6367051465,3100.0,0.0,3000.0,0.0
1513264680985156948,,460359,,1513264679,215675230,'',-0.25,-0.211457925795,-0.0241760612848,0.0385420742047,0.001,-46.6486827206,3100.0,0.0,3000.0,0.0
1513264680995233883,,460360,,1513264679,225675230,'',-0.25,-0.211733643302,-0.027883417855,0.0382663566978,0.001,-36.1516318387,3100.0,0.0,3000.0,0.0
1513264681005143998,,460361,,1513264679,235675230,'',-0.25,-0.211984022124,-0.0228253152753,0.0380159778763,0.001,-48.9514049903,3100.0,0.0,3000.0,0.0
1513264681014980877,,460362,,1513264679,245675230,'',-0.25,-0.212207075044,-0.027598219427,0.0377929249561,0.001,-33.8739299666,3100.0,0.0,3000.0,0.0
1513264681024908210,,460363,,1513264679,255675230,'',-0.25,-0.212413077828,-0.0234321505806,0.0375869221722,0.001,-47.3516364568,3100.0,0.0,3000.0,0.0
1513264681035193340,,460364,,1513264679,265675230,'',-0.25,-0.212623541447,-0.0191811501043,0.0373764585528,0.001,-57.9032269972,3100.0,0.0,3000.0,0.0
1513264681045234984,,460365,,1513264679,275675230,'',-0.25,-0.212795808471,-0.0157016546806,0.037204191529,0.001,-67.9747086594,3100.0,0.0,3000.0,0.0
1513264681055138923,,460366,,1513264679,285675230,'',-0.25,-0.212936555826,-0.0128588019643,0.0370634441742,0.001,-76.0849387244,3100.0,0.0,3000.0,0.0
1513264681065009442,,460367,,1513264679,295675230,'',-0.25,-0.213059940966,-0.0103678049926,0.0369400590337,0.001,-83.3144447567,3100.0,0.0,3000.0,0.0
1513264681075304531,,460368,,1513264679,305675230,'',-0.25,-0.213153060353,-0.00848674260991,0.0368469396475,0.001,-88.6128554311,3100.0,0.0,3000.0,0.0
1513264681085047815,,460369,,1513264679,315675230,'',-0.25,-0.213221198702,-0.00710990084454,0.0367788012975,0.001,-92.4683025512,3100.0,0.0,3000.0,0.0
1513264681094876803,,460370,,1513264679,325675230,'',-0.25,-0.213275890228,0.00327359763047,0.0367241097716,0.001,-123.702225585,3100.0,0.0,3000.0,0.0
1513264681104952445,,460371,,1513264679,335675230,'',-0.25,-0.21333801473,-0.00475274564157,0.0366619852704,0.001,-99.6137053428,3100.0,0.0,3000.0,0.0
1513264681114962855,,460372,,1513264679,345675230,'',-0.25,-0.213388457212,-0.00373363467086,0.0366115427884,0.001,-102.255536262,3100.0,0.0,3000.0,0.0
1513264681125341439,,460373,,1513264679,355675230,'',-0.25,-0.213430643353,-0.00288069201663,0.0365693566466,0.001,-104.874727936,3100.0,0.0,3000.0,0.0
1513264681135304090,,460374,,1513264679,365675230,'',-0.25,-0.213539836761,-0.00995373079015,0.0364601632392,0.001,-83.1077042142,3100.0,0.0,3000.0,0.0
1513264681145100729,,460375,,1513264679,375675230,'',-0.25,-0.213689301731,-0.0162130321396,0.0363106982686,0.001,-63.7811163347,3100.0,0.0,3000.0,0.0
1513264681154985332,,460376,,1513264679,385675230,'',-0.25,-0.213893656101,-0.0213577253432,0.0361063438994,0.001,-48.6836680452,3100.0,0.0,3000.0,0.0
1513264681165090889,,460377,,1513264679,395675230,'',-0.25,-0.214110736697,-0.0262507525188,0.0358892633028,0.001,-32.1009434357,3100.0,0.0,3000.0,0.0
1513264681174959682,,460378,,1513264679,405675230,'',-0.25,-0.214338920928,-0.021643836269,0.0356610790717,0.001,-45.6041314673,3100.0,0.0,3000.0,0.0
1513264681184959418,,460379,,1513264679,415675230,'',-0.25,-0.214532833896,-0.0177227042419,0.0354671661035,0.001,-57.9988621266,3100.0,0.0,3000.0,0.0
1513264681195351429,,460380,,1513264679,425675230,'',-0.25,-0.214708618612,-0.0141767395559,0.0352913813877,0.001,-67.5632993336,3100.0,0.0,3000.0,0.0
1513264681205299348,,460381,,1513264679,435675230,'',-0.25,-0.21485292747,-0.0205369459123,0.0351470725305,0.001,-48.3357288663,3100.0,0.0,3000.0,0.0
1513264681215297001,,460382,,1513264679,445675230,'',-0.25,-0.214995735411,-0.0176478676929,0.0350042645893,0.001,-55.3362785606,3100.0,0.0,3000.0,0.0
1513264681225223407,,460383,,1513264679,455675230,'',-0.25,-0.215129055511,-0.00567934416296,0.0348709444888,0.001,-91.7744552432,3100.0,0.0,3000.0,0.0
1513264681234840899,,460384,,1513264679,465675230,'',-0.25,-0.215271441089,-0.0120829900774,0.0347285589112,0.001,-71.2227195218,3100.0,0.0,3000.0,0.0
1513264681245497790,,460385,,1513264679,475675230,'',-0.25,-0.215372330372,-0.010045032993,0.0346276696278,0.001,-76.960363601,3100.0,0.0,3000.0,0.0
1513264681255361561,,460386,,1513264679,485675230,'',-0.25,-0.215462360449,-0.00822664999565,0.0345376395512,0.001,-82.2590180788,3100.0,0.0,3000.0,0.0
1513264681265215422,,460387,,1513264679,495675230,'',-0.25,-0.215528601509,-0.00688814214986,0.0344713984909,0.001,-86.0632629474,3100.0,0.0,3000.0,0.0
1513264681275246941,,460388,,1513264679,505675230,'',-0.25,-0.215590488044,-0.00563829803349,0.0344095119562,0.001,-89.5799957499,3100.0,0.0,3000.0,0.0
1513264681285143695,,460389,,1513264679,515675230,'',-0.25,-0.215649322948,-0.0044487684767,0.0343506770523,0.001,-92.9733128901,3100.0,0.0,3000.0,0.0
1513264681294933038,,460390,,1513264679,525675230,'',-0.25,-0.215706668352,-0.0125692988342,0.0342933316477,0.001,-68.407511417,3100.0,0.0,3000.0,0.0
1513264681305053954,,460391,,1513264679,535675230,'',-0.25,-0.215753589836,-0.0023446058266,0.0342464101644,0.001,-99.1090934464,3100.0,0.0,3000.0,0.0
1513264681314936682,,460392,,1513264679,545675230,'',-0.25,-0.215817919413,-0.0103227193701,0.0341820805869,0.001,-74.8683342318,3100.0,0.0,3000.0,0.0
1513264681324939010,,460393,,1513264679,555675230,'',-0.25,-0.215878309666,-0.00910058210554,0.0341216903337,0.001,-78.4083507439,3100.0,0.0,3000.0,0.0
1513264681335400435,,460394,,1513264679,565675230,'',-0.25,-0.215952152782,-0.00760953326104,0.0340478472185,0.001,-82.5705029561,3100.0,0.0,3000.0,0.0
1513264681345304216,,460395,,1513264679,575675230,'',-0.25,-0.216053965664,-0.00555276007572,0.0339460343361,0.001,-88.8525943302,3100.0,0.0,3000.0,0.0
1513264681355217465,,460396,,1513264679,585675230,'',-0.25,-0.216179198767,-0.012304057646,0.0338208012328,0.001,-67.7486520212,3100.0,0.0,3000.0,0.0
1513264681365070964,,460397,,1513264679,595675230,'',-0.25,-0.216281890933,-0.0102273948234,0.0337181090668,0.001,-73.7809603541,3100.0,0.0,3000.0,0.0
1513264681375059479,,460398,,1513264679,605675230,'',-0.25,-0.216381699215,-0.00821357849731,0.0336183007854,0.001,-79.5256142791,3100.0,0.0,3000.0,0.0
1513264681385392949,,460399,,1513264679,615675230,'',-0.25,-0.216514416771,-0.0148112315386,0.0334855832289,0.001,-59.1094982866,3100.0,0.0,3000.0,0.0
1513264681395314407,,460400,,1513264679,625675230,'',-0.25,-0.216647147336,-0.0121297673125,0.0333528526645,0.001,-67.5521504317,3100.0,0.0,3000.0,0.0
1513264681405298091,,460401,,1513264679,635675230,'',-0.25,-0.216756082422,-0.00992902674899,0.033243917578,0.001,-73.1148702494,3100.0,0.0,3000.0,0.0
1513264681415418426,,460402,,1513264679,645675230,'',-0.25,-0.216837470581,-0.008283693197,0.0331625294186,0.001,-77.8507154028,3100.0,0.0,3000.0,0.0
1513264681425259804,,460403,,1513264679,655675230,'',-0.25,-0.216911740258,-0.00678347408445,0.0330882597416,0.001,-82.0758975568,3100.0,0.0,3000.0,0.0
1513264681435297904,,460404,,1513264679,665675230,'',-0.25,-0.216972652406,-0.00555307197422,0.0330273475944,0.001,-85.6732031,3100.0,0.0,3000.0,0.0
1513264681445201523,,460405,,1513264679,675675230,'',-0.25,-0.217030553489,-0.00438187494393,0.0329694465107,0.001,-88.9754688143,3100.0,0.0,3000.0,0.0
1513264681455181965,,460406,,1513264679,685675230,'',-0.25,-0.217102244168,-0.00293559663825,0.0328977558318,0.001,-93.1132056679,3100.0,0.0,3000.0,0.0
1513264681465133318,,460407,,1513264679,695675230,'',-0.25,-0.217153897628,-0.0111678008008,0.0328461023719,0.001,-68.8542704778,3100.0,0.0,3000.0,0.0
1513264681474914594,,460408,,1513264679,705675230,'',-0.25,-0.217220725864,-0.000542311387032,0.032779274136,0.001,-99.9843901018,3100.0,0.0,3000.0,0.0
1513264681484983839,,460409,,1513264679,715675230,'',-0.25,-0.217258269041,0.000214416510506,0.0327417309587,0.001,-102.153511914,3100.0,0.0,3000.0,0.0
1513264681495347182,,460410,,1513264679,725675230,'',-0.25,-0.217282468417,-0.00857122654477,0.0327175315834,0.001,-76.1770636493,3100.0,0.0,3000.0,0.0
1513264681505242351,,460411,,1513264679,735675230,'',-0.25,-0.217317130177,0.00140877462393,0.0326828698227,0.001,-105.464676532,3100.0,0.0,3000.0,0.0
1513264681515287352,,460412,,1513264679,745675230,'',-0.25,-0.217379219442,-0.00661834782211,0.0326207805582,0.001,-81.1882888968,3100.0,0.0,3000.0,0.0
1513264681525148142,,460413,,1513264679,755675230,'',-0.25,-0.217438669258,-0.00541745752317,0.0325613307421,0.001,-84.5900635321,3100.0,0.0,3000.0,0.0
1513264681535232546,,460414,,1513264679,765675230,'',-0.25,-0.2175212926,-0.0130256423843,0.0324787073998,0.001,-61.2478521206,3100.0,0.0,3000.0,0.0
1513264681545115415,,460415,,1513264679,775675230,'',-0.25,-0.217604497163,-0.00206421841638,0.0323955028368,0.001,-94.1975573471,3100.0,0.0,3000.0,0.0
1513264681554945037,,460416,,1513264679,785675230,'',-0.25,-0.217706411686,-0.00928533463175,0.0322935883144,0.001,-72.048479059,3100.0,0.0,3000.0,0.0
1513264681565097284,,460417,,1513264679,795675230,'',-0.25,-0.21778965766,-0.0076040394666,0.0322103423396,0.001,-77.9591207729,3100.0,0.0,3000.0,0.0
1513264681575402332,,460418,,1513264679,805675230,'',-0.25,-0.217892869118,-0.0147962839086,0.032107130882,0.001,-54.9987952018,3100.0,0.0,3000.0,0.0
1513264681585355750,,460419,,1513264679,815675230,'',-0.25,-0.217968304912,-0.0132723008444,0.0320316950884,0.001,-60.1177737284,3100.0,0.0,3000.0,0.0
