rosbagTimestamp,header,seq,stamp,secs,nsecs,frame_id,set_point,process_value,process_value_dot,error,time_step,command,p,i,d,i_clamp
1513264676734787458,,459945,,1513264674,965675230,'',1.25663706144,1.23853620859,0.00229970599181,-0.0181008528431,0.001,77.8336672254,4300.0,0.0,0.0,0.0
1513264676744833647,,459946,,1513264674,975675230,'',1.25663706144,1.23853620859,0.00187353384553,-0.0181008528431,0.001,77.8336672254,4300.0,0.0,0.0,0.0
1513264676754938191,,459947,,1513264674,985675230,'',1.25663706144,1.23853620859,0.00256972636164,-0.0181008528431,0.001,77.8336672254,4300.0,0.0,0.0,0.0
1513264676765192826,,459948,,1513264674,995675230,'',1.25663706144,1.23853620859,0.00414421345405,-0.0181008528431,0.001,77.8336672254,4300.0,0.0,0.0,0.0
1513264676775094766,,459949,,1513264675,5675230,'',1.25663706144,1.23853620859,0.00381953744625,-0.0181008528431,0.001,77.8336672254,4300.0,0.0,0.0,0.0
1513264676784986158,,459950,,1513264675,15675230,'',1.25663706144,1.23853620859,0.00407596371103,-0.0181008528431,0.001,77.8336672254,4300.0,0.0,0.0,0.0
1513264676795045886,,459951,,1513264675,25675230,'',1.25663706144,1.23853620859,0.00432573686125,-0.0181008528431,0.001,77.8336672254,4300.0,0.0,0.0,0.0
1513264676804908245,,459952,,1513264675,35675230,'',1.25663706144,1.23853620859,0.0045423215302,-0.0181008528431,0.001,77.8336672254,4300.0,0.0,0.0,0.0
1513264676814791915,,459953,,1513264675,45675230,'',1.25663706144,1.23853620859,0.00372026928163,-0.0181008528431,0.001,77.8336672254,4300.0,0.0,0.0,0.0
1513264676824896842,,459954,,1513264675,55675230,'',1.25663706144,1.23853620859,0.00451130882524,-0.0181008528431,0.001,77.8336672254,4300.0,0.0,0.0,0.0
1513264676834899637,,459955,,1513264675,65675230,'',1.25663706144,1.23853620859,0.00472448711233,-0.0181008528431,0.001,77.8336672254,4300.0,0.0,0.0,0.0
1513264676844750177,,459956,,1513264675,75675230,'',1.25663706144,1.23714857933,-0.0225577319488,-0.0194884821071,0.001,83.8004730604,4300.0,0.0,0.0,0.0
1513264676855224250,,459957,,1513264675,85675230,'',1.25663706144,1.23714857933,-0.0218914904796,-0.0194884821071,0.001,83.8004730604,4300.0,0.0,0.0,0.0
1513264676865198408,,459958,,1513264675,95675230,'',1.25663706144,1.23853620859,0.00603213745813,-0.0181008528431,0.001,77.8336672254,4300.0,0.0,0.0,0.0
1513264676875139390,,459959,,1513264675,105675230,'',1.25663706144,1.23853620859,0.00545401002328,-0.0181008528431,0.001,77.8336672254,4300.0,0.0,0.0,0.0
1513264676885170501,,459960,,1513264675,115675230,'',1.25663706144,1.23853620859,0.00496126823521,-0.0181008528431,0.001,77.8336672254,4300.0,0.0,0.0,0.0
1513264676895213723,,459961,,1513264675,125675230,'',1.25663706144,1.23853620859,0.00454584503447,-0.0181008528431,0.001,77.8336672254,4300.0,0.0,0.0,0.0
1513264676905165196,,459962,,1513264675,135675230,'',1.25663706144,1.23714857933,-0.0232379179999,-0.0194884821071,0.001,83.8004730604,4300.0,0.0,0.0,0.0
1513264676915098472,,459963,,1513264675,145675230,'',1.25663706144,1.23853620859,0.00392671515134,-0.0181008528431,0.001,77.8336672254,4300.0,0.0,0.0,0.0
1513264676925077178,,459964,,1513264675,155675230,'',1.25663706144,1.23714857933,-0.023750523118,-0.0194884821071,0.001,83.8004730604,4300.0,0.0,0.0,0.0
1513264676935045898,,459965,,1513264675,165675230,'',1.25663706144,1.23853620859,0.00395040314795,-0.0181008528431,0.001,77.8336672254,4300.0,0.0,0.0,0.0
1513264676945166985,,459966,,1513264675,175675230,'',1.25663706144,1.23853620859,0.00266836241893,-0.0181008528431,0.001,77.8336672254,4300.0,0.0,0.0,0.0
1513264676955125972,,459967,,1513264675,185675230,'',1.25663706144,1.23853620859,0.00218436871449,-0.0181008528431,0.001,77.8336672254,4300.0,0.0,0.0,0.0
1513264676964944882,,459968,,1513264675,195675230,'',1.25663706144,1.23853620859,0.00130162713551,-0.0181008528431,0.001,77.8336672254,4300.0,0.0,0.0,0.0
1513264676974889178,,459969,,1513264675,205675230,'',1.25663706144,1.23853620859,8.5329148193e-06,-0.0181008528431,0.001,77.8336672254,4300.0,0.0,0.0,0.0
1513264676984923233,,459970,,1513264675,215675230,'',1.25663706144,1.23853620859,-6.82061845216e-05,-0.0181008528431,0.001,77.8336672254,4300.0,0.0,0.0,0.0
1513264676995096625,,459971,,1513264675,225675230,'',1.25663706144,1.23714857933,-0.0265270672165,-0.0194884821071,0.001,83.8004730604,4300.0,0.0,0.0,0.0
1513264677005054476,,459972,,1513264675,235675230,'',1.25663706144,1.23714857933,-0.0251483073966,-0.0194884821071,0.001,83.8004730604,4300.0,0.0,0.0,0.0
1513264677015043727,,459973,,1513264675,245675230,'',1.25663706144,1.23853620859,0.00183643464721,-0.0181008528431,0.001,77.8336672254,4300.0,0.0,0.0,0.0
1513264677025009118,,459974,,1513264675,255675230,'',1.25663706144,1.23853620859,0.00101398369151,-0.0181008528431,0.001,77.8336672254,4300.0,0.0,0.0,0.0
1513264677034853414,,459975,,1513264675,265675230,'',1.25663706144,1.23853620859,-0.00015992155628,-0.0181008528431,0.001,77.8336672254,4300.0,0.0,0.0,0.0
1513264677044851675,,459976,,1513264675,275675230,'',1.25663706144,1.23853620859,-0.000130948330897,-0.0181008528431,0.001,77.8336672254,4300.0,0.0,0.0,0.0
1513264677055102574,,459977,,1513264675,285675230,'',1.25663706144,1.23853620859,-0.000107211446338,-0.0181008528431,0.001,77.8336672254,4300.0,0.0,0.0,0.0
1513264677065024128,,459978,,1513264675,295675230,'',1.25663706144,1.23853620859,0.000487130998583,-0.0181008528431,0.001,77.8336672254,4300.0,0.0,0.0,0.0
1513264677075171917,,459979,,1513264675,305675230,'',1.25663706144,1.23853620859,0.000883588719142,-0.0181008528431,0.001,77.8336672254,4300.0,0.0,0.0,0.0
1513264677085130480,,459980,,1513264675,315675230,'',1.25663706144,1.23853620859,0.000725044544989,-0.0181008528431,0.001,77.8336672254,4300.0,0.0,0.0,0.0
1513264677094967400,,459981,,1513264675,325675230,'',1.25663706144,1.23853620859,0.000593806060715,-0.0181008528431,0.001,77.8336672254,4300.0,0.0,0.0,0.0
1513264677104822281,,459982,,1513264675,335675230,'',1.25663706144,1.23853620859,0.000486070021678,-0.0181008528431,0.001,77.8336672254,4300.0,0.0,0.0,0.0
1513264677114701725,,459983,,1513264675,345675230,'',1.25663706144,1.23853620859,0.000397920703885,-0.0181008528431,0.001,77.8336672254,4300.0,0.0,0.0,0.0
1513264677125148865,,459984,,1513264675,355675230,'',1.25663706144,1.23853620859,-0.000169413333186,-0.0181008528431,0.001,77.8336672254,4300.0,0.0,0.0,0.0
1513264677135090420,,459985,,1513264675,365675230,'',1.25663706144,1.23853620859,-8.21380016739e-05,-0.0181008528431,0.001,77.8336672254,4300.0,0.0,0.0,0.0
1513264677145109453,,459986,,1513264675,375675230,'',1.25663706144,1.23853620859,-6.72328895131e-05,-0.0181008528431,0.001,77.8336672254,4300.0,0.0,0.0,0.0
1513264677154932051,,459987,,1513264675,385675230,'',1.25663706144,1.23853620859,0.000962841164673,-0.0181008528431,0.001,77.8336672254,4300.0,0.0,0.0,0.0
1513264677164884738,,459988,,1513264675,395675230,'',1.25663706144,1.23992383786,0.0287890804991,-0.0167132235792,0.001,71.8668613904,4300.0,0.0,0.0,0.0
1513264677174808899,,459989,,1513264675,405675230,'',1.25663706144,1.23853620859,0.00113731527556,-0.0181008528431,0.001,77.8336672254,4300.0,0.0,0.0,0.0
1513264677184809456,,459990,,1513264675,415675230,'',1.25663706144,1.23853620859,0.000930542641033,-0.0181008528431,0.001,77.8336672254,4300.0,0.0,0.0,0.0
1513264677194723477,,459991,,1513264675,425675230,'',1.25663706144,1.23714857933,-0.0257731431637,-0.0194884821071,0.001,83.8004730604,4300.0,0.0,0.0,0.0
1513264677205149956,,459992,,1513264675,435675230,'',1.25663706144,1.23853620859,0.00236974757311,-0.0181008528431,0.001,77.8336672254,4300.0,0.0,0.0,0.0
1513264677215155946,,459993,,1513264675,445675230,'',1.25663706144,1.23853620859,0.00193995431662,-0.0181008528431,0.001,77.8336672254,4300.0,0.0,0.0,0.0
1513264677225112032,,459994,,1513264675,455675230,'',1.25663706144,1.23853620859,0.00160905105825,-0.0181008528431,0.001,77.8336672254,4300.0,0.0,0.0,0.0
1513264677234962609,,459995,,1513264675,465675230,'',1.25663706144,1.23853620859,0.0017913633629,-0.0181008528431,0.001,77.8336672254,4300.0,0.0,0.0,0.0
1513264677245015502,,459996,,1513264675,475675230,'',1.25663706144,1.23853620859,0.00146635086141,-0.0181008528431,0.001,77.8336672254,4300.0,0.0,0.0,0.0
1513264677254922065,,459997,,1513264675,485675230,'',1.25663706144,1.23714857933,-0.0253105523903,-0.0194884821071,0.001,83.8004730604,4300.0,0.0,0.0,0.0
1513264677264837848,,459998,,1513264675,495675230,'',1.25663706144,1.23853620859,0.00223886671432,-0.0181008528431,0.001,77.8336672254,4300.0,0.0,0.0,0.0
1513264677274797117,,459999,,1513264675,505675230,'',1.25663706144,1.23853620859,0.00082812716067,-0.0181008528431,0.001,77.8336672254,4300.0,0.0,0.0,0.0
1513264677284955096,,460000,,1513264675,515675230,'',1.25663706144,1.23853620859,0.00116726659333,-0.0181008528431,0.001,77.8336672254,4300.0,0.0,0.0,0.0
1513264677295225372,,460001,,1513264675,525675230,'',1.25663706144,1.23992383786,0.0284305199361,-0.0167132235792,0.001,71.8668613904,4300.0,0.0,0.0,0.0
1513264677304996673,,460002,,1513264675,535675230,'',1.25663706144,1.23853620859,-0.00020030288638,-0.0181008528431,0.001,77.8336672254,4300.0,0.0,0.0,0.0
1513264677314965303,,460003,,1513264675,545675230,'',1.25663706144,1.23853620859,-0.00116878762543,-0.0181008528431,0.001,77.8336672254,4300.0,0.0,0.0,0.0
1513264677324906129,,460004,,1513264675,555675230,'',1.25663706144,1.23853620859,-0.000451799073529,-0.0181008528431,0.001,77.8336672254,4300.0,0.0,0.0,0.0
1513264677334831742,,460005,,1513264675,565675230,'',1.25663706144,1.23714857933,-0.0278510395662,-0.0194884821071,0.001,83.8004730604,4300.0,0.0,0.0,0.0
1513264677344861414,,460006,,1513264675,575675230,'',1.25663706144,1.23853620859,-0.000324578287339,-0.0181008528431,0.001,77.8336672254,4300.0,0.0,0.0,0.0
1513264677355075972,,460007,,1513264675,585675230,'',1.25663706144,1.23853620859,0.000253913466638,-0.0181008528431,0.001,77.8336672254,4300.0,0.0,0.0,0.0
1513264677364847838,,460008,,1513264675,595675230,'',1.25663706144,1.23853620859,-0.000276272097998,-0.0181008528431,0.001,77.8336672254,4300.0,0.0,0.0,0.0
1513264677374956421,,460009,,1513264675,605675230,'',1.25663706144,1.23853620859,0.000263418788268,-0.0181008528431,0.001,77.8336672254,4300.0,0.0,0.0,0.0
1513264677385199812,,460010,,1513264675,615675230,'',1.25663706144,1.23853620859,0.000695749001533,-0.0181008528431,0.001,77.8336672254,4300.0,0.0,0.0,0.0
1513264677395327538,,460011,,1513264675,625675230,'',1.25663706144,1.23992383786,0.0280030022622,-0.0167132235792,0.001,71.8668613904,4300.0,0.0,0.0,0.0
1513264677405213500,,460012,,1513264675,635675230,'',1.25663706144,1.23714857933,-0.0274982969306,-0.0194884821071,0.001,83.8004730604,4300.0,0.0,0.0,0.0
1513264677415315525,,460013,,1513264675,645675230,'',1.25663706144,1.23853620859,0.000906012655463,-0.0181008528431,0.001,77.8336672254,4300.0,0.0,0.0,0.0
1513264677425240272,,460014,,1513264675,655675230,'',1.25663706144,1.23853620859,0.00124131451746,-0.0181008528431,0.001,77.8336672254,4300.0,0.0,0.0,0.0
1513264677435125175,,460015,,1513264675,665675230,'',1.25663706144,1.23853620859,0.00148104611832,-0.0181008528431,0.001,77.8336672254,4300.0,0.0,0.0,0.0
1513264677445226789,,460016,,1513264675,675675230,'',1.25663706144,1.23853620859,0.00121294256089,-0.0181008528431,0.001,77.8336672254,4300.0,0.0,0.0,0.0
1513264677455113934,,460017,,1513264675,685675230,'',1.25663706144,1.23853620859,0.00105130138498,-0.0181008528431,0.001,77.8336672254,4300.0,0.0,0.0,0.0
1513264677464849744,,460018,,1513264675,695675230,'',1.25663706144,1.23853620859,0.00137050606356,-0.0181008528431,0.001,77.8336672254,4300.0,0.0,0.0,0.0
1513264677474910605,,460019,,1513264675,705675230,'',1.25663706144,1.23853620859,0.0010816309246,-0.0181008528431,0.001,77.8336672254,4300.0,0.0,0.0,0.0
1513264677484776196,,460020,,1513264675,715675230,'',1.25663706144,1.23853620859,0.00141554385817,-0.0181008528431,0.001,77.8336672254,4300.0,0.0,0.0,0.0
1513264677494840182,,460021,,1513264675,725675230,'',1.25663706144,1.23853620859,0.00115873953308,-0.0181008528431,0.001,77.8336672254,4300.0,0.0,0.0,0.0
1513264677504763650,,460022,,1513264675,735675230,'',1.25663706144,1.23992383786,0.0299654119488,-0.0167132235792,0.001,71.8668613904,4300.0,0.0,0.0,0.0
1513264677515212336,,460023,,1513264675,745675230,'',1.25663706144,1.23992383786,0.0300432990193,-0.0167132235792,0.001,71.8668613904,4300.0,0.0,0.0,0.0
1513264677525083711,,460024,,1513264675,755675230,'',1.25663706144,1.23853620859,0.00217079448022,-0.0181008528431,0.001,77.8336672254,4300.0,0.0,0.0,0.0
1513264677535019082,,460025,,1513264675,765675230,'',1.25663706144,1.23853620859,0.00228207001744,-0.0181008528431,0.001,77.8336672254,4300.0,0.0,0.0,0.0
1513264677544979418,,460026,,1513264675,775675230,'',1.25663706144,1.23992383786,0.0293961576606,-0.0167132235792,0.001,71.8668613904,4300.0,0.0,0.0,0.0
1513264677555000291,,460027,,1513264675,785675230,'',1.25663706144,1.23853620859,0.00163339558601,-0.0181008528431,0.001,77.8336672254,4300.0,0.0,0.0,0.0
1513264677565004964,,460028,,1513264675,795675230,'',1.25663706144,1.23853620859,0.00188365204512,-0.0181008528431,0.001,77.8336672254,4300.0,0.0,0.0,0.0
1513264677574836231,,460029,,1513264675,805675230,'',1.25663706144,1.23853620859,0.00208408785959,-0.0181008528431,0.001,77.8336672254,4300.0,0.0,0.0,0.0
1513264677584786361,,460030,,1513264675,815675230,'',1.25663706144,1.23853620859,0.00217247843107,-0.0181008528431,0.001,77.8336672254,4300.0,0.0,0.0,0.0
1513264677594749302,,460031,,1513264675,825675230,'',1.25663706144,1.23853620859,0.00231442679095,-0.0181008528431,0.001,77.8336672254,4300.0,0.0,0.0,0.0
1513264677604706960,,460032,,1513264675,835675230,'',1.25663706144,1.23853620859,0.00189538073923,-0.0181008528431,0.001,77.8336672254,4300.0,0.0,0.0,0.0
1513264677615209984,,460033,,1513264675,845675230,'',1.25663706144,1.23853620859,0.00158539147008,-0.0181008528431,0.001,77.8336672254,4300.0,0.0,0.0,0.0
1513264677625090280,,460034,,1513264675,855675230,'',1.25663706144,1.23853620859,0.000338475892686,-0.0181008528431,0.001,77.8336672254,4300.0,0.0,0.0,0.0
1513264677635052990,,460035,,1513264675,865675230,'',1.25663706144,1.23853620859,0.000276921214452,-0.0181008528431,0.001,77.8336672254,4300.0,0.0,0.0,0.0
1513264677645033153,,460036,,1513264675,875675230,'',1.25663706144,1.23714857933,-0.0277528731939,-0.0194884821071,0.001,83.8004730604,4300.0,0.0,0.0,0.0
1513264677655009539,,460037,,1513264675,885675230,'',1.25663706144,1.23853620859,-0.000250007413259,-0.0181008528431,0.001,77.8336672254,4300.0,0.0,0.0,0.0
1513264677664797743,,460038,,1513264675,895675230,'',1.25663706144,1.23853620859,0.000309547171735,-0.0181008528431,0.001,77.8336672254,4300.0,0.0,0.0,0.0
1513264677674810380,,460039,,1513264675,905675230,'',1.25663706144,1.23853620859,0.000253486599206,-0.0181008528431,0.001,77.8336672254,4300.0,0.0,0.0,0.0
1513264677685301952,,460040,,1513264675,915675230,'',1.25663706144,1.23853620859,0.00173839588688,-0.0181008528431,0.001,77.8336672254,4300.0,0.0,0.0,0.0
1513264677695168812,,460041,,1513264675,925675230,'',1.25663706144,1.23853620859,0.0024185147029,-0.0181008528431,0.001,77.8336672254,4300.0,0.0,0.0,0.0
1513264677705240381,,460042,,1513264675,935675230,'',1.25663706144,1.23853620859,0.00245059878544,-0.0181008528431,0.001,77.8336672254,4300.0,0.0,0.0,0.0
1513264677715152922,,460043,,1513264675,945675230,'',1.25663706144,1.23853620859,0.00301153915016,-0.0181008528431,0.001,77.8336672254,4300.0,0.0,0.0,0.0
1513264677724927807,,460044,,1513264675,955675230,'',1.25663706144,1.23853620859,0.00246524048536,-0.0181008528431,0.001,77.8336672254,4300.0,0.0,0.0,0.0
1513264677734770715,,460045,,1513264675,965675230,'',1.25663706144,1.23853620859,0.00201881135788,-0.0181008528431,0.001,77.8336672254,4300.0,0.0,0.0,0.0
1513264677745008021,,460046,,1513264675,975675230,'',1.25663706144,1.23714857933,-0.0253070364144,-0.0194884821071,0.001,83.8004730604,4300.0,0.0,0.0,0.0
1513264677754999137,,460047,,1513264675,985675230,'',1.25663706144,1.23853620859,0.00168569642762,-0.0181008528431,0.001,77.8336672254,4300.0,0.0,0.0,0.0
1513264677764965379,,460048,,1513264675,995675230,'',1.25663706144,1.23853620859,0.00185016157128,-0.0181008528431,0.001,77.8336672254,4300.0,0.0,0.0,0.0
1513264677774867695,,460049,,1513264676,5675230,'',1.25663706144,1.23714857933,-0.0248922876853,-0.0194884821071,0.001,83.8004730604,4300.0,0.0,0.0,0.0
1513264677784863741,,460050,,1513264676,15675230,'',1.25663706144,1.23853620859,0.00307723152002,-0.0181008528431,0.001,77.8336672254,4300.0,0.0,0.0,0.0
1513264677794772309,,460051,,1513264676,25675230,'',1.25663706144,1.23853620859,0.00197955616422,-0.0181008528431,0.001,77.8336672254,4300.0,0.0,0.0,0.0
1513264677804735668,,460052,,1513264676,35675230,'',1.25663706144,1.23853620859,0.00162043017755,-0.0181008528431,0.001,77.8336672254,4300.0,0.0,0.0,0.0
1513264677815240515,,460053,,1513264676,45675230,'',1.25663706144,1.23853620859,0.0013502423319,-0.0181008528431,0.001,77.8336672254,4300.0,0.0,0.0,0.0
1513264677825123869,,460054,,1513264676,55675230,'',1.25663706144,1.23853620859,0.00115958499253,-0.0181008528431,0.001,77.8336672254,4300.0,0.0,0.0,0.0
1513264677835166024,,460055,,1513264676,65675230,'',1.25663706144,1.23853620859,0.000949220592582,-0.0181008528431,0.001,77.8336672254,4300.0,0.0,0.0,0.0
1513264677845157421,,460056,,1513264676,75675230,'',1.25663706144,1.23853620859,0.000773220162639,-0.0181008528431,0.001,77.8336672254,4300.0,0.0,0.0,0.0
1513264677855050143,,460057,,1513264676,85675230,'',1.25663706144,1.23714857933,-0.027385083362,-0.0194884821071,0.001,83.8004730604,4300.0,0.0,0.0,0.0
1513264677865004129,,460058,,1513264676,95675230,'',1.25663706144,1.23853620859,0.000531193316061,-0.0181008528431,0.001,77.8336672254,4300.0,0.0,0.0,0.0
1513264677875095665,,460059,,1513264676,105675230,'',1.25663706144,1.23853620859,0.00191220426527,-0.0181008528431,0.001,77.8336672254,4300.0,0.0,0.0,0.0
1513264677884981066,,460060,,1513264676,115675230,'',1.25663706144,1.23853620859,0.00206580311383,-0.0181008528431,0.001,77.8336672254,4300.0,0.0,0.0,0.0
1513264677894924997,,460061,,1513264676,125675230,'',1.25663706144,1.23853620859,0.00228767566029,-0.0181008528431,0.001,77.8336672254,4300.0,0.0,0.0,0.0
1513264677904886978,,460062,,1513264676,135675230,'',1.25663706144,1.23853620859,0.00187261570967,-0.0181008528431,0.001,77.8336672254,4300.0,0.0,0.0,0.0
1513264677914883924,,460063,,1513264676,145675230,'',1.25663706144,1.23992383786,0.0295561826823,-0.0167132235792,0.001,71.8668613904,4300.0,0.0,0.0,0.0
1513264677924851048,,460064,,1513264676,155675230,'',1.25663706144,1.23853620859,-0.000273216717282,-0.0181008528431,0.001,77.8336672254,4300.0,0.0,0.0,0.0
1513264677934926081,,460065,,1513264676,165675230,'',1.25663706144,1.23853620859,-0.000223685638882,-0.0181008528431,0.001,77.8336672254,4300.0,0.0,0.0,0.0
1513264677945210466,,460066,,1513264676,175675230,'',1.25663706144,1.23714857933,-0.0281205270197,-0.0194884821071,0.001,83.8004730604,4300.0,0.0,0.0,0.0
1513264677955182318,,460067,,1513264676,185675230,'',1.25663706144,1.23853620859,0.000444249018378,-0.0181008528431,0.001,77.8336672254,4300.0,0.0,0.0,0.0
1513264677965075668,,460068,,1513264676,195675230,'',1.25663706144,1.23853620859,0.000867934767319,-0.0181008528431,0.001,77.8336672254,4300.0,0.0,0.0,0.0
1513264677974954061,,460069,,1513264676,205675230,'',1.25663706144,1.23853620859,0.00121018327093,-0.0181008528431,0.001,77.8336672254,4300.0,0.0,0.0,0.0
1513264677984813211,,460070,,1513264676,215675230,'',1.25663706144,1.23853620859,0.000990672725704,-0.0181008528431,0.001,77.8336672254,4300.0,0.0,0.0,0.0
1513264677994902868,,460071,,1513264676,225675230,'',1.25663706144,1.23853620859,0.00136130939091,-0.0181008528431,0.001,77.8336672254,4300.0,0.0,0.0,0.0
1513264678004940323,,460072,,1513264676,235675230,'',1.25663706144,1.23714857933,-0.0264174348169,-0.0194884821071,0.001,83.8004730604,4300.0,0.0,0.0,0.0
1513264678014786152,,460073,,1513264676,245675230,'',1.25663706144,1.23853620859,0.00131917624067,-0.0181008528431,0.001,77.8336672254,4300.0,0.0,0.0,0.0
1513264678025110296,,460074,,1513264676,255675230,'',1.25663706144,1.23853620859,-0.000490904592321,-0.0181008528431,0.001,77.8336672254,4300.0,0.0,0.0,0.0
1513264678035054749,,460075,,1513264676,265675230,'',1.25663706144,1.23714857933,-0.0288891385927,-0.0194884821071,0.001,83.8004730604,4300.0,0.0,0.0,0.0
1513264678045156126,,460076,,1513264676,275675230,'',1.25663706144,1.23853620859,-0.00121418216097,-0.0181008528431,0.001,77.8336672254,4300.0,0.0,0.0,0.0
1513264678055049497,,460077,,1513264676,285675230,'',1.25663706144,1.23992383786,0.024895286393,-0.0167132235792,0.001,71.8668613904,4300.0,0.0,0.0,0.0
1513264678064969478,,460078,,1513264676,295675230,'',1.25663706144,1.23853620859,-0.00305476403128,-0.0181008528431,0.001,77.8336672254,4300.0,0.0,0.0,0.0
1513264678074881507,,460079,,1513264676,305675230,'',1.25663706144,1.23853620859,-0.00199630610635,-0.0181008528431,0.001,77.8336672254,4300.0,0.0,0.0,0.0
1513264678084881158,,460080,,1513264676,315675230,'',1.25663706144,1.23853620859,-0.00306476040005,-0.0181008528431,0.001,77.8336672254,4300.0,0.0,0.0,0.0
1513264678094845758,,460081,,1513264676,325675230,'',1.25663706144,1.23853620859,-0.00407661562,-0.0181008528431,0.001,77.8336672254,4300.0,0.0,0.0,0.0
1513264678104890611,,460082,,1513264676,335675230,'',1.25663706144,1.23853620859,-0.00538849392152,-0.0181008528431,0.001,77.8336672254,4300.0,0.0,0.0,0.0
1513264678115275395,,460083,,1513264676,345675230,'',1.25663706144,1.23853620859,-0.00689874984114,-0.0181008528431,0.001,77.8336672254,4300.0,0.0,0.0,0.0
1513264678125115975,,460084,,1513264676,355675230,'',1.25663706144,1.24131146712,0.0487683781809,-0.0153255943152,0.001,65.9000555554,4300.0,0.0,0.0,0.0
1513264678135225617,,460085,,1513264676,365675230,'',1.25663706144,1.23992383786,0.0209750531806,-0.0167132235792,0.001,71.8668613904,4300.0,0.0,0.0,0.0
1513264678145089592,,460086,,1513264676,375675230,'',1.25663706144,1.23853620859,-0.00773300010217,-0.0181008528431,0.001,77.8336672254,4300.0,0.0,0.0,0.0
1513264678154955615,,460087,,1513264676,385675230,'',1.25663706144,1.23992383786,0.0197080210568,-0.0167132235792,0.001,71.8668613904,4300.0,0.0,0.0,0.0
1513264678164903775,,460088,,1513264676,395675230,'',1.25663706144,1.23992383786,0.0182396699346,-0.0167132235792,0.001,71.8668613904,4300.0,0.0,0.0,0.0
1513264678174745398,,460089,,1513264676,405675230,'',1.25663706144,1.23853620859,-0.011052932566,-0.0181008528431,0.001,77.8336672254,4300.0,0.0,0.0,0.0
1513264678185214813,,460090,,1513264676,415675230,'',1.25663706144,1.23853620859,-0.0105551562103,-0.0181008528431,0.001,77.8336672254,4300.0,0.0,0.0,0.0
1513264678195053350,,460091,,1513264676,425675230,'',1.25663706144,1.23992383786,0.016334790679,-0.0167132235792,0.001,71.8668613904,4300.0,0.0,0.0,0.0
1513264678205022217,,460092,,1513264676,435675230,'',1.25663706144,1.23992383786,0.0142822318611,-0.0167132235792,0.001,71.8668613904,4300.0,0.0,0.0,0.0
1513264678214945030,,460093,,1513264676,445675230,'',1.25663706144,1.23992383786,0.0126523030814,-0.0167132235792,0.001,71.8668613904,4300.0,0.0,0.0,0.0
1513264678224848240,,460094,,1513264676,455675230,'',1.25663706144,1.24131146712,0.0363159026797,-0.0153255943152,0.001,65.9000555554,4300.0,0.0,0.0,0.0
1513264678234876610,,460095,,1513264676,465675230,'',1.25663706144,1.23992383786,0.00575772707687,-0.0167132235792,0.001,71.8668613904,4300.0,0.0,0.0,0.0
1513264678244933386,,460096,,1513264676,475675230,'',1.25663706144,1.23992383786,0.00218853632573,-0.0167132235792,0.001,71.8668613904,4300.0,0.0,0.0,0.0
1513264678255274387,,460097,,1513264676,485675230,'',1.25663706144,1.23992383786,-0.000203843145233,-0.0167132235792,0.001,71.8668613904,4300.0,0.0,0.0,0.0
1513264678265106097,,460098,,1513264676,495675230,'',1.25663706144,1.23992383786,-0.00266539278155,-0.0167132235792,0.001,71.8668613904,4300.0,0.0,0.0,0.0
1513264678275156594,,460099,,1513264676,505675230,'',1.25663706144,1.23992383786,-0.00464781256004,-0.0167132235792,0.001,71.8668613904,4300.0,0.0,0.0,0.0
1513264678285087945,,460100,,1513264676,515675230,'',1.25663706144,1.24131146712,0.0195782595101,-0.0153255943152,0.001,65.9000555554,4300.0,0.0,0.0,0.0
1513264678295111818,,460101,,1513264676,525675230,'',1.25663706144,1.23992383786,-0.00798061996146,-0.0167132235792,0.001,71.8668613904,4300.0,0.0,0.0,0.0
1513264678305107338,,460102,,1513264676,535675230,'',1.25663706144,1.23992383786,-0.00901724928319,-0.0167132235792,0.001,71.8668613904,4300.0,0.0,0.0,0.0
1513264678314983335,,460103,,1513264676,545675230,'',1.25663706144,1.24131146712,0.0185610023348,-0.0153255943152,0.001,65.9000555554,4300.0,0.0,0.0,0.0
1513264678324948917,,460104,,1513264676,555675230,'',1.25663706144,1.24131146712,0.016217321694,-0.0153255943152,0.001,65.9000555554,4300.0,0.0,0.0,0.0
1513264678334918436,,460105,,1513264676,565675230,'',1.25663706144,1.24131146712,0.0142698568555,-0.0153255943152,0.001,65.9000555554,4300.0,0.0,0.0,0.0
1513264678345016554,,460106,,1513264676,575675230,'',1.25663706144,1.24131146712,0.0127481685425,-0.0153255943152,0.001,65.9000555554,4300.0,0.0,0.0,0.0
1513264678354920689,,460107,,1513264676,585675230,'',1.25663706144,1.24269909638,0.0388376384428,-0.0139379650513,0.001,59.9332497204,4300.0,0.0,0.0,0.0
1513264678364971553,,460108,,1513264676,595675230,'',1.25663706144,1.24131146712,0.00885088412786,-0.0153255943152,0.001,65.9000555554,4300.0,0.0,0.0,0.0
1513264678374996643,,460109,,1513264676,605675230,'',1.25663706144,1.23992383786,-0.0202142815839,-0.0167132235792,0.001,71.8668613904,4300.0,0.0,0.0,0.0
1513264678384829891,,460110,,1513264676,615675230,'',1.25663706144,1.24269909638,0.0348222823067,-0.0139379650513,0.001,59.9332497204,4300.0,0.0,0.0,0.0
1513264678394921356,,460111,,1513264676,625675230,'',1.25663706144,1.24131146712,0.00650022965745,-0.0153255943152,0.001,65.9000555554,4300.0,0.0,0.0,0.0
1513264678404931907,,460112,,1513264676,635675230,'',1.25663706144,1.24131146712,0.00731900844609,-0.0153255943152,0.001,65.9000555554,4300.0,0.0,0.0,0.0
1513264678415380207,,460113,,1513264676,645675230,'',1.25663706144,1.24269909638,0.0334530139635,-0.0139379650513,0.001,59.9332497204,4300.0,0.0,0.0,0.0
1513264678425371171,,460114,,1513264676,655675230,'',1.25663706144,1.24269909638,0.0329492207652,-0.0139379650513,0.001,59.9332497204,4300.0,0.0,0.0,0.0
1513264678435084385,,460115,,1513264676,665675230,'',1.25663706144,1.24131146712,0.0020188750932,-0.0153255943152,0.001,65.9000555554,4300.0,0.0,0.0,0.0
1513264678444856513,,460116,,1513264676,675675230,'',1.25663706144,1.23992383786,-0.0283968427296,-0.0167132235792,0.001,71.8668613904,4300.0,0.0,0.0,0.0
1513264678455029329,,460117,,1513264676,685675230,'',1.25663706144,1.24131146712,-0.00121993126306,-0.0153255943152,0.001,65.9000555554,4300.0,0.0,0.0,0.0
1513264678464767240,,460118,,1513264676,695675230,'',1.25663706144,1.24269909638,0.0269477881073,-0.0139379650513,0.001,59.9332497204,4300.0,0.0,0.0,0.0
1513264678474985647,,460119,,1513264676,705675230,'',1.25663706144,1.24408672565,0.0519950145075,-0.0125503357873,0.001,53.9664438854,4300.0,0.0,0.0,0.0
1513264678485084401,,460120,,1513264676,715675230,'',1.25663706144,1.24269909638,0.0220991083184,-0.0139379650513,0.001,59.9332497204,4300.0,0.0,0.0,0.0
1513264678495036736,,460121,,1513264676,725675230,'',1.25663706144,1.24269909638,0.019135160397,-0.0139379650513,0.001,59.9332497204,4300.0,0.0,0.0,0.0
1513264678504926323,,460122,,1513264676,735675230,'',1.25663706144,1.24269909638,0.0177299684664,-0.0139379650513,0.001,59.9332497204,4300.0,0.0,0.0,0.0
1513264678515116587,,460123,,1513264676,745675230,'',1.25663706144,1.24269909638,0.0160430150823,-0.0139379650513,0.001,59.9332497204,4300.0,0.0,0.0,0.0
1513264678525115513,,460124,,1513264676,755675230,'',1.25663706144,1.24131146712,-0.0118563721982,-0.0153255943152,0.001,65.9000555554,4300.0,0.0,0.0,0.0
1513264678534936118,,460125,,1513264676,765675230,'',1.25663706144,1.24131146712,-0.0122337106731,-0.0153255943152,0.001,65.9000555554,4300.0,0.0,0.0,0.0
1513264678544843326,,460126,,1513264676,775675230,'',1.25663706144,1.24269909638,0.0139012834074,-0.0139379650513,0.001,59.9332497204,4300.0,0.0,0.0,0.0
1513264678555287075,,460127,,1513264676,785675230,'',1.25663706144,1.24269909638,0.0129059716973,-0.0139379650513,0.001,59.9332497204,4300.0,0.0,0.0,0.0
1513264678564863759,,460128,,1513264676,795675230,'',1.25663706144,1.24269909638,0.01358966819,-0.0139379650513,0.001,59.9332497204,4300.0,0.0,0.0,0.0
1513264678574824540,,460129,,1513264676,805675230,'',1.25663706144,1.24408672565,0.0396308444038,-0.0125503357873,0.001,53.9664438854,4300.0,0.0,0.0,0.0
1513264678584771136,,460130,,1513264676,815675230,'',1.25663706144,1.24131146712,-0.0179760106557,-0.0153255943152,0.001,65.9000555554,4300.0,0.0,0.0,0.0
1513264678595256189,,460131,,1513264676,825675230,'',1.25663706144,1.24131146712,-0.019692103696,-0.0153255943152,0.001,65.9000555554,4300.0,0.0,0.0,0.0
1513264678605117390,,460132,,1513264676,835675230,'',1.25663706144,1.24269909638,0.00738986012684,-0.0139379650513,0.001,59.9332497204,4300.0,0.0,0.0,0.0
1513264678615293784,,460133,,1513264676,845675230,'',1.25663706144,1.24269909638,0.00461519703901,-0.0139379650513,0.001,59.9332497204,4300.0,0.0,0.0,0.0
1513264678625152515,,460134,,1513264676,855675230,'',1.25663706144,1.24408672565,0.0301519267392,-0.0125503357873,0.001,53.9664438854,4300.0,0.0,0.0,0.0
1513264678635086153,,460135,,1513264676,865675230,'',1.25663706144,1.24408672565,0.0266075666351,-0.0125503357873,0.001,53.9664438854,4300.0,0.0,0.0,0.0
1513264678645102375,,460136,,1513264676,875675230,'',1.25663706144,1.24269909638,-0.00267257509989,-0.0139379650513,0.001,59.9332497204,4300.0,0.0,0.0,0.0
1513264678655008193,,460137,,1513264676,885675230,'',1.25663706144,1.24408672565,0.0223004843266,-0.0125503357873,0.001,53.9664438854,4300.0,0.0,0.0,0.0
1513264678664803152,,460138,,1513264676,895675230,'',1.25663706144,1.24547435491,0.0462282677951,-0.0111627065234,0.001,47.9996380504,4300.0,0.0,0.0,0.0
1513264678674758469,,460139,,1513264676,905675230,'',1.25663706144,1.24408672565,0.0143505424721,-0.0125503357873,0.001,53.9664438854,4300.0,0.0,0.0,0.0
1513264678685254314,,460140,,1513264676,915675230,'',1.25663706144,1.24547435491,0.0377005863729,-0.0111627065234,0.001,47.9996380504,4300.0,0.0,0.0,0.0
1513264678695202031,,460141,,1513264676,925675230,'',1.25663706144,1.24686198418,0.056836141182,-0.0097750772594,0.001,42.0328322154,4300.0,0.0,0.0,0.0
1513264678705127512,,460142,,1513264676,935675230,'',1.25663706144,1.24686198418,0.0480508063818,-0.0097750772594,0.001,42.0328322154,4300.0,0.0,0.0,0.0
1513264678715223893,,460143,,1513264676,945675230,'',1.25663706144,1.24824961344,0.068850501178,-0.00838744799545,0.001,36.0660263804,4300.0,0.0,0.0,0.0
1513264678725015060,,460144,,1513264676,955675230,'',1.25663706144,1.24824961344,0.0583428355915,-0.00838744799545,0.001,36.0660263804,4300.0,0.0,0.0,0.0
1513264678735057364,,460145,,1513264676,965675230,'',1.25663706144,1.24686198418,0.0237900643339,-0.0097750772594,0.001,42.0328322154,4300.0,0.0,0.0,0.0
1513264678744885478,,460146,,1513264676,975675230,'',1.25663706144,1.24686198418,0.0173883786613,-0.0097750772594,0.001,42.0328322154,4300.0,0.0,0.0,0.0
1513264678754868867,,460147,,1513264676,985675230,'',1.25663706144,1.24824961344,0.0387930301302,-0.00838744799545,0.001,36.0660263804,4300.0,0.0,0.0,0.0
1513264678764821322,,460148,,1513264676,995675230,'',1.25663706144,1.24824961344,0.0327872774093,-0.00838744799545,0.001,36.0660263804,4300.0,0.0,0.0,0.0
1513264678774944731,,460149,,1513264677,5675230,'',1.25663706144,1.2496372427,0.0506970625904,-0.0069998187315,0.001,30.0992205454,4300.0,0.0,0.0,0.0
1513264678785124135,,460150,,1513264677,15675230,'',1.25663706144,1.2538001305,0.116254392534,-0.00283693093964,0.001,12.1988030404,4300.0,0.0,0.0,0.0
1513264678795011379,,460151,,1513264677,25675230,'',1.25663706144,1.25796301829,0.16934323535,0.00132595685222,0.001,-5.70161446455,4300.0,0.0,0.0,0.0
1513264678804963425,,460152,,1513264677,35675230,'',1.25663706144,1.26212590608,0.216421566526,0.00548884464408,0.001,-23.6020319695,4300.0,0.0,0.0,0.0
1513264678814805472,,460153,,1513264677,45675230,'',1.25663706144,1.26212590608,0.179649359407,0.0,0.001,0.0,4300.0,0.0,0.0,0.0
1513264678824773995,,460154,,1513264677,55675230,'',1.25663706144,1.26212590608,0.144880468194,0.0,0.001,0.0,4300.0,0.0,0.0,0.0
1513264678835339620,,460155,,1513264677,65675230,'',1.25663706144,1.26490116461,0.170086830412,0.0,0.001,0.0,4300.0,0.0,0.0,0.0
1513264678844846703,,460156,,1513264677,75675230,'',1.25663706144,1.26490116461,0.142264057862,0.0,0.001,0.0,4300.0,0.0,0.0,0.0
1513264678855220031,,460157,,1513264677,85675230,'',1.25663706144,1.26628879387,0.144503537039,0.0,0.001,0.0,4300.0,0.0,0.0,0.0
1513264678865259158,,460158,,1513264677,95675230,'',1.25663706144,1.26490116461,0.0928353244073,0.0,0.001,0.0,4300.0,0.0,0.0,0.0
1513264678875115920,,460159,,1513264677,105675230,'',1.25663706144,1.26628879387,0.100491056994,0.0,0.001,0.0,4300.0,0.0,0.0,0.0
1513264678885177689,,460160,,1513264677,115675230,'',1.25663706144,1.26628879387,0.0817916831096,0.0,0.001,0.0,4300.0,0.0,0.0,0.0
1513264678895043658,,460161,,1513264677,125675230,'',1.25663706144,1.26628879387,0.0659428523718,0.0,0.001,0.0,4300.0,0.0,0.0,0.0
1513264678905162693,,460162,,1513264677,135675230,'',1.25663706144,1.26628879387,0.0524394536866,0.0,0.001,0.0,4300.0,0.0,0.0,0.0
1513264678915082997,,460163,,1513264677,145675230,'',1.25663706144,1.26767642314,0.0673757385661,0.0,0.001,0.0,4300.0,0.0,0.0,0.0
1513264678924976636,,460164,,1513264677,155675230,'',1.25663706144,1.26767642314,0.0565878552818,0.0110393616999,0.001,-47.4692553095,4300.0,0.0,0.0,0.0
1513264678934798970,,460165,,1513264677,165675230,'',1.25663706144,1.26767642314,0.048361122257,0.0110393616999,0.001,-47.4692553095,4300.0,0.0,0.0,0.0
1513264678945046127,,460166,,1513264677,175675230,'',1.25663706144,1.26767642314,0.0401152370592,0.0110393616999,0.001,-47.4692553095,4300.0,0.0,0.0,0.0
1513264678955518012,,460167,,1513264677,185675230,'',1.25663706144,1.26767642314,0.0328635016316,0.0110393616999,0.001,-47.4692553095,4300.0,0.0,0.0,0.0
1513264678965290528,,460168,,1513264677,195675230,'',1.25663706144,1.2690640524,0.0522906502469,0.0124269909638,0.001,-53.4360611445,4300.0,0.0,0.0,0.0
1513264678974766162,,460169,,1513264677,205675230,'',1.25663706144,1.26767642314,0.0178427086707,0.0110393616999,0.001,-47.4692553095,4300.0,0.0,0.0,0.0
1513264678985184493,,460170,,1513264677,215675230,'',1.25663706144,1.26767642314,0.0135483864211,0.0110393616999,0.001,-47.4692553095,4300.0,0.0,0.0,0.0
1513264678995202312,,460171,,1513264677,225675230,'',1.25663706144,1.2690640524,0.0365225481986,0.0124269909638,0.001,-53.4360611445,4300.0,0.0,0.0,0.0
1513264679005173766,,460172,,1513264677,235675230,'',1.25663706144,1.2690640524,0.0323114255493,0.0124269909638,0.001,-53.4360611445,4300.0,0.0,0.0,0.0
1513264679014922731,,460173,,1513264677,245675230,'',1.25663706144,1.26767642314,0.00101486866425,0.0110393616999,0.001,-47.4692553095,4300.0,0.0,0.0,0.0
1513264679025434389,,460174,,1513264677,255675230,'',1.25663706144,1.2690640524,0.0252054051315,0.0124269909638,0.001,-53.4360611445,4300.0,0.0,0.0,0.0
1513264679035064439,,460175,,1513264677,265675230,'',1.25663706144,1.26767642314,-0.00630832834527,0.0110393616999,0.001,-47.4692553095,4300.0,0.0,0.0,0.0
1513264679045213146,,460176,,1513264677,275675230,'',1.25663706144,1.2690640524,0.0193156905432,0.0124269909638,0.001,-53.4360611445,4300.0,0.0,0.0,0.0
1513264679055168372,,460177,,1513264677,285675230,'',1.25663706144,1.2690640524,0.0153523952426,0.0124269909638,0.001,-53.4360611445,4300.0,0.0,0.0,0.0
1513264679065119653,,460178,,1513264677,295675230,'',1.25663706144,1.2690640524,0.012623625611,0.0124269909638,0.001,-53.4360611445,4300.0,0.0,0.0,0.0
1513264679075060441,,460179,,1513264677,305675230,'',1.25663706144,1.2690640524,0.0118913480408,0.0124269909638,0.001,-53.4360611445,4300.0,0.0,0.0,0.0
1513264679084842004,,460180,,1513264677,315675230,'',1.25663706144,1.2690640524,0.0107040816029,0.0124269909638,0.001,-53.4360611445,4300.0,0.0,0.0,0.0
1513264679094905147,,460181,,1513264677,325675230,'',1.25663706144,1.2690640524,0.00974974467702,0.0124269909638,0.001,-53.4360611445,4300.0,0.0,0.0,0.0
1513264679105275270,,460182,,1513264677,335675230,'',1.25663706144,1.2690640524,0.00794749276161,0.0124269909638,0.001,-53.4360611445,4300.0,0.0,0.0,0.0
1513264679115183281,,460183,,1513264677,345675230,'',1.25663706144,1.2690640524,0.00706391575099,0.0124269909638,0.001,-53.4360611445,4300.0,0.0,0.0,0.0
1513264679125272518,,460184,,1513264677,355675230,'',1.25663706144,1.2690640524,0.00579670914786,0.0124269909638,0.001,-53.4360611445,4300.0,0.0,0.0,0.0
1513264679135051272,,460185,,1513264677,365675230,'',1.25663706144,1.2690640524,0.00326059821615,0.0124269909638,0.001,-53.4360611445,4300.0,0.0,0.0,0.0
1513264679145045184,,460186,,1513264677,375675230,'',1.25663706144,1.27045168166,0.0291617230682,0.0138146202278,0.001,-59.4028669795,4300.0,0.0,0.0,0.0
1513264679155286713,,460187,,1513264677,385675230,'',1.25663706144,1.27045168166,0.0269417140608,0.0138146202278,0.001,-59.4028669795,4300.0,0.0,0.0,0.0
1513264679165057721,,460188,,1513264677,395675230,'',1.25663706144,1.27045168166,0.0271072154796,0.0138146202278,0.001,-59.4028669795,4300.0,0.0,0.0,0.0
1513264679175063354,,460189,,1513264677,405675230,'',1.25663706144,1.2690640524,-0.0023233314803,0.0124269909638,0.001,-53.4360611445,4300.0,0.0,0.0,0.0
1513264679184950843,,460190,,1513264677,415675230,'',1.25663706144,1.27045168166,0.0240545771846,0.0138146202278,0.001,-59.4028669795,4300.0,0.0,0.0,0.0
1513264679194890561,,460191,,1513264677,425675230,'',1.25663706144,1.26767642314,-0.0317895130122,0.0110393616999,0.001,-47.4692553095,4300.0,0.0,0.0,0.0
1513264679205097861,,460192,,1513264677,435675230,'',1.25663706144,1.27045168166,0.0223426468229,0.0138146202278,0.001,-59.4028669795,4300.0,0.0,0.0,0.0
1513264679214784892,,460193,,1513264677,445675230,'',1.25663706144,1.2690640524,-0.00570640191918,0.0124269909638,0.001,-53.4360611445,4300.0,0.0,0.0,0.0
1513264679224824914,,460194,,1513264677,455675230,'',1.25663706144,1.27045168166,0.0222979902205,0.0138146202278,0.001,-59.4028669795,4300.0,0.0,0.0,0.0
1513264679235210963,,460195,,1513264677,465675230,'',1.25663706144,1.26767642314,-0.0332229696078,0.0110393616999,0.001,-47.4692553095,4300.0,0.0,0.0,0.0
1513264679245259548,,460196,,1513264677,475675230,'',1.25663706144,1.2690640524,-0.00522376191934,0.0124269909638,0.001,-53.4360611445,4300.0,0.0,0.0,0.0
1513264679255088901,,460197,,1513264677,485675230,'',1.25663706144,1.2690640524,-0.00569350113915,0.0124269909638,0.001,-53.4360611445,4300.0,0.0,0.0,0.0
1513264679264997365,,460198,,1513264677,495675230,'',1.25663706144,1.27045168166,0.0228564682075,0.0138146202278,0.001,-59.4028669795,4300.0,0.0,0.0,0.0
1513264679275213121,,460199,,1513264677,505675230,'',1.25663706144,1.27045168166,0.020218224228,0.0138146202278,0.001,-59.4028669795,4300.0,0.0,0.0,0.0
1513264679285142966,,460200,,1513264677,515675230,'',1.25663706144,1.2690640524,-0.00790219386712,0.0124269909638,0.001,-53.4360611445,4300.0,0.0,0.0,0.0
1513264679295131485,,460201,,1513264677,525675230,'',1.25663706144,1.2690640524,-0.0074896360321,0.0124269909638,0.001,-53.4360611445,4300.0,0.0,0.0,0.0
1513264679305146646,,460202,,1513264677,535675230,'',1.25663706144,1.2690640524,-0.00914180573208,0.0124269909638,0.001,-53.4360611445,4300.0,0.0,0.0,0.0
1513264679314989688,,460203,,1513264677,545675230,'',1.25663706144,1.2690640524,-0.0105527021284,0.0124269909638,0.001,-53.4360611445,4300.0,0.0,0.0,0.0
1513264679324879664,,460204,,1513264677,555675230,'',1.25663706144,1.27045168166,0.0173107982518,0.0138146202278,0.001,-59.4028669795,4300.0,0.0,0.0,0.0
1513264679334756901,,460205,,1513264677,565675230,'',1.25663706144,1.27045168166,0.0161624600971,0.0138146202278,0.001,-59.4028669795,4300.0,0.0,0.0,0.0
1513264679345172317,,460206,,1513264677,575675230,'',1.25663706144,1.27045168166,0.0127626002334,0.0138146202278,0.001,-59.4028669795,4300.0,0.0,0.0,0.0
1513264679355130183,,460207,,1513264677,585675230,'',1.25663706144,1.2690640524,-0.0155805229917,0.0124269909638,0.001,-53.4360611445,4300.0,0.0,0.0,0.0
1513264679365046322,,460208,,1513264677,595675230,'',1.25663706144,1.27045168166,0.0121928250753,0.0138146202278,0.001,-59.4028669795,4300.0,0.0,0.0,0.0
1513264679374995677,,460209,,1513264677,605675230,'',1.25663706144,1.2690640524,-0.0155363433007,0.0124269909638,0.001,-53.4360611445,4300.0,0.0,0.0,0.0
1513264679384941495,,460210,,1513264677,615675230,'',1.25663706144,1.27183931093,0.0402677634215,0.0152022494918,0.001,-65.3696728145,4300.0,0.0,0.0,0.0
1513264679395051384,,460211,,1513264677,625675230,'',1.25663706144,1.2690640524,-0.0170586253051,0.0124269909638,0.001,-53.4360611445,4300.0,0.0,0.0,0.0
1513264679405062973,,460212,,1513264677,635675230,'',1.25663706144,1.2690640524,-0.0185014559466,0.0124269909638,0.001,-53.4360611445,4300.0,0.0,0.0,0.0
1513264679414832338,,460213,,1513264677,645675230,'',1.25663706144,1.2690640524,-0.0186782035765,0.0124269909638,0.001,-53.4360611445,4300.0,0.0,0.0,0.0
1513264679425168000,,460214,,1513264677,655675230,'',1.25663706144,1.2690640524,-0.0192754453747,0.0124269909638,0.001,-53.4360611445,4300.0,0.0,0.0,0.0
1513264679435075127,,460215,,1513264677,665675230,'',1.25663706144,1.27045168166,0.00917496434382,0.0138146202278,0.001,-59.4028669795,4300.0,0.0,0.0,0.0
1513264679445094634,,460216,,1513264677,675675230,'',1.25663706144,1.27045168166,0.010087601997,0.0138146202278,0.001,-59.4028669795,4300.0,0.0,0.0,0.0
1513264679455087107,,460217,,1513264677,685675230,'',1.25663706144,1.2690640524,-0.0171500940763,0.0124269909638,0.001,-53.4360611445,4300.0,0.0,0.0,0.0
1513264679465031512,,460218,,1513264677,695675230,'',1.25663706144,1.27045168166,0.00991020105798,0.0138146202278,0.001,-59.4028669795,4300.0,0.0,0.0,0.0
1513264679475269139,,460219,,1513264677,705675230,'',1.25663706144,1.27045168166,0.0101537040569,0.0138146202278,0.001,-59.4028669795,4300.0,0.0,0.0,0.0
1513264679484922321,,460220,,1513264677,715675230,'',1.25663706144,1.27045168166,0.0092972615081,0.0138146202278,0.001,-59.4028669795,4300.0,0.0,0.0,0.0
1513264679495289355,,460221,,1513264677,725675230,'',1.25663706144,1.27045168166,0.00863706955439,0.0138146202278,0.001,-59.4028669795,4300.0,0.0,0.0,0.0
1513264679505307344,,460222,,1513264677,735675230,'',1.25663706144,1.27045168166,0.00852647161594,0.0138146202278,0.001,-59.4028669795,4300.0,0.0,0.0,0.0
1513264679515237604,,460223,,1513264677,745675230,'',1.25663706144,1.27045168166,0.00803594970179,0.0138146202278,0.001,-59.4028669795,4300.0,0.0,0.0,0.0
1513264679525353830,,460224,,1513264677,755675230,'',1.25663706144,1.2690640524,-0.0213677730342,0.0124269909638,0.001,-53.4360611445,4300.0,0.0,0.0,0.0
1513264679535073345,,460225,,1513264677,765675230,'',1.25663706144,1.27045168166,0.00746532636072,0.0138146202278,0.001,-59.4028669795,4300.0,0.0,0.0,0.0
1513264679545249159,,460226,,1513264677,775675230,'',1.25663706144,1.2690640524,-0.0214420091319,0.0124269909638,0.001,-53.4360611445,4300.0,0.0,0.0,0.0
1513264679554954276,,460227,,1513264677,785675230,'',1.25663706144,1.27045168166,0.00637742141062,0.0138146202278,0.001,-59.4028669795,4300.0,0.0,0.0,0.0
1513264679565784343,,460228,,1513264677,795675230,'',1.25663706144,1.27183931093,0.0326046103458,0.0152022494918,0.001,-65.3696728145,4300.0,0.0,0.0,0.0
1513264679575128187,,460229,,1513264677,805675230,'',1.25663706144,1.2690640524,-0.0227243920568,0.0124269909638,0.001,-53.4360611445,4300.0,0.0,0.0,0.0
1513264679584839594,,460230,,1513264677,815675230,'',1.25663706144,1.27045168166,0.00474726036312,0.0138146202278,0.001,-59.4028669795,4300.0,0.0,0.0,0.0
1513264679595804387,,460231,,1513264677,825675230,'',1.25663706144,1.27045168166,0.004917465891,0.0138146202278,0.001,-59.4028669795,4300.0,0.0,0.0,0.0
1513264679605529627,,460232,,1513264677,835675230,'',1.25663706144,1.27045168166,0.00647841303925,0.0138146202278,0.001,-59.4028669795,4300.0,0.0,0.0,0.0
1513264679615656083,,460233,,1513264677,845675230,'',1.25663706144,1.27045168166,0.00474693987501,0.0138146202278,0.001,-59.4028669795,4300.0,0.0,0.0,0.0
1513264679625084953,,460234,,1513264677,855675230,'',1.25663706144,1.27045168166,0.00390524549028,0.0138146202278,0.001,-59.4028669795,4300.0,0.0,0.0,0.0
1513264679635072153,,460235,,1513264677,865675230,'',1.25663706144,1.2690640524,-0.024278820359,0.0124269909638,0.001,-53.4360611445,4300.0,0.0,0.0,0.0
1513264679645091302,,460236,,1513264677,875675230,'',1.25663706144,1.27045168166,0.00464431838091,0.0138146202278,0.001,-59.4028669795,4300.0,0.0,0.0,0.0
1513264679655561835,,460237,,1513264677,885675230,'',1.25663706144,1.27045168166,0.00426965888042,0.0138146202278,0.001,-59.4028669795,4300.0,0.0,0.0,0.0
1513264679665497324,,460238,,1513264677,895675230,'',1.25663706144,1.27183931093,0.0320182615726,0.0152022494918,0.001,-65.3696728145,4300.0,0.0,0.0,0.0
1513264679675749465,,460239,,1513264677,905675230,'',1.25663706144,1.27045168166,0.00473451425862,0.0138146202278,0.001,-59.4028669795,4300.0,0.0,0.0,0.0
1513264679685344779,,460240,,1513264677,915675230,'',1.25663706144,1.27045168166,0.0033566863622,0.0138146202278,0.001,-59.4028669795,4300.0,0.0,0.0,0.0
1513264679695164155,,460241,,1513264677,925675230,'',1.25663706144,1.27045168166,0.00317352615215,0.0138146202278,0.001,-59.4028669795,4300.0,0.0,0.0,0.0
1513264679705427988,,460242,,1513264677,935675230,'',1.25663706144,1.27045168166,0.00360074869951,0.0138146202278,0.001,-59.4028669795,4300.0,0.0,0.0,0.0
1513264679715400007,,460243,,1513264677,945675230,'',1.25663706144,1.27045168166,0.00291635037802,0.0138146202278,0.001,-59.4028669795,4300.0,0.0,0.0,0.0
1513264679724925732,,460244,,1513264677,955675230,'',1.25663706144,1.27045168166,0.00242284269328,0.0138146202278,0.001,-59.4028669795,4300.0,0.0,0.0,0.0
1513264679735541940,,460245,,1513264677,965675230,'',1.25663706144,1.27045168166,0.00203015765955,0.0138146202278,0.001,-59.4028669795,4300.0,0.0,0.0,0.0
1513264679745339536,,460246,,1513264677,975675230,'',1.25663706144,1.27045168166,0.00318447827854,0.0138146202278,0.001,-59.4028669795,4300.0,0.0,0.0,0.0
1513264679755447484,,460247,,1513264677,985675230,'',1.25663706144,1.27045168166,0.00363716004784,0.0138146202278,0.001,-59.4028669795,4300.0,0.0,0.0,0.0
1513264679765512307,,460248,,1513264677,995675230,'',1.25663706144,1.27045168166,0.00347168720727,0.0138146202278,0.001,-59.4028669795,4300.0,0.0,0.0,0.0
1513264679775369058,,460249,,1513264678,5675230,'',1.25663706144,1.27045168166,0.00432085898401,0.0138146202278,0.001,-59.4028669795,4300.0,0.0,0.0,0.0
1513264679785312890,,460250,,1513264678,15675230,'',1.25663706144,1.27045168166,0.0054737468226,0.0138146202278,0.001,-59.4028669795,4300.0,0.0,0.0,0.0
1513264679795350035,,460251,,1513264678,25675230,'',1.25663706144,1.27045168166,0.00545107692388,0.0138146202278,0.001,-59.4028669795,4300.0,0.0,0.0,0.0
1513264679805200897,,460252,,1513264678,35675230,'',1.25663706144,1.27045168166,0.00647918223458,0.0138146202278,0.001,-59.4028669795,4300.0,0.0,0.0,0.0
1513264679815166735,,460253,,1513264678,45675230,'',1.25663706144,1.27045168166,0.00675423387603,0.0138146202278,0.001,-59.4028669795,4300.0,0.0,0.0,0.0
1513264679825552004,,460254,,1513264678,55675230,'',1.25663706144,1.27045168166,0.00645134447086,0.0138146202278,0.001,-59.4028669795,4300.0,0.0,0.0,0.0
1513264679835543970,,460255,,1513264678,65675230,'',1.25663706144,1.27045168166,0.00675540611707,0.0138146202278,0.001,-59.4028669795,4300.0,0.0,0.0,0.0
1513264679845564417,,460256,,1513264678,75675230,'',1.25663706144,1.2690640524,-0.0199380604341,0.0124269909638,0.001,-53.4360611445,4300.0,0.0,0.0,0.0
1513264679855581155,,460257,,1513264678,85675230,'',1.25663706144,1.2690640524,-0.0182721717549,0.0124269909638,0.001,-53.4360611445,4300.0,0.0,0.0,0.0
1513264679865434956,,460258,,1513264678,95675230,'',1.25663706144,1.27045168166,0.0105473806894,0.0138146202278,0.001,-59.4028669795,4300.0,0.0,0.0,0.0
1513264679875344070,,460259,,1513264678,105675230,'',1.25663706144,1.27045168166,0.0106461536036,0.0138146202278,0.001,-59.4028669795,4300.0,0.0,0.0,0.0
1513264679885129339,,460260,,1513264678,115675230,'',1.25663706144,1.27045168166,0.0107051030341,0.0138146202278,0.001,-59.4028669795,4300.0,0.0,0.0,0.0
1513264679895102792,,460261,,1513264678,125675230,'',1.25663706144,1.2690640524,-0.0177460421333,0.0124269909638,0.001,-53.4360611445,4300.0,0.0,0.0,0.0
1513264679905272478,,460262,,1513264678,135675230,'',1.25663706144,1.27045168166,0.0113546663656,0.0138146202278,0.001,-59.4028669795,4300.0,0.0,0.0,0.0
1513264679915007375,,460263,,1513264678,145675230,'',1.25663706144,1.2690640524,-0.0156745974043,0.0124269909638,0.001,-53.4360611445,4300.0,0.0,0.0,0.0
1513264679925250311,,460264,,1513264678,155675230,'',1.25663706144,1.2690640524,-0.0148534552767,0.0124269909638,0.001,-53.4360611445,4300.0,0.0,0.0,0.0
1513264679935443616,,460265,,1513264678,165675230,'',1.25663706144,1.27045168166,0.0132854127371,0.0138146202278,0.001,-59.4028669795,4300.0,0.0,0.0,0.0
1513264679945462249,,460266,,1513264678,175675230,'',1.25663706144,1.2690640524,-0.0139823382318,0.0124269909638,0.001,-53.4360611445,4300.0,0.0,0.0,0.0
1513264679955558470,,460267,,1513264678,185675230,'',1.25663706144,1.2690640524,-0.0159347132409,0.0124269909638,0.001,-53.4360611445,4300.0,0.0,0.0,0.0
1513264679965207975,,460268,,1513264678,195675230,'',1.25663706144,1.27183931093,0.0394095791571,0.0152022494918,0.001,-65.3696728145,4300.0,0.0,0.0,0.0
1513264679975405872,,460269,,1513264678,205675230,'',1.25663706144,1.2690640524,-0.0176087438821,0.0124269909638,0.001,-53.4360611445,4300.0,0.0,0.0,0.0
1513264679985137727,,460270,,1513264678,215675230,'',1.25663706144,1.27045168166,0.00953914479795,0.0138146202278,0.001,-59.4028669795,4300.0,0.0,0.0,0.0
1513264679995282631,,460271,,1513264678,225675230,'',1.25663706144,1.27045168166,0.00825858295087,0.0138146202278,0.001,-59.4028669795,4300.0,0.0,0.0,0.0
1513264680005395155,,460272,,1513264678,235675230,'',1.25663706144,1.2690640524,-0.0187749695042,0.0124269909638,0.001,-53.4360611445,4300.0,0.0,0.0,0.0
1513264680015561559,,460273,,1513264678,245675230,'',1.25663706144,1.2690640524,-0.0183428854076,0.0124269909638,0.001,-53.4360611445,4300.0,0.0,0.0,0.0
1513264680025600528,,460274,,1513264678,255675230,'',1.25663706144,1.27045168166,0.0083985178045,0.0138146202278,0.001,-59.4028669795,4300.0,0.0,0.0,0.0
1513264680035600673,,460275,,1513264678,265675230,'',1.25663706144,1.27045168166,0.00842584527495,0.0138146202278,0.001,-59.4028669795,4300.0,0.0,0.0,0.0
1513264680045336692,,460276,,1513264678,275675230,'',1.25663706144,1.27045168166,0.00948204413991,0.0138146202278,0.001,-59.4028669795,4300.0,0.0,0.0,0.0
1513264680055310115,,460277,,1513264678,285675230,'',1.25663706144,1.2690640524,-0.0198187375651,0.0124269909638,0.001,-53.4360611445,4300.0,0.0,0.0,0.0
1513264680065605256,,460278,,1513264678,295675230,'',1.25663706144,1.2690640524,-0.0192458577048,0.0124269909638,0.001,-53.4360611445,4300.0,0.0,0.0,0.0
1513264680075383193,,460279,,1513264678,305675230,'',1.25663706144,1.2690640524,-0.018359006816,0.0124269909638,0.001,-53.4360611445,4300.0,0.0,0.0,0.0
1513264680085668882,,460280,,1513264678,315675230,'',1.25663706144,1.2690640524,-0.0180654427672,0.0124269909638,0.001,-53.4360611445,4300.0,0.0,0.0,0.0
1513264680095339771,,460281,,1513264678,325675230,'',1.25663706144,1.27045168166,0.0101166575565,0.0138146202278,0.001,-59.4028669795,4300.0,0.0,0.0,0.0
1513264680105286748,,460282,,1513264678,335675230,'',1.25663706144,1.2690640524,-0.0172193995914,0.0124269909638,0.001,-53.4360611445,4300.0,0.0,0.0,0.0
1513264680115056947,,460283,,1513264678,345675230,'',1.25663706144,1.2690640524,-0.0171312663916,0.0124269909638,0.001,-53.4360611445,4300.0,0.0,0.0,0.0
1513264680125150211,,460284,,1513264678,355675230,'',1.25663706144,1.2690640524,-0.0180319423794,0.0124269909638,0.001,-53.4360611445,4300.0,0.0,0.0,0.0
1513264680135009952,,460285,,1513264678,365675230,'',1.25663706144,1.27045168166,0.0101581769996,0.0138146202278,0.001,-59.4028669795,4300.0,0.0,0.0,0.0
1513264680145225008,,460286,,1513264678,375675230,'',1.25663706144,1.2690640524,-0.0170795033598,0.0124269909638,0.001,-53.4360611445,4300.0,0.0,0.0,0.0
1513264680155065028,,460287,,1513264678,385675230,'',1.25663706144,1.2690640524,-0.0170505230928,0.0124269909638,0.001,-53.4360611445,4300.0,0.0,0.0,0.0
1513264680165009960,,460288,,1513264678,395675230,'',1.25663706144,1.27183931093,0.0399976181093,0.0152022494918,0.001,-65.3696728145,4300.0,0.0,0.0,0.0
1513264680175226955,,460289,,1513264678,405675230,'',1.25663706144,1.27045168166,0.0101510187592,0.0138146202278,0.001,-59.4028669795,4300.0,0.0,0.0,0.0
1513264680185140410,,460290,,1513264678,415675230,'',1.25663706144,1.27045168166,0.00989074977073,0.0138146202278,0.001,-59.4028669795,4300.0,0.0,0.0,0.0
1513264680195368947,,460291,,1513264678,425675230,'',1.25663706144,1.27045168166,0.00957204530025,0.0138146202278,0.001,-59.4028669795,4300.0,0.0,0.0,0.0
1513264680205253836,,460292,,1513264678,435675230,'',1.25663706144,1.27045168166,0.00787347251423,0.0138146202278,0.001,-59.4028669795,4300.0,0.0,0.0,0.0
1513264680215207533,,460293,,1513264678,445675230,'',1.25663706144,1.27045168166,0.00695369445853,0.0138146202278,0.001,-59.4028669795,4300.0,0.0,0.0,0.0
1513264680225052880,,460294,,1513264678,455675230,'',1.25663706144,1.2690640524,-0.0212383153705,0.0124269909638,0.001,-53.4360611445,4300.0,0.0,0.0,0.0
1513264680235419216,,460295,,1513264678,465675230,'',1.25663706144,1.2690640524,-0.0203464825176,0.0124269909638,0.001,-53.4360611445,4300.0,0.0,0.0,0.0
1513264680245709941,,460296,,1513264678,475675230,'',1.25663706144,1.27045168166,0.00675755269002,0.0138146202278,0.001,-59.4028669795,4300.0,0.0,0.0,0.0
1513264680255453744,,460297,,1513264678,485675230,'',1.25663706144,1.27045168166,0.00651782657649,0.0138146202278,0.001,-59.4028669795,4300.0,0.0,0.0,0.0
1513264680265367905,,460298,,1513264678,495675230,'',1.25663706144,1.27045168166,0.00640118577459,0.0138146202278,0.001,-59.4028669795,4300.0,0.0,0.0,0.0
1513264680275364888,,460299,,1513264678,505675230,'',1.25663706144,1.27045168166,0.00473277409656,0.0138146202278,0.001,-59.4028669795,4300.0,0.0,0.0,0.0
1513264680285180311,,460300,,1513264678,515675230,'',1.25663706144,1.27045168166,0.00594191001414,0.0138146202278,0.001,-59.4028669795,4300.0,0.0,0.0,0.0
1513264680295148065,,460301,,1513264678,525675230,'',1.25663706144,1.2690640524,-0.0205922713747,0.0124269909638,0.001,-53.4360611445,4300.0,0.0,0.0,0.0
1513264680305115434,,460302,,1513264678,535675230,'',1.25663706144,1.27183931093,0.0351082707229,0.0152022494918,0.001,-65.3696728145,4300.0,0.0,0.0,0.0
1513264680314872678,,460303,,1513264678,545675230,'',1.25663706144,1.27045168166,0.00735802279287,0.0138146202278,0.001,-59.4028669795,4300.0,0.0,0.0,0.0
1513264680325542344,,460304,,1513264678,555675230,'',1.25663706144,1.27045168166,0.00800306132465,0.0138146202278,0.001,-59.4028669795,4300.0,0.0,0.0,0.0
1513264680335261810,,460305,,1513264678,565675230,'',1.25663706144,1.27045168166,0.00855611264944,0.0138146202278,0.001,-59.4028669795,4300.0,0.0,0.0,0.0
1513264680345167624,,460306,,1513264678,575675230,'',1.25663706144,1.27183931093,0.0359769149729,0.0152022494918,0.001,-65.3696728145,4300.0,0.0,0.0,0.0
1513264680355189588,,460307,,1513264678,585675230,'',1.25663706144,1.27045168166,0.00646870680181,0.0138146202278,0.001,-59.4028669795,4300.0,0.0,0.0,0.0
1513264680365191328,,460308,,1513264678,595675230,'',1.25663706144,1.27045168166,0.00576133621256,0.0138146202278,0.001,-59.4028669795,4300.0,0.0,0.0,0.0
1513264680375575713,,460309,,1513264678,605675230,'',1.25663706144,1.27045168166,0.00520963691416,0.0138146202278,0.001,-59.4028669795,4300.0,0.0,0.0,0.0
1513264680385336375,,460310,,1513264678,615675230,'',1.25663706144,1.27045168166,0.00572669931899,0.0138146202278,0.001,-59.4028669795,4300.0,0.0,0.0,0.0
1513264680395219240,,460311,,1513264678,625675230,'',1.25663706144,1.2690640524,-0.0222429199972,0.0124269909638,0.001,-53.4360611445,4300.0,0.0,0.0,0.0
1513264680405198945,,460312,,1513264678,635675230,'',1.25663706144,1.27045168166,0.00425062390402,0.0138146202278,0.001,-59.4028669795,4300.0,0.0,0.0,0.0
1513264680415098159,,460313,,1513264678,645675230,'',1.25663706144,1.27045168166,0.00452231477747,0.0138146202278,0.001,-59.4028669795,4300.0,0.0,0.0,0.0
1513264680425258427,,460314,,1513264678,655675230,'',1.25663706144,1.27045168166,0.00421646809233,0.0138146202278,0.001,-59.4028669795,4300.0,0.0,0.0,0.0
1513264680435100519,,460315,,1513264678,665675230,'',1.25663706144,1.27045168166,0.00397037906413,0.0138146202278,0.001,-59.4028669795,4300.0,0.0,0.0,0.0
1513264680445111145,,460316,,1513264678,675675230,'',1.25663706144,1.27045168166,0.00425999229016,0.0138146202278,0.001,-59.4028669795,4300.0,0.0,0.0,0.0
1513264680454956768,,460317,,1513264678,685675230,'',1.25663706144,1.2690640524,-0.0229632256347,0.0124269909638,0.001,-53.4360611445,4300.0,0.0,0.0,0.0
1513264680465218542,,460318,,1513264678,695675230,'',1.25663706144,1.27045168166,0.00520447304306,0.0138146202278,0.001,-59.4028669795,4300.0,0.0,0.0,0.0
1513264680475395420,,460319,,1513264678,705675230,'',1.25663706144,1.2690640524,-0.0216858456455,0.0124269909638,0.001,-53.4360611445,4300.0,0.0,0.0,0.0
1513264680485270080,,460320,,1513264678,715675230,'',1.25663706144,1.2690640524,-0.0213182051557,0.0124269909638,0.001,-53.4360611445,4300.0,0.0,0.0,0.0
1513264680495375391,,460321,,1513264678,725675230,'',1.25663706144,1.27045168166,0.00650855800328,0.0138146202278,0.001,-59.4028669795,4300.0,0.0,0.0,0.0
1513264680505213119,,460322,,1513264678,735675230,'',1.25663706144,1.27045168166,0.00695036425724,0.0138146202278,0.001,-59.4028669795,4300.0,0.0,0.0,0.0
1513264680515458286,,460323,,1513264678,745675230,'',1.25663706144,1.27045168166,0.00663316427451,0.0138146202278,0.001,-59.4028669795,4300.0,0.0,0.0,0.0
1513264680525123833,,460324,,1513264678,755675230,'',1.25663706144,1.27045168166,0.00645445358977,0.0138146202278,0.001,-59.4028669795,4300.0,0.0,0.0,0.0
1513264680535383585,,460325,,1513264678,765675230,'',1.25663706144,1.27183931093,0.0333063309005,0.0152022494918,0.001,-65.3696728145,4300.0,0.0,0.0,0.0
1513264680544992016,,460326,,1513264678,775675230,'',1.25663706144,1.27045168166,0.00637783573001,0.0138146202278,0.001,-59.4028669795,4300.0,0.0,0.0,0.0
1513264680555025345,,460327,,1513264678,785675230,'',1.25663706144,1.27045168166,0.00622678557051,0.0138146202278,0.001,-59.4028669795,4300.0,0.0,0.0,0.0
1513264680565011868,,460328,,1513264678,795675230,'',1.25663706144,1.27045168166,0.00601245935082,0.0138146202278,0.001,-59.4028669795,4300.0,0.0,0.0,0.0
1513264680575122118,,460329,,1513264678,805675230,'',1.25663706144,1.27045168166,0.00638643045231,0.0138146202278,0.001,-59.4028669795,4300.0,0.0,0.0,0.0
1513264680584926015,,460330,,1513264678,815675230,'',1.25663706144,1.2690640524,-0.021202640921,0.0124269909638,0.001,-53.4360611445,4300.0,0.0,0.0,0.0
1513264680595489356,,460331,,1513264678,825675230,'',1.25663706144,1.2690640524,-0.0218057452448,0.0124269909638,0.001,-53.4360611445,4300.0,0.0,0.0,0.0
1513264680605501206,,460332,,1513264678,835675230,'',1.25663706144,1.2690640524,-0.0203358896736,0.0124269909638,0.001,-53.4360611445,4300.0,0.0,0.0,0.0
1513264680615457110,,460333,,1513264678,845675230,'',1.25663706144,1.2690640524,-0.018179990065,0.0124269909638,0.001,-53.4360611445,4300.0,0.0,0.0,0.0
1513264680625431369,,460334,,1513264678,855675230,'',1.25663706144,1.27045168166,0.00959204536194,0.0138146202278,0.001,-59.4028669795,4300.0,0.0,0.0,0.0
1513264680635190100,,460335,,1513264678,865675230,'',1.25663706144,1.27045168166,0.0109356323493,0.0138146202278,0.001,-59.4028669795,4300.0,0.0,0.0,0.0
1513264680645223160,,460336,,1513264678,875675230,'',1.25663706144,1.27045168166,0.0103902439777,0.0138146202278,0.001,-59.4028669795,4300.0,0.0,0.0,0.0
1513264680654997148,,460337,,1513264678,885675230,'',1.25663706144,1.2690640524,-0.0180081166832,0.0124269909638,0.001,-53.4360611445,4300.0,0.0,0.0,0.0
1513264680665039215,,460338,,1513264678,895675230,'',1.25663706144,1.27045168166,0.00978294459607,0.0138146202278,0.001,-59.4028669795,4300.0,0.0,0.0,0.0
1513264680675399048,,460339,,1513264678,905675230,'',1.25663706144,1.27045168166,0.00904171423923,0.0138146202278,0.001,-59.4028669795,4300.0,0.0,0.0,0.0
1513264680685194786,,460340,,1513264678,915675230,'',1.25663706144,1.27045168166,0.00983665731766,0.0138146202278,0.001,-59.4028669795,4300.0,0.0,0.0,0.0
1513264680695268985,,460341,,1513264678,925675230,'',1.25663706144,1.2690640524,-0.0189158798813,0.0124269909638,0.001,-53.4360611445,4300.0,0.0,0.0,0.0
1513264680705357102,,460342,,1513264678,935675230,'',1.25663706144,1.2690640524,-0.0175517986722,0.0124269909638,0.001,-53.4360611445,4300.0,0.0,0.0,0.0
1513264680715629235,,460343,,1513264678,945675230,'',1.25663706144,1.2690640524,-0.0169352928527,0.0124269909638,0.001,-53.4360611445,4300.0,0.0,0.0,0.0
1513264680725208270,,460344,,1513264678,955675230,'',1.25663706144,1.27045168166,0.010605228776,0.0138146202278,0.001,-59.4028669795,4300.0,0.0,0.0,0.0
1513264680735347345,,460345,,1513264678,965675230,'',1.25663706144,1.2690640524,-0.0172771639887,0.0124269909638,0.001,-53.4360611445,4300.0,0.0,0.0,0.0
1513264680745351271,,460346,,1513264678,975675230,'',1.25663706144,1.2690640524,-0.0186564398198,0.0124269909638,0.001,-53.4360611445,4300.0,0.0,0.0,0.0
1513264680755697628,,460347,,1513264678,985675230,'',1.25663706144,1.27045168166,0.00863921352996,0.0138146202278,0.001,-59.4028669795,4300.0,0.0,0.0,0.0
1513264680765119990,,460348,,1513264678,995675230,'',1.25663706144,1.2690640524,-0.0179047750688,0.0124269909638,0.001,-53.4360611445,4300.0,0.0,0.0,0.0
1513264680775294728,,460349,,1513264679,5675230,'',1.25663706144,1.27045168166,0.0102859493635,0.0138146202278,0.001,-59.4028669795,4300.0,0.0,0.0,0.0
1513264680785141527,,460350,,1513264679,15675230,'',1.25663706144,1.27045168166,0.0115355588614,0.0138146202278,0.001,-59.4028669795,4300.0,0.0,0.0,0.0
1513264680795026534,,460351,,1513264679,25675230,'',1.25663706144,1.2690640524,-0.0149642113812,0.0124269909638,0.001,-53.4360611445,4300.0,0.0,0.0,0.0
1513264680805446344,,460352,,1513264679,35675230,'',1.25663706144,1.27045168166,0.0127068861971,0.0138146202278,0.001,-59.4028669795,4300.0,0.0,0.0,0.0
1513264680815341370,,460353,,1513264679,45675230,'',1.25663706144,1.26767642314,-0.0425004026619,0.0110393616999,0.001,-47.4692553095,4300.0,0.0,0.0,0.0
1513264680825297034,,460354,,1513264679,55675230,'',1.25663706144,1.2690640524,-0.0142950078709,0.0124269909638,0.001,-53.4360611445,4300.0,0.0,0.0,0.0
1513264680835230455,,460355,,1513264679,65675230,'',1.25663706144,1.27045168166,0.0138241025417,0.0138146202278,0.001,-59.4028669795,4300.0,0.0,0.0,0.0
1513264680845177262,,460356,,1513264679,75675230,'',1.25663706144,1.27045168166,0.0137826728732,0.0138146202278,0.001,-59.4028669795,4300.0,0.0,0.0,0.0
1513264680854963231,,460357,,1513264679,85675230,'',1.25663706144,1.27045168166,0.0127535935162,0.0138146202278,0.001,-59.4028669795,4300.0,0.0,0.0,0.0
1513264680865201023,,460358,,1513264679,95675230,'',1.25663706144,1.2690640524,-0.0145012074261,0.0124269909638,0.001,-53.4360611445,4300.0,0.0,0.0,0.0
1513264680875027772,,460359,,1513264679,105675230,'',1.25663706144,1.2690640524,-0.0143222525038,0.0124269909638,0.001,-53.4360611445,4300.0,0.0,0.0,0.0
1513264680885273826,,460360,,1513264679,115675230,'',1.25663706144,1.2690640524,-0.0136795817427,0.0124269909638,0.001,-53.4360611445,4300.0,0.0,0.0,0.0
1513264680895259090,,460361,,1513264679,125675230,'',1.25663706144,1.2690640524,-0.0136624770909,0.0124269909638,0.001,-53.4360611445,4300.0,0.0,0.0,0.0
1513264680905132324,,460362,,1513264679,135675230,'',1.25663706144,1.2690640524,-0.0137169169468,0.0124269909638,0.001,-53.4360611445,4300.0,0.0,0.0,0.0
1513264680915130156,,460363,,1513264679,145675230,'',1.25663706144,1.2690640524,-0.0132504741413,0.0124269909638,0.001,-53.4360611445,4300.0,0.0,0.0,0.0
1513264680924981711,,460364,,1513264679,155675230,'',1.25663706144,1.27045168166,0.0146155846614,0.0138146202278,0.001,-59.4028669795,4300.0,0.0,0.0,0.0
1513264680935105390,,460365,,1513264679,165675230,'',1.25663706144,1.27045168166,0.0134530300008,0.0138146202278,0.001,-59.4028669795,4300.0,0.0,0.0,0.0
1513264680945393034,,460366,,1513264679,175675230,'',1.25663706144,1.27045168166,0.0120022564131,0.0138146202278,0.001,-59.4028669795,4300.0,0.0,0.0,0.0
1513264680955337108,,460367,,1513264679,185675230,'',1.25663706144,1.27183931093,0.0387941748759,0.0152022494918,0.001,-65.3696728145,4300.0,0.0,0.0,0.0
1513264680965187283,,460368,,1513264679,195675230,'',1.25663706144,1.27045168166,0.0113354599876,0.0138146202278,0.001,-59.4028669795,4300.0,0.0,0.0,0.0
1513264680975425888,,460369,,1513264679,205675230,'',1.25663706144,1.27045168166,0.0108358285869,0.0138146202278,0.001,-59.4028669795,4300.0,0.0,0.0,0.0
1513264680985200859,,460370,,1513264679,215675230,'',1.25663706144,1.26767642314,-0.0445339976797,0.0110393616999,0.001,-47.4692553095,4300.0,0.0,0.0,0.0
1513264680995205511,,460371,,1513264679,225675230,'',1.25663706144,1.2690640524,-0.0160116243572,0.0124269909638,0.001,-53.4360611445,4300.0,0.0,0.0,0.0
1513264681005053682,,460372,,1513264679,235675230,'',1.25663706144,1.2690640524,-0.0161220680909,0.0124269909638,0.001,-53.4360611445,4300.0,0.0,0.0,0.0
1513264681014974396,,460373,,1513264679,245675230,'',1.25663706144,1.27183931093,0.0381999002622,0.0152022494918,0.001,-65.3696728145,4300.0,0.0,0.0,0.0
1513264681024895311,,460374,,1513264679,255675230,'',1.25663706144,1.27045168166,0.00934611048963,0.0138146202278,0.001,-59.4028669795,4300.0,0.0,0.0,0.0
1513264681035218811,,460375,,1513264679,265675230,'',1.25663706144,1.27045168166,0.00874394398425,0.0138146202278,0.001,-59.4028669795,4300.0,0.0,0.0,0.0
1513264681045266785,,460376,,1513264679,275675230,'',1.25663706144,1.27045168166,0.0102688368679,0.0138146202278,0.001,-59.4028669795,4300.0,0.0,0.0,0.0
1513264681055157785,,460377,,1513264679,285675230,'',1.25663706144,1.2690640524,-0.0165635534353,0.0124269909638,0.001,-53.4360611445,4300.0,0.0,0.0,0.0
1513264681065185216,,460378,,1513264679,295675230,'',1.25663706144,1.27045168166,0.0113643582367,0.0138146202278,0.001,-59.4028669795,4300.0,0.0,0.0,0.0
1513264681074835389,,460379,,1513264679,305675230,'',1.25663706144,1.26767642314,-0.0441074532718,0.0110393616999,0.001,-47.4692553095,4300.0,0.0,0.0,0.0
1513264681084998708,,460380,,1513264679,315675230,'',1.25663706144,1.27045168166,0.0103260253688,0.0138146202278,0.001,-59.4028669795,4300.0,0.0,0.0,0.0
1513264681094799409,,460381,,1513264679,325675230,'',1.25663706144,1.2690640524,-0.0155343339005,0.0124269909638,0.001,-53.4360611445,4300.0,0.0,0.0,0.0
1513264681104790153,,460382,,1513264679,335675230,'',1.25663706144,1.2690640524,-0.015756796476,0.0124269909638,0.001,-53.4360611445,4300.0,0.0,0.0,0.0
1513264681115220237,,460383,,1513264679,345675230,'',1.25663706144,1.27045168166,0.0100825092861,0.0138146202278,0.001,-59.4028669795,4300.0,0.0,0.0,0.0
1513264681125320182,,460384,,1513264679,355675230,'',1.25663706144,1.2690640524,-0.0161340250528,0.0124269909638,0.001,-53.4360611445,4300.0,0.0,0.0,0.0
1513264681135294510,,460385,,1513264679,365675230,'',1.25663706144,1.2690640524,-0.0156834727907,0.0124269909638,0.001,-53.4360611445,4300.0,0.0,0.0,0.0
1513264681145191770,,460386,,1513264679,375675230,'',1.25663706144,1.27183931093,0.0400923830069,0.0152022494918,0.001,-65.3696728145,4300.0,0.0,0.0,0.0
1513264681154981247,,460387,,1513264679,385675230,'',1.25663706144,1.27045168166,0.0128575735851,0.0138146202278,0.001,-59.4028669795,4300.0,0.0,0.0,0.0
1513264681164903809,,460388,,1513264679,395675230,'',1.25663706144,1.2690640524,-0.0154596104054,0.0124269909638,0.001,-53.4360611445,4300.0,0.0,0.0,0.0
1513264681175263183,,460389,,1513264679,405675230,'',1.25663706144,1.2690640524,-0.0156938343514,0.0124269909638,0.001,-53.4360611445,4300.0,0.0,0.0,0.0
1513264681185220664,,460390,,1513264679,415675230,'',1.25663706144,1.27045168166,0.0126345581079,0.0138146202278,0.001,-59.4028669795,4300.0,0.0,0.0,0.0
1513264681195243079,,460391,,1513264679,425675230,'',1.25663706144,1.2690640524,-0.0161967785883,0.0124269909638,0.001,-53.4360611445,4300.0,0.0,0.0,0.0
1513264681205169254,,460392,,1513264679,435675230,'',1.25663706144,1.27045168166,0.011191303944,0.0138146202278,0.001,-59.4028669795,4300.0,0.0,0.0,0.0
1513264681215067203,,460393,,1513264679,445675230,'',1.25663706144,1.2690640524,-0.0163376813587,0.0124269909638,0.001,-53.4360611445,4300.0,0.0,0.0,0.0
1513264681225052135,,460394,,1513264679,455675230,'',1.25663706144,1.2690640524,-0.016831223995,0.0124269909638,0.001,-53.4360611445,4300.0,0.0,0.0,0.0
1513264681234981802,,460395,,1513264679,465675230,'',1.25663706144,1.27045168166,0.0107088362736,0.0138146202278,0.001,-59.4028669795,4300.0,0.0,0.0,0.0
1513264681244900055,,460396,,1513264679,475675230,'',1.25663706144,1.2690640524,-0.0181734605277,0.0124269909638,0.001,-53.4360611445,4300.0,0.0,0.0,0.0
1513264681255054685,,460397,,1513264679,485675230,'',1.25663706144,1.27045168166,0.0100054369254,0.0138146202278,0.001,-59.4028669795,4300.0,0.0,0.0,0.0
1513264681264980369,,460398,,1513264679,495675230,'',1.25663706144,1.27045168166,0.00969159432324,0.0138146202278,0.001,-59.4028669795,4300.0,0.0,0.0,0.0
1513264681274932295,,460399,,1513264679,505675230,'',1.25663706144,1.2690640524,-0.0186106344434,0.0124269909638,0.001,-53.4360611445,4300.0,0.0,0.0,0.0
1513264681285143689,,460400,,1513264679,515675230,'',1.25663706144,1.2690640524,-0.0172108057509,0.0124269909638,0.001,-53.4360611445,4300.0,0.0,0.0,0.0
1513264681295163648,,460401,,1513264679,525675230,'',1.25663706144,1.27045168166,0.0113236363568,0.0138146202278,0.001,-59.4028669795,4300.0,0.0,0.0,0.0
1513264681305066212,,460402,,1513264679,535675230,'',1.25663706144,1.27045168166,0.00987522358427,0.0138146202278,0.001,-59.4028669795,4300.0,0.0,0.0,0.0
1513264681315109759,,460403,,1513264679,545675230,'',1.25663706144,1.2690640524,-0.0178608333676,0.0124269909638,0.001,-53.4360611445,4300.0,0.0,0.0,0.0
1513264681324931015,,460404,,1513264679,555675230,'',1.25663706144,1.27045168166,0.0108390806071,0.0138146202278,0.001,-59.4028669795,4300.0,0.0,0.0,0.0
1513264681335039558,,460405,,1513264679,565675230,'',1.25663706144,1.2690640524,-0.0175791350578,0.0124269909638,0.001,-53.4360611445,4300.0,0.0,0.0,0.0
1513264681344993003,,460406,,1513264679,575675230,'',1.25663706144,1.27045168166,0.0105883016743,0.0138146202278,0.001,-59.4028669795,4300.0,0.0,0.0,0.0
1513264681354871478,,460407,,1513264679,585675230,'',1.25663706144,1.27045168166,0.00966662121442,0.0138146202278,0.001,-59.4028669795,4300.0,0.0,0.0,0.0
1513264681364960056,,460408,,1513264679,595675230,'',1.25663706144,1.27045168166,0.0124412799726,0.0138146202278,0.001,-59.4028669795,4300.0,0.0,0.0,0.0
1513264681374927179,,460409,,1513264679,605675230,'',1.25663706144,1.27045168166,0.012258986915,0.0138146202278,0.001,-59.4028669795,4300.0,0.0,0.0,0.0
1513264681384857623,,460410,,1513264679,615675230,'',1.25663706144,1.2690640524,-0.0134226487491,0.0124269909638,0.001,-53.4360611445,4300.0,0.0,0.0,0.0
1513264681394834382,,460411,,1513264679,625675230,'',1.25663706144,1.2690640524,-0.0129394313059,0.0124269909638,0.001,-53.4360611445,4300.0,0.0,0.0,0.0
1513264681405298095,,460412,,1513264679,635675230,'',1.25663706144,1.27045168166,0.0148945031191,0.0138146202278,0.001,-59.4028669795,4300.0,0.0,0.0,0.0
1513264681415280248,,460413,,1513264679,645675230,'',1.25663706144,1.2690640524,-0.0127295865924,0.0124269909638,0.001,-53.4360611445,4300.0,0.0,0.0,0.0
1513264681425237886,,460414,,1513264679,655675230,'',1.25663706144,1.27045168166,0.0141165215939,0.0138146202278,0.001,-59.4028669795,4300.0,0.0,0.0,0.0
1513264681435155790,,460415,,1513264679,665675230,'',1.25663706144,1.27045168166,0.0140305615306,0.0138146202278,0.001,-59.4028669795,4300.0,0.0,0.0,0.0
1513264681445013825,,460416,,1513264679,675675230,'',1.25663706144,1.27045168166,0.0145349808128,0.0138146202278,0.001,-59.4028669795,4300.0,0.0,0.0,0.0
1513264681455034462,,460417,,1513264679,685675230,'',1.25663706144,1.2690640524,-0.0150598501528,0.0124269909638,0.001,-53.4360611445,4300.0,0.0,0.0,0.0
1513264681464837865,,460418,,1513264679,695675230,'',1.25663706144,1.2690640524,-0.0158885912515,0.0124269909638,0.001,-53.4360611445,4300.0,0.0,0.0,0.0
1513264681475243299,,460419,,1513264679,705675230,'',1.25663706144,1.27045168166,0.01190970343,0.0138146202278,0.001,-59.4028669795,4300.0,0.0,0.0,0.0
1513264681485203007,,460420,,1513264679,715675230,'',1.25663706144,1.2690640524,-0.016750297206,0.0124269909638,0.001,-53.4360611445,4300.0,0.0,0.0,0.0
1513264681495085549,,460421,,1513264679,725675230,'',1.25663706144,1.2690640524,-0.0162391581726,0.0124269909638,0.001,-53.4360611445,4300.0,0.0,0.0,0.0
1513264681505158110,,460422,,1513264679,735675230,'',1.25663706144,1.2690640524,-0.0158290926063,0.0124269909638,0.001,-53.4360611445,4300.0,0.0,0.0,0.0
1513264681515258692,,460423,,1513264679,745675230,'',1.25663706144,1.2690640524,-0.0164661191053,0.0124269909638,0.001,-53.4360611445,4300.0,0.0,0.0,0.0
1513264681524963044,,460424,,1513264679,755675230,'',1.25663706144,1.2690640524,-0.0159611739414,0.0124269909638,0.001,-53.4360611445,4300.0,0.0,0.0,0.0
1513264681534859743,,460425,,1513264679,765675230,'',1.25663706144,1.27045168166,0.0123255337201,0.0138146202278,0.001,-59.4028669795,4300.0,0.0,0.0,0.0
1513264681545309113,,460426,,1513264679,775675230,'',1.25663706144,1.27045168166,0.0121009360703,0.0138146202278,0.001,-59.4028669795,4300.0,0.0,0.0,0.0
1513264681555339001,,460427,,1513264679,785675230,'',1.25663706144,1.27045168166,0.0144008229398,0.0138146202278,0.001,-59.4028669795,4300.0,0.0,0.0,0.0
1513264681565235399,,460428,,1513264679,795675230,'',1.25663706144,1.2690640524,-0.0131374458055,0.0124269909638,0.001,-53.4360611445,4300.0,0.0,0.0,0.0
1513264681575093308,,460429,,1513264679,805675230,'',1.25663706144,1.27045168166,0.0147305046536,0.0138146202278,0.001,-59.4028669795,4300.0,0.0,0.0,0.0
1513264681585134533,,460430,,1513264679,815675230,'',1.25663706144,1.27045168166,0.0134912028667,0.0138146202278,0.001,-59.4028669795,4300.0,0.0,0.0,0.0
