rosbagTimestamp,header,seq,stamp,secs,nsecs,frame_id,set_point,process_value,process_value_dot,error,time_step,command,p,i,d,i_clamp
1513266480952232590,,640348,,1513266479,147770185,'',0.506145483078,0.512198788041,-0.000860826305984,0.00605330496298,0.001,-43.2324277362,7200.0,0.0,410.0,0.0
1513266480962184612,,640349,,1513266479,157770185,'',0.506145483078,0.512191131963,-0.000704996860765,0.00604564888459,0.001,-43.2464357771,7200.0,0.0,410.0,0.0
1513266480972000354,,640350,,1513266479,167770185,'',0.506145483078,0.512184849776,-0.000577131166738,0.00603936669719,0.001,-43.2530717947,7200.0,0.0,410.0,0.0
1513266480982455364,,640351,,1513266479,177770185,'',0.506145483078,0.512203390042,-0.00094662571811,0.00605790696343,0.001,-43.2257390661,7200.0,0.0,410.0,0.0
1513266480992443182,,640352,,1513266479,187770185,'',0.506145483078,0.512194886247,-0.000774968913885,0.00604940316864,0.001,-43.236137794,7200.0,0.0,410.0,0.0
1513266481002558742,,640353,,1513266479,197770185,'',0.506145483078,0.512210623885,-0.00109765285766,0.00606514080649,0.001,-43.2175875647,7200.0,0.0,410.0,0.0
1513266481012235268,,640354,,1513266479,207770185,'',0.506145483078,0.512200826091,-0.000898969482558,0.00605534301258,0.001,-43.2328224142,7200.0,0.0,410.0,0.0
1513266481022208054,,640355,,1513266479,217770185,'',0.506145483078,0.512215915537,-0.0012107470833,0.00607043245888,0.001,-43.2135711768,7200.0,0.0,410.0,0.0
1513266481032068710,,640356,,1513266479,227770185,'',0.506145483078,0.512205140426,-0.000991195711446,0.00605965734768,0.001,-43.226263365,7200.0,0.0,410.0,0.0
1513266481042439049,,640357,,1513266479,237770185,'',0.506145483078,0.512196314477,-0.000811360059832,0.00605083139899,0.001,-43.2338972576,7200.0,0.0,410.0,0.0
1513266481052603874,,640358,,1513266479,247770185,'',0.506145483078,0.512213660361,-0.00116707936186,0.00606817728272,0.001,-43.2250713941,7200.0,0.0,410.0,0.0
1513266481062574903,,640359,,1513266479,257770185,'',0.506145483078,0.512203293301,-0.000955428272573,0.0060578102223,0.001,-43.2270630923,7200.0,0.0,410.0,0.0
1513266481072401276,,640360,,1513266479,267770185,'',0.506145483078,0.512194804126,-0.000782115580181,0.00604932104721,0.001,-43.2359244145,7200.0,0.0,410.0,0.0
1513266481082240337,,640361,,1513266479,277770185,'',0.506145483078,0.512187869228,-0.000640534594436,0.0060423861496,0.001,-43.2566595276,7200.0,0.0,410.0,0.0
1513266481092315584,,640362,,1513266479,287770185,'',0.506145483078,0.512182178805,-0.000524360459452,0.00603669572636,0.001,-43.2516995421,7200.0,0.0,410.0,0.0
1513266481102913448,,640363,,1513266479,297770185,'',0.506145483078,0.512177504622,-0.000428933613943,0.00603202154359,0.001,-43.2498864333,7200.0,0.0,410.0,0.0
1513266481112303328,,640364,,1513266479,307770185,'',0.506145483078,0.512173714056,-0.000351546453216,0.00602823097784,0.001,-43.2630910544,7200.0,0.0,410.0,0.0
1513266481122252016,,640365,,1513266479,317770185,'',0.506145483078,0.51217058962,-0.000287758822731,0.00602510654214,0.001,-43.2626276658,7200.0,0.0,410.0,0.0
1513266481132216599,,640366,,1513266479,327770185,'',0.506145483078,0.512168028369,-0.000235469008859,0.00602254529069,0.001,-43.2649639066,7200.0,0.0,410.0,0.0
1513266481142580001,,640367,,1513266479,337770185,'',0.506145483078,0.512165941448,-0.000192862990787,0.0060204583694,0.001,-43.2686668291,7200.0,0.0,410.0,0.0
1513266481152596319,,640368,,1513266479,347770185,'',0.506145483078,0.512164231509,-0.000157953347292,0.00601874843072,0.001,-43.2718691841,7200.0,0.0,410.0,0.0
1513266481162540730,,640369,,1513266479,357770185,'',0.506145483078,0.51214004626,0.000336045656862,0.00599456318179,0.001,-43.2976373801,7200.0,0.0,410.0,0.0
1513266481172341456,,640370,,1513266479,367770185,'',0.506145483078,0.512166262647,-0.000199238014405,0.00602077956863,0.001,-43.2707406833,7200.0,0.0,410.0,0.0
1513266481182490501,,640371,,1513266479,377770185,'',0.506145483078,0.51216449106,-0.000163102876638,0.00601900798178,0.001,-43.2702330153,7200.0,0.0,410.0,0.0
1513266481192497665,,640372,,1513266479,387770185,'',0.506145483078,0.512163042872,-0.000133564113308,0.00601755979345,0.001,-43.2735696366,7200.0,0.0,410.0,0.0
1513266481202399508,,640373,,1513266479,397770185,'',0.506145483078,0.512189177378,0.0270779906222,0.00604369430011,0.001,-54.6717858126,7200.0,0.0,410.0,0.0
1513266481212396088,,640374,,1513266479,407770185,'',0.506145483078,0.512183248675,-0.000542760512377,0.00603776559624,0.001,-43.2507639793,7200.0,0.0,410.0,0.0
1513266481222462949,,640375,,1513266479,417770185,'',0.506145483078,0.51215320771,6.47877135407e-05,0.0060077246313,0.001,-43.2829511606,7200.0,0.0,410.0,0.0
1513266481232358938,,640376,,1513266479,427770185,'',0.506145483078,0.512153804072,5.30330816888e-05,0.00600832099324,0.001,-43.2823071771,7200.0,0.0,410.0,0.0
1513266481242359839,,640377,,1513266479,437770185,'',0.506145483078,0.512154292066,4.34144405658e-05,0.00600880898738,0.001,-43.2817411805,7200.0,0.0,410.0,0.0
1513266481252310018,,640378,,1513266479,447770185,'',0.506145483078,0.512154692549,3.55206849931e-05,0.00600920947083,0.001,-43.2820495551,7200.0,0.0,410.0,0.0
1513266481262191723,,640379,,1513266479,457770185,'',0.506145483078,0.512155019364,2.9078970816e-05,0.0060095362861,0.001,-43.2812386901,7200.0,0.0,410.0,0.0
1513266481272141394,,640380,,1513266479,467770185,'',0.506145483078,0.512155286335,2.38168224264e-05,0.00600980325703,0.001,-43.2808848613,7200.0,0.0,410.0,0.0
1513266481282108945,,640381,,1513266479,477770185,'',0.506145483078,0.512155504514,1.95164055982e-05,0.00601002143527,0.001,-43.2802145023,7200.0,0.0,410.0,0.0
1513266481292580094,,640382,,1513266479,487770185,'',0.506145483078,0.512155684129,1.59760942197e-05,0.00601020105017,0.001,-43.2801943126,7200.0,0.0,410.0,0.0
1513266481302617911,,640383,,1513266479,497770185,'',0.506145483078,0.51215437121,4.7922351637e-05,0.00600888813156,0.001,-43.281618983,7200.0,0.0,410.0,0.0
1513266481312481142,,640384,,1513266479,507770185,'',0.506145483078,0.5121547563,3.92315819629e-05,0.00600927322205,0.001,-43.281181555,7200.0,0.0,410.0,0.0
1513266481322433764,,640385,,1513266479,517770185,'',0.506145483078,0.512155071011,3.21291466144e-05,0.00600958793299,0.001,-43.2806335029,7200.0,0.0,410.0,0.0
1513266481332476747,,640386,,1513266479,527770185,'',0.506145483078,0.512155329214,2.63019898707e-05,0.00600984613597,0.001,-43.2805931759,7200.0,0.0,410.0,0.0
1513266481342291435,,640387,,1513266479,537770185,'',0.506145483078,0.512155540551,2.15325066002e-05,0.00601005747314,0.001,-43.2803480561,7200.0,0.0,410.0,0.0
1513266481352271716,,640388,,1513266479,547770185,'',0.506145483078,0.512155713659,1.76257984591e-05,0.00601023058049,0.001,-43.2800053739,7200.0,0.0,410.0,0.0
1513266481362236365,,640389,,1513266479,557770185,'',0.506145483078,0.512155855334,1.44284466453e-05,0.00601037225607,0.001,-43.2801422243,7200.0,0.0,410.0,0.0
1513266481372177345,,640390,,1513266479,567770185,'',0.506145483078,0.512132264862,0.000486458149827,0.0059867817835,0.001,-43.3051120643,7200.0,0.0,410.0,0.0
1513266481382189423,,640391,,1513266479,577770185,'',0.506145483078,0.512136659719,0.000398223253277,0.00599117664049,0.001,-43.3014162564,7200.0,0.0,410.0,0.0
1513266481392225629,,640392,,1513266479,587770185,'',0.506145483078,0.512140250302,0.000326135646056,0.00599476722355,0.001,-43.2876312206,7200.0,0.0,410.0,0.0
1513266481402410088,,640393,,1513266479,597770185,'',0.506145483078,0.512143196805,0.000266979140423,0.00599771372649,0.001,-43.288898861,7200.0,0.0,410.0,0.0
1513266481412480034,,640394,,1513266479,607770185,'',0.506145483078,0.512170743526,-0.000306917593468,0.00602526044724,0.001,-43.2662253211,7200.0,0.0,410.0,0.0
1513266481422482293,,640395,,1513266479,617770185,'',0.506145483078,0.512168150861,-0.00025107212456,0.00602266778254,0.001,-43.2650909099,7200.0,0.0,410.0,0.0
1513266481432471828,,640396,,1513266479,627770185,'',0.506145483078,0.512166038135,-0.000205564430231,0.0060205550562,0.001,-43.2661588389,7200.0,0.0,410.0,0.0
1513266481442448846,,640397,,1513266479,637770185,'',0.506145483078,0.512142047402,0.000281074938332,0.00599656432407,0.001,-43.2935891581,7200.0,0.0,410.0,0.0
1513266481452500314,,640398,,1513266479,647770185,'',0.506145483078,0.512120863588,0.000714614712871,0.00597538050962,0.001,-43.3119368042,7200.0,0.0,410.0,0.0
1513266481462418526,,640399,,1513266479,657770185,'',0.506145483078,0.512127324765,0.000585029729581,0.00598184168678,0.001,-43.3115999391,7200.0,0.0,410.0,0.0
1513266481472327640,,640400,,1513266479,667770185,'',0.506145483078,0.51213260519,0.00047912583519,0.00598712211208,0.001,-43.3025577888,7200.0,0.0,410.0,0.0
1513266481482292405,,640401,,1513266479,677770185,'',0.506145483078,0.512163187299,-0.000142645893418,0.00601770422104,0.001,-43.2719222187,7200.0,0.0,410.0,0.0
1513266481492190785,,640402,,1513266479,687770185,'',0.506145483078,0.512161973478,-0.000116774680909,0.00601649039978,0.001,-43.2730387211,7200.0,0.0,410.0,0.0
1513266481502244736,,640403,,1513266479,697770185,'',0.506145483078,0.512134228006,0.000445433128148,0.00598874492748,0.001,-43.3045294297,7200.0,0.0,410.0,0.0
1513266481512250097,,640404,,1513266479,707770185,'',0.506145483078,0.512113622532,0.000868518887794,0.005968139454,0.001,-43.3271223292,7200.0,0.0,410.0,0.0
1513266481522136891,,640405,,1513266479,717770185,'',0.506145483078,0.512121398778,0.000710984937047,0.00597591569954,0.001,-43.3187252198,7200.0,0.0,410.0,0.0
1513266481532108167,,640406,,1513266479,727770185,'',0.506145483078,0.512127750299,0.000582313560018,0.00598226722069,0.001,-43.3116445267,7200.0,0.0,410.0,0.0
1513266481542123646,,640407,,1513266479,737770185,'',0.506145483078,0.512159221005,-5.32502648982e-05,0.00601373792705,0.001,-43.2766761898,7200.0,0.0,410.0,0.0
1513266481552515256,,640408,,1513266479,747770185,'',0.506145483078,0.512158726751,-4.3596598491e-05,0.00601324367223,0.001,-43.2767704701,7200.0,0.0,410.0,0.0
1513266481562471491,,640409,,1513266479,757770185,'',0.506145483078,0.512158322003,-3.56911597054e-05,0.00601283892434,0.001,-43.2772152101,7200.0,0.0,410.0,0.0
1513266481572491495,,640410,,1513266479,767770185,'',0.506145483078,0.512157990613,-2.9218529757e-05,0.00601250753433,0.001,-43.2776141523,7200.0,0.0,410.0,0.0
1513266481582350661,,640411,,1513266479,777770185,'',0.506145483078,0.512157719905,-2.39311266959e-05,0.00601223682636,0.001,-43.2778942259,7200.0,0.0,410.0,0.0
1513266481592441785,,640412,,1513266479,787770185,'',0.506145483078,0.512157497706,-1.95911912993e-05,0.00601201462747,0.001,-43.2781541592,7200.0,0.0,410.0,0.0
1513266481602296764,,640413,,1513266479,797770185,'',0.506145483078,0.512157315838,-1.60389961284e-05,0.00601183275983,0.001,-43.2783671003,7200.0,0.0,410.0,0.0
1513266481612236309,,640414,,1513266479,807770185,'',0.506145483078,0.512157166888,-1.31297435634e-05,0.00601168380999,0.001,-43.278521238,7200.0,0.0,410.0,0.0
1513266481622293419,,640415,,1513266479,817770185,'',0.506145483078,0.51215704519,-1.0752751606e-05,0.00601156211117,0.001,-43.2787470578,7200.0,0.0,410.0,0.0
1513266481632150784,,640416,,1513266479,827770185,'',0.506145483078,0.512156945351,-8.80272861303e-06,0.0060114622726,0.001,-43.278776913,7200.0,0.0,410.0,0.0
1513266481642098335,,640417,,1513266479,837770185,'',0.506145483078,0.512156863641,-7.20679110011e-06,0.00601138056274,0.001,-43.2788753649,7200.0,0.0,410.0,0.0
1513266481652232368,,640418,,1513266479,847770185,'',0.506145483078,0.512156796714,-5.89957864582e-06,0.00601131363521,0.001,-43.2789535959,7200.0,0.0,410.0,0.0
1513266481662405733,,640419,,1513266479,857770185,'',0.506145483078,0.512156742051,-4.8319181549e-06,0.00601125897242,0.001,-43.27900144,7200.0,0.0,410.0,0.0
1513266481672225004,,640420,,1513266479,867770185,'',0.506145483078,0.512156697187,-3.95564463464e-06,0.00601121410838,0.001,-43.2790574232,7200.0,0.0,410.0,0.0
1513266481682186308,,640421,,1513266479,877770185,'',0.506145483078,0.512156660455,-3.23820704778e-06,0.00601117737654,0.001,-43.2790954342,7200.0,0.0,410.0,0.0
1513266481692143542,,640422,,1513266479,887770185,'',0.506145483078,0.512156630394,-2.65106850874e-06,0.00601114731583,0.001,-43.2791308708,7200.0,0.0,410.0,0.0
1513266481702087124,,640423,,1513266479,897770185,'',0.506145483078,0.512156605781,-2.1703357975e-06,0.00601112270296,0.001,-43.2791576449,7200.0,0.0,410.0,0.0
1513266481712435359,,640424,,1513266479,907770185,'',0.506145483078,0.512156585672,-1.77755659625e-06,0.00601110259319,0.001,-43.2792183284,7200.0,0.0,410.0,0.0
1513266481722443024,,640425,,1513266479,917770185,'',0.506145483078,0.512156569169,-1.45522950317e-06,0.00601108609047,0.001,-43.2791996777,7200.0,0.0,410.0,0.0
1513266481732541482,,640426,,1513266479,927770185,'',0.506145483078,0.512156555659,-1.19136752407e-06,0.00601107258109,0.001,-43.2792286051,7200.0,0.0,410.0,0.0
1513266481742528284,,640427,,1513266479,937770185,'',0.506145483078,0.512156544597,-9.7529314819e-07,0.00601106151837,0.001,-43.2792264957,7200.0,0.0,410.0,0.0
1513266481752435323,,640428,,1513266479,947770185,'',0.506145483078,0.512156535544,-7.98468381092e-07,0.00601105246518,0.001,-43.2792412175,7200.0,0.0,410.0,0.0
1513266481762275372,,640429,,1513266479,957770185,'',0.506145483078,0.512156528145,-6.53955224766e-07,0.0060110450663,0.001,-43.2792516579,7200.0,0.0,410.0,0.0
1513266481772321735,,640430,,1513266479,967770185,'',0.506145483078,0.512156522073,-5.35359746008e-07,0.00601103899437,0.001,-43.2792581265,7200.0,0.0,410.0,0.0
1513266481782122880,,640431,,1513266479,977770185,'',0.506145483078,0.512156517101,-4.38261234955e-07,0.00601103402305,0.001,-43.2792589088,7200.0,0.0,410.0,0.0
1513266481792208730,,640432,,1513266479,987770185,'',0.506145483078,0.512156513033,-3.58797489304e-07,0.00601102995462,0.001,-43.2792652195,7200.0,0.0,410.0,0.0
1513266481802581575,,640433,,1513266479,997770185,'',0.506145483078,0.512156509701,-2.9372357886e-07,0.00601102662292,0.001,-43.2792661492,7200.0,0.0,410.0,0.0
1513266481812563573,,640434,,1513266480,7770185,'',0.506145483078,0.512156506975,-2.40465666854e-07,0.00601102389619,0.001,-43.2792695736,7200.0,0.0,410.0,0.0
1513266481822515543,,640435,,1513266480,17770185,'',0.506145483078,0.512156504746,-1.96947095827e-07,0.00601102166809,0.001,-43.2792738271,7200.0,0.0,410.0,0.0
1513266481832428065,,640436,,1513266480,27770185,'',0.506145483078,0.512156502918,-1.61234373643e-07,0.00601101983965,0.001,-43.2792741324,7200.0,0.0,410.0,0.0
1513266481842379736,,640437,,1513266480,37770185,'',0.506145483078,0.512156501421,-1.31988683244e-07,0.00601101834231,0.001,-43.2792756938,7200.0,0.0,410.0,0.0
1513266481852517622,,640438,,1513266480,47770185,'',0.506145483078,0.512156500195,-1.08057031714e-07,0.00601101711704,0.001,-43.2792772363,7200.0,0.0,410.0,0.0
1513266481862282835,,640439,,1513266480,57770185,'',0.506145483078,0.512156499194,-8.84979009607e-08,0.00601101611564,0.001,-43.2792790766,7200.0,0.0,410.0,0.0
1513266481872345840,,640440,,1513266480,67770185,'',0.506145483078,0.512156498372,-7.24514758138e-08,0.00601101529408,0.001,-43.2792793,7200.0,0.0,410.0,0.0
1513266481882232077,,640441,,1513266480,77770185,'',0.506145483078,0.512156497699,-5.93041219556e-08,0.00601101462096,0.001,-43.2792798216,7200.0,0.0,410.0,0.0
1513266481892178994,,640442,,1513266480,87770185,'',0.506145483078,0.512156497149,-4.85550439401e-08,0.00601101407062,0.001,-43.279280596,7200.0,0.0,410.0,0.0
1513266481902214559,,640443,,1513266480,97770185,'',0.506145483078,0.512156496698,-3.97518093925e-08,0.0060110136199,0.001,-43.2792811548,7200.0,0.0,410.0,0.0
1513266481912097349,,640444,,1513266480,107770185,'',0.506145483078,0.51215649633,-3.25572108574e-08,0.00601101325155,0.001,-43.2792818588,7200.0,0.0,410.0,0.0
1513266481922520285,,640445,,1513266480,117770185,'',0.506145483078,0.512157360347,-2.30628568337e-05,0.00601187726856,0.001,-43.2784624545,7200.0,0.0,410.0,0.0
1513266481932481022,,640446,,1513266480,127770185,'',0.506145483078,0.512157203337,-1.88799329663e-05,0.00601172025897,0.001,-43.2785223182,7200.0,0.0,410.0,0.0
1513266481942438025,,640447,,1513266480,137770185,'',0.506145483078,0.51213289798,0.000474021426214,0.00598741490124,0.001,-43.3058020714,7200.0,0.0,410.0,0.0
1513266481952406571,,640448,,1513266480,147770185,'',0.506145483078,0.512113433255,0.000867736053951,0.00596795017669,0.001,-43.3186603332,7200.0,0.0,410.0,0.0
1513266481962269923,,640449,,1513266480,157770185,'',0.506145483078,0.512121244,0.000710340708227,0.00597576092187,0.001,-43.3188991636,7200.0,0.0,410.0,0.0
1513266481972197399,,640450,,1513266480,167770185,'',0.506145483078,0.512127636746,0.000581519661796,0.00598215366723,0.001,-43.3114845522,7200.0,0.0,410.0,0.0
1513266481982182521,,640451,,1513266480,177770185,'',0.506145483078,0.512082875458,0.00147965129538,0.00593739237943,0.001,-43.3633405623,7200.0,0.0,410.0,0.0
1513266481992549081,,640452,,1513266480,187770185,'',0.506145483078,0.512096205972,0.00121172511737,0.00595072289341,0.001,-43.33801982,7200.0,0.0,410.0,0.0
1513266482002451847,,640453,,1513266480,197770185,'',0.506145483078,0.512107134448,0.000992076810047,0.00596165136951,0.001,-43.3352482082,7200.0,0.0,410.0,0.0
1513266482012351857,,640454,,1513266480,207770185,'',0.506145483078,0.512116085976,0.000812162620518,0.00597060289727,0.001,-43.3240510856,7200.0,0.0,410.0,0.0
1513266482022291766,,640455,,1513266480,217770185,'',0.506145483078,0.512073004023,0.00168335060656,0.00592752094491,0.001,-43.3744450504,7200.0,0.0,410.0,0.0
1513266482032302890,,640456,,1513266480,227770185,'',0.506145483078,0.512088143836,0.00137809946032,0.00594266075796,0.001,-43.3544620771,7200.0,0.0,410.0,0.0
1513266482042519838,,640457,,1513266480,237770185,'',0.506145483078,0.512100515847,0.00112865315306,0.0059550327687,0.001,-43.3314769615,7200.0,0.0,410.0,0.0
1513266482052567387,,640458,,1513266480,247770185,'',0.506145483078,0.512110666791,0.000923988321301,0.0059651837127,0.001,-43.3304204968,7200.0,0.0,410.0,0.0
1513266482062537755,,640459,,1513266480,257770185,'',0.506145483078,0.512118979871,0.00075637877038,0.00597349679292,0.001,-43.3201715735,7200.0,0.0,410.0,0.0
1513266482072508737,,640460,,1513266480,267770185,'',0.506145483078,0.512125773992,0.000619394714999,0.00598029091316,0.001,-43.3127665183,7200.0,0.0,410.0,0.0
1513266482082498422,,640461,,1513266480,277770185,'',0.506145483078,0.512106269378,0.00101546470936,0.00596078629985,0.001,-43.3340250083,7200.0,0.0,410.0,0.0
1513266482092451048,,640462,,1513266480,287770185,'',0.506145483078,0.512115377003,0.000831324955414,0.00596989392467,0.001,-43.325164601,7200.0,0.0,410.0,0.0
1513266482102241268,,640463,,1513266480,297770185,'',0.506145483078,0.512122839191,0.000680452959356,0.00597735611307,0.001,-43.3182477531,7200.0,0.0,410.0,0.0
1513266482112385263,,640464,,1513266480,307770185,'',0.506145483078,0.512128926614,0.000557376242615,0.00598344353599,0.001,-43.3047124943,7200.0,0.0,410.0,0.0
1513266482122202266,,640465,,1513266480,317770185,'',0.506145483078,0.512133925679,0.000456304168692,0.00598844260061,0.001,-43.3048271892,7200.0,0.0,410.0,0.0
1513266482132580967,,640466,,1513266480,327770185,'',0.506145483078,0.512138017884,0.000373567170327,0.00599253480516,0.001,-43.2996059094,7200.0,0.0,410.0,0.0
1513266482142304332,,640467,,1513266480,337770185,'',0.506145483078,0.512141369533,0.000305802866153,0.00599588645436,0.001,-43.2966737135,7200.0,0.0,410.0,0.0
1513266482152074240,,640468,,1513266480,347770185,'',0.506145483078,0.512144117686,0.000250240162645,0.00599863460758,0.001,-43.292156209,7200.0,0.0,410.0,0.0
1513266482162569686,,640469,,1513266480,357770185,'',0.506145483078,0.512196090896,-0.000820209054083,0.00605060781759,0.001,-43.2261725305,7200.0,0.0,410.0,0.0
1513266482172854865,,640470,,1513266480,367770185,'',0.506145483078,0.512215053904,-0.00120012039816,0.00606957082536,0.001,-43.1943085268,7200.0,0.0,410.0,0.0
1513266482182305611,,640471,,1513266480,377770185,'',0.506145483078,0.512204486957,-0.00098356007052,0.0060590038786,0.001,-43.2345363345,7200.0,0.0,410.0,0.0
1513266482192241270,,640472,,1513266480,387770185,'',0.506145483078,0.512195784253,-0.000805205758739,0.0060503011742,0.001,-43.24821148,7200.0,0.0,410.0,0.0
1513266482202205912,,640473,,1513266480,397770185,'',0.506145483078,0.512165468898,-0.000194939652514,0.00601998581968,0.001,-43.2672461657,7200.0,0.0,410.0,0.0
1513266482212206225,,640474,,1513266480,407770185,'',0.506145483078,0.512163848315,-0.000159737119913,0.00601836523712,0.001,-43.2723683603,7200.0,0.0,410.0,0.0
1513266482222077807,,640475,,1513266480,417770185,'',0.506145483078,0.512188740108,-0.000665673777542,0.00604325702974,0.001,-43.2435595657,7200.0,0.0,410.0,0.0
1513266482232231788,,640476,,1513266480,427770185,'',0.506145483078,0.512182892362,-0.000544953126717,0.00603740928382,0.001,-43.2555654197,7200.0,0.0,410.0,0.0
1513266482242661181,,640477,,1513266480,437770185,'',0.506145483078,0.512178103875,-0.000446099768145,0.00603262079635,0.001,-43.2549983282,7200.0,0.0,410.0,0.0
1513266482252495784,,640478,,1513266480,447770185,'',0.506145483078,0.512149979252,0.000124338583352,0.00600449617339,0.001,-43.2864496717,7200.0,0.0,410.0,0.0
1513266482262532503,,640479,,1513266480,457770185,'',0.506145483078,0.512178648661,-0.000433237812931,0.00603316558243,0.001,-43.2634408302,7200.0,0.0,410.0,0.0
1513266482272542936,,640480,,1513266480,467770185,'',0.506145483078,0.512174631356,-0.000354676437496,0.00602914827719,0.001,-43.2598052378,7200.0,0.0,410.0,0.0
1513266482282454787,,640481,,1513266480,477770185,'',0.506145483078,0.512171342601,-0.000290362409283,0.00602585952262,0.001,-43.2625968508,7200.0,0.0,410.0,0.0
1513266482292498233,,640482,,1513266480,487770185,'',0.506145483078,0.512168649158,-0.000237690141519,0.00602316607974,0.001,-43.2652116436,7200.0,0.0,410.0,0.0
1513266482302338345,,640483,,1513266480,497770185,'',0.506145483078,0.512166445544,-0.000194596842841,0.0060209624659,0.001,-43.2679415132,7200.0,0.0,410.0,0.0
1513266482312182172,,640484,,1513266480,507770185,'',0.506145483078,0.512164641407,-0.000159315613318,0.0060191583291,0.001,-43.2705990854,7200.0,0.0,410.0,0.0
1513266482322597419,,640485,,1513266480,517770185,'',0.506145483078,0.512163167072,-0.000130483895642,0.00601768399378,0.001,-43.2729557558,7200.0,0.0,410.0,0.0
1513266482332526089,,640486,,1513266480,527770185,'',0.506145483078,0.512161957232,-0.000106824576702,0.00601647415364,0.001,-43.2731008248,7200.0,0.0,410.0,0.0
1513266482342088230,,640487,,1513266480,537770185,'',0.506145483078,0.512185663961,-0.000586631846686,0.00604018088236,0.001,-43.246734813,7200.0,0.0,410.0,0.0
1513266482352523916,,640488,,1513266480,547770185,'',0.506145483078,0.512180374988,-0.00048026385474,0.00603489191,0.001,-43.2532081077,7200.0,0.0,410.0,0.0
1513266482362437910,,640489,,1513266480,557770185,'',0.506145483078,0.512176044266,-0.000393167491524,0.00603056118748,0.001,-43.2572739824,7200.0,0.0,410.0,0.0
1513266482372312803,,640490,,1513266480,567770185,'',0.506145483078,0.512172504725,-0.000321982811057,0.00602702164706,0.001,-43.2606201383,7200.0,0.0,410.0,0.0
1513266482382359987,,640491,,1513266480,577770185,'',0.506145483078,0.512169594973,-0.000263463967974,0.00602411189444,0.001,-43.2614765038,7200.0,0.0,410.0,0.0
1513266482392350430,,640492,,1513266480,587770185,'',0.506145483078,0.51214358679,0.000257626757007,0.00599810371213,0.001,-43.2935836874,7200.0,0.0,410.0,0.0
1513266482402424677,,640493,,1513266480,597770185,'',0.506145483078,0.512120675998,0.000716889143682,0.00597519292006,0.001,-43.3201805498,7200.0,0.0,410.0,0.0
1513266482412322666,,640494,,1513266480,607770185,'',0.506145483078,0.512127159445,0.000587126848027,0.00598167636619,0.001,-43.3117830932,7200.0,0.0,410.0,0.0
1513266482422297457,,640495,,1513266480,617770185,'',0.506145483078,0.512132479418,0.000480650766797,0.0059869963394,0.001,-43.3055060327,7200.0,0.0,410.0,0.0
1513266482432217184,,640496,,1513266480,627770185,'',0.506145483078,0.512136834983,0.000393476731621,0.00599135190477,0.001,-43.3012206875,7200.0,0.0,410.0,0.0
1513266482442223171,,640497,,1513266480,637770185,'',0.506145483078,0.512140401208,0.000322100874628,0.00599491812963,0.001,-43.2973697179,7200.0,0.0,410.0,0.0
1513266482452229804,,640498,,1513266480,647770185,'',0.506145483078,0.512119669809,0.000742371376288,0.00597418673114,0.001,-43.3144992685,7200.0,0.0,410.0,0.0
1513266482462111820,,640499,,1513266480,657770185,'',0.506145483078,0.512126351055,0.00060768068034,0.00598086797628,0.001,-43.3151440879,7200.0,0.0,410.0,0.0
1513266482472060114,,640500,,1513266480,667770185,'',0.506145483078,0.512107558077,0.000988288763517,0.00596207499897,0.001,-43.3346702785,7200.0,0.0,410.0,0.0
1513266482482532778,,640501,,1513266480,677770185,'',0.506145483078,0.512116432779,0.000809061540273,0.00597094970107,0.001,-43.3232673293,7200.0,0.0,410.0,0.0
1513266482492502932,,640502,,1513266480,687770185,'',0.506145483078,0.51212368162,0.000662669066915,0.00597819854178,0.001,-43.3101393427,7200.0,0.0,410.0,0.0
1513266482502368508,,640503,,1513266480,697770185,'',0.506145483078,0.512129632301,0.000542493323572,0.00598414922217,0.001,-43.3090434839,7200.0,0.0,410.0,0.0
1513266482512282083,,640504,,1513266480,707770185,'',0.506145483078,0.512134503819,0.000444111579692,0.00598902074031,0.001,-43.3023306374,7200.0,0.0,410.0,0.0
1513266482522286232,,640505,,1513266480,717770185,'',0.506145483078,0.512138492654,0.000363555867725,0.00599300957601,0.001,-43.2996941551,7200.0,0.0,410.0,0.0
1513266482532184156,,640506,,1513266480,727770185,'',0.506145483078,0.512166511511,-0.00019586722525,0.00602102843292,0.001,-43.2698640089,7200.0,0.0,410.0,0.0
1513266482542283686,,640507,,1513266480,737770185,'',0.506145483078,0.512164694437,-0.000160336555285,0.00601921135847,0.001,-43.2715073082,7200.0,0.0,410.0,0.0
1513266482552229591,,640508,,1513266480,747770185,'',0.506145483078,0.512163207527,-0.000131261853263,0.00601772444877,0.001,-43.2722882402,7200.0,0.0,410.0,0.0
1513266482562573509,,640509,,1513266480,757770185,'',0.506145483078,0.512134449726,-0.0272925898398,0.00598896664742,0.001,-31.7831909461,7200.0,0.0,410.0,0.0
1513266482572549888,,640510,,1513266480,767770185,'',0.506145483078,0.51213844364,0.000366921575421,0.00599296056137,0.001,-43.2994256661,7200.0,0.0,410.0,0.0
1513266482582561115,,640511,,1513266480,777770185,'',0.506145483078,0.512141711574,0.000300494563381,0.00599622849551,0.001,-43.2934205787,7200.0,0.0,410.0,0.0
1513266482592573601,,640512,,1513266480,787770185,'',0.506145483078,0.512121560829,0.000710214661446,0.00597607775053,0.001,-43.316522425,7200.0,0.0,410.0,0.0
1513266482602460349,,640513,,1513266480,797770185,'',0.506145483078,0.512127893253,0.000581474697253,0.00598241017479,0.001,-43.3102855497,7200.0,0.0,410.0,0.0
1513266482612354663,,640514,,1513266480,807770185,'',0.506145483078,0.512106828905,0.00100655277098,0.00596134582645,0.001,-43.3350992809,7200.0,0.0,410.0,0.0
1513266482622231626,,640515,,1513266480,817770185,'',0.506145483078,0.51209003891,0.00134462549168,0.005944555832,0.001,-43.3572825998,7200.0,0.0,410.0,0.0
1513266482632210508,,640516,,1513266480,827770185,'',0.506145483078,0.512102063486,0.00110132749558,0.00595658040803,0.001,-43.3304680788,7200.0,0.0,410.0,0.0
1513266482642142545,,640517,,1513266480,837770185,'',0.506145483078,0.5121119391,0.000901510299521,0.0059664560219,0.001,-43.3293562897,7200.0,0.0,410.0,0.0
1513266482652204224,,640518,,1513266480,847770185,'',0.506145483078,0.512144245022,0.000248545406661,0.00599876194323,0.001,-43.2928544512,7200.0,0.0,410.0,0.0
1513266482662128832,,640519,,1513266480,857770185,'',0.506145483078,0.512123250561,0.000668912374066,0.00597776748215,0.001,-43.317771494,7200.0,0.0,410.0,0.0
1513266482672110925,,640520,,1513266480,867770185,'',0.506145483078,0.512106505278,0.00101250803065,0.00596102219945,0.001,-43.3257928644,7200.0,0.0,410.0,0.0
1513266482682507642,,640521,,1513266480,877770185,'',0.506145483078,0.512115570906,0.000828888617436,0.00597008782787,0.001,-43.325274757,7200.0,0.0,410.0,0.0
1513266482692536168,,640522,,1513266480,887770185,'',0.506145483078,0.512122993272,0.000678552602855,0.00597751019364,0.001,-43.3170001056,7200.0,0.0,410.0,0.0
1513266482702483483,,640523,,1513266480,897770185,'',0.506145483078,0.512129070877,0.000555453983906,0.00598358779905,0.001,-43.310759537,7200.0,0.0,410.0,0.0
1513266482712341264,,640524,,1513266480,907770185,'',0.506145483078,0.512134033074,0.000454947367732,0.00598854999569,0.001,-43.3000470204,7200.0,0.0,410.0,0.0
1513266482722288861,,640525,,1513266480,917770185,'',0.506145483078,0.512138107559,0.000372420865784,0.005992624481,0.001,-43.2994706005,7200.0,0.0,410.0,0.0
1513266482732160684,,640526,,1513266480,927770185,'',0.506145483078,0.512141441793,0.000304887759062,0.00599595871479,0.001,-43.2959600711,7200.0,0.0,410.0,0.0
1513266482742163006,,640527,,1513266480,937770185,'',0.506145483078,0.512117910407,0.000779879709295,0.00597242732828,0.001,-43.315874064,7200.0,0.0,410.0,0.0
1513266482752185109,,640528,,1513266480,947770185,'',0.506145483078,0.512151133101,0.00010321737828,0.00600565002276,0.001,-43.2852768097,7200.0,0.0,410.0,0.0
1513266482762148850,,640529,,1513266480,957770185,'',0.506145483078,0.51212740814,0.000583677149525,0.0059819250616,0.001,-43.3117976607,7200.0,0.0,410.0,0.0
1513266482772514789,,640530,,1513266480,967770185,'',0.506145483078,0.512132682444,0.000477838067215,0.00598719936591,0.001,-43.3058543031,7200.0,0.0,410.0,0.0
1513266482782515262,,640531,,1513266480,977770185,'',0.506145483078,0.512137002396,0.000391149914356,0.00599151931738,0.001,-43.3015004646,7200.0,0.0,410.0,0.0
1513266482792477018,,640532,,1513266480,987770185,'',0.506145483078,0.512113798351,-0.0268729131684,0.00596831527268,0.001,-32.1421246611,7200.0,0.0,410.0,0.0
1513266482802360144,,640533,,1513266480,997770185,'',0.506145483078,0.512071121101,0.0017291963126,0.005925638023,0.001,-43.3745476032,7200.0,0.0,410.0,0.0
1513266482812376816,,640534,,1513266481,7770185,'',0.506145483078,0.511860723131,-0.021764575656,0.00571524005276,0.001,-32.4789015208,7200.0,0.0,410.0,0.0
1513266482822327747,,640535,,1513266481,17770185,'',0.506145483078,0.511639096491,-0.0172860944187,0.00549361341306,0.001,-32.4025014107,7200.0,0.0,410.0,0.0
1513266482832240010,,640536,,1513266481,27770185,'',0.506145483078,0.51135539488,-0.0392855873158,0.00520991180148,0.001,-21.3366381546,7200.0,0.0,410.0,0.0
1513266482842205087,,640537,,1513266481,37770185,'',0.506145483078,0.511026388724,-0.0326407731343,0.00488090564593,0.001,-21.6489584524,7200.0,0.0,410.0,0.0
1513266482852249166,,640538,,1513266481,47770185,'',0.506145483078,0.510727595474,-0.0543587082001,0.00458211239608,0.001,-9.87809273565,7200.0,0.0,410.0,0.0
1513266482862169752,,640539,,1513266481,57770185,'',0.506145483078,0.510439427233,-0.0208083151754,0.00429394415433,0.001,-22.3505109368,7200.0,0.0,410.0,0.0
1513266482872120425,,640540,,1513266481,67770185,'',0.506145483078,0.510030230971,-0.0402793621585,0.00388474789255,0.001,-11.7468022592,7200.0,0.0,410.0,0.0
1513266482882139920,,640541,,1513266481,77770185,'',0.506145483078,0.509718344669,-0.00624745585761,0.00357286159057,0.001,-23.2173948029,7200.0,0.0,410.0,0.0
1513266482892104083,,640542,,1513266481,87770185,'',0.506145483078,0.50946350183,-0.0288300493537,0.00331801875141,0.001,-12.0294326217,7200.0,0.0,410.0,0.0
1513266482903086268,,640543,,1513266481,97770185,'',0.506145483078,0.509204831533,-0.0236012389365,0.00305934845505,0.001,-12.3087544571,7200.0,0.0,410.0,0.0
1513266482912483222,,640544,,1513266481,107770185,'',0.506145483078,0.508967730007,-0.0188095353325,0.00282224692829,0.001,-12.7459311362,7200.0,0.0,410.0,0.0
1513266482922486789,,640545,,1513266481,117770185,'',0.506145483078,0.508772729118,-0.0148601125886,0.00262724603986,0.001,-12.7576861853,7200.0,0.0,410.0,0.0
1513266482932398442,,640546,,1513266481,127770185,'',0.506145483078,0.508614213855,-0.0116578267623,0.0,0.001,0.0,7200.0,0.0,410.0,0.0
1513266482942416680,,640547,,1513266481,137770185,'',0.506145483078,0.508436446894,-0.0080660523135,0.0,0.001,0.0,7200.0,0.0,410.0,0.0
1513266482952347531,,640548,,1513266481,147770185,'',0.506145483078,0.508317613419,-0.00566504465551,0.0,0.001,0.0,7200.0,0.0,410.0,0.0
1513266482962252361,,640549,,1513266481,157770185,'',0.506145483078,0.508240126671,-0.00410457003799,0.0,0.001,0.0,7200.0,0.0,410.0,0.0
1513266482972285489,,640550,,1513266481,167770185,'',0.506145483078,0.508153455499,-0.00237231890129,0.0,0.001,0.0,7200.0,0.0,410.0,0.0
1513266482982182833,,640551,,1513266481,177770185,'',0.506145483078,0.508033509413,-0.027676093288,0.0,0.001,0.0,7200.0,0.0,410.0,0.0
1513266482992510051,,640552,,1513266481,187770185,'',0.506145483078,0.507931035862,-0.0256102512149,0.0,0.001,0.0,7200.0,0.0,410.0,0.0
1513266483002656940,,640553,,1513266481,197770185,'',0.506145483078,0.507752771417,-0.0220163664007,0.0,0.001,0.0,7200.0,0.0,410.0,0.0
1513266483012486916,,640554,,1513266481,207770185,'',0.506145483078,0.507632929378,-0.0195841737481,0.0,0.001,0.0,7200.0,0.0,410.0,0.0
1513266483022516981,,640555,,1513266481,217770185,'',0.506145483078,0.507529934692,-0.0174992150262,0.0,0.001,0.0,7200.0,0.0,410.0,0.0
1513266483032348949,,640556,,1513266481,227770185,'',0.506145483078,0.507471197768,0.0114250721603,0.0,0.001,0.0,7200.0,0.0,410.0,0.0
1513266483042318349,,640557,,1513266481,237770185,'',0.506145483078,0.507377277799,-0.014421550479,0.0,0.001,0.0,7200.0,0.0,410.0,0.0
1513266483052301606,,640558,,1513266481,247770185,'',0.506145483078,0.507298115831,-0.0128189654232,0.0,0.001,0.0,7200.0,0.0,410.0,0.0
1513266483062261044,,640559,,1513266481,257770185,'',0.506145483078,0.507286128996,0.0151649212548,0.0,0.001,0.0,7200.0,0.0,410.0,0.0
1513266483072223903,,640560,,1513266481,267770185,'',0.506145483078,0.507223396265,-0.011309493088,0.0,0.001,0.0,7200.0,0.0,410.0,0.0
1513266483082600614,,640561,,1513266481,277770185,'',0.506145483078,0.50714748198,-0.0097726746712,0.0,0.001,0.0,7200.0,0.0,410.0,0.0
1513266483092559812,,640562,,1513266481,287770185,'',0.506145483078,0.50723648956,0.0161821597303,0.0,0.001,0.0,7200.0,0.0,410.0,0.0
1513266483102614603,,640563,,1513266481,297770185,'',0.506145483078,0.507206985515,-0.0109576799421,0.0,0.001,0.0,7200.0,0.0,410.0,0.0
1513266483112553181,,640564,,1513266481,307770185,'',0.506145483078,0.507155170512,-0.00991790077393,0.0,0.001,0.0,7200.0,0.0,410.0,0.0
1513266483122496755,,640565,,1513266481,317770185,'',0.506145483078,0.507140874365,-0.00962679000739,0.0,0.001,0.0,7200.0,0.0,410.0,0.0
1513266483132538705,,640566,,1513266481,327770185,'',0.506145483078,0.507105938052,-0.00892184677351,0.0,0.001,0.0,7200.0,0.0,410.0,0.0
1513266483142604240,,640567,,1513266481,337770185,'',0.506145483078,0.507051597269,-0.00782365183553,0.0,0.001,0.0,7200.0,0.0,410.0,0.0
1513266483152615462,,640568,,1513266481,347770185,'',0.506145483078,0.507006337219,-0.00691435799664,0.0,0.001,0.0,7200.0,0.0,410.0,0.0
1513266483162467284,,640569,,1513266481,357770185,'',0.506145483078,0.507017916852,-0.00715416256078,0.0,0.001,0.0,7200.0,0.0,410.0,0.0
1513266483172498171,,640570,,1513266481,367770185,'',0.506145483078,0.507003658918,-0.0068643130544,0.0,0.001,0.0,7200.0,0.0,410.0,0.0
1513266483182416899,,640571,,1513266481,377770185,'',0.506145483078,0.506991994127,-0.00664417340534,0.0,0.001,0.0,7200.0,0.0,410.0,0.0
1513266483192532534,,640572,,1513266481,387770185,'',0.506145483078,0.506957014008,-0.00594132617708,0.0,0.001,0.0,7200.0,0.0,410.0,0.0
1513266483202319263,,640573,,1513266481,397770185,'',0.506145483078,0.506977498656,-0.00633337366576,0.0,0.001,0.0,7200.0,0.0,410.0,0.0
1513266483212307769,,640574,,1513266481,407770185,'',0.506145483078,0.506943868845,-0.00564639117436,0.0,0.001,0.0,7200.0,0.0,410.0,0.0
1513266483222271818,,640575,,1513266481,417770185,'',0.506145483078,0.506893146201,-0.00462232393709,0.0,0.001,0.0,7200.0,0.0,410.0,0.0
1513266483232298547,,640576,,1513266481,427770185,'',0.506145483078,0.506901965748,-0.00480742589231,0.0,0.001,0.0,7200.0,0.0,410.0,0.0
1513266483242281083,,640577,,1513266481,437770185,'',0.506145483078,0.506908283174,-0.00494086166621,0.0,0.001,0.0,7200.0,0.0,410.0,0.0
1513266483252269107,,640578,,1513266481,447770185,'',0.506145483078,0.506913052977,-0.00502991334333,0.0,0.001,0.0,7200.0,0.0,410.0,0.0
1513266483262208742,,640579,,1513266481,457770185,'',0.506145483078,0.506942548549,-0.00563435829342,0.0,0.001,0.0,7200.0,0.0,410.0,0.0
1513266483272167732,,640580,,1513266481,467770185,'',0.506145483078,0.506942513957,0.0221011443997,0.0,0.001,0.0,7200.0,0.0,410.0,0.0
1513266483282171453,,640581,,1513266481,477770185,'',0.506145483078,0.506965166506,-0.0061041330658,0.0,0.001,0.0,7200.0,0.0,410.0,0.0
1513266483292119407,,640582,,1513266481,487770185,'',0.506145483078,0.506984668966,-0.00648595454035,0.0,0.001,0.0,7200.0,0.0,410.0,0.0
1513266483302219916,,640583,,1513266481,497770185,'',0.506145483078,0.507050909175,-0.00782388513829,0.0,0.001,0.0,7200.0,0.0,410.0,0.0
1513266483312087420,,640584,,1513266481,507770185,'',0.506145483078,0.50705484719,-0.00790106914576,0.0,0.001,0.0,7200.0,0.0,410.0,0.0
1513266483322351058,,640585,,1513266481,517770185,'',0.506145483078,0.507033760916,-0.00748011237304,0.0,0.001,0.0,7200.0,0.0,410.0,0.0
1513266483332247381,,640586,,1513266481,527770185,'',0.506145483078,0.50701469042,-0.00707663522861,0.0,0.001,0.0,7200.0,0.0,410.0,0.0
1513266483342298906,,640587,,1513266481,537770185,'',0.506145483078,0.506974734182,-0.00627907985195,0.0,0.001,0.0,7200.0,0.0,410.0,0.0
1513266483352672549,,640588,,1513266481,547770185,'',0.506145483078,0.506992131962,-0.00663933916961,0.0,0.001,0.0,7200.0,0.0,410.0,0.0
1513266483362632530,,640589,,1513266481,557770185,'',0.506145483078,0.507031152634,-0.00743344300567,0.0,0.001,0.0,7200.0,0.0,410.0,0.0
1513266483372568078,,640590,,1513266481,567770185,'',0.506145483078,0.507039326103,-0.00759305886129,0.0,0.001,0.0,7200.0,0.0,410.0,0.0
1513266483382326496,,640591,,1513266481,577770185,'',0.506145483078,0.507095188259,-0.00871886472423,0.0,0.001,0.0,7200.0,0.0,410.0,0.0
1513266483392338962,,640592,,1513266481,587770185,'',0.506145483078,0.507017019632,-0.0071375191167,0.0,0.001,0.0,7200.0,0.0,410.0,0.0
1513266483402374738,,640593,,1513266481,597770185,'',0.506145483078,0.507098339607,-0.00879667422788,0.0,0.001,0.0,7200.0,0.0,410.0,0.0
1513266483412532133,,640594,,1513266481,607770185,'',0.506145483078,0.507042801062,-0.00766545501528,0.0,0.001,0.0,7200.0,0.0,410.0,0.0
1513266483422434919,,640595,,1513266481,617770185,'',0.506145483078,0.507098967905,-0.00878957179401,0.0,0.001,0.0,7200.0,0.0,410.0,0.0
1513266483432344986,,640596,,1513266481,627770185,'',0.506145483078,0.507144311739,-0.00970394855426,0.0,0.001,0.0,7200.0,0.0,410.0,0.0
1513266483442321688,,640597,,1513266481,637770185,'',0.506145483078,0.507131928265,-0.00945141008599,0.0,0.001,0.0,7200.0,0.0,410.0,0.0
1513266483452240064,,640598,,1513266481,647770185,'',0.506145483078,0.50707034807,-0.00821168763573,0.0,0.001,0.0,7200.0,0.0,410.0,0.0
1513266483462121613,,640599,,1513266481,657770185,'',0.506145483078,0.507071787845,-0.00823378098852,0.0,0.001,0.0,7200.0,0.0,410.0,0.0
1513266483472132318,,640600,,1513266481,667770185,'',0.506145483078,0.507150524521,0.0179057926824,0.0,0.001,0.0,7200.0,0.0,410.0,0.0
1513266483482549529,,640601,,1513266481,677770185,'',0.506145483078,0.507088029321,-0.00857127925243,0.0,0.001,0.0,7200.0,0.0,410.0,0.0
1513266483492532145,,640602,,1513266481,687770185,'',0.506145483078,0.507059642858,-0.00798673004984,0.0,0.001,0.0,7200.0,0.0,410.0,0.0
1513266483502453333,,640603,,1513266481,697770185,'',0.506145483078,0.507012608604,-0.00703738775379,0.0,0.001,0.0,7200.0,0.0,410.0,0.0
1513266483512383620,,640604,,1513266481,707770185,'',0.506145483078,0.506949435178,-0.00576136973986,0.0,0.001,0.0,7200.0,0.0,410.0,0.0
1513266483522408138,,640605,,1513266481,717770185,'',0.506145483078,0.506921780771,-0.00520216675505,0.0,0.001,0.0,7200.0,0.0,410.0,0.0
1513266483532166877,,640606,,1513266481,727770185,'',0.506145483078,0.50689942562,-0.00474792488241,0.0,0.001,0.0,7200.0,0.0,410.0,0.0
1513266483542486221,,640607,,1513266481,737770185,'',0.506145483078,0.506932850653,-0.00544166987522,0.0,0.001,0.0,7200.0,0.0,410.0,0.0
1513266483552428127,,640608,,1513266481,747770185,'',0.506145483078,0.507062847775,0.0196685457179,0.0,0.001,0.0,7200.0,0.0,410.0,0.0
1513266483562375002,,640609,,1513266481,757770185,'',0.506145483078,0.50723951528,0.0161025553055,0.0,0.001,0.0,7200.0,0.0,410.0,0.0
1513266483572322597,,640610,,1513266481,767770185,'',0.506145483078,0.507436586469,0.0121222196369,0.0,0.001,0.0,7200.0,0.0,410.0,0.0
1513266483582237221,,640611,,1513266481,777770185,'',0.506145483078,0.507747404808,0.0335738140056,0.0,0.001,0.0,7200.0,0.0,410.0,0.0
1513266483592236961,,640612,,1513266481,787770185,'',0.506145483078,0.508048494245,0.0274949981817,0.0,0.001,0.0,7200.0,0.0,410.0,0.0
1513266483602144953,,640613,,1513266481,797770185,'',0.506145483078,0.508322196487,0.0219706352691,0.0,0.001,0.0,7200.0,0.0,410.0,0.0
1513266483612589806,,640614,,1513266481,807770185,'',0.506145483078,0.508572618595,0.0446532690145,0.0,0.001,0.0,7200.0,0.0,410.0,0.0
1513266483622505957,,640615,,1513266481,817770185,'',0.506145483078,0.508774088593,0.0128427232881,0.0,0.001,0.0,7200.0,0.0,410.0,0.0
1513266483632576219,,640616,,1513266481,827770185,'',0.506145483078,0.508914027219,0.0100108780793,0.0,0.001,0.0,7200.0,0.0,410.0,0.0
1513266483642539966,,640617,,1513266481,837770185,'',0.506145483078,0.509027277296,0.00773038636912,0.0,0.001,0.0,7200.0,0.0,410.0,0.0
1513266483652255714,,640618,,1513266481,847770185,'',0.506145483078,0.509096741458,0.0063285932484,0.0,0.001,0.0,7200.0,0.0,410.0,0.0
1513266483662557762,,640619,,1513266481,857770185,'',0.506145483078,0.50915350155,0.00518316940758,0.0,0.001,0.0,7200.0,0.0,410.0,0.0
1513266483672451310,,640620,,1513266481,867770185,'',0.506145483078,0.509281214514,0.0303434734167,0.0,0.001,0.0,7200.0,0.0,410.0,0.0
1513266483682417555,,640621,,1513266481,877770185,'',0.506145483078,0.509480184364,0.0263208312852,0.0,0.001,0.0,7200.0,0.0,410.0,0.0
1513266483692425420,,640622,,1513266481,887770185,'',0.506145483078,0.509716548061,0.0215471094256,0.0,0.001,0.0,7200.0,0.0,410.0,0.0
1513266483702384901,,640623,,1513266481,897770185,'',0.506145483078,0.509860144413,0.01864380991,0.0,0.001,0.0,7200.0,0.0,410.0,0.0
1513266483712203931,,640624,,1513266481,907770185,'',0.506145483078,0.510005035161,0.0157184383241,0.0,0.001,0.0,7200.0,0.0,410.0,0.0
1513266483722244752,,640625,,1513266481,917770185,'',0.506145483078,0.510120580278,0.0133685591737,0.0,0.001,0.0,7200.0,0.0,410.0,0.0
1513266483732206805,,640626,,1513266481,927770185,'',0.506145483078,0.510190554094,0.0119635680062,0.0,0.001,0.0,7200.0,0.0,410.0,0.0
1513266483742613813,,640627,,1513266481,937770185,'',0.506145483078,0.510246108185,0.0108445180088,0.0,0.001,0.0,7200.0,0.0,410.0,0.0
1513266483752498361,,640628,,1513266481,947770185,'',0.506145483078,0.510294935566,0.00986062389058,0.0,0.001,0.0,7200.0,0.0,410.0,0.0
1513266483762398411,,640629,,1513266481,957770185,'',0.506145483078,0.510360557318,0.00853360389072,0.0,0.001,0.0,7200.0,0.0,410.0,0.0
1513266483772203733,,640630,,1513266481,967770185,'',0.506145483078,0.510388129365,0.00798259724318,0.0,0.001,0.0,7200.0,0.0,410.0,0.0
1513266483782367991,,640631,,1513266481,977770185,'',0.506145483078,0.510459718688,0.00653690814446,0.0,0.001,0.0,7200.0,0.0,410.0,0.0
1513266483792222952,,640632,,1513266481,987770185,'',0.506145483078,0.510566257099,0.00438527099732,0.0,0.001,0.0,7200.0,0.0,410.0,0.0
1513266483802564677,,640633,,1513266481,997770185,'',0.506145483078,0.510729107439,0.00108447248427,0.0,0.001,0.0,7200.0,0.0,410.0,0.0
1513266483812482047,,640634,,1513266482,7770185,'',0.506145483078,0.510738959161,0.000887764140977,0.0,0.001,0.0,7200.0,0.0,410.0,0.0
1513266483822370646,,640635,,1513266482,17770185,'',0.506145483078,0.510771011967,0.000229249809283,0.0,0.001,0.0,7200.0,0.0,410.0,0.0
1513266483832383315,,640636,,1513266482,27770185,'',0.506145483078,0.510773262543,0.000187671531833,0.0,0.001,0.0,7200.0,0.0,410.0,0.0
1513266483842355658,,640637,,1513266482,37770185,'',0.506145483078,0.510871079153,-0.00177859632613,0.0,0.001,0.0,7200.0,0.0,410.0,0.0
1513266483852404932,,640638,,1513266482,47770185,'',0.506145483078,0.510878353561,-0.00193004211403,0.0,0.001,0.0,7200.0,0.0,410.0,0.0
1513266483862470796,,640639,,1513266482,57770185,'',0.506145483078,0.510810721691,-0.000556257467631,0.0,0.001,0.0,7200.0,0.0,410.0,0.0
1513266483872444019,,640640,,1513266482,67770185,'',0.506145483078,0.510805781012,-0.000455590257883,0.0,0.001,0.0,7200.0,0.0,410.0,0.0
1513266483882416823,,640641,,1513266482,77770185,'',0.506145483078,0.510801725991,-0.000372968477821,0.0,0.001,0.0,7200.0,0.0,410.0,0.0
1513266483892456791,,640642,,1513266482,87770185,'',0.506145483078,0.510901379301,0.0253541797753,0.0,0.001,0.0,7200.0,0.0,410.0,0.0
1513266483902338499,,640643,,1513266482,97770185,'',0.506145483078,0.51095549699,-0.00349120878624,0.0,0.001,0.0,7200.0,0.0,410.0,0.0
1513266483912273193,,640644,,1513266482,107770185,'',0.506145483078,0.510951583955,0.0243295822727,0.0,0.001,0.0,7200.0,0.0,410.0,0.0
1513266483922214757,,640645,,1513266482,117770185,'',0.506145483078,0.511020754843,0.0229311673736,0.0,0.001,0.0,7200.0,0.0,410.0,0.0
1513266483932220644,,640646,,1513266482,127770185,'',0.506145483078,0.511076170616,-0.00593490647818,0.0,0.001,0.0,7200.0,0.0,410.0,0.0
1513266483942254116,,640647,,1513266482,137770185,'',0.506145483078,0.511071988364,-0.00585252908629,0.0,0.001,0.0,7200.0,0.0,410.0,0.0
1513266483952604064,,640648,,1513266482,147770185,'',0.506145483078,0.511144472318,0.0204328904122,0.0,0.001,0.0,7200.0,0.0,410.0,0.0
1513266483962577531,,640649,,1513266482,157770185,'',0.506145483078,0.511182489729,0.0196620126596,0.0,0.001,0.0,7200.0,0.0,410.0,0.0
1513266483972454680,,640650,,1513266482,167770185,'',0.506145483078,0.511231982981,-0.00907977513959,0.0,0.001,0.0,7200.0,0.0,410.0,0.0
1513266483982305233,,640651,,1513266482,177770185,'',0.506145483078,0.511224543668,0.0188130180169,0.0,0.001,0.0,7200.0,0.0,410.0,0.0
1513266483992417544,,640652,,1513266482,187770185,'',0.506145483078,0.511298672188,0.0173167629733,0.0,0.001,0.0,7200.0,0.0,410.0,0.0
1513266484002286924,,640653,,1513266482,197770185,'',0.506145483078,0.511430854571,0.0146532866664,0.0,0.001,0.0,7200.0,0.0,410.0,0.0
1513266484012307015,,640654,,1513266482,207770185,'',0.506145483078,0.511562402021,0.0119968699272,0.0,0.001,0.0,7200.0,0.0,410.0,0.0
1513266484022238515,,640655,,1513266482,217770185,'',0.506145483078,0.511670141356,0.0098212247473,0.0,0.001,0.0,7200.0,0.0,410.0,0.0
1513266484032533693,,640656,,1513266482,227770185,'',0.506145483078,0.511731845833,0.00857409665472,0.0,0.001,0.0,7200.0,0.0,410.0,0.0
1513266484042526362,,640657,,1513266482,237770185,'',0.506145483078,0.511808856352,0.00701917506502,0.0,0.001,0.0,7200.0,0.0,410.0,0.0
1513266484052474429,,640658,,1513266482,247770185,'',0.506145483078,0.511895524705,0.00526807923896,0.0,0.001,0.0,7200.0,0.0,410.0,0.0
1513266484062449819,,640659,,1513266482,257770185,'',0.506145483078,0.511942842717,0.00431289252536,0.0,0.001,0.0,7200.0,0.0,410.0,0.0
1513266484072464827,,640660,,1513266482,267770185,'',0.506145483078,0.511981588726,0.00353074485759,0.0,0.001,0.0,7200.0,0.0,410.0,0.0
1513266484082410957,,640661,,1513266482,277770185,'',0.506145483078,0.512013302642,0.00289055076875,0.0,0.001,0.0,7200.0,0.0,410.0,0.0
1513266484092430753,,640662,,1513266482,287770185,'',0.506145483078,0.512039221469,0.00236733946507,0.0,0.001,0.0,7200.0,0.0,410.0,0.0
1513266484102322112,,640663,,1513266482,297770185,'',0.506145483078,0.512060495039,0.00193789979173,0.0,0.001,0.0,7200.0,0.0,410.0,0.0
1513266484112317318,,640664,,1513266482,307770185,'',0.506145483078,0.5120779013,0.00158652767879,0.0,0.001,0.0,7200.0,0.0,410.0,0.0
1513266484122548615,,640665,,1513266482,317770185,'',0.506145483078,0.512068893229,0.00177348242119,0.0,0.001,0.0,7200.0,0.0,410.0,0.0
1513266484132464798,,640666,,1513266482,327770185,'',0.506145483078,0.512084778133,0.0014518941046,0.0,0.001,0.0,7200.0,0.0,410.0,0.0
1513266484142426498,,640667,,1513266482,337770185,'',0.506145483078,0.512123443341,0.000669973950988,0.0,0.001,0.0,7200.0,0.0,410.0,0.0
1513266484152610139,,640668,,1513266482,347770185,'',0.506145483078,0.51217687161,-0.000414761800589,0.0,0.001,0.0,7200.0,0.0,410.0,0.0
1513266484162493035,,640669,,1513266482,357770185,'',0.506145483078,0.512173175593,-0.000339531352542,0.0,0.001,0.0,7200.0,0.0,410.0,0.0
1513266484172392332,,640670,,1513266482,367770185,'',0.506145483078,0.512170142807,-0.000277800625511,0.0,0.001,0.0,7200.0,0.0,410.0,0.0
1513266484182322921,,640671,,1513266482,377770185,'',0.506145483078,0.512194428312,-0.000768044089327,0.0,0.001,0.0,7200.0,0.0,410.0,0.0
1513266484192254666,,640672,,1513266482,387770185,'',0.506145483078,0.512237006725,-0.00163393090732,0.0,0.001,0.0,7200.0,0.0,410.0,0.0
1513266484202241643,,640673,,1513266482,397770185,'',0.506145483078,0.51229596348,-0.00281802017216,0.0,0.001,0.0,7200.0,0.0,410.0,0.0
1513266484212254274,,640674,,1513266482,407770185,'',0.506145483078,0.512270665761,-0.00230687020065,0.0,0.001,0.0,7200.0,0.0,410.0,0.0
1513266484222834541,,640675,,1513266482,417770185,'',0.506145483078,0.512276750133,-0.00242992226243,0.0,0.001,0.0,7200.0,0.0,410.0,0.0
1513266484232583372,,640676,,1513266482,427770185,'',0.506145483078,0.512306563284,0.0247084580209,0.0,0.001,0.0,7200.0,0.0,410.0,0.0
1513266484242451593,,640677,,1513266482,437770185,'',0.506145483078,0.512303573159,-0.00297579135269,0.0,0.001,0.0,7200.0,0.0,410.0,0.0
1513266484252365121,,640678,,1513266482,447770185,'',0.506145483078,0.512276900317,-0.00243612841127,0.0,0.001,0.0,7200.0,0.0,410.0,0.0
1513266484262329253,,640679,,1513266482,457770185,'',0.506145483078,0.512303468253,-0.00298255245605,0.0,0.001,0.0,7200.0,0.0,410.0,0.0
1513266484272280265,,640680,,1513266482,467770185,'',0.506145483078,0.512326935811,-0.00345663887189,0.0,0.001,0.0,7200.0,0.0,410.0,0.0
1513266484282339282,,640681,,1513266482,477770185,'',0.506145483078,0.512395037052,-0.00482759187787,0.0,0.001,0.0,7200.0,0.0,410.0,0.0
1513266484292222098,,640682,,1513266482,487770185,'',0.506145483078,0.512523529514,-0.00742546657354,0.0,0.001,0.0,7200.0,0.0,410.0,0.0
1513266484302263357,,640683,,1513266482,497770185,'',0.506145483078,0.512631713395,0.0181262854882,0.0,0.001,0.0,7200.0,0.0,410.0,0.0
1513266484312642371,,640684,,1513266482,507770185,'',0.506145483078,0.51274268998,-0.0118456748565,0.0,0.001,0.0,7200.0,0.0,410.0,0.0
1513266484322467793,,640685,,1513266482,517770185,'',0.506145483078,0.512859335136,0.0135384985467,0.0,0.001,0.0,7200.0,0.0,410.0,0.0
1513266484332558787,,640686,,1513266482,527770185,'',0.506145483078,0.512980628807,0.011088404926,0.0,0.001,0.0,7200.0,0.0,410.0,0.0
1513266484342442055,,640687,,1513266482,537770185,'',0.506145483078,0.513005973143,0.0105755120858,0.0,0.001,0.0,7200.0,0.0,410.0,0.0
1513266484352601273,,640688,,1513266482,547770185,'',0.506145483078,0.512977594346,-0.0165853290352,0.0,0.001,0.0,7200.0,0.0,410.0,0.0
1513266484362448489,,640689,,1513266482,557770185,'',0.506145483078,0.513005550019,0.0105858704036,0.0,0.001,0.0,7200.0,0.0,410.0,0.0
1513266484372370828,,640690,,1513266482,567770185,'',0.506145483078,0.512953107547,0.0116438922968,0.0,0.001,0.0,7200.0,0.0,410.0,0.0
1513266484382359979,,640691,,1513266482,577770185,'',0.506145483078,0.512954953939,-0.016136550524,0.0,0.001,0.0,7200.0,0.0,410.0,0.0
1513266484392431465,,640692,,1513266482,587770185,'',0.506145483078,0.5130097755,0.0105077766102,0.0,0.001,0.0,7200.0,0.0,410.0,0.0
1513266484402305859,,640693,,1513266482,597770185,'',0.506145483078,0.513054542853,0.0095975794156,0.0,0.001,0.0,7200.0,0.0,410.0,0.0
1513266484412321771,,640694,,1513266482,607770185,'',0.506145483078,0.513090802787,0.00886653131878,0.0,0.001,0.0,7200.0,0.0,410.0,0.0
1513266484422328918,,640695,,1513266482,617770185,'',0.506145483078,0.513145121388,0.00776793576042,0.0,0.001,0.0,7200.0,0.0,410.0,0.0
1513266484432224434,,640696,,1513266482,627770185,'',0.506145483078,0.513214853266,0.00635896973021,0.0,0.001,0.0,7200.0,0.0,410.0,0.0
1513266484442642106,,640697,,1513266482,637770185,'',0.506145483078,0.513222081045,0.033958427071,0.0,0.001,0.0,7200.0,0.0,410.0,0.0
1513266484452679666,,640698,,1513266482,647770185,'',0.506145483078,0.51327775296,0.00509312564645,0.0,0.001,0.0,7200.0,0.0,410.0,0.0
1513266484462659997,,640699,,1513266482,657770185,'',0.506145483078,0.513270712403,-0.0224958867856,0.0,0.001,0.0,7200.0,0.0,410.0,0.0
1513266484472313366,,640700,,1513266482,667770185,'',0.506145483078,0.513293937005,0.00478246244964,0.0,0.001,0.0,7200.0,0.0,410.0,0.0
1513266484482256271,,640701,,1513266482,677770185,'',0.506145483078,0.513287667661,0.00490087778093,0.0,0.001,0.0,7200.0,0.0,410.0,0.0
1513266484492216287,,640702,,1513266482,687770185,'',0.506145483078,0.513230003463,-0.0216822444343,0.0,0.001,0.0,7200.0,0.0,410.0,0.0
1513266484502561452,,640703,,1513266482,697770185,'',0.506145483078,0.513211009538,0.00643918976262,0.0,0.001,0.0,7200.0,0.0,410.0,0.0
1513266484512638426,,640704,,1513266482,707770185,'',0.506145483078,0.513172476822,0.00721667824529,0.0,0.001,0.0,7200.0,0.0,410.0,0.0
1513266484522611456,,640705,,1513266482,717770185,'',0.506145483078,0.513115473025,-0.0193591704607,0.0,0.001,0.0,7200.0,0.0,410.0,0.0
1513266484532464474,,640706,,1513266482,727770185,'',0.506145483078,0.513140805566,0.00786411898334,0.0,0.001,0.0,7200.0,0.0,410.0,0.0
1513266484542436479,,640707,,1513266482,737770185,'',0.506145483078,0.513134077278,-0.019740926395,0.0,0.001,0.0,7200.0,0.0,410.0,0.0
1513266484552358550,,640708,,1513266482,747770185,'',0.506145483078,0.513154910834,0.00758408817147,0.0,0.001,0.0,7200.0,0.0,410.0,0.0
1513266484562348212,,640709,,1513266482,757770185,'',0.506145483078,0.513098824012,-0.0190221904556,0.0,0.001,0.0,7200.0,0.0,410.0,0.0
1513266484572389298,,640710,,1513266482,767770185,'',0.506145483078,0.513028442925,-0.0176010846022,0.0,0.001,0.0,7200.0,0.0,410.0,0.0
1513266484582338517,,640711,,1513266482,777770185,'',0.506145483078,0.512923865407,0.012242466999,0.0,0.001,0.0,7200.0,0.0,410.0,0.0
1513266484592463488,,640712,,1513266482,787770185,'',0.506145483078,0.512830857034,-0.0136134805757,0.0,0.001,0.0,7200.0,0.0,410.0,0.0
1513266484602420826,,640713,,1513266482,797770185,'',0.506145483078,0.512786804819,0.0150167999288,0.0,0.001,0.0,7200.0,0.0,410.0,0.0
1513266484612360156,,640714,,1513266482,807770185,'',0.506145483078,0.512718869831,-0.0113462611302,0.0,0.001,0.0,7200.0,0.0,410.0,0.0
1513266484622422953,,640715,,1513266482,817770185,'',0.506145483078,0.512670943617,0.0173664531893,0.0,0.001,0.0,7200.0,0.0,410.0,0.0
1513266484632468081,,640716,,1513266482,827770185,'',0.506145483078,0.512604964671,-0.00903181295421,0.0,0.001,0.0,7200.0,0.0,410.0,0.0
1513266484642528469,,640717,,1513266482,837770185,'',0.506145483078,0.512749318784,0.0157870341074,0.0,0.001,0.0,7200.0,0.0,410.0,0.0
1513266484652672777,,640718,,1513266482,847770185,'',0.506145483078,0.512890830064,0.0129237920995,0.0,0.001,0.0,7200.0,0.0,410.0,0.0
1513266484662483932,,640719,,1513266482,857770185,'',0.506145483078,0.513006468924,0.0105840348626,0.0,0.001,0.0,7200.0,0.0,410.0,0.0
1513266484672605627,,640720,,1513266482,867770185,'',0.506145483078,0.513051942303,0.00964628035222,0.0,0.001,0.0,7200.0,0.0,410.0,0.0
1513266484682595581,,640721,,1513266482,877770185,'',0.506145483078,0.513034693752,-0.0177365157843,0.0,0.001,0.0,7200.0,0.0,410.0,0.0
1513266484692528839,,640722,,1513266482,887770185,'',0.506145483078,0.51297425325,-0.0165469383703,0.0,0.001,0.0,7200.0,0.0,410.0,0.0
1513266484702428661,,640723,,1513266482,897770185,'',0.506145483078,0.51294789482,-0.0160044636143,0.0,0.001,0.0,7200.0,0.0,410.0,0.0
1513266484712497229,,640724,,1513266482,907770185,'',0.506145483078,0.512927883239,0.0121384425906,0.0,0.001,0.0,7200.0,0.0,410.0,0.0
1513266484722422293,,640725,,1513266482,917770185,'',0.506145483078,0.512882111619,-0.0146676663128,0.0,0.001,0.0,7200.0,0.0,410.0,0.0
1513266484732727681,,640726,,1513266482,927770185,'',0.506145483078,0.512798900922,-0.0129913408827,0.0,0.001,0.0,7200.0,0.0,410.0,0.0
1513266484742697898,,640727,,1513266482,937770185,'',0.506145483078,0.512709165091,-0.0111763228574,0.0,0.001,0.0,7200.0,0.0,410.0,0.0
1513266484752641191,,640728,,1513266482,947770185,'',0.506145483078,0.512635376749,-0.00968437937912,0.0,0.001,0.0,7200.0,0.0,410.0,0.0
1513266484762596935,,640729,,1513266482,957770185,'',0.506145483078,0.512627786634,0.018204424117,0.0,0.001,0.0,7200.0,0.0,410.0,0.0
1513266484772614239,,640730,,1513266482,967770185,'',0.506145483078,0.512645783393,0.0178415343034,0.0,0.001,0.0,7200.0,0.0,410.0,0.0
1513266484782562127,,640731,,1513266482,977770185,'',0.506145483078,0.512758667394,0.0155585840128,0.0,0.001,0.0,7200.0,0.0,410.0,0.0
1513266484792586095,,640732,,1513266482,987770185,'',0.506145483078,0.512849447122,0.0137264652521,0.0,0.001,0.0,7200.0,0.0,410.0,0.0
1513266484802625293,,640733,,1513266482,997770185,'',0.506145483078,0.512925772312,0.0121823979031,0.0,0.001,0.0,7200.0,0.0,410.0,0.0
1513266484812825470,,640734,,1513266483,7770185,'',0.506145483078,0.51295955343,0.0115053083081,0.0,0.001,0.0,7200.0,0.0,410.0,0.0
1513266484822321993,,640735,,1513266483,17770185,'',0.506145483078,0.513013378811,0.0104123524063,0.0,0.001,0.0,7200.0,0.0,410.0,0.0
1513266484832308450,,640736,,1513266483,27770185,'',0.506145483078,0.513080808306,0.00905024254928,0.0,0.001,0.0,7200.0,0.0,410.0,0.0
1513266484842158835,,640737,,1513266483,37770185,'',0.506145483078,0.513110773924,0.00844299270986,0.0,0.001,0.0,7200.0,0.0,410.0,0.0
1513266484852591607,,640738,,1513266483,47770185,'',0.506145483078,0.513033929134,-0.0177459239526,0.0,0.001,0.0,7200.0,0.0,410.0,0.0
1513266484862550219,,640739,,1513266483,57770185,'',0.506145483078,0.5129248685,-0.0155261904869,0.0,0.001,0.0,7200.0,0.0,410.0,0.0
1513266484872610699,,640740,,1513266483,67770185,'',0.506145483078,0.512811807615,-0.013244659681,0.0,0.001,0.0,7200.0,0.0,410.0,0.0
1513266484882562835,,640741,,1513266483,77770185,'',0.506145483078,0.512742447084,-0.0118470521446,0.0,0.001,0.0,7200.0,0.0,410.0,0.0
1513266484892574438,,640742,,1513266483,87770185,'',0.506145483078,0.512833243742,0.0140605765598,0.0,0.001,0.0,7200.0,0.0,410.0,0.0
1513266484902514154,,640743,,1513266483,97770185,'',0.506145483078,0.512784510651,0.015052434664,0.0,0.001,0.0,7200.0,0.0,410.0,0.0
1513266484912479978,,640744,,1513266483,107770185,'',0.506145483078,0.512871376297,0.013282430073,0.0,0.001,0.0,7200.0,0.0,410.0,0.0
1513266484922440896,,640745,,1513266483,117770185,'',0.506145483078,0.51293719273,0.0119491316766,0.0,0.001,0.0,7200.0,0.0,410.0,0.0
1513266484932366876,,640746,,1513266483,127770185,'',0.506145483078,0.513044602187,0.00978251704577,0.0,0.001,0.0,7200.0,0.0,410.0,0.0
1513266484942255699,,640747,,1513266483,137770185,'',0.506145483078,0.513083105385,0.00900214378746,0.0,0.001,0.0,7200.0,0.0,410.0,0.0
1513266484952685378,,640748,,1513266483,147770185,'',0.506145483078,0.513112865033,0.00840211021095,0.0,0.001,0.0,7200.0,0.0,410.0,0.0
1513266484962664689,,640749,,1513266483,157770185,'',0.506145483078,0.513139617853,0.00785809476069,0.0,0.001,0.0,7200.0,0.0,410.0,0.0
1513266484972712364,,640750,,1513266483,167770185,'',0.506145483078,0.513008585894,-0.0172245707579,0.0,0.001,0.0,7200.0,0.0,410.0,0.0
1513266484982483079,,640751,,1513266483,177770185,'',0.506145483078,0.512878832067,-0.0146005959619,0.0,0.001,0.0,7200.0,0.0,410.0,0.0
1513266484992436950,,640752,,1513266483,187770185,'',0.506145483078,0.512770924023,-0.0124253689077,0.0,0.001,0.0,7200.0,0.0,410.0,0.0
1513266485002452392,,640753,,1513266483,197770185,'',0.506145483078,0.51268528933,-0.0106947142559,0.0,0.001,0.0,7200.0,0.0,410.0,0.0
1513266485012412228,,640754,,1513266483,207770185,'',0.506145483078,0.512766970956,0.0153959921065,0.0,0.001,0.0,7200.0,0.0,410.0,0.0
1513266485022612615,,640755,,1513266483,217770185,'',0.506145483078,0.512732715405,0.0160831007132,0.0,0.001,0.0,7200.0,0.0,410.0,0.0
1513266485032430063,,640756,,1513266483,227770185,'',0.506145483078,0.512799012717,-0.0130040854638,0.0,0.001,0.0,7200.0,0.0,410.0,0.0
1513266485042415263,,640757,,1513266483,237770185,'',0.506145483078,0.512906838054,0.0125625651962,0.0,0.001,0.0,7200.0,0.0,410.0,0.0
1513266485052436013,,640758,,1513266483,247770185,'',0.506145483078,0.512973402238,0.0112220273714,0.0,0.001,0.0,7200.0,0.0,410.0,0.0
1513266485062731155,,640759,,1513266483,257770185,'',0.506145483078,0.512977739511,-0.0165962402788,0.0,0.001,0.0,7200.0,0.0,410.0,0.0
1513266485072680056,,640760,,1513266483,267770185,'',0.506145483078,0.512976999753,-0.0165626714555,0.0,0.001,0.0,7200.0,0.0,410.0,0.0
1513266485082524302,,640761,,1513266483,277770185,'',0.506145483078,0.51282821309,-0.0135592719101,0.0,0.001,0.0,7200.0,0.0,410.0,0.0
1513266485092555844,,640762,,1513266483,287770185,'',0.506145483078,0.512656188367,-0.0100952084217,0.0,0.001,0.0,7200.0,0.0,410.0,0.0
1513266485102392300,,640763,,1513266483,297770185,'',0.506145483078,0.51256556838,-0.00826443158773,0.0,0.001,0.0,7200.0,0.0,410.0,0.0
1513266485112558306,,640764,,1513266483,307770185,'',0.506145483078,0.512638067339,-0.00972845757055,0.0,0.001,0.0,7200.0,0.0,410.0,0.0
1513266485122331061,,640765,,1513266483,317770185,'',0.506145483078,0.512622256522,-0.00940758798352,0.0,0.001,0.0,7200.0,0.0,410.0,0.0
1513266485132194787,,640766,,1513266483,327770185,'',0.506145483078,0.512587598723,-0.00870520236817,0.0,0.001,0.0,7200.0,0.0,410.0,0.0
1513266485142240135,,640767,,1513266483,337770185,'',0.506145483078,0.512610152532,0.0185697619043,0.0,0.001,0.0,7200.0,0.0,410.0,0.0
1513266485152668655,,640768,,1513266483,347770185,'',0.506145483078,0.512631050798,-0.00958472434894,0.0,0.001,0.0,7200.0,0.0,410.0,0.0
1513266485162788616,,640769,,1513266483,357770185,'',0.506145483078,0.512768494928,0.0153739259235,0.0,0.001,0.0,7200.0,0.0,410.0,0.0
1513266485172265394,,640770,,1513266483,367770185,'',0.506145483078,0.512854779077,-0.0140997915282,0.0,0.001,0.0,7200.0,0.0,410.0,0.0
1513266485182292892,,640771,,1513266483,377770185,'',0.506145483078,0.512848543174,-0.0139830958954,0.0,0.001,0.0,7200.0,0.0,410.0,0.0
1513266485192114528,,640772,,1513266483,387770185,'',0.506145483078,0.51292418335,0.0122267117197,0.0,0.001,0.0,7200.0,0.0,410.0,0.0
1513266485202623861,,640773,,1513266483,397770185,'',0.506145483078,0.512909529194,-0.0152353827207,0.0,0.001,0.0,7200.0,0.0,410.0,0.0
1513266485212588499,,640774,,1513266483,407770185,'',0.506145483078,0.512847122463,-0.0139764059625,0.0,0.001,0.0,7200.0,0.0,410.0,0.0
1513266485222586020,,640775,,1513266483,417770185,'',0.506145483078,0.512749025504,0.0157468429542,0.0,0.001,0.0,7200.0,0.0,410.0,0.0
1513266485232506213,,640776,,1513266483,427770185,'',0.506145483078,0.512641782247,-0.00982333454498,0.0,0.001,0.0,7200.0,0.0,410.0,0.0
1513266485242606529,,640777,,1513266483,437770185,'',0.506145483078,0.512581165625,0.0191451883858,0.0,0.001,0.0,7200.0,0.0,410.0,0.0
1513266485252547224,,640778,,1513266483,447770185,'',0.506145483078,0.512504164355,-0.00703697103076,0.0,0.001,0.0,7200.0,0.0,410.0,0.0
1513266485262270497,,640779,,1513266483,457770185,'',0.506145483078,0.512463920534,-0.00622805270414,0.0,0.001,0.0,7200.0,0.0,410.0,0.0
1513266485272255348,,640780,,1513266483,467770185,'',0.506145483078,0.512432407744,-0.00558327535714,0.0,0.001,0.0,7200.0,0.0,410.0,0.0
1513266485282650220,,640781,,1513266483,477770185,'',0.506145483078,0.512478866618,-0.00651660187207,0.0,0.001,0.0,7200.0,0.0,410.0,0.0
1513266485292615266,,640782,,1513266483,487770185,'',0.506145483078,0.512495313722,-0.00684850141253,0.0,0.001,0.0,7200.0,0.0,410.0,0.0
1513266485302649978,,640783,,1513266483,497770185,'',0.506145483078,0.512530937172,-0.00757166819496,0.0,0.001,0.0,7200.0,0.0,410.0,0.0
1513266485312594449,,640784,,1513266483,507770185,'',0.506145483078,0.512514104467,-0.00723031186354,0.0,0.001,0.0,7200.0,0.0,410.0,0.0
1513266485322683419,,640785,,1513266483,517770185,'',0.506145483078,0.512502187493,0.0207438764684,0.0,0.001,0.0,7200.0,0.0,410.0,0.0
1513266485332508863,,640786,,1513266483,527770185,'',0.506145483078,0.512439483584,-0.00572910499145,0.0,0.001,0.0,7200.0,0.0,410.0,0.0
1513266485342476200,,640787,,1513266483,537770185,'',0.506145483078,0.512412050639,-0.0051724285697,0.0,0.001,0.0,7200.0,0.0,410.0,0.0
1513266485352483038,,640788,,1513266483,547770185,'',0.506145483078,0.512312285371,-0.0308888861167,0.0,0.001,0.0,7200.0,0.0,410.0,0.0
1513266485362489353,,640789,,1513266483,557770185,'',0.506145483078,0.512284030127,-0.00257721384567,0.0,0.001,0.0,7200.0,0.0,410.0,0.0
1513266485372225291,,640790,,1513266483,567770185,'',0.506145483078,0.512184345665,-0.000565922298988,0.0,0.001,0.0,7200.0,0.0,410.0,0.0
1513266485382681834,,640791,,1513266483,577770185,'',0.506145483078,0.512155476322,1.61809485837e-05,0.0,0.001,0.0,7200.0,0.0,410.0,0.0
1513266485392361049,,640792,,1513266483,587770185,'',0.506145483078,0.512155660999,1.32465162688e-05,0.0,0.001,0.0,7200.0,0.0,410.0,0.0
1513266485402284497,,640793,,1513266483,597770185,'',0.506145483078,0.512155812172,1.08444532292e-05,0.0,0.001,0.0,7200.0,0.0,410.0,0.0
1513266485412383533,,640794,,1513266483,607770185,'',0.506145483078,0.512178646005,-0.000455062765081,0.0,0.001,0.0,7200.0,0.0,410.0,0.0
1513266485422379267,,640795,,1513266483,617770185,'',0.506145483078,0.51219836229,-0.000857733149555,0.0,0.001,0.0,7200.0,0.0,410.0,0.0
1513266485432381329,,640796,,1513266483,627770185,'',0.506145483078,0.512216447056,-0.00122648598243,0.0,0.001,0.0,7200.0,0.0,410.0,0.0
1513266485442458663,,640797,,1513266483,637770185,'',0.506145483078,0.512205566903,-0.0010039034561,0.0,0.001,0.0,7200.0,0.0,410.0,0.0
1513266485452280862,,640798,,1513266483,647770185,'',0.506145483078,0.512219450417,-0.00128653442995,0.0,0.001,0.0,7200.0,0.0,410.0,0.0
1513266485462277409,,640799,,1513266483,657770185,'',0.506145483078,0.512260640421,0.025621367527,0.0,0.001,0.0,7200.0,0.0,410.0,0.0
1513266485472104042,,640800,,1513266483,667770185,'',0.506145483078,0.512241757135,-0.00173527723981,0.0,0.001,0.0,7200.0,0.0,410.0,0.0
1513266485482280414,,640801,,1513266483,677770185,'',0.506145483078,0.512176032079,-0.0281456573729,0.0,0.001,0.0,7200.0,0.0,410.0,0.0
1513266485492610018,,640802,,1513266483,687770185,'',0.506145483078,0.512147614403,0.00016872310758,0.0,0.001,0.0,7200.0,0.0,410.0,0.0
1513266485502647010,,640803,,1513266483,697770185,'',0.506145483078,0.512046997451,0.00219420276648,0.0,0.001,0.0,7200.0,0.0,410.0,0.0
1513266485512660313,,640804,,1513266483,707770185,'',0.506145483078,0.512039224899,0.00232106106528,0.0,0.001,0.0,7200.0,0.0,410.0,0.0
1513266485522640766,,640805,,1513266483,717770185,'',0.506145483078,0.512035277504,0.00240444290544,0.0,0.001,0.0,7200.0,0.0,410.0,0.0
1513266485532448115,,640806,,1513266483,727770185,'',0.506145483078,0.512010971318,0.00290345784208,0.0,0.001,0.0,7200.0,0.0,410.0,0.0
1513266485542535042,,640807,,1513266483,737770185,'',0.506145483078,0.512061534036,0.00188881311299,0.0,0.001,0.0,7200.0,0.0,410.0,0.0
1513266485552335477,,640808,,1513266483,747770185,'',0.506145483078,0.512078750428,0.0015463706915,0.0,0.001,0.0,7200.0,0.0,410.0,0.0
1513266485562225435,,640809,,1513266483,757770185,'',0.506145483078,0.512092882499,0.00126527691255,0.0,0.001,0.0,7200.0,0.0,410.0,0.0
1513266485572204715,,640810,,1513266483,767770185,'',0.506145483078,0.512104392553,0.00103633633449,0.0,0.001,0.0,7200.0,0.0,410.0,0.0
1513266485582716144,,640811,,1513266483,777770185,'',0.506145483078,0.512113850884,0.000848205517338,0.0,0.001,0.0,7200.0,0.0,410.0,0.0
1513266485592417486,,640812,,1513266483,787770185,'',0.506145483078,0.512121561899,0.00069482967935,0.0,0.001,0.0,7200.0,0.0,410.0,0.0
1513266485602294224,,640813,,1513266483,797770185,'',0.506145483078,0.512102463737,0.00108539979413,0.0,0.001,0.0,7200.0,0.0,410.0,0.0
1513266485612266569,,640814,,1513266483,807770185,'',0.506145483078,0.512063981305,0.00186366342444,0.0,0.001,0.0,7200.0,0.0,410.0,0.0
1513266485622133034,,640815,,1513266483,817770185,'',0.506145483078,0.511881329483,-0.0221901160874,0.0,0.001,0.0,7200.0,0.0,410.0,0.0
1513266485632640778,,640816,,1513266483,827770185,'',0.506145483078,0.511860711881,0.00597518225143,0.0,0.001,0.0,7200.0,0.0,410.0,0.0
1513266485642598745,,640817,,1513266483,837770185,'',0.506145483078,0.511835997614,-0.0212570808902,0.0,0.001,0.0,7200.0,0.0,410.0,0.0
1513266485652386849,,640818,,1513266483,847770185,'',0.506145483078,0.511845335406,0.00628999171527,0.0,0.001,0.0,7200.0,0.0,410.0,0.0
1513266485662427422,,640819,,1513266483,857770185,'',0.506145483078,0.511901769329,0.00514919678282,0.0,0.001,0.0,7200.0,0.0,410.0,0.0
1513266485672698377,,640820,,1513266483,867770185,'',0.506145483078,0.511947992874,0.00421480156963,0.0,0.001,0.0,7200.0,0.0,410.0,0.0
1513266485682647359,,640821,,1513266483,877770185,'',0.506145483078,0.5119857129,0.00345230249069,0.0,0.001,0.0,7200.0,0.0,410.0,0.0
1513266485692590264,,640822,,1513266483,887770185,'',0.506145483078,0.512016681688,0.0028262776517,0.0,0.001,0.0,7200.0,0.0,410.0,0.0
1513266485702546943,,640823,,1513266483,897770185,'',0.506145483078,0.512041991066,0.00231465611384,0.0,0.001,0.0,7200.0,0.0,410.0,0.0
1513266485712516576,,640824,,1513266483,907770185,'',0.506145483078,0.512011435724,0.00293347720791,0.0,0.001,0.0,7200.0,0.0,410.0,0.0
1513266485722326887,,640825,,1513266483,917770185,'',0.506145483078,0.511985365329,0.00346151453956,0.0,0.001,0.0,7200.0,0.0,410.0,0.0
1513266485732256072,,640826,,1513266483,927770185,'',0.506145483078,0.51181603856,-0.0208521293472,0.0,0.001,0.0,7200.0,0.0,410.0,0.0
1513266485742251027,,640827,,1513266483,937770185,'',0.506145483078,0.511457215546,-0.0413474114874,0.0,0.001,0.0,7200.0,0.0,410.0,0.0
1513266485752338389,,640828,,1513266483,947770185,'',0.506145483078,0.511110520831,-0.034345056012,0.0,0.001,0.0,7200.0,0.0,410.0,0.0
1513266485762625860,,640829,,1513266483,957770185,'',0.506145483078,0.510725665029,-0.0265627450815,0.0,0.001,0.0,7200.0,0.0,410.0,0.0
1513266485772603176,,640830,,1513266483,967770185,'',0.506145483078,0.510286966579,-0.0454389328082,0.0,0.001,0.0,7200.0,0.0,410.0,0.0
1513266485782575283,,640831,,1513266483,977770185,'',0.506145483078,0.509853803638,-0.0366936931011,0.0,0.001,0.0,7200.0,0.0,410.0,0.0
1513266485792518061,,640832,,1513266483,987770185,'',0.506145483078,0.509443932499,-0.0561537611345,0.0,0.001,0.0,7200.0,0.0,410.0,0.0
1513266485802498103,,640833,,1513266483,997770185,'',0.506145483078,0.509091918073,-0.0212946980587,0.0,0.001,0.0,7200.0,0.0,410.0,0.0
1513266485812429517,,640834,,1513266484,7770185,'',0.506145483078,0.508701586348,-0.041147178837,0.0,0.001,0.0,7200.0,0.0,410.0,0.0
1513266485822415858,,640835,,1513266484,17770185,'',0.506145483078,0.508382915859,-0.0347179501577,0.0,0.001,0.0,7200.0,0.0,410.0,0.0
1513266485832343882,,640836,,1513266484,27770185,'',0.506145483078,0.508094607612,-0.0288995158866,0.0,0.001,0.0,7200.0,0.0,410.0,0.0
1513266485842336251,,640837,,1513266484,37770185,'',0.506145483078,0.507860224985,-0.0241656551297,0.0,0.001,0.0,7200.0,0.0,410.0,0.0
1513266485852297829,,640838,,1513266484,47770185,'',0.506145483078,0.507618173725,-0.0192733204864,0.0,0.001,0.0,7200.0,0.0,410.0,0.0
1513266485862613241,,640839,,1513266484,57770185,'',0.506145483078,0.507447076401,-0.015815970617,0.0,0.001,0.0,7200.0,0.0,410.0,0.0
1513266485872435585,,640840,,1513266484,67770185,'',0.506145483078,0.507305385172,-0.0129534705001,0.0,0.001,0.0,7200.0,0.0,410.0,0.0
1513266485882479219,,640841,,1513266484,77770185,'',0.506145483078,0.507165792946,-0.010133380698,0.0,0.001,0.0,7200.0,0.0,410.0,0.0
1513266485892510089,,640842,,1513266484,87770185,'',0.506145483078,0.507074656225,-0.00829220100483,0.0,0.001,0.0,7200.0,0.0,410.0,0.0
1513266485902469088,,640843,,1513266484,97770185,'',0.506145483078,0.507000360545,-0.00679125061676,0.0,0.001,0.0,7200.0,0.0,410.0,0.0
1513266485912482895,,640844,,1513266484,107770185,'',0.506145483078,0.506912703738,-0.0327545374915,0.0,0.001,0.0,7200.0,0.0,410.0,0.0
1513266485922359735,,640845,,1513266484,117770185,'',0.506145483078,0.506843589506,-0.0036025774438,0.0,0.001,0.0,7200.0,0.0,410.0,0.0
1513266485932352222,,640846,,1513266484,127770185,'',0.506145483078,0.506811053492,-0.00294917586037,0.0,0.001,0.0,7200.0,0.0,410.0,0.0
1513266485942268436,,640847,,1513266484,137770185,'',0.506145483078,0.50676122614,-0.00194853091813,0.0,0.001,0.0,7200.0,0.0,410.0,0.0
1513266485952337412,,640848,,1513266484,147770185,'',0.506145483078,0.506717908661,-0.00107521266025,0.0,0.001,0.0,7200.0,0.0,410.0,0.0
1513266485962251748,,640849,,1513266484,157770185,'',0.506145483078,0.506685286759,-0.000424481518458,0.0,0.001,0.0,7200.0,0.0,410.0,0.0
1513266485972229609,,640850,,1513266484,167770185,'',0.506145483078,0.506633468273,0.000626119943651,0.0,0.001,0.0,7200.0,0.0,410.0,0.0
1513266485982246741,,640851,,1513266484,177770185,'',0.506145483078,0.506615262834,0.000976934267033,0.0,0.001,0.0,7200.0,0.0,410.0,0.0
1513266485992151724,,640852,,1513266484,187770185,'',0.506145483078,0.506624141619,0.00079968611264,0.0,0.001,0.0,7200.0,0.0,410.0,0.0
1513266486002650423,,640853,,1513266484,197770185,'',0.506145483078,0.506580374149,0.00166176056882,0.0,0.001,0.0,7200.0,0.0,410.0,0.0
1513266486012616116,,640854,,1513266484,207770185,'',0.506145483078,0.506542138683,-0.0253029282433,0.0,0.001,0.0,7200.0,0.0,410.0,0.0
1513266486022606553,,640855,,1513266484,217770185,'',0.506145483078,0.506512262295,-0.0246942113982,0.0,0.001,0.0,7200.0,0.0,410.0,0.0
1513266486032662889,,640856,,1513266484,227770185,'',0.506145483078,0.506390646474,-0.0222307604589,0.0,0.001,0.0,7200.0,0.0,410.0,0.0
1513266486042698583,,640857,,1513266484,237770185,'',0.506145483078,0.506290871048,-0.0201874617115,0.0,0.001,0.0,7200.0,0.0,410.0,0.0
1513266486052618940,,640858,,1513266484,247770185,'',0.506145483078,0.506179861201,-0.0179509244377,0.0,0.001,0.0,7200.0,0.0,410.0,0.0
1513266486062602904,,640859,,1513266484,257770185,'',0.506145483078,0.506071330718,-0.0157627067919,0.0,0.001,0.0,7200.0,0.0,410.0,0.0
1513266486072645894,,640860,,1513266484,267770185,'',0.506145483078,0.506006921725,0.0132810874139,0.0,0.001,0.0,7200.0,0.0,410.0,0.0
1513266486082504830,,640861,,1513266484,277770185,'',0.506145483078,0.505976509303,0.0139029604779,0.0,0.001,0.0,7200.0,0.0,410.0,0.0
1513266486092510501,,640862,,1513266484,287770185,'',0.506145483078,0.505879544936,0.0158582183361,0.0,0.001,0.0,7200.0,0.0,410.0,0.0
1513266486102421488,,640863,,1513266484,297770185,'',0.506145483078,0.505926242598,0.0149212815459,0.0,0.001,0.0,7200.0,0.0,410.0,0.0
1513266486112333623,,640864,,1513266484,307770185,'',0.506145483078,0.50583476502,-0.0109692761541,0.0,0.001,0.0,7200.0,0.0,410.0,0.0
1513266486122313642,,640865,,1513266484,317770185,'',0.506145483078,0.505784766219,-0.00996576344541,0.0,0.001,0.0,7200.0,0.0,410.0,0.0
1513266486132218452,,640866,,1513266484,327770185,'',0.506145483078,0.505742567751,-0.00911195393473,0.0,0.001,0.0,7200.0,0.0,410.0,0.0
1513266486142227422,,640867,,1513266484,337770185,'',0.506145483078,0.50566052038,-0.00745589968533,0.0,0.001,0.0,7200.0,0.0,410.0,0.0
1513266486152621626,,640868,,1513266484,347770185,'',0.506145483078,0.505593820309,-0.0061096172234,0.0,0.001,0.0,7200.0,0.0,410.0,0.0
1513266486162581250,,640869,,1513266484,357770185,'',0.506145483078,0.505538926391,-0.00500163161185,0.0,0.001,0.0,7200.0,0.0,410.0,0.0
1513266486172632940,,640870,,1513266484,367770185,'',0.506145483078,0.50549399625,-0.00409475609893,0.0,0.001,0.0,7200.0,0.0,410.0,0.0
1513266486182581545,,640871,,1513266484,377770185,'',0.506145483078,0.505457205532,-0.00335216770517,0.0,0.001,0.0,7200.0,0.0,410.0,0.0
1513266486192534299,,640872,,1513266484,387770185,'',0.506145483078,0.505427062216,-0.00274375130245,0.0,0.001,0.0,7200.0,0.0,410.0,0.0
1513266486202464080,,640873,,1513266484,397770185,'',0.506145483078,0.505402479062,-0.00224756187764,0.0,0.001,0.0,7200.0,0.0,410.0,0.0
1513266486212480887,,640874,,1513266484,407770185,'',0.506145483078,0.505406484468,-0.00232513037417,0.0,0.001,0.0,7200.0,0.0,410.0,0.0
1513266486222442320,,640875,,1513266484,417770185,'',0.506145483078,0.505385560502,-0.00190339288637,0.0,0.001,0.0,7200.0,0.0,410.0,0.0
1513266486232432412,,640876,,1513266484,427770185,'',0.506145483078,0.50539158745,-0.00202168101242,0.0,0.001,0.0,7200.0,0.0,410.0,0.0
1513266486242695421,,640877,,1513266484,437770185,'',0.506145483078,0.505350199991,-0.00118887477842,0.0,0.001,0.0,7200.0,0.0,410.0,0.0
1513266486252171243,,640878,,1513266484,447770185,'',0.506145483078,0.50531524728,-0.000479643045684,0.0,0.001,0.0,7200.0,0.0,410.0,0.0
1513266486262607832,,640879,,1513266484,457770185,'',0.506145483078,0.505284691315,0.000131663843681,0.0,0.001,0.0,7200.0,0.0,410.0,0.0
1513266486272584005,,640880,,1513266484,467770185,'',0.506145483078,0.505210242838,0.00163076354146,0.0,0.001,0.0,7200.0,0.0,410.0,0.0
1513266486282570304,,640881,,1513266484,477770185,'',0.506145483078,0.505174990373,0.00234024169366,0.0,0.001,0.0,7200.0,0.0,410.0,0.0
1513266486292468588,,640882,,1513266484,487770185,'',0.506145483078,0.505148196139,0.00288404262821,0.0,0.001,0.0,7200.0,0.0,410.0,0.0
1513266486302456179,,640883,,1513266484,497770185,'',0.506145483078,0.50514735272,0.00289624247604,0.0,0.001,0.0,7200.0,0.0,410.0,0.0
1513266486312344491,,640884,,1513266484,507770185,'',0.506145483078,0.505149717326,0.00285054661103,0.0,0.001,0.0,7200.0,0.0,410.0,0.0
1513266486322322090,,640885,,1513266484,517770185,'',0.506145483078,0.505175361958,0.00233359693733,0.0,0.001,0.0,7200.0,0.0,410.0,0.0
1513266486332284010,,640886,,1513266484,527770185,'',0.506145483078,0.505170589597,0.00242469173137,0.0,0.001,0.0,7200.0,0.0,410.0,0.0
1513266486342246604,,640887,,1513266484,537770185,'',0.506145483078,0.505165081837,-0.0252019691593,0.0,0.001,0.0,7200.0,0.0,410.0,0.0
1513266486352644820,,640888,,1513266484,547770185,'',0.506145483078,0.505113827395,0.00356886762248,0.0,0.001,0.0,7200.0,0.0,410.0,0.0
1513266486362586387,,640889,,1513266484,557770185,'',0.506145483078,0.505069856696,-0.0232828860222,0.0,0.001,0.0,7200.0,0.0,410.0,0.0
1513266486372853426,,640890,,1513266484,567770185,'',0.506145483078,0.505109900336,0.00364786272662,0.0,0.001,0.0,7200.0,0.0,410.0,0.0
1513266486382663746,,640891,,1513266484,577770185,'',0.506145483078,0.505095357791,0.003943851895,0.0,0.001,0.0,7200.0,0.0,410.0,0.0
1513266486392535446,,640892,,1513266484,587770185,'',0.506145483078,0.505105936747,0.00373973856494,0.0,0.001,0.0,7200.0,0.0,410.0,0.0
1513266486402630737,,640893,,1513266484,597770185,'',0.506145483078,0.505112255581,-0.024126162569,0.0,0.001,0.0,7200.0,0.0,410.0,0.0
1513266486412515325,,640894,,1513266484,607770185,'',0.506145483078,0.505119005068,0.00349163715169,0.0,0.001,0.0,7200.0,0.0,410.0,0.0
1513266486422456511,,640895,,1513266484,617770185,'',0.506145483078,0.505019948926,-0.0222542514446,0.0,0.001,0.0,7200.0,0.0,410.0,0.0
1513266486432559918,,640896,,1513266484,627770185,'',0.506145483078,0.504946611799,-0.0207698962992,0.0,0.001,0.0,7200.0,0.0,410.0,0.0
1513266486442232222,,640897,,1513266484,637770185,'',0.506145483078,0.504860939944,-0.0190418389962,0.0,0.001,0.0,7200.0,0.0,410.0,0.0
1513266486452127458,,640898,,1513266484,647770185,'',0.506145483078,0.504788932285,0.0101449802981,0.0,0.001,0.0,7200.0,0.0,410.0,0.0
1513266486462269831,,640899,,1513266484,657770185,'',0.506145483078,0.504680682731,-0.0154087514764,0.0,0.001,0.0,7200.0,0.0,410.0,0.0
1513266486472272071,,640900,,1513266484,667770185,'',0.506145483078,0.504688924534,0.0121686280868,0.0,0.001,0.0,7200.0,0.0,410.0,0.0
1513266486482251542,,640901,,1513266484,677770185,'',0.506145483078,0.50467460431,-0.0152827727303,0.0,0.001,0.0,7200.0,0.0,410.0,0.0
1513266486492174831,,640902,,1513266484,687770185,'',0.506145483078,0.504607989494,-0.0139248670539,0.0,0.001,0.0,7200.0,0.0,410.0,0.0
1513266486502598002,,640903,,1513266484,697770185,'',0.506145483078,0.504535917847,-0.0124654971322,0.0,0.001,0.0,7200.0,0.0,410.0,0.0
1513266486512356707,,640904,,1513266484,707770185,'',0.506145483078,0.504498437031,-0.0117098621095,0.0,0.001,0.0,7200.0,0.0,410.0,0.0
1513266486522197025,,640905,,1513266484,717770185,'',0.506145483078,0.504489770394,-0.0115305305048,0.0,0.001,0.0,7200.0,0.0,410.0,0.0
1513266486532171529,,640906,,1513266484,727770185,'',0.506145483078,0.504462063307,-0.0109544940247,0.0,0.001,0.0,7200.0,0.0,410.0,0.0
1513266486542375347,,640907,,1513266484,737770185,'',0.506145483078,0.504437329513,-0.0104540576939,0.0,0.001,0.0,7200.0,0.0,410.0,0.0
1513266486552240222,,640908,,1513266484,747770185,'',0.506145483078,0.504440184558,-0.0105289800643,0.0,0.001,0.0,7200.0,0.0,410.0,0.0
1513266486562212074,,640909,,1513266484,757770185,'',0.506145483078,0.504419950229,-0.0101221510541,0.0,0.001,0.0,7200.0,0.0,410.0,0.0
1513266486572223788,,640910,,1513266484,767770185,'',0.506145483078,0.50437880874,-0.0093000693132,0.0,0.001,0.0,7200.0,0.0,410.0,0.0
1513266486582578584,,640911,,1513266484,777770185,'',0.506145483078,0.504395300743,0.0181116408109,0.0,0.001,0.0,7200.0,0.0,410.0,0.0
1513266486592429672,,640912,,1513266484,787770185,'',0.506145483078,0.504407952205,-0.0098849732342,0.0,0.001,0.0,7200.0,0.0,410.0,0.0
1513266486602491948,,640913,,1513266484,797770185,'',0.506145483078,0.504394715585,-0.00962090466109,0.0,0.001,0.0,7200.0,0.0,410.0,0.0
1513266486612539770,,640914,,1513266484,807770185,'',0.506145483078,0.504333086056,-0.00837643044777,0.0,0.001,0.0,7200.0,0.0,410.0,0.0
1513266486622386058,,640915,,1513266484,817770185,'',0.506145483078,0.504308753636,-0.00788698340424,0.0,0.001,0.0,7200.0,0.0,410.0,0.0
1513266486632273495,,640916,,1513266484,827770185,'',0.506145483078,0.504260965356,-0.00691729185212,0.0,0.001,0.0,7200.0,0.0,410.0,0.0
1513266486642377561,,640917,,1513266484,837770185,'',0.506145483078,0.504247481467,-0.00663328650765,0.0,0.001,0.0,7200.0,0.0,410.0,0.0
1513266486652311122,,640918,,1513266484,847770185,'',0.506145483078,0.504262933063,-0.00696160428039,0.0,0.001,0.0,7200.0,0.0,410.0,0.0
1513266486662720064,,640919,,1513266484,857770185,'',0.506145483078,0.504223737054,-0.0061638803985,0.0,0.001,0.0,7200.0,0.0,410.0,0.0
1513266486672605146,,640920,,1513266484,867770185,'',0.506145483078,0.504215585732,-0.00600327486968,0.0,0.001,0.0,7200.0,0.0,410.0,0.0
1513266486682562512,,640921,,1513266484,877770185,'',0.506145483078,0.504187950421,-0.00544634682052,0.0,0.001,0.0,7200.0,0.0,410.0,0.0
1513266486692408087,,640922,,1513266484,887770185,'',0.506145483078,0.504166207916,0.0227305537213,0.0,0.001,0.0,7200.0,0.0,410.0,0.0
1513266486702565979,,640923,,1513266484,897770185,'',0.506145483078,0.504144581117,-0.00456833558735,0.0,0.001,0.0,7200.0,0.0,410.0,0.0
1513266486712407453,,640924,,1513266484,907770185,'',0.506145483078,0.504128296732,-0.00422957071472,0.0,0.001,0.0,7200.0,0.0,410.0,0.0
1513266486722445963,,640925,,1513266484,917770185,'',0.506145483078,0.504115427871,-0.00396689209122,0.0,0.001,0.0,7200.0,0.0,410.0,0.0
1513266486732328212,,640926,,1513266484,927770185,'',0.506145483078,0.504079630535,-0.00324743003148,0.0,0.001,0.0,7200.0,0.0,410.0,0.0
1513266486742214810,,640927,,1513266484,937770185,'',0.506145483078,0.504075695267,-0.00316455556855,0.0,0.001,0.0,7200.0,0.0,410.0,0.0
1513266486752688852,,640928,,1513266484,947770185,'',0.506145483078,0.504073419556,-0.00312598501222,0.0,0.001,0.0,7200.0,0.0,410.0,0.0
1513266486762712181,,640929,,1513266484,957770185,'',0.506145483078,0.504045238703,-0.0025589866707,0.0,0.001,0.0,7200.0,0.0,410.0,0.0
1513266486772676411,,640930,,1513266484,967770185,'',0.506145483078,0.504047285312,-0.00259828768661,0.0,0.001,0.0,7200.0,0.0,410.0,0.0
1513266486782516760,,640931,,1513266484,977770185,'',0.506145483078,0.504023850801,-0.00212712600971,0.0,0.001,0.0,7200.0,0.0,410.0,0.0
1513266486792471407,,640932,,1513266484,987770185,'',0.506145483078,0.503979942785,-0.00124806153198,0.0,0.001,0.0,7200.0,0.0,410.0,0.0
1513266486802475618,,640933,,1513266484,997770185,'',0.506145483078,0.503970334394,-0.00106327537939,0.0,0.001,0.0,7200.0,0.0,410.0,0.0
1513266486812500660,,640934,,1513266485,7770185,'',0.506145483078,0.503985125,-0.00135533266212,0.0,0.001,0.0,7200.0,0.0,410.0,0.0
1513266486822471990,,640935,,1513266485,17770185,'',0.506145483078,0.5039982347,-0.00162835297052,0.0,0.001,0.0,7200.0,0.0,410.0,0.0
1513266486832240522,,640936,,1513266485,27770185,'',0.506145483078,0.504007952434,-0.00182243480852,0.0,0.001,0.0,7200.0,0.0,410.0,0.0
1513266486842184930,,640937,,1513266485,37770185,'',0.506145483078,0.503991653176,-0.00149201968035,0.0,0.001,0.0,7200.0,0.0,410.0,0.0
1513266486852574895,,640938,,1513266485,47770185,'',0.506145483078,0.503978307031,-0.00122146943886,0.0,0.001,0.0,7200.0,0.0,410.0,0.0
1513266486862408223,,640939,,1513266485,57770185,'',0.506145483078,0.503914432122,6.42252808728e-05,0.0,0.001,0.0,7200.0,0.0,410.0,0.0
1513266486872333348,,640940,,1513266485,67770185,'',0.506145483078,0.503861747241,-0.026610222624,0.0,0.001,0.0,7200.0,0.0,410.0,0.0
1513266486882118050,,640941,,1513266485,77770185,'',0.506145483078,0.503871955602,0.000925078616384,0.0,0.001,0.0,7200.0,0.0,410.0,0.0
1513266486892642885,,640942,,1513266485,87770185,'',0.506145483078,0.503854607939,0.00127140961279,0.0,0.001,0.0,7200.0,0.0,410.0,0.0
1513266486902596784,,640943,,1513266485,97770185,'',0.506145483078,0.503839383123,0.00158084681891,0.0,0.001,0.0,7200.0,0.0,410.0,0.0
1513266486912718940,,640944,,1513266485,107770185,'',0.506145483078,0.503829434508,0.0017890182932,0.0,0.001,0.0,7200.0,0.0,410.0,0.0
1513266486922584545,,640945,,1513266485,117770185,'',0.506145483078,0.503845502688,0.00146463378445,0.0,0.001,0.0,7200.0,0.0,410.0,0.0
1513266486932468457,,640946,,1513266485,127770185,'',0.506145483078,0.503806249084,0.0022635663338,0.0,0.001,0.0,7200.0,0.0,410.0,0.0
1513266486942575900,,640947,,1513266485,137770185,'',0.506145483078,0.503800825124,0.00237833104057,0.0,0.001,0.0,7200.0,0.0,410.0,0.0
1513266486952577629,,640948,,1513266485,147770185,'',0.506145483078,0.503795301125,0.00248836391344,0.0,0.001,0.0,7200.0,0.0,410.0,0.0
1513266486962478862,,640949,,1513266485,157770185,'',0.506145483078,0.503817562198,0.00203709645894,0.0,0.001,0.0,7200.0,0.0,410.0,0.0
1513266486972508630,,640950,,1513266485,167770185,'',0.506145483078,0.503835755206,0.00166829517017,0.0,0.001,0.0,7200.0,0.0,410.0,0.0
1513266486982634704,,640951,,1513266485,177770185,'',0.506145483078,0.503850668965,0.00136596949785,0.0,0.001,0.0,7200.0,0.0,410.0,0.0
1513266486992649376,,640952,,1513266485,187770185,'',0.506145483078,0.503837128749,0.00163786072498,0.0,0.001,0.0,7200.0,0.0,410.0,0.0
1513266487002435146,,640953,,1513266485,197770185,'',0.506145483078,0.503828557167,0.00181120659339,0.0,0.001,0.0,7200.0,0.0,410.0,0.0
1513266487012388437,,640954,,1513266485,207770185,'',0.506145483078,0.503772688106,0.0029378806334,0.0,0.001,0.0,7200.0,0.0,410.0,0.0
1513266487022464391,,640955,,1513266485,217770185,'',0.506145483078,0.503772322667,0.00294562398324,0.0,0.001,0.0,7200.0,0.0,410.0,0.0
1513266487032653443,,640956,,1513266485,227770185,'',0.506145483078,0.503824787824,0.0296121677917,0.0,0.001,0.0,7200.0,0.0,410.0,0.0
1513266487042528858,,640957,,1513266485,237770185,'',0.506145483078,0.503841699996,0.00153303168183,0.0,0.001,0.0,7200.0,0.0,410.0,0.0
1513266487052494009,,640958,,1513266485,247770185,'',0.506145483078,0.503806182747,0.00223914608059,0.0,0.001,0.0,7200.0,0.0,410.0,0.0
1513266487062647589,,640959,,1513266485,257770185,'',0.506145483078,0.503826483089,0.00183282108126,0.0,0.001,0.0,7200.0,0.0,410.0,0.0
1513266487072273901,,640960,,1513266485,267770185,'',0.506145483078,0.503792547849,-0.0252121625174,0.0,0.001,0.0,7200.0,0.0,410.0,0.0
1513266487082305444,,640961,,1513266485,277770185,'',0.506145483078,0.503739107372,0.00362508572407,0.0,0.001,0.0,7200.0,0.0,410.0,0.0
1513266487092307766,,640962,,1513266485,287770185,'',0.506145483078,0.503722726941,0.00394991514573,0.0,0.001,0.0,7200.0,0.0,410.0,0.0
1513266487102682130,,640963,,1513266485,297770185,'',0.506145483078,0.503684937268,0.00470017226121,0.0,0.001,0.0,7200.0,0.0,410.0,0.0
1513266487112385096,,640964,,1513266485,307770185,'',0.506145483078,0.503678477639,0.00482896644162,0.0,0.001,0.0,7200.0,0.0,410.0,0.0
1513266487122334624,,640965,,1513266485,317770185,'',0.506145483078,0.503694976653,-0.0232370435818,0.0,0.001,0.0,7200.0,0.0,410.0,0.0
1513266487132821775,,640966,,1513266485,327770185,'',0.506145483078,0.503709882414,0.00420672552257,0.0,0.001,0.0,7200.0,0.0,410.0,0.0
1513266487142763309,,640967,,1513266485,337770185,'',0.506145483078,0.503699680492,0.00441564653605,0.0,0.001,0.0,7200.0,0.0,410.0,0.0
1513266487152600191,,640968,,1513266485,347770185,'',0.506145483078,0.503685090184,-0.0230298797957,0.0,0.001,0.0,7200.0,0.0,410.0,0.0
1513266487162643544,,640969,,1513266485,357770185,'',0.506145483078,0.503679927047,0.00481422676399,0.0,0.001,0.0,7200.0,0.0,410.0,0.0
1513266487172594242,,640970,,1513266485,367770185,'',0.506145483078,0.503672792626,0.00497630993409,0.0,0.001,0.0,7200.0,0.0,410.0,0.0
1513266487182697208,,640971,,1513266485,377770185,'',0.506145483078,0.503669213033,0.00504822946953,0.0,0.001,0.0,7200.0,0.0,410.0,0.0
1513266487192535122,,640972,,1513266485,387770185,'',0.506145483078,0.503634550048,-0.0219974970773,0.0,0.001,0.0,7200.0,0.0,410.0,0.0
1513266487202506675,,640973,,1513266485,397770185,'',0.506145483078,0.503663273967,0.00515918466869,0.0,0.001,0.0,7200.0,0.0,410.0,0.0
1513266487212675095,,640974,,1513266485,407770185,'',0.506145483078,0.503634787772,0.00571843211118,0.0,0.001,0.0,7200.0,0.0,410.0,0.0
1513266487222651038,,640975,,1513266485,417770185,'',0.506145483078,0.503612294523,0.00616732114663,0.0,0.001,0.0,7200.0,0.0,410.0,0.0
1513266487232618359,,640976,,1513266485,427770185,'',0.506145483078,0.503667744039,0.00504887086695,0.0,0.001,0.0,7200.0,0.0,410.0,0.0
1513266487242774430,,640977,,1513266485,437770185,'',0.506145483078,0.50361125934,0.00619599208741,0.0,0.001,0.0,7200.0,0.0,410.0,0.0
1513266487252749509,,640978,,1513266485,447770185,'',0.506145483078,0.503617926425,0.00606118315223,0.0,0.001,0.0,7200.0,0.0,410.0,0.0
1513266487262609934,,640979,,1513266485,457770185,'',0.506145483078,0.503570515512,-0.020722110581,0.0,0.001,0.0,7200.0,0.0,410.0,0.0
1513266487272595797,,640980,,1513266485,467770185,'',0.506145483078,0.503537647123,0.00769909062732,0.0,0.001,0.0,7200.0,0.0,410.0,0.0
1513266487282489387,,640981,,1513266485,477770185,'',0.506145483078,0.503557647722,0.00729279766116,0.0,0.001,0.0,7200.0,0.0,410.0,0.0
1513266487292338409,,640982,,1513266485,487770185,'',0.506145483078,0.503571971572,-0.0207363675524,0.0,0.001,0.0,7200.0,0.0,410.0,0.0
1513266487302466472,,640983,,1513266485,497770185,'',0.506145483078,0.503532790237,-0.0199340635268,0.0,0.001,0.0,7200.0,0.0,410.0,0.0
1513266487312488613,,640984,,1513266485,507770185,'',0.506145483078,0.503504098643,0.00838722984524,0.0,0.001,0.0,7200.0,0.0,410.0,0.0
1513266487322356509,,640985,,1513266485,517770185,'',0.506145483078,0.503480730819,0.00884150548764,0.0,0.001,0.0,7200.0,0.0,410.0,0.0
1513266487332287663,,640986,,1513266485,527770185,'',0.506145483078,0.503483130888,-0.0189410240701,0.0,0.001,0.0,7200.0,0.0,410.0,0.0
1513266487342392059,,640987,,1513266485,537770185,'',0.506145483078,0.503412650718,0.0102156922012,0.0,0.001,0.0,7200.0,0.0,410.0,0.0
1513266487352655142,,640988,,1513266485,547770185,'',0.506145483078,0.503455692297,0.00934443881952,0.0,0.001,0.0,7200.0,0.0,410.0,0.0
1513266487362605203,,640989,,1513266485,557770185,'',0.506145483078,0.503489066875,0.00867665750387,0.0,0.001,0.0,7200.0,0.0,410.0,0.0
1513266487372514682,,640990,,1513266485,567770185,'',0.506145483078,0.503517579283,0.00810643326491,0.0,0.001,0.0,7200.0,0.0,410.0,0.0
1513266487382629165,,640991,,1513266485,577770185,'',0.506145483078,0.503513985728,0.00818281081063,0.0,0.001,0.0,7200.0,0.0,410.0,0.0
1513266487392414828,,640992,,1513266485,587770185,'',0.506145483078,0.503461278181,-0.0184965535407,0.0,0.001,0.0,7200.0,0.0,410.0,0.0
1513266487402418273,,640993,,1513266485,597770185,'',0.506145483078,0.503519483153,0.00807218388949,0.0,0.001,0.0,7200.0,0.0,410.0,0.0
1513266487412359315,,640994,,1513266485,607770185,'',0.506145483078,0.503442935717,-0.0181127687139,0.0,0.001,0.0,7200.0,0.0,410.0,0.0
1513266487422418167,,640995,,1513266485,617770185,'',0.506145483078,0.503451406134,0.00944729494241,0.0,0.001,0.0,7200.0,0.0,410.0,0.0
1513266487432378044,,640996,,1513266485,627770185,'',0.506145483078,0.503435888195,-0.0179720716039,0.0,0.001,0.0,7200.0,0.0,410.0,0.0
1513266487442437586,,640997,,1513266485,637770185,'',0.506145483078,0.503473957037,0.00899145984441,0.0,0.001,0.0,7200.0,0.0,410.0,0.0
1513266487452471495,,640998,,1513266485,647770185,'',0.506145483078,0.503450953013,-0.0182837624934,0.0,0.001,0.0,7200.0,0.0,410.0,0.0
1513266487462370353,,640999,,1513266485,657770185,'',0.506145483078,0.503459244794,0.00928073276847,0.0,0.001,0.0,7200.0,0.0,410.0,0.0
1513266487472300669,,641000,,1513266485,667770185,'',0.506145483078,0.503442188957,-0.0181117900459,0.0,0.001,0.0,7200.0,0.0,410.0,0.0
1513266487482309886,,641001,,1513266485,677770185,'',0.506145483078,0.503453589474,0.00939206058434,0.0,0.001,0.0,7200.0,0.0,410.0,0.0
1513266487492662236,,641002,,1513266485,687770185,'',0.506145483078,0.503414566534,0.0101683896364,0.0,0.001,0.0,7200.0,0.0,410.0,0.0
1513266487502540361,,641003,,1513266485,697770185,'',0.506145483078,0.503384006343,0.0107763460179,0.0,0.001,0.0,7200.0,0.0,410.0,0.0
1513266487512748981,,641004,,1513266485,707770185,'',0.506145483078,0.503384429216,0.0107619181384,0.0,0.001,0.0,7200.0,0.0,410.0,0.0
1513266487522987858,,641005,,1513266485,717770185,'',0.506145483078,0.503381024172,0.010822485441,0.0,0.001,0.0,7200.0,0.0,410.0,0.0
1513266487532813194,,641006,,1513266485,727770185,'',0.506145483078,0.503428469247,0.00986878205782,0.0,0.001,0.0,7200.0,0.0,410.0,0.0
1513266487542829208,,641007,,1513266485,737770185,'',0.506145483078,0.503416889884,0.0101122600571,0.0,0.001,0.0,7200.0,0.0,410.0,0.0
1513266487552650613,,641008,,1513266485,747770185,'',0.506145483078,0.503408813561,-0.0174588182199,0.0,0.001,0.0,7200.0,0.0,410.0,0.0
1513266487562456267,,641009,,1513266485,757770185,'',0.506145483078,0.503423262762,-0.0177440684537,0.0,0.001,0.0,7200.0,0.0,410.0,0.0
1513266487572840967,,641010,,1513266485,767770185,'',0.506145483078,0.503435734429,-0.0179890447754,0.0,0.001,0.0,7200.0,0.0,410.0,0.0
1513266487582692746,,641011,,1513266485,777770185,'',0.506145483078,0.503399042447,-0.0172557604833,0.0,0.001,0.0,7200.0,0.0,410.0,0.0
1513266487592676363,,641012,,1513266485,787770185,'',0.506145483078,0.503440160176,-0.0180875513282,0.0,0.001,0.0,7200.0,0.0,410.0,0.0
1513266487603022718,,641013,,1513266485,797770185,'',0.506145483078,0.503449458238,-0.0182721292383,0.0,0.001,0.0,7200.0,0.0,410.0,0.0
1513266487612528238,,641014,,1513266485,807770185,'',0.506145483078,0.503388428109,0.0107051780829,0.0,0.001,0.0,7200.0,0.0,410.0,0.0
1513266487622409144,,641015,,1513266485,817770185,'',0.506145483078,0.503361798922,0.0112430969496,0.0,0.001,0.0,7200.0,0.0,410.0,0.0
1513266487632620781,,641016,,1513266485,827770185,'',0.506145483078,0.503333339776,-0.0159254556053,0.0,0.001,0.0,7200.0,0.0,410.0,0.0
1513266487642610998,,641017,,1513266485,837770185,'',0.506145483078,0.503269728366,0.0130989065317,0.0,0.001,0.0,7200.0,0.0,410.0,0.0
1513266487652465582,,641018,,1513266485,847770185,'',0.506145483078,0.50333482563,-0.0159605924023,0.0,0.001,0.0,7200.0,0.0,410.0,0.0
1513266487662467970,,641019,,1513266485,857770185,'',0.506145483078,0.503360657125,-0.0164803417111,0.0,0.001,0.0,7200.0,0.0,410.0,0.0
1513266487672398099,,641020,,1513266485,867770185,'',0.506145483078,0.503339843639,0.0116959466615,0.0,0.001,0.0,7200.0,0.0,410.0,0.0
1513266487682399704,,641021,,1513266485,877770185,'',0.506145483078,0.503345092721,-0.016151673572,0.0,0.001,0.0,7200.0,0.0,410.0,0.0
1513266487692381270,,641022,,1513266485,887770185,'',0.506145483078,0.503323570004,-0.0157194890677,0.0,0.001,0.0,7200.0,0.0,410.0,0.0
1513266487703040230,,641023,,1513266485,897770185,'',0.506145483078,0.503358630948,0.0113047991337,0.0,0.001,0.0,7200.0,0.0,410.0,0.0
1513266487712380236,,641024,,1513266485,907770185,'',0.506145483078,0.503308748734,-0.0154163628019,0.0,0.001,0.0,7200.0,0.0,410.0,0.0
1513266487722435418,,641025,,1513266485,917770185,'',0.506145483078,0.503245059391,-0.0141295613247,0.0,0.001,0.0,7200.0,0.0,410.0,0.0
1513266487732466900,,641026,,1513266485,927770185,'',0.506145483078,0.50324338999,0.0136630467391,0.0,0.001,0.0,7200.0,0.0,410.0,0.0
1513266487742401029,,641027,,1513266485,937770185,'',0.506145483078,0.503211419259,-0.0134346846744,0.0,0.001,0.0,7200.0,0.0,410.0,0.0
1513266487752351501,,641028,,1513266485,947770185,'',0.506145483078,0.50323769307,-0.0139739747359,0.0,0.001,0.0,7200.0,0.0,410.0,0.0
1513266487762317501,,641029,,1513266485,957770185,'',0.506145483078,0.503312042724,0.0122540723813,0.0,0.001,0.0,7200.0,0.0,410.0,0.0
1513266487772222747,,641030,,1513266485,967770185,'',0.506145483078,0.503247799526,-0.0141817431475,0.0,0.001,0.0,7200.0,0.0,410.0,0.0
1513266487782498446,,641031,,1513266485,977770185,'',0.506145483078,0.503293806354,0.0126267819231,0.0,0.001,0.0,7200.0,0.0,410.0,0.0
1513266487792410918,,641032,,1513266485,987770185,'',0.506145483078,0.503209122396,-0.0134084194194,0.0,0.001,0.0,7200.0,0.0,410.0,0.0
1513266487802337416,,641033,,1513266485,997770185,'',0.506145483078,0.503162197271,-0.0124644363556,0.0,0.001,0.0,7200.0,0.0,410.0,0.0
1513266487812349927,,641034,,1513266486,7770185,'',0.506145483078,0.503174644594,-0.0127089688265,0.0,0.001,0.0,7200.0,0.0,410.0,0.0
1513266487822349067,,641035,,1513266486,17770185,'',0.506145483078,0.503111435484,-0.0114485664932,0.0,0.001,0.0,7200.0,0.0,410.0,0.0
1513266487832472751,,641036,,1513266486,27770185,'',0.506145483078,0.503108320568,-0.0113906591743,0.0,0.001,0.0,7200.0,0.0,410.0,0.0
