rosbagTimestamp,header,seq,stamp,secs,nsecs,frame_id,set_point,process_value,process_value_dot,error,time_step,command,p,i,d,i_clamp
1513265970224829869,,589278,,1513265968,430063616,'',0.663225115758,0.710135711407,0.0225496861155,0.0469105956495,0.001,-347.069651836,7200.0,0.0,410.0,0.0
1513265970234816194,,589279,,1513265968,440063616,'',0.663225115758,0.710136629369,-0.00520902406146,0.0469115136111,0.001,-335.668646221,7200.0,0.0,410.0,0.0
1513265970244698672,,589280,,1513265968,450063616,'',0.663225115758,0.710239853248,-0.00729779510112,0.0470147374904,0.001,-335.493983099,7200.0,0.0,410.0,0.0
1513265970254789022,,589281,,1513265968,460063616,'',0.663225115758,0.710174431934,-0.00597433216189,0.0469493161762,0.001,-335.581573034,7200.0,0.0,410.0,0.0
1513265970264486951,,589282,,1513265968,470063616,'',0.663225115758,0.710120720416,-0.00488775655318,0.0468956046577,0.001,-335.625173639,7200.0,0.0,410.0,0.0
1513265970274411274,,589283,,1513265968,480063616,'',0.663225115758,0.710124540813,-0.00496422847792,0.0468994250556,0.001,-335.672087549,7200.0,0.0,410.0,0.0
1513265970284852638,,589284,,1513265968,490063616,'',0.663225115758,0.71012912001,-0.00505496584097,0.0469040042524,0.001,-335.631772871,7200.0,0.0,410.0,0.0
1513265970294787705,,589285,,1513265968,500063616,'',0.663225115758,0.710083759793,-0.00413782801904,0.0468586440354,0.001,-335.682026211,7200.0,0.0,410.0,0.0
1513265970304660905,,589286,,1513265968,510063616,'',0.663225115758,0.710069576948,-0.00384536636067,0.0468444611903,0.001,-335.729645544,7200.0,0.0,410.0,0.0
1513265970314689568,,589287,,1513265968,520063616,'',0.663225115758,0.710086213737,-0.00418313181209,0.0468610979796,0.001,-335.684677693,7200.0,0.0,410.0,0.0
1513265970324646064,,589288,,1513265968,530063616,'',0.663225115758,0.710123196647,-0.00492540739014,0.0468980808888,0.001,-335.632005719,7200.0,0.0,410.0,0.0
1513265970334647299,,589289,,1513265968,540063616,'',0.663225115758,0.710179465746,0.0216886407689,0.0469543499883,0.001,-347.011134496,7200.0,0.0,410.0,0.0
1513265970344575363,,589290,,1513265968,550063616,'',0.663225115758,0.710151427297,-0.00548763154479,0.0469263115393,0.001,-335.654848922,7200.0,0.0,410.0,0.0
1513265970354624429,,589291,,1513265968,560063616,'',0.663225115758,0.710178839186,-0.006042014724,0.0469537234286,0.001,-335.579679602,7200.0,0.0,410.0,0.0
1513265970364569959,,589292,,1513265968,570063616,'',0.663225115758,0.710151280378,-0.00548721209292,0.0469261646202,0.001,-335.604507548,7200.0,0.0,410.0,0.0
1513265970374602464,,589293,,1513265968,580063616,'',0.663225115758,0.710153946901,-0.00554208317238,0.0469288311431,0.001,-335.645375807,7200.0,0.0,410.0,0.0
1513265970384526454,,589294,,1513265968,590063616,'',0.663225115758,0.710153252734,-0.00552370014455,0.0469281369766,0.001,-335.600662248,7200.0,0.0,410.0,0.0
1513265970394916106,,589295,,1513265968,600063616,'',0.663225115758,0.710126456835,-0.0049825450499,0.0469013410769,0.001,-335.632749826,7200.0,0.0,410.0,0.0
1513265970404752974,,589296,,1513265968,610063616,'',0.663225115758,0.710155828474,-0.00558898247383,0.0469307127161,0.001,-335.641365633,7200.0,0.0,410.0,0.0
1513265970414698280,,589297,,1513265968,620063616,'',0.663225115758,0.710105649463,-0.00457550180035,0.0468805337054,0.001,-335.651900782,7200.0,0.0,410.0,0.0
1513265970424651566,,589298,,1513265968,630063616,'',0.663225115758,0.710087839041,-0.00422012816746,0.0468627232833,0.001,-335.670845192,7200.0,0.0,410.0,0.0
1513265970434500267,,589299,,1513265968,640063616,'',0.663225115758,0.710049985666,-0.00345480341511,0.0468248699081,0.001,-335.722511118,7200.0,0.0,410.0,0.0
1513265970444793109,,589300,,1513265968,650063616,'',0.663225115758,0.710019053083,-0.00282940419604,0.0467939373252,0.001,-335.75036324,7200.0,0.0,410.0,0.0
1513265970454813671,,589301,,1513265968,660063616,'',0.663225115758,0.710088183095,-0.00423072967149,0.0468630673375,0.001,-335.680878933,7200.0,0.0,410.0,0.0
1513265970464737297,,589302,,1513265968,670063616,'',0.663225115758,0.710125174124,0.022769685112,0.046900058366,0.001,-347.081683127,7200.0,0.0,410.0,0.0
1513265970474635648,,589303,,1513265968,680063616,'',0.663225115758,0.710103463766,-0.00452524237781,0.0468783480085,0.001,-335.661986735,7200.0,0.0,410.0,0.0
1513265970484559005,,589304,,1513265968,690063616,'',0.663225115758,0.710141724132,0.0224363288779,0.0469166083744,0.001,-347.042850658,7200.0,0.0,410.0,0.0
1513265970494563624,,589305,,1513265968,700063616,'',0.663225115758,0.710219353468,-0.00687160442055,0.0469942377106,0.001,-335.526376257,7200.0,0.0,410.0,0.0
1513265970504547124,,589306,,1513265968,710063616,'',0.663225115758,0.710182852888,-0.00612920325467,0.0469577371305,0.001,-335.559519961,7200.0,0.0,410.0,0.0
1513265970514636376,,589307,,1513265968,720063616,'',0.663225115758,0.710202212083,-0.00651940054356,0.0469770963254,0.001,-335.550796169,7200.0,0.0,410.0,0.0
1513265970524608681,,589308,,1513265968,730063616,'',0.663225115758,0.710169914671,-0.00587482271297,0.0469447989135,0.001,-335.576716262,7200.0,0.0,410.0,0.0
1513265970534470640,,589309,,1513265968,740063616,'',0.663225115758,0.710165023594,-0.00578196322602,0.0469399078365,0.001,-335.594847733,7200.0,0.0,410.0,0.0
1513265970544789497,,589310,,1513265968,750063616,'',0.663225115758,0.710135900389,-0.00519809223322,0.0469107846315,0.001,-335.620163334,7200.0,0.0,410.0,0.0
1513265970554680053,,589311,,1513265968,760063616,'',0.663225115758,0.710187280551,-0.00622861561271,0.0469621647934,0.001,-335.564879608,7200.0,0.0,410.0,0.0
1513265970564501669,,589312,,1513265968,770063616,'',0.663225115758,0.710157747322,-0.00563759944241,0.0469326315637,0.001,-335.588385394,7200.0,0.0,410.0,0.0
1513265970574860097,,589313,,1513265968,780063616,'',0.663225115758,0.710179997212,-0.00608577477646,0.046954881454,0.001,-335.558001415,7200.0,0.0,410.0,0.0
1513265970584815778,,589314,,1513265968,790063616,'',0.663225115758,0.710175418018,-0.00598792695832,0.0469503022604,0.001,-335.57811643,7200.0,0.0,410.0,0.0
1513265970594745696,,589315,,1513265968,800063616,'',0.663225115758,0.710121642778,-0.00490121533423,0.0468965270202,0.001,-335.633767501,7200.0,0.0,410.0,0.0
1513265970604666667,,589316,,1513265968,810063616,'',0.663225115758,0.710127160628,-0.00501583664019,0.0469020448699,0.001,-335.626026914,7200.0,0.0,410.0,0.0
1513265970614632680,,589317,,1513265968,820063616,'',0.663225115758,0.710104983784,-0.00456674907744,0.0468798680261,0.001,-335.658512734,7200.0,0.0,410.0,0.0
1513265970624703392,,589318,,1513265968,830063616,'',0.663225115758,0.710115954117,-0.00478693442805,0.0468908383587,0.001,-335.62840534,7200.0,0.0,410.0,0.0
1513265970634582261,,589319,,1513265968,840063616,'',0.663225115758,0.710096846304,-0.00440029866039,0.0468717305462,0.001,-335.698792883,7200.0,0.0,410.0,0.0
1513265970644550795,,589320,,1513265968,850063616,'',0.663225115758,0.710057359452,-0.00360229979664,0.0468322436942,0.001,-335.70843,7200.0,0.0,410.0,0.0
1513265970654587774,,589321,,1513265968,860063616,'',0.663225115758,0.710049680224,-0.00344866546788,0.0468245644664,0.001,-335.715699166,7200.0,0.0,410.0,0.0
1513265970664668472,,589322,,1513265968,870063616,'',0.663225115758,0.710018799603,-0.00282431002144,0.046793683845,0.001,-335.751764717,7200.0,0.0,410.0,0.0
1513265970674841529,,589323,,1513265968,880063616,'',0.663225115758,0.710043388028,-0.00332753017758,0.0468182722703,0.001,-335.726752982,7200.0,0.0,410.0,0.0
1513265970684831099,,589324,,1513265968,890063616,'',0.663225115758,0.710134424092,0.0225756044145,0.0469093083341,0.001,-347.051054662,7200.0,0.0,410.0,0.0
1513265970694835224,,589325,,1513265968,900063616,'',0.663225115758,0.710112988018,-0.00472409249505,0.0468878722607,0.001,-335.688823695,7200.0,0.0,410.0,0.0
1513265970704707932,,589326,,1513265968,910063616,'',0.663225115758,0.710093690696,-0.00433554278095,0.0468685749385,0.001,-335.667171824,7200.0,0.0,410.0,0.0
1513265970714554329,,589327,,1513265968,920063616,'',0.663225115758,0.710054769416,-0.00354915207314,0.0468296536583,0.001,-335.718698655,7200.0,0.0,410.0,0.0
1513265970724559018,,589328,,1513265968,930063616,'',0.663225115758,0.710098838858,-0.00443624598148,0.0468737231003,0.001,-335.711328739,7200.0,0.0,410.0,0.0
1513265970734421576,,589329,,1513265968,940063616,'',0.663225115758,0.710158661512,0.0220903566238,0.0469335457546,0.001,-346.997641396,7200.0,0.0,410.0,0.0
1513265970744434681,,589330,,1513265968,950063616,'',0.663225115758,0.710134207364,-0.00515549538328,0.0469090916063,0.001,-335.622066007,7200.0,0.0,410.0,0.0
1513265970754934998,,589331,,1513265968,960063616,'',0.663225115758,0.710141078178,-0.00529254662101,0.0469159624206,0.001,-335.621137392,7200.0,0.0,410.0,0.0
1513265970764814117,,589332,,1513265968,970063616,'',0.663225115758,0.710191846231,0.0214227268781,0.0469667304728,0.001,-346.994982332,7200.0,0.0,410.0,0.0
1513265970774792615,,589333,,1513265968,980063616,'',0.663225115758,0.710231675535,-0.0071295105383,0.0470065597774,0.001,-335.524483492,7200.0,0.0,410.0,0.0
1513265970784837605,,589334,,1513265968,990063616,'',0.663225115758,0.710167719367,-0.00583620439365,0.0469426036091,0.001,-335.58152569,7200.0,0.0,410.0,0.0
1513265970794786973,,589335,,1513265969,63616,'',0.663225115758,0.710162408554,-0.00572870726042,0.0469372927964,0.001,-335.660989591,7200.0,0.0,410.0,0.0
1513265970804806084,,589336,,1513265969,10063616,'',0.663225115758,0.710186360456,0.0215210469763,0.0469612446984,0.001,-347.030957037,7200.0,0.0,410.0,0.0
1513265970814748406,,589337,,1513265969,20063616,'',0.663225115758,0.7102259189,-0.00701838783694,0.0470008031425,0.001,-335.518306036,7200.0,0.0,410.0,0.0
1513265970824541517,,589338,,1513265969,30063616,'',0.663225115758,0.710210556752,-0.00671481675147,0.0469854409944,0.001,-335.541551339,7200.0,0.0,410.0,0.0
1513265970834562984,,589339,,1513265969,40063616,'',0.663225115758,0.710204134498,0.0211589718709,0.0469790187403,0.001,-346.753257444,7200.0,0.0,410.0,0.0
1513265970844388193,,589340,,1513265969,50063616,'',0.663225115758,0.710195096957,-0.00640210209888,0.0469699811993,0.001,-335.553006143,7200.0,0.0,410.0,0.0
1513265970854823063,,589341,,1513265969,60063616,'',0.663225115758,0.710239964937,0.0204369965477,0.0470148491792,0.001,-346.916292238,7200.0,0.0,410.0,0.0
1513265970864857306,,589342,,1513265969,70063616,'',0.663225115758,0.710224537791,-0.00699335621723,0.0469994220331,0.001,-335.517104746,7200.0,0.0,410.0,0.0
1513265970874812217,,589343,,1513265969,80063616,'',0.663225115758,0.710161893951,-0.00572510359489,0.0469367781935,0.001,-335.595463521,7200.0,0.0,410.0,0.0
1513265970884925331,,589344,,1513265969,90063616,'',0.663225115758,0.710183485001,0.0215760541929,0.0469583692432,0.001,-346.953285435,7200.0,0.0,410.0,0.0
1513265970894772036,,589345,,1513265969,100063616,'',0.663225115758,0.710252455046,-0.00754736589706,0.0470273392886,0.001,-335.48247307,7200.0,0.0,410.0,0.0
1513265970904817659,,589346,,1513265969,110063616,'',0.663225115758,0.710184754212,-0.00617876087671,0.0469596384546,0.001,-335.567698626,7200.0,0.0,410.0,0.0
1513265970914651862,,589347,,1513265969,120063616,'',0.663225115758,0.710225838905,-0.00700999228404,0.0470007231467,0.001,-335.579938385,7200.0,0.0,410.0,0.0
1513265970924579889,,589348,,1513265969,130063616,'',0.663225115758,0.710211470002,-0.00672366993036,0.0469863542438,0.001,-335.53788778,7200.0,0.0,410.0,0.0
1513265970934477237,,589349,,1513265969,140063616,'',0.663225115758,0.710248336438,0.0202693700167,0.0470232206805,0.001,-346.931046206,7200.0,0.0,410.0,0.0
1513265970944586505,,589350,,1513265969,150063616,'',0.663225115758,0.710208108331,-0.00665621435518,0.0469829925735,0.001,-335.530482206,7200.0,0.0,410.0,0.0
1513265970954926192,,589351,,1513265969,160063616,'',0.663225115758,0.710226819838,0.0207125603522,0.0470017040799,0.001,-346.939036362,7200.0,0.0,410.0,0.0
1513265970964862572,,589352,,1513265969,170063616,'',0.663225115758,0.710163888406,-0.00575569244688,0.0469387726484,0.001,-335.640959224,7200.0,0.0,410.0,0.0
1513265970974781716,,589353,,1513265969,180063616,'',0.663225115758,0.710211597147,-0.00671845764039,0.0469864813894,0.001,-335.529787171,7200.0,0.0,410.0,0.0
1513265970984820380,,589354,,1513265969,190063616,'',0.663225115758,0.710230123443,0.0206418008675,0.0470050076849,0.001,-346.93535003,7200.0,0.0,410.0,0.0
1513265970994720772,,589355,,1513265969,200063616,'',0.663225115758,0.71021842914,0.0208779005517,0.0469933133824,0.001,-346.929841408,7200.0,0.0,410.0,0.0
1513265971004713293,,589356,,1513265969,210063616,'',0.663225115758,0.710231816077,-0.00712760834202,0.0470067003189,0.001,-335.579895998,7200.0,0.0,410.0,0.0
1513265971014918028,,589357,,1513265969,220063616,'',0.663225115758,0.710167973499,-0.00583745793434,0.0469428577413,0.001,-335.62963018,7200.0,0.0,410.0,0.0
1513265971024836535,,589358,,1513265969,230063616,'',0.663225115758,0.710140826551,-0.00528840842499,0.0469157107928,0.001,-335.616715361,7200.0,0.0,410.0,0.0
1513265971034791246,,589359,,1513265969,240063616,'',0.663225115758,0.710119559917,-0.0048596455924,0.046894444159,0.001,-335.644282675,7200.0,0.0,410.0,0.0
1513265971044889490,,589360,,1513265969,250063616,'',0.663225115758,0.71012545672,-0.00497845569419,0.0469003409621,0.001,-335.627477593,7200.0,0.0,410.0,0.0
1513265971054800286,,589361,,1513265969,260063616,'',0.663225115758,0.710129479331,-0.00505086952052,0.0469043635734,0.001,-335.62937717,7200.0,0.0,410.0,0.0
1513265971064664659,,589362,,1513265969,270063616,'',0.663225115758,0.710084168292,-0.00413678217136,0.0468590525342,0.001,-335.67830142,7200.0,0.0,410.0,0.0
1513265971074616384,,589363,,1513265969,280063616,'',0.663225115758,0.710046970205,-0.00338636238131,0.0468218544474,0.001,-335.752242669,7200.0,0.0,410.0,0.0
1513265971084492265,,589364,,1513265969,290063616,'',0.663225115758,0.710114157676,0.0230004824616,0.046889041918,0.001,-347.044320991,7200.0,0.0,410.0,0.0
1513265971094411827,,589365,,1513265969,300063616,'',0.663225115758,0.710094449583,-0.00433733265581,0.0468693338255,0.001,-335.661162745,7200.0,0.0,410.0,0.0
1513265971104817299,,589366,,1513265969,310063616,'',0.663225115758,0.710107494219,0.0231304914165,0.0468823784614,0.001,-346.891839756,7200.0,0.0,410.0,0.0
1513265971114710317,,589367,,1513265969,320063616,'',0.663225115758,0.710168546101,0.0218964483273,0.0469434303427,0.001,-346.813887804,7200.0,0.0,410.0,0.0
1513265971124732423,,589368,,1513265969,330063616,'',0.663225115758,0.710140326747,-0.00527347904684,0.0469152109896,0.001,-335.606330537,7200.0,0.0,410.0,0.0
1513265971134750072,,589369,,1513265969,340063616,'',0.663225115758,0.710115722636,-0.00478290570325,0.0468906068782,0.001,-335.683893297,7200.0,0.0,410.0,0.0
1513265971144647023,,589370,,1513265969,350063616,'',0.663225115758,0.710120211414,-0.00487401172603,0.0468950956558,0.001,-335.63587133,7200.0,0.0,410.0,0.0
1513265971154549497,,589371,,1513265969,360063616,'',0.663225115758,0.71012395542,-0.0049542731448,0.0468988396622,0.001,-335.629680172,7200.0,0.0,410.0,0.0
1513265971164417555,,589372,,1513265969,370063616,'',0.663225115758,0.710181576165,0.0216224914504,0.0469564604076,0.001,-346.970302269,7200.0,0.0,410.0,0.0
1513265971174485771,,589373,,1513265969,380063616,'',0.663225115758,0.71019915676,-0.00647070182878,0.0469740410025,0.001,-335.610985018,7200.0,0.0,410.0,0.0
1513265971184449155,,589374,,1513265969,390063616,'',0.663225115758,0.710141099557,-0.00529690477913,0.046915983799,0.001,-335.607526366,7200.0,0.0,410.0,0.0
1513265971194859773,,589375,,1513265969,400063616,'',0.663225115758,0.710193742153,0.0213845975911,0.046968626395,0.001,-346.923167874,7200.0,0.0,410.0,0.0
1513265971204736353,,589376,,1513265969,410063616,'',0.663225115758,0.710184353257,-0.00615803851783,0.0469592374989,0.001,-335.565710546,7200.0,0.0,410.0,0.0
1513265971214601681,,589377,,1513265969,420063616,'',0.663225115758,0.71015385006,-0.00553754116534,0.0469287343026,0.001,-335.645468609,7200.0,0.0,410.0,0.0
1513265971224421177,,589378,,1513265969,430063616,'',0.663225115758,0.710131456096,0.0226529433186,0.0469063403384,0.001,-347.092395907,7200.0,0.0,410.0,0.0
1513265971234965702,,589379,,1513265969,440063616,'',0.663225115758,0.710137504101,0.0225265164637,0.0469123883431,0.001,-346.956439651,7200.0,0.0,410.0,0.0
1513265971244983154,,589380,,1513265969,450063616,'',0.663225115758,0.710165988687,0.0219600395502,0.0469408729292,0.001,-347.026414837,7200.0,0.0,410.0,0.0
1513265971254901312,,589381,,1513265969,460063616,'',0.663225115758,0.710160591407,-0.0056865574259,0.0469354756493,0.001,-335.622730795,7200.0,0.0,410.0,0.0
1513265971264850743,,589382,,1513265969,470063616,'',0.663225115758,0.710179771023,-0.00606887659893,0.0469546552648,0.001,-335.570860199,7200.0,0.0,410.0,0.0
1513265971274809030,,589383,,1513265969,480063616,'',0.663225115758,0.709944085305,-0.0290424678782,0.0467189695476,0.001,-324.452393103,7200.0,0.0,410.0,0.0
1513265971284697049,,589384,,1513265969,490063616,'',0.663225115758,0.709302625626,-0.0715591663777,0.046077509868,0.001,-302.268925888,7200.0,0.0,410.0,0.0
1513265971294718900,,589385,,1513265969,500063616,'',0.663225115758,0.708153620554,-0.13156746873,0.0449285047964,0.001,-269.376445995,7200.0,0.0,410.0,0.0
1513265971304485490,,589386,,1513265969,510063616,'',0.663225115758,0.706592665031,-0.155506776249,0.043367549273,0.001,-248.168299924,7200.0,0.0,410.0,0.0
1513265971314467730,,589387,,1513265969,520063616,'',0.663225115758,0.704768397542,-0.174129989568,0.0415432817839,0.001,-227.497556008,7200.0,0.0,410.0,0.0
1513265971324831264,,589388,,1513265969,530063616,'',0.663225115758,0.703024942257,-0.166650138362,0.0397998264992,0.001,-217.807837539,7200.0,0.0,410.0,0.0
1513265971334752282,,589389,,1513265969,540063616,'',0.663225115758,0.701554848384,-0.136953217716,0.0383297326257,0.001,-219.488159149,7200.0,0.0,410.0,0.0
1513265971344734467,,589390,,1513265969,550063616,'',0.663225115758,0.700327805044,-0.112165800593,0.0371026892864,0.001,-221.895699614,7200.0,0.0,410.0,0.0
1513265971354906066,,589391,,1513265969,560063616,'',0.663225115758,0.699344106804,-0.0922891289094,0.0361189910463,0.001,-221.981182695,7200.0,0.0,410.0,0.0
1513265971364505451,,589392,,1513265969,570063616,'',0.663225115758,0.698515780377,-0.0755570803212,0.0352906646196,0.001,-222.987493533,7200.0,0.0,410.0,0.0
1513265971374587697,,589393,,1513265969,580063616,'',0.663225115758,0.69753486507,-0.111222235453,0.0343097493123,0.001,-201.201566563,7200.0,0.0,410.0,0.0
1513265971384650355,,589394,,1513265969,590063616,'',0.663225115758,0.696432896044,-0.116700283377,0.0332077802862,0.001,-192.358593461,7200.0,0.0,410.0,0.0
1513265971394838323,,589395,,1513265969,600063616,'',0.663225115758,0.695256322176,-0.120684320129,0.0320312064179,0.001,-180.701231859,7200.0,0.0,410.0,0.0
1513265971404897556,,589396,,1513265969,610063616,'',0.663225115758,0.693996254661,-0.122964395486,0.0307711389031,0.001,-170.890666598,7200.0,0.0,410.0,0.0
1513265971414804564,,589397,,1513265969,620063616,'',0.663225115758,0.692865618733,-0.10012252526,0.0296405029754,0.001,-172.279928576,7200.0,0.0,410.0,0.0
1513265971424810740,,589398,,1513265969,630063616,'',0.663225115758,0.691887523091,-0.108111318613,0.0286624073335,0.001,-160.891860317,7200.0,0.0,410.0,0.0
1513265971434760306,,589399,,1513265969,640063616,'',0.663225115758,0.69114186434,-0.0653091487567,0.027916748582,0.001,-174.124303219,7200.0,0.0,410.0,0.0
1513265971444584143,,589400,,1513265969,650063616,'',0.663225115758,0.69042581769,-0.0785801092701,0.0272007019326,0.001,-163.404180598,7200.0,0.0,410.0,0.0
1513265971454515260,,589401,,1513265969,660063616,'',0.663225115758,0.689719027676,-0.0643044898364,0.0264939119185,0.001,-164.268310575,7200.0,0.0,410.0,0.0
1513265971464856696,,589402,,1513265969,670063616,'',0.663225115758,0.688788983,-0.100987291215,0.0255638672418,0.001,-142.455058285,7200.0,0.0,410.0,0.0
1513265971474832440,,589403,,1513265969,680063616,'',0.663225115758,0.687703172823,-0.106783252335,0.0244780570652,0.001,-132.193375605,7200.0,0.0,410.0,0.0
1513265971484778379,,589404,,1513265969,690063616,'',0.663225115758,0.686541680037,-0.111061205143,0.0233165642795,0.001,-121.979628004,7200.0,0.0,410.0,0.0
1513265971494673446,,589405,,1513265969,700063616,'',0.663225115758,0.6854183761,-0.116102417047,0.022193260342,0.001,-112.001204304,7200.0,0.0,410.0,0.0
1513265971504537938,,589406,,1513265969,710063616,'',0.663225115758,0.684374365498,-0.0950120265435,0.0211492497399,0.001,-113.991498691,7200.0,0.0,410.0,0.0
1513265971514560111,,589407,,1513265969,720063616,'',0.663225115758,0.683319511825,-0.101436351632,0.0200943960672,0.001,-103.005070425,7200.0,0.0,410.0,0.0
1513265971524393047,,589408,,1513265969,730063616,'',0.663225115758,0.682431844116,-0.0835020840721,0.019206728358,0.001,-103.948432227,7200.0,0.0,410.0,0.0
1513265971534467713,,589409,,1513265969,740063616,'',0.663225115758,0.681502687581,-0.0924703104448,0.0182775718229,0.001,-93.497454894,7200.0,0.0,410.0,0.0
1513265971544626546,,589410,,1513265969,750063616,'',0.663225115758,0.680368834334,-0.12503666919,0.0171437185766,0.001,-73.0982533786,7200.0,0.0,410.0,0.0
1513265971554396343,,589411,,1513265969,760063616,'',0.663225115758,0.679088524314,-0.154645864978,0.0158634085557,0.001,-51.9592738305,7200.0,0.0,410.0,0.0
1513265971564820936,,589412,,1513265969,770063616,'',0.663225115758,0.677569426222,-0.151699399229,0.0143443104639,0.001,-40.7566317622,7200.0,0.0,410.0,0.0
1513265971574790494,,589413,,1513265969,780063616,'',0.663225115758,0.675853040684,-0.172509558838,0.0126279249259,0.001,-19.8250388632,7200.0,0.0,410.0,0.0
1513265971584737500,,589414,,1513265969,790063616,'',0.663225115758,0.674104625166,-0.164927019753,0.0108795094085,0.001,-11.810512482,7200.0,0.0,410.0,0.0
1513265971594596308,,589415,,1513265969,800063616,'',0.663225115758,0.672417917749,-0.186334454556,0.00919280199133,0.001,10.6035280247,7200.0,0.0,410.0,0.0
1513265971604457037,,589416,,1513265969,810063616,'',0.663225115758,0.670916396709,-0.156005933484,0.00769128095073,0.001,8.77445516688,7200.0,0.0,410.0,0.0
1513265971614419599,,589417,,1513265969,820063616,'',0.663225115758,0.669561903185,-0.128634259136,0.00633678742683,0.001,7.32465151373,7200.0,0.0,410.0,0.0
1513265971624376643,,589418,,1513265969,830063616,'',0.663225115758,0.668258445132,-0.130048877568,0.00503332937444,0.001,16.2101506865,7200.0,0.0,410.0,0.0
1513265971634788984,,589419,,1513265969,840063616,'',0.663225115758,0.667114022812,-0.106926197455,0.00388890705388,0.001,14.9876793237,7200.0,0.0,410.0,0.0
1513265971644813588,,589420,,1513265969,850063616,'',0.663225115758,0.665974321702,-0.111640113184,0.00274920594391,0.001,26.301292921,7200.0,0.0,410.0,0.0
1513265971654711477,,589421,,1513265969,860063616,'',0.663225115758,0.664818965711,-0.116037084871,0.00159384995358,0.001,36.2297865271,7200.0,0.0,410.0,0.0
1513265971664682220,,589422,,1513265969,870063616,'',0.663225115758,0.66367286843,-0.120622469046,0.000447752672145,0.001,46.6289395398,7200.0,0.0,410.0,0.0
1513265971674673697,,589423,,1513265969,880063616,'',0.663225115758,0.66261526934,-0.0992500411823,0.0,0.001,0.0,7200.0,0.0,410.0,0.0
1513265971684594365,,589424,,1513265969,890063616,'',0.663225115758,0.661651438944,-0.0797900950025,0.0,0.001,0.0,7200.0,0.0,410.0,0.0
1513265971694562033,,589425,,1513265969,900063616,'',0.663225115758,0.66088516076,-0.0643077835473,0.0,0.001,0.0,7200.0,0.0,410.0,0.0
1513265971704471651,,589426,,1513265969,910063616,'',0.663225115758,0.660153925486,-0.0772786121369,0.0,0.001,0.0,7200.0,0.0,410.0,0.0
1513265971714371319,,589427,,1513265969,920063616,'',0.663225115758,0.659537733784,-0.0648158831077,0.0,0.001,0.0,7200.0,0.0,410.0,0.0
1513265971724815889,,589428,,1513265969,930063616,'',0.663225115758,0.658981746032,-0.0535781743004,0.0,0.001,0.0,7200.0,0.0,410.0,0.0
1513265971734821334,,589429,,1513265969,940063616,'',0.663225115758,0.658524845078,-0.0443488252617,0.0,0.001,0.0,7200.0,0.0,410.0,0.0
1513265971744666446,,589430,,1513265969,950063616,'',0.663225115758,0.658178369573,-0.00961727214333,0.0,0.001,0.0,7200.0,0.0,410.0,0.0
1513265971754613417,,589431,,1513265969,960063616,'',0.663225115758,0.657842911453,-0.0305807269631,0.0,0.001,0.0,7200.0,0.0,410.0,0.0
1513265971764483971,,589432,,1513265969,970063616,'',0.663225115758,0.657673993223,0.00057103825231,0.0,0.001,0.0,7200.0,0.0,410.0,0.0
1513265971774950563,,589433,,1513265969,980063616,'',0.663225115758,0.657503512766,-0.0237186571213,0.0,0.001,0.0,7200.0,0.0,410.0,0.0
1513265971784877473,,589434,,1513265969,990063616,'',0.663225115758,0.65733790961,-0.0203836951144,0.0,0.001,0.0,7200.0,0.0,410.0,0.0
1513265971794977449,,589435,,1513265970,63616,'',0.663225115758,0.657180717115,-0.0172008777019,0.0,0.001,0.0,7200.0,0.0,410.0,0.0
1513265971804538581,,589436,,1513265970,10063616,'',0.663225115758,0.65705364791,0.0131053263628,0.0,0.001,0.0,7200.0,0.0,410.0,0.0
1513265971814372979,,589437,,1513265970,20063616,'',0.663225115758,0.656922252132,-0.0119801202642,0.0,0.001,0.0,7200.0,0.0,410.0,0.0
1513265971824854331,,589438,,1513265970,30063616,'',0.663225115758,0.656890093157,0.0164095592607,0.0,0.001,0.0,7200.0,0.0,410.0,0.0
1513265971834771880,,589439,,1513265970,40063616,'',0.663225115758,0.656788380831,-0.00927600515084,0.0,0.001,0.0,7200.0,0.0,410.0,0.0
1513265971844686749,,589440,,1513265970,50063616,'',0.663225115758,0.656705098013,-0.0075934658222,0.0,0.001,0.0,7200.0,0.0,410.0,0.0
1513265971854606577,,589441,,1513265970,60063616,'',0.663225115758,0.656612269937,-0.00572439068105,0.0,0.001,0.0,7200.0,0.0,410.0,0.0
1513265971864532243,,589442,,1513265970,70063616,'',0.663225115758,0.656384398364,-0.0288619307695,0.0,0.001,0.0,7200.0,0.0,410.0,0.0
1513265971874534026,,589443,,1513265970,80063616,'',0.663225115758,0.656074894984,-0.0226139008584,0.0,0.001,0.0,7200.0,0.0,410.0,0.0
1513265971884829338,,589444,,1513265970,90063616,'',0.663225115758,0.655793462928,-0.044677945385,0.0,0.001,0.0,7200.0,0.0,410.0,0.0
1513265971894824009,,589445,,1513265970,100063616,'',0.663225115758,0.655521288726,-0.011429709893,0.0,0.001,0.0,7200.0,0.0,410.0,0.0
1513265971904748395,,589446,,1513265970,110063616,'',0.663225115758,0.655418775689,-0.00935638439939,0.0,0.001,0.0,7200.0,0.0,410.0,0.0
1513265971914688245,,589447,,1513265970,120063616,'',0.663225115758,0.655334879973,-0.00765959409133,0.0,0.001,0.0,7200.0,0.0,410.0,0.0
1513265971924911095,,589448,,1513265970,130063616,'',0.663225115758,0.655291453543,-0.00675823610797,0.0,0.001,0.0,7200.0,0.0,410.0,0.0
1513265971934802821,,589449,,1513265970,140063616,'',0.663225115758,0.655230626893,-0.00553220067915,0.0,0.001,0.0,7200.0,0.0,410.0,0.0
1513265971944679444,,589450,,1513265970,150063616,'',0.663225115758,0.655303016006,-0.00699766442252,0.0,0.001,0.0,7200.0,0.0,410.0,0.0
1513265971954558657,,589451,,1513265970,160063616,'',0.663225115758,0.655341752892,0.0199574538465,0.0,0.001,0.0,7200.0,0.0,410.0,0.0
1513265971964566592,,589452,,1513265970,170063616,'',0.663225115758,0.655345491439,-0.00786480251771,0.0,0.001,0.0,7200.0,0.0,410.0,0.0
1513265971974521984,,589453,,1513265970,180063616,'',0.663225115758,0.655325820562,-0.0074683057765,0.0,0.001,0.0,7200.0,0.0,410.0,0.0
1513265971984531772,,589454,,1513265970,190063616,'',0.663225115758,0.655307464718,-0.00709281593865,0.0,0.001,0.0,7200.0,0.0,410.0,0.0
1513265971994468490,,589455,,1513265970,200063616,'',0.663225115758,0.655269538853,-0.00632636171008,0.0,0.001,0.0,7200.0,0.0,410.0,0.0
1513265972004808207,,589456,,1513265970,210063616,'',0.663225115758,0.655237829456,-0.00568743567024,0.0,0.001,0.0,7200.0,0.0,410.0,0.0
1513265972014850478,,589457,,1513265970,220063616,'',0.663225115758,0.655209635596,-0.00511141691891,0.0,0.001,0.0,7200.0,0.0,410.0,0.0
1513265972024842328,,589458,,1513265970,230063616,'',0.663225115758,0.655163733964,-0.00418579306645,0.0,0.001,0.0,7200.0,0.0,410.0,0.0
1513265972034796368,,589459,,1513265970,240063616,'',0.663225115758,0.655151862866,-0.00394111548468,0.0,0.001,0.0,7200.0,0.0,410.0,0.0
1513265972044762926,,589460,,1513265970,250063616,'',0.663225115758,0.655116368255,-0.00322631305827,0.0,0.001,0.0,7200.0,0.0,410.0,0.0
1513265972054636221,,589461,,1513265970,260063616,'',0.663225115758,0.655087366994,-0.00264227587158,0.0,0.001,0.0,7200.0,0.0,410.0,0.0
1513265972064529911,,589462,,1513265970,270063616,'',0.663225115758,0.655063566453,-0.00216297254919,0.0,0.001,0.0,7200.0,0.0,410.0,0.0
1513265972074414089,,589463,,1513265970,280063616,'',0.663225115758,0.655044093342,-0.00177081649031,0.0,0.001,0.0,7200.0,0.0,410.0,0.0
1513265972084942630,,589464,,1513265970,290063616,'',0.663225115758,0.655077919864,-0.00244197610271,0.0,0.001,0.0,7200.0,0.0,410.0,0.0
1513265972094869641,,589465,,1513265970,300063616,'',0.663225115758,0.655055836815,-0.0019990829974,0.0,0.001,0.0,7200.0,0.0,410.0,0.0
1513265972104714086,,589466,,1513265970,310063616,'',0.663225115758,0.655037758895,-0.00163651594545,0.0,0.001,0.0,7200.0,0.0,410.0,0.0
1513265972114659978,,589467,,1513265970,320063616,'',0.663225115758,0.655022959707,-0.00133970647702,0.0,0.001,0.0,7200.0,0.0,410.0,0.0
1513265972124578510,,589468,,1513265970,330063616,'',0.663225115758,0.655010846685,-0.00109677019498,0.0,0.001,0.0,7200.0,0.0,410.0,0.0
1513265972134505010,,589469,,1513265970,340063616,'',0.663225115758,0.654974080454,-0.000362207604921,0.0,0.001,0.0,7200.0,0.0,410.0,0.0
1513265972144428020,,589470,,1513265970,350063616,'',0.663225115758,0.654970830974,-0.000296526524493,0.0,0.001,0.0,7200.0,0.0,410.0,0.0
1513265972154922491,,589471,,1513265970,360063616,'',0.663225115758,0.654968170281,-0.000242746492373,0.0,0.001,0.0,7200.0,0.0,410.0,0.0
1513265972164890657,,589472,,1513265970,370063616,'',0.663225115758,0.654965992712,-0.000198731737478,0.0,0.001,0.0,7200.0,0.0,410.0,0.0
1513265972174888404,,589473,,1513265970,380063616,'',0.663225115758,0.654990950985,-0.000697974255393,0.0,0.001,0.0,7200.0,0.0,410.0,0.0
1513265972184821143,,589474,,1513265970,390063616,'',0.663225115758,0.655034533647,0.0261527367111,0.0,0.001,0.0,7200.0,0.0,410.0,0.0
1513265972194673185,,589475,,1513265970,400063616,'',0.663225115758,0.655020320636,-0.00129932873769,0.0,0.001,0.0,7200.0,0.0,410.0,0.0
1513265972204540790,,589476,,1513265970,410063616,'',0.663225115758,0.655008685169,-0.00106369408278,0.0,0.001,0.0,7200.0,0.0,410.0,0.0
1513265972214544751,,589477,,1513265970,420063616,'',0.663225115758,0.655025356157,-0.00140022294924,0.0,0.001,0.0,7200.0,0.0,410.0,0.0
1513265972224846783,,589478,,1513265970,430063616,'',0.663225115758,0.655012807493,-0.00114629102126,0.0,0.001,0.0,7200.0,0.0,410.0,0.0
1513265972234801875,,589479,,1513265970,440063616,'',0.663225115758,0.655002534543,-0.000938409919753,0.0,0.001,0.0,7200.0,0.0,410.0,0.0
1513265972244813655,,589480,,1513265970,450063616,'',0.663225115758,0.654994120802,-0.000768151354818,0.0,0.001,0.0,7200.0,0.0,410.0,0.0
1513265972254725177,,589481,,1513265970,460063616,'',0.663225115758,0.654960435816,-9.44273177864e-05,0.0,0.001,0.0,7200.0,0.0,410.0,0.0
1513265972264638282,,589482,,1513265970,470063616,'',0.663225115758,0.654680203227,-0.0499068740216,0.0,0.001,0.0,7200.0,0.0,410.0,0.0
1513265972274533311,,589483,,1513265970,480063616,'',0.663225115758,0.653950388423,-0.0906181002115,0.0,0.001,0.0,7200.0,0.0,410.0,0.0
1513265972284878729,,589484,,1513265970,490063616,'',0.663225115758,0.652787696151,-0.122603345116,0.0,0.001,0.0,7200.0,0.0,410.0,0.0
1513265972294878770,,589485,,1513265970,500063616,'',0.663225115758,0.651912485071,-0.0771934231843,0.0,0.001,0.0,7200.0,0.0,410.0,0.0
1513265972304985120,,589486,,1513265970,510063616,'',0.663225115758,0.65137292734,-0.0385558283312,0.0,0.001,0.0,7200.0,0.0,410.0,0.0
1513265972314858200,,589487,,1513265970,520063616,'',0.663225115758,0.651182205246,-0.00696437638401,0.0,0.001,0.0,7200.0,0.0,410.0,0.0
1513265972324924936,,589488,,1513265970,530063616,'',0.663225115758,0.651249523997,0.0194156618713,0.0,0.001,0.0,7200.0,0.0,410.0,0.0
1513265972334564402,,589489,,1513265970,540063616,'',0.663225115758,0.651554041902,0.0410003620127,0.0,0.001,0.0,7200.0,0.0,410.0,0.0
1513265972344563260,,589490,,1513265970,550063616,'',0.663225115758,0.652023934758,0.0315106203156,0.0,0.001,0.0,7200.0,0.0,410.0,0.0
1513265972354962528,,589491,,1513265970,560063616,'',0.663225115758,0.652332389721,0.0252705916999,0.0,0.001,0.0,7200.0,0.0,410.0,0.0
1513265972364846587,,589492,,1513265970,570063616,'',0.663225115758,0.652636355021,0.0191281354208,0.0,0.001,0.0,7200.0,0.0,410.0,0.0
1513265972374843224,,589493,,1513265970,580063616,'',0.663225115758,0.652858482839,0.0146452542313,0.0,0.001,0.0,7200.0,0.0,410.0,0.0
1513265972384821388,,589494,,1513265970,590063616,'',0.663225115758,0.652966439601,0.0124635786612,0.0,0.001,0.0,7200.0,0.0,410.0,0.0
1513265972394812174,,589495,,1513265970,600063616,'',0.663225115758,0.65305191165,0.0107400431472,0.0,0.001,0.0,7200.0,0.0,410.0,0.0
1513265972404640540,,589496,,1513265970,610063616,'',0.663225115758,0.653018483832,-0.0163256196447,0.0,0.001,0.0,7200.0,0.0,410.0,0.0
1513265972414589674,,589497,,1513265970,620063616,'',0.663225115758,0.652692067625,-0.0374718884114,0.0,0.001,0.0,7200.0,0.0,410.0,0.0
1513265972424537378,,589498,,1513265970,630063616,'',0.663225115758,0.651924296466,-0.105179950418,0.0,0.001,0.0,7200.0,0.0,410.0,0.0
1513265972434844998,,589499,,1513265970,640063616,'',0.663225115758,0.651006141492,-0.0866272778463,0.0,0.001,0.0,7200.0,0.0,410.0,0.0
1513265972444755075,,589500,,1513265970,650063616,'',0.663225115758,0.65038346823,-0.0463052914035,0.0,0.001,0.0,7200.0,0.0,410.0,0.0
1513265972454707028,,589501,,1513265970,660063616,'',0.663225115758,0.649944717964,-0.0374450718316,0.0,0.001,0.0,7200.0,0.0,410.0,0.0
1513265972464623648,,589502,,1513265970,670063616,'',0.663225115758,0.649857539329,-0.00794589350609,0.0,0.001,0.0,7200.0,0.0,410.0,0.0
1513265972474669105,,589503,,1513265970,680063616,'',0.663225115758,0.649866034012,0.0196274366442,0.0,0.001,0.0,7200.0,0.0,410.0,0.0
1513265972484641125,,589504,,1513265970,690063616,'',0.663225115758,0.650018404148,0.0165473788638,0.0,0.001,0.0,7200.0,0.0,410.0,0.0
1513265972494709684,,589505,,1513265970,700063616,'',0.663225115758,0.65019203926,0.0130344271033,0.0,0.001,0.0,7200.0,0.0,410.0,0.0
1513265972504471642,,589506,,1513265970,710063616,'',0.663225115758,0.650284662959,0.0111574189241,0.0,0.001,0.0,7200.0,0.0,410.0,0.0
1513265972514959992,,589507,,1513265970,720063616,'',0.663225115758,0.650384855566,0.00913326868665,0.0,0.001,0.0,7200.0,0.0,410.0,0.0
1513265972524774642,,589508,,1513265970,730063616,'',0.663225115758,0.650366665935,0.00951802734639,0.0,0.001,0.0,7200.0,0.0,410.0,0.0
1513265972534772895,,589509,,1513265970,740063616,'',0.663225115758,0.650425873929,0.00832567783672,0.0,0.001,0.0,7200.0,0.0,410.0,0.0
1513265972544782597,,589510,,1513265970,750063616,'',0.663225115758,0.650401362238,0.00881136367862,0.0,0.001,0.0,7200.0,0.0,410.0,0.0
1513265972554473532,,589511,,1513265970,760063616,'',0.663225115758,0.650480184584,0.00721685390435,0.0,0.001,0.0,7200.0,0.0,410.0,0.0
1513265972564470573,,589512,,1513265970,770063616,'',0.663225115758,0.650544875524,0.00590821059867,0.0,0.001,0.0,7200.0,0.0,410.0,0.0
1513265972574496007,,589513,,1513265970,780063616,'',0.663225115758,0.650518501415,-0.0213009965533,0.0,0.001,0.0,7200.0,0.0,410.0,0.0
1513265972584794100,,589514,,1513265970,790063616,'',0.663225115758,0.650424918692,0.0083249320643,0.0,0.001,0.0,7200.0,0.0,410.0,0.0
1513265972594752544,,589515,,1513265970,800063616,'',0.663225115758,0.650250675759,-0.0158947341431,0.0,0.001,0.0,7200.0,0.0,410.0,0.0
1513265972604766051,,589516,,1513265970,810063616,'',0.663225115758,0.650108026877,-0.0130130137593,0.0,0.001,0.0,7200.0,0.0,410.0,0.0
1513265972614757907,,589517,,1513265970,820063616,'',0.663225115758,0.649967680686,-0.0101787142638,0.0,0.001,0.0,7200.0,0.0,410.0,0.0
1513265972624725530,,589518,,1513265970,830063616,'',0.663225115758,0.649901109795,-0.00883225464618,0.0,0.001,0.0,7200.0,0.0,410.0,0.0
1513265972634648535,,589519,,1513265970,840063616,'',0.663225115758,0.649820868834,-0.00720660568232,0.0,0.001,0.0,7200.0,0.0,410.0,0.0
1513265972644637739,,589520,,1513265970,850063616,'',0.663225115758,0.64980717314,-0.00693100650143,0.0,0.001,0.0,7200.0,0.0,410.0,0.0
1513265972654585465,,589521,,1513265970,860063616,'',0.663225115758,0.649744914003,-0.00567406106666,0.0,0.001,0.0,7200.0,0.0,410.0,0.0
1513265972664984229,,589522,,1513265970,870063616,'',0.663225115758,0.649718573611,0.0225999780856,0.0,0.001,0.0,7200.0,0.0,410.0,0.0
1513265972674884789,,589523,,1513265970,880063616,'',0.663225115758,0.649623120566,-0.00321389301674,0.0,0.001,0.0,7200.0,0.0,410.0,0.0
1513265972684651371,,589524,,1513265970,890063616,'',0.663225115758,0.649543213263,-0.00162034656715,0.0,0.001,0.0,7200.0,0.0,410.0,0.0
1513265972694580803,,589525,,1513265970,900063616,'',0.663225115758,0.649280874998,-0.0240617474382,0.0,0.001,0.0,7200.0,0.0,410.0,0.0
1513265972704650238,,589526,,1513265970,910063616,'',0.663225115758,0.649190791177,0.0055048427057,0.0,0.001,0.0,7200.0,0.0,410.0,0.0
1513265972714525399,,589527,,1513265970,920063616,'',0.663225115758,0.649043253566,0.00849094725831,0.0,0.001,0.0,7200.0,0.0,410.0,0.0
1513265972724831871,,589528,,1513265970,930063616,'',0.663225115758,0.649043949111,-0.0192675173869,0.0,0.001,0.0,7200.0,0.0,410.0,0.0
1513265972734875735,,589529,,1513265970,940063616,'',0.663225115758,0.649094842751,0.00744524348123,0.0,0.001,0.0,7200.0,0.0,410.0,0.0
1513265972744951460,,589530,,1513265970,950063616,'',0.663225115758,0.64913852961,0.00656897446284,0.0,0.001,0.0,7200.0,0.0,410.0,0.0
1513265972754724723,,589531,,1513265970,960063616,'',0.663225115758,0.649042936629,-0.0192447876559,0.0,0.001,0.0,7200.0,0.0,410.0,0.0
1513265972764820156,,589532,,1513265970,970063616,'',0.663225115758,0.648870279082,-0.015755025352,0.0,0.001,0.0,7200.0,0.0,410.0,0.0
1513265972774562883,,589533,,1513265970,980063616,'',0.663225115758,0.648705083233,-0.0124205125361,0.0,0.001,0.0,7200.0,0.0,410.0,0.0
1513265972784582503,,589534,,1513265970,990063616,'',0.663225115758,0.648173119682,-0.140368720093,0.0,0.001,0.0,7200.0,0.0,410.0,0.0
1513265972794575723,,589535,,1513265971,63616,'',0.663225115758,0.645213485415,-0.441167574153,0.0,0.001,0.0,7200.0,0.0,410.0,0.0
1513265972804417679,,589536,,1513265971,10063616,'',0.663225115758,0.640643929893,-0.432064747342,-0.0225811858645,0.001,339.886765452,7200.0,0.0,410.0,0.0
1513265972814908133,,589537,,1513265971,20063616,'',0.663225115758,0.636788369272,-0.354176398387,-0.0264367464859,0.001,336.279003991,7200.0,0.0,410.0,0.0
1513265972824936846,,589538,,1513265971,30063616,'',0.663225115758,0.633341538163,-0.312281975556,-0.0298835775952,0.001,343.711244353,7200.0,0.0,410.0,0.0
1513265972834881261,,589539,,1513265971,40063616,'',0.663225115758,0.630537362228,-0.255633458708,-0.0326877535299,0.001,338.260526396,7200.0,0.0,410.0,0.0
1513265972844727455,,589540,,1513265971,50063616,'',0.663225115758,0.628192941974,-0.208277310627,-0.035032173784,0.001,338.233527016,7200.0,0.0,410.0,0.0
1513265972854752407,,589541,,1513265971,60063616,'',0.663225115758,0.626323616119,-0.170513315283,-0.036901499639,0.001,336.082325606,7200.0,0.0,410.0,0.0
1513265972864910982,,589542,,1513265971,70063616,'',0.663225115758,0.625102530864,-0.0626345958769,-0.0381225848938,0.001,299.743572407,7200.0,0.0,410.0,0.0
1513265972875002771,,589543,,1513265971,80063616,'',0.663225115758,0.624849812275,0.0256829501214,-0.0383753034833,0.001,265.949276552,7200.0,0.0,410.0,0.0
1513265972884535663,,589544,,1513265971,90063616,'',0.663225115758,0.625419339946,0.0973914604906,-0.0378057758119,0.001,231.991347637,7200.0,0.0,410.0,0.0
1513265972894577057,,589545,,1513265971,100063616,'',0.663225115758,0.62683002494,0.152112110659,-0.0363950908179,0.001,199.426043737,7200.0,0.0,410.0,0.0
1513265972904947694,,589546,,1513265971,110063616,'',0.663225115758,0.628730565046,0.196931029496,-0.0344945507123,0.001,167.058579584,7200.0,0.0,410.0,0.0
1513265972914887355,,589547,,1513265971,120063616,'',0.663225115758,0.630956011292,0.235195394828,-0.032269104466,0.001,136.193793623,7200.0,0.0,410.0,0.0
1513265972924926832,,589548,,1513265971,130063616,'',0.663225115758,0.633403471919,0.268958591496,-0.0298216438389,0.001,104.102772097,7200.0,0.0,410.0,0.0
1513265972934815657,,589549,,1513265971,140063616,'',0.663225115758,0.636121938862,0.269516933448,-0.0271031768956,0.001,86.6412475711,7200.0,0.0,410.0,0.0
1513265972944810489,,589550,,1513265971,150063616,'',0.663225115758,0.638869550337,0.269492214778,-0.0243555654206,0.001,66.7639567301,7200.0,0.0,410.0,0.0
1513265972954624043,,589551,,1513265971,160063616,'',0.663225115758,0.641547519131,0.27087068713,-0.0216775966264,0.001,44.5744269643,7200.0,0.0,410.0,0.0
1513265972964544598,,589552,,1513265971,170063616,'',0.663225115758,0.644052541668,0.248010832789,-0.0191725740894,0.001,35.9513827223,7200.0,0.0,410.0,0.0
1513265972974821378,,589553,,1513265971,180063616,'',0.663225115758,0.646460991945,0.25483360982,-0.0167641238124,0.001,16.0035915642,7200.0,0.0,410.0,0.0
1513265972984894428,,589554,,1513265971,190063616,'',0.663225115758,0.648852179312,0.234264490391,-0.0143729364454,0.001,7.14475694216,7200.0,0.0,410.0,0.0
1513265972994749572,,589555,,1513265971,200063616,'',0.663225115758,0.651083804962,0.21692219105,-0.0121413107959,0.001,-1.5974500276,7200.0,0.0,410.0,0.0
1513265973004704927,,589556,,1513265971,210063616,'',0.663225115758,0.65305568885,0.177080490981,-0.0101694269083,0.001,0.237022184328,7200.0,0.0,410.0,0.0
1513265973014598077,,589557,,1513265971,220063616,'',0.663225115758,0.65484602955,0.168646799394,-0.00837908620802,0.001,-9.16268589648,7200.0,0.0,410.0,0.0
1513265973024488080,,589558,,1513265971,230063616,'',0.663225115758,0.656309024582,0.139088783749,-0.00691609117604,0.001,-7.58720306497,7200.0,0.0,410.0,0.0
1513265973034498405,,589559,,1513265971,240063616,'',0.663225115758,0.657560096416,0.113817114617,-0.00566501934198,0.001,-7.01185011347,7200.0,0.0,410.0,0.0
1513265973044946617,,589560,,1513265971,250063616,'',0.663225115758,0.658628543295,0.0922286338204,-0.00459657246322,0.001,-5.33079846547,7200.0,0.0,410.0,0.0
1513265973054889436,,589561,,1513265971,260063616,'',0.663225115758,0.659581751867,0.100705530956,-0.00364336389107,0.001,-14.9813703377,7200.0,0.0,410.0,0.0
1513265973064791649,,589562,,1513265971,270063616,'',0.663225115758,0.660364415384,0.0848900909242,-0.00286070037355,0.001,-14.2560459286,7200.0,0.0,410.0,0.0
1513265973074883921,,589563,,1513265971,280063616,'',0.663225115758,0.661073057138,0.0428563656534,-0.00215205862012,0.001,-1.6653417833,7200.0,0.0,410.0,0.0
1513265973084683813,,589564,,1513265971,290063616,'',0.663225115758,0.661683011471,0.0582752546363,-0.00154210428661,0.001,-12.93132907,7200.0,0.0,410.0,0.0
1513265973094743959,,589565,,1513265971,300063616,'',0.663225115758,0.662207856089,0.0754141942873,0.0,0.001,0.0,7200.0,0.0,410.0,0.0
1513265973104762477,,589566,,1513265971,310063616,'',0.663225115758,0.662634964406,0.0390504723951,0.0,0.001,0.0,7200.0,0.0,410.0,0.0
1513265973114615926,,589567,,1513265971,320063616,'',0.663225115758,0.662985365767,0.0319706092603,0.0,0.001,0.0,7200.0,0.0,410.0,0.0
1513265973124470781,,589568,,1513265971,330063616,'',0.663225115758,0.663302683272,0.0532938540088,0.0,0.001,0.0,7200.0,0.0,410.0,0.0
1513265973134962171,,589569,,1513265971,340063616,'',0.663225115758,0.663532629294,0.0209077617216,0.0,0.001,0.0,7200.0,0.0,410.0,0.0
1513265973144377624,,589570,,1513265971,350063616,'',0.663225115758,0.663719539911,0.0171322027004,0.0,0.001,0.0,7200.0,0.0,410.0,0.0
1513265973154527384,,589571,,1513265971,360063616,'',0.663225115758,0.663824334992,0.0150169146863,0.0,0.001,0.0,7200.0,0.0,410.0,0.0
1513265973164959676,,589572,,1513265971,370063616,'',0.663225115758,0.663959129202,0.0122938156462,0.0,0.001,0.0,7200.0,0.0,410.0,0.0
1513265973174823437,,589573,,1513265971,380063616,'',0.663225115758,0.664069430553,0.0100655188747,0.0,0.001,0.0,7200.0,0.0,410.0,0.0
1513265973184749324,,589574,,1513265971,390063616,'',0.663225115758,0.664159780248,0.00824028344126,0.0,0.001,0.0,7200.0,0.0,410.0,0.0
1513265973194748223,,589575,,1513265971,400063616,'',0.663225115758,0.664233732009,0.00674631741786,0.0,0.001,0.0,7200.0,0.0,410.0,0.0
1513265973204881243,,589576,,1513265971,410063616,'',0.663225115758,0.664294271077,0.00552331326015,0.0,0.001,0.0,7200.0,0.0,410.0,0.0
1513265973214782838,,589577,,1513265971,420063616,'',0.663225115758,0.66436670646,0.00406676670668,0.0,0.001,0.0,7200.0,0.0,410.0,0.0
1513265973224625393,,589578,,1513265971,430063616,'',0.663225115758,0.664377404718,0.00384892273305,0.0,0.001,0.0,7200.0,0.0,410.0,0.0
1513265973234470576,,589579,,1513265971,440063616,'',0.663225115758,0.664385810509,0.0036805939286,0.0,0.001,0.0,7200.0,0.0,410.0,0.0
1513265973244741448,,589580,,1513265971,450063616,'',0.663225115758,0.664446070217,0.0302010756019,0.0,0.001,0.0,7200.0,0.0,410.0,0.0
1513265973254681901,,589581,,1513265971,460063616,'',0.663225115758,0.664468113717,0.00201525865688,0.0,0.001,0.0,7200.0,0.0,410.0,0.0
1513265973264915479,,589582,,1513265971,470063616,'',0.663225115758,0.664511899184,0.00112429430752,0.0,0.001,0.0,7200.0,0.0,410.0,0.0
1513265973274465610,,589583,,1513265971,480063616,'',0.663225115758,0.664522013629,0.000920419889001,0.0,0.001,0.0,7200.0,0.0,410.0,0.0
1513265973284907155,,589584,,1513265971,490063616,'',0.663225115758,0.664530293788,0.00075351872374,0.0,0.001,0.0,7200.0,0.0,410.0,0.0
1513265973294729381,,589585,,1513265971,500063616,'',0.663225115758,0.664537073223,0.00061686729806,0.0,0.001,0.0,7200.0,0.0,410.0,0.0
1513265973304603527,,589586,,1513265971,510063616,'',0.663225115758,0.664569327561,0.0276985634988,0.0,0.001,0.0,7200.0,0.0,410.0,0.0
1513265973314552782,,589587,,1513265971,520063616,'',0.663225115758,0.664569028882,-2.88027979455e-05,0.0,0.001,0.0,7200.0,0.0,410.0,0.0
1513265973324956493,,589588,,1513265971,530063616,'',0.663225115758,0.664640271812,-0.00147530732074,0.0,0.001,0.0,7200.0,0.0,410.0,0.0
1513265973334805848,,589589,,1513265971,540063616,'',0.663225115758,0.664627112566,-0.00120787970772,0.0,0.001,0.0,7200.0,0.0,410.0,0.0
1513265973344633269,,589590,,1513265971,550063616,'',0.663225115758,0.664613981763,-0.000946651437228,0.0,0.001,0.0,7200.0,0.0,410.0,0.0
1513265973354660183,,589591,,1513265971,560063616,'',0.663225115758,0.664577976424,-0.000233653426086,0.0,0.001,0.0,7200.0,0.0,410.0,0.0
1513265973364856088,,589592,,1513265971,570063616,'',0.663225115758,0.664553335815,0.000273371551873,0.0,0.001,0.0,7200.0,0.0,410.0,0.0
1513265973374919922,,589593,,1513265971,580063616,'',0.663225115758,0.664555931626,0.000223889256806,0.0,0.001,0.0,7200.0,0.0,410.0,0.0
1513265973384797897,,589594,,1513265971,590063616,'',0.663225115758,0.664558061612,0.00018328670086,0.0,0.001,0.0,7200.0,0.0,410.0,0.0
1513265973394902840,,589595,,1513265971,600063616,'',0.663225115758,0.664534102686,0.000675118473605,0.0,0.001,0.0,7200.0,0.0,410.0,0.0
1513265973404908653,,589596,,1513265971,610063616,'',0.663225115758,0.664540190849,0.000552695558788,0.0,0.001,0.0,7200.0,0.0,410.0,0.0
1513265973414817731,,589597,,1513265971,620063616,'',0.663225115758,0.664518353321,0.000988938111038,0.0,0.001,0.0,7200.0,0.0,410.0,0.0
1513265973424831329,,589598,,1513265971,630063616,'',0.663225115758,0.664576435635,-0.000186140480449,0.0,0.001,0.0,7200.0,0.0,410.0,0.0
1513265973434827949,,589599,,1513265971,640063616,'',0.663225115758,0.66459846418,-0.000625608411449,0.0,0.001,0.0,7200.0,0.0,410.0,0.0
1513265973444765804,,589600,,1513265971,650063616,'',0.663225115758,0.664592882284,-0.00051218296408,0.0,0.001,0.0,7200.0,0.0,410.0,0.0
1513265973454699960,,589601,,1513265971,660063616,'',0.663225115758,0.66458831172,-0.000419308033243,0.0,0.001,0.0,7200.0,0.0,410.0,0.0
1513265973464607068,,589602,,1513265971,670063616,'',0.663225115758,0.66458456946,-0.00034326443657,0.0,0.001,0.0,7200.0,0.0,410.0,0.0
1513265973474592834,,589603,,1513265971,680063616,'',0.663225115758,0.664558797187,0.000183296181048,0.0,0.001,0.0,7200.0,0.0,410.0,0.0
1513265973484386526,,589604,,1513265971,690063616,'',0.663225115758,0.664562419994,0.000109849734123,0.0,0.001,0.0,7200.0,0.0,410.0,0.0
1513265973494898104,,589605,,1513265971,700063616,'',0.663225115758,0.66456337304,8.99339421927e-05,0.0,0.001,0.0,7200.0,0.0,410.0,0.0
1513265973504878302,,589606,,1513265971,710063616,'',0.663225115758,0.664564153517,7.36243256823e-05,0.0,0.001,0.0,7200.0,0.0,410.0,0.0
1513265973514869596,,589607,,1513265971,720063616,'',0.663225115758,0.664564792344,6.0274774809e-05,0.0,0.001,0.0,7200.0,0.0,410.0,0.0
1513265973524996142,,589608,,1513265971,730063616,'',0.663225115758,0.664565315327,4.93459976492e-05,0.0,0.001,0.0,7200.0,0.0,410.0,0.0
1513265973534727579,,589609,,1513265971,740063616,'',0.663225115758,0.664565743569,4.03970482497e-05,0.0,0.001,0.0,7200.0,0.0,410.0,0.0
1513265973544641429,,589610,,1513265971,750063616,'',0.663225115758,0.664517172182,0.00101612492259,0.0,0.001,0.0,7200.0,0.0,410.0,0.0
1513265973554585802,,589611,,1513265971,760063616,'',0.663225115758,0.664526328868,0.00083189718233,0.0,0.001,0.0,7200.0,0.0,410.0,0.0
1513265973564568395,,589612,,1513265971,770063616,'',0.663225115758,0.6645338267,0.000681044729211,0.0,0.001,0.0,7200.0,0.0,410.0,0.0
1513265973574546818,,589613,,1513265971,780063616,'',0.663225115758,0.664539965437,0.000557536539877,0.0,0.001,0.0,7200.0,0.0,410.0,0.0
1513265973584529775,,589614,,1513265971,790063616,'',0.663225115758,0.664572292719,0.0276439728974,0.0,0.001,0.0,7200.0,0.0,410.0,0.0
1513265973594447927,,589615,,1513265971,800063616,'',0.663225115758,0.664521468136,0.000931237659872,0.0,0.001,0.0,7200.0,0.0,410.0,0.0
1513265973604990591,,589616,,1513265971,810063616,'',0.663225115758,0.664529848834,0.000762342174572,0.0,0.001,0.0,7200.0,0.0,410.0,0.0
1513265973614966902,,589617,,1513265971,820063616,'',0.663225115758,0.664512012025,0.00112332186125,0.0,0.001,0.0,7200.0,0.0,410.0,0.0
1513265973624790781,,589618,,1513265971,830063616,'',0.663225115758,0.664424267304,0.00290831195001,0.0,0.001,0.0,7200.0,0.0,410.0,0.0
1513265973634572276,,589619,,1513265971,840063616,'',0.663225115758,0.664450270276,0.0023809772957,0.0,0.001,0.0,7200.0,0.0,410.0,0.0
1513265973644661891,,589620,,1513265971,850063616,'',0.663225115758,0.664398178908,-0.0243014631086,0.0,0.001,0.0,7200.0,0.0,410.0,0.0
1513265973654450381,,589621,,1513265971,860063616,'',0.663225115758,0.66440520877,0.00328987147944,0.0,0.001,0.0,7200.0,0.0,410.0,0.0
1513265973664917853,,589622,,1513265971,870063616,'',0.663225115758,0.664434667433,0.00269335251272,0.0,0.001,0.0,7200.0,0.0,410.0,0.0
1513265973674636244,,589623,,1513265971,880063616,'',0.663225115758,0.664405196572,-0.024452293752,0.0,0.001,0.0,7200.0,0.0,410.0,0.0
1513265973684880033,,589624,,1513265971,890063616,'',0.663225115758,0.664407863888,0.00322793363191,0.0,0.001,0.0,7200.0,0.0,410.0,0.0
1513265973694943520,,589625,,1513265971,900063616,'',0.663225115758,0.664436841125,0.00264264522573,0.0,0.001,0.0,7200.0,0.0,410.0,0.0
1513265973704918909,,589626,,1513265971,910063616,'',0.663225115758,0.664460563704,0.00216349153539,0.0,0.001,0.0,7200.0,0.0,410.0,0.0
1513265973714714675,,589627,,1513265971,920063616,'',0.663225115758,0.664430013971,0.0027809831543,0.0,0.001,0.0,7200.0,0.0,410.0,0.0
1513265973724784284,,589628,,1513265971,930063616,'',0.663225115758,0.664402813466,0.00333201809232,0.0,0.001,0.0,7200.0,0.0,410.0,0.0
1513265973734515717,,589629,,1513265971,940063616,'',0.663225115758,0.664432706445,0.00272785710855,0.0,0.001,0.0,7200.0,0.0,410.0,0.0
1513265973744945574,,589630,,1513265971,950063616,'',0.663225115758,0.664432924204,0.00271859661266,0.0,0.001,0.0,7200.0,0.0,410.0,0.0
1513265973754873066,,589631,,1513265971,960063616,'',0.663225115758,0.664405936393,-0.024469439146,0.0,0.001,0.0,7200.0,0.0,410.0,0.0
1513265973764903112,,589632,,1513265971,970063616,'',0.663225115758,0.664409479024,0.00320728058956,0.0,0.001,0.0,7200.0,0.0,410.0,0.0
1513265973774784897,,589633,,1513265971,980063616,'',0.663225115758,0.664365615598,0.00409980129291,0.0,0.001,0.0,7200.0,0.0,410.0,0.0
1513265973784640694,,589634,,1513265971,990063616,'',0.663225115758,0.664400628309,0.00338903751152,0.0,0.001,0.0,7200.0,0.0,410.0,0.0
1513265973794727028,,589635,,1513265972,63616,'',0.663225115758,0.664408093737,0.00323887404698,0.0,0.001,0.0,7200.0,0.0,410.0,0.0
1513265973804674268,,589636,,1513265972,10063616,'',0.663225115758,0.664388052351,0.0036353739319,0.0,0.001,0.0,7200.0,0.0,410.0,0.0
1513265973814711713,,589637,,1513265972,20063616,'',0.663225115758,0.664397887397,0.003440813209,0.0,0.001,0.0,7200.0,0.0,410.0,0.0
1513265973824644532,,589638,,1513265972,30063616,'',0.663225115758,0.664375643096,0.00388253371562,0.0,0.001,0.0,7200.0,0.0,410.0,0.0
1513265973834923580,,589639,,1513265972,40063616,'',0.663225115758,0.664362831837,0.00413875523196,0.0,0.001,0.0,7200.0,0.0,410.0,0.0
1513265973844858633,,589640,,1513265972,50063616,'',0.663225115758,0.664374776549,0.00389736503087,0.0,0.001,0.0,7200.0,0.0,410.0,0.0
1513265973854764812,,589641,,1513265972,60063616,'',0.663225115758,0.664385599112,0.00367970805863,0.0,0.001,0.0,7200.0,0.0,410.0,0.0
1513265973864772787,,589642,,1513265972,70063616,'',0.663225115758,0.664392406527,0.00354219384185,0.0,0.001,0.0,7200.0,0.0,410.0,0.0
1513265973874781226,,589643,,1513265972,80063616,'',0.663225115758,0.66435004488,0.0043987794099,0.0,0.001,0.0,7200.0,0.0,410.0,0.0
1513265973884643750,,589644,,1513265972,90063616,'',0.663225115758,0.664342419291,0.00456118201015,0.0,0.001,0.0,7200.0,0.0,410.0,0.0
1513265973894656787,,589645,,1513265972,100063616,'',0.663225115758,0.66428328465,0.00574834698731,0.0,0.001,0.0,7200.0,0.0,410.0,0.0
1513265973905051716,,589646,,1513265972,110063616,'',0.663225115758,0.664282488126,0.00577013208959,0.0,0.001,0.0,7200.0,0.0,410.0,0.0
1513265973914593569,,589647,,1513265972,120063616,'',0.663225115758,0.664257475142,-0.0214679991158,0.0,0.001,0.0,7200.0,0.0,410.0,0.0
1513265973924612023,,589648,,1513265972,130063616,'',0.663225115758,0.664193527991,0.00755711854074,0.0,0.001,0.0,7200.0,0.0,410.0,0.0
1513265973934915272,,589649,,1513265972,140063616,'',0.663225115758,0.664240153233,0.0343526640751,0.0,0.001,0.0,7200.0,0.0,410.0,0.0
1513265973944951449,,589650,,1513265972,150063616,'',0.663225115758,0.664274820289,0.00591359636983,0.0,0.001,0.0,7200.0,0.0,410.0,0.0
1513265973954915313,,589651,,1513265972,160063616,'',0.663225115758,0.664254159323,0.00634362189422,0.0,0.001,0.0,7200.0,0.0,410.0,0.0
1513265973964967257,,589652,,1513265972,170063616,'',0.663225115758,0.664213389784,0.0071630549242,0.0,0.001,0.0,7200.0,0.0,410.0,0.0
1513265973974802437,,589653,,1513265972,180063616,'',0.663225115758,0.664206284012,0.00730905193285,0.0,0.001,0.0,7200.0,0.0,410.0,0.0
1513265973984666231,,589654,,1513265972,190063616,'',0.663225115758,0.664247175358,0.00648273757225,0.0,0.001,0.0,7200.0,0.0,410.0,0.0
1513265973994581700,,589655,,1513265972,200063616,'',0.663225115758,0.664281597764,0.00578605877832,0.0,0.001,0.0,7200.0,0.0,410.0,0.0
1513265974004599437,,589656,,1513265972,210063616,'',0.663225115758,0.664256241526,-0.0214400849503,0.0,0.001,0.0,7200.0,0.0,410.0,0.0
1513265974014701962,,589657,,1513265972,220063616,'',0.663225115758,0.664212654662,-0.0205560832787,0.0,0.001,0.0,7200.0,0.0,410.0,0.0
1513265974024541379,,589658,,1513265972,230063616,'',0.663225115758,0.664178486683,0.00786578676477,0.0,0.001,0.0,7200.0,0.0,410.0,0.0
1513265974034982310,,589659,,1513265972,240063616,'',0.663225115758,0.664249054558,0.00643956357561,0.0,0.001,0.0,7200.0,0.0,410.0,0.0
1513265974044635330,,589660,,1513265972,250063616,'',0.663225115758,0.66422639166,-0.0208426877262,0.0,0.001,0.0,7200.0,0.0,410.0,0.0
1513265974054465721,,589661,,1513265972,260063616,'',0.663225115758,0.664214874428,0.00712160625739,0.0,0.001,0.0,7200.0,0.0,410.0,0.0
1513265974064827083,,589662,,1513265972,270063616,'',0.663225115758,0.66425602497,0.00629669267777,0.0,0.001,0.0,7200.0,0.0,410.0,0.0
1513265974074817374,,589663,,1513265972,280063616,'',0.663225115758,0.664214399032,0.00712461678587,0.0,0.001,0.0,7200.0,0.0,410.0,0.0
1513265974084788282,,589664,,1513265972,290063616,'',0.663225115758,0.664182696726,0.00776736591447,0.0,0.001,0.0,7200.0,0.0,410.0,0.0
1513265974094717323,,589665,,1513265972,300063616,'',0.663225115758,0.664180382443,-0.0199159403032,0.0,0.001,0.0,7200.0,0.0,410.0,0.0
1513265974104715511,,589666,,1513265972,310063616,'',0.663225115758,0.664149166549,-0.0192834022649,0.0,0.001,0.0,7200.0,0.0,410.0,0.0
1513265974114613693,,589667,,1513265972,320063616,'',0.663225115758,0.664102819607,-0.0183387699336,0.0,0.001,0.0,7200.0,0.0,410.0,0.0
1513265974124679499,,589668,,1513265972,330063616,'',0.663225115758,0.664110696222,0.00924057341263,0.0,0.001,0.0,7200.0,0.0,410.0,0.0
1513265974134648337,,589669,,1513265972,340063616,'',0.663225115758,0.664119945372,0.00905193236347,0.0,0.001,0.0,7200.0,0.0,410.0,0.0
1513265974145058741,,589670,,1513265972,350063616,'',0.663225115758,0.664032052258,0.0108264684518,0.0,0.001,0.0,7200.0,0.0,410.0,0.0
1513265974155021291,,589671,,1513265972,360063616,'',0.663225115758,0.664000415279,-0.0162799521887,0.0,0.001,0.0,7200.0,0.0,410.0,0.0
1513265974164913994,,589672,,1513265972,370063616,'',0.663225115758,0.664003440033,-0.0163149306309,0.0,0.001,0.0,7200.0,0.0,410.0,0.0
1513265974174721375,,589673,,1513265972,380063616,'',0.663225115758,0.664030860803,-0.0168792531401,0.0,0.001,0.0,7200.0,0.0,410.0,0.0
1513265974184659942,,589674,,1513265972,390063616,'',0.663225115758,0.664105156385,0.00935082498712,0.0,0.001,0.0,7200.0,0.0,410.0,0.0
1513265974194580692,,589675,,1513265972,400063616,'',0.663225115758,0.664113509335,-0.0185458460001,0.0,0.001,0.0,7200.0,0.0,410.0,0.0
1513265974204482235,,589676,,1513265972,410063616,'',0.663225115758,0.664144987093,0.00856115689578,0.0,0.001,0.0,7200.0,0.0,410.0,0.0
1513265974214952844,,589677,,1513265972,420063616,'',0.663225115758,0.664020584277,-0.0166743656353,0.0,0.001,0.0,7200.0,0.0,410.0,0.0
1513265974224813173,,589678,,1513265972,430063616,'',0.663225115758,0.663966567763,-0.0155925570393,0.0,0.001,0.0,7200.0,0.0,410.0,0.0
1513265974234808530,,589679,,1513265972,440063616,'',0.663225115758,0.663924313475,-0.0147334041494,0.0,0.001,0.0,7200.0,0.0,410.0,0.0
1513265974244765084,,589680,,1513265972,450063616,'',0.663225115758,0.663970894222,0.0120633459413,0.0,0.001,0.0,7200.0,0.0,410.0,0.0
1513265974254795331,,589681,,1513265972,460063616,'',0.663225115758,0.663952079495,-0.0152855019086,0.0,0.001,0.0,7200.0,0.0,410.0,0.0
1513265974264651889,,589682,,1513265972,470063616,'',0.663225115758,0.663965214873,0.0121906920856,0.0,0.001,0.0,7200.0,0.0,410.0,0.0
1513265974274639324,,589683,,1513265972,480063616,'',0.663225115758,0.663898814719,-0.0142094931319,0.0,0.001,0.0,7200.0,0.0,410.0,0.0
1513265974284494461,,589684,,1513265972,490063616,'',0.663225115758,0.663940762282,-0.0150663502652,0.0,0.001,0.0,7200.0,0.0,410.0,0.0
1513265974294899530,,589685,,1513265972,500063616,'',0.663225115758,0.66400243802,-0.0163178831667,0.0,0.001,0.0,7200.0,0.0,410.0,0.0
1513265974304938643,,589686,,1513265972,510063616,'',0.663225115758,0.664007601464,0.0113156634851,0.0,0.001,0.0,7200.0,0.0,410.0,0.0
1513265974314897337,,589687,,1513265972,520063616,'',0.663225115758,0.663934202407,-0.0149549938731,0.0,0.001,0.0,7200.0,0.0,410.0,0.0
1513265974324787878,,589688,,1513265972,530063616,'',0.663225115758,0.663996633672,0.0115332398583,0.0,0.001,0.0,7200.0,0.0,410.0,0.0
1513265974334703377,,589689,,1513265972,540063616,'',0.663225115758,0.66395027453,-0.0152610077563,0.0,0.001,0.0,7200.0,0.0,410.0,0.0
1513265974344618106,,589690,,1513265972,550063616,'',0.663225115758,0.663915287396,0.0131830042031,0.0,0.001,0.0,7200.0,0.0,410.0,0.0
1513265974354597807,,589691,,1513265972,560063616,'',0.663225115758,0.66388666708,0.0137560359379,0.0,0.001,0.0,7200.0,0.0,410.0,0.0
1513265974364569453,,589692,,1513265972,570063616,'',0.663225115758,0.663861785817,0.0142477916094,0.0,0.001,0.0,7200.0,0.0,410.0,0.0
1513265974374554123,,589693,,1513265972,580063616,'',0.663225115758,0.663840965515,0.0146770269274,0.0,0.001,0.0,7200.0,0.0,410.0,0.0
1513265974384571971,,589694,,1513265972,590063616,'',0.663225115758,0.663821714346,-0.012670443385,0.0,0.001,0.0,7200.0,0.0,410.0,0.0
1513265974394603563,,589695,,1513265972,600063616,'',0.663225115758,0.663804117348,-0.0123132426493,0.0,0.001,0.0,7200.0,0.0,410.0,0.0
1513265974404915271,,589696,,1513265972,610063616,'',0.663225115758,0.663719730392,-0.0106103871122,0.0,0.001,0.0,7200.0,0.0,410.0,0.0
1513265974414823032,,589697,,1513265972,620063616,'',0.663225115758,0.663751150068,0.0165027320919,0.0,0.001,0.0,7200.0,0.0,410.0,0.0
1513265974424728142,,589698,,1513265972,630063616,'',0.663225115758,0.663746284029,-0.0111420410673,0.0,0.001,0.0,7200.0,0.0,410.0,0.0
1513265974434610843,,589699,,1513265972,640063616,'',0.663225115758,0.663749215753,0.0165249527155,0.0,0.001,0.0,7200.0,0.0,410.0,0.0
1513265974444648104,,589700,,1513265972,650063616,'',0.663225115758,0.663673833503,-0.00968422328961,0.0,0.001,0.0,7200.0,0.0,410.0,0.0
1513265974454706160,,589701,,1513265972,660063616,'',0.663225115758,0.663685462468,-0.00992752193719,0.0,0.001,0.0,7200.0,0.0,410.0,0.0
1513265974464659684,,589702,,1513265972,670063616,'',0.663225115758,0.663697694197,0.0175628455235,0.0,0.001,0.0,7200.0,0.0,410.0,0.0
1513265974474862402,,589703,,1513265972,680063616,'',0.663225115758,0.663678034368,-0.00978426540372,0.0,0.001,0.0,7200.0,0.0,410.0,0.0
1513265974484825833,,589704,,1513265972,690063616,'',0.663225115758,0.663617812272,0.0191762614387,0.0,0.001,0.0,7200.0,0.0,410.0,0.0
1513265974494752604,,589705,,1513265972,700063616,'',0.663225115758,0.663615281773,-0.00850378527836,0.0,0.001,0.0,7200.0,0.0,410.0,0.0
1513265974504735663,,589706,,1513265972,710063616,'',0.663225115758,0.663613327172,-0.00845859506997,0.0,0.001,0.0,7200.0,0.0,410.0,0.0
1513265974514841798,,589707,,1513265972,720063616,'',0.663225115758,0.663639554731,-0.00896867122078,0.0,0.001,0.0,7200.0,0.0,410.0,0.0
1513265974524747353,,589708,,1513265972,730063616,'',0.663225115758,0.663612449884,0.0193174424549,0.0,0.001,0.0,7200.0,0.0,410.0,0.0
1513265974534691016,,589709,,1513265972,740063616,'',0.663225115758,0.663585997244,-0.00789354546923,0.0,0.001,0.0,7200.0,0.0,410.0,0.0
1513265974544732364,,589710,,1513265972,750063616,'',0.663225115758,0.663616602775,0.0192257540349,0.0,0.001,0.0,7200.0,0.0,410.0,0.0
1513265974554757331,,589711,,1513265972,760063616,'',0.663225115758,0.663638941251,0.0187646579395,0.0,0.001,0.0,7200.0,0.0,410.0,0.0
1513265974564644562,,589712,,1513265972,770063616,'',0.663225115758,0.663605795578,-0.00831585950597,0.0,0.001,0.0,7200.0,0.0,410.0,0.0
1513265974574640734,,589713,,1513265972,780063616,'',0.663225115758,0.663531251049,-0.00680828891052,0.0,0.001,0.0,7200.0,0.0,410.0,0.0
1513265974584521160,,589714,,1513265972,790063616,'',0.663225115758,0.66352082703,-0.00658476206508,0.0,0.001,0.0,7200.0,0.0,410.0,0.0
1513265974594473835,,589715,,1513265972,800063616,'',0.663225115758,0.663533839069,-0.0068538618717,0.0,0.001,0.0,7200.0,0.0,410.0,0.0
1513265974604477431,,589716,,1513265972,810063616,'',0.663225115758,0.663545414565,-0.0070753548213,0.0,0.001,0.0,7200.0,0.0,410.0,0.0
1513265974614794055,,589717,,1513265972,820063616,'',0.663225115758,0.663581647522,-0.00780365562366,0.0,0.001,0.0,7200.0,0.0,410.0,0.0
1513265974624652697,,589718,,1513265972,830063616,'',0.663225115758,0.663535404601,-0.00687110960123,0.0,0.001,0.0,7200.0,0.0,410.0,0.0
1513265974634539190,,589719,,1513265972,840063616,'',0.663225115758,0.663525081386,-0.00665982526494,0.0,0.001,0.0,7200.0,0.0,410.0,0.0
1513265974644992886,,589720,,1513265972,850063616,'',0.663225115758,0.663490882071,-0.00597686331366,0.0,0.001,0.0,7200.0,0.0,410.0,0.0
1513265974654865744,,589721,,1513265972,860063616,'',0.663225115758,0.663488225904,-0.00592291671564,0.0,0.001,0.0,7200.0,0.0,410.0,0.0
1513265974664850195,,589722,,1513265972,870063616,'',0.663225115758,0.663485545554,-0.00586987977986,0.0,0.001,0.0,7200.0,0.0,410.0,0.0
1513265974674752469,,589723,,1513265972,880063616,'',0.663225115758,0.66345844977,-0.00533048151353,0.0,0.001,0.0,7200.0,0.0,410.0,0.0
1513265974684526905,,589724,,1513265972,890063616,'',0.663225115758,0.663486012,0.0218581285341,0.0,0.001,0.0,7200.0,0.0,410.0,0.0
1513265974694591017,,589725,,1513265972,900063616,'',0.663225115758,0.663457975336,-0.00532151614293,0.0,0.001,0.0,7200.0,0.0,410.0,0.0
1513265974704486971,,589726,,1513265972,910063616,'',0.663225115758,0.66343691138,0.0228371575978,0.0,0.001,0.0,7200.0,0.0,410.0,0.0
1513265974714437036,,589727,,1513265972,920063616,'',0.663225115758,0.663418259383,-0.00452374944196,0.0,0.001,0.0,7200.0,0.0,410.0,0.0
1513265974724993722,,589728,,1513265972,930063616,'',0.663225115758,0.663427062152,-0.004706761166,0.0,0.001,0.0,7200.0,0.0,410.0,0.0
1513265974734964530,,589729,,1513265972,940063616,'',0.663225115758,0.66338498894,-0.00385487572464,0.0,0.001,0.0,7200.0,0.0,410.0,0.0
1513265974744760368,,589730,,1513265972,950063616,'',0.663225115758,0.663400415612,-0.004164474262,0.0,0.001,0.0,7200.0,0.0,410.0,0.0
1513265974754715292,,589731,,1513265972,960063616,'',0.663225115758,0.663363091277,-0.00340924240487,0.0,0.001,0.0,7200.0,0.0,410.0,0.0
1513265974764581624,,589732,,1513265972,970063616,'',0.663225115758,0.663383643688,-0.00382597812998,0.0,0.001,0.0,7200.0,0.0,410.0,0.0
1513265974774528385,,589733,,1513265972,980063616,'',0.663225115758,0.663398846234,-0.00413778307261,0.0,0.001,0.0,7200.0,0.0,410.0,0.0
1513265974784898811,,589734,,1513265972,990063616,'',0.663225115758,0.663361816872,-0.00338760167816,0.0,0.001,0.0,7200.0,0.0,410.0,0.0
1513265974794874062,,589735,,1513265973,63616,'',0.663225115758,0.663355656558,-0.00326095415691,0.0,0.001,0.0,7200.0,0.0,410.0,0.0
1513265974804811913,,589736,,1513265973,10063616,'',0.663225115758,0.663376036616,-0.00367612596636,0.0,0.001,0.0,7200.0,0.0,410.0,0.0
1513265974814797854,,589737,,1513265973,20063616,'',0.663225115758,0.663368348948,-0.00351934822697,0.0,0.001,0.0,7200.0,0.0,410.0,0.0
1513265974824715912,,589738,,1513265973,30063616,'',0.663225115758,0.663385514375,-0.00385686039546,0.0,0.001,0.0,7200.0,0.0,410.0,0.0
1513265974834584556,,589739,,1513265973,40063616,'',0.663225115758,0.663427392974,-0.00469717433903,0.0,0.001,0.0,7200.0,0.0,410.0,0.0
1513265974844618273,,589740,,1513265973,50063616,'',0.663225115758,0.663385259886,-0.00384702403529,0.0,0.001,0.0,7200.0,0.0,410.0,0.0
1513265974854982464,,589741,,1513265973,60063616,'',0.663225115758,0.663402207502,-0.00418496386501,0.0,0.001,0.0,7200.0,0.0,410.0,0.0
1513265974864915006,,589742,,1513265973,70063616,'',0.663225115758,0.663390274992,-0.00395086876042,0.0,0.001,0.0,7200.0,0.0,410.0,0.0
1513265974874842193,,589743,,1513265973,80063616,'',0.663225115758,0.663379038459,-0.00372308460997,0.0,0.001,0.0,7200.0,0.0,410.0,0.0
1513265974884760456,,589744,,1513265973,90063616,'',0.663225115758,0.663398704953,-0.00411461604152,0.0,0.001,0.0,7200.0,0.0,410.0,0.0
1513265974894786355,,589745,,1513265973,100063616,'',0.663225115758,0.663437896638,-0.00490863154363,0.0,0.001,0.0,7200.0,0.0,410.0,0.0
1513265974904662898,,589746,,1513265973,110063616,'',0.663225115758,0.663393778877,-0.00401852261485,0.0,0.001,0.0,7200.0,0.0,410.0,0.0
1513265974914724791,,589747,,1513265973,120063616,'',0.663225115758,0.663384003523,-0.00382257528231,0.0,0.001,0.0,7200.0,0.0,410.0,0.0
1513265974924575453,,589748,,1513265973,130063616,'',0.663225115758,0.663401652768,-0.0041852363667,0.0,0.001,0.0,7200.0,0.0,410.0,0.0
1513265974934485208,,589749,,1513265973,140063616,'',0.663225115758,0.663364113772,-0.0034264353363,0.0,0.001,0.0,7200.0,0.0,410.0,0.0
1513265974944785376,,589750,,1513265973,150063616,'',0.663225115758,0.663404386496,-0.00424689966594,0.0,0.001,0.0,7200.0,0.0,410.0,0.0
1513265974954705717,,589751,,1513265973,160063616,'',0.663225115758,0.663464894118,0.0222562646184,0.0,0.001,0.0,7200.0,0.0,410.0,0.0
1513265974964777101,,589752,,1513265973,170063616,'',0.663225115758,0.663466373991,0.0222285519024,0.0,0.001,0.0,7200.0,0.0,410.0,0.0
1513265974974754000,,589753,,1513265973,180063616,'',0.663225115758,0.663494795384,0.0216458576058,0.0,0.001,0.0,7200.0,0.0,410.0,0.0
1513265974984690602,,589754,,1513265973,190063616,'',0.663225115758,0.663413602611,-0.0044493999329,0.0,0.001,0.0,7200.0,0.0,410.0,0.0
1513265974994568435,,589755,,1513265973,200063616,'',0.663225115758,0.663373868848,-0.00364213177487,0.0,0.001,0.0,7200.0,0.0,410.0,0.0
1513265975004653735,,589756,,1513265973,210063616,'',0.663225115758,0.663341429492,-0.00298306359992,0.0,0.001,0.0,7200.0,0.0,410.0,0.0
1513265975014518020,,589757,,1513265973,220063616,'',0.663225115758,0.663314797767,-0.00244198867244,0.0,0.001,0.0,7200.0,0.0,410.0,0.0
1513265975024592072,,589758,,1513265973,230063616,'',0.663225115758,0.663342951252,-0.00300395955276,0.0,0.001,0.0,7200.0,0.0,410.0,0.0
1513265975034925327,,589759,,1513265973,240063616,'',0.663225115758,0.663341856076,-0.00297896096923,0.0,0.001,0.0,7200.0,0.0,410.0,0.0
1513265975044903941,,589760,,1513265973,250063616,'',0.663225115758,0.663368191087,-0.00350479503328,0.0,0.001,0.0,7200.0,0.0,410.0,0.0
1513265975054918713,,589761,,1513265973,260063616,'',0.663225115758,0.663311505727,-0.00235951215724,0.0,0.001,0.0,7200.0,0.0,410.0,0.0
1513265975064986378,,589762,,1513265973,270063616,'',0.663225115758,0.663290309401,-0.00193169500398,0.0,0.001,0.0,7200.0,0.0,410.0,0.0
1513265975074851127,,589763,,1513265973,280063616,'',0.663225115758,0.66332234473,-0.00256895315284,0.0,0.001,0.0,7200.0,0.0,410.0,0.0
1513265975084935413,,589764,,1513265973,290063616,'',0.663225115758,0.663322934097,-0.00258298674231,0.0,0.001,0.0,7200.0,0.0,410.0,0.0
1513265975094805603,,589765,,1513265973,300063616,'',0.663225115758,0.663350588344,-0.00314864283436,0.0,0.001,0.0,7200.0,0.0,410.0,0.0
1513265975104642485,,589766,,1513265973,310063616,'',0.663225115758,0.663349077959,-0.00311867077453,0.0,0.001,0.0,7200.0,0.0,410.0,0.0
1513265975114731688,,589767,,1513265973,320063616,'',0.663225115758,0.663321114425,-0.00255411932758,0.0,0.001,0.0,7200.0,0.0,410.0,0.0
1513265975124717562,,589768,,1513265973,330063616,'',0.663225115758,0.663298165518,-0.00209080741808,0.0,0.001,0.0,7200.0,0.0,410.0,0.0
1513265975134663618,,589769,,1513265973,340063616,'',0.663225115758,0.663279382325,-0.00171159645068,0.0,0.001,0.0,7200.0,0.0,410.0,0.0
1513265975144551599,,589770,,1513265973,350063616,'',0.663225115758,0.663288797036,-0.00189570270005,0.0,0.001,0.0,7200.0,0.0,410.0,0.0
1513265975154627494,,589771,,1513265973,360063616,'',0.663225115758,0.663271711907,-0.00155185579012,0.0,0.001,0.0,7200.0,0.0,410.0,0.0
1513265975164919210,,589772,,1513265973,370063616,'',0.663225115758,0.66323251021,-0.000756069807595,0.0,0.001,0.0,7200.0,0.0,410.0,0.0
1513265975174948381,,589773,,1513265973,380063616,'',0.663225115758,0.66324938573,-0.00109870558082,0.0,0.001,0.0,7200.0,0.0,410.0,0.0
1513265975184682056,,589774,,1513265973,390063616,'',0.663225115758,0.663288872526,-0.00189263416101,0.0,0.001,0.0,7200.0,0.0,410.0,0.0
1513265975194626055,,589775,,1513265973,400063616,'',0.663225115758,0.663271764137,-0.00154915175763,0.0,0.001,0.0,7200.0,0.0,410.0,0.0
1513265975204518622,,589776,,1513265973,410063616,'',0.663225115758,0.663257776005,-0.00126831423945,0.0,0.001,0.0,7200.0,0.0,410.0,0.0
1513265975214509115,,589777,,1513265973,420063616,'',0.663225115758,0.66324634122,-0.00103873987809,0.0,0.001,0.0,7200.0,0.0,410.0,0.0
1513265975224643011,,589778,,1513265973,430063616,'',0.663225115758,0.663236955815,-0.000850310579923,0.0,0.001,0.0,7200.0,0.0,410.0,0.0
1513265975234952192,,589779,,1513265973,440063616,'',0.663225115758,0.663229876973,0.0270322070296,0.0,0.001,0.0,7200.0,0.0,410.0,0.0
1513265975244948907,,589780,,1513265973,450063616,'',0.663225115758,0.663250258315,-0.00112038927656,0.0,0.001,0.0,7200.0,0.0,410.0,0.0
1513265975254854427,,589781,,1513265973,460063616,'',0.663225115758,0.663287716067,-0.00186750826521,0.0,0.001,0.0,7200.0,0.0,410.0,0.0
1513265975264768324,,589782,,1513265973,470063616,'',0.663225115758,0.663297657648,-0.00206978659026,0.0,0.001,0.0,7200.0,0.0,410.0,0.0
1513265975274806522,,589783,,1513265973,480063616,'',0.663225115758,0.663278970188,-0.00169446089953,0.0,0.001,0.0,7200.0,0.0,410.0,0.0
1513265975284768063,,589784,,1513265973,490063616,'',0.663225115758,0.663290831169,0.0258017902134,0.0,0.001,0.0,7200.0,0.0,410.0,0.0
1513265975294778556,,589785,,1513265973,500063616,'',0.663225115758,0.663299120453,-0.00210288738257,0.0,0.001,0.0,7200.0,0.0,410.0,0.0
1513265975304806836,,589786,,1513265973,510063616,'',0.663225115758,0.663253994925,-0.00118610112536,0.0,0.001,0.0,7200.0,0.0,410.0,0.0
1513265975314719641,,589787,,1513265973,520063616,'',0.663225115758,0.663243227152,-0.000971060611977,0.0,0.001,0.0,7200.0,0.0,410.0,0.0
1513265975324665676,,589788,,1513265973,530063616,'',0.663225115758,0.66323441063,-0.000794988058233,0.0,0.001,0.0,7200.0,0.0,410.0,0.0
1513265975334707875,,589789,,1513265973,540063616,'',0.663225115758,0.663227191475,-0.000650816124433,0.0,0.001,0.0,7200.0,0.0,410.0,0.0
1513265975344664284,,589790,,1513265973,550063616,'',0.663225115758,0.663221279868,-0.000532756898874,0.0,0.001,0.0,7200.0,0.0,410.0,0.0
1513265975354677421,,589791,,1513265973,560063616,'',0.663225115758,0.663216451678,-0.000436334319304,0.0,0.001,0.0,7200.0,0.0,410.0,0.0
1513265975364953214,,589792,,1513265973,570063616,'',0.663225115758,0.663212490081,-0.000357218250812,0.0,0.001,0.0,7200.0,0.0,410.0,0.0
1513265975374836909,,589793,,1513265973,580063616,'',0.663225115758,0.663209245962,-0.000292430761615,0.0,0.001,0.0,7200.0,0.0,410.0,0.0
