rosbagTimestamp,header,seq,stamp,secs,nsecs,frame_id,set_point,process_value,process_value_dot,error,time_step,command,p,i,d,i_clamp
1513265970224592728,,589286,,1513265968,430063616,'',1.37881010908,1.34102132894,0.0213508903216,-0.0377887801349,0.001,188.943900675,5000.0,0.0,0.0,0.0
1513265970234544889,,589287,,1513265968,440063616,'',1.37881010908,1.33982041432,-0.00200064416053,-0.0389896947579,0.001,194.948473789,5000.0,0.0,0.0,0.0
1513265970244499723,,589288,,1513265968,450063616,'',1.37881010908,1.33982041432,-0.00252052446996,-0.0389896947579,0.001,194.948473789,5000.0,0.0,0.0,0.0
1513265970254853498,,589289,,1513265968,460063616,'',1.37881010908,1.33982041432,-0.00206342466417,-0.0389896947579,0.001,194.948473789,5000.0,0.0,0.0,0.0
1513265970264825195,,589290,,1513265968,470063616,'',1.37881010908,1.33861949969,-0.0245661907954,-0.0401906093808,0.001,200.953046904,5000.0,0.0,0.0,0.0
1513265970274845443,,589291,,1513265968,480063616,'',1.37881010908,1.33982041432,-0.000240011275347,-0.0389896947579,0.001,194.948473789,5000.0,0.0,0.0,0.0
1513265970284740038,,589292,,1513265968,490063616,'',1.37881010908,1.33982041432,-0.00018399028239,-0.0389896947579,0.001,194.948473789,5000.0,0.0,0.0,0.0
1513265970294668064,,589293,,1513265968,500063616,'',1.37881010908,1.34102132894,0.0232007169834,-0.0377887801349,0.001,188.943900675,5000.0,0.0,0.0,0.0
1513265970304613053,,589294,,1513265968,510063616,'',1.37881010908,1.33982041432,-0.00127371203031,-0.0389896947579,0.001,194.948473789,5000.0,0.0,0.0,0.0
1513265970314402561,,589295,,1513265968,520063616,'',1.37881010908,1.34102132894,0.0236643873445,-0.0377887801349,0.001,188.943900675,5000.0,0.0,0.0,0.0
1513265970324519747,,589296,,1513265968,530063616,'',1.37881010908,1.33982041432,0.000417115987432,-0.0389896947579,0.001,194.948473789,5000.0,0.0,0.0,0.0
1513265970334395279,,589297,,1513265968,540063616,'',1.37881010908,1.33982041432,-6.29820661382e-05,-0.0389896947579,0.001,194.948473789,5000.0,0.0,0.0,0.0
1513265970344344443,,589298,,1513265968,550063616,'',1.37881010908,1.33982041432,-0.00011936607364,-0.0389896947579,0.001,194.948473789,5000.0,0.0,0.0,0.0
1513265970354810441,,589299,,1513265968,560063616,'',1.37881010908,1.33861949969,-0.0243501409107,-0.0401906093808,0.001,200.953046904,5000.0,0.0,0.0,0.0
1513265970364972910,,589300,,1513265968,570063616,'',1.37881010908,1.33982041432,-0.000141419403546,-0.0389896947579,0.001,194.948473789,5000.0,0.0,0.0,0.0
1513265970374773238,,589301,,1513265968,580063616,'',1.37881010908,1.33982041432,-0.000117661785391,-0.0389896947579,0.001,194.948473789,5000.0,0.0,0.0,0.0
1513265970384832459,,589302,,1513265968,590063616,'',1.37881010908,1.34102132894,0.0245645709301,-0.0377887801349,0.001,188.943900675,5000.0,0.0,0.0,0.0
1513265970394768080,,589303,,1513265968,600063616,'',1.37881010908,1.33861949969,-0.0234611325151,-0.0401906093808,0.001,200.953046904,5000.0,0.0,0.0,0.0
1513265970404698657,,589304,,1513265968,610063616,'',1.37881010908,1.33741858507,-0.0468355036998,-0.0413915240037,0.001,206.957620019,5000.0,0.0,0.0,0.0
1513265970414704207,,589305,,1513265968,620063616,'',1.37881010908,1.33982041432,0.0022579187858,-0.0389896947579,0.001,194.948473789,5000.0,0.0,0.0,0.0
1513265970424657370,,589306,,1513265968,630063616,'',1.37881010908,1.34102132894,0.0260849746174,-0.0377887801349,0.001,188.943900675,5000.0,0.0,0.0,0.0
1513265970434727226,,589307,,1513265968,640063616,'',1.37881010908,1.33982041432,0.00332528483138,-0.0389896947579,0.001,194.948473789,5000.0,0.0,0.0,0.0
1513265970444543152,,589308,,1513265968,650063616,'',1.37881010908,1.33982041432,0.00229036181755,-0.0389896947579,0.001,194.948473789,5000.0,0.0,0.0,0.0
1513265970454629508,,589309,,1513265968,660063616,'',1.37881010908,1.33982041432,0.0018750022547,-0.0389896947579,0.001,194.948473789,5000.0,0.0,0.0,0.0
1513265970464445078,,589310,,1513265968,670063616,'',1.37881010908,1.33982041432,0.00195435612368,-0.0389896947579,0.001,194.948473789,5000.0,0.0,0.0,0.0
1513265970474353750,,589311,,1513265968,680063616,'',1.37881010908,1.33982041432,0.000720733837724,-0.0389896947579,0.001,194.948473789,5000.0,0.0,0.0,0.0
1513265970484874262,,589312,,1513265968,690063616,'',1.37881010908,1.33982041432,0.000549560006112,-0.0389896947579,0.001,194.948473789,5000.0,0.0,0.0,0.0
1513265970494803902,,589313,,1513265968,700063616,'',1.37881010908,1.33982041432,-0.000436563247913,-0.0389896947579,0.001,194.948473789,5000.0,0.0,0.0,0.0
1513265970504746602,,589314,,1513265968,710063616,'',1.37881010908,1.33982041432,-0.00204376648894,-0.0389896947579,0.001,194.948473789,5000.0,0.0,0.0,0.0
1513265970514583394,,589315,,1513265968,720063616,'',1.37881010908,1.33982041432,-0.00124592457212,-0.0389896947579,0.001,194.948473789,5000.0,0.0,0.0,0.0
1513265970524609069,,589316,,1513265968,730063616,'',1.37881010908,1.33982041432,-0.00142550078437,-0.0389896947579,0.001,194.948473789,5000.0,0.0,0.0,0.0
1513265970534573588,,589317,,1513265968,740063616,'',1.37881010908,1.34102132894,0.0230715339303,-0.0377887801349,0.001,188.943900675,5000.0,0.0,0.0,0.0
1513265970544491026,,589318,,1513265968,750063616,'',1.37881010908,1.33982041432,-0.0022823457543,-0.0389896947579,0.001,194.948473789,5000.0,0.0,0.0,0.0
1513265970554587738,,589319,,1513265968,760063616,'',1.37881010908,1.33982041432,-0.0014312572964,-0.0389896947579,0.001,194.948473789,5000.0,0.0,0.0,0.0
1513265970564494994,,589320,,1513265968,770063616,'',1.37881010908,1.33982041432,-0.000740105416672,-0.0389896947579,0.001,194.948473789,5000.0,0.0,0.0,0.0
1513265970574788605,,589321,,1513265968,780063616,'',1.37881010908,1.33982041432,-0.000278308081644,-0.0389896947579,0.001,194.948473789,5000.0,0.0,0.0,0.0
1513265970584801192,,589322,,1513265968,790063616,'',1.37881010908,1.33982041432,0.000178432317912,-0.0389896947579,0.001,194.948473789,5000.0,0.0,0.0,0.0
1513265970594707368,,589323,,1513265968,800063616,'',1.37881010908,1.33982041432,0.000582062937457,-0.0389896947579,0.001,194.948473789,5000.0,0.0,0.0,0.0
1513265970604845987,,589324,,1513265968,810063616,'',1.37881010908,1.34102132894,0.0233758073359,-0.0377887801349,0.001,188.943900675,5000.0,0.0,0.0,0.0
1513265970614631813,,589325,,1513265968,820063616,'',1.37881010908,1.33982041432,-0.00108300616961,-0.0389896947579,0.001,194.948473789,5000.0,0.0,0.0,0.0
1513265970624702260,,589326,,1513265968,830063616,'',1.37881010908,1.33982041432,-0.00175523653242,-0.0389896947579,0.001,194.948473789,5000.0,0.0,0.0,0.0
1513265970634543323,,589327,,1513265968,840063616,'',1.37881010908,1.33982041432,-0.00277946215971,-0.0389896947579,0.001,194.948473789,5000.0,0.0,0.0,0.0
1513265970644481360,,589328,,1513265968,850063616,'',1.37881010908,1.34102132894,0.0207392807989,-0.0377887801349,0.001,188.943900675,5000.0,0.0,0.0,0.0
1513265970654518998,,589329,,1513265968,860063616,'',1.37881010908,1.33982041432,-0.00332559070982,-0.0389896947579,0.001,194.948473789,5000.0,0.0,0.0,0.0
1513265970664693007,,589330,,1513265968,870063616,'',1.37881010908,1.33982041432,-0.00533758109414,-0.0389896947579,0.001,194.948473789,5000.0,0.0,0.0,0.0
1513265970674585296,,589331,,1513265968,880063616,'',1.37881010908,1.33982041432,-0.00483614043167,-0.0389896947579,0.001,194.948473789,5000.0,0.0,0.0,0.0
1513265970684386904,,589332,,1513265968,890063616,'',1.37881010908,1.33982041432,-0.00392312694573,-0.0389896947579,0.001,194.948473789,5000.0,0.0,0.0,0.0
1513265970694354824,,589333,,1513265968,900063616,'',1.37881010908,1.33982041432,-0.00369731517216,-0.0389896947579,0.001,194.948473789,5000.0,0.0,0.0,0.0
1513265970704783954,,589334,,1513265968,910063616,'',1.37881010908,1.33982041432,-0.00171474624282,-0.0389896947579,0.001,194.948473789,5000.0,0.0,0.0,0.0
1513265970714650654,,589335,,1513265968,920063616,'',1.37881010908,1.33861949969,-0.0264735285702,-0.0401906093808,0.001,200.953046904,5000.0,0.0,0.0,0.0
1513265970724853612,,589336,,1513265968,930063616,'',1.37881010908,1.33982041432,2.21243226751e-05,-0.0389896947579,0.001,194.948473789,5000.0,0.0,0.0,0.0
1513265970734535290,,589337,,1513265968,940063616,'',1.37881010908,1.33982041432,0.000386395882589,-0.0389896947579,0.001,194.948473789,5000.0,0.0,0.0,0.0
1513265970744437284,,589338,,1513265968,950063616,'',1.37881010908,1.33982041432,-0.000170546839002,-0.0389896947579,0.001,194.948473789,5000.0,0.0,0.0,0.0
1513265970754724690,,589339,,1513265968,960063616,'',1.37881010908,1.34102132894,0.0252778395669,-0.0377887801349,0.001,188.943900675,5000.0,0.0,0.0,0.0
1513265970764588558,,589340,,1513265968,970063616,'',1.37881010908,1.33982041432,0.00214480113806,-0.0389896947579,0.001,194.948473789,5000.0,0.0,0.0,0.0
1513265970774343180,,589341,,1513265968,980063616,'',1.37881010908,1.33982041432,0.00350534715071,-0.0389896947579,0.001,194.948473789,5000.0,0.0,0.0,0.0
1513265970784942913,,589342,,1513265968,990063616,'',1.37881010908,1.33982041432,0.0033174663068,-0.0389896947579,0.001,194.948473789,5000.0,0.0,0.0,0.0
1513265970794786976,,589343,,1513265969,63616,'',1.37881010908,1.33982041432,0.00356705706945,-0.0389896947579,0.001,194.948473789,5000.0,0.0,0.0,0.0
1513265970804724184,,589344,,1513265969,10063616,'',1.37881010908,1.33861949969,-0.0208305588759,-0.0401906093808,0.001,200.953046904,5000.0,0.0,0.0,0.0
1513265970814716308,,589345,,1513265969,20063616,'',1.37881010908,1.33861949969,-0.0217892804219,-0.0401906093808,0.001,200.953046904,5000.0,0.0,0.0,0.0
1513265970824540095,,589346,,1513265969,30063616,'',1.37881010908,1.33982041432,0.00294087378995,-0.0389896947579,0.001,194.948473789,5000.0,0.0,0.0,0.0
1513265970834532952,,589347,,1513265969,40063616,'',1.37881010908,1.34102132894,0.0266341403531,-0.0377887801349,0.001,188.943900675,5000.0,0.0,0.0,0.0
1513265970844404261,,589348,,1513265969,50063616,'',1.37881010908,1.33982041432,0.00235272930432,-0.0389896947579,0.001,194.948473789,5000.0,0.0,0.0,0.0
1513265970854454016,,589349,,1513265969,60063616,'',1.37881010908,1.33982041432,0.00189009108019,-0.0389896947579,0.001,194.948473789,5000.0,0.0,0.0,0.0
1513265970864348138,,589350,,1513265969,70063616,'',1.37881010908,1.33861949969,-0.0222764910282,-0.0401906093808,0.001,200.953046904,5000.0,0.0,0.0,0.0
1513265970874886820,,589351,,1513265969,80063616,'',1.37881010908,1.33982041432,0.00158185064573,-0.0389896947579,0.001,194.948473789,5000.0,0.0,0.0,0.0
1513265970884839873,,589352,,1513265969,90063616,'',1.37881010908,1.33982041432,0.00215143019434,-0.0389896947579,0.001,194.948473789,5000.0,0.0,0.0,0.0
1513265970894654923,,589353,,1513265969,100063616,'',1.37881010908,1.33861949969,-0.0220032540467,-0.0401906093808,0.001,200.953046904,5000.0,0.0,0.0,0.0
1513265970904563866,,589354,,1513265969,110063616,'',1.37881010908,1.33982041432,0.00187761333479,-0.0389896947579,0.001,194.948473789,5000.0,0.0,0.0,0.0
1513265970914563957,,589355,,1513265969,120063616,'',1.37881010908,1.33982041432,0.00336023343996,-0.0389896947579,0.001,194.948473789,5000.0,0.0,0.0,0.0
1513265970924468228,,589356,,1513265969,130063616,'',1.37881010908,1.33982041432,0.00275079904741,-0.0389896947579,0.001,194.948473789,5000.0,0.0,0.0,0.0
1513265970934458280,,589357,,1513265969,140063616,'',1.37881010908,1.33982041432,0.00136294598743,-0.0389896947579,0.001,194.948473789,5000.0,0.0,0.0,0.0
1513265970944489694,,589358,,1513265969,150063616,'',1.37881010908,1.34102132894,0.0248508850831,-0.0377887801349,0.001,188.943900675,5000.0,0.0,0.0,0.0
1513265970954431972,,589359,,1513265969,160063616,'',1.37881010908,1.33982041432,0.00133632267466,-0.0389896947579,0.001,194.948473789,5000.0,0.0,0.0,0.0
1513265970964845356,,589360,,1513265969,170063616,'',1.37881010908,1.33982041432,0.00158447242813,-0.0389896947579,0.001,194.948473789,5000.0,0.0,0.0,0.0
1513265970974662583,,589361,,1513265969,180063616,'',1.37881010908,1.33861949969,-0.0220121644606,-0.0401906093808,0.001,200.953046904,5000.0,0.0,0.0,0.0
1513265970984759080,,589362,,1513265969,190063616,'',1.37881010908,1.33982041432,0.00224301477381,-0.0389896947579,0.001,194.948473789,5000.0,0.0,0.0,0.0
1513265970994525873,,589363,,1513265969,200063616,'',1.37881010908,1.33861949969,-0.021505593332,-0.0401906093808,0.001,200.953046904,5000.0,0.0,0.0,0.0
1513265971004464284,,589364,,1513265969,210063616,'',1.37881010908,1.33861949969,-0.0206804241531,-0.0401906093808,0.001,200.953046904,5000.0,0.0,0.0,0.0
1513265971014418374,,589365,,1513265969,220063616,'',1.37881010908,1.33982041432,0.00296907820977,-0.0389896947579,0.001,194.948473789,5000.0,0.0,0.0,0.0
1513265971024369327,,589366,,1513265969,230063616,'',1.37881010908,1.33982041432,0.00289795611498,-0.0389896947579,0.001,194.948473789,5000.0,0.0,0.0,0.0
1513265971034790571,,589367,,1513265969,240063616,'',1.37881010908,1.34102132894,0.0248265599163,-0.0377887801349,0.001,188.943900675,5000.0,0.0,0.0,0.0
1513265971044881238,,589368,,1513265969,250063616,'',1.37881010908,1.33982041432,-0.000369795359181,-0.0389896947579,0.001,194.948473789,5000.0,0.0,0.0,0.0
1513265971054602628,,589369,,1513265969,260063616,'',1.37881010908,1.33861949969,-0.0245506523149,-0.0401906093808,0.001,200.953046904,5000.0,0.0,0.0,0.0
1513265971064563926,,589370,,1513265969,270063616,'',1.37881010908,1.33861949969,-0.0252995715342,-0.0401906093808,0.001,200.953046904,5000.0,0.0,0.0,0.0
1513265971074611192,,589371,,1513265969,280063616,'',1.37881010908,1.33982041432,-0.000848941442689,-0.0389896947579,0.001,194.948473789,5000.0,0.0,0.0,0.0
1513265971084577434,,589372,,1513265969,290063616,'',1.37881010908,1.33861949969,-0.0240248826901,-0.0401906093808,0.001,200.953046904,5000.0,0.0,0.0,0.0
1513265971094405107,,589373,,1513265969,300063616,'',1.37881010908,1.33982041432,0.00108433955528,-0.0389896947579,0.001,194.948473789,5000.0,0.0,0.0,0.0
1513265971104354704,,589374,,1513265969,310063616,'',1.37881010908,1.33982041432,0.00178872179216,-0.0389896947579,0.001,194.948473789,5000.0,0.0,0.0,0.0
1513265971114873323,,589375,,1513265969,320063616,'',1.37881010908,1.33982041432,0.00198953684508,-0.0389896947579,0.001,194.948473789,5000.0,0.0,0.0,0.0
1513265971124833142,,589376,,1513265969,330063616,'',1.37881010908,1.34102132894,0.025847023669,-0.0377887801349,0.001,188.943900675,5000.0,0.0,0.0,0.0
1513265971134819910,,589377,,1513265969,340063616,'',1.37881010908,1.33982041432,0.00263664734864,-0.0389896947579,0.001,194.948473789,5000.0,0.0,0.0,0.0
1513265971144837228,,589378,,1513265969,350063616,'',1.37881010908,1.34102132894,0.0276861581755,-0.0377887801349,0.001,188.943900675,5000.0,0.0,0.0,0.0
1513265971154718064,,589379,,1513265969,360063616,'',1.37881010908,1.34102132894,0.0270087244277,-0.0377887801349,0.001,188.943900675,5000.0,0.0,0.0,0.0
1513265971164619098,,589380,,1513265969,370063616,'',1.37881010908,1.33982041432,0.00353143583815,-0.0389896947579,0.001,194.948473789,5000.0,0.0,0.0,0.0
1513265971174628442,,589381,,1513265969,380063616,'',1.37881010908,1.33982041432,0.00337861279729,-0.0389896947579,0.001,194.948473789,5000.0,0.0,0.0,0.0
1513265971184605643,,589382,,1513265969,390063616,'',1.37881010908,1.33982041432,0.00144141099339,-0.0389896947579,0.001,194.948473789,5000.0,0.0,0.0,0.0
1513265971194510454,,589383,,1513265969,400063616,'',1.37881010908,1.33741858507,-0.0472737340279,-0.0413915240037,0.001,206.957620019,5000.0,0.0,0.0,0.0
1513265971204431805,,589384,,1513265969,410063616,'',1.37881010908,1.33982041432,0.00101280263345,-0.0389896947579,0.001,194.948473789,5000.0,0.0,0.0,0.0
1513265971214303374,,589385,,1513265969,420063616,'',1.37881010908,1.33982041432,0.00177878073764,-0.0389896947579,0.001,194.948473789,5000.0,0.0,0.0,0.0
1513265971224811688,,589386,,1513265969,430063616,'',1.37881010908,1.34102132894,0.0256916682695,-0.0377887801349,0.001,188.943900675,5000.0,0.0,0.0,0.0
1513265971234770471,,589387,,1513265969,440063616,'',1.37881010908,1.33982041432,0.00250896804036,-0.0389896947579,0.001,194.948473789,5000.0,0.0,0.0,0.0
1513265971244803563,,589388,,1513265969,450063616,'',1.37881010908,1.33861949969,-0.0213334177144,-0.0401906093808,0.001,200.953046904,5000.0,0.0,0.0,0.0
1513265971254329299,,589389,,1513265969,460063616,'',1.37881010908,1.33982041432,0.00284716824788,-0.0389896947579,0.001,194.948473789,5000.0,0.0,0.0,0.0
1513265971264846348,,589390,,1513265969,470063616,'',1.37881010908,1.34102132894,0.0252492410412,-0.0377887801349,0.001,188.943900675,5000.0,0.0,0.0,0.0
1513265971274805790,,589391,,1513265969,480063616,'',1.37881010908,1.34102132894,0.0232221238377,-0.0377887801349,0.001,188.943900675,5000.0,0.0,0.0,0.0
1513265971284745666,,589392,,1513265969,490063616,'',1.37881010908,1.34102132894,0.0219999694174,-0.0377887801349,0.001,188.943900675,5000.0,0.0,0.0,0.0
1513265971294717402,,589393,,1513265969,500063616,'',1.37881010908,1.34102132894,0.0175635819255,-0.0377887801349,0.001,188.943900675,5000.0,0.0,0.0,0.0
1513265971304635101,,589394,,1513265969,510063616,'',1.37881010908,1.34222224356,0.0328044331599,-0.036587865512,0.001,182.93932756,5000.0,0.0,0.0,0.0
1513265971314697155,,589395,,1513265969,520063616,'',1.37881010908,1.34582498743,0.0908048995187,-0.0329851216432,0.001,164.925608216,5000.0,0.0,0.0,0.0
1513265971324696373,,589396,,1513265969,530063616,'',1.37881010908,1.34582498743,0.0778024417861,-0.0329851216432,0.001,164.925608216,5000.0,0.0,0.0,0.0
1513265971334668833,,589397,,1513265969,540063616,'',1.37881010908,1.34582498743,0.0667249670798,-0.0329851216432,0.001,164.925608216,5000.0,0.0,0.0,0.0
1513265971344586586,,589398,,1513265969,550063616,'',1.37881010908,1.34582498743,0.0537993379597,-0.0329851216432,0.001,164.925608216,5000.0,0.0,0.0,0.0
1513265971354479830,,589399,,1513265969,560063616,'',1.37881010908,1.34582498743,0.0440123690889,-0.0329851216432,0.001,164.925608216,5000.0,0.0,0.0,0.0
1513265971364492491,,589400,,1513265969,570063616,'',1.37881010908,1.34582498743,0.0355953720656,-0.0329851216432,0.001,164.925608216,5000.0,0.0,0.0,0.0
1513265971374585932,,589401,,1513265969,580063616,'',1.37881010908,1.34702590206,0.0507055787224,-0.0317842070203,0.001,158.921035101,5000.0,0.0,0.0,0.0
1513265971384598263,,589402,,1513265969,590063616,'',1.37881010908,1.34702590206,0.0428208463193,-0.0317842070203,0.001,158.921035101,5000.0,0.0,0.0,0.0
1513265971394349242,,589403,,1513265969,600063616,'',1.37881010908,1.34702590206,0.0307237130648,-0.0317842070203,0.001,158.921035101,5000.0,0.0,0.0,0.0
1513265971404890769,,589404,,1513265969,610063616,'',1.37881010908,1.3494277313,0.065678496188,-0.0293823777744,0.001,146.911888872,5000.0,0.0,0.0,0.0
1513265971414804567,,589405,,1513265969,620063616,'',1.37881010908,1.35062864592,0.0753456935852,-0.0281814631515,0.001,140.907315757,5000.0,0.0,0.0,0.0
1513265971424802986,,589406,,1513265969,630063616,'',1.37881010908,1.35182956055,0.0841623674251,-0.0269805485285,0.001,134.902742643,5000.0,0.0,0.0,0.0
1513265971434753053,,589407,,1513265969,640063616,'',1.37881010908,1.35182956055,0.0715253236415,-0.0269805485285,0.001,134.902742643,5000.0,0.0,0.0,0.0
1513265971444831412,,589408,,1513265969,650063616,'',1.37881010908,1.35303047517,0.0827185444684,-0.0257796339056,0.001,128.898169528,5000.0,0.0,0.0,0.0
1513265971454621117,,589409,,1513265969,660063616,'',1.37881010908,1.35303047517,0.07079016145,-0.0257796339056,0.001,128.898169528,5000.0,0.0,0.0,0.0
1513265971464553347,,589410,,1513265969,670063616,'',1.37881010908,1.35303047517,0.0605046278136,-0.0257796339056,0.001,128.898169528,5000.0,0.0,0.0,0.0
1513265971474490785,,589411,,1513265969,680063616,'',1.37881010908,1.35423138979,0.0710265196542,-0.0245787192827,0.001,122.893596413,5000.0,0.0,0.0,0.0
1513265971484528718,,589412,,1513265969,690063616,'',1.37881010908,1.35543230442,0.078368421018,-0.0233778046597,0.001,116.889023299,5000.0,0.0,0.0,0.0
1513265971494522654,,589413,,1513265969,700063616,'',1.37881010908,1.35663321904,0.0853136342557,-0.0221768900368,0.001,110.884450184,5000.0,0.0,0.0,0.0
1513265971504512128,,589414,,1513265969,710063616,'',1.37881010908,1.35663321904,0.0681090544175,-0.0221768900368,0.001,110.884450184,5000.0,0.0,0.0,0.0
1513265971514799983,,589415,,1513265969,720063616,'',1.37881010908,1.35783413366,0.0759986868443,-0.0209759754139,0.001,104.879877069,5000.0,0.0,0.0,0.0
1513265971524627272,,589416,,1513265969,730063616,'',1.37881010908,1.35903504828,0.0837427101426,-0.0197750607909,0.001,98.8753039547,5000.0,0.0,0.0,0.0
1513265971534518647,,589417,,1513265969,740063616,'',1.37881010908,1.35903504828,0.067661952536,-0.0197750607909,0.001,98.8753039547,5000.0,0.0,0.0,0.0
1513265971544661702,,589418,,1513265969,750063616,'',1.37881010908,1.36023596291,0.0766053144859,-0.018574146168,0.001,92.8707308401,5000.0,0.0,0.0,0.0
1513265971554425186,,589419,,1513265969,760063616,'',1.37881010908,1.36263779215,0.106398598294,-0.0161723169221,0.001,80.8615846107,5000.0,0.0,0.0,0.0
1513265971564438782,,589420,,1513265969,770063616,'',1.37881010908,1.3650396214,0.13541584521,-0.0137704876763,0.001,68.8524383814,5000.0,0.0,0.0,0.0
1513265971574449522,,589421,,1513265969,780063616,'',1.37881010908,1.3650396214,0.113327457032,-0.0137704876763,0.001,68.8524383814,5000.0,0.0,0.0,0.0
1513265971584580861,,589422,,1513265969,790063616,'',1.37881010908,1.36624053602,0.113884014123,-0.0125695730534,0.001,62.8478652668,5000.0,0.0,0.0,0.0
1513265971594479307,,589423,,1513265969,800063616,'',1.37881010908,1.36864236527,0.136432148308,-0.0101677438075,0.001,50.8387190375,5000.0,0.0,0.0,0.0
1513265971604456619,,589424,,1513265969,810063616,'',1.37881010908,1.36984327989,0.132837965,-0.00896682918456,0.001,44.8341459228,5000.0,0.0,0.0,0.0
1513265971614956963,,589425,,1513265969,820063616,'',1.37881010908,1.37224510914,0.153666087399,-0.00656499993869,0.001,32.8249996935,5000.0,0.0,0.0,0.0
1513265971624620745,,589426,,1513265969,830063616,'',1.37881010908,1.37344602376,0.150494473797,-0.00536408531576,0.001,26.8204265788,5000.0,0.0,0.0,0.0
1513265971634544671,,589427,,1513265969,840063616,'',1.37881010908,1.37344602376,0.124901363644,-0.00536408531576,0.001,26.8204265788,5000.0,0.0,0.0,0.0
1513265971644546332,,589428,,1513265969,850063616,'',1.37881010908,1.37344602376,0.101800504962,-0.00536408531576,0.001,26.8204265788,5000.0,0.0,0.0,0.0
1513265971655399684,,589429,,1513265969,860063616,'',1.37881010908,1.37584785301,0.126473154242,-0.0029622560699,0.001,14.8112803495,5000.0,0.0,0.0,0.0
1513265971664389673,,589430,,1513265969,870063616,'',1.37881010908,1.37584785301,0.103956653973,-0.0029622560699,0.001,14.8112803495,5000.0,0.0,0.0,0.0
1513265971674396348,,589431,,1513265969,880063616,'',1.37881010908,1.37704876763,0.108027958675,-0.00176134144697,0.001,8.80670723483,5000.0,0.0,0.0,0.0
1513265971684336105,,589432,,1513265969,890063616,'',1.37881010908,1.37704876763,0.0896981489954,-0.00176134144697,0.001,8.80670723483,5000.0,0.0,0.0,0.0
1513265971694841955,,589433,,1513265969,900063616,'',1.37881010908,1.37704876763,0.0720771353875,-0.00176134144697,0.001,8.80670723483,5000.0,0.0,0.0,0.0
1513265971704737127,,589434,,1513265969,910063616,'',1.37881010908,1.37824968225,0.0793011837774,0.0,0.001,-0.0,5000.0,0.0,0.0,0.0
1513265971714644663,,589435,,1513265969,920063616,'',1.37881010908,1.37824968225,0.0640717857798,0.0,0.001,0.0,5000.0,0.0,0.0,0.0
1513265971724630661,,589436,,1513265969,930063616,'',1.37881010908,1.37945059687,0.0731866345557,0.0,0.001,0.0,5000.0,0.0,0.0,0.0
1513265971734585597,,589437,,1513265969,940063616,'',1.37881010908,1.37824968225,0.0383089661652,0.0,0.001,0.0,5000.0,0.0,0.0,0.0
1513265971744582230,,589438,,1513265969,950063616,'',1.37881010908,1.37824968225,0.0270659232542,0.0,0.001,0.0,5000.0,0.0,0.0,0.0
1513265971754599962,,589439,,1513265969,960063616,'',1.37881010908,1.37945059687,0.043337403985,0.0,0.001,0.0,5000.0,0.0,0.0,0.0
1513265971764475158,,589440,,1513265969,970063616,'',1.37881010908,1.37945059687,0.0363128591323,0.0,0.001,0.0,5000.0,0.0,0.0,0.0
1513265971774416085,,589441,,1513265969,980063616,'',1.37881010908,1.3806515115,0.0535418913804,0.0,0.001,0.0,5000.0,0.0,0.0,0.0
1513265971784860061,,589442,,1513265969,990063616,'',1.37881010908,1.3806515115,0.0477641789624,0.0,0.001,0.0,5000.0,0.0,0.0,0.0
1513265971794928273,,589443,,1513265970,63616,'',1.37881010908,1.37945059687,0.0179230214691,0.0,0.001,0.0,5000.0,0.0,0.0,0.0
1513265971804872142,,589444,,1513265970,10063616,'',1.37881010908,1.37824968225,-0.0094995152391,0.0,0.001,0.0,5000.0,0.0,0.0,0.0
1513265971814721743,,589445,,1513265970,20063616,'',1.37881010908,1.37945059687,0.0120363265903,0.0,0.001,0.0,5000.0,0.0,0.0,0.0
1513265971824797449,,589446,,1513265970,30063616,'',1.37881010908,1.3806515115,0.0314465941981,0.0,0.001,0.0,5000.0,0.0,0.0,0.0
1513265971834766087,,589447,,1513265970,40063616,'',1.37881010908,1.3806515115,0.0279309430469,0.0,0.001,0.0,5000.0,0.0,0.0,0.0
1513265971844652682,,589448,,1513265970,50063616,'',1.37881010908,1.3806515115,0.0255372166529,0.0,0.001,0.0,5000.0,0.0,0.0,0.0
1513265971854450324,,589449,,1513265970,60063616,'',1.37881010908,1.3806515115,0.0213203260106,0.0,0.001,0.0,5000.0,0.0,0.0,0.0
1513265971864402735,,589450,,1513265970,70063616,'',1.37881010908,1.3806515115,0.0169851514418,0.0,0.001,0.0,5000.0,0.0,0.0,0.0
1513265971874506180,,589451,,1513265970,80063616,'',1.37881010908,1.38185242612,0.0381230373932,0.0,0.001,0.0,5000.0,0.0,0.0,0.0
1513265971884804697,,589452,,1513265970,90063616,'',1.37881010908,1.38185242612,0.0316378324548,0.0,0.001,0.0,5000.0,0.0,0.0,0.0
1513265971894657134,,589453,,1513265970,100063616,'',1.37881010908,1.38305334074,0.0504890833292,0.0,0.001,0.0,5000.0,0.0,0.0,0.0
1513265971904618423,,589454,,1513265970,110063616,'',1.37881010908,1.38185242612,0.0200728054296,0.0,0.001,0.0,5000.0,0.0,0.0,0.0
1513265971914594776,,589455,,1513265970,120063616,'',1.37881010908,1.38185242612,0.0147166210667,0.0,0.001,0.0,5000.0,0.0,0.0,0.0
1513265971924579044,,589456,,1513265970,130063616,'',1.37881010908,1.38305334074,0.034036163185,0.0,0.001,0.0,5000.0,0.0,0.0,0.0
1513265971934538510,,589457,,1513265970,140063616,'',1.37881010908,1.38425425537,0.0534157928467,0.0,0.001,0.0,5000.0,0.0,0.0,0.0
1513265971944636676,,589458,,1513265970,150063616,'',1.37881010908,1.38185242612,0.00231676706872,0.0,0.001,0.0,5000.0,0.0,0.0,0.0
1513265971954904199,,589459,,1513265970,160063616,'',1.37881010908,1.38185242612,0.00155542548481,0.0,0.001,0.0,5000.0,0.0,0.0,0.0
1513265971964810669,,589460,,1513265970,170063616,'',1.37881010908,1.38305334074,0.0238157965898,0.0,0.001,0.0,5000.0,0.0,0.0,0.0
1513265971974762174,,589461,,1513265970,180063616,'',1.37881010908,1.38185242612,-0.000318549613131,0.0,0.001,0.0,5000.0,0.0,0.0,0.0
1513265971984870521,,589462,,1513265970,190063616,'',1.37881010908,1.38185242612,-0.00118156276924,0.0,0.001,0.0,5000.0,0.0,0.0,0.0
1513265971994706830,,589463,,1513265970,200063616,'',1.37881010908,1.38185242612,-0.00192637078853,0.0,0.001,0.0,5000.0,0.0,0.0,0.0
1513265972004620739,,589464,,1513265970,210063616,'',1.37881010908,1.38185242612,-0.0024668804716,0.0,0.001,0.0,5000.0,0.0,0.0,0.0
1513265972014498007,,589465,,1513265970,220063616,'',1.37881010908,1.3806515115,-0.0270227943557,0.0,0.001,0.0,5000.0,0.0,0.0,0.0
1513265972024761196,,589466,,1513265970,230063616,'',1.37881010908,1.3806515115,-0.0269059969181,0.0,0.001,0.0,5000.0,0.0,0.0,0.0
1513265972034675361,,589467,,1513265970,240063616,'',1.37881010908,1.38185242612,-0.00346593726174,0.0,0.001,0.0,5000.0,0.0,0.0,0.0
1513265972044654892,,589468,,1513265970,250063616,'',1.37881010908,1.38185242612,-0.00414774152211,0.0,0.001,0.0,5000.0,0.0,0.0,0.0
1513265972054581168,,589469,,1513265970,260063616,'',1.37881010908,1.38185242612,-0.00334766824892,0.0,0.001,0.0,5000.0,0.0,0.0,0.0
1513265972064554488,,589470,,1513265970,270063616,'',1.37881010908,1.38185242612,-0.00401613900343,0.0,0.001,0.0,5000.0,0.0,0.0,0.0
1513265972074476219,,589471,,1513265970,280063616,'',1.37881010908,1.38185242612,-0.0053911306375,0.0,0.001,0.0,5000.0,0.0,0.0,0.0
1513265972084444081,,589472,,1513265970,290063616,'',1.37881010908,1.38185242612,-0.00581196687466,0.0,0.001,0.0,5000.0,0.0,0.0,0.0
1513265972094605322,,589473,,1513265970,300063616,'',1.37881010908,1.38185242612,-0.00565524154658,0.0,0.001,0.0,5000.0,0.0,0.0,0.0
1513265972104443530,,589474,,1513265970,310063616,'',1.37881010908,1.38185242612,-0.00512184285618,0.0,0.001,0.0,5000.0,0.0,0.0,0.0
1513265972114560612,,589475,,1513265970,320063616,'',1.37881010908,1.38185242612,-0.00598305753479,0.0,0.001,0.0,5000.0,0.0,0.0,0.0
1513265972124430974,,589476,,1513265970,330063616,'',1.37881010908,1.38305334074,0.0180747158677,0.0,0.001,0.0,5000.0,0.0,0.0,0.0
1513265972134511740,,589477,,1513265970,340063616,'',1.37881010908,1.38185242612,-0.00591103195348,0.0,0.001,0.0,5000.0,0.0,0.0,0.0
1513265972144353282,,589478,,1513265970,350063616,'',1.37881010908,1.38185242612,-0.00662284528199,0.0,0.001,0.0,5000.0,0.0,0.0,0.0
1513265972154915846,,589479,,1513265970,360063616,'',1.37881010908,1.38185242612,-0.00623940875627,0.0,0.001,0.0,5000.0,0.0,0.0,0.0
1513265972164707889,,589480,,1513265970,370063616,'',1.37881010908,1.38305334074,0.0169230755837,0.0,0.001,0.0,5000.0,0.0,0.0,0.0
1513265972174797562,,589481,,1513265970,380063616,'',1.37881010908,1.38425425537,0.0402955313858,0.0,0.001,0.0,5000.0,0.0,0.0,0.0
1513265972184627623,,589482,,1513265970,390063616,'',1.37881010908,1.38305334074,0.0161485347103,0.0,0.001,0.0,5000.0,0.0,0.0,0.0
1513265972194754572,,589483,,1513265970,400063616,'',1.37881010908,1.38185242612,-0.008435368656,0.0,0.001,0.0,5000.0,0.0,0.0,0.0
1513265972204730808,,589484,,1513265970,410063616,'',1.37881010908,1.38425425537,0.0379754249743,0.0,0.001,0.0,5000.0,0.0,0.0,0.0
1513265972214468727,,589485,,1513265970,420063616,'',1.37881010908,1.38305334074,0.0112125936333,0.0,0.001,0.0,5000.0,0.0,0.0,0.0
1513265972224458291,,589486,,1513265970,430063616,'',1.37881010908,1.38305334074,0.0100577464543,0.0,0.001,0.0,5000.0,0.0,0.0,0.0
1513265972234432688,,589487,,1513265970,440063616,'',1.37881010908,1.38185242612,-0.0146303884852,0.0,0.001,0.0,5000.0,0.0,0.0,0.0
1513265972244321353,,589488,,1513265970,450063616,'',1.37881010908,1.38305334074,0.00878887533408,0.0,0.001,0.0,5000.0,0.0,0.0,0.0
1513265972254842202,,589489,,1513265970,460063616,'',1.37881010908,1.38185242612,-0.0157565846402,0.0,0.001,0.0,5000.0,0.0,0.0,0.0
1513265972264731244,,589490,,1513265970,470063616,'',1.37881010908,1.38305334074,0.00961821266801,0.0,0.001,0.0,5000.0,0.0,0.0,0.0
1513265972274603477,,589491,,1513265970,480063616,'',1.37881010908,1.38305334074,0.00924229477591,0.0,0.001,0.0,5000.0,0.0,0.0,0.0
1513265972284555583,,589492,,1513265970,490063616,'',1.37881010908,1.38305334074,0.00718005259243,0.0,0.001,0.0,5000.0,0.0,0.0,0.0
1513265972294519717,,589493,,1513265970,500063616,'',1.37881010908,1.38185242612,-0.0170418396244,0.0,0.001,0.0,5000.0,0.0,0.0,0.0
1513265972304435757,,589494,,1513265970,510063616,'',1.37881010908,1.38185242612,-0.0183474048987,0.0,0.001,0.0,5000.0,0.0,0.0,0.0
1513265972314360484,,589495,,1513265970,520063616,'',1.37881010908,1.38305334074,0.00607935937027,0.0,0.001,0.0,5000.0,0.0,0.0,0.0
1513265972324828321,,589496,,1513265970,530063616,'',1.37881010908,1.38185242612,-0.0174128416664,0.0,0.001,0.0,5000.0,0.0,0.0,0.0
1513265972334797634,,589497,,1513265970,540063616,'',1.37881010908,1.38185242612,-0.0146447629948,0.0,0.001,0.0,5000.0,0.0,0.0,0.0
1513265972344737205,,589498,,1513265970,550063616,'',1.37881010908,1.38305334074,0.00964742855297,0.0,0.001,0.0,5000.0,0.0,0.0,0.0
1513265972354677561,,589499,,1513265970,560063616,'',1.37881010908,1.38185242612,-0.0131998483088,0.0,0.001,0.0,5000.0,0.0,0.0,0.0
1513265972364594837,,589500,,1513265970,570063616,'',1.37881010908,1.38185242612,-0.0116983275042,0.0,0.001,0.0,5000.0,0.0,0.0,0.0
1513265972374764109,,589501,,1513265970,580063616,'',1.37881010908,1.38185242612,-0.00954591210316,0.0,0.001,0.0,5000.0,0.0,0.0,0.0
1513265972384508073,,589502,,1513265970,590063616,'',1.37881010908,1.38185242612,-0.00736732643027,0.0,0.001,0.0,5000.0,0.0,0.0,0.0
1513265972394464569,,589503,,1513265970,600063616,'',1.37881010908,1.38185242612,-0.00647113256236,0.0,0.001,0.0,5000.0,0.0,0.0,0.0
1513265972404417815,,589504,,1513265970,610063616,'',1.37881010908,1.3806515115,-0.0269233301104,0.0,0.001,0.0,5000.0,0.0,0.0,0.0
1513265972414818364,,589505,,1513265970,620063616,'',1.37881010908,1.3806515115,-0.0237476489825,0.0,0.001,0.0,5000.0,0.0,0.0,0.0
1513265972424767809,,589506,,1513265970,630063616,'',1.37881010908,1.38185242612,0.00215207792238,0.0,0.001,0.0,5000.0,0.0,0.0,0.0
1513265972434838486,,589507,,1513265970,640063616,'',1.37881010908,1.3806515115,-0.019864580432,0.0,0.001,0.0,5000.0,0.0,0.0,0.0
1513265972444751854,,589508,,1513265970,650063616,'',1.37881010908,1.3806515115,-0.0178882060115,0.0,0.001,0.0,5000.0,0.0,0.0,0.0
1513265972454618597,,589509,,1513265970,660063616,'',1.37881010908,1.37945059687,-0.0388181467415,0.0,0.001,0.0,5000.0,0.0,0.0,0.0
1513265972464558794,,589510,,1513265970,670063616,'',1.37881010908,1.37945059687,-0.0334701065706,0.0,0.001,0.0,5000.0,0.0,0.0,0.0
1513265972474499408,,589511,,1513265970,680063616,'',1.37881010908,1.37945059687,-0.0281629905005,0.0,0.001,0.0,5000.0,0.0,0.0,0.0
1513265972484501099,,589512,,1513265970,690063616,'',1.37881010908,1.37824968225,-0.0423461341395,0.0,0.001,0.0,5000.0,0.0,0.0,0.0
1513265972494824180,,589513,,1513265970,700063616,'',1.37881010908,1.37584785301,-0.0778312059241,0.0,0.001,0.0,5000.0,0.0,0.0,0.0
1513265972504651248,,589514,,1513265970,710063616,'',1.37881010908,1.37344602376,-0.107813281592,0.0,0.001,0.0,5000.0,0.0,0.0,0.0
1513265972514651458,,589515,,1513265970,720063616,'',1.37881010908,1.37344602376,-0.0900166107124,0.0,0.001,0.0,5000.0,0.0,0.0,0.0
1513265972524575036,,589516,,1513265970,730063616,'',1.37881010908,1.37224510914,-0.0952789278044,0.0,0.001,0.0,5000.0,0.0,0.0,0.0
1513265972534479242,,589517,,1513265970,740063616,'',1.37881010908,1.37224510914,-0.0766782412431,0.0,0.001,0.0,5000.0,0.0,0.0,0.0
1513265972544499743,,589518,,1513265970,750063616,'',1.37881010908,1.36984327989,-0.106777565087,0.0,0.001,0.0,5000.0,0.0,0.0,0.0
1513265972554465318,,589519,,1513265970,760063616,'',1.37881010908,1.36984327989,-0.0886980615503,0.0,0.001,0.0,5000.0,0.0,0.0,0.0
1513265972564470576,,589520,,1513265970,770063616,'',1.37881010908,1.36744145065,-0.117492075681,0.0,0.001,0.0,5000.0,0.0,0.0,0.0
1513265972574799404,,589521,,1513265970,780063616,'',1.37881010908,1.36864236527,-0.0745223366921,0.0,0.001,0.0,5000.0,0.0,0.0,0.0
1513265972584721716,,589522,,1513265970,790063616,'',1.37881010908,1.36864236527,-0.0579293406458,0.0,0.001,0.0,5000.0,0.0,0.0,0.0
1513265972594650079,,589523,,1513265970,800063616,'',1.37881010908,1.36984327989,-0.0206845050276,-0.00896682918456,0.001,44.8341459228,5000.0,0.0,0.0,0.0
1513265972604622544,,589524,,1513265970,810063616,'',1.37881010908,1.36864236527,-0.0364485684605,-0.0101677438075,0.001,50.8387190375,5000.0,0.0,0.0,0.0
1513265972614519547,,589525,,1513265970,820063616,'',1.37881010908,1.36864236527,-0.0312160916899,-0.0101677438075,0.001,50.8387190375,5000.0,0.0,0.0,0.0
1513265972624465289,,589526,,1513265970,830063616,'',1.37881010908,1.36864236527,-0.0273023032299,-0.0101677438075,0.001,50.8387190375,5000.0,0.0,0.0,0.0
1513265972634885002,,589527,,1513265970,840063616,'',1.37881010908,1.36984327989,-0.00166445523744,-0.00896682918456,0.001,44.8341459228,5000.0,0.0,0.0,0.0
1513265972644859660,,589528,,1513265970,850063616,'',1.37881010908,1.36984327989,-0.00183435052248,-0.00896682918456,0.001,44.8341459228,5000.0,0.0,0.0,0.0
1513265972654757286,,589529,,1513265970,860063616,'',1.37881010908,1.36984327989,-0.00324832729117,-0.00896682918456,0.001,44.8341459228,5000.0,0.0,0.0,0.0
1513265972664730313,,589530,,1513265970,870063616,'',1.37881010908,1.36984327989,-0.0052395375189,-0.00896682918456,0.001,44.8341459228,5000.0,0.0,0.0,0.0
1513265972674757438,,589531,,1513265970,880063616,'',1.37881010908,1.36864236527,-0.0289254416926,-0.0101677438075,0.001,50.8387190375,5000.0,0.0,0.0,0.0
1513265972684816124,,589532,,1513265970,890063616,'',1.37881010908,1.37224510914,0.0424049477021,-0.00656499993869,0.001,32.8249996935,5000.0,0.0,0.0,0.0
1513265972694586392,,589533,,1513265970,900063616,'',1.37881010908,1.37224510914,0.0412161319412,-0.00656499993869,0.001,32.8249996935,5000.0,0.0,0.0,0.0
1513265972704653849,,589534,,1513265970,910063616,'',1.37881010908,1.37104419451,0.0151898449291,-0.00776591456163,0.001,38.8295728081,5000.0,0.0,0.0,0.0
1513265972714406348,,589535,,1513265970,920063616,'',1.37881010908,1.37104419451,0.013757736877,-0.00776591456163,0.001,38.8295728081,5000.0,0.0,0.0,0.0
1513265972724534134,,589536,,1513265970,930063616,'',1.37881010908,1.36984327989,-0.012051554537,-0.00896682918456,0.001,44.8341459228,5000.0,0.0,0.0,0.0
1513265972734755245,,589537,,1513265970,940063616,'',1.37881010908,1.37344602376,0.0531033468338,-0.00536408531576,0.001,26.8204265788,5000.0,0.0,0.0,0.0
1513265972744596101,,589538,,1513265970,950063616,'',1.37881010908,1.37584785301,0.0869641325207,-0.0029622560699,0.001,14.8112803495,5000.0,0.0,0.0,0.0
1513265972754614597,,589539,,1513265970,960063616,'',1.37881010908,1.38185242612,0.180329316088,0.00304231704476,0.001,-15.2115852238,5000.0,0.0,0.0,0.0
1513265972764592156,,589540,,1513265970,970063616,'',1.37881010908,1.39025882848,0.305440348425,0.0114487194053,0.001,-57.2435970264,5000.0,0.0,0.0,0.0
1513265972774807677,,589541,,1513265970,980063616,'',1.37881010908,1.40466980396,0.507826076449,0.0,0.001,0.0,5000.0,0.0,0.0,0.0
1513265972784665518,,589542,,1513265970,990063616,'',1.37881010908,1.40827254782,0.480014075685,0.0,0.001,0.0,5000.0,0.0,0.0,0.0
1513265972794844785,,589543,,1513265971,63616,'',1.37881010908,1.41307620632,0.483942687175,0.034266097241,0.001,-171.330486205,5000.0,0.0,0.0,0.0
1513265972804791136,,589544,,1513265971,10063616,'',1.37881010908,1.41787986481,0.481151726925,0.0390697557327,0.001,-195.348778664,5000.0,0.0,0.0,0.0
1513265972814601126,,589545,,1513265971,20063616,'',1.37881010908,1.42148260868,0.459361423836,0.0426724996015,0.001,-213.362498008,5000.0,0.0,0.0,0.0
1513265972824623687,,589546,,1513265971,30063616,'',1.37881010908,1.4226835233,0.400401558078,0.0438734142244,0.001,-219.367071122,5000.0,0.0,0.0,0.0
1513265972834686489,,589547,,1513265971,40063616,'',1.37881010908,1.42148260868,0.307010900294,0.0426724996015,0.001,-213.362498008,5000.0,0.0,0.0,0.0
1513265972844514085,,589548,,1513265971,50063616,'',1.37881010908,1.42388443792,0.297206358246,0.0450743288474,0.001,-225.371644237,5000.0,0.0,0.0,0.0
1513265972854604180,,589549,,1513265971,60063616,'',1.37881010908,1.42388443792,0.246721149045,0.0450743288474,0.001,-225.371644237,5000.0,0.0,0.0,0.0
1513265972864906219,,589550,,1513265971,70063616,'',1.37881010908,1.42388443792,0.203764470822,0.0450743288474,0.001,-225.371644237,5000.0,0.0,0.0,0.0
1513265972874996119,,589551,,1513265971,80063616,'',1.37881010908,1.42628626717,0.210802899253,0.0474761580932,0.001,-237.380790466,5000.0,0.0,0.0,0.0
1513265972884616803,,589552,,1513265971,90063616,'',1.37881010908,1.42508535255,0.151410723388,0.0462752434703,0.001,-231.376217352,5000.0,0.0,0.0,0.0
1513265972894858414,,589553,,1513265971,100063616,'',1.37881010908,1.42508535255,0.122715101346,0.0462752434703,0.001,-231.376217352,5000.0,0.0,0.0,0.0
1513265972904812779,,589554,,1513265971,110063616,'',1.37881010908,1.42628626717,0.121250707894,0.0474761580932,0.001,-237.380790466,5000.0,0.0,0.0,0.0
1513265972914752714,,589555,,1513265971,120063616,'',1.37881010908,1.42628626717,0.102432992502,0.0474761580932,0.001,-237.380790466,5000.0,0.0,0.0,0.0
1513265972924694486,,589556,,1513265971,130063616,'',1.37881010908,1.42508535255,0.0648765214579,0.0462752434703,0.001,-231.376217352,5000.0,0.0,0.0,0.0
1513265972934545380,,589557,,1513265971,140063616,'',1.37881010908,1.42388443792,0.0310373197236,0.0450743288474,0.001,-225.371644237,5000.0,0.0,0.0,0.0
1513265972944694255,,589558,,1513265971,150063616,'',1.37881010908,1.42508535255,0.0461106585434,0.0462752434703,0.001,-231.376217352,5000.0,0.0,0.0,0.0
1513265972954418368,,589559,,1513265971,160063616,'',1.37881010908,1.42388443792,0.0165251206413,0.0450743288474,0.001,-225.371644237,5000.0,0.0,0.0,0.0
1513265972964730770,,589560,,1513265971,170063616,'',1.37881010908,1.42388443792,0.0113630851584,0.0450743288474,0.001,-225.371644237,5000.0,0.0,0.0,0.0
1513265972974701798,,589561,,1513265971,180063616,'',1.37881010908,1.42388443792,0.00805598172457,0.0450743288474,0.001,-225.371644237,5000.0,0.0,0.0,0.0
1513265972984588526,,589562,,1513265971,190063616,'',1.37881010908,1.42388443792,0.00486295004032,0.0450743288474,0.001,-225.371644237,5000.0,0.0,0.0,0.0
1513265972994553839,,589563,,1513265971,200063616,'',1.37881010908,1.42388443792,0.00401324721766,0.0450743288474,0.001,-225.371644237,5000.0,0.0,0.0,0.0
1513265973004658074,,589564,,1513265971,210063616,'',1.37881010908,1.42388443792,0.00371938176701,0.0450743288474,0.001,-225.371644237,5000.0,0.0,0.0,0.0
1513265973014663596,,589565,,1513265971,220063616,'',1.37881010908,1.42388443792,0.00345143097146,0.0450743288474,0.001,-225.371644237,5000.0,0.0,0.0,0.0
1513265973024561605,,589566,,1513265971,230063616,'',1.37881010908,1.42388443792,0.00366850218812,0.0450743288474,0.001,-225.371644237,5000.0,0.0,0.0,0.0
1513265973034594817,,589567,,1513265971,240063616,'',1.37881010908,1.4226835233,-0.0181575441692,0.0438734142244,0.001,-219.367071122,5000.0,0.0,0.0,0.0
1513265973044607672,,589568,,1513265971,250063616,'',1.37881010908,1.4226835233,-0.0174728932967,0.0438734142244,0.001,-219.367071122,5000.0,0.0,0.0,0.0
1513265973054521231,,589569,,1513265971,260063616,'',1.37881010908,1.4226835233,-0.0147570469968,0.0438734142244,0.001,-219.367071122,5000.0,0.0,0.0,0.0
1513265973064509782,,589570,,1513265971,270063616,'',1.37881010908,1.4226835233,-0.0120468565554,0.0438734142244,0.001,-219.367071122,5000.0,0.0,0.0,0.0
1513265973074487114,,589571,,1513265971,280063616,'',1.37881010908,1.4226835233,-0.00896009936555,0.0438734142244,0.001,-219.367071122,5000.0,0.0,0.0,0.0
1513265973084414785,,589572,,1513265971,290063616,'',1.37881010908,1.4226835233,-0.00858924356838,0.0438734142244,0.001,-219.367071122,5000.0,0.0,0.0,0.0
1513265973094895814,,589573,,1513265971,300063616,'',1.37881010908,1.42388443792,0.0158926383882,0.0450743288474,0.001,-225.371644237,5000.0,0.0,0.0,0.0
1513265973104837834,,589574,,1513265971,310063616,'',1.37881010908,1.4226835233,-0.00689500981341,0.0438734142244,0.001,-219.367071122,5000.0,0.0,0.0,0.0
1513265973114833961,,589575,,1513265971,320063616,'',1.37881010908,1.42388443792,0.0193963585577,0.0450743288474,0.001,-225.371644237,5000.0,0.0,0.0,0.0
1513265973124745475,,589576,,1513265971,330063616,'',1.37881010908,1.4226835233,-0.000469739790697,0.0438734142244,0.001,-219.367071122,5000.0,0.0,0.0,0.0
1513265973134770930,,589577,,1513265971,340063616,'',1.37881010908,1.4226835233,0.00309059828823,0.0438734142244,0.001,-219.367071122,5000.0,0.0,0.0,0.0
1513265973144825835,,589578,,1513265971,350063616,'',1.37881010908,1.4226835233,0.00641264546889,0.0438734142244,0.001,-219.367071122,5000.0,0.0,0.0,0.0
1513265973154612988,,589579,,1513265971,360063616,'',1.37881010908,1.42148260868,-0.0141516493529,0.0426724996015,0.001,-213.362498008,5000.0,0.0,0.0,0.0
1513265973164499550,,589580,,1513265971,370063616,'',1.37881010908,1.42028169405,-0.0365639001543,0.0414715849786,0.001,-207.357924893,5000.0,0.0,0.0,0.0
1513265973174529357,,589581,,1513265971,380063616,'',1.37881010908,1.42028169405,-0.0337835090299,0.0414715849786,0.001,-207.357924893,5000.0,0.0,0.0,0.0
1513265973184444422,,589582,,1513265971,390063616,'',1.37881010908,1.42148260868,-0.00553315694304,0.0426724996015,0.001,-213.362498008,5000.0,0.0,0.0,0.0
1513265973194362269,,589583,,1513265971,400063616,'',1.37881010908,1.42028169405,-0.0260640406613,0.0414715849786,0.001,-207.357924893,5000.0,0.0,0.0,0.0
1513265973204885782,,589584,,1513265971,410063616,'',1.37881010908,1.42148260868,0.0015665927519,0.0426724996015,0.001,-213.362498008,5000.0,0.0,0.0,0.0
1513265973214780599,,589585,,1513265971,420063616,'',1.37881010908,1.4226835233,0.0290007791623,0.0438734142244,0.001,-219.367071122,5000.0,0.0,0.0,0.0
1513265973224714613,,589586,,1513265971,430063616,'',1.37881010908,1.42028169405,-0.0168312132152,0.0414715849786,0.001,-207.357924893,5000.0,0.0,0.0,0.0
1513265973234730762,,589587,,1513265971,440063616,'',1.37881010908,1.42028169405,-0.0145739602143,0.0414715849786,0.001,-207.357924893,5000.0,0.0,0.0,0.0
1513265973244827241,,589588,,1513265971,450063616,'',1.37881010908,1.42028169405,-0.0137095159521,0.0414715849786,0.001,-207.357924893,5000.0,0.0,0.0,0.0
1513265973254696955,,589589,,1513265971,460063616,'',1.37881010908,1.42148260868,0.0116760711762,0.0426724996015,0.001,-213.362498008,5000.0,0.0,0.0,0.0
1513265973264634751,,589590,,1513265971,470063616,'',1.37881010908,1.42028169405,-0.010738238265,0.0414715849786,0.001,-207.357924893,5000.0,0.0,0.0,0.0
1513265973274661451,,589591,,1513265971,480063616,'',1.37881010908,1.42028169405,-0.00965664779254,0.0414715849786,0.001,-207.357924893,5000.0,0.0,0.0,0.0
1513265973284592919,,589592,,1513265971,490063616,'',1.37881010908,1.42028169405,-0.00957836513361,0.0414715849786,0.001,-207.357924893,5000.0,0.0,0.0,0.0
1513265973294573662,,589593,,1513265971,500063616,'',1.37881010908,1.42148260868,0.0150897029714,0.0426724996015,0.001,-213.362498008,5000.0,0.0,0.0,0.0
1513265973304503995,,589594,,1513265971,510063616,'',1.37881010908,1.42028169405,-0.00838056052088,0.0414715849786,0.001,-207.357924893,5000.0,0.0,0.0,0.0
1513265973314909352,,589595,,1513265971,520063616,'',1.37881010908,1.42148260868,0.0156204769551,0.0426724996015,0.001,-213.362498008,5000.0,0.0,0.0,0.0
1513265973324747246,,589596,,1513265971,530063616,'',1.37881010908,1.42148260868,0.0166997270488,0.0426724996015,0.001,-213.362498008,5000.0,0.0,0.0,0.0
1513265973334672924,,589597,,1513265971,540063616,'',1.37881010908,1.42028169405,-0.00482919676812,0.0414715849786,0.001,-207.357924893,5000.0,0.0,0.0,0.0
1513265973344627700,,589598,,1513265971,550063616,'',1.37881010908,1.41908077943,-0.0286434785187,0.0402706703556,0.001,-201.353351778,5000.0,0.0,0.0,0.0
1513265973354622625,,589599,,1513265971,560063616,'',1.37881010908,1.42028169405,-0.00355856446893,0.0414715849786,0.001,-207.357924893,5000.0,0.0,0.0,0.0
1513265973364565037,,589600,,1513265971,570063616,'',1.37881010908,1.42028169405,-0.0025069926213,0.0414715849786,0.001,-207.357924893,5000.0,0.0,0.0,0.0
1513265973374339729,,589601,,1513265971,580063616,'',1.37881010908,1.42028169405,-0.00297597089036,0.0414715849786,0.001,-207.357924893,5000.0,0.0,0.0,0.0
1513265973384792016,,589602,,1513265971,590063616,'',1.37881010908,1.41908077943,-0.0249295960266,0.0402706703556,0.001,-201.353351778,5000.0,0.0,0.0,0.0
1513265973394807416,,589603,,1513265971,600063616,'',1.37881010908,1.41908077943,-0.0229809912403,0.0402706703556,0.001,-201.353351778,5000.0,0.0,0.0,0.0
1513265973404780703,,589604,,1513265971,610063616,'',1.37881010908,1.41908077943,-0.0227301999868,0.0402706703556,0.001,-201.353351778,5000.0,0.0,0.0,0.0
1513265973414683803,,589605,,1513265971,620063616,'',1.37881010908,1.42028169405,0.000415096842784,0.0414715849786,0.001,-207.357924893,5000.0,0.0,0.0,0.0
1513265973424635101,,589606,,1513265971,630063616,'',1.37881010908,1.42028169405,-0.000508190937205,0.0414715849786,0.001,-207.357924893,5000.0,0.0,0.0,0.0
1513265973434535021,,589607,,1513265971,640063616,'',1.37881010908,1.42028169405,0.00040355093506,0.0414715849786,0.001,-207.357924893,5000.0,0.0,0.0,0.0
1513265973444533969,,589608,,1513265971,650063616,'',1.37881010908,1.42148260868,0.023672251197,0.0426724996015,0.001,-213.362498008,5000.0,0.0,0.0,0.0
1513265973454889589,,589609,,1513265971,660063616,'',1.37881010908,1.42028169405,0.00128300076044,0.0414715849786,0.001,-207.357924893,5000.0,0.0,0.0,0.0
1513265973464875225,,589610,,1513265971,670063616,'',1.37881010908,1.41908077943,-0.0222554688769,0.0402706703556,0.001,-201.353351778,5000.0,0.0,0.0,0.0
1513265973474811866,,589611,,1513265971,680063616,'',1.37881010908,1.41908077943,-0.0208149814354,0.0402706703556,0.001,-201.353351778,5000.0,0.0,0.0,0.0
1513265973484386529,,589612,,1513265971,690063616,'',1.37881010908,1.42028169405,0.00368204680569,0.0414715849786,0.001,-207.357924893,5000.0,0.0,0.0,0.0
1513265973494897620,,589613,,1513265971,700063616,'',1.37881010908,1.42028169405,0.00352287699035,0.0414715849786,0.001,-207.357924893,5000.0,0.0,0.0,0.0
1513265973504755090,,589614,,1513265971,710063616,'',1.37881010908,1.42028169405,0.00513417700549,0.0414715849786,0.001,-207.357924893,5000.0,0.0,0.0,0.0
1513265973514703961,,589615,,1513265971,720063616,'',1.37881010908,1.41908077943,-0.0191302521013,0.0402706703556,0.001,-201.353351778,5000.0,0.0,0.0,0.0
1513265973524625614,,589616,,1513265971,730063616,'',1.37881010908,1.42148260868,0.0283857558885,0.0426724996015,0.001,-213.362498008,5000.0,0.0,0.0,0.0
1513265973534617956,,589617,,1513265971,740063616,'',1.37881010908,1.42028169405,0.005545872872,0.0414715849786,0.001,-207.357924893,5000.0,0.0,0.0,0.0
1513265973544498561,,589618,,1513265971,750063616,'',1.37881010908,1.42028169405,0.00537962640104,0.0414715849786,0.001,-207.357924893,5000.0,0.0,0.0,0.0
1513265973554850661,,589619,,1513265971,760063616,'',1.37881010908,1.42028169405,0.00524389012997,0.0414715849786,0.001,-207.357924893,5000.0,0.0,0.0,0.0
1513265973564756764,,589620,,1513265971,770063616,'',1.37881010908,1.41787986481,-0.0424397492447,0.0390697557327,0.001,-195.348778664,5000.0,0.0,0.0,0.0
1513265973574625292,,589621,,1513265971,780063616,'',1.37881010908,1.41908077943,-0.0179917450621,0.0402706703556,0.001,-201.353351778,5000.0,0.0,0.0,0.0
1513265973584611864,,589622,,1513265971,790063616,'',1.37881010908,1.41908077943,-0.0172672493532,0.0402706703556,0.001,-201.353351778,5000.0,0.0,0.0,0.0
1513265973594571376,,589623,,1513265971,800063616,'',1.37881010908,1.41908077943,-0.0167723415308,0.0402706703556,0.001,-201.353351778,5000.0,0.0,0.0,0.0
1513265973604533023,,589624,,1513265971,810063616,'',1.37881010908,1.41908077943,-0.0153353606352,0.0402706703556,0.001,-201.353351778,5000.0,0.0,0.0,0.0
1513265973614493205,,589625,,1513265971,820063616,'',1.37881010908,1.42028169405,0.00990204739255,0.0414715849786,0.001,-207.357924893,5000.0,0.0,0.0,0.0
1513265973624489925,,589626,,1513265971,830063616,'',1.37881010908,1.42028169405,0.0102544620352,0.0414715849786,0.001,-207.357924893,5000.0,0.0,0.0,0.0
1513265973644784889,,589627,,1513265971,850063616,'',1.37881010908,1.42028169405,0.0116303524124,0.0414715849786,0.001,-207.357924893,5000.0,0.0,0.0,0.0
1513265973654763780,,589628,,1513265971,860063616,'',1.37881010908,1.41908077943,-0.0112681731026,0.0402706703556,0.001,-201.353351778,5000.0,0.0,0.0,0.0
1513265973664772165,,589629,,1513265971,870063616,'',1.37881010908,1.41787986481,-0.0342880465246,0.0390697557327,0.001,-195.348778664,5000.0,0.0,0.0,0.0
1513265973674650726,,589630,,1513265971,880063616,'',1.37881010908,1.41908077943,-0.00992751636015,0.0402706703556,0.001,-201.353351778,5000.0,0.0,0.0,0.0
1513265973684617365,,589631,,1513265971,890063616,'',1.37881010908,1.41787986481,-0.0341328785261,0.0390697557327,0.001,-195.348778664,5000.0,0.0,0.0,0.0
1513265973694563124,,589632,,1513265971,900063616,'',1.37881010908,1.42028169405,0.0122665049859,0.0414715849786,0.001,-207.357924893,5000.0,0.0,0.0,0.0
1513265973704606932,,589633,,1513265971,910063616,'',1.37881010908,1.42028169405,0.012673681358,0.0414715849786,0.001,-207.357924893,5000.0,0.0,0.0,0.0
1513265973714537951,,589634,,1513265971,920063616,'',1.37881010908,1.42028169405,0.0125191303733,0.0414715849786,0.001,-207.357924893,5000.0,0.0,0.0,0.0
1513265973724929178,,589635,,1513265971,930063616,'',1.37881010908,1.41787986481,-0.0342113728311,0.0390697557327,0.001,-195.348778664,5000.0,0.0,0.0,0.0
1513265973734834836,,589636,,1513265971,940063616,'',1.37881010908,1.41547803556,-0.0741788530637,0.0366679264869,0.001,-183.339632434,5000.0,0.0,0.0,0.0
1513265973744755210,,589637,,1513265971,950063616,'',1.37881010908,1.41547803556,-0.0597287088155,0.0366679264869,0.001,-183.339632434,5000.0,0.0,0.0,0.0
1513265973754646387,,589638,,1513265971,960063616,'',1.37881010908,1.41067437707,-0.133955980603,0.0318642679951,0.001,-159.321339976,5000.0,0.0,0.0,0.0
1513265973764570942,,589639,,1513265971,970063616,'',1.37881010908,1.40827254782,-0.154898417714,0.0294624387493,0.001,-147.312193746,5000.0,0.0,0.0,0.0
1513265973774671611,,589640,,1513265971,980063616,'',1.37881010908,1.40466980396,-0.195419189399,0.0258596948805,0.001,-129.298474402,5000.0,0.0,0.0,0.0
1513265973784595236,,589641,,1513265971,990063616,'',1.37881010908,1.40346888933,-0.184472152003,0.0246587802575,0.001,-123.293901288,5000.0,0.0,0.0,0.0
1513265973794721722,,589642,,1513265972,63616,'',1.37881010908,1.40346888933,-0.149184633845,0.0246587802575,0.001,-123.293901288,5000.0,0.0,0.0,0.0
1513265973804587800,,589643,,1513265972,10063616,'',1.37881010908,1.40106706009,-0.1616956017,0.0222569510117,0.001,-111.284755058,5000.0,0.0,0.0,0.0
1513265973814604399,,589644,,1513265972,20063616,'',1.37881010908,1.39986614546,-0.148723347986,0.0210560363887,0.001,-105.280181944,5000.0,0.0,0.0,0.0
1513265973824391073,,589645,,1513265972,30063616,'',1.37881010908,1.39746431622,-0.163295460452,0.0186542071429,0.001,-93.2710357144,5000.0,0.0,0.0,0.0
1513265973834927209,,589646,,1513265972,40063616,'',1.37881010908,1.39506248697,-0.180385290346,0.016252377897,0.001,-81.2618894851,5000.0,0.0,0.0,0.0
1513265973844803536,,589647,,1513265972,50063616,'',1.37881010908,1.3962634016,-0.130370048682,0.0174532925199,0.001,-87.2664625997,5000.0,0.0,0.0,0.0
1513265973854869182,,589648,,1513265972,60063616,'',1.37881010908,1.39506248697,-0.132743018249,0.016252377897,0.001,-81.2618894851,5000.0,0.0,0.0,0.0
1513265973864690955,,589649,,1513265972,70063616,'',1.37881010908,1.3962634016,-0.0888264923054,0.0174532925199,0.001,-87.2664625997,5000.0,0.0,0.0,0.0
1513265973874765510,,589650,,1513265972,80063616,'',1.37881010908,1.39506248697,-0.094772785787,0.016252377897,0.001,-81.2618894851,5000.0,0.0,0.0,0.0
1513265973884636457,,589651,,1513265972,90063616,'',1.37881010908,1.39506248697,-0.0775760437071,0.016252377897,0.001,-81.2618894851,5000.0,0.0,0.0,0.0
1513265973894653842,,589652,,1513265972,100063616,'',1.37881010908,1.39506248697,-0.0629919758405,0.016252377897,0.001,-81.2618894851,5000.0,0.0,0.0,0.0
1513265973904634061,,589653,,1513265972,110063616,'',1.37881010908,1.39386157235,-0.0752415880244,0.0150514632741,0.001,-75.2573163704,5000.0,0.0,0.0,0.0
1513265973914753110,,589654,,1513265972,120063616,'',1.37881010908,1.39386157235,-0.0654729885526,0.0150514632741,0.001,-75.2573163704,5000.0,0.0,0.0,0.0
1513265973924609362,,589655,,1513265972,130063616,'',1.37881010908,1.39506248697,-0.0328434484651,0.016252377897,0.001,-81.2618894851,5000.0,0.0,0.0,0.0
1513265973934652193,,589656,,1513265972,140063616,'',1.37881010908,1.39506248697,-0.0273040770986,0.016252377897,0.001,-81.2618894851,5000.0,0.0,0.0,0.0
1513265973944888711,,589657,,1513265972,150063616,'',1.37881010908,1.39386157235,-0.0452312759695,0.0150514632741,0.001,-75.2573163704,5000.0,0.0,0.0,0.0
1513265973954837444,,589658,,1513265972,160063616,'',1.37881010908,1.39506248697,-0.0184563293758,0.016252377897,0.001,-81.2618894851,5000.0,0.0,0.0,0.0
1513265973964731682,,589659,,1513265972,170063616,'',1.37881010908,1.39386157235,-0.0389315780863,0.0150514632741,0.001,-75.2573163704,5000.0,0.0,0.0,0.0
1513265973974664452,,589660,,1513265972,180063616,'',1.37881010908,1.3962634016,0.0117355134324,0.0174532925199,0.001,-87.2664625997,5000.0,0.0,0.0,0.0
1513265973984661406,,589661,,1513265972,190063616,'',1.37881010908,1.3962634016,0.0144135902965,0.0174532925199,0.001,-87.2664625997,5000.0,0.0,0.0,0.0
1513265973994573700,,589662,,1513265972,200063616,'',1.37881010908,1.39506248697,-0.00711080056593,0.016252377897,0.001,-81.2618894851,5000.0,0.0,0.0,0.0
1513265974004687214,,589663,,1513265972,210063616,'',1.37881010908,1.39506248697,-0.00580551588232,0.016252377897,0.001,-81.2618894851,5000.0,0.0,0.0,0.0
1513265974014639774,,589664,,1513265972,220063616,'',1.37881010908,1.39506248697,-0.0055705310648,0.016252377897,0.001,-81.2618894851,5000.0,0.0,0.0,0.0
1513265974024500146,,589665,,1513265972,230063616,'',1.37881010908,1.39506248697,-0.00454705891516,0.016252377897,0.001,-81.2618894851,5000.0,0.0,0.0,0.0
1513265974034412745,,589666,,1513265972,240063616,'',1.37881010908,1.39506248697,-0.00384503610409,0.016252377897,0.001,-81.2618894851,5000.0,0.0,0.0,0.0
1513265974044859084,,589667,,1513265972,250063616,'',1.37881010908,1.39506248697,-0.00185070918168,0.016252377897,0.001,-81.2618894851,5000.0,0.0,0.0,0.0
1513265974054823388,,589668,,1513265972,260063616,'',1.37881010908,1.39506248697,-0.00108516172177,0.016252377897,0.001,-81.2618894851,5000.0,0.0,0.0,0.0
1513265974064775402,,589669,,1513265972,270063616,'',1.37881010908,1.39506248697,-0.000469624094951,0.016252377897,0.001,-81.2618894851,5000.0,0.0,0.0,0.0
1513265974074721789,,589670,,1513265972,280063616,'',1.37881010908,1.39386157235,-0.024145823359,0.0150514632741,0.001,-75.2573163704,5000.0,0.0,0.0,0.0
1513265974084778961,,589671,,1513265972,290063616,'',1.37881010908,1.39386157235,-0.0231891658078,0.0150514632741,0.001,-75.2573163704,5000.0,0.0,0.0,0.0
1513265974094646776,,589672,,1513265972,300063616,'',1.37881010908,1.39386157235,-0.0212010466638,0.0150514632741,0.001,-75.2573163704,5000.0,0.0,0.0,0.0
1513265974104637967,,589673,,1513265972,310063616,'',1.37881010908,1.3962634016,0.0271623362418,0.0174532925199,0.001,-87.2664625997,5000.0,0.0,0.0,0.0
1513265974114518371,,589674,,1513265972,320063616,'',1.37881010908,1.3962634016,0.0274545306135,0.0174532925199,0.001,-87.2664625997,5000.0,0.0,0.0,0.0
1513265974124756249,,589675,,1513265972,330063616,'',1.37881010908,1.3962634016,0.0276711663259,0.0174532925199,0.001,-87.2664625997,5000.0,0.0,0.0,0.0
1513265974134732217,,589676,,1513265972,340063616,'',1.37881010908,1.39506248697,0.00268825411275,0.016252377897,0.001,-81.2618894851,5000.0,0.0,0.0,0.0
1513265974144594789,,589677,,1513265972,350063616,'',1.37881010908,1.39506248697,0.00269884079147,0.016252377897,0.001,-81.2618894851,5000.0,0.0,0.0,0.0
1513265974154443743,,589678,,1513265972,360063616,'',1.37881010908,1.39386157235,-0.0211167721291,0.0150514632741,0.001,-75.2573163704,5000.0,0.0,0.0,0.0
1513265974164592738,,589679,,1513265972,370063616,'',1.37881010908,1.39506248697,0.0034886919744,0.016252377897,0.001,-81.2618894851,5000.0,0.0,0.0,0.0
1513265974174543688,,589680,,1513265972,380063616,'',1.37881010908,1.39386157235,-0.0178515058634,0.0150514632741,0.001,-75.2573163704,5000.0,0.0,0.0,0.0
1513265974184967187,,589681,,1513265972,390063616,'',1.37881010908,1.39386157235,-0.015529425439,0.0150514632741,0.001,-75.2573163704,5000.0,0.0,0.0,0.0
1513265974194828207,,589682,,1513265972,400063616,'',1.37881010908,1.3962634016,0.0314337061369,0.0174532925199,0.001,-87.2664625997,5000.0,0.0,0.0,0.0
1513265974204736664,,589683,,1513265972,410063616,'',1.37881010908,1.39506248697,0.00673987270158,0.016252377897,0.001,-81.2618894851,5000.0,0.0,0.0,0.0
1513265974214742933,,589684,,1513265972,420063616,'',1.37881010908,1.39506248697,0.00644081521318,0.016252377897,0.001,-81.2618894851,5000.0,0.0,0.0,0.0
1513265974224543599,,589685,,1513265972,430063616,'',1.37881010908,1.39506248697,0.00740293045688,0.016252377897,0.001,-81.2618894851,5000.0,0.0,0.0,0.0
1513265974234506637,,589686,,1513265972,440063616,'',1.37881010908,1.39506248697,0.00645163753527,0.016252377897,0.001,-81.2618894851,5000.0,0.0,0.0,0.0
1513265974244612761,,589687,,1513265972,450063616,'',1.37881010908,1.39266065773,-0.0388037113649,0.0138505486511,0.001,-69.2527432557,5000.0,0.0,0.0,0.0
1513265974255179654,,589688,,1513265972,460063616,'',1.37881010908,1.39386157235,-0.0140762596935,0.0150514632741,0.001,-75.2573163704,5000.0,0.0,0.0,0.0
1513265974264488615,,589689,,1513265972,470063616,'',1.37881010908,1.39386157235,-0.0150194103763,0.0150514632741,0.001,-75.2573163704,5000.0,0.0,0.0,0.0
1513265974274743771,,589690,,1513265972,480063616,'',1.37881010908,1.39506248697,0.00889350243998,0.016252377897,0.001,-81.2618894851,5000.0,0.0,0.0,0.0
1513265974284746962,,589691,,1513265972,490063616,'',1.37881010908,1.39386157235,-0.0147278140363,0.0150514632741,0.001,-75.2573163704,5000.0,0.0,0.0,0.0
1513265974294634384,,589692,,1513265972,500063616,'',1.37881010908,1.39386157235,-0.0137088621923,0.0150514632741,0.001,-75.2573163704,5000.0,0.0,0.0,0.0
1513265974304602987,,589693,,1513265972,510063616,'',1.37881010908,1.39506248697,0.0109071808614,0.016252377897,0.001,-81.2618894851,5000.0,0.0,0.0,0.0
1513265974314594200,,589694,,1513265972,520063616,'',1.37881010908,1.39386157235,-0.0126882081007,0.0150514632741,0.001,-75.2573163704,5000.0,0.0,0.0,0.0
1513265974324584992,,589695,,1513265972,530063616,'',1.37881010908,1.39506248697,0.0124403429851,0.016252377897,0.001,-81.2618894851,5000.0,0.0,0.0,0.0
1513265974334583922,,589696,,1513265972,540063616,'',1.37881010908,1.39266065773,-0.0343671962956,0.0138505486511,0.001,-69.2527432557,5000.0,0.0,0.0,0.0
1513265974344479088,,589697,,1513265972,550063616,'',1.37881010908,1.39506248697,0.0142370885357,0.016252377897,0.001,-81.2618894851,5000.0,0.0,0.0,0.0
1513265974355086668,,589698,,1513265972,560063616,'',1.37881010908,1.39386157235,-0.00778383083972,0.0150514632741,0.001,-75.2573163704,5000.0,0.0,0.0,0.0
1513265974364802052,,589699,,1513265972,570063616,'',1.37881010908,1.39386157235,-0.00637502084566,0.0150514632741,0.001,-75.2573163704,5000.0,0.0,0.0,0.0
1513265974374634277,,589700,,1513265972,580063616,'',1.37881010908,1.39266065773,-0.0316032986455,0.0138505486511,0.001,-69.2527432557,5000.0,0.0,0.0,0.0
1513265974384571968,,589701,,1513265972,590063616,'',1.37881010908,1.39386157235,-0.00643324491826,0.0150514632741,0.001,-75.2573163704,5000.0,0.0,0.0,0.0
1513265974394393075,,589702,,1513265972,600063616,'',1.37881010908,1.39386157235,-0.00651714440594,0.0150514632741,0.001,-75.2573163704,5000.0,0.0,0.0,0.0
1513265974404909222,,589703,,1513265972,610063616,'',1.37881010908,1.39506248697,0.0181021407816,0.016252377897,0.001,-81.2618894851,5000.0,0.0,0.0,0.0
1513265974414821737,,589704,,1513265972,620063616,'',1.37881010908,1.39386157235,-0.00761707355316,0.0150514632741,0.001,-75.2573163704,5000.0,0.0,0.0,0.0
1513265974424734753,,589705,,1513265972,630063616,'',1.37881010908,1.39386157235,-0.00670881179553,0.0150514632741,0.001,-75.2573163704,5000.0,0.0,0.0,0.0
1513265974434603069,,589706,,1513265972,640063616,'',1.37881010908,1.39506248697,0.0165026100231,0.016252377897,0.001,-81.2618894851,5000.0,0.0,0.0,0.0
1513265974444582001,,589707,,1513265972,650063616,'',1.37881010908,1.39386157235,-0.00587436389659,0.0150514632741,0.001,-75.2573163704,5000.0,0.0,0.0,0.0
1513265974454691020,,589708,,1513265972,660063616,'',1.37881010908,1.39386157235,-0.005649275977,0.0150514632741,0.001,-75.2573163704,5000.0,0.0,0.0,0.0
1513265974464637365,,589709,,1513265972,670063616,'',1.37881010908,1.39386157235,-0.00458188480384,0.0150514632741,0.001,-75.2573163704,5000.0,0.0,0.0,0.0
1513265974474395138,,589710,,1513265972,680063616,'',1.37881010908,1.39386157235,-0.00510389979059,0.0150514632741,0.001,-75.2573163704,5000.0,0.0,0.0,0.0
1513265974484826623,,589711,,1513265972,690063616,'',1.37881010908,1.39506248697,0.016603883524,0.016252377897,0.001,-81.2618894851,5000.0,0.0,0.0,0.0
1513265974494754913,,589712,,1513265972,700063616,'',1.37881010908,1.39506248697,0.0184127269045,0.016252377897,0.001,-81.2618894851,5000.0,0.0,0.0,0.0
1513265974504615036,,589713,,1513265972,710063616,'',1.37881010908,1.39506248697,0.0185736981233,0.016252377897,0.001,-81.2618894851,5000.0,0.0,0.0,0.0
1513265974514584444,,589714,,1513265972,720063616,'',1.37881010908,1.39386157235,-0.00466553090245,0.0150514632741,0.001,-75.2573163704,5000.0,0.0,0.0,0.0
1513265974524581321,,589715,,1513265972,730063616,'',1.37881010908,1.39266065773,-0.0276727682466,0.0138505486511,0.001,-69.2527432557,5000.0,0.0,0.0,0.0
1513265974534453474,,589716,,1513265972,740063616,'',1.37881010908,1.39386157235,-0.00327379012625,0.0150514632741,0.001,-75.2573163704,5000.0,0.0,0.0,0.0
1513265974544942417,,589717,,1513265972,750063616,'',1.37881010908,1.39506248697,0.021959945568,0.016252377897,0.001,-81.2618894851,5000.0,0.0,0.0,0.0
1513265974554785434,,589718,,1513265972,760063616,'',1.37881010908,1.39506248697,0.0200923179658,0.016252377897,0.001,-81.2618894851,5000.0,0.0,0.0,0.0
1513265974564916957,,589719,,1513265972,770063616,'',1.37881010908,1.39386157235,-0.00467118578587,0.0150514632741,0.001,-75.2573163704,5000.0,0.0,0.0,0.0
1513265974574745035,,589720,,1513265972,780063616,'',1.37881010908,1.39386157235,-0.00511821038619,0.0150514632741,0.001,-75.2573163704,5000.0,0.0,0.0,0.0
1513265974584747128,,589721,,1513265972,790063616,'',1.37881010908,1.39386157235,-0.00678101577412,0.0150514632741,0.001,-75.2573163704,5000.0,0.0,0.0,0.0
1513265974594693745,,589722,,1513265972,800063616,'',1.37881010908,1.39506248697,0.0168894000949,0.016252377897,0.001,-81.2618894851,5000.0,0.0,0.0,0.0
1513265974604686185,,589723,,1513265972,810063616,'',1.37881010908,1.39506248697,0.0172767878562,0.016252377897,0.001,-81.2618894851,5000.0,0.0,0.0,0.0
1513265974614472130,,589724,,1513265972,820063616,'',1.37881010908,1.39386157235,-0.0066522113503,0.0150514632741,0.001,-75.2573163704,5000.0,0.0,0.0,0.0
1513265974624425727,,589725,,1513265972,830063616,'',1.37881010908,1.39266065773,-0.0304994181877,0.0138505486511,0.001,-69.2527432557,5000.0,0.0,0.0,0.0
1513265974634370186,,589726,,1513265972,840063616,'',1.37881010908,1.39266065773,-0.0293876639163,0.0138505486511,0.001,-69.2527432557,5000.0,0.0,0.0,0.0
1513265974644799153,,589727,,1513265972,850063616,'',1.37881010908,1.39506248697,0.0186345690876,0.016252377897,0.001,-81.2618894851,5000.0,0.0,0.0,0.0
1513265974654708731,,589728,,1513265972,860063616,'',1.37881010908,1.39386157235,-0.00510854698522,0.0150514632741,0.001,-75.2573163704,5000.0,0.0,0.0,0.0
1513265974664551342,,589729,,1513265972,870063616,'',1.37881010908,1.39386157235,-0.00375518266572,0.0150514632741,0.001,-75.2573163704,5000.0,0.0,0.0,0.0
1513265974674627265,,589730,,1513265972,880063616,'',1.37881010908,1.39386157235,-0.00262618310189,0.0150514632741,0.001,-75.2573163704,5000.0,0.0,0.0,0.0
1513265974684520762,,589731,,1513265972,890063616,'',1.37881010908,1.39386157235,-0.00255378870396,0.0150514632741,0.001,-75.2573163704,5000.0,0.0,0.0,0.0
1513265974694582418,,589732,,1513265972,900063616,'',1.37881010908,1.39266065773,-0.0271049151765,0.0138505486511,0.001,-69.2527432557,5000.0,0.0,0.0,0.0
1513265974704474324,,589733,,1513265972,910063616,'',1.37881010908,1.39386157235,-0.00277479687859,0.0150514632741,0.001,-75.2573163704,5000.0,0.0,0.0,0.0
1513265974714437032,,589734,,1513265972,920063616,'',1.37881010908,1.39386157235,-0.0023613585644,0.0150514632741,0.001,-75.2573163704,5000.0,0.0,0.0,0.0
1513265974724599015,,589735,,1513265972,930063616,'',1.37881010908,1.39386157235,-0.00198405906457,0.0150514632741,0.001,-75.2573163704,5000.0,0.0,0.0,0.0
1513265974734482428,,589736,,1513265972,940063616,'',1.37881010908,1.39266065773,-0.0249349454784,0.0138505486511,0.001,-69.2527432557,5000.0,0.0,0.0,0.0
1513265974744499014,,589737,,1513265972,950063616,'',1.37881010908,1.39386157235,-0.000171773933976,0.0150514632741,0.001,-75.2573163704,5000.0,0.0,0.0,0.0
1513265974754453902,,589738,,1513265972,960063616,'',1.37881010908,1.39266065773,-0.0247880912113,0.0138505486511,0.001,-69.2527432557,5000.0,0.0,0.0,0.0
1513265974764886434,,589739,,1513265972,970063616,'',1.37881010908,1.39266065773,-0.0241946183823,0.0138505486511,0.001,-69.2527432557,5000.0,0.0,0.0,0.0
1513265974774617620,,589740,,1513265972,980063616,'',1.37881010908,1.39386157235,-0.00126452159934,0.0150514632741,0.001,-75.2573163704,5000.0,0.0,0.0,0.0
1513265974784672912,,589741,,1513265972,990063616,'',1.37881010908,1.39506248697,0.0219047283761,0.016252377897,0.001,-81.2618894851,5000.0,0.0,0.0,0.0
1513265974794610380,,589742,,1513265973,63616,'',1.37881010908,1.39386157235,-0.00317303216781,0.0150514632741,0.001,-75.2573163704,5000.0,0.0,0.0,0.0
1513265974804552863,,589743,,1513265973,10063616,'',1.37881010908,1.39506248697,0.0216127575245,0.016252377897,0.001,-81.2618894851,5000.0,0.0,0.0,0.0
1513265974814512926,,589744,,1513265973,20063616,'',1.37881010908,1.39506248697,0.0210950755963,0.016252377897,0.001,-81.2618894851,5000.0,0.0,0.0,0.0
1513265974824395702,,589745,,1513265973,30063616,'',1.37881010908,1.39506248697,0.0215827142892,0.016252377897,0.001,-81.2618894851,5000.0,0.0,0.0,0.0
1513265974834845911,,589746,,1513265973,40063616,'',1.37881010908,1.39386157235,-0.00353032052131,0.0150514632741,0.001,-75.2573163704,5000.0,0.0,0.0,0.0
1513265974844951046,,589747,,1513265973,50063616,'',1.37881010908,1.39386157235,-0.00200286161257,0.0150514632741,0.001,-75.2573163704,5000.0,0.0,0.0,0.0
1513265974854648207,,589748,,1513265973,60063616,'',1.37881010908,1.39386157235,-0.00123610345835,0.0150514632741,0.001,-75.2573163704,5000.0,0.0,0.0,0.0
1513265974864647668,,589749,,1513265973,70063616,'',1.37881010908,1.39506248697,0.0219078680265,0.016252377897,0.001,-81.2618894851,5000.0,0.0,0.0,0.0
1513265974874632989,,589750,,1513265973,80063616,'',1.37881010908,1.39386157235,-0.00359556984729,0.0150514632741,0.001,-75.2573163704,5000.0,0.0,0.0,0.0
1513265974884581634,,589751,,1513265973,90063616,'',1.37881010908,1.39506248697,0.0195146213428,0.016252377897,0.001,-81.2618894851,5000.0,0.0,0.0,0.0
1513265974894444602,,589752,,1513265973,100063616,'',1.37881010908,1.39506248697,0.0186665540208,0.016252377897,0.001,-81.2618894851,5000.0,0.0,0.0,0.0
1513265974904421981,,589753,,1513265973,110063616,'',1.37881010908,1.39506248697,0.0187390007361,0.016252377897,0.001,-81.2618894851,5000.0,0.0,0.0,0.0
1513265974914895657,,589754,,1513265973,120063616,'',1.37881010908,1.39386157235,-0.00584147675179,0.0150514632741,0.001,-75.2573163704,5000.0,0.0,0.0,0.0
1513265974924932193,,589755,,1513265973,130063616,'',1.37881010908,1.39266065773,-0.0298534847799,0.0138505486511,0.001,-69.2527432557,5000.0,0.0,0.0,0.0
1513265974934452748,,589756,,1513265973,140063616,'',1.37881010908,1.39506248697,0.0196260947364,0.016252377897,0.001,-81.2618894851,5000.0,0.0,0.0,0.0
1513265974944445517,,589757,,1513265973,150063616,'',1.37881010908,1.39386157235,-0.00330401090852,0.0150514632741,0.001,-75.2573163704,5000.0,0.0,0.0,0.0
1513265974954444247,,589758,,1513265973,160063616,'',1.37881010908,1.39386157235,-0.0022547157521,0.0150514632741,0.001,-75.2573163704,5000.0,0.0,0.0,0.0
1513265974964829121,,589759,,1513265973,170063616,'',1.37881010908,1.39266065773,-0.0255600828622,0.0138505486511,0.001,-69.2527432557,5000.0,0.0,0.0,0.0
1513265974974805242,,589760,,1513265973,180063616,'',1.37881010908,1.39266065773,-0.0257334386048,0.0138505486511,0.001,-69.2527432557,5000.0,0.0,0.0,0.0
1513265974984776191,,589761,,1513265973,190063616,'',1.37881010908,1.39386157235,-0.00252067595552,0.0150514632741,0.001,-75.2573163704,5000.0,0.0,0.0,0.0
1513265974994652948,,589762,,1513265973,200063616,'',1.37881010908,1.39506248697,0.0221788791468,0.016252377897,0.001,-81.2618894851,5000.0,0.0,0.0,0.0
1513265975004738560,,589763,,1513265973,210063616,'',1.37881010908,1.39386157235,-0.00174424002223,0.0150514632741,0.001,-75.2573163704,5000.0,0.0,0.0,0.0
1513265975014616811,,589764,,1513265973,220063616,'',1.37881010908,1.39386157235,-0.00358719738821,0.0150514632741,0.001,-75.2573163704,5000.0,0.0,0.0,0.0
1513265975024685545,,589765,,1513265973,230063616,'',1.37881010908,1.39386157235,-0.00385542575169,0.0150514632741,0.001,-75.2573163704,5000.0,0.0,0.0,0.0
1513265975034698690,,589766,,1513265973,240063616,'',1.37881010908,1.39386157235,-0.00313580307107,0.0150514632741,0.001,-75.2573163704,5000.0,0.0,0.0,0.0
1513265975044533635,,589767,,1513265973,250063616,'',1.37881010908,1.39266065773,-0.0276623055449,0.0138505486511,0.001,-69.2527432557,5000.0,0.0,0.0,0.0
1513265975054496655,,589768,,1513265973,260063616,'',1.37881010908,1.39386157235,-0.00365952633944,0.0150514632741,0.001,-75.2573163704,5000.0,0.0,0.0,0.0
1513265975064854604,,589769,,1513265973,270063616,'',1.37881010908,1.39386157235,-0.00388859366779,0.0150514632741,0.001,-75.2573163704,5000.0,0.0,0.0,0.0
1513265975074845637,,589770,,1513265973,280063616,'',1.37881010908,1.39386157235,-0.00356657319456,0.0150514632741,0.001,-75.2573163704,5000.0,0.0,0.0,0.0
1513265975084841505,,589771,,1513265973,290063616,'',1.37881010908,1.39386157235,-0.00289499670195,0.0150514632741,0.001,-75.2573163704,5000.0,0.0,0.0,0.0
1513265975094805064,,589772,,1513265973,300063616,'',1.37881010908,1.39506248697,0.02052601286,0.016252377897,0.001,-81.2618894851,5000.0,0.0,0.0,0.0
1513265975104637814,,589773,,1513265973,310063616,'',1.37881010908,1.39386157235,-0.00312491799206,0.0150514632741,0.001,-75.2573163704,5000.0,0.0,0.0,0.0
1513265975114507324,,589774,,1513265973,320063616,'',1.37881010908,1.39386157235,-0.00170022657,0.0150514632741,0.001,-75.2573163704,5000.0,0.0,0.0,0.0
1513265975124498948,,589775,,1513265973,330063616,'',1.37881010908,1.39386157235,-0.000975701776367,0.0150514632741,0.001,-75.2573163704,5000.0,0.0,0.0,0.0
1513265975134405292,,589776,,1513265973,340063616,'',1.37881010908,1.39266065773,-0.0237000828525,0.0138505486511,0.001,-69.2527432557,5000.0,0.0,0.0,0.0
1513265975144363692,,589777,,1513265973,350063616,'',1.37881010908,1.39386157235,0.000482894675993,0.0150514632741,0.001,-75.2573163704,5000.0,0.0,0.0,0.0
1513265975154809865,,589778,,1513265973,360063616,'',1.37881010908,1.39506248697,0.0233296211435,0.016252377897,0.001,-81.2618894851,5000.0,0.0,0.0,0.0
1513265975164718532,,589779,,1513265973,370063616,'',1.37881010908,1.39386157235,-0.000255508636106,0.0150514632741,0.001,-75.2573163704,5000.0,0.0,0.0,0.0
1513265975174753794,,589780,,1513265973,380063616,'',1.37881010908,1.39386157235,-0.00067793823505,0.0150514632741,0.001,-75.2573163704,5000.0,0.0,0.0,0.0
1513265975184605065,,589781,,1513265973,390063616,'',1.37881010908,1.39386157235,-0.00135705278574,0.0150514632741,0.001,-75.2573163704,5000.0,0.0,0.0,0.0
1513265975194581122,,589782,,1513265973,400063616,'',1.37881010908,1.39386157235,-0.00115183727985,0.0150514632741,0.001,-75.2573163704,5000.0,0.0,0.0,0.0
1513265975204613989,,589783,,1513265973,410063616,'',1.37881010908,1.39386157235,-0.00140657130038,0.0150514632741,0.001,-75.2573163704,5000.0,0.0,0.0,0.0
1513265975214582869,,589784,,1513265973,420063616,'',1.37881010908,1.39506248697,0.0226319867062,0.016252377897,0.001,-81.2618894851,5000.0,0.0,0.0,0.0
1513265975224673809,,589785,,1513265973,430063616,'',1.37881010908,1.39386157235,-0.000464071971421,0.0150514632741,0.001,-75.2573163704,5000.0,0.0,0.0,0.0
1513265975234758184,,589786,,1513265973,440063616,'',1.37881010908,1.39266065773,-0.0245609641698,0.0138505486511,0.001,-69.2527432557,5000.0,0.0,0.0,0.0
1513265975244797375,,589787,,1513265973,450063616,'',1.37881010908,1.39386157235,-0.000672664188521,0.0150514632741,0.001,-75.2573163704,5000.0,0.0,0.0,0.0
1513265975254796169,,589788,,1513265973,460063616,'',1.37881010908,1.39506248697,0.0227640049369,0.016252377897,0.001,-81.2618894851,5000.0,0.0,0.0,0.0
1513265975264596979,,589789,,1513265973,470063616,'',1.37881010908,1.39506248697,0.0221845089642,0.016252377897,0.001,-81.2618894851,5000.0,0.0,0.0,0.0
1513265975274720498,,589790,,1513265973,480063616,'',1.37881010908,1.39386157235,-0.00215984225334,0.0150514632741,0.001,-75.2573163704,5000.0,0.0,0.0,0.0
1513265975284565022,,589791,,1513265973,490063616,'',1.37881010908,1.39506248697,0.0206992020767,0.016252377897,0.001,-81.2618894851,5000.0,0.0,0.0,0.0
1513265975294466555,,589792,,1513265973,500063616,'',1.37881010908,1.39386157235,-0.00429548681873,0.0150514632741,0.001,-75.2573163704,5000.0,0.0,0.0,0.0
1513265975304904986,,589793,,1513265973,510063616,'',1.37881010908,1.39266065773,-0.0281850161373,0.0138505486511,0.001,-69.2527432557,5000.0,0.0,0.0,0.0
1513265975314883716,,589794,,1513265973,520063616,'',1.37881010908,1.39386157235,-0.00232571844846,0.0150514632741,0.001,-75.2573163704,5000.0,0.0,0.0,0.0
1513265975324765591,,589795,,1513265973,530063616,'',1.37881010908,1.39386157235,-0.00190375141626,0.0150514632741,0.001,-75.2573163704,5000.0,0.0,0.0,0.0
1513265975334707878,,589796,,1513265973,540063616,'',1.37881010908,1.39386157235,-0.00155095370237,0.0150514632741,0.001,-75.2573163704,5000.0,0.0,0.0,0.0
1513265975344631883,,589797,,1513265973,550063616,'',1.37881010908,1.39386157235,-0.00118811798331,0.0150514632741,0.001,-75.2573163704,5000.0,0.0,0.0,0.0
1513265975354674885,,589798,,1513265973,560063616,'',1.37881010908,1.39266065773,-0.0243082067057,0.0138505486511,0.001,-69.2527432557,5000.0,0.0,0.0,0.0
1513265975364552042,,589799,,1513265973,570063616,'',1.37881010908,1.39386157235,-0.00181827959232,0.0150514632741,0.001,-75.2573163704,5000.0,0.0,0.0,0.0
1513265975374561865,,589800,,1513265973,580063616,'',1.37881010908,1.39386157235,-0.00189391711126,0.0150514632741,0.001,-75.2573163704,5000.0,0.0,0.0,0.0
