rosbagTimestamp,header,seq,stamp,secs,nsecs,frame_id,set_point,process_value,process_value_dot,error,time_step,command,p,i,d,i_clamp
1513265970224695469,,589291,,1513265968,430063616,'',0.366519142919,0.33974351896,0.0044209678429,-0.0267756239593,0.001,-172.704863883,-6500.0,0.0,-300.0,0.0
1513265970234758014,,589292,,1513265968,440063616,'',0.366519142919,0.3397471821,-0.0146731581271,-0.0267719608191,0.001,-178.340157945,-6500.0,0.0,-300.0,0.0
1513265970244652623,,589293,,1513265968,450063616,'',0.366519142919,0.339718462126,0.00493532039239,-0.0268006807929,0.001,-172.713367909,-6500.0,0.0,-300.0,0.0
1513265970254783941,,589294,,1513265968,460063616,'',0.366519142919,0.339731130762,0.00467444478648,-0.0267880121573,0.001,-172.715513985,-6500.0,0.0,-300.0,0.0
1513265970264486948,,589295,,1513265968,470063616,'',0.366519142919,0.339738104107,-0.0144925402267,-0.0267810388114,0.001,-178.471806643,-6500.0,0.0,-300.0,0.0
1513265970274403867,,589296,,1513265968,480063616,'',0.366519142919,0.339744003418,-0.0146141445042,-0.026775139501,0.001,-178.358786577,-6500.0,0.0,-300.0,0.0
1513265970284493537,,589297,,1513265968,490063616,'',0.366519142919,0.339751064738,0.00426887738801,-0.0267680781807,0.001,-172.707120408,-6500.0,0.0,-300.0,0.0
1513265970294371209,,589298,,1513265968,500063616,'',0.366519142919,0.339735752313,-0.014445225685,-0.0267833906061,0.001,-178.438245878,-6500.0,0.0,-300.0,0.0
1513265970304847277,,589299,,1513265968,510063616,'',0.366519142919,0.339723479996,0.00482197303294,-0.0267956629226,0.001,-172.748034713,-6500.0,0.0,-300.0,0.0
1513265970314681096,,589300,,1513265968,520063616,'',0.366519142919,0.339699410668,0.00530922241598,-0.0268197322509,0.001,-172.733862165,-6500.0,0.0,-300.0,0.0
1513265970324634695,,589301,,1513265968,530063616,'',0.366519142919,0.339679314331,0.00572120079934,-0.0268398285882,0.001,-172.731958815,-6500.0,0.0,-300.0,0.0
1513265970334641538,,589302,,1513265968,540063616,'',0.366519142919,0.339624401092,-0.0121943032626,-0.0268947418264,0.001,-178.496585364,-6500.0,0.0,-300.0,0.0
1513265970344563202,,589303,,1513265968,550063616,'',0.366519142919,0.339617061792,0.00697583219707,-0.0269020811273,0.001,-172.807904057,-6500.0,0.0,-300.0,0.0
1513265970354627553,,589304,,1513265968,560063616,'',0.366519142919,0.339559612419,-0.0108833420506,-0.0269595304996,0.001,-178.508480896,-6500.0,0.0,-300.0,0.0
1513265970364501945,,589305,,1513265968,570063616,'',0.366519142919,0.339563070919,0.00806074048924,-0.0269560719999,0.001,-172.783363781,-6500.0,0.0,-300.0,0.0
1513265970374595855,,589306,,1513265968,580063616,'',0.366519142919,0.339601004868,0.00729834094988,-0.0269181380508,0.001,-172.809870552,-6500.0,0.0,-300.0,0.0
1513265970384526457,,589307,,1513265968,590063616,'',0.366519142919,0.339580340564,-0.0113080622739,-0.0269388023545,0.001,-178.510218354,-6500.0,0.0,-300.0,0.0
1513265970394769799,,589308,,1513265968,600063616,'',0.366519142919,0.339613649093,-0.0119758303232,-0.0269054938256,0.001,-178.493120881,-6500.0,0.0,-300.0,0.0
1513265970404540596,,589309,,1513265968,610063616,'',0.366519142919,0.339608869505,0.00713584890674,-0.0269102734136,0.001,-172.803634413,-6500.0,0.0,-300.0,0.0
1513265970414468426,,589310,,1513265968,620063616,'',0.366519142919,0.339672997858,0.0058418665066,-0.0268461450611,0.001,-172.734498636,-6500.0,0.0,-300.0,0.0
1513265970424572141,,589311,,1513265968,630063616,'',0.366519142919,0.339637382107,-0.0124638344998,-0.0268817608121,0.001,-178.494065698,-6500.0,0.0,-300.0,0.0
1513265970434807693,,589312,,1513265968,640063616,'',0.366519142919,0.339696345191,0.00537210363377,-0.0268227977283,0.001,-172.733657291,-6500.0,0.0,-300.0,0.0
1513265970444739247,,589313,,1513265968,650063616,'',0.366519142919,0.339643601063,-0.0125866114849,-0.0268755418558,0.001,-178.48795611,-6500.0,0.0,-300.0,0.0
1513265970454794176,,589314,,1513265968,660063616,'',0.366519142919,0.339648661795,-0.0126894470964,-0.0268704811242,0.001,-178.46666976,-6500.0,0.0,-300.0,0.0
1513265970464739631,,589315,,1513265968,670063616,'',0.366519142919,0.339656983198,0.00616439310706,-0.0268621597211,0.001,-172.739154231,-6500.0,0.0,-300.0,0.0
1513265970474638794,,589316,,1513265968,680063616,'',0.366519142919,0.33969667616,0.00535918599685,-0.0268224667588,0.001,-172.731573691,-6500.0,0.0,-300.0,0.0
1513265970484561566,,589317,,1513265968,690063616,'',0.366519142919,0.339677920981,0.00573535745454,-0.0268412219378,0.001,-172.734595995,-6500.0,0.0,-300.0,0.0
1513265970494512919,,589318,,1513265968,700063616,'',0.366519142919,0.339641953346,-0.0125609104391,-0.0268771895724,0.001,-178.484994534,-6500.0,0.0,-300.0,0.0
1513265970504522740,,589319,,1513265968,710063616,'',0.366519142919,0.339611866486,-0.011956062439,-0.026907276433,0.001,-178.508527424,-6500.0,0.0,-300.0,0.0
1513265970514563152,,589320,,1513265968,720063616,'',0.366519142919,0.339623915221,0.0068287617221,-0.0268952276979,0.001,-172.76065911,-6500.0,0.0,-300.0,0.0
1513265970524547767,,589321,,1513265968,730063616,'',0.366519142919,0.339632999724,0.00665188027111,-0.0268861431945,0.001,-172.748657835,-6500.0,0.0,-300.0,0.0
1513265970534851747,,589322,,1513265968,740063616,'',0.366519142919,0.339656766237,-0.0128514153069,-0.0268623766821,0.001,-178.466863479,-6500.0,0.0,-300.0,0.0
1513265970544865396,,589323,,1513265968,750063616,'',0.366519142919,0.339694952077,0.00539995984856,-0.0268241908416,0.001,-172.727623589,-6500.0,0.0,-300.0,0.0
1513265970554835488,,589324,,1513265968,760063616,'',0.366519142919,0.339695269245,0.00539089795608,-0.0268238736741,0.001,-172.729053963,-6500.0,0.0,-300.0,0.0
1513265970564771109,,589325,,1513265968,770063616,'',0.366519142919,0.339709071742,0.00511377368106,-0.0268100711772,0.001,-172.717034083,-6500.0,0.0,-300.0,0.0
1513265970574676986,,589326,,1513265968,780063616,'',0.366519142919,0.339706001216,0.00517888842417,-0.0268131417029,0.001,-172.71523747,-6500.0,0.0,-300.0,0.0
1513265970584588805,,589327,,1513265968,790063616,'',0.366519142919,0.339700129196,-0.0137274134217,-0.0268190137224,0.001,-178.457211678,-6500.0,0.0,-300.0,0.0
1513265970594590992,,589328,,1513265968,800063616,'',0.366519142919,0.339643879632,-0.0125859704052,-0.026875263287,0.001,-178.488753145,-6500.0,0.0,-300.0,0.0
1513265970604484343,,589329,,1513265968,810063616,'',0.366519142919,0.33968351982,0.00563000905747,-0.0268356230984,0.001,-172.729046149,-6500.0,0.0,-300.0,0.0
1513265970614862590,,589330,,1513265968,820063616,'',0.366519142919,0.339682118108,0.00565178308712,-0.0268370248106,0.001,-172.736151687,-6500.0,0.0,-300.0,0.0
1513265970624886344,,589331,,1513265968,830063616,'',0.366519142919,0.339701711988,0.00525719177061,-0.0268174309308,0.001,-172.713435662,-6500.0,0.0,-300.0,0.0
1513265970634723425,,589332,,1513265968,840063616,'',0.366519142919,0.339700351256,0.00528566566884,-0.0268187916623,0.001,-172.756018659,-6500.0,0.0,-300.0,0.0
1513265970644725112,,589333,,1513265968,850063616,'',0.366519142919,0.339729156335,-0.0143193709766,-0.0267899865842,0.001,-178.449294271,-6500.0,0.0,-300.0,0.0
1513265970655181229,,589334,,1513265968,860063616,'',0.366519142919,0.33970227272,-0.0137686520378,-0.0268168701986,0.001,-178.464278906,-6500.0,0.0,-300.0,0.0
1513265970664642274,,589335,,1513265968,870063616,'',0.366519142919,0.339683219084,0.0056486134555,-0.0268359238349,0.001,-172.732426991,-6500.0,0.0,-300.0,0.0
1513265970674523679,,589336,,1513265968,880063616,'',0.366519142919,0.339684754053,0.00561732355697,-0.0268343888658,0.001,-172.735041773,-6500.0,0.0,-300.0,0.0
1513265970684393393,,589337,,1513265968,890063616,'',0.366519142919,0.339719275128,0.00491676334549,-0.0267998677907,0.001,-172.717665911,-6500.0,0.0,-300.0,0.0
1513265970694835503,,589338,,1513265968,900063616,'',0.366519142919,0.339694339143,-0.0136016969931,-0.026824803776,0.001,-178.373124536,-6500.0,0.0,-300.0,0.0
1513265970704783682,,589339,,1513265968,910063616,'',0.366519142919,0.339690652877,-0.0135234675925,-0.0268284900421,0.001,-178.466035007,-6500.0,0.0,-300.0,0.0
1513265970714755931,,589340,,1513265968,920063616,'',0.366519142919,0.339670239119,0.00591841357386,-0.0268489037999,0.001,-172.746698865,-6500.0,0.0,-300.0,0.0
1513265970724862635,,589341,,1513265968,930063616,'',0.366519142919,0.339670735552,0.00589992844676,-0.0268484073672,0.001,-172.78564765,-6500.0,0.0,-300.0,0.0
1513265970734764012,,589342,,1513265968,940063616,'',0.366519142919,0.339672424342,0.00586780777104,-0.0268467185771,0.001,-172.741926957,-6500.0,0.0,-300.0,0.0
1513265970744684666,,589343,,1513265968,950063616,'',0.366519142919,0.339674850289,0.00581729630312,-0.0268442926297,0.001,-172.735853114,-6500.0,0.0,-300.0,0.0
1513265970754808066,,589344,,1513265968,960063616,'',0.366519142919,0.339694385133,0.00541401100523,-0.0268247577853,0.001,-172.732943072,-6500.0,0.0,-300.0,0.0
1513265970764616514,,589345,,1513265968,970063616,'',0.366519142919,0.339641034523,0.00648460625188,-0.0268781083963,0.001,-172.747820154,-6500.0,0.0,-300.0,0.0
1513265970774473115,,589346,,1513265968,980063616,'',0.366519142919,0.339662682941,-0.0129744606806,-0.0268564599779,0.001,-178.460581721,-6500.0,0.0,-300.0,0.0
1513265970784345385,,589347,,1513265968,990063616,'',0.366519142919,0.339684209181,0.00562523920486,-0.0268349337383,0.001,-172.729990621,-6500.0,0.0,-300.0,0.0
1513265970794801846,,589348,,1513265969,63616,'',0.366519142919,0.339701367313,0.0052805462208,-0.0268177756057,0.001,-172.772627813,-6500.0,0.0,-300.0,0.0
1513265970804731053,,589349,,1513265969,10063616,'',0.366519142919,0.339695358331,-0.0136191818318,-0.0268237845873,0.001,-178.480853924,-6500.0,0.0,-300.0,0.0
1513265970814718777,,589350,,1513265969,20063616,'',0.366519142919,0.339643083995,0.0064625992866,-0.0268760589242,0.001,-172.748391774,-6500.0,0.0,-300.0,0.0
1513265970824695625,,589351,,1513265969,30063616,'',0.366519142919,0.3396142559,0.00705151421795,-0.0269048870188,0.001,-172.764726349,-6500.0,0.0,-300.0,0.0
1513265970834695107,,589352,,1513265969,40063616,'',0.366519142919,0.339573608495,-0.0111557191848,-0.0269455344236,0.001,-178.428274441,-6500.0,0.0,-300.0,0.0
1513265970844444512,,589353,,1513265969,50063616,'',0.366519142919,0.339612175429,0.00708760566598,-0.0269069674899,0.001,-172.761000401,-6500.0,0.0,-300.0,0.0
1513265970854457546,,589354,,1513265969,60063616,'',0.366519142919,0.339606445003,-0.0118241437083,-0.0269126979154,0.001,-178.492693159,-6500.0,0.0,-300.0,0.0
1513265970864862342,,589355,,1513265969,70063616,'',0.366519142919,0.339638641878,0.0065489919801,-0.026880501041,0.001,-172.748312996,-6500.0,0.0,-300.0,0.0
1513265970874935845,,589356,,1513265969,80063616,'',0.366519142919,0.339612576605,0.00707394675758,-0.0269065663137,0.001,-172.765433448,-6500.0,0.0,-300.0,0.0
1513265970884846457,,589357,,1513265969,90063616,'',0.366519142919,0.339608052209,0.00715173583209,-0.02691109071,0.001,-172.773546395,-6500.0,0.0,-300.0,0.0
1513265970894876214,,589358,,1513265969,100063616,'',0.366519142919,0.339622049571,0.00687398339585,-0.0268970933477,0.001,-172.752996903,-6500.0,0.0,-300.0,0.0
1513265970904681000,,589359,,1513265969,110063616,'',0.366519142919,0.339613539918,-0.0119782079631,-0.0269056030012,0.001,-178.493166214,-6500.0,0.0,-300.0,0.0
1513265970914647793,,589360,,1513265969,120063616,'',0.366519142919,0.339658317446,0.00613900057406,-0.0268608254725,0.001,-172.781684616,-6500.0,0.0,-300.0,0.0
1513265970924613850,,589361,,1513265969,130063616,'',0.366519142919,0.339626204119,-0.0122434781047,-0.0268929388001,0.001,-178.487907647,-6500.0,0.0,-300.0,0.0
1513265970934473800,,589362,,1513265969,140063616,'',0.366519142919,0.339652947752,0.00624511754227,-0.0268661951672,0.001,-172.743012518,-6500.0,0.0,-300.0,0.0
1513265970944498426,,589363,,1513265969,150063616,'',0.366519142919,0.339658962109,0.00612649620706,-0.0268601808097,0.001,-172.736597778,-6500.0,0.0,-300.0,0.0
1513265970954442197,,589364,,1513265969,160063616,'',0.366519142919,0.339662490981,0.00605564394109,-0.0268566519378,0.001,-172.742664508,-6500.0,0.0,-300.0,0.0
1513265970964455046,,589365,,1513265969,170063616,'',0.366519142919,0.339665945083,0.00598360318294,-0.026853197836,0.001,-172.779313117,-6500.0,0.0,-300.0,0.0
1513265970974313285,,589366,,1513265969,180063616,'',0.366519142919,0.339651645404,0.00627421941071,-0.0268674975144,0.001,-172.741723114,-6500.0,0.0,-300.0,0.0
1513265970984822376,,589367,,1513265969,190063616,'',0.366519142919,0.339674466929,0.00581811880379,-0.0268446759893,0.001,-172.737691725,-6500.0,0.0,-300.0,0.0
1513265970994720535,,589368,,1513265969,200063616,'',0.366519142919,0.339621730948,-0.0121419713239,-0.0268974119713,0.001,-178.481871415,-6500.0,0.0,-300.0,0.0
1513265971004719543,,589369,,1513265969,210063616,'',0.366519142919,0.339652287954,0.00626621857944,-0.0268668549644,0.001,-172.788548064,-6500.0,0.0,-300.0,0.0
1513265971014630860,,589370,,1513265969,220063616,'',0.366519142919,0.339643908314,0.00643438402411,-0.0268752346053,0.001,-172.785250403,-6500.0,0.0,-300.0,0.0
1513265971024475032,,589371,,1513265969,230063616,'',0.366519142919,0.339630724173,-0.0123191541238,-0.0268884187461,0.001,-178.486030782,-6500.0,0.0,-300.0,0.0
1513265971034440942,,589372,,1513265969,240063616,'',0.366519142919,0.33959000873,0.00753007055838,-0.0269291341886,0.001,-172.777110742,-6500.0,0.0,-300.0,0.0
1513265971044887573,,589373,,1513265969,250063616,'',0.366519142919,0.339604175075,0.00723857271581,-0.0269149678437,0.001,-172.760079787,-6500.0,0.0,-300.0,0.0
1513265971054471036,,589374,,1513265969,260063616,'',0.366519142919,0.339570305785,0.00791707756864,-0.0269488371335,0.001,-172.780942641,-6500.0,0.0,-300.0,0.0
1513265971064336069,,589375,,1513265969,270063616,'',0.366519142919,0.339553780352,0.00824437268487,-0.0269653625666,0.001,-172.785418256,-6500.0,0.0,-300.0,0.0
1513265971074854606,,589376,,1513265969,280063616,'',0.366519142919,0.339524365282,-0.0101767188668,-0.026994777637,0.001,-178.462590827,-6500.0,0.0,-300.0,0.0
1513265971084658796,,589377,,1513265969,290063616,'',0.366519142919,0.339552319248,-0.0107355353909,-0.0269668236711,0.001,-178.511605045,-6500.0,0.0,-300.0,0.0
1513265971094764214,,589378,,1513265969,300063616,'',0.366519142919,0.339560236662,0.00813082622928,-0.026958906257,0.001,-172.775141957,-6500.0,0.0,-300.0,0.0
1513265971104812853,,589379,,1513265969,310063616,'',0.366519142919,0.339582898858,0.00768033884016,-0.0269362440605,0.001,-172.819476001,-6500.0,0.0,-300.0,0.0
1513265971114664913,,589380,,1513265969,320063616,'',0.366519142919,0.339548153495,-0.01064907385,-0.0269709894237,0.001,-178.452597215,-6500.0,0.0,-300.0,0.0
1513265971124635401,,589381,,1513265969,330063616,'',0.366519142919,0.339587217016,-0.0114424773631,-0.0269319259028,0.001,-178.521458177,-6500.0,0.0,-300.0,0.0
1513265971134746648,,589382,,1513265969,340063616,'',0.366519142919,0.339589591858,0.00752738389709,-0.0269295510612,0.001,-172.818101607,-6500.0,0.0,-300.0,0.0
1513265971144582734,,589383,,1513265969,350063616,'',0.366519142919,0.339607761131,0.00715781758569,-0.0269113817877,0.001,-172.761247776,-6500.0,0.0,-300.0,0.0
1513265971154630592,,589384,,1513265969,360063616,'',0.366519142919,0.33963886978,0.006531018673,-0.026880273139,0.001,-172.746804184,-6500.0,0.0,-300.0,0.0
1513265971164520194,,589385,,1513265969,370063616,'',0.366519142919,0.339615047332,0.00701309564743,-0.0269040955869,0.001,-172.766928709,-6500.0,0.0,-300.0,0.0
1513265971174480178,,589386,,1513265969,380063616,'',0.366519142919,0.339625621824,0.0067924964794,-0.0268935210945,0.001,-172.803691996,-6500.0,0.0,-300.0,0.0
1513265971184440903,,589387,,1513265969,390063616,'',0.366519142919,0.339634844709,0.00660741223943,-0.0268842982094,0.001,-172.746013642,-6500.0,0.0,-300.0,0.0
1513265971194407279,,589388,,1513265969,400063616,'',0.366519142919,0.33964112036,0.00647594471522,-0.026878022559,0.001,-172.763264621,-6500.0,0.0,-300.0,0.0
1513265971204447722,,589389,,1513265969,410063616,'',0.366519142919,0.339664059448,-0.0130090787221,-0.0268550834707,0.001,-178.475944458,-6500.0,0.0,-300.0,0.0
1513265971214601678,,589390,,1513265969,420063616,'',0.366519142919,0.33963182944,0.00666270741316,-0.0268873134788,0.001,-172.793517758,-6500.0,0.0,-300.0,0.0
1513265971224413212,,589391,,1513265969,430063616,'',0.366519142919,0.339557797308,0.00815677090309,-0.0269613456107,0.001,-172.77373133,-6500.0,0.0,-300.0,0.0
1513265971234874756,,589392,,1513265969,440063616,'',0.366519142919,0.339531739771,0.00869121377946,-0.0269874031475,0.001,-172.820217274,-6500.0,0.0,-300.0,0.0
1513265971244811769,,589393,,1513265969,450063616,'',0.366519142919,0.33957604277,0.00779606118333,-0.026943100149,0.001,-172.773483772,-6500.0,0.0,-300.0,0.0
1513265971254804290,,589394,,1513265969,460063616,'',0.366519142919,0.339613431808,0.00705151532689,-0.0269057111111,0.001,-172.788507104,-6500.0,0.0,-300.0,0.0
1513265971264729805,,589395,,1513265969,470063616,'',0.366519142919,0.339606572593,-0.0118292148423,-0.0269125703263,0.001,-178.499479154,-6500.0,0.0,-300.0,0.0
1513265971274709591,,589396,,1513265969,480063616,'',0.366519142919,0.339637660567,0.00656214451392,-0.0268814823515,0.001,-172.758664288,-6500.0,0.0,-300.0,0.0
1513265971284576777,,589397,,1513265969,490063616,'',0.366519142919,0.339851480218,0.0212659582572,-0.0266676627006,0.001,-166.927868466,-6500.0,0.0,-300.0,0.0
1513265971294592080,,589398,,1513265969,500063616,'',0.366519142919,0.340216549903,0.0329168730563,-0.0263025930159,0.001,-161.061763334,-6500.0,0.0,-300.0,0.0
1513265971304477463,,589399,,1513265969,510063616,'',0.366519142919,0.340738608754,0.0604165084084,-0.0257805341649,0.001,-149.357663603,-6500.0,0.0,-300.0,0.0
1513265971314465210,,589400,,1513265969,520063616,'',0.366519142919,0.341403893326,0.065998969581,-0.0251152495926,0.001,-143.387776344,-6500.0,0.0,-300.0,0.0
1513265971324555793,,589401,,1513265969,530063616,'',0.366519142919,0.342133672657,0.0702815280835,-0.0243854702619,0.001,-137.289796776,-6500.0,0.0,-300.0,0.0
1513265971334434523,,589402,,1513265969,540063616,'',0.366519142919,0.342781422105,0.0571929805822,-0.0237377208135,0.001,-137.03347282,-6500.0,0.0,-300.0,0.0
1513265971344338273,,589403,,1513265969,550063616,'',0.366519142919,0.343277611045,0.0471703758663,-0.0232415318742,0.001,-137.146745689,-6500.0,0.0,-300.0,0.0
1513265971354362194,,589404,,1513265969,560063616,'',0.366519142919,0.34371736153,0.0382955453767,-0.0228017813889,0.001,-136.653003724,-6500.0,0.0,-300.0,0.0
1513265971364565462,,589405,,1513265969,570063616,'',0.366519142919,0.344077970438,0.0310099936154,-0.0224411724804,0.001,-136.528167103,-6500.0,0.0,-300.0,0.0
1513265971374649181,,589406,,1513265969,580063616,'',0.366519142919,0.344477107262,0.0419701300624,-0.022042035657,0.001,-130.620128833,-6500.0,0.0,-300.0,0.0
1513265971384606999,,589407,,1513265969,590063616,'',0.366519142919,0.344975599299,0.0509200390457,-0.0215435436196,0.001,-125.110712287,-6500.0,0.0,-300.0,0.0
1513265971394354667,,589408,,1513265969,600063616,'',0.366519142919,0.345572126765,0.0578952481214,-0.0209470161534,0.001,-118.62937563,-6500.0,0.0,-300.0,0.0
1513265971404689348,,589409,,1513265969,610063616,'',0.366519142919,0.346262392165,0.062975515683,-0.0202567507537,0.001,-112.682225356,-6500.0,0.0,-300.0,0.0
1513265971414716989,,589410,,1513265969,620063616,'',0.366519142919,0.346914499925,0.0688329824151,-0.0196046429937,0.001,-106.739253969,-6500.0,0.0,-300.0,0.0
1513265971424599163,,589411,,1513265969,630063616,'',0.366519142919,0.347463176884,0.038722936648,-0.0190559660349,0.001,-111.94441412,-6500.0,0.0,-300.0,0.0
1513265971434463357,,589412,,1513265969,640063616,'',0.366519142919,0.34791227486,0.0296442501473,-0.0186068680588,0.001,-112.015342912,-6500.0,0.0,-300.0,0.0
1513265971444584146,,589413,,1513265969,650063616,'',0.366519142919,0.348299875885,0.0408455787892,-0.0182192670342,0.001,-106.085864477,-6500.0,0.0,-300.0,0.0
1513265971454571874,,589414,,1513265969,660063616,'',0.366519142919,0.348684082048,0.033082023624,-0.0178350608703,0.001,-105.955129665,-6500.0,0.0,-300.0,0.0
1513265971464382871,,589415,,1513265969,670063616,'',0.366519142919,0.349100081906,0.0437006553215,-0.0174190610129,0.001,-100.049148728,-6500.0,0.0,-300.0,0.0
1513265971474813895,,589416,,1513265969,680063616,'',0.366519142919,0.349597069071,0.0526854880573,-0.0169220738473,0.001,-94.0909803759,-6500.0,0.0,-300.0,0.0
1513265971484754900,,589417,,1513265969,690063616,'',0.366519142919,0.350070007761,0.0431309185041,-0.0164491351573,0.001,-93.8758848303,-6500.0,0.0,-300.0,0.0
1513265971494616654,,589418,,1513265969,700063616,'',0.366519142919,0.350511878199,0.0532287204723,-0.01600726472,0.001,-88.0152046492,-6500.0,0.0,-300.0,0.0
1513265971504535179,,589419,,1513265969,710063616,'',0.366519142919,0.350970716272,0.0439589391234,-0.0155484266471,0.001,-88.1040962966,-6500.0,0.0,-300.0,0.0
1513265971514550281,,589420,,1513265969,720063616,'',0.366519142919,0.351382962147,0.0356347863606,-0.0151361807721,0.001,-87.6740966213,-6500.0,0.0,-300.0,0.0
1513265971524383965,,589421,,1513265969,730063616,'',0.366519142919,0.351702809949,0.0291723797786,-0.0148163329703,0.001,-87.5291223391,-6500.0,0.0,-300.0,0.0
1513265971534902339,,589422,,1513265969,740063616,'',0.366519142919,0.352086803041,0.0404319020746,-0.0144323398779,0.001,-81.6193860881,-6500.0,0.0,-300.0,0.0
1513265971544725182,,589423,,1513265969,750063616,'',0.366519142919,0.352484450241,0.0514251044964,-0.0140346926783,0.001,-76.0775268826,-6500.0,0.0,-300.0,0.0
1513265971554827811,,589424,,1513265969,760063616,'',0.366519142919,0.352896614224,0.0430984226109,-0.0136225286953,0.001,-75.8510519477,-6500.0,0.0,-300.0,0.0
1513265971564766688,,589425,,1513265969,770063616,'',0.366519142919,0.353321201885,0.0535424166631,-0.0131979410336,0.001,-69.6388162251,-6500.0,0.0,-300.0,0.0
1513265971574719811,,589426,,1513265969,780063616,'',0.366519142919,0.353786214343,0.0441483425985,-0.0127329285757,0.001,-69.4491222552,-6500.0,0.0,-300.0,0.0
1513265971584732968,,589427,,1513265969,790063616,'',0.366519142919,0.354218148496,0.0354271384918,-0.012300994423,0.001,-69.5006784263,-6500.0,0.0,-300.0,0.0
1513265971594675665,,589428,,1513265969,800063616,'',0.366519142919,0.354640746389,0.0459133435142,-0.0118783965295,0.001,-63.3634822009,-6500.0,0.0,-300.0,0.0
1513265971604674689,,589429,,1513265969,810063616,'',0.366519142919,0.355088186662,0.0368741318417,-0.0114309562571,0.001,-63.2049341004,-6500.0,0.0,-300.0,0.0
1513265971614658929,,589430,,1513265969,820063616,'',0.366519142919,0.355524695,0.047079005012,-0.010994447919,0.001,-57.2828500926,-6500.0,0.0,-300.0,0.0
1513265971624622717,,589431,,1513265969,830063616,'',0.366519142919,0.355946466086,0.038559007802,-0.0105726768324,0.001,-57.3416915916,-6500.0,0.0,-300.0,0.0
1513265971634560422,,589432,,1513265969,840063616,'',0.366519142919,0.356345928215,0.0495106454633,-0.0101732147038,0.001,-51.5586012533,-6500.0,0.0,-300.0,0.0
1513265971644365150,,589433,,1513265969,850063616,'',0.366519142919,0.356790519303,0.0405300976063,-0.00972862361566,0.001,-50.9889932587,-6500.0,0.0,-300.0,0.0
1513265971654360033,,589434,,1513265969,860063616,'',0.366519142919,0.357189686224,0.0324675893291,-0.00932945669518,0.001,-50.8730481839,-6500.0,0.0,-300.0,0.0
1513265971664839328,,589435,,1513265969,870063616,'',0.366519142919,0.357615348812,0.0238694884783,-0.00890379410731,0.001,-50.6552501889,-6500.0,0.0,-300.0,0.0
1513265971674831476,,589436,,1513265969,880063616,'',0.366519142919,0.357950441509,0.036129857802,-0.00856870140942,0.001,-45.0866317915,-6500.0,0.0,-300.0,0.0
1513265971684594215,,589437,,1513265969,890063616,'',0.366519142919,0.358274804861,0.0295765412081,-0.00824433805796,0.001,-44.6720217066,-6500.0,0.0,-300.0,0.0
1513265971694555912,,589438,,1513265969,900063616,'',0.366519142919,0.358540334443,0.0242118802301,-0.0079788084762,0.001,-44.5493226327,-6500.0,0.0,-300.0,0.0
1513265971704365145,,589439,,1513265969,910063616,'',0.366519142919,0.358757275878,0.0198288760976,-0.00776186704058,0.001,-44.5933740018,-6500.0,0.0,-300.0,0.0
1513265971714801543,,589440,,1513265969,920063616,'',0.366519142919,0.35893526311,0.0162328882303,-0.00758387980927,0.001,-44.5141882847,-6500.0,0.0,-300.0,0.0
1513265971724696482,,589441,,1513265969,930063616,'',0.366519142919,0.359131098454,0.012272593775,-0.00738804446526,0.001,-44.3250088368,-6500.0,0.0,-300.0,0.0
1513265971734821330,,589442,,1513265969,940063616,'',0.366519142919,0.359259405285,0.00968336916082,-0.00725973763349,0.001,-44.2654355085,-6500.0,0.0,-300.0,0.0
1513265971744639166,,589443,,1513265969,950063616,'',0.366519142919,0.359346166122,0.00793060693384,-0.00717297679727,0.001,-44.2861153969,-6500.0,0.0,-300.0,0.0
1513265971754613257,,589444,,1513265969,960063616,'',0.366519142919,0.359417381996,0.00649188758199,-0.00710176092318,0.001,-44.2534938494,-6500.0,0.0,-300.0,0.0
1513265971764472988,,589445,,1513265969,970063616,'',0.366519142919,0.35949440873,0.0239610335631,-0.00702473418858,0.001,-38.4283956244,-6500.0,0.0,-300.0,0.0
1513265971774627549,,589446,,1513265969,980063616,'',0.366519142919,0.35955599335,0.00368747827734,-0.00696314956931,0.001,-44.1485793854,-6500.0,0.0,-300.0,0.0
1513265971784415998,,589447,,1513265969,990063616,'',0.366519142919,0.35960734863,0.0216710881507,-0.00691179428837,0.001,-38.5552296574,-6500.0,0.0,-300.0,0.0
1513265971794431144,,589448,,1513265970,63616,'',0.366519142919,0.359648788837,0.00180098942601,-0.00687035408137,0.001,-44.1227778191,-6500.0,0.0,-300.0,0.0
1513265971804879952,,589449,,1513265970,10063616,'',0.366519142919,0.359665096432,0.00147443431339,-0.00685404648652,0.001,-44.1028465564,-6500.0,0.0,-300.0,0.0
1513265971814796046,,589450,,1513265970,20063616,'',0.366519142919,0.359747076902,-0.000179852078649,-0.0067720660167,0.001,-44.0692843547,-6500.0,0.0,-300.0,0.0
1513265971824805899,,589451,,1513265970,30063616,'',0.366519142919,0.359797191352,-0.00118559767828,-0.00672195156683,0.001,-44.0491091973,-6500.0,0.0,-300.0,0.0
1513265971834639244,,589452,,1513265970,40063616,'',0.366519142919,0.359872840459,0.0163045795484,-0.00664630246028,0.001,-38.3905454044,-6500.0,0.0,-300.0,0.0
1513265971844678843,,589453,,1513265970,50063616,'',0.366519142919,0.359918947176,0.0153761948207,-0.00660019574294,0.001,-38.2632482745,-6500.0,0.0,-300.0,0.0
1513265971854545955,,589454,,1513265970,60063616,'',0.366519142919,0.359991221263,0.0139091017691,-0.00652792165534,0.001,-38.3141219357,-6500.0,0.0,-300.0,0.0
1513265971864407649,,589455,,1513265970,70063616,'',0.366519142919,0.360049646964,0.0127266080867,-0.00646949595501,0.001,-38.2088200466,-6500.0,0.0,-300.0,0.0
1513265971874506161,,589456,,1513265970,80063616,'',0.366519142919,0.360164073595,0.0104180279705,-0.00635506932356,0.001,-38.1628953202,-6500.0,0.0,-300.0,0.0
1513265971884807364,,589457,,1513265970,90063616,'',0.366519142919,0.360275840592,0.00815571886564,-0.00624330232729,0.001,-38.0645685033,-6500.0,0.0,-300.0,0.0
1513265971894760047,,589458,,1513265970,100063616,'',0.366519142919,0.360349051335,0.0066800142408,-0.00617009158373,0.001,-38.0866830956,-6500.0,0.0,-300.0,0.0
1513265971904864234,,589459,,1513265970,110063616,'',0.366519142919,0.360425100232,0.00514296840869,-0.00609404268724,0.001,-38.0530512854,-6500.0,0.0,-300.0,0.0
1513265971914720907,,589460,,1513265970,120063616,'',0.366519142919,0.36048692808,0.00389222896903,-0.00603221483881,0.001,-38.0366523858,-6500.0,0.0,-300.0,0.0
1513265971924855345,,589461,,1513265970,130063616,'',0.366519142919,0.360557103547,0.00246982380807,-0.00596203937161,0.001,-38.0003714148,-6500.0,0.0,-300.0,0.0
1513265971934770896,,589462,,1513265970,140063616,'',0.366519142919,0.360579480541,0.00202176436722,-0.00593966237823,0.001,-37.9903253345,-6500.0,0.0,-300.0,0.0
1513265971944647336,,589463,,1513265970,150063616,'',0.366519142919,0.360680530747,-8.88804665614e-06,-0.00583861217191,0.001,-37.9514606336,-6500.0,0.0,-300.0,0.0
1513265971954554166,,589464,,1513265970,160063616,'',0.366519142919,0.360696125095,-0.00032657182738,-0.0058230178236,0.001,-37.9430875127,-6500.0,0.0,-300.0,0.0
1513265971964556631,,589465,,1513265970,170063616,'',0.366519142919,0.360726857008,-0.000949236113016,-0.0057922859104,0.001,-37.9316831754,-6500.0,0.0,-300.0,0.0
1513265971974528930,,589466,,1513265970,180063616,'',0.366519142919,0.360718440602,-0.000777076307973,-0.00580070231695,0.001,-37.9359415425,-6500.0,0.0,-300.0,0.0
1513265971984526508,,589467,,1513265970,190063616,'',0.366519142919,0.360711563703,-0.000636407546897,-0.00580757921532,0.001,-37.934761663,-6500.0,0.0,-300.0,0.0
1513265971994468493,,589468,,1513265970,200063616,'',0.366519142919,0.360705920993,-0.000520984421186,-0.00581322192589,0.001,-37.9371646811,-6500.0,0.0,-300.0,0.0
1513265972004804819,,589469,,1513265970,210063616,'',0.366519142919,0.360732922768,-0.00106483047988,-0.00578622015098,0.001,-37.9307019262,-6500.0,0.0,-300.0,0.0
1513265972014715561,,589470,,1513265970,220063616,'',0.366519142919,0.360723406235,-0.000871705707968,-0.00579573668419,0.001,-37.9330936432,-6500.0,0.0,-300.0,0.0
1513265972024595253,,589471,,1513265970,230063616,'',0.366519142919,0.360749473182,-0.00140344994454,-0.00576966973674,0.001,-37.9249496953,-6500.0,0.0,-300.0,0.0
1513265972034500559,,589472,,1513265970,240063616,'',0.366519142919,0.360736960613,-0.00114902593645,-0.00578218230539,0.001,-37.9276172995,-6500.0,0.0,-300.0,0.0
1513265972044563214,,589473,,1513265970,250063616,'',0.366519142919,0.360726711529,-0.000940626428599,-0.00579243138986,0.001,-37.9326230048,-6500.0,0.0,-300.0,0.0
1513265972054401033,,589474,,1513265970,260063616,'',0.366519142919,0.360736693034,-0.00113764974902,-0.00578244988455,0.001,-37.9216572174,-6500.0,0.0,-300.0,0.0
1513265972064434845,,589475,,1513265970,270063616,'',0.366519142919,0.360726490944,-0.000931282461528,-0.00579265197478,0.001,-37.9331833777,-6500.0,0.0,-300.0,0.0
1513265972074816281,,589476,,1513265970,280063616,'',0.366519142919,0.360736794261,0.0178849246939,-0.00578234865783,0.001,-32.2185980466,-6500.0,0.0,-300.0,0.0
1513265972084656525,,589477,,1513265970,290063616,'',0.366519142919,0.360711035892,-0.000615995532006,-0.0058081070266,0.001,-37.9348670419,-6500.0,0.0,-300.0,0.0
1513265972094715129,,589478,,1513265970,300063616,'',0.366519142919,0.360706151425,-0.000519961190311,-0.00581299149359,0.001,-37.9372224984,-6500.0,0.0,-300.0,0.0
1513265972104557568,,589479,,1513265970,310063616,'',0.366519142919,0.360750671903,-0.00141673561764,-0.00576847101536,0.001,-37.921926377,-6500.0,0.0,-300.0,0.0
1513265972114799298,,589480,,1513265970,320063616,'',0.366519142919,0.360737936268,-0.00115978697822,-0.00578120665043,0.001,-37.9287152946,-6500.0,0.0,-300.0,0.0
1513265972124672112,,589481,,1513265970,330063616,'',0.366519142919,0.360727512248,-0.000949476480147,-0.00579163067042,0.001,-37.9316781865,-6500.0,0.0,-300.0,0.0
1513265972134605218,,589482,,1513265970,340063616,'',0.366519142919,0.360718991702,-0.000777569643221,-0.00580015121657,0.001,-37.9305419282,-6500.0,0.0,-300.0,0.0
1513265972144560875,,589483,,1513265970,350063616,'',0.366519142919,0.360712003004,-0.000636568699063,-0.00580713991507,0.001,-37.9387612538,-6500.0,0.0,-300.0,0.0
1513265972154651544,,589484,,1513265970,360063616,'',0.366519142919,0.360706280619,-0.000521116345719,-0.00581286230007,0.001,-37.9396380904,-6500.0,0.0,-300.0,0.0
1513265972164631046,,589485,,1513265970,370063616,'',0.366519142919,0.360701597294,-0.000426627613855,-0.00581754562514,0.001,-37.9429605237,-6500.0,0.0,-300.0,0.0
1513265972174590115,,589486,,1513265970,380063616,'',0.366519142919,0.360664781427,0.000313082259116,-0.0058543614919,0.001,-37.9598300244,-6500.0,0.0,-300.0,0.0
1513265972184517918,,589487,,1513265970,390063616,'',0.366519142919,0.360667622973,0.000256309345565,-0.00585151994551,0.001,-37.9586365724,-6500.0,0.0,-300.0,0.0
1513265972194552327,,589488,,1513265970,400063616,'',0.366519142919,0.360653332532,0.000545527929498,-0.00586581038657,0.001,-37.9667513399,-6500.0,0.0,-300.0,0.0
1513265972204573313,,589489,,1513265970,410063616,'',0.366519142919,0.360674791335,0.000108400030051,-0.00584435158364,0.001,-37.9538442766,-6500.0,0.0,-300.0,0.0
1513265972214470523,,589490,,1513265970,420063616,'',0.366519142919,0.360675815962,8.87771207285e-05,-0.0058433269565,0.001,-37.9540140801,-6500.0,0.0,-300.0,0.0
1513265972224841517,,589491,,1513265970,430063616,'',0.366519142919,0.360692950356,-0.000252379165244,-0.00582619256285,0.001,-37.9465959804,-6500.0,0.0,-300.0,0.0
1513265972234807086,,589492,,1513265970,440063616,'',0.366519142919,0.360690683682,-0.000206609933962,-0.00582845923716,0.001,-37.9467972943,-6500.0,0.0,-300.0,0.0
1513265972244810699,,589493,,1513265970,450063616,'',0.366519142919,0.360688827232,-0.000169124065455,-0.00583031568641,0.001,-37.9482117398,-6500.0,0.0,-300.0,0.0
1513265972254529542,,589494,,1513265970,460063616,'',0.366519142919,0.3606887342,-0.000164027722464,-0.00583040871886,0.001,-37.9468461815,-6500.0,0.0,-300.0,0.0
1513265972264422907,,589495,,1513265970,470063616,'',0.366519142919,0.360655059623,0.000513147147669,-0.00586408329601,0.001,-37.9617410046,-6500.0,0.0,-300.0,0.0
1513265972274412131,,589496,,1513265970,480063616,'',0.366519142919,0.360640980491,-0.0182269539195,-0.00587816242825,0.001,-43.6875246009,-6500.0,0.0,-300.0,0.0
1513265972284938930,,589497,,1513265970,490063616,'',0.366519142919,0.360648123041,0.000653366173,-0.00587101987777,0.001,-37.9702953196,-6500.0,0.0,-300.0,0.0
1513265972294755755,,589498,,1513265970,500063616,'',0.366519142919,0.360602084735,0.00157590025938,-0.00591705818388,0.001,-37.9831192525,-6500.0,0.0,-300.0,0.0
1513265972304920815,,589499,,1513265970,510063616,'',0.366519142919,0.360562446381,0.00234984439697,-0.00595669653749,0.001,-38.0292445873,-6500.0,0.0,-300.0,0.0
1513265972314776929,,589500,,1513265970,520063616,'',0.366519142919,0.360568180062,0.00224054637483,-0.0059509628568,0.001,-37.996637762,-6500.0,0.0,-300.0,0.0
1513265972324628115,,589501,,1513265970,530063616,'',0.366519142919,0.360572166058,0.00216322067288,-0.00594697686124,0.001,-37.9958252657,-6500.0,0.0,-300.0,0.0
1513265972334561368,,589502,,1513265970,540063616,'',0.366519142919,0.360505719122,0.00350091276232,-0.00601342379667,0.001,-38.0444464961,-6500.0,0.0,-300.0,0.0
1513265972344477726,,589503,,1513265970,550063616,'',0.366519142919,0.360452986843,0.00457221856674,-0.00606615607559,0.001,-38.0459443352,-6500.0,0.0,-300.0,0.0
1513265972354754997,,589504,,1513265970,560063616,'',0.366519142919,0.360475502877,-0.0149035050766,-0.00604364004179,0.001,-43.7710721148,-6500.0,0.0,-300.0,0.0
1513265972364532780,,589505,,1513265970,570063616,'',0.366519142919,0.360512667335,0.00337512059977,-0.00600647558366,0.001,-38.0211631562,-6500.0,0.0,-300.0,0.0
1513265972374715417,,589506,,1513265970,580063616,'',0.366519142919,0.360543097799,0.00276298617243,-0.00597604511967,0.001,-38.0035154079,-6500.0,0.0,-300.0,0.0
1513265972384494236,,589507,,1513265970,590063616,'',0.366519142919,0.360603024732,0.0205769097323,-0.00591611818688,0.001,-32.2341304569,-6500.0,0.0,-300.0,0.0
1513265972394386079,,589508,,1513265970,600063616,'',0.366519142919,0.360669459072,0.0192341920317,-0.00584968384634,0.001,-32.2314446868,-6500.0,0.0,-300.0,0.0
1513265972404330150,,589509,,1513265970,610063616,'',0.366519142919,0.360741068974,0.0177895748786,-0.00577807394523,0.001,-32.2012919876,-6500.0,0.0,-300.0,0.0
1513265972414867711,,589510,,1513265970,620063616,'',0.366519142919,0.360851735475,0.0155566563225,-0.00566740744415,0.001,-32.1220822807,-6500.0,0.0,-300.0,0.0
1513265972424767814,,589511,,1513265970,630063616,'',0.366519142919,0.360974810091,0.0130723552351,-0.00554433282768,0.001,-32.1113741629,-6500.0,0.0,-300.0,0.0
1513265972434754909,,589512,,1513265970,640063616,'',0.366519142919,0.361006133107,-0.00657920409442,-0.00551300981139,0.001,-37.7725392122,-6500.0,0.0,-300.0,0.0
1513265972444674027,,589513,,1513265970,650063616,'',0.366519142919,0.361067317282,0.0112032649712,-0.00545182563641,0.001,-32.0598698612,-6500.0,0.0,-300.0,0.0
1513265972454633418,,589514,,1513265970,660063616,'',0.366519142919,0.361116760151,0.010209594829,-0.00540238276815,0.001,-32.033510342,-6500.0,0.0,-300.0,0.0
1513265972464558799,,589515,,1513265970,670063616,'',0.366519142919,0.361074761366,0.0110582733228,-0.00544438155276,0.001,-32.0575886808,-6500.0,0.0,-300.0,0.0
1513265972474506189,,589516,,1513265970,680063616,'',0.366519142919,0.360983925983,-0.0251618643437,-0.00553521693599,0.001,-43.7392593697,-6500.0,0.0,-300.0,0.0
1513265972484434762,,589517,,1513265970,690063616,'',0.366519142919,0.360805242891,-0.0215547365752,-0.00571390002819,0.001,-43.6360789769,-6500.0,0.0,-300.0,0.0
1513265972494703495,,589518,,1513265970,700063616,'',0.366519142919,0.360539956394,-0.0352186390104,-0.00597918652463,0.001,-49.3506340836,-6500.0,0.0,-300.0,0.0
1513265972504471502,,589519,,1513265970,710063616,'',0.366519142919,0.36006637168,-0.0636999439434,-0.00645277123898,0.001,-61.14558838,-6500.0,0.0,-300.0,0.0
1513265972514945096,,589520,,1513265970,720063616,'',0.366519142919,0.359387721914,-0.0690136429918,-0.00713142100462,0.001,-66.6407142321,-6500.0,0.0,-300.0,0.0
1513265972524762258,,589521,,1513265970,730063616,'',0.366519142919,0.358629878461,-0.0727290363683,-0.00788926445788,0.001,-73.2102795272,-6500.0,0.0,-300.0,0.0
1513265972534772899,,589522,,1513265970,740063616,'',0.366519142919,0.357770012028,-0.0743869659622,-0.00874913089073,0.001,-79.2712281521,-6500.0,0.0,-300.0,0.0
1513265972544708540,,589523,,1513265970,750063616,'',0.366519142919,0.356930224025,-0.0764413578388,-0.00958891889355,0.001,-85.3942882844,-6500.0,0.0,-300.0,0.0
1513265972554567909,,589524,,1513265970,760063616,'',0.366519142919,0.356141029296,-0.0795220751762,-0.010378113623,0.001,-90.8336367249,-6500.0,0.0,-300.0,0.0
1513265972564498259,,589525,,1513265970,770063616,'',0.366519142919,0.355427290633,-0.0651022140134,-0.0110918522858,0.001,-91.7607886934,-6500.0,0.0,-300.0,0.0
1513265972574499300,,589526,,1513265970,780063616,'',0.366519142919,0.354843063364,-0.0532989076415,-0.0116760795547,0.001,-91.9161360628,-6500.0,0.0,-300.0,0.0
1513265972584530588,,589527,,1513265970,790063616,'',0.366519142919,0.35434726874,-0.0432783856615,-0.012171874179,0.001,-92.2028386975,-6500.0,0.0,-300.0,0.0
1513265972594563514,,589528,,1513265970,800063616,'',0.366519142919,0.353927248778,-0.0347909011206,-0.0125918941412,0.001,-92.3071035311,-6500.0,0.0,-300.0,0.0
1513265972604862728,,589529,,1513265970,810063616,'',0.366519142919,0.353632853154,-0.0288455477351,-0.0128862897644,0.001,-92.4494554103,-6500.0,0.0,-300.0,0.0
1513265972614731433,,589530,,1513265970,820063616,'',0.366519142919,0.353547869246,-0.00809983610157,-0.0129712736731,0.001,-86.7030473288,-6500.0,0.0,-300.0,0.0
1513265972624648523,,589531,,1513265970,830063616,'',0.366519142919,0.353511514255,0.0116589897234,-0.0130076286643,0.001,-81.0327518875,-6500.0,0.0,-300.0,0.0
1513265972634645142,,589532,,1513265970,840063616,'',0.366519142919,0.353583391158,0.0102074599167,-0.0129357517612,0.001,-81.0096421226,-6500.0,0.0,-300.0,0.0
1513265972644637782,,589533,,1513265970,850063616,'',0.366519142919,0.353674930137,0.00835716296352,-0.0128442127817,0.001,-80.9740460618,-6500.0,0.0,-300.0,0.0
1513265972654645865,,589534,,1513265970,860063616,'',0.366519142919,0.353700104452,0.0078520917239,-0.0128190384669,0.001,-80.9566454875,-6500.0,0.0,-300.0,0.0
1513265972664575467,,589535,,1513265970,870063616,'',0.366519142919,0.353753209341,0.00677779744296,-0.0127659335781,0.001,-80.9430418357,-6500.0,0.0,-300.0,0.0
1513265972674880759,,589536,,1513265970,880063616,'',0.366519142919,0.353798056491,0.00587254267243,-0.0127210864282,0.001,-80.9649875628,-6500.0,0.0,-300.0,0.0
1513265972684823033,,589537,,1513265970,890063616,'',0.366519142919,0.353782119299,-0.0128286881897,-0.0127370236196,0.001,-86.5173014979,-6500.0,0.0,-300.0,0.0
1513265972694793416,,589538,,1513265970,900063616,'',0.366519142919,0.353786718138,0.00609355191921,-0.0127324247804,0.001,-80.9234533423,-6500.0,0.0,-300.0,0.0
1513265972704824394,,589539,,1513265970,910063616,'',0.366519142919,0.353773885471,0.00634945833349,-0.012745257448,0.001,-80.9305430148,-6500.0,0.0,-300.0,0.0
1513265972714621339,,589540,,1513265970,920063616,'',0.366519142919,0.353830924413,0.00519787813775,-0.012688218506,0.001,-80.9083617304,-6500.0,0.0,-300.0,0.0
1513265972724588572,,589541,,1513265970,930063616,'',0.366519142919,0.353893792114,0.00393193556336,-0.0126253508048,0.001,-80.8784819833,-6500.0,0.0,-300.0,0.0
1513265972734669981,,589542,,1513265970,940063616,'',0.366519142919,0.353929645301,0.00320248891124,-0.0125894976181,0.001,-80.8649400126,-6500.0,0.0,-300.0,0.0
1513265972744480682,,589543,,1513265970,950063616,'',0.366519142919,0.353855414864,0.00470501861735,-0.0126637280548,0.001,-80.8909089322,-6500.0,0.0,-300.0,0.0
1513265972754617478,,589544,,1513265970,960063616,'',0.366519142919,0.353868546043,0.0234652168089,-0.0126505968754,0.001,-75.1610613123,-6500.0,0.0,-300.0,0.0
1513265972764598925,,589545,,1513265970,970063616,'',0.366519142919,0.354310435887,0.0906339881915,-0.0122087070319,0.001,-51.9979365613,-6500.0,0.0,-300.0,0.0
1513265972774450584,,589546,,1513265970,980063616,'',0.366519142919,0.355684447108,0.157994984208,-0.0108346958105,0.001,-23.7941475394,-6500.0,0.0,-300.0,0.0
1513265972784580890,,589547,,1513265970,990063616,'',0.366519142919,0.357310144584,0.163200518231,-0.0092089983349,0.001,-10.5939457547,-6500.0,0.0,-300.0,0.0
1513265972794499112,,589548,,1513265971,63616,'',0.366519142919,0.358796150807,0.152202073725,-0.00772299211194,0.001,-4.49581613925,-6500.0,0.0,-300.0,0.0
1513265972804912481,,589549,,1513265971,10063616,'',0.366519142919,0.360495967315,0.174933786615,-0.00602317560377,0.001,13.3791755202,-6500.0,0.0,-300.0,0.0
1513265972814802000,,589550,,1513265971,20063616,'',0.366519142919,0.362279122077,0.176961967683,-0.00424002084156,0.001,25.7954001698,-6500.0,0.0,-300.0,0.0
1513265972824708749,,589551,,1513265971,30063616,'',0.366519142919,0.364157317313,0.177065895175,-0.00236182560552,0.001,37.9844921145,-6500.0,0.0,-300.0,0.0
1513265972834717967,,589552,,1513265971,40063616,'',0.366519142919,0.365712811304,0.126620441581,-0.000806331614449,0.001,32.0587009111,-6500.0,0.0,-300.0,0.0
1513265972844662564,,589553,,1513265971,50063616,'',0.366519142919,0.367020362963,0.119232664231,0.000501220043721,0.001,39.2853135307,-6500.0,0.0,-300.0,0.0
1513265972854699011,,589554,,1513265971,60063616,'',0.366519142919,0.368261330999,0.113190308141,0.0,0.001,0.0,-6500.0,0.0,-300.0,0.0
1513265972864501402,,589555,,1513265971,70063616,'',0.366519142919,0.36946702798,0.126882945995,0.0,0.001,0.0,-6500.0,0.0,-300.0,0.0
1513265972874501275,,589556,,1513265971,80063616,'',0.366519142919,0.371092903477,0.170138095679,0.0,0.001,0.0,-6500.0,0.0,-300.0,0.0
1513265972884513019,,589557,,1513265971,90063616,'',0.366519142919,0.372847092141,0.172747664537,0.0,0.001,0.0,-6500.0,0.0,-300.0,0.0
1513265972894486603,,589558,,1513265971,100063616,'',0.366519142919,0.374590267139,0.175575127706,0.0,0.001,0.0,-6500.0,0.0,-300.0,0.0
1513265972904942031,,589559,,1513265971,110063616,'',0.366519142919,0.376218875454,0.161701804251,0.0,0.001,0.0,-6500.0,0.0,-300.0,0.0
1513265972914885297,,589560,,1513265971,120063616,'',0.366519142919,0.377688752159,0.151032521923,0.0,0.001,0.0,-6500.0,0.0,-300.0,0.0
1513265972924921472,,589561,,1513265971,130063616,'',0.366519142919,0.379044133452,0.123652635858,0.0,0.001,0.0,-6500.0,0.0,-300.0,0.0
1513265972934824783,,589562,,1513265971,140063616,'',0.366519142919,0.380322346399,0.116856889171,0.0138032034802,0.001,124.14259679,-6500.0,0.0,-300.0,0.0
1513265972944698940,,589563,,1513265971,150063616,'',0.366519142919,0.381389441391,0.114321250226,0.0148702984725,0.001,130.365719206,-6500.0,0.0,-300.0,0.0
1513265972954794894,,589564,,1513265971,160063616,'',0.366519142919,0.382454196915,0.0928121289586,0.0159350539967,0.001,131.534555976,-6500.0,0.0,-300.0,0.0
1513265972964590629,,589565,,1513265971,170063616,'',0.366519142919,0.383424521274,0.0922358438587,0.0169053783554,0.001,137.667640261,-6500.0,0.0,-300.0,0.0
1513265972974442184,,589566,,1513265971,180063616,'',0.366519142919,0.384390700819,0.0917417702406,0.0178715579004,0.001,143.745977204,-6500.0,0.0,-300.0,0.0
1513265972984387309,,589567,,1513265971,190063616,'',0.366519142919,0.385320303197,0.0919879200928,0.0188011602784,0.001,149.888594589,-6500.0,0.0,-300.0,0.0
1513265972994747175,,589568,,1513265971,200063616,'',0.366519142919,0.386163171973,0.0749578629177,0.019644029054,0.001,150.194759113,-6500.0,0.0,-300.0,0.0
1513265973004674466,,589569,,1513265971,210063616,'',0.366519142919,0.386871894454,0.0796624188698,0.0203527515355,0.001,156.318403249,-6500.0,0.0,-300.0,0.0
1513265973014597944,,589570,,1513265971,220063616,'',0.366519142919,0.387569541574,0.0655615661501,0.021050398655,0.001,156.59825874,-6500.0,0.0,-300.0,0.0
1513265973024486170,,589571,,1513265971,230063616,'',0.366519142919,0.388140414697,0.054028487653,0.0216212717785,0.001,156.851493356,-6500.0,0.0,-300.0,0.0
1513265973034498402,,589572,,1513265971,240063616,'',0.366519142919,0.388626487165,0.0442118077826,0.0221073442466,0.001,157.286627319,-6500.0,0.0,-300.0,0.0
1513265973044614877,,589573,,1513265971,250063616,'',0.366519142919,0.389004694225,0.0365764372908,0.0224855513061,0.001,157.307398485,-6500.0,0.0,-300.0,0.0
1513265973055223749,,589574,,1513265971,260063616,'',0.366519142919,0.38934831598,0.0296352874552,0.0228291730615,0.001,157.264372994,-6500.0,0.0,-300.0,0.0
1513265973064516452,,589575,,1513265971,270063616,'',0.366519142919,0.389598097741,0.024590193219,0.0230789548222,0.001,157.400302881,-6500.0,0.0,-300.0,0.0
1513265973074489515,,589576,,1513265971,280063616,'',0.366519142919,0.389783401017,0.0208462776118,0.0232642580979,0.001,157.326867983,-6500.0,0.0,-300.0,0.0
1513265973084490776,,589577,,1513265971,290063616,'',0.366519142919,0.389916186702,-0.000856058851417,0.0233970437832,0.001,151.823037521,-6500.0,0.0,-300.0,0.0
1513265973094366885,,589578,,1513265971,300063616,'',0.366519142919,0.389973353229,-0.0020068074589,0.02345421031,0.001,151.847268483,-6500.0,0.0,-300.0,0.0
1513265973104837351,,589579,,1513265971,310063616,'',0.366519142919,0.389970712942,-0.00195639280108,0.0234515700235,0.001,151.84786757,-6500.0,0.0,-300.0,0.0
1513265973114836004,,589580,,1513265971,320063616,'',0.366519142919,0.389953162257,-0.00160169816053,0.023434019338,0.001,151.842238854,-6500.0,0.0,-300.0,0.0
1513265973124550734,,589581,,1513265971,330063616,'',0.366519142919,0.389849173093,-0.0185258042472,0.0233300301743,0.001,146.10969206,-6500.0,0.0,-300.0,0.0
1513265973134397606,,589582,,1513265971,340063616,'',0.366519142919,0.389717352034,-0.0158624519394,0.0231982091157,0.001,145.875530316,-6500.0,0.0,-300.0,0.0
1513265973144369212,,589583,,1513265971,350063616,'',0.366519142919,0.389575565067,-0.0129979835034,0.0230564221481,0.001,145.96318692,-6500.0,0.0,-300.0,0.0
1513265973154716794,,589584,,1513265971,360063616,'',0.366519142919,0.389474834859,-0.0109629966034,0.02295569194,0.001,145.983733454,-6500.0,0.0,-300.0,0.0
1513265973164822514,,589585,,1513265971,370063616,'',0.366519142919,0.389342216617,-0.00828722351827,0.0228230736982,0.001,145.842457255,-6500.0,0.0,-300.0,0.0
1513265973174756391,,589586,,1513265971,380063616,'',0.366519142919,0.389199422289,-0.00540971422872,0.0226802793705,0.001,145.794172617,-6500.0,0.0,-300.0,0.0
1513265973184666094,,589587,,1513265971,390063616,'',0.366519142919,0.389062712387,-0.021670489543,0.0225435694683,0.001,139.982185167,-6500.0,0.0,-300.0,0.0
1513265973194547510,,589588,,1513265971,400063616,'',0.366519142919,0.389003084392,-0.0204667719905,0.0224839414732,0.001,139.99733282,-6500.0,0.0,-300.0,0.0
1513265973204444879,,589589,,1513265971,410063616,'',0.366519142919,0.388904697659,0.000546848464416,0.0223855547406,0.001,145.672993004,-6500.0,0.0,-300.0,0.0
1513265973214381798,,589590,,1513265971,420063616,'',0.366519142919,0.388826203153,0.00213319175376,0.0223070602344,0.001,145.627770041,-6500.0,0.0,-300.0,0.0
1513265973224367382,,589591,,1513265971,430063616,'',0.366519142919,0.388690872025,-0.014161595342,0.022171729106,0.001,139.944332235,-6500.0,0.0,-300.0,0.0
1513265973234887443,,589592,,1513265971,440063616,'',0.366519142919,0.388581170361,-0.0119433869167,0.022062027442,0.001,139.881246571,-6500.0,0.0,-300.0,0.0
1513265973244831233,,589593,,1513265971,450063616,'',0.366519142919,0.388474101987,-0.00977860656918,0.0219549590685,0.001,139.764381745,-6500.0,0.0,-300.0,0.0
1513265973254780633,,589594,,1513265971,460063616,'',0.366519142919,0.388386432576,-0.00800604747133,0.0218672896568,0.001,139.725666951,-6500.0,0.0,-300.0,0.0
1513265973264857131,,589595,,1513265971,470063616,'',0.366519142919,0.388298736435,-0.00622932942485,0.0217795935159,0.001,139.696963666,-6500.0,0.0,-300.0,0.0
1513265973274864137,,589596,,1513265971,480063616,'',0.366519142919,0.388242834918,-0.00509973114638,0.0217236919991,0.001,139.679033894,-6500.0,0.0,-300.0,0.0
1513265973284854547,,589597,,1513265971,490063616,'',0.366519142919,0.388197071313,-0.00417498899226,0.0216779283944,0.001,139.648143842,-6500.0,0.0,-300.0,0.0
1513265973294777503,,589598,,1513265971,500063616,'',0.366519142919,0.388178375753,0.0152282707937,0.0216592328338,0.001,145.384965628,-6500.0,0.0,-300.0,0.0
1513265973304590723,,589599,,1513265971,510063616,'',0.366519142919,0.388144302829,-0.0031083742089,0.0216251599102,0.001,139.648091953,-6500.0,0.0,-300.0,0.0
1513265973314645656,,589600,,1513265971,520063616,'',0.366519142919,0.388134807483,-0.00291290051262,0.0216156645638,0.001,139.641189743,-6500.0,0.0,-300.0,0.0
1513265973324507194,,589601,,1513265971,530063616,'',0.366519142919,0.388110023202,-0.00241568580467,0.0215908802828,0.001,139.610412811,-6500.0,0.0,-300.0,0.0
1513265973334434732,,589602,,1513265971,540063616,'',0.366519142919,0.388070704364,-0.00161675089855,0.0215515614448,0.001,139.599923536,-6500.0,0.0,-300.0,0.0
1513265973344632174,,589603,,1513265971,550063616,'',0.366519142919,0.388056149074,-0.00132349459617,0.0215370061549,0.001,139.593231562,-6500.0,0.0,-300.0,0.0
1513265973354612481,,589604,,1513265971,560063616,'',0.366519142919,0.388044241606,-0.00108358593732,0.0215250986868,0.001,139.595385772,-6500.0,0.0,-300.0,0.0
1513265973364566496,,589605,,1513265971,570063616,'',0.366519142919,0.388034490914,-0.00088713146032,0.0215153479949,0.001,139.584540535,-6500.0,0.0,-300.0,0.0
1513265973374869595,,589606,,1513265971,580063616,'',0.366519142919,0.387994168706,-6.65248875863e-05,0.0214750257875,0.001,139.565553304,-6500.0,0.0,-300.0,0.0
1513265973384791530,,589607,,1513265971,590063616,'',0.366519142919,0.387975917868,0.000301374295362,0.0214567749488,0.001,139.557775046,-6500.0,0.0,-300.0,0.0
1513265973394576939,,589608,,1513265971,600063616,'',0.366519142919,0.387961869724,0.000582483947762,0.0214427268049,0.001,139.551687128,-6500.0,0.0,-300.0,0.0
1513265973404598448,,589609,,1513265971,610063616,'',0.366519142919,0.387934853271,0.00113180753757,0.0214157103524,0.001,139.540469064,-6500.0,0.0,-300.0,0.0
1513265973414579372,,589610,,1513265971,620063616,'',0.366519142919,0.387908589625,-0.0173597824678,0.0213894467062,0.001,133.893494529,-6500.0,0.0,-300.0,0.0
1513265973424362715,,589611,,1513265971,630063616,'',0.366519142919,0.387872454012,-0.0166287076748,0.021353311093,0.001,133.784383253,-6500.0,0.0,-300.0,0.0
1513265973434837774,,589612,,1513265971,640063616,'',0.366519142919,0.387824756886,-0.0156677747877,0.0213056139676,0.001,133.779301589,-6500.0,0.0,-300.0,0.0
1513265973444894246,,589613,,1513265971,650063616,'',0.366519142919,0.387837500683,0.00309853695262,0.0213183577647,0.001,139.498259324,-6500.0,0.0,-300.0,0.0
1513265973454662557,,589614,,1513265971,660063616,'',0.366519142919,0.387814039479,0.00357078082192,0.0212948965601,0.001,139.490303456,-6500.0,0.0,-300.0,0.0
1513265973464657876,,589615,,1513265971,670063616,'',0.366519142919,0.387778070051,0.00428817148676,0.0212589271325,0.001,139.479397811,-6500.0,0.0,-300.0,0.0
1513265973474513095,,589616,,1513265971,680063616,'',0.366519142919,0.387746944812,-0.0140998376964,0.0212278018936,0.001,133.817851446,-6500.0,0.0,-300.0,0.0
1513265973484862932,,589617,,1513265971,690063616,'',0.366519142919,0.387725047193,0.00537110341299,0.0212059042745,0.001,139.458387165,-6500.0,0.0,-300.0,0.0
1513265973494895539,,589618,,1513265971,700063616,'',0.366519142919,0.387652760257,0.00682928198514,0.0211336173386,0.001,139.423335354,-6500.0,0.0,-300.0,0.0
1513265973504611061,,589619,,1513265971,710063616,'',0.366519142919,0.387680659327,0.00625924743806,0.0211615164082,0.001,139.436728571,-6500.0,0.0,-300.0,0.0
1513265973514522689,,589620,,1513265971,720063616,'',0.366519142919,0.387719237031,0.00548407640878,0.0212000941118,0.001,139.446188418,-6500.0,0.0,-300.0,0.0
1513265973524475505,,589621,,1513265971,730063616,'',0.366519142919,0.387733818399,-0.0138393155075,0.0212146754805,0.001,133.730817024,-6500.0,0.0,-300.0,0.0
1513265973534885576,,589622,,1513265971,740063616,'',0.366519142919,0.387712578875,-0.0134186279448,0.0211934359565,0.001,133.714122546,-6500.0,0.0,-300.0,0.0
1513265973544916695,,589623,,1513265971,750063616,'',0.366519142919,0.38767847397,-0.0127194265763,0.0211593310511,0.001,133.770002048,-6500.0,0.0,-300.0,0.0
1513265973554818792,,589624,,1513265971,760063616,'',0.366519142919,0.387683028424,-0.0128080607067,0.0211638855049,0.001,133.790879833,-6500.0,0.0,-300.0,0.0
1513265973564580419,,589625,,1513265971,770063616,'',0.366519142919,0.387706649443,0.00573206654125,0.0211875065245,0.001,139.449439939,-6500.0,0.0,-300.0,0.0
1513265973574538954,,589626,,1513265971,780063616,'',0.366519142919,0.387673168567,0.00640763367387,0.0211540256483,0.001,139.434125013,-6500.0,0.0,-300.0,0.0
1513265973584522344,,589627,,1513265971,790063616,'',0.366519142919,0.387696405714,-0.0130824826834,0.0211772627947,0.001,133.710337282,-6500.0,0.0,-300.0,0.0
1513265973594468912,,589628,,1513265971,800063616,'',0.366519142919,0.387714918428,0.00556353516686,0.0211957755091,0.001,139.412154782,-6500.0,0.0,-300.0,0.0
1513265973604534189,,589629,,1513265971,810063616,'',0.366519142919,0.387714713464,0.00556101451041,0.021195570545,0.001,139.455902308,-6500.0,0.0,-300.0,0.0
1513265973614963412,,589630,,1513265971,820063616,'',0.366519142919,0.387661155026,-0.0123804395086,0.0211420121074,0.001,133.69307,-6500.0,0.0,-300.0,0.0
1513265973624789159,,589631,,1513265971,830063616,'',0.366519142919,0.387669519025,-0.0125486888346,0.0211503761065,0.001,133.76806,-6500.0,0.0,-300.0,0.0
1513265973634797684,,589632,,1513265971,840063616,'',0.366519142919,0.387641584129,0.00703926076412,0.0211224412106,0.001,139.423277515,-6500.0,0.0,-300.0,0.0
1513265973644500781,,589633,,1513265971,850063616,'',0.366519142919,0.387653179737,0.00680996307371,0.021134036818,0.001,139.425478628,-6500.0,0.0,-300.0,0.0
1513265973654437032,,589634,,1513265971,860063616,'',0.366519142919,0.387647630573,0.00692704668001,0.0211284876546,0.001,139.42520837,-6500.0,0.0,-300.0,0.0
1513265973664782997,,589635,,1513265971,870063616,'',0.366519142919,0.387656104115,0.00675155213321,0.0211369611964,0.001,139.420819897,-6500.0,0.0,-300.0,0.0
1513265973674844802,,589636,,1513265971,880063616,'',0.366519142919,0.387645788239,-0.0120667909935,0.0211266453199,0.001,133.678935903,-6500.0,0.0,-300.0,0.0
1513265973684872441,,589637,,1513265971,890063616,'',0.366519142919,0.387608055077,0.00772283659533,0.021088912158,0.001,139.365151911,-6500.0,0.0,-300.0,0.0
1513265973694852165,,589638,,1513265971,900063616,'',0.366519142919,0.387626113568,0.00736085661873,0.0211069706494,0.001,139.367610883,-6500.0,0.0,-300.0,0.0
1513265973704722674,,589639,,1513265971,910063616,'',0.366519142919,0.387639952208,-0.0119387166359,0.0211208092895,0.001,133.687841341,-6500.0,0.0,-300.0,0.0
1513265973714634646,,589640,,1513265971,920063616,'',0.366519142919,0.387651123968,0.006857978177,0.0211319810494,0.001,139.422655916,-6500.0,0.0,-300.0,0.0
1513265973724631088,,589641,,1513265971,930063616,'',0.366519142919,0.387611074913,-0.011355748554,0.0210919319938,0.001,133.689802772,-6500.0,0.0,-300.0,0.0
1513265973734505008,,589642,,1513265971,940063616,'',0.366519142919,0.387574980359,-0.0106257727924,0.0210558374406,0.001,133.660863028,-6500.0,0.0,-300.0,0.0
1513265973744545866,,589643,,1513265971,950063616,'',0.366519142919,0.387532722299,0.00924507784813,0.0210135793804,0.001,139.323394894,-6500.0,0.0,-300.0,0.0
1513265973754873493,,589644,,1513265971,960063616,'',0.366519142919,0.38749286178,-0.00897082600838,0.0209737188609,0.001,133.689627106,-6500.0,0.0,-300.0,0.0
1513265973764909368,,589645,,1513265971,970063616,'',0.366519142919,0.387444869324,-0.00800495721467,0.0209257264048,0.001,133.604524223,-6500.0,0.0,-300.0,0.0
1513265973774779512,,589646,,1513265971,980063616,'',0.366519142919,0.387391025535,-0.00691697350508,0.0208718826159,0.001,133.581981379,-6500.0,0.0,-300.0,0.0
1513265973784583246,,589647,,1513265971,990063616,'',0.366519142919,0.387328962842,-0.00566281598568,0.0208098199237,0.001,133.565661685,-6500.0,0.0,-300.0,0.0
1513265973794621231,,589648,,1513265972,63616,'',0.366519142919,0.387278161857,-0.00463623406463,0.0207590189383,0.001,133.536275412,-6500.0,0.0,-300.0,0.0
1513265973804658228,,589649,,1513265972,10063616,'',0.366519142919,0.387291657442,0.0141160493315,0.0207725145232,0.001,139.269314699,-6500.0,0.0,-300.0,0.0
1513265973814695607,,589650,,1513265972,20063616,'',0.366519142919,0.387282145966,-0.00472041218266,0.0207630030468,0.001,133.537906476,-6500.0,0.0,-300.0,0.0
1513265973824396446,,589651,,1513265972,30063616,'',0.366519142919,0.387255596781,-0.00417932332028,0.0207364538617,0.001,133.554808498,-6500.0,0.0,-300.0,0.0
1513265973834548545,,589652,,1513265972,40063616,'',0.366519142919,0.387167679236,-0.00241245186058,0.0206485363173,0.001,133.508574543,-6500.0,0.0,-300.0,0.0
1513265973844848877,,589653,,1513265972,50063616,'',0.366519142919,0.387024243986,-0.018541037636,0.0205051010676,0.001,127.684600629,-6500.0,0.0,-300.0,0.0
1513265973854945432,,589654,,1513265972,60063616,'',0.366519142919,0.38685793141,-0.0151791796784,0.0203387884909,0.001,127.641714234,-6500.0,0.0,-300.0,0.0
1513265973864859011,,589655,,1513265972,70063616,'',0.366519142919,0.386566630407,-0.0283168553753,0.0200474874883,0.001,121.738860222,-6500.0,0.0,-300.0,0.0
1513265973874847131,,589656,,1513265972,80063616,'',0.366519142919,0.386206035933,-0.0400555521168,0.0196868930138,0.001,115.901907977,-6500.0,0.0,-300.0,0.0
1513265973884644180,,589657,,1513265972,90063616,'',0.366519142919,0.385671477832,-0.0673043014482,0.0191523349136,0.001,104.623075387,-6500.0,0.0,-300.0,0.0
1513265973894654060,,589658,,1513265972,100063616,'',0.366519142919,0.385046726398,-0.073702089176,0.0185275834795,0.001,98.6984877066,-6500.0,0.0,-300.0,0.0
1513265973904557076,,589659,,1513265972,110063616,'',0.366519142919,0.384311872035,-0.0778782483015,0.0177927291158,0.001,91.6543957986,-6500.0,0.0,-300.0,0.0
1513265973914593606,,589660,,1513265972,120063616,'',0.366519142919,0.38350760539,-0.0806561356419,0.016988462471,0.001,86.1305578984,-6500.0,0.0,-300.0,0.0
1513265973924735234,,589661,,1513265972,130063616,'',0.366519142919,0.382661240034,-0.082580111426,0.016142097115,0.001,79.9713772961,-6500.0,0.0,-300.0,0.0
1513265973934730903,,589662,,1513265972,140063616,'',0.366519142919,0.381815431819,-0.0845211678264,0.0152962889002,0.001,73.9431373527,-6500.0,0.0,-300.0,0.0
1513265973944619949,,589663,,1513265972,150063616,'',0.366519142919,0.380987126464,-0.086807271308,0.0144679835452,0.001,67.8620893327,-6500.0,0.0,-300.0,0.0
1513265973954581473,,589664,,1513265972,160063616,'',0.366519142919,0.380275527168,-0.0724305255031,0.0137563842495,0.001,68.0374991358,-6500.0,0.0,-300.0,0.0
1513265973964618288,,589665,,1513265972,170063616,'',0.366519142919,0.379625413635,-0.0592985653056,0.0131062707165,0.001,68.0818076823,-6500.0,0.0,-300.0,0.0
1513265973974649026,,589666,,1513265972,180063616,'',0.366519142919,0.379056593375,-0.0668378096686,0.0125374504567,0.001,61.3616577142,-6500.0,0.0,-300.0,0.0
1513265973984599411,,589667,,1513265972,190063616,'',0.366519142919,0.378558173557,-0.056769544067,0.0120390306385,0.001,61.0521558511,-6500.0,0.0,-300.0,0.0
1513265973994496875,,589668,,1513265972,200063616,'',0.366519142919,0.378151289675,-0.0295261802449,0.0116321467566,0.001,66.6988580714,-6500.0,0.0,-300.0,0.0
1513265974004600613,,589669,,1513265972,210063616,'',0.366519142919,0.377734350073,-0.0401255082092,0.0112152071545,0.001,61.0792772994,-6500.0,0.0,-300.0,0.0
1513265974014685592,,589670,,1513265972,220063616,'',0.366519142919,0.377374100003,-0.0328480778883,0.0108549570846,0.001,60.8718388835,-6500.0,0.0,-300.0,0.0
1513265974024515782,,589671,,1513265972,230063616,'',0.366519142919,0.377079320596,-0.026893223804,0.0105601776768,0.001,60.5406331385,-6500.0,0.0,-300.0,0.0
1513265974034917363,,589672,,1513265972,240063616,'',0.366519142919,0.376837933412,-0.0220169487958,0.0103187904927,0.001,60.465852363,-6500.0,0.0,-300.0,0.0
1513265974044656433,,589673,,1513265972,250063616,'',0.366519142919,0.376604962265,-0.0173090113249,0.0100858193464,0.001,60.3173989927,-6500.0,0.0,-300.0,0.0
1513265974054555023,,589674,,1513265972,260063616,'',0.366519142919,0.37641573545,-0.0134857583134,0.00989659253128,0.001,60.2611940422,-6500.0,0.0,-300.0,0.0
1513265974064586923,,589675,,1513265972,270063616,'',0.366519142919,0.376262583744,-0.0103932441818,0.00974344082506,0.001,60.2675718013,-6500.0,0.0,-300.0,0.0
1513265974074528609,,589676,,1513265972,280063616,'',0.366519142919,0.376103081651,-0.00717217458392,0.00958393873235,0.001,60.1264590773,-6500.0,0.0,-300.0,0.0
1513265974084978755,,589677,,1513265972,290063616,'',0.366519142919,0.3759708578,-0.0235280752062,0.00945171488074,0.001,54.1512719081,-6500.0,0.0,-300.0,0.0
1513265974094800089,,589678,,1513265972,300063616,'',0.366519142919,0.375878379451,-0.00264816511882,0.00935923653253,0.001,60.0674481329,-6500.0,0.0,-300.0,0.0
1513265974104886538,,589679,,1513265972,310063616,'',0.366519142919,0.375753956951,-0.000132471079527,0.00923481403249,0.001,59.9902667892,-6500.0,0.0,-300.0,0.0
1513265974114715892,,589680,,1513265972,320063616,'',0.366519142919,0.375716613438,-0.0183948985577,0.00919747051914,0.001,54.2725186316,-6500.0,0.0,-300.0,0.0
1513265974124762550,,589681,,1513265972,330063616,'',0.366519142919,0.37565348492,-0.0171097162915,0.00913434200084,0.001,54.3173046462,-6500.0,0.0,-300.0,0.0
1513265974134749550,,589682,,1513265972,340063616,'',0.366519142919,0.375567467213,0.00365563807327,0.00904832429447,0.001,59.918399944,-6500.0,0.0,-300.0,0.0
1513265974144415936,,589683,,1513265972,350063616,'',0.366519142919,0.375497593961,-0.0139561372201,0.00897845104194,0.001,54.14156822,-6500.0,0.0,-300.0,0.0
1513265974154441971,,589684,,1513265972,360063616,'',0.366519142919,0.375407519065,0.00688552242236,0.00888837614598,0.001,59.8380009393,-6500.0,0.0,-300.0,0.0
1513265974164901710,,589685,,1513265972,370063616,'',0.366519142919,0.375349147381,-0.0109577817792,0.00883000446248,0.001,54.0952052641,-6500.0,0.0,-300.0,0.0
1513265974174708732,,589686,,1513265972,380063616,'',0.366519142919,0.375319921709,-0.0103692333633,0.00880077878995,0.001,54.0701554603,-6500.0,0.0,-300.0,0.0
1513265974184490741,,589687,,1513265972,390063616,'',0.366519142919,0.375243267337,-0.0088223749295,0.00872412441866,0.001,54.1016309072,-6500.0,0.0,-300.0,0.0
1513265974194566984,,589688,,1513265972,400063616,'',0.366519142919,0.375182302317,0.0114287008075,0.00866315939798,0.001,59.6695558701,-6500.0,0.0,-300.0,0.0
1513265974204482232,,589689,,1513265972,410063616,'',0.366519142919,0.375164246673,-0.00723254296101,0.00864510375429,0.001,54.010557969,-6500.0,0.0,-300.0,0.0
1513265974214864148,,589690,,1513265972,420063616,'',0.366519142919,0.375132487468,-0.0065917262779,0.00861334454905,0.001,53.9939790971,-6500.0,0.0,-300.0,0.0
1513265974224793999,,589691,,1513265972,430063616,'',0.366519142919,0.375124201449,-0.00641997957493,0.00860505853032,0.001,53.9967758621,-6500.0,0.0,-300.0,0.0
1513265974234804067,,589692,,1513265972,440063616,'',0.366519142919,0.375066562834,-0.00525590991254,0.00854741991543,0.001,53.9792562711,-6500.0,0.0,-300.0,0.0
1513265974244765087,,589693,,1513265972,450063616,'',0.366519142919,0.3750893603,-0.00571337893073,0.00857021738115,0.001,54.0188587122,-6500.0,0.0,-300.0,0.0
1513265974254808302,,589694,,1513265972,460063616,'',0.366519142919,0.375056026399,-0.00504395081549,0.00853688348035,0.001,53.9746966855,-6500.0,0.0,-300.0,0.0
1513265974264486652,,589695,,1513265972,470063616,'',0.366519142919,0.375026655249,-0.00445105638644,0.00850751233002,0.001,53.9565195695,-6500.0,0.0,-300.0,0.0
1513265974274800291,,589696,,1513265972,480063616,'',0.366519142919,0.374986696814,-0.00364385255484,0.00846755389541,0.001,53.9415355568,-6500.0,0.0,-300.0,0.0
1513265974284741586,,589697,,1513265972,490063616,'',0.366519142919,0.374953991222,-0.00298316402135,0.00843484830294,0.001,53.9288173117,-6500.0,0.0,-300.0,0.0
1513265974294759214,,589698,,1513265972,500063616,'',0.366519142919,0.374945931364,0.0162044887222,0.0084267884456,0.001,59.6547842024,-6500.0,0.0,-300.0,0.0
1513265974304608057,,589699,,1513265972,510063616,'',0.366519142919,0.374955649511,0.0160079160965,0.00843650659245,0.001,59.5570672733,-6500.0,0.0,-300.0,0.0
1513265974314578520,,589700,,1513265972,520063616,'',0.366519142919,0.374945860202,-0.00282016709526,0.00842671728335,0.001,53.9414798517,-6500.0,0.0,-300.0,0.0
1513265974324581949,,589701,,1513265972,530063616,'',0.366519142919,0.374920558938,-0.00230882586113,0.00840141601938,0.001,53.9112384134,-6500.0,0.0,-300.0,0.0
1513265974334475027,,589702,,1513265972,540063616,'',0.366519142919,0.374952400448,-0.00295155722927,0.00843325752909,0.001,53.9219640454,-6500.0,0.0,-300.0,0.0
1513265974344963865,,589703,,1513265972,550063616,'',0.366519142919,0.374941598796,-0.00272879743135,0.00842245587711,0.001,53.9194527497,-6500.0,0.0,-300.0,0.0
1513265974355092381,,589704,,1513265972,560063616,'',0.366519142919,0.374917072305,-0.0022340655843,0.00839792938646,0.001,53.9113320982,-6500.0,0.0,-300.0,0.0
1513265974364377975,,589705,,1513265972,570063616,'',0.366519142919,0.374897026639,-0.00182971790674,0.00837788372011,0.001,53.9270638124,-6500.0,0.0,-300.0,0.0
1513265974374780789,,589706,,1513265972,580063616,'',0.366519142919,0.374880581095,-0.00149798946505,0.00836143817578,0.001,53.8988820569,-6500.0,0.0,-300.0,0.0
1513265974384730859,,589707,,1513265972,590063616,'',0.366519142919,0.374901450768,-0.00192256984629,0.0083823078494,0.001,53.9055833706,-6500.0,0.0,-300.0,0.0
1513265974394800655,,589708,,1513265972,600063616,'',0.366519142919,0.374902585491,-0.0019451554511,0.0083834425724,0.001,53.9060479179,-6500.0,0.0,-300.0,0.0
1513265974404907081,,589709,,1513265972,610063616,'',0.366519142919,0.374903832016,0.0170544001906,0.00838468909734,0.001,59.6323747165,-6500.0,0.0,-300.0,0.0
1513265974414822389,,589710,,1513265972,620063616,'',0.366519142919,0.374886176261,-0.00161417199228,0.00836703334173,0.001,53.9070216997,-6500.0,0.0,-300.0,0.0
1513265974424795554,,589711,,1513265972,630063616,'',0.366519142919,0.374871700387,-0.00132157250685,0.00835255746856,0.001,53.8929266306,-6500.0,0.0,-300.0,0.0
1513265974434708171,,589712,,1513265972,640063616,'',0.366519142919,0.374859841141,-0.00108186265007,0.00834069822186,0.001,53.8878455979,-6500.0,0.0,-300.0,0.0
1513265974444642192,,589713,,1513265972,650063616,'',0.366519142919,0.374850139011,-0.0008857543938,0.00833099609186,0.001,53.8845767142,-6500.0,0.0,-300.0,0.0
1513265974455245845,,589714,,1513265972,660063616,'',0.366519142919,0.374842192669,-0.000725135718796,0.00832304974991,0.001,53.8819518581,-6500.0,0.0,-300.0,0.0
1513265974464646636,,589715,,1513265972,670063616,'',0.366519142919,0.374835699607,-0.000593892058865,0.00831655668799,0.001,53.8788368642,-6500.0,0.0,-300.0,0.0
1513265974474575927,,589716,,1513265972,680063616,'',0.366519142919,0.374830371182,-0.00048618909942,0.00831122826311,0.001,53.8798534329,-6500.0,0.0,-300.0,0.0
1513265974484531105,,589717,,1513265972,690063616,'',0.366519142919,0.374826008697,-0.000398010595229,0.00830686577819,0.001,53.8740943721,-6500.0,0.0,-300.0,0.0
1513265974494877533,,589718,,1513265972,700063616,'',0.366519142919,0.374804422597,3.77705750736e-05,0.00828527967833,0.001,53.8658607506,-6500.0,0.0,-300.0,0.0
1513265974504726743,,589719,,1513265972,710063616,'',0.366519142919,0.374804766232,3.09220204854e-05,0.00828562331338,0.001,53.8660014322,-6500.0,0.0,-300.0,0.0
1513265974514784230,,589720,,1513265972,720063616,'',0.366519142919,0.374805047584,2.53147618666e-05,0.0082859046648,0.001,53.8661017843,-6500.0,0.0,-300.0,0.0
1513265974524744278,,589721,,1513265972,730063616,'',0.366519142919,0.374805277455,2.07334904395e-05,0.008286134536,0.001,53.866184911,-6500.0,0.0,-300.0,0.0
1513265974534678863,,589722,,1513265972,740063616,'',0.366519142919,0.374805466156,1.69727213889e-05,0.00828632323743,0.001,53.866283004,-6500.0,0.0,-300.0,0.0
1513265974544614995,,589723,,1513265972,750063616,'',0.366519142919,0.374805620543,1.3895826612e-05,0.00828647762459,0.001,53.8663389694,-6500.0,0.0,-300.0,0.0
1513265974554488963,,589724,,1513265972,760063616,'',0.366519142919,0.374805747011,1.13753696641e-05,0.00828660409176,0.001,53.8664096204,-6500.0,0.0,-300.0,0.0
1513265974564539144,,589725,,1513265972,770063616,'',0.366519142919,0.374805850521,9.31243422105e-06,0.0082867076022,0.001,53.8664507882,-6500.0,0.0,-300.0,0.0
1513265974574548640,,589726,,1513265972,780063616,'',0.366519142919,0.374805935231,7.62419598258e-06,0.00828679231173,0.001,53.8664755448,-6500.0,0.0,-300.0,0.0
1513265974584449372,,589727,,1513265972,790063616,'',0.366519142919,0.374790677261,0.000319169157667,0.00827153434268,0.001,53.8604161401,-6500.0,0.0,-300.0,0.0
1513265974594471305,,589728,,1513265972,800063616,'',0.366519142919,0.374810129717,-7.44354540739e-05,0.00829098679826,0.001,53.8682417124,-6500.0,0.0,-300.0,0.0
1513265974604393825,,589729,,1513265972,810063616,'',0.366519142919,0.374809438419,-6.09365049438e-05,0.0082902955002,0.001,53.8678367576,-6500.0,0.0,-300.0,0.0
1513265974614475689,,589730,,1513265972,820063616,'',0.366519142919,0.374793235253,0.000262523372023,0.00827409233425,0.001,53.8612043562,-6500.0,0.0,-300.0,0.0
1513265974624776322,,589731,,1513265972,830063616,'',0.366519142919,0.37479560288,0.000215012880562,0.00827645996152,0.001,53.8623125798,-6500.0,0.0,-300.0,0.0
1513265974634784791,,589732,,1513265972,840063616,'',0.366519142919,0.374797546207,0.000176016707648,0.00827840328813,0.001,53.8619704049,-6500.0,0.0,-300.0,0.0
1513265974644691378,,589733,,1513265972,850063616,'',0.366519142919,0.374799136942,0.000144095889644,0.00827999402307,0.001,53.8637387659,-6500.0,0.0,-300.0,0.0
1513265974654533914,,589734,,1513265972,860063616,'',0.366519142919,0.374819142469,0.0187647939413,0.00829999954978,0.001,59.5967145855,-6500.0,0.0,-300.0,0.0
1513265974664539837,,589735,,1513265972,870063616,'',0.366519142919,0.374800233381,0.000124569711747,0.00828109046207,0.001,53.8641457162,-6500.0,0.0,-300.0,0.0
1513265974674526813,,589736,,1513265972,880063616,'',0.366519142919,0.374801337008,0.000101974485056,0.0082821940889,0.001,53.8645393764,-6500.0,0.0,-300.0,0.0
1513265974684515670,,589737,,1513265972,890063616,'',0.366519142919,0.374802240277,8.34813032322e-05,0.00828309735807,0.001,53.8649673247,-6500.0,0.0,-300.0,0.0
1513265974694585763,,589738,,1513265972,900063616,'',0.366519142919,0.374767621229,0.000775048453587,0.00824847831002,0.001,53.8458253698,-6500.0,0.0,-300.0,0.0
1513265974704496134,,589739,,1513265972,910063616,'',0.366519142919,0.374774638891,0.000634492588395,0.00825549597172,0.001,53.8491835634,-6500.0,0.0,-300.0,0.0
1513265974714437203,,589740,,1513265972,920063616,'',0.366519142919,0.374762785751,0.000872025897718,0.00824364283178,0.001,53.8480525053,-6500.0,0.0,-300.0,0.0
1513265974724993726,,589741,,1513265972,930063616,'',0.366519142919,0.374770682371,0.000713842221866,0.00825153945176,0.001,53.8520477498,-6500.0,0.0,-300.0,0.0
1513265974734885860,,589742,,1513265972,940063616,'',0.366519142919,0.374758411212,-0.0180620101679,0.00823926829316,0.001,48.1165686252,-6500.0,0.0,-300.0,0.0
1513265974744844120,,589743,,1513265972,950063616,'',0.366519142919,0.374767101551,0.000788667101251,0.0082479586323,0.001,53.8515548775,-6500.0,0.0,-300.0,0.0
1513265974754722022,,589744,,1513265972,960063616,'',0.366519142919,0.374774213457,0.000645641479754,0.00825507053811,0.001,53.8527436513,-6500.0,0.0,-300.0,0.0
1513265974764581629,,589745,,1513265972,970063616,'',0.366519142919,0.374780025082,0.000528765458539,0.00826088216294,0.001,53.8521893714,-6500.0,0.0,-300.0,0.0
1513265974774528389,,589746,,1513265972,980063616,'',0.366519142919,0.374800475087,0.00011666653281,0.00828133216786,0.001,53.86432142,-6500.0,0.0,-300.0,0.0
1513265974784444421,,589747,,1513265972,990063616,'',0.366519142919,0.374784543207,0.000437712815691,0.00826540028798,0.001,53.8574362499,-6500.0,0.0,-300.0,0.0
1513265974794808516,,589748,,1513265973,63616,'',0.366519142919,0.374788499188,0.000358189629713,0.00826935626944,0.001,53.8609805236,-6500.0,0.0,-300.0,0.0
1513265974804921485,,589749,,1513265973,10063616,'',0.366519142919,0.374791724766,0.000293349033075,0.00827258184693,0.001,53.8605771554,-6500.0,0.0,-300.0,0.0
1513265974814794496,,589750,,1513265973,20063616,'',0.366519142919,0.374778755362,0.000558462555756,0.00825961244319,0.001,53.8551918593,-6500.0,0.0,-300.0,0.0
1513265974824650554,,589751,,1513265973,30063616,'',0.366519142919,0.374766084121,0.000810344013597,0.00824694120246,0.001,53.8504001554,-6500.0,0.0,-300.0,0.0
1513265974834568793,,589752,,1513265973,40063616,'',0.366519142919,0.374773380539,0.000663387260884,0.00825423762026,0.001,53.8529600673,-6500.0,0.0,-300.0,0.0
1513265974844616882,,589753,,1513265973,50063616,'',0.366519142919,0.374779341912,0.000543319568984,0.00826019899344,0.001,53.8516172137,-6500.0,0.0,-300.0,0.0
1513265974854666221,,589754,,1513265973,60063616,'',0.366519142919,0.374784234963,0.000444768896796,0.00826509204439,0.001,53.8570804043,-6500.0,0.0,-300.0,0.0
1513265974864463042,,589755,,1513265973,70063616,'',0.366519142919,0.374788240741,0.000364088748209,0.00826909782201,0.001,53.8593415562,-6500.0,0.0,-300.0,0.0
1513265974874512819,,589756,,1513265973,80063616,'',0.366519142919,0.37477307966,0.000669479303778,0.0082539367407,0.001,53.852641087,-6500.0,0.0,-300.0,0.0
1513265974884932885,,589757,,1513265973,90063616,'',0.366519142919,0.374743415469,0.00126488403366,0.00822427255003,0.001,53.8319814369,-6500.0,0.0,-300.0,0.0
1513265974894853218,,589758,,1513265973,100063616,'',0.366519142919,0.374754825081,0.00103545152492,0.00823568216204,0.001,53.846532955,-6500.0,0.0,-300.0,0.0
1513265974904671609,,589759,,1513265973,110063616,'',0.366519142919,0.374764162534,0.000847687452705,0.00824501961481,0.001,53.8494401045,-6500.0,0.0,-300.0,0.0
1513265974914616401,,589760,,1513265973,120063616,'',0.366519142919,0.37475544982,0.00102359840113,0.0082363069012,0.001,53.8386858121,-6500.0,0.0,-300.0,0.0
1513265974924510243,,589761,,1513265973,130063616,'',0.366519142919,0.374764677162,0.000837919789854,0.00824553424366,0.001,53.8495892618,-6500.0,0.0,-300.0,0.0
1513265974934456330,,589762,,1513265973,140063616,'',0.366519142919,0.374787883107,0.00037023848465,0.00826874018793,0.001,53.8589819802,-6500.0,0.0,-300.0,0.0
1513265974944827385,,589763,,1513265973,150063616,'',0.366519142919,0.374775686039,0.000621029454082,0.00825654312047,0.001,53.8535597262,-6500.0,0.0,-300.0,0.0
1513265974954792523,,589764,,1513265973,160063616,'',0.366519142919,0.374781231093,0.000508608778015,0.00826208817388,0.001,53.8531448421,-6500.0,0.0,-300.0,0.0
1513265974964694836,,589765,,1513265973,170063616,'',0.366519142919,0.37478577971,0.00041638990181,0.00826663679085,0.001,53.8581085849,-6500.0,0.0,-300.0,0.0
1513265974974729521,,589766,,1513265973,180063616,'',0.366519142919,0.374789504712,0.000340869021159,0.00827036179351,0.001,53.8597780178,-6500.0,0.0,-300.0,0.0
1513265974984693186,,589767,,1513265973,190063616,'',0.366519142919,0.3747759164,0.000614968292873,0.00825677348148,0.001,53.8542348957,-6500.0,0.0,-300.0,0.0
1513265974994567994,,589768,,1513265973,200063616,'',0.366519142919,0.374781432216,0.000503392725713,0.00826228929703,0.001,53.8567755609,-6500.0,0.0,-300.0,0.0
1513265975004640774,,589769,,1513265973,210063616,'',0.366519142919,0.374785935426,0.000412300435393,0.00826679250758,0.001,53.8557938108,-6500.0,0.0,-300.0,0.0
1513265975014523863,,589770,,1513265973,220063616,'',0.366519142919,0.374789632425,0.000337516435418,0.00827048950649,0.001,53.8599031766,-6500.0,0.0,-300.0,0.0
1513265975024784595,,589771,,1513265973,230063616,'',0.366519142919,0.374792657812,0.000276318009716,0.00827351489312,0.001,53.8609645849,-6500.0,0.0,-300.0,0.0
1513265975034784654,,589772,,1513265973,240063616,'',0.366519142919,0.374795134636,0.000226216072703,0.00827599171712,0.001,53.8619930385,-6500.0,0.0,-300.0,0.0
1513265975044746417,,589773,,1513265973,250063616,'',0.366519142919,0.374815549946,0.0188352384839,0.00829640702749,0.001,59.4985893266,-6500.0,0.0,-300.0,0.0
1513265975054842827,,589774,,1513265973,260063616,'',0.366519142919,0.374813875215,-0.000156635252143,0.00829473229657,0.001,53.8695871824,-6500.0,0.0,-300.0,0.0
1513265975064668543,,589775,,1513265973,270063616,'',0.366519142919,0.374795900043,0.000208027596005,0.00827675712458,0.001,53.8623716797,-6500.0,0.0,-300.0,0.0
1513265975074562026,,589776,,1513265973,280063616,'',0.366519142919,0.374797786424,0.000170359235296,0.0082786435052,0.001,53.8621106403,-6500.0,0.0,-300.0,0.0
1513265975084591543,,589777,,1513265973,290063616,'',0.366519142919,0.374781701514,0.000496013206378,0.00826255859544,0.001,53.8567385522,-6500.0,0.0,-300.0,0.0
1513265975094894169,,589778,,1513265973,300063616,'',0.366519142919,0.374770231117,0.000731386042049,0.00825108819771,0.001,53.8519156803,-6500.0,0.0,-300.0,0.0
1513265975104754438,,589779,,1513265973,310063616,'',0.366519142919,0.374776775472,0.000598748401843,0.00825763255348,0.001,53.8545853396,-6500.0,0.0,-300.0,0.0
1513265975114723046,,589780,,1513265973,320063616,'',0.366519142919,0.374765447713,0.000822695678426,0.00824630479466,0.001,53.843702443,-6500.0,0.0,-300.0,0.0
1513265975124659734,,589781,,1513265973,330063616,'',0.366519142919,0.374772861459,0.000673460401283,0.00825371854013,0.001,53.8529398526,-6500.0,0.0,-300.0,0.0
1513265975134536708,,589782,,1513265973,340063616,'',0.366519142919,0.374742260598,-0.017731650552,0.00822311767897,0.001,48.1201100215,-6500.0,0.0,-300.0,0.0
1513265975144623610,,589783,,1513265973,350063616,'',0.366519142919,0.374737215683,0.00139592626826,0.00821807276408,0.001,53.8295738877,-6500.0,0.0,-300.0,0.0
1513265975154621134,,589784,,1513265973,360063616,'',0.366519142919,0.374732811964,0.00148527674691,0.00821366904567,0.001,53.825817872,-6500.0,0.0,-300.0,0.0
1513265975164465949,,589785,,1513265973,370063616,'',0.366519142919,0.374746146054,0.00121584485071,0.00822700313474,0.001,53.8424418866,-6500.0,0.0,-300.0,0.0
1513265975174945294,,589786,,1513265973,380063616,'',0.366519142919,0.374738316317,-0.0176511001178,0.0082191733978,0.001,48.1018484232,-6500.0,0.0,-300.0,0.0
1513265975184916699,,589787,,1513265973,390063616,'',0.366519142919,0.374750623763,0.00112214002788,0.00823148084413,0.001,53.8438359033,-6500.0,0.0,-300.0,0.0
1513265975194847923,,589788,,1513265973,400063616,'',0.366519142919,0.374743101345,0.00127122498735,0.00822395842641,0.001,53.8423248968,-6500.0,0.0,-300.0,0.0
1513265975204802794,,589789,,1513265973,410063616,'',0.366519142919,0.374770481588,0.000722028285225,0.00825133866882,0.001,53.8521747722,-6500.0,0.0,-300.0,0.0
1513265975214693350,,589790,,1513265973,420063616,'',0.366519142919,0.374776968207,0.000591335766523,0.0082578252884,0.001,53.8505096869,-6500.0,0.0,-300.0,0.0
1513265975224635728,,589791,,1513265973,430063616,'',0.366519142919,0.374766030481,0.000812902926343,0.00824688756192,0.001,53.8496728974,-6500.0,0.0,-300.0,0.0
1513265975234651047,,589792,,1513265973,440063616,'',0.366519142919,0.374756379649,0.0010081771051,0.0082372367297,0.001,53.8468483211,-6500.0,0.0,-300.0,0.0
1513265975244599037,,589793,,1513265973,450063616,'',0.366519142919,0.374765434423,0.000825374594797,0.00824629150446,0.001,53.8501976396,-6500.0,0.0,-300.0,0.0
1513265975254498956,,589794,,1513265973,460063616,'',0.366519142919,0.374757227209,0.00099477700375,0.00823808428976,0.001,53.8402353988,-6500.0,0.0,-300.0,0.0
1513265975264577297,,589795,,1513265973,470063616,'',0.366519142919,0.374766130603,0.000814357598421,0.00824698768465,0.001,53.849715056,-6500.0,0.0,-300.0,0.0
1513265975274689107,,589796,,1513265973,480063616,'',0.366519142919,0.374755789983,0.0010268024139,0.00823664706455,0.001,53.8456559266,-6500.0,0.0,-300.0,0.0
1513265975284946191,,589797,,1513265973,490063616,'',0.366519142919,0.374749237811,0.0011568377571,0.00823009489257,0.001,53.8411858469,-6500.0,0.0,-300.0,0.0
1513265975294694395,,589798,,1513265973,500063616,'',0.366519142919,0.374759570605,0.000947423401795,0.00824042768615,0.001,53.842041314,-6500.0,0.0,-300.0,0.0
1513265975304624017,,589799,,1513265973,510063616,'',0.366519142919,0.374768047526,0.000775621949237,0.00824890460715,0.001,53.8514717921,-6500.0,0.0,-300.0,0.0
1513265975314659965,,589800,,1513265973,520063616,'',0.366519142919,0.374742122165,0.00129926565934,0.00822297924655,0.001,53.8376383879,-6500.0,0.0,-300.0,0.0
1513265975324589489,,589801,,1513265973,530063616,'',0.366519142919,0.374736484557,0.00141664084969,0.00821734163803,0.001,53.8376397187,-6500.0,0.0,-300.0,0.0
1513265975334573087,,589802,,1513265973,540063616,'',0.366519142919,0.37473114879,0.00152341932724,0.00821200587077,0.001,53.8358629923,-6500.0,0.0,-300.0,0.0
1513265975344975958,,589803,,1513265973,550063616,'',0.366519142919,0.374744784582,0.00124706829778,0.00822564166278,0.001,53.8410861447,-6500.0,0.0,-300.0,0.0
1513265975354753691,,589804,,1513265973,560063616,'',0.366519142919,0.37475592135,0.00102136396166,0.00823677843108,0.001,53.8395330996,-6500.0,0.0,-300.0,0.0
1513265975364820122,,589805,,1513265973,570063616,'',0.366519142919,0.374733469605,0.0014770866365,0.00821432668648,0.001,53.8368131172,-6500.0,0.0,-300.0,0.0
1513265975374626143,,589806,,1513265973,580063616,'',0.366519142919,0.37473088792,0.00152190897324,0.00821174500115,0.001,53.8361965742,-6500.0,0.0,-300.0,0.0
