rosbagTimestamp,header,seq,stamp,secs,nsecs,frame_id,set_point,process_value,process_value_dot,error,time_step,command,p,i,d,i_clamp
1513266311378690352,,623404,,1513266309,577770185,'',1.25663706144,1.25985214164,0.00309989635272,0.0,0.001,0.0,4500.0,0.0,0.0,0.0
1513266311389167212,,623405,,1513266309,587770185,'',1.25663706144,1.26123003315,0.0313178501331,0.0,0.001,0.0,4500.0,0.0,0.0,0.0
1513266311399038093,,623406,,1513266309,597770185,'',1.25663706144,1.25985214164,0.0018582271956,0.0,0.001,0.0,4500.0,0.0,0.0,0.0
1513266311409089183,,623407,,1513266309,607770185,'',1.25663706144,1.25985214164,0.00151824251265,0.0,0.001,0.0,4500.0,0.0,0.0,0.0
1513266311418937433,,623408,,1513266309,617770185,'',1.25663706144,1.26123003315,0.0280592963078,0.0,0.001,0.0,4500.0,0.0,0.0,0.0
1513266311429028917,,623409,,1513266309,627770185,'',1.25663706144,1.26123003315,0.0269516705827,0.0,0.001,0.0,4500.0,0.0,0.0,0.0
1513266311438897138,,623410,,1513266309,637770185,'',1.25663706144,1.25847425012,-0.0285404833117,0.0,0.001,0.0,4500.0,0.0,0.0,0.0
1513266311448915323,,623411,,1513266309,647770185,'',1.25663706144,1.25985214164,-0.00155302725642,0.0,0.001,0.0,4500.0,0.0,0.0,0.0
1513266311458731155,,623412,,1513266309,657770185,'',1.25663706144,1.25985214164,-0.00124282607939,0.0,0.001,0.0,4500.0,0.0,0.0,0.0
1513266311468685181,,623413,,1513266309,667770185,'',1.25663706144,1.25985214164,-0.00200903531124,0.0,0.001,0.0,4500.0,0.0,0.0,0.0
1513266311479130909,,623414,,1513266309,677770185,'',1.25663706144,1.25985214164,-0.00260678145748,0.0,0.001,0.0,4500.0,0.0,0.0,0.0
1513266311489123700,,623415,,1513266309,687770185,'',1.25663706144,1.26123003315,0.0256693461392,0.0,0.001,0.0,4500.0,0.0,0.0,0.0
1513266311499246014,,623416,,1513266309,697770185,'',1.25663706144,1.26123003315,0.0240664985536,0.0,0.001,0.0,4500.0,0.0,0.0,0.0
1513266311508970744,,623417,,1513266309,707770185,'',1.25663706144,1.26123003315,0.0237202028482,0.0,0.001,0.0,4500.0,0.0,0.0,0.0
1513266311518755215,,623418,,1513266309,717770185,'',1.25663706144,1.25985214164,-0.00481126473463,0.0,0.001,0.0,4500.0,0.0,0.0,0.0
1513266311528730549,,623419,,1513266309,727770185,'',1.25663706144,1.25985214164,-0.00290089354059,0.0,0.001,0.0,4500.0,0.0,0.0,0.0
1513266311538646819,,623420,,1513266309,737770185,'',1.25663706144,1.25985214164,-0.00191804069629,0.0,0.001,0.0,4500.0,0.0,0.0,0.0
1513266311549055145,,623421,,1513266309,747770185,'',1.25663706144,1.25985214164,-0.00313993857576,0.0,0.001,0.0,4500.0,0.0,0.0,0.0
1513266311559147638,,623422,,1513266309,757770185,'',1.25663706144,1.25985214164,-0.00359642220599,0.0,0.001,0.0,4500.0,0.0,0.0,0.0
1513266311569137042,,623423,,1513266309,767770185,'',1.25663706144,1.26123003315,0.0243698494555,0.0,0.001,0.0,4500.0,0.0,0.0,0.0
1513266311578904175,,623424,,1513266309,777770185,'',1.25663706144,1.25985214164,-0.0043626669029,0.0,0.001,0.0,4500.0,0.0,0.0,0.0
1513266311588784495,,623425,,1513266309,787770185,'',1.25663706144,1.25985214164,-0.00409292229008,0.0,0.001,0.0,4500.0,0.0,0.0,0.0
1513266311598781746,,623426,,1513266309,797770185,'',1.25663706144,1.25985214164,-0.00578940424043,0.0,0.001,0.0,4500.0,0.0,0.0,0.0
1513266311608777906,,623427,,1513266309,807770185,'',1.25663706144,1.25985214164,-0.0051968866224,0.0,0.001,0.0,4500.0,0.0,0.0,0.0
1513266311618728334,,623428,,1513266309,817770185,'',1.25663706144,1.25985214164,-0.00529701176595,0.0,0.001,0.0,4500.0,0.0,0.0,0.0
1513266311629159227,,623429,,1513266309,827770185,'',1.25663706144,1.25985214164,-0.0042944944227,0.0,0.001,0.0,4500.0,0.0,0.0,0.0
1513266311639089695,,623430,,1513266309,837770185,'',1.25663706144,1.25985214164,-0.0055930944111,0.0,0.001,0.0,4500.0,0.0,0.0,0.0
1513266311649223414,,623431,,1513266309,847770185,'',1.25663706144,1.26123003315,0.0221920898635,0.0,0.001,0.0,4500.0,0.0,0.0,0.0
1513266311659038343,,623432,,1513266309,857770185,'',1.25663706144,1.25985214164,-0.00562483708479,0.0,0.001,0.0,4500.0,0.0,0.0,0.0
1513266311668937887,,623433,,1513266309,867770185,'',1.25663706144,1.25985214164,-0.0060448585727,0.0,0.001,0.0,4500.0,0.0,0.0,0.0
1513266311678749248,,623434,,1513266309,877770185,'',1.25663706144,1.25985214164,-0.00745903179231,0.0,0.001,0.0,4500.0,0.0,0.0,0.0
1513266311688815994,,623435,,1513266309,887770185,'',1.25663706144,1.25985214164,-0.00653695021069,0.0,0.001,0.0,4500.0,0.0,0.0,0.0
1513266311698885466,,623436,,1513266309,897770185,'',1.25663706144,1.26123003315,0.0239451529032,0.0,0.001,0.0,4500.0,0.0,0.0,0.0
1513266311709162062,,623437,,1513266309,907770185,'',1.25663706144,1.25985214164,-0.00268877070179,0.0,0.001,0.0,4500.0,0.0,0.0,0.0
1513266311719140891,,623438,,1513266309,917770185,'',1.25663706144,1.26123003315,0.0275862715597,0.0,0.001,0.0,4500.0,0.0,0.0,0.0
1513266311729121910,,623439,,1513266309,927770185,'',1.25663706144,1.25985214164,0.000260058695864,0.0,0.001,0.0,4500.0,0.0,0.0,0.0
1513266311738949441,,623440,,1513266309,937770185,'',1.25663706144,1.25985214164,-0.000313663520123,0.0,0.001,0.0,4500.0,0.0,0.0,0.0
1513266311748892375,,623441,,1513266309,947770185,'',1.25663706144,1.25985214164,0.00122073656404,0.0,0.001,0.0,4500.0,0.0,0.0,0.0
1513266311758849860,,623442,,1513266309,957770185,'',1.25663706144,1.25985214164,0.00297415237071,0.0,0.001,0.0,4500.0,0.0,0.0,0.0
1513266311768783156,,623443,,1513266309,967770185,'',1.25663706144,1.25985214164,0.00349484261835,0.0,0.001,0.0,4500.0,0.0,0.0,0.0
1513266311778746592,,623444,,1513266309,977770185,'',1.25663706144,1.25847425012,-0.0249028559122,0.0,0.001,0.0,4500.0,0.0,0.0,0.0
1513266311789171699,,623445,,1513266309,987770185,'',1.25663706144,1.25847425012,-0.0248929495296,0.0,0.001,0.0,4500.0,0.0,0.0,0.0
1513266311799169736,,623446,,1513266309,997770185,'',1.25663706144,1.25847425012,-0.0243711509217,0.0,0.001,0.0,4500.0,0.0,0.0,0.0
1513266311809102822,,623447,,1513266310,7770185,'',1.25663706144,1.25985214164,0.00288052465966,0.0,0.001,0.0,4500.0,0.0,0.0,0.0
1513266311819046546,,623448,,1513266310,17770185,'',1.25663706144,1.25985214164,0.00337116073697,0.0,0.001,0.0,4500.0,0.0,0.0,0.0
1513266311828978919,,623449,,1513266310,27770185,'',1.25663706144,1.25985214164,0.00384818416034,0.0,0.001,0.0,4500.0,0.0,0.0,0.0
1513266311838911793,,623450,,1513266310,37770185,'',1.25663706144,1.25985214164,0.00417974170891,0.0,0.001,0.0,4500.0,0.0,0.0,0.0
1513266311848863872,,623451,,1513266310,47770185,'',1.25663706144,1.25847425012,-0.0218615281348,0.0,0.001,0.0,4500.0,0.0,0.0,0.0
1513266311858761545,,623452,,1513266310,57770185,'',1.25663706144,1.25847425012,-0.0228982707614,0.0,0.001,0.0,4500.0,0.0,0.0,0.0
1513266311868757582,,623453,,1513266310,67770185,'',1.25663706144,1.26123003315,0.0298341075971,0.0,0.001,0.0,4500.0,0.0,0.0,0.0
1513266311879218162,,623454,,1513266310,77770185,'',1.25663706144,1.25985214164,0.00209661360878,0.0,0.001,0.0,4500.0,0.0,0.0,0.0
1513266311889214393,,623455,,1513266310,87770185,'',1.25663706144,1.25847425012,-0.0260578679276,0.0,0.001,0.0,4500.0,0.0,0.0,0.0
1513266311899073332,,623456,,1513266310,97770185,'',1.25663706144,1.25985214164,0.00145735649925,0.0,0.001,0.0,4500.0,0.0,0.0,0.0
1513266311909053864,,623457,,1513266310,107770185,'',1.25663706144,1.25985214164,0.000711687387568,0.0,0.001,0.0,4500.0,0.0,0.0,0.0
1513266311919008937,,623458,,1513266310,117770185,'',1.25663706144,1.25985214164,0.00208628852337,0.0,0.001,0.0,4500.0,0.0,0.0,0.0
1513266311929100002,,623459,,1513266310,127770185,'',1.25663706144,1.25985214164,0.00219954912024,0.0,0.001,0.0,4500.0,0.0,0.0,0.0
1513266311939039544,,623460,,1513266310,137770185,'',1.25663706144,1.25985214164,0.00180077016126,0.0,0.001,0.0,4500.0,0.0,0.0,0.0
1513266311949030151,,623461,,1513266310,147770185,'',1.25663706144,1.26123003315,0.0292232007213,0.0,0.001,0.0,4500.0,0.0,0.0,0.0
1513266311958987286,,623462,,1513266310,157770185,'',1.25663706144,1.25847425012,-0.0246840647862,0.0,0.001,0.0,4500.0,0.0,0.0,0.0
1513266311969031003,,623463,,1513266310,167770185,'',1.25663706144,1.25985214164,0.0015363270125,0.0,0.001,0.0,4500.0,0.0,0.0,0.0
1513266311978971044,,623464,,1513266310,177770185,'',1.25663706144,1.25985214164,0.00172039460995,0.0,0.001,0.0,4500.0,0.0,0.0,0.0
1513266311988966831,,623465,,1513266310,187770185,'',1.25663706144,1.25985214164,0.00142397788723,0.0,0.001,0.0,4500.0,0.0,0.0,0.0
1513266311998806245,,623466,,1513266310,197770185,'',1.25663706144,1.25985214164,0.000684946903505,0.0,0.001,0.0,4500.0,0.0,0.0,0.0
1513266312008711083,,623467,,1513266310,207770185,'',1.25663706144,1.25985214164,0.00162189309924,0.0,0.001,0.0,4500.0,0.0,0.0,0.0
1513266312019078903,,623468,,1513266310,217770185,'',1.25663706144,1.25985214164,0.000834351827918,0.0,0.001,0.0,4500.0,0.0,0.0,0.0
1513266312029070743,,623469,,1513266310,227770185,'',1.25663706144,1.25985214164,0.00170535792975,0.0,0.001,0.0,4500.0,0.0,0.0,0.0
1513266312038947219,,623470,,1513266310,237770185,'',1.25663706144,1.25985214164,0.000938041712699,0.0,0.001,0.0,4500.0,0.0,0.0,0.0
1513266312049010703,,623471,,1513266310,247770185,'',1.25663706144,1.25847425012,-0.0265207132841,0.0,0.001,0.0,4500.0,0.0,0.0,0.0
1513266312058832894,,623472,,1513266310,257770185,'',1.25663706144,1.25985214164,3.85748851003e-05,0.0,0.001,0.0,4500.0,0.0,0.0,0.0
1513266312068818478,,623473,,1513266310,267770185,'',1.25663706144,1.26123003315,0.0267739999061,0.0,0.001,0.0,4500.0,0.0,0.0,0.0
1513266312078894226,,623474,,1513266310,277770185,'',1.25663706144,1.25847425012,-0.0281825402146,0.0,0.001,0.0,4500.0,0.0,0.0,0.0
1513266312088920936,,623475,,1513266310,287770185,'',1.25663706144,1.25985214164,-0.00125588329374,0.0,0.001,0.0,4500.0,0.0,0.0,0.0
1513266312098955842,,623476,,1513266310,297770185,'',1.25663706144,1.25985214164,-0.000556917946666,0.0,0.001,0.0,4500.0,0.0,0.0,0.0
1513266312108871538,,623477,,1513266310,307770185,'',1.25663706144,1.25985214164,-0.000849276750605,0.0,0.001,0.0,4500.0,0.0,0.0,0.0
1513266312118880098,,623478,,1513266310,317770185,'',1.25663706144,1.25847425012,-0.0274700406171,0.0,0.001,0.0,4500.0,0.0,0.0,0.0
1513266312129222032,,623479,,1513266310,327770185,'',1.25663706144,1.25985214164,0.00085525898146,0.0,0.001,0.0,4500.0,0.0,0.0,0.0
1513266312139077648,,623480,,1513266310,337770185,'',1.25663706144,1.25985214164,0.000620540779754,0.0,0.001,0.0,4500.0,0.0,0.0,0.0
1513266312149197444,,623481,,1513266310,347770185,'',1.25663706144,1.25985214164,0.000507992934663,0.0,0.001,0.0,4500.0,0.0,0.0,0.0
1513266312159094559,,623482,,1513266310,357770185,'',1.25663706144,1.25985214164,0.000874805213555,0.0,0.001,0.0,4500.0,0.0,0.0,0.0
1513266312168874339,,623483,,1513266310,367770185,'',1.25663706144,1.25847425012,-0.0265666102591,0.0,0.001,0.0,4500.0,0.0,0.0,0.0
1513266312178877484,,623484,,1513266310,377770185,'',1.25663706144,1.25985214164,-0.000485760778568,0.0,0.001,0.0,4500.0,0.0,0.0,0.0
1513266312188771120,,623485,,1513266310,387770185,'',1.25663706144,1.25847425012,-0.0271723217831,0.0,0.001,0.0,4500.0,0.0,0.0,0.0
1513266312198755158,,623486,,1513266310,397770185,'',1.25663706144,1.25985214164,0.00109964931654,0.0,0.001,0.0,4500.0,0.0,0.0,0.0
1513266312208677318,,623487,,1513266310,407770185,'',1.25663706144,1.25985214164,0.00041931578478,0.0,0.001,0.0,4500.0,0.0,0.0,0.0
1513266312218701535,,623488,,1513266310,417770185,'',1.25663706144,1.25847425012,-0.0254268989067,0.0,0.001,0.0,4500.0,0.0,0.0,0.0
1513266312228729286,,623489,,1513266310,427770185,'',1.25663706144,1.26123003315,0.0302335181088,0.0,0.001,0.0,4500.0,0.0,0.0,0.0
1513266312239182274,,623490,,1513266310,437770185,'',1.25663706144,1.25985214164,0.00203792214048,0.0,0.001,0.0,4500.0,0.0,0.0,0.0
1513266312248698243,,623491,,1513266310,447770185,'',1.25663706144,1.25985214164,0.00166854167661,0.0,0.001,0.0,4500.0,0.0,0.0,0.0
1513266312259112985,,623492,,1513266310,457770185,'',1.25663706144,1.26123003315,0.0280948646639,0.0,0.001,0.0,4500.0,0.0,0.0,0.0
1513266312269125669,,623493,,1513266310,467770185,'',1.25663706144,1.25985214164,0.00122502021268,0.0,0.001,0.0,4500.0,0.0,0.0,0.0
1513266312279080009,,623494,,1513266310,477770185,'',1.25663706144,1.25985214164,0.00206142922477,0.0,0.001,0.0,4500.0,0.0,0.0,0.0
1513266312288767747,,623495,,1513266310,487770185,'',1.25663706144,1.25985214164,0.00170976221705,0.0,0.001,0.0,4500.0,0.0,0.0,0.0
1513266312298825987,,623496,,1513266310,497770185,'',1.25663706144,1.25985214164,0.00291118065591,0.0,0.001,0.0,4500.0,0.0,0.0,0.0
1513266312308751275,,623497,,1513266310,507770185,'',1.25663706144,1.25985214164,0.00184733057502,0.0,0.001,0.0,4500.0,0.0,0.0,0.0
1513266312319227022,,623498,,1513266310,517770185,'',1.25663706144,1.25985214164,0.00153723164496,0.0,0.001,0.0,4500.0,0.0,0.0,0.0
1513266312329155560,,623499,,1513266310,527770185,'',1.25663706144,1.25985214164,0.000305783882442,0.0,0.001,0.0,4500.0,0.0,0.0,0.0
1513266312339229519,,623500,,1513266310,537770185,'',1.25663706144,1.25985214164,0.000250329648633,0.0,0.001,0.0,4500.0,0.0,0.0,0.0
1513266312349034884,,623501,,1513266310,547770185,'',1.25663706144,1.25985214164,0.000205029841918,0.0,0.001,0.0,4500.0,0.0,0.0,0.0
1513266312358995181,,623502,,1513266310,557770185,'',1.25663706144,1.25985214164,-0.00186968395395,0.0,0.001,0.0,4500.0,0.0,0.0,0.0
1513266312369068405,,623503,,1513266310,567770185,'',1.25663706144,1.25847425012,-0.0288206031397,0.0,0.001,0.0,4500.0,0.0,0.0,0.0
1513266312378928252,,623504,,1513266310,577770185,'',1.25663706144,1.25985214164,-0.00173331593656,0.0,0.001,0.0,4500.0,0.0,0.0,0.0
1513266312388916097,,623505,,1513266310,587770185,'',1.25663706144,1.25985214164,-0.00189442627023,0.0,0.001,0.0,4500.0,0.0,0.0,0.0
1513266312399088618,,623506,,1513266310,597770185,'',1.25663706144,1.25985214164,-0.00202687545431,0.0,0.001,0.0,4500.0,0.0,0.0,0.0
1513266312409042598,,623507,,1513266310,607770185,'',1.25663706144,1.26123003315,0.0261149647309,0.0,0.001,0.0,4500.0,0.0,0.0,0.0
1513266312418995591,,623508,,1513266310,617770185,'',1.25663706144,1.25985214164,-0.00141101416024,0.0,0.001,0.0,4500.0,0.0,0.0,0.0
1513266312428957734,,623509,,1513266310,627770185,'',1.25663706144,1.26123003315,0.0245989967925,0.0,0.001,0.0,4500.0,0.0,0.0,0.0
1513266312438812769,,623510,,1513266310,637770185,'',1.25663706144,1.25847425012,-0.0304970534063,0.0,0.001,0.0,4500.0,0.0,0.0,0.0
1513266312448764953,,623511,,1513266310,647770185,'',1.25663706144,1.25985214164,-0.0012359425824,0.0,0.001,0.0,4500.0,0.0,0.0,0.0
1513266312458794577,,623512,,1513266310,657770185,'',1.25663706144,1.25985214164,-0.00254347261506,0.0,0.001,0.0,4500.0,0.0,0.0,0.0
1513266312468770186,,623513,,1513266310,667770185,'',1.25663706144,1.25985214164,-0.00311475621327,0.0,0.001,0.0,4500.0,0.0,0.0,0.0
1513266312478720725,,623514,,1513266310,677770185,'',1.25663706144,1.25847425012,-0.0293458811337,0.0,0.001,0.0,4500.0,0.0,0.0,0.0
1513266312489132733,,623515,,1513266310,687770185,'',1.25663706144,1.25985214164,-0.00175753357445,0.0,0.001,0.0,4500.0,0.0,0.0,0.0
1513266312498890213,,623516,,1513266310,697770185,'',1.25663706144,1.25985214164,-0.000894204952558,0.0,0.001,0.0,4500.0,0.0,0.0,0.0
1513266312508830041,,623517,,1513266310,707770185,'',1.25663706144,1.26123003315,0.0255842595116,0.0,0.001,0.0,4500.0,0.0,0.0,0.0
1513266312518820777,,623518,,1513266310,717770185,'',1.25663706144,1.25985214164,-0.00136315536176,0.0,0.001,0.0,4500.0,0.0,0.0,0.0
1513266312528752030,,623519,,1513266310,727770185,'',1.25663706144,1.25985214164,-0.00111639275437,0.0,0.001,0.0,4500.0,0.0,0.0,0.0
1513266312538802894,,623520,,1513266310,737770185,'',1.25663706144,1.26123003315,0.0253716842249,0.0,0.001,0.0,4500.0,0.0,0.0,0.0
1513266312548769309,,623521,,1513266310,747770185,'',1.25663706144,1.25985214164,-0.00249253701317,0.0,0.001,0.0,4500.0,0.0,0.0,0.0
1513266312558831008,,623522,,1513266310,757770185,'',1.25663706144,1.25847425012,-0.0298587182409,0.0,0.001,0.0,4500.0,0.0,0.0,0.0
1513266312569128233,,623523,,1513266310,767770185,'',1.25663706144,1.25985214164,-0.000699054044308,0.0,0.001,0.0,4500.0,0.0,0.0,0.0
1513266312578973745,,623524,,1513266310,777770185,'',1.25663706144,1.25985214164,-0.0021129350937,0.0,0.001,0.0,4500.0,0.0,0.0,0.0
1513266312588984293,,623525,,1513266310,787770185,'',1.25663706144,1.25985214164,-0.00228488042278,0.0,0.001,0.0,4500.0,0.0,0.0,0.0
1513266312598995023,,623526,,1513266310,797770185,'',1.25663706144,1.25985214164,-0.00335906857417,0.0,0.001,0.0,4500.0,0.0,0.0,0.0
1513266312608875942,,623527,,1513266310,807770185,'',1.25663706144,1.25985214164,-0.00418564072563,0.0,0.001,0.0,4500.0,0.0,0.0,0.0
1513266312619122340,,623528,,1513266310,817770185,'',1.25663706144,1.25985214164,-0.00342663566498,0.0,0.001,0.0,4500.0,0.0,0.0,0.0
1513266312629299683,,623529,,1513266310,827770185,'',1.25663706144,1.25985214164,-0.00282276352634,0.0,0.001,0.0,4500.0,0.0,0.0,0.0
1513266312639313517,,623530,,1513266310,837770185,'',1.25663706144,1.25985214164,-0.00392024417356,0.0,0.001,0.0,4500.0,0.0,0.0,0.0
1513266312649243339,,623531,,1513266310,847770185,'',1.25663706144,1.25985214164,-0.00316855644193,0.0,0.001,0.0,4500.0,0.0,0.0,0.0
1513266312659028473,,623532,,1513266310,857770185,'',1.25663706144,1.26123003315,0.0236983855043,0.0,0.001,0.0,4500.0,0.0,0.0,0.0
1513266312669109829,,623533,,1513266310,867770185,'',1.25663706144,1.25847425012,-0.0311650393175,0.0,0.001,0.0,4500.0,0.0,0.0,0.0
1513266312678903882,,623534,,1513266310,877770185,'',1.25663706144,1.25985214164,-0.00276396953747,0.0,0.001,0.0,4500.0,0.0,0.0,0.0
1513266312688984562,,623535,,1513266310,887770185,'',1.25663706144,1.25985214164,-0.0017994278252,0.0,0.001,0.0,4500.0,0.0,0.0,0.0
1513266312698854920,,623536,,1513266310,897770185,'',1.25663706144,1.25985214164,-0.00147378117981,0.0,0.001,0.0,4500.0,0.0,0.0,0.0
1513266312708813456,,623537,,1513266310,907770185,'',1.25663706144,1.26260792467,0.0503276442195,0.0,0.001,0.0,4500.0,0.0,0.0,0.0
1513266312718776515,,623538,,1513266310,917770185,'',1.25663706144,1.26123003315,0.0198275920616,0.0,0.001,0.0,4500.0,0.0,0.0,0.0
1513266312728827477,,623539,,1513266310,927770185,'',1.25663706144,1.26123003315,0.0151462812,0.0,0.001,0.0,4500.0,0.0,0.0,0.0
1513266312739101274,,623540,,1513266310,937770185,'',1.25663706144,1.26123003315,0.0108475095741,0.0,0.001,0.0,4500.0,0.0,0.0,0.0
1513266312748952685,,623541,,1513266310,947770185,'',1.25663706144,1.26260792467,0.0332505741716,0.0,0.001,0.0,4500.0,0.0,0.0,0.0
1513266312758923467,,623542,,1513266310,957770185,'',1.25663706144,1.26123003315,0.00239944256229,0.0,0.001,0.0,4500.0,0.0,0.0,0.0
1513266312769018426,,623543,,1513266310,967770185,'',1.25663706144,1.26260792467,0.0267226455145,0.0,0.001,0.0,4500.0,0.0,0.0,0.0
1513266312779341707,,623544,,1513266310,977770185,'',1.25663706144,1.26260792467,0.0233987840419,0.0,0.001,0.0,4500.0,0.0,0.0,0.0
1513266312789202434,,623545,,1513266310,987770185,'',1.25663706144,1.26260792467,0.02215280797,0.0,0.001,0.0,4500.0,0.0,0.0,0.0
1513266312799177130,,623546,,1513266310,997770185,'',1.25663706144,1.26260792467,0.0190862206832,0.0,0.001,0.0,4500.0,0.0,0.0,0.0
1513266312809017026,,623547,,1513266311,7770185,'',1.25663706144,1.26260792467,0.0150994334174,0.0,0.001,0.0,4500.0,0.0,0.0,0.0
1513266312818978589,,623548,,1513266311,17770185,'',1.25663706144,1.26260792467,0.0138252442275,0.0,0.001,0.0,4500.0,0.0,0.0,0.0
1513266312828866063,,623549,,1513266311,27770185,'',1.25663706144,1.26260792467,0.0107750064959,0.0,0.001,0.0,4500.0,0.0,0.0,0.0
1513266312838837437,,623550,,1513266311,37770185,'',1.25663706144,1.26260792467,0.0086941058418,0.0,0.001,0.0,4500.0,0.0,0.0,0.0
1513266312848776584,,623551,,1513266311,47770185,'',1.25663706144,1.26398581618,0.0333835172225,0.0,0.001,0.0,4500.0,0.0,0.0,0.0
1513266312858802920,,623552,,1513266311,57770185,'',1.25663706144,1.26260792467,0.00360090640859,0.0,0.001,0.0,4500.0,0.0,0.0,0.0
1513266312868817928,,623553,,1513266311,67770185,'',1.25663706144,1.26260792467,0.0014726101789,0.0,0.001,0.0,4500.0,0.0,0.0,0.0
1513266312879146773,,623554,,1513266311,77770185,'',1.25663706144,1.26260792467,-0.00122234894804,0.0,0.001,0.0,4500.0,0.0,0.0,0.0
1513266312889022980,,623555,,1513266311,87770185,'',1.25663706144,1.26398581618,0.0237531426526,0.0,0.001,0.0,4500.0,0.0,0.0,0.0
1513266312899164940,,623556,,1513266311,97770185,'',1.25663706144,1.26398581618,0.0220051846839,0.0,0.001,0.0,4500.0,0.0,0.0,0.0
1513266312909121850,,623557,,1513266311,107770185,'',1.25663706144,1.26260792467,-0.00877548999724,0.0,0.001,0.0,4500.0,0.0,0.0,0.0
1513266312919098083,,623558,,1513266311,117770185,'',1.25663706144,1.26398581618,0.0156105452734,0.0,0.001,0.0,4500.0,0.0,0.0,0.0
1513266312929048585,,623559,,1513266311,127770185,'',1.25663706144,1.26398581618,0.013306526107,0.0,0.001,0.0,4500.0,0.0,0.0,0.0
1513266312939063107,,623560,,1513266311,137770185,'',1.25663706144,1.26398581618,0.0098196277455,0.0,0.001,0.0,4500.0,0.0,0.0,0.0
1513266312948966306,,623561,,1513266311,147770185,'',1.25663706144,1.26398581618,0.00750410543805,0.0,0.001,0.0,4500.0,0.0,0.0,0.0
1513266312958930958,,623562,,1513266311,157770185,'',1.25663706144,1.26398581618,0.00464702028349,0.0,0.001,0.0,4500.0,0.0,0.0,0.0
1513266312968712391,,623563,,1513266311,167770185,'',1.25663706144,1.26398581618,0.00231806753734,0.0,0.001,0.0,4500.0,0.0,0.0,0.0
1513266312979255941,,623564,,1513266311,177770185,'',1.25663706144,1.26398581618,0.000413558197686,0.0,0.001,0.0,4500.0,0.0,0.0,0.0
1513266312989389208,,623565,,1513266311,187770185,'',1.25663706144,1.2653637077,0.0246344066971,0.0,0.001,0.0,4500.0,0.0,0.0,0.0
1513266312999062063,,623566,,1513266311,197770185,'',1.25663706144,1.2653637077,0.0221829938869,0.0,0.001,0.0,4500.0,0.0,0.0,0.0
1513266313009027776,,623567,,1513266311,207770185,'',1.25663706144,1.2653637077,0.019177558422,0.0,0.001,0.0,4500.0,0.0,0.0,0.0
1513266313019033093,,623568,,1513266311,217770185,'',1.25663706144,1.2653637077,0.0151981938004,0.0,0.001,0.0,4500.0,0.0,0.0,0.0
1513266313028921478,,623569,,1513266311,227770185,'',1.25663706144,1.2653637077,0.0103993234882,0.0,0.001,0.0,4500.0,0.0,0.0,0.0
1513266313038886895,,623570,,1513266311,237770185,'',1.25663706144,1.2653637077,0.00596933737214,0.0,0.001,0.0,4500.0,0.0,0.0,0.0
1513266313048723828,,623571,,1513266311,247770185,'',1.25663706144,1.26674159921,0.0251328636463,0.0,0.001,0.0,4500.0,0.0,0.0,0.0
1513266313059002735,,623572,,1513266311,257770185,'',1.25663706144,1.26674159921,0.0185594330623,0.0,0.001,0.0,4500.0,0.0,0.0,0.0
1513266313069248808,,623573,,1513266311,267770185,'',1.25663706144,1.26811949073,0.038466350245,0.0114824292894,0.001,-51.6709318025,4500.0,0.0,0.0,0.0
1513266313078905375,,623574,,1513266311,277770185,'',1.25663706144,1.26674159921,0.00420545265218,0.0101045377747,0.001,-45.4704199862,4500.0,0.0,0.0,0.0
1513266313088927848,,623575,,1513266311,287770185,'',1.25663706144,1.26811949073,0.0237954430592,0.0114824292894,0.001,-51.6709318025,4500.0,0.0,0.0,0.0
1513266313098893548,,623576,,1513266311,297770185,'',1.25663706144,1.26811949073,0.0180115886584,0.0114824292894,0.001,-51.6709318025,4500.0,0.0,0.0,0.0
1513266313108829301,,623577,,1513266311,307770185,'',1.25663706144,1.27087527375,0.0678150425739,0.0142382123189,0.001,-64.0719554351,4500.0,0.0,0.0,0.0
1513266313118770758,,623578,,1513266311,317770185,'',1.25663706144,1.27087527375,0.0620229916347,0.0142382123189,0.001,-64.0719554351,4500.0,0.0,0.0,0.0
1513266313128726412,,623579,,1513266311,327770185,'',1.25663706144,1.26949738224,0.0295011072325,0.0128603208042,0.001,-57.8714436188,4500.0,0.0,0.0,0.0
1513266313138823336,,623580,,1513266311,337770185,'',1.25663706144,1.26811949073,-0.000126814921974,0.0114824292894,0.001,-51.6709318025,4500.0,0.0,0.0,0.0
1513266313148908826,,623581,,1513266311,347770185,'',1.25663706144,1.26811949073,-0.00108938395743,0.0114824292894,0.001,-51.6709318025,4500.0,0.0,0.0,0.0
1513266313158861875,,623582,,1513266311,357770185,'',1.25663706144,1.26949738224,0.0248596878656,0.0128603208042,0.001,-57.8714436188,4500.0,0.0,0.0,0.0
1513266313168969310,,623583,,1513266311,367770185,'',1.25663706144,1.26949738224,0.0213466231377,0.0128603208042,0.001,-57.8714436188,4500.0,0.0,0.0,0.0
1513266313178870840,,623584,,1513266311,377770185,'',1.25663706144,1.26811949073,-0.00934403269923,0.0114824292894,0.001,-51.6709318025,4500.0,0.0,0.0,0.0
1513266313188766536,,623585,,1513266311,387770185,'',1.25663706144,1.26811949073,-0.01114552734,0.0114824292894,0.001,-51.6709318025,4500.0,0.0,0.0,0.0
1513266313198791567,,623586,,1513266311,397770185,'',1.25663706144,1.27087527375,0.0425231375576,0.0142382123189,0.001,-64.0719554351,4500.0,0.0,0.0,0.0
1513266313209167192,,623587,,1513266311,407770185,'',1.25663706144,1.26949738224,0.0125601349598,0.0128603208042,0.001,-57.8714436188,4500.0,0.0,0.0,0.0
1513266313219197261,,623588,,1513266311,417770185,'',1.25663706144,1.26949738224,0.011263432273,0.0128603208042,0.001,-57.8714436188,4500.0,0.0,0.0,0.0
1513266313229033535,,623589,,1513266311,427770185,'',1.25663706144,1.27087527375,0.0369847592422,0.0142382123189,0.001,-64.0719554351,4500.0,0.0,0.0,0.0
1513266313239113691,,623590,,1513266311,437770185,'',1.25663706144,1.26949738224,0.00800131175986,0.0128603208042,0.001,-57.8714436188,4500.0,0.0,0.0,0.0
1513266313249061940,,623591,,1513266311,447770185,'',1.25663706144,1.26811949073,-0.0208011819788,0.0114824292894,0.001,-51.6709318025,4500.0,0.0,0.0,0.0
1513266313258870779,,623592,,1513266311,457770185,'',1.25663706144,1.26949738224,0.00476449571228,0.0128603208042,0.001,-57.8714436188,4500.0,0.0,0.0,0.0
1513266313268811154,,623593,,1513266311,467770185,'',1.25663706144,1.26811949073,-0.0253096912846,0.0114824292894,0.001,-51.6709318025,4500.0,0.0,0.0,0.0
1513266313278728726,,623594,,1513266311,477770185,'',1.25663706144,1.26949738224,0.00306934521453,0.0128603208042,0.001,-57.8714436188,4500.0,0.0,0.0,0.0
1513266313288707176,,623595,,1513266311,487770185,'',1.25663706144,1.26811949073,-0.0242562553566,0.0114824292894,0.001,-51.6709318025,4500.0,0.0,0.0,0.0
1513266313298724907,,623596,,1513266311,497770185,'',1.25663706144,1.26949738224,0.00350037377164,0.0128603208042,0.001,-57.8714436188,4500.0,0.0,0.0,0.0
1513266313309199126,,623597,,1513266311,507770185,'',1.25663706144,1.27087527375,0.0281148641485,0.0142382123189,0.001,-64.0719554351,4500.0,0.0,0.0,0.0
1513266313319101814,,623598,,1513266311,517770185,'',1.25663706144,1.27087527375,0.0245424547866,0.0142382123189,0.001,-64.0719554351,4500.0,0.0,0.0,0.0
1513266313329121611,,623599,,1513266311,527770185,'',1.25663706144,1.27087527375,0.0231440875868,0.0142382123189,0.001,-64.0719554351,4500.0,0.0,0.0,0.0
1513266313339203290,,623600,,1513266311,537770185,'',1.25663706144,1.27087527375,0.0214446532421,0.0142382123189,0.001,-64.0719554351,4500.0,0.0,0.0,0.0
1513266313349099592,,623601,,1513266311,547770185,'',1.25663706144,1.26949738224,-0.00718156229816,0.0128603208042,0.001,-57.8714436188,4500.0,0.0,0.0,0.0
1513266313358982606,,623602,,1513266311,557770185,'',1.25663706144,1.27087527375,0.019412001794,0.0142382123189,0.001,-64.0719554351,4500.0,0.0,0.0,0.0
1513266313368936133,,623603,,1513266311,567770185,'',1.25663706144,1.26949738224,-0.00846574812356,0.0128603208042,0.001,-57.8714436188,4500.0,0.0,0.0,0.0
1513266313378860362,,623604,,1513266311,577770185,'',1.25663706144,1.26949738224,-0.00893732267219,0.0128603208042,0.001,-57.8714436188,4500.0,0.0,0.0,0.0
1513266313388771572,,623605,,1513266311,587770185,'',1.25663706144,1.27087527375,0.0184313257148,0.0142382123189,0.001,-64.0719554351,4500.0,0.0,0.0,0.0
1513266313399093370,,623606,,1513266311,597770185,'',1.25663706144,1.27087527375,0.0171278942604,0.0142382123189,0.001,-64.0719554351,4500.0,0.0,0.0,0.0
1513266313409153493,,623607,,1513266311,607770185,'',1.25663706144,1.27087527375,0.0171740249048,0.0142382123189,0.001,-64.0719554351,4500.0,0.0,0.0,0.0
1513266313419048984,,623608,,1513266311,617770185,'',1.25663706144,1.26949738224,-0.0111823969931,0.0128603208042,0.001,-57.8714436188,4500.0,0.0,0.0,0.0
1513266313428955575,,623609,,1513266311,627770185,'',1.25663706144,1.26949738224,-0.0126605567895,0.0128603208042,0.001,-57.8714436188,4500.0,0.0,0.0,0.0
1513266313438793978,,623610,,1513266311,637770185,'',1.25663706144,1.26949738224,-0.012893797499,0.0128603208042,0.001,-57.8714436188,4500.0,0.0,0.0,0.0
1513266313448750509,,623611,,1513266311,647770185,'',1.25663706144,1.27225316527,0.0424982260092,0.0156161038336,0.001,-70.2724672514,4500.0,0.0,0.0,0.0
1513266313459179008,,623612,,1513266311,657770185,'',1.25663706144,1.26949738224,-0.0123101370136,0.0128603208042,0.001,-57.8714436188,4500.0,0.0,0.0,0.0
1513266313469122455,,623613,,1513266311,667770185,'',1.25663706144,1.26949738224,-0.0130528321406,0.0128603208042,0.001,-57.8714436188,4500.0,0.0,0.0,0.0
1513266313479147273,,623614,,1513266311,677770185,'',1.25663706144,1.26949738224,-0.0135788233086,0.0128603208042,0.001,-57.8714436188,4500.0,0.0,0.0,0.0
1513266313489097410,,623615,,1513266311,687770185,'',1.25663706144,1.27087527375,0.0132245579605,0.0142382123189,0.001,-64.0719554351,4500.0,0.0,0.0,0.0
1513266313499136411,,623616,,1513266311,697770185,'',1.25663706144,1.27087527375,0.00876812929291,0.0142382123189,0.001,-64.0719554351,4500.0,0.0,0.0,0.0
1513266313508967392,,623617,,1513266311,707770185,'',1.25663706144,1.27087527375,0.00620688569045,0.0142382123189,0.001,-64.0719554351,4500.0,0.0,0.0,0.0
1513266313518853806,,623618,,1513266311,717770185,'',1.25663706144,1.27087527375,0.00506838512056,0.0142382123189,0.001,-64.0719554351,4500.0,0.0,0.0,0.0
1513266313528717158,,623619,,1513266311,727770185,'',1.25663706144,1.27087527375,0.002584456639,0.0142382123189,0.001,-64.0719554351,4500.0,0.0,0.0,0.0
1513266313538693945,,623620,,1513266311,737770185,'',1.25663706144,1.26949738224,-0.026677778793,0.0128603208042,0.001,-57.8714436188,4500.0,0.0,0.0,0.0
1513266313549329044,,623621,,1513266311,747770185,'',1.25663706144,1.27225316527,0.0267301451164,0.0156161038336,0.001,-70.2724672514,4500.0,0.0,0.0,0.0
1513266313559014163,,623622,,1513266311,757770185,'',1.25663706144,1.27087527375,-0.0014079302851,0.0142382123189,0.001,-64.0719554351,4500.0,0.0,0.0,0.0
1513266313568952639,,623623,,1513266311,767770185,'',1.25663706144,1.26949738224,-0.0300056929999,0.0128603208042,0.001,-57.8714436188,4500.0,0.0,0.0,0.0
1513266313578918799,,623624,,1513266311,777770185,'',1.25663706144,1.27087527375,-0.00371602978939,0.0142382123189,0.001,-64.0719554351,4500.0,0.0,0.0,0.0
1513266313588757739,,623625,,1513266311,787770185,'',1.25663706144,1.27087527375,-0.0050245402637,0.0142382123189,0.001,-64.0719554351,4500.0,0.0,0.0,0.0
1513266313598801333,,623626,,1513266311,797770185,'',1.25663706144,1.27225316527,0.0207018515467,0.0156161038336,0.001,-70.2724672514,4500.0,0.0,0.0,0.0
1513266313608752906,,623627,,1513266311,807770185,'',1.25663706144,1.27225316527,0.0195450364033,0.0156161038336,0.001,-70.2724672514,4500.0,0.0,0.0,0.0
1513266313619197649,,623628,,1513266311,817770185,'',1.25663706144,1.27087527375,-0.0103257253734,0.0142382123189,0.001,-64.0719554351,4500.0,0.0,0.0,0.0
1513266313629073849,,623629,,1513266311,827770185,'',1.25663706144,1.27087527375,-0.0129871038196,0.0142382123189,0.001,-64.0719554351,4500.0,0.0,0.0,0.0
1513266313639129868,,623630,,1513266311,837770185,'',1.25663706144,1.27225316527,0.0136179925738,0.0156161038336,0.001,-70.2724672514,4500.0,0.0,0.0,0.0
1513266313648909936,,623631,,1513266311,847770185,'',1.25663706144,1.27225316527,0.0121647242446,0.0156161038336,0.001,-70.2724672514,4500.0,0.0,0.0,0.0
1513266313658877729,,623632,,1513266311,857770185,'',1.25663706144,1.27225316527,0.00999639194122,0.0156161038336,0.001,-70.2724672514,4500.0,0.0,0.0,0.0
1513266313668854623,,623633,,1513266311,867770185,'',1.25663706144,1.27225316527,0.00866340116831,0.0156161038336,0.001,-70.2724672514,4500.0,0.0,0.0,0.0
1513266313678760387,,623634,,1513266311,877770185,'',1.25663706144,1.27225316527,0.00765176125394,0.0156161038336,0.001,-70.2724672514,4500.0,0.0,0.0,0.0
1513266313688738281,,623635,,1513266311,887770185,'',1.25663706144,1.27087527375,-0.0194764123619,0.0142382123189,0.001,-64.0719554351,4500.0,0.0,0.0,0.0
1513266313699296569,,623636,,1513266311,897770185,'',1.25663706144,1.27087527375,-0.0174771184524,0.0142382123189,0.001,-64.0719554351,4500.0,0.0,0.0,0.0
1513266313709156809,,623637,,1513266311,907770185,'',1.25663706144,1.27087527375,-0.0138020353413,0.0142382123189,0.001,-64.0719554351,4500.0,0.0,0.0,0.0
1513266313719192183,,623638,,1513266311,917770185,'',1.25663706144,1.27225316527,0.0139378420979,0.0156161038336,0.001,-70.2724672514,4500.0,0.0,0.0,0.0
1513266313728990671,,623639,,1513266311,927770185,'',1.25663706144,1.27087527375,-0.0118903775213,0.0142382123189,0.001,-64.0719554351,4500.0,0.0,0.0,0.0
1513266313739076198,,623640,,1513266311,937770185,'',1.25663706144,1.27363105678,0.0418377866594,0.0169939953484,0.001,-76.4729790676,4500.0,0.0,0.0,0.0
1513266313748880170,,623641,,1513266311,947770185,'',1.25663706144,1.27087527375,-0.0162819637089,0.0142382123189,0.001,-64.0719554351,4500.0,0.0,0.0,0.0
1513266313758962554,,623642,,1513266311,957770185,'',1.25663706144,1.26949738224,-0.0436080988867,0.0128603208042,0.001,-57.8714436188,4500.0,0.0,0.0,0.0
1513266313768878389,,623643,,1513266311,967770185,'',1.25663706144,1.27225316527,0.0134397095866,0.0156161038336,0.001,-70.2724672514,4500.0,0.0,0.0,0.0
1513266313779135496,,623644,,1513266311,977770185,'',1.25663706144,1.27225316527,0.0134962469353,0.0156161038336,0.001,-70.2724672514,4500.0,0.0,0.0,0.0
1513266313789110135,,623645,,1513266311,987770185,'',1.25663706144,1.27225316527,0.0130852267955,0.0156161038336,0.001,-70.2724672514,4500.0,0.0,0.0,0.0
1513266313798930669,,623646,,1513266311,997770185,'',1.25663706144,1.27225316527,0.0127388115332,0.0156161038336,0.001,-70.2724672514,4500.0,0.0,0.0,0.0
1513266313809034006,,623647,,1513266312,7770185,'',1.25663706144,1.27087527375,-0.0153575284003,0.0142382123189,0.001,-64.0719554351,4500.0,0.0,0.0,0.0
1513266313819198092,,623648,,1513266312,17770185,'',1.25663706144,1.27087527375,-0.0151042711292,0.0142382123189,0.001,-64.0719554351,4500.0,0.0,0.0,0.0
1513266313829114120,,623649,,1513266312,27770185,'',1.25663706144,1.27087527375,-0.0163955669628,0.0142382123189,0.001,-64.0719554351,4500.0,0.0,0.0,0.0
1513266313839046399,,623650,,1513266312,37770185,'',1.25663706144,1.27087527375,-0.0154572487284,0.0142382123189,0.001,-64.0719554351,4500.0,0.0,0.0,0.0
1513266313849037000,,623651,,1513266312,47770185,'',1.25663706144,1.27087527375,-0.0146479303154,0.0142382123189,0.001,-64.0719554351,4500.0,0.0,0.0,0.0
1513266313858990928,,623652,,1513266312,57770185,'',1.25663706144,1.27087527375,-0.0145768027375,0.0142382123189,0.001,-64.0719554351,4500.0,0.0,0.0,0.0
1513266313869037264,,623653,,1513266312,67770185,'',1.25663706144,1.27087527375,-0.0154494855695,0.0142382123189,0.001,-64.0719554351,4500.0,0.0,0.0,0.0
1513266313878970383,,623654,,1513266312,77770185,'',1.25663706144,1.27225316527,0.0116425348549,0.0156161038336,0.001,-70.2724672514,4500.0,0.0,0.0,0.0
1513266313888958164,,623655,,1513266312,87770185,'',1.25663706144,1.27087527375,-0.0152685432001,0.0142382123189,0.001,-64.0719554351,4500.0,0.0,0.0,0.0
1513266313899035060,,623656,,1513266312,97770185,'',1.25663706144,1.27225316527,0.0112307703904,0.0156161038336,0.001,-70.2724672514,4500.0,0.0,0.0,0.0
1513266313909090352,,623657,,1513266312,107770185,'',1.25663706144,1.27225316527,0.0121598113973,0.0156161038336,0.001,-70.2724672514,4500.0,0.0,0.0,0.0
1513266313918957450,,623658,,1513266312,117770185,'',1.25663706144,1.27225316527,0.0129983033525,0.0156161038336,0.001,-70.2724672514,4500.0,0.0,0.0,0.0
1513266313929094608,,623659,,1513266312,127770185,'',1.25663706144,1.27225316527,0.0116849476894,0.0156161038336,0.001,-70.2724672514,4500.0,0.0,0.0,0.0
1513266313939500245,,623660,,1513266312,137770185,'',1.25663706144,1.27225316527,0.0105666063639,0.0156161038336,0.001,-70.2724672514,4500.0,0.0,0.0,0.0
1513266313949247075,,623661,,1513266312,147770185,'',1.25663706144,1.27087527375,-0.0171374030766,0.0142382123189,0.001,-64.0719554351,4500.0,0.0,0.0,0.0
1513266313959314892,,623662,,1513266312,157770185,'',1.25663706144,1.27225316527,0.00876866724533,0.0156161038336,0.001,-70.2724672514,4500.0,0.0,0.0,0.0
1513266313969236572,,623663,,1513266312,167770185,'',1.25663706144,1.27225316527,0.00869656347225,0.0156161038336,0.001,-70.2724672514,4500.0,0.0,0.0,0.0
1513266313979149904,,623664,,1513266312,177770185,'',1.25663706144,1.27225316527,0.00860955067489,0.0156161038336,0.001,-70.2724672514,4500.0,0.0,0.0,0.0
1513266313988955475,,623665,,1513266312,187770185,'',1.25663706144,1.27225316527,0.0091124469812,0.0156161038336,0.001,-70.2724672514,4500.0,0.0,0.0,0.0
1513266313998912531,,623666,,1513266312,197770185,'',1.25663706144,1.27225316527,0.00941609340649,0.0156161038336,0.001,-70.2724672514,4500.0,0.0,0.0,0.0
1513266314009009284,,623667,,1513266312,207770185,'',1.25663706144,1.27225316527,0.00918921718152,0.0156161038336,0.001,-70.2724672514,4500.0,0.0,0.0,0.0
1513266314019319641,,623668,,1513266312,217770185,'',1.25663706144,1.27087527375,-0.0202826657505,0.0142382123189,0.001,-64.0719554351,4500.0,0.0,0.0,0.0
1513266314029212592,,623669,,1513266312,227770185,'',1.25663706144,1.27087527375,-0.0200948200641,0.0142382123189,0.001,-64.0719554351,4500.0,0.0,0.0,0.0
1513266314039261852,,623670,,1513266312,237770185,'',1.25663706144,1.27363105678,0.0350435582085,0.0169939953484,0.001,-76.4729790676,4500.0,0.0,0.0,0.0
1513266314049044943,,623671,,1513266312,247770185,'',1.25663706144,1.27225316527,0.00688795467551,0.0156161038336,0.001,-70.2724672514,4500.0,0.0,0.0,0.0
1513266314059255965,,623672,,1513266312,257770185,'',1.25663706144,1.27225316527,0.00611519894026,0.0156161038336,0.001,-70.2724672514,4500.0,0.0,0.0,0.0
1513266314068980989,,623673,,1513266312,267770185,'',1.25663706144,1.27225316527,0.00506248935272,0.0156161038336,0.001,-70.2724672514,4500.0,0.0,0.0,0.0
1513266314079141244,,623674,,1513266312,277770185,'',1.25663706144,1.27225316527,0.0061793318858,0.0156161038336,0.001,-70.2724672514,4500.0,0.0,0.0,0.0
1513266314089213059,,623675,,1513266312,287770185,'',1.25663706144,1.27225316527,0.00452322511227,0.0156161038336,0.001,-70.2724672514,4500.0,0.0,0.0,0.0
1513266314099383051,,623676,,1513266312,297770185,'',1.25663706144,1.27225316527,0.0052013723086,0.0156161038336,0.001,-70.2724672514,4500.0,0.0,0.0,0.0
1513266314109277747,,623677,,1513266312,307770185,'',1.25663706144,1.27225316527,0.00517327785817,0.0156161038336,0.001,-70.2724672514,4500.0,0.0,0.0,0.0
1513266314119003638,,623678,,1513266312,317770185,'',1.25663706144,1.27087527375,-0.0210634256182,0.0142382123189,0.001,-64.0719554351,4500.0,0.0,0.0,0.0
1513266314128907926,,623679,,1513266312,327770185,'',1.25663706144,1.27225316527,0.00656590418774,0.0156161038336,0.001,-70.2724672514,4500.0,0.0,0.0,0.0
1513266314139115601,,623680,,1513266312,337770185,'',1.25663706144,1.27225316527,0.00693799079391,0.0156161038336,0.001,-70.2724672514,4500.0,0.0,0.0,0.0
1513266314149337407,,623681,,1513266312,347770185,'',1.25663706144,1.27225316527,0.00620294425268,0.0156161038336,0.001,-70.2724672514,4500.0,0.0,0.0,0.0
1513266314159159801,,623682,,1513266312,357770185,'',1.25663706144,1.27225316527,0.00610884550177,0.0156161038336,0.001,-70.2724672514,4500.0,0.0,0.0,0.0
1513266314169152659,,623683,,1513266312,367770185,'',1.25663706144,1.27225316527,0.00598168311451,0.0156161038336,0.001,-70.2724672514,4500.0,0.0,0.0,0.0
1513266314179132442,,623684,,1513266312,377770185,'',1.25663706144,1.27087527375,-0.020840373945,0.0142382123189,0.001,-64.0719554351,4500.0,0.0,0.0,0.0
1513266314189103870,,623685,,1513266312,387770185,'',1.25663706144,1.27363105678,0.0335117469236,0.0169939953484,0.001,-76.4729790676,4500.0,0.0,0.0,0.0
1513266314199133027,,623686,,1513266312,397770185,'',1.25663706144,1.27087527375,-0.0221479271353,0.0142382123189,0.001,-64.0719554351,4500.0,0.0,0.0,0.0
1513266314209029156,,623687,,1513266312,407770185,'',1.25663706144,1.26949738224,-0.0489104131118,0.0128603208042,0.001,-57.8714436188,4500.0,0.0,0.0,0.0
1513266314218987540,,623688,,1513266312,417770185,'',1.25663706144,1.27225316527,0.00497870843187,0.0156161038336,0.001,-70.2724672514,4500.0,0.0,0.0,0.0
1513266314228973687,,623689,,1513266312,427770185,'',1.25663706144,1.27087527375,-0.0222483537993,0.0142382123189,0.001,-64.0719554351,4500.0,0.0,0.0,0.0
1513266314239140737,,623690,,1513266312,437770185,'',1.25663706144,1.27225316527,0.00660267632419,0.0156161038336,0.001,-70.2724672514,4500.0,0.0,0.0,0.0
1513266314248941033,,623691,,1513266312,447770185,'',1.25663706144,1.27225316527,0.00691968774174,0.0156161038336,0.001,-70.2724672514,4500.0,0.0,0.0,0.0
1513266314258987564,,623692,,1513266312,457770185,'',1.25663706144,1.27225316527,0.00566717251747,0.0156161038336,0.001,-70.2724672514,4500.0,0.0,0.0,0.0
1513266314269367105,,623693,,1513266312,467770185,'',1.25663706144,1.27087527375,-0.0196238715806,0.0142382123189,0.001,-64.0719554351,4500.0,0.0,0.0,0.0
1513266314279217577,,623694,,1513266312,477770185,'',1.25663706144,1.27363105678,0.0345441686125,0.0169939953484,0.001,-76.4729790676,4500.0,0.0,0.0,0.0
1513266314289168537,,623695,,1513266312,487770185,'',1.25663706144,1.27363105678,0.0352365610453,0.0169939953484,0.001,-76.4729790676,4500.0,0.0,0.0,0.0
1513266314299169359,,623696,,1513266312,497770185,'',1.25663706144,1.27087527375,-0.0207244077393,0.0142382123189,0.001,-64.0719554351,4500.0,0.0,0.0,0.0
1513266314309151924,,623697,,1513266312,507770185,'',1.25663706144,1.27087527375,-0.020486044386,0.0142382123189,0.001,-64.0719554351,4500.0,0.0,0.0,0.0
1513266314319002372,,623698,,1513266312,517770185,'',1.25663706144,1.27225316527,0.00607113916705,0.0156161038336,0.001,-70.2724672514,4500.0,0.0,0.0,0.0
1513266314328985598,,623699,,1513266312,527770185,'',1.25663706144,1.27225316527,0.00496984720707,0.0156161038336,0.001,-70.2724672514,4500.0,0.0,0.0,0.0
1513266314339055173,,623700,,1513266312,537770185,'',1.25663706144,1.27087527375,-0.0222203457104,0.0142382123189,0.001,-64.0719554351,4500.0,0.0,0.0,0.0
1513266314349160205,,623701,,1513266312,547770185,'',1.25663706144,1.27087527375,-0.0211296829065,0.0142382123189,0.001,-64.0719554351,4500.0,0.0,0.0,0.0
1513266314359680300,,623702,,1513266312,557770185,'',1.25663706144,1.27225316527,0.00756198921161,0.0156161038336,0.001,-70.2724672514,4500.0,0.0,0.0,0.0
1513266314369134735,,623703,,1513266312,567770185,'',1.25663706144,1.27225316527,0.00731447251084,0.0156161038336,0.001,-70.2724672514,4500.0,0.0,0.0,0.0
1513266314379076159,,623704,,1513266312,577770185,'',1.25663706144,1.27363105678,0.0332788770913,0.0169939953484,0.001,-76.4729790676,4500.0,0.0,0.0,0.0
1513266314389074452,,623705,,1513266312,587770185,'',1.25663706144,1.27087527375,-0.0228388645548,0.0142382123189,0.001,-64.0719554351,4500.0,0.0,0.0,0.0
1513266314399005925,,623706,,1513266312,597770185,'',1.25663706144,1.27087527375,-0.0222565372392,0.0142382123189,0.001,-64.0719554351,4500.0,0.0,0.0,0.0
1513266314408730405,,623707,,1513266312,607770185,'',1.25663706144,1.27087527375,-0.0217495307821,0.0142382123189,0.001,-64.0719554351,4500.0,0.0,0.0,0.0
1513266314419236528,,623708,,1513266312,617770185,'',1.25663706144,1.27087527375,-0.0198362171445,0.0142382123189,0.001,-64.0719554351,4500.0,0.0,0.0,0.0
1513266314429166282,,623709,,1513266312,627770185,'',1.25663706144,1.27363105678,0.0343005516902,0.0169939953484,0.001,-76.4729790676,4500.0,0.0,0.0,0.0
1513266314439155758,,623710,,1513266312,637770185,'',1.25663706144,1.27225316527,0.00732154437991,0.0156161038336,0.001,-70.2724672514,4500.0,0.0,0.0,0.0
1513266314449069629,,623711,,1513266312,647770185,'',1.25663706144,1.27087527375,-0.0182736862201,0.0142382123189,0.001,-64.0719554351,4500.0,0.0,0.0,0.0
1513266314458993377,,623712,,1513266312,657770185,'',1.25663706144,1.27225316527,0.00884596503499,0.0156161038336,0.001,-70.2724672514,4500.0,0.0,0.0,0.0
1513266314468781047,,623713,,1513266312,667770185,'',1.25663706144,1.27225316527,0.00873414822925,0.0156161038336,0.001,-70.2724672514,4500.0,0.0,0.0,0.0
1513266314479081542,,623714,,1513266312,677770185,'',1.25663706144,1.27225316527,0.00815349932289,0.0156161038336,0.001,-70.2724672514,4500.0,0.0,0.0,0.0
1513266314489108488,,623715,,1513266312,687770185,'',1.25663706144,1.27363105678,0.0344688615352,0.0169939953484,0.001,-76.4729790676,4500.0,0.0,0.0,0.0
1513266314498973057,,623716,,1513266312,697770185,'',1.25663706144,1.27225316527,0.00594526857489,0.0156161038336,0.001,-70.2724672514,4500.0,0.0,0.0,0.0
1513266314508914249,,623717,,1513266312,707770185,'',1.25663706144,1.27225316527,0.00630919430035,0.0156161038336,0.001,-70.2724672514,4500.0,0.0,0.0,0.0
1513266314519038664,,623718,,1513266312,717770185,'',1.25663706144,1.27225316527,0.00570413269512,0.0156161038336,0.001,-70.2724672514,4500.0,0.0,0.0,0.0
1513266314528874733,,623719,,1513266312,727770185,'',1.25663706144,1.27087527375,-0.0200932229742,0.0142382123189,0.001,-64.0719554351,4500.0,0.0,0.0,0.0
1513266314538903876,,623720,,1513266312,737770185,'',1.25663706144,1.27225316527,0.00784481725856,0.0156161038336,0.001,-70.2724672514,4500.0,0.0,0.0,0.0
1513266314549300235,,623721,,1513266312,747770185,'',1.25663706144,1.27225316527,0.00643244247793,0.0156161038336,0.001,-70.2724672514,4500.0,0.0,0.0,0.0
1513266314559160262,,623722,,1513266312,757770185,'',1.25663706144,1.27087527375,-0.0224920529813,0.0142382123189,0.001,-64.0719554351,4500.0,0.0,0.0,0.0
1513266314569101798,,623723,,1513266312,767770185,'',1.25663706144,1.27087527375,-0.0219000569388,0.0142382123189,0.001,-64.0719554351,4500.0,0.0,0.0,0.0
1513266314578994715,,623724,,1513266312,777770185,'',1.25663706144,1.27225316527,0.00528431061443,0.0156161038336,0.001,-70.2724672514,4500.0,0.0,0.0,0.0
1513266314588753149,,623725,,1513266312,787770185,'',1.25663706144,1.27225316527,0.00722537329645,0.0156161038336,0.001,-70.2724672514,4500.0,0.0,0.0,0.0
1513266314599145874,,623726,,1513266312,797770185,'',1.25663706144,1.27087527375,-0.0199538385276,0.0142382123189,0.001,-64.0719554351,4500.0,0.0,0.0,0.0
1513266314609087471,,623727,,1513266312,807770185,'',1.25663706144,1.27087527375,-0.0203590350487,0.0142382123189,0.001,-64.0719554351,4500.0,0.0,0.0,0.0
1513266314619129111,,623728,,1513266312,817770185,'',1.25663706144,1.27225316527,0.00809285142996,0.0156161038336,0.001,-70.2724672514,4500.0,0.0,0.0,0.0
1513266314628892321,,623729,,1513266312,827770185,'',1.25663706144,1.27225316527,0.0061191913558,0.0156161038336,0.001,-70.2724672514,4500.0,0.0,0.0,0.0
1513266314638855484,,623730,,1513266312,837770185,'',1.25663706144,1.27087527375,-0.0222669944041,0.0142382123189,0.001,-64.0719554351,4500.0,0.0,0.0,0.0
1513266314649261062,,623731,,1513266312,847770185,'',1.25663706144,1.27087527375,-0.0216804812527,0.0142382123189,0.001,-64.0719554351,4500.0,0.0,0.0,0.0
1513266314658845987,,623732,,1513266312,857770185,'',1.25663706144,1.27225316527,0.00650543558658,0.0156161038336,0.001,-70.2724672514,4500.0,0.0,0.0,0.0
1513266314668707187,,623733,,1513266312,867770185,'',1.25663706144,1.27225316527,0.00628810136368,0.0156161038336,0.001,-70.2724672514,4500.0,0.0,0.0,0.0
1513266314678751650,,623734,,1513266312,877770185,'',1.25663706144,1.27363105678,0.0349077763746,0.0169939953484,0.001,-76.4729790676,4500.0,0.0,0.0,0.0
1513266314689145376,,623735,,1513266312,887770185,'',1.25663706144,1.27225316527,0.00725727188154,0.0156161038336,0.001,-70.2724672514,4500.0,0.0,0.0,0.0
1513266314699106110,,623736,,1513266312,897770185,'',1.25663706144,1.27225316527,0.0064693879863,0.0156161038336,0.001,-70.2724672514,4500.0,0.0,0.0,0.0
1513266314709050530,,623737,,1513266312,907770185,'',1.25663706144,1.27225316527,0.00681664206053,0.0156161038336,0.001,-70.2724672514,4500.0,0.0,0.0,0.0
1513266314719005689,,623738,,1513266312,917770185,'',1.25663706144,1.27087527375,-0.0212385801091,0.0142382123189,0.001,-64.0719554351,4500.0,0.0,0.0,0.0
1513266314728947441,,623739,,1513266312,927770185,'',1.25663706144,1.27225316527,0.0058681732343,0.0156161038336,0.001,-70.2724672514,4500.0,0.0,0.0,0.0
1513266314739048511,,623740,,1513266312,937770185,'',1.25663706144,1.27225316527,0.00485379275057,0.0156161038336,0.001,-70.2724672514,4500.0,0.0,0.0,0.0
1513266314748916296,,623741,,1513266312,947770185,'',1.25663706144,1.27087527375,-0.0228514242464,0.0142382123189,0.001,-64.0719554351,4500.0,0.0,0.0,0.0
1513266314758876533,,623742,,1513266312,957770185,'',1.25663706144,1.27087527375,-0.0226156574597,0.0142382123189,0.001,-64.0719554351,4500.0,0.0,0.0,0.0
1513266314768880845,,623743,,1513266312,967770185,'',1.25663706144,1.27225316527,0.00620084299325,0.0156161038336,0.001,-70.2724672514,4500.0,0.0,0.0,0.0
1513266314779208614,,623744,,1513266312,977770185,'',1.25663706144,1.27225316527,0.00607346560625,0.0156161038336,0.001,-70.2724672514,4500.0,0.0,0.0,0.0
1513266314788816067,,623745,,1513266312,987770185,'',1.25663706144,1.27225316527,0.00590685515402,0.0156161038336,0.001,-70.2724672514,4500.0,0.0,0.0,0.0
1513266314798793891,,623746,,1513266312,997770185,'',1.25663706144,1.27225316527,0.00482083664934,0.0156161038336,0.001,-70.2724672514,4500.0,0.0,0.0,0.0
