rosbagTimestamp,header,seq,stamp,secs,nsecs,frame_id,set_point,process_value,process_value_dot,error,time_step,command,p,i,d,i_clamp
1513265398760243828,,532128,,1513265396,976751426,'',0.767944870878,0.359971434974,5.63091946815e-05,-0.407973435904,0.001,550.0,3100.0,0.0,3000.0,0.0
1513265398770151264,,532129,,1513265396,986751426,'',0.767944870878,0.359982894635,-0.000174624854816,-0.407961976242,0.001,550.0,3100.0,0.0,3000.0,0.0
1513265398780158693,,532130,,1513265396,996751426,'',0.767944870878,0.359998207764,-0.000483010481369,-0.407946663113,0.001,550.0,3100.0,0.0,3000.0,0.0
1513265398790077034,,532131,,1513265397,6751426,'',0.767944870878,0.36000411225,-0.000603165460689,-0.407940758627,0.001,550.0,3100.0,0.0,3000.0,0.0
1513265398799996135,,532132,,1513265397,16751426,'',0.767944870878,0.35998242187,-0.00612230303102,-0.407962449008,0.001,550.0,3100.0,0.0,3000.0,0.0
1513265398810038622,,532133,,1513265397,26751426,'',0.767944870878,0.359996956495,-0.00045438617248,-0.407947914382,0.001,550.0,3100.0,0.0,3000.0,0.0
1513265398820325830,,532134,,1513265397,36751426,'',0.767944870878,0.359993097561,0.00557607560525,-0.407951773316,0.001,550.0,3100.0,0.0,3000.0,0.0
1513265398830337631,,532135,,1513265397,46751426,'',0.767944870878,0.359994854989,-0.000416118399285,-0.407950015889,0.001,550.0,3100.0,0.0,3000.0,0.0
1513265398840186496,,532136,,1513265397,56751426,'',0.767944870878,0.359995996982,-0.000440742128694,-0.407948873895,0.001,550.0,3100.0,0.0,3000.0,0.0
1513265398850222516,,532137,,1513265397,66751426,'',0.767944870878,0.360014175503,-0.000805072125337,-0.407930695374,0.001,550.0,3100.0,0.0,3000.0,0.0
1513265398860324584,,532138,,1513265397,76751426,'',0.767944870878,0.360006925514,-0.000659216015132,-0.407937945364,0.001,550.0,3100.0,0.0,3000.0,0.0
1513265398870165593,,532139,,1513265397,86751426,'',0.767944870878,0.360006388961,-0.000648772401687,-0.407938481916,0.001,550.0,3100.0,0.0,3000.0,0.0
1513265398880097271,,532140,,1513265397,96751426,'',0.767944870878,0.36000579124,-0.000636348957573,-0.407939079637,0.001,550.0,3100.0,0.0,3000.0,0.0
1513265398890128126,,532141,,1513265397,106751426,'',0.767944870878,0.359999534763,-0.000512628758803,-0.407945336114,0.001,550.0,3100.0,0.0,3000.0,0.0
1513265398900083936,,532142,,1513265397,116751426,'',0.767944870878,0.359999542424,-0.00646870725006,-0.407945328453,0.001,550.0,3100.0,0.0,3000.0,0.0
1513265398910104766,,532143,,1513265397,126751426,'',0.767944870878,0.359994941846,-0.000420828666722,-0.407949929031,0.001,550.0,3100.0,0.0,3000.0,0.0
1513265398920031730,,532144,,1513265397,136751426,'',0.767944870878,0.359986784975,-0.000255895055658,-0.407958085902,0.001,550.0,3100.0,0.0,3000.0,0.0
1513265398929972858,,532145,,1513265397,146751426,'',0.767944870878,0.359984941298,-0.00021837324199,-0.40795992958,0.001,550.0,3100.0,0.0,3000.0,0.0
1513265398940250721,,532146,,1513265397,156751426,'',0.767944870878,0.35998298666,-0.000178788923501,-0.407961884218,0.001,550.0,3100.0,0.0,3000.0,0.0
1513265398950218887,,532147,,1513265397,166751426,'',0.767944870878,0.359965285328,0.000179085990854,-0.407979585549,0.001,550.0,3100.0,0.0,3000.0,0.0
1513265398960149002,,532148,,1513265397,176751426,'',0.767944870878,0.359967545273,0.000132442718345,-0.407977325605,0.001,550.0,3100.0,0.0,3000.0,0.0
1513265398970164889,,532149,,1513265397,186751426,'',0.767944870878,0.359963247946,0.000218510164206,-0.407981622931,0.001,550.0,3100.0,0.0,3000.0,0.0
1513265398980170091,,532150,,1513265397,196751426,'',0.767944870878,0.359949802398,0.000490459881139,-0.40799506848,0.001,550.0,3100.0,0.0,3000.0,0.0
1513265398990068813,,532151,,1513265397,206751426,'',0.767944870878,0.359954212601,0.000401650415132,-0.407990658276,0.001,550.0,3100.0,0.0,3000.0,0.0
1513265399000043805,,532152,,1513265397,216751426,'',0.767944870878,0.359958152268,0.000321578446997,-0.40798671861,0.001,550.0,3100.0,0.0,3000.0,0.0
1513265399010387729,,532153,,1513265397,226751426,'',0.767944870878,0.359955418925,0.000375848539245,-0.407989451953,0.001,550.0,3100.0,0.0,3000.0,0.0
1513265399020300349,,532154,,1513265397,236751426,'',0.767944870878,0.359942031104,0.000646769697333,-0.408002839774,0.001,550.0,3100.0,0.0,3000.0,0.0
1513265399030257982,,532155,,1513265397,246751426,'',0.767944870878,0.35991577406,-0.00477982932023,-0.408029096817,0.001,550.0,3100.0,0.0,3000.0,0.0
1513265399040282633,,532156,,1513265397,256751426,'',0.767944870878,0.359931337199,0.000862996928987,-0.408013533679,0.001,550.0,3100.0,0.0,3000.0,0.0
1513265399049919241,,532157,,1513265397,266751426,'',0.767944870878,0.359923289211,-0.00492865438114,-0.408021581667,0.001,550.0,3100.0,0.0,3000.0,0.0
1513265399059868975,,532158,,1513265397,276751426,'',0.767944870878,0.3599332818,0.00677444449017,-0.408011589077,0.001,550.0,3100.0,0.0,3000.0,0.0
1513265399069876169,,532159,,1513265397,286751426,'',0.767944870878,0.35993595734,0.000765868827042,-0.408008913537,0.001,550.0,3100.0,0.0,3000.0,0.0
1513265399080373298,,532160,,1513265397,296751426,'',0.767944870878,0.359932791496,0.000829895657179,-0.408012079382,0.001,550.0,3100.0,0.0,3000.0,0.0
1513265399090463735,,532161,,1513265397,306751426,'',0.767944870878,0.359940164502,0.000682226529122,-0.408004706375,0.001,550.0,3100.0,0.0,3000.0,0.0
1513265399100204682,,532162,,1513265397,316751426,'',0.767944870878,0.35995671183,0.000347863155862,-0.407988159047,0.001,550.0,3100.0,0.0,3000.0,0.0
1513265399110225869,,532163,,1513265397,326751426,'',0.767944870878,0.35996550285,0.000170881659222,-0.407979368028,0.001,550.0,3100.0,0.0,3000.0,0.0
1513265399120108381,,532164,,1513265397,336751426,'',0.767944870878,0.359977351953,-6.78890834476e-05,-0.407967518925,0.001,550.0,3100.0,0.0,3000.0,0.0
1513265399130100919,,532165,,1513265397,346751426,'',0.767944870878,0.359976772343,-5.55683159023e-05,-0.407968098535,0.001,550.0,3100.0,0.0,3000.0,0.0
1513265399139929252,,532166,,1513265397,356751426,'',0.767944870878,0.359981824345,-0.00015714456644,-0.407963046532,0.001,550.0,3100.0,0.0,3000.0,0.0
1513265399149936781,,532167,,1513265397,366751426,'',0.767944870878,0.359969621997,9.0082719773e-05,-0.40797524888,0.001,550.0,3100.0,0.0,3000.0,0.0
1513265399160407391,,532168,,1513265397,376751426,'',0.767944870878,0.359970443017,7.37784810862e-05,-0.40797442786,0.001,550.0,3100.0,0.0,3000.0,0.0
1513265399170349787,,532169,,1513265397,386751426,'',0.767944870878,0.359951031272,0.000466067882375,-0.407993839606,0.001,550.0,3100.0,0.0,3000.0,0.0
1513265399180155392,,532170,,1513265397,396751426,'',0.767944870878,0.359949530237,0.000497175769005,-0.40799534064,0.001,550.0,3100.0,0.0,3000.0,0.0
1513265399190147331,,532171,,1513265397,406751426,'',0.767944870878,0.359948951954,0.000509483440432,-0.407995918924,0.001,550.0,3100.0,0.0,3000.0,0.0
1513265399200101406,,532172,,1513265397,416751426,'',0.767944870878,0.359953514871,0.000417255169387,-0.407991356007,0.001,550.0,3100.0,0.0,3000.0,0.0
1513265399210152221,,532173,,1513265397,426751426,'',0.767944870878,0.359946379004,0.000561038014891,-0.407998491873,0.001,550.0,3100.0,0.0,3000.0,0.0
1513265399220101023,,532174,,1513265397,436751426,'',0.767944870878,0.359956262752,0.00036110580861,-0.407988608126,0.001,550.0,3100.0,0.0,3000.0,0.0
1513265399229976863,,532175,,1513265397,446751426,'',0.767944870878,0.359954217085,-0.00554975293445,-0.407990653793,0.001,550.0,3100.0,0.0,3000.0,0.0
1513265399240332494,,532176,,1513265397,456751426,'',0.767944870878,0.359936019498,0.000770968464884,-0.408008851379,0.001,550.0,3100.0,0.0,3000.0,0.0
1513265399250300464,,532177,,1513265397,466751426,'',0.767944870878,0.359931514829,0.000860728354532,-0.408013356049,0.001,550.0,3100.0,0.0,3000.0,0.0
1513265399260271803,,532178,,1513265397,476751426,'',0.767944870878,0.359934257089,0.000805609230128,-0.408010613789,0.001,550.0,3100.0,0.0,3000.0,0.0
1513265399270214862,,532179,,1513265397,486751426,'',0.767944870878,0.359942291465,0.000644238476512,-0.408002579412,0.001,550.0,3100.0,0.0,3000.0,0.0
1513265399280025981,,532180,,1513265397,496751426,'',0.767944870878,0.359958725444,0.000314203460945,-0.407986145433,0.001,550.0,3100.0,0.0,3000.0,0.0
1513265399289952123,,532181,,1513265397,506751426,'',0.767944870878,0.359972033163,0.00599796212253,-0.407972837714,0.001,550.0,3100.0,0.0,3000.0,0.0
1513265399300321702,,532182,,1513265397,516751426,'',0.767944870878,0.359961810134,0.000248074863589,-0.407983060743,0.001,550.0,3100.0,0.0,3000.0,0.0
1513265399310078443,,532183,,1513265397,526751426,'',0.767944870878,0.359968431384,0.000115800621244,-0.407976439493,0.001,550.0,3100.0,0.0,3000.0,0.0
1513265399320008547,,532184,,1513265397,536751426,'',0.767944870878,0.359984482997,-0.00616454108226,-0.407960387881,0.001,550.0,3100.0,0.0,3000.0,0.0
1513265399329985391,,532185,,1513265397,546751426,'',0.767944870878,0.359972154305,-0.00591765252678,-0.407972716573,0.001,550.0,3100.0,0.0,3000.0,0.0
1513265399340340460,,532186,,1513265397,556751426,'',0.767944870878,0.359983151302,-0.000182947440553,-0.407961719576,0.001,550.0,3100.0,0.0,3000.0,0.0
1513265399350330480,,532187,,1513265397,566751426,'',0.767944870878,0.359981015879,-0.00014031921345,-0.407963854998,0.001,550.0,3100.0,0.0,3000.0,0.0
1513265399360223850,,532188,,1513265397,576751426,'',0.767944870878,0.359979773682,-0.000114901756642,-0.407965097196,0.001,550.0,3100.0,0.0,3000.0,0.0
1513265399370026717,,532189,,1513265397,586751426,'',0.767944870878,0.359958721587,0.000308438753875,-0.40798614929,0.001,550.0,3100.0,0.0,3000.0,0.0
1513265399379988163,,532190,,1513265397,596751426,'',0.767944870878,0.359960643776,-0.00568732167576,-0.407984227101,0.001,550.0,3100.0,0.0,3000.0,0.0
1513265399389970587,,532191,,1513265397,606751426,'',0.767944870878,0.359967475348,-0.00582426549314,-0.40797739553,0.001,550.0,3100.0,0.0,3000.0,0.0
1513265399400388808,,532192,,1513265397,616751426,'',0.767944870878,0.359969312863,0.00605003327095,-0.407975558015,0.001,550.0,3100.0,0.0,3000.0,0.0
1513265399410333289,,532193,,1513265397,626751426,'',0.767944870878,0.359954451978,0.00039253189175,-0.4079904189,0.001,550.0,3100.0,0.0,3000.0,0.0
1513265399420193656,,532194,,1513265397,636751426,'',0.767944870878,0.359973769141,-0.00595330546984,-0.407971101736,0.001,550.0,3100.0,0.0,3000.0,0.0
1513265399430214287,,532195,,1513265397,646751426,'',0.767944870878,0.359959115524,0.000302401649411,-0.407985755354,0.001,550.0,3100.0,0.0,3000.0,0.0
1513265399440080049,,532196,,1513265397,656751426,'',0.767944870878,0.359951138592,0.000462996515626,-0.407993732286,0.001,550.0,3100.0,0.0,3000.0,0.0
1513265399450102519,,532197,,1513265397,666751426,'',0.767944870878,0.359954976169,0.000385852277186,-0.407989894709,0.001,550.0,3100.0,0.0,3000.0,0.0
1513265399460056878,,532198,,1513265397,676751426,'',0.767944870878,0.359963550874,0.000217251898602,-0.407981320004,0.001,550.0,3100.0,0.0,3000.0,0.0
1513265399470057145,,532199,,1513265397,686751426,'',0.767944870878,0.35996572125,0.000169469799766,-0.407979149627,0.001,550.0,3100.0,0.0,3000.0,0.0
1513265399479842922,,532200,,1513265397,696751426,'',0.767944870878,0.359956038499,-0.00559155157309,-0.407988832378,0.001,550.0,3100.0,0.0,3000.0,0.0
1513265399490405449,,532201,,1513265397,706751426,'',0.767944870878,0.359942889037,0.000632535224166,-0.408001981841,0.001,550.0,3100.0,0.0,3000.0,0.0
1513265399500380206,,532202,,1513265397,716751426,'',0.767944870878,0.359942530001,0.000644623541496,-0.408002340876,0.001,550.0,3100.0,0.0,3000.0,0.0
1513265399510329388,,532203,,1513265397,726751426,'',0.767944870878,0.359964475834,0.00019874668321,-0.407980395044,0.001,550.0,3100.0,0.0,3000.0,0.0
1513265399519990807,,532204,,1513265397,736751426,'',0.767944870878,0.359961018704,0.000265782354896,-0.407983852174,0.001,550.0,3100.0,0.0,3000.0,0.0
1513265399529916215,,532205,,1513265397,746751426,'',0.767944870878,0.359953482065,0.00637321506733,-0.407991388813,0.001,550.0,3100.0,0.0,3000.0,0.0
1513265399539907626,,532206,,1513265397,756751426,'',0.767944870878,0.359951497972,0.000457631756763,-0.407993372906,0.001,550.0,3100.0,0.0,3000.0,0.0
1513265399550422168,,532207,,1513265397,766751426,'',0.767944870878,0.359956393297,-0.00559932483123,-0.407988477581,0.001,550.0,3100.0,0.0,3000.0,0.0
1513265399560383130,,532208,,1513265397,776751426,'',0.767944870878,0.359932707341,0.000837115075879,-0.408012163536,0.001,550.0,3100.0,0.0,3000.0,0.0
1513265399570976676,,532209,,1513265397,786751426,'',0.767944870878,0.359909119602,0.0013152132252,-0.408035751275,0.001,550.0,3100.0,0.0,3000.0,0.0
1513265399580296844,,532210,,1513265397,796751426,'',0.767944870878,0.359915467153,0.00118762692515,-0.408029403724,0.001,550.0,3100.0,0.0,3000.0,0.0
1513265399590406497,,532211,,1513265397,806751426,'',0.767944870878,0.359926226826,0.0009683574414,-0.408018644051,0.001,550.0,3100.0,0.0,3000.0,0.0
1513265399600206081,,532212,,1513265397,816751426,'',0.767944870878,0.359945188508,0.000584037361813,-0.407999682369,0.001,550.0,3100.0,0.0,3000.0,0.0
1513265399610176564,,532213,,1513265397,826751426,'',0.767944870878,0.359955927219,0.000366984715757,-0.407988943659,0.001,550.0,3100.0,0.0,3000.0,0.0
1513265399620055632,,532214,,1513265397,836751426,'',0.767944870878,0.35996472957,0.000187899222073,-0.407980141308,0.001,550.0,3100.0,0.0,3000.0,0.0
1513265399630013721,,532215,,1513265397,846751426,'',0.767944870878,0.35998136455,0.00580928083949,-0.407963506328,0.001,550.0,3100.0,0.0,3000.0,0.0
1513265399639912232,,532216,,1513265397,856751426,'',0.767944870878,0.359980166621,-0.000123733722308,-0.407964704256,0.001,550.0,3100.0,0.0,3000.0,0.0
1513265399650237640,,532217,,1513265397,866751426,'',0.767944870878,0.359995005977,0.00553384532893,-0.407949864901,0.001,550.0,3100.0,0.0,3000.0,0.0
1513265399660204789,,532218,,1513265397,876751426,'',0.767944870878,0.36001409861,0.00514993771908,-0.407930772267,0.001,550.0,3100.0,0.0,3000.0,0.0
1513265399670088151,,532219,,1513265397,886751426,'',0.767944870878,0.36000640504,-0.00660618932711,-0.407938465837,0.001,550.0,3100.0,0.0,3000.0,0.0
1513265399680079118,,532220,,1513265397,896751426,'',0.767944870878,0.36002792457,0.00486980507898,-0.407916946307,0.001,550.0,3100.0,0.0,3000.0,0.0
1513265399690018450,,532221,,1513265397,906751426,'',0.767944870878,0.36003367803,-0.00716034274198,-0.407911192848,0.001,550.0,3100.0,0.0,3000.0,0.0
1513265399700045893,,532222,,1513265397,916751426,'',0.767944870878,0.360028522729,-0.00109653466693,-0.407916348148,0.001,550.0,3100.0,0.0,3000.0,0.0
1513265399709938723,,532223,,1513265397,926751426,'',0.767944870878,0.360040590373,-0.00133792789346,-0.407904280504,0.001,550.0,3100.0,0.0,3000.0,0.0
1513265399719933389,,532224,,1513265397,936751426,'',0.767944870878,0.360045131631,0.00452364979776,-0.407899739247,0.001,550.0,3100.0,0.0,3000.0,0.0
1513265399730303054,,532225,,1513265397,946751426,'',0.767944870878,0.360031890617,-0.00712035938918,-0.407912980261,0.001,550.0,3100.0,0.0,3000.0,0.0
1513265399740307120,,532226,,1513265397,956751426,'',0.767944870878,0.360037989665,0.00466698175903,-0.407906881213,0.001,550.0,3100.0,0.0,3000.0,0.0
1513265399750140321,,532227,,1513265397,966751426,'',0.767944870878,0.360019793233,-0.000922157957904,-0.407925077645,0.001,550.0,3100.0,0.0,3000.0,0.0
1513265399760032414,,532228,,1513265397,976751426,'',0.767944870878,0.360005798149,-0.000640253557784,-0.407939072728,0.001,550.0,3100.0,0.0,3000.0,0.0
1513265399769989833,,532229,,1513265397,986751426,'',0.767944870878,0.36001063276,-0.00073926638651,-0.407934238117,0.001,550.0,3100.0,0.0,3000.0,0.0
1513265399779930946,,532230,,1513265397,996751426,'',0.767944870878,0.360025566647,-0.00103979882261,-0.40791930423,0.001,550.0,3100.0,0.0,3000.0,0.0
1513265399789931746,,532231,,1513265398,6751426,'',0.767944870878,0.360049162473,0.00443684705801,-0.407895708404,0.001,550.0,3100.0,0.0,3000.0,0.0
1513265399800358580,,532232,,1513265398,16751426,'',0.767944870878,0.36006211732,0.00417464712581,-0.407882753557,0.001,550.0,3100.0,0.0,3000.0,0.0
1513265399810337112,,532233,,1513265398,26751426,'',0.767944870878,0.360050120423,-0.00749254955867,-0.407894750454,0.001,550.0,3100.0,0.0,3000.0,0.0
1513265399820272990,,532234,,1513265398,36751426,'',0.767944870878,0.360052714801,0.00436769321377,-0.407892156077,0.001,550.0,3100.0,0.0,3000.0,0.0
1513265399830316695,,532235,,1513265398,46751426,'',0.767944870878,0.360037917447,-0.0012857516711,-0.40790695343,0.001,550.0,3100.0,0.0,3000.0,0.0
1513265399840157933,,532236,,1513265398,56751426,'',0.767944870878,0.360036471672,-0.0012561341662,-0.407908399205,0.001,550.0,3100.0,0.0,3000.0,0.0
1513265399850098610,,532237,,1513265398,66751426,'',0.767944870878,0.360046654409,-0.00145721890056,-0.407898216468,0.001,550.0,3100.0,0.0,3000.0,0.0
1513265399860014797,,532238,,1513265398,76751426,'',0.767944870878,0.360034394185,-0.00120930988039,-0.407910476692,0.001,550.0,3100.0,0.0,3000.0,0.0
1513265399870055781,,532239,,1513265398,86751426,'',0.767944870878,0.360023469389,-0.000989981358867,-0.407921401489,0.001,550.0,3100.0,0.0,3000.0,0.0
1513265399879926688,,532240,,1513265398,96751426,'',0.767944870878,0.360014548514,-0.000810883989317,-0.407930322364,0.001,550.0,3100.0,0.0,3000.0,0.0
1513265399889982894,,532241,,1513265398,106751426,'',0.767944870878,0.360007219119,-0.000663737521618,-0.407937651758,0.001,550.0,3100.0,0.0,3000.0,0.0
1513265399899927406,,532242,,1513265398,116751426,'',0.767944870878,0.359995605807,-0.000430866090671,-0.407949265071,0.001,550.0,3100.0,0.0,3000.0,0.0
1513265399910454149,,532243,,1513265398,126751426,'',0.767944870878,0.359987330797,-0.000264885675144,-0.40795754008,0.001,550.0,3100.0,0.0,3000.0,0.0
1513265399920413399,,532244,,1513265398,136751426,'',0.767944870878,0.359984823,-0.000220325323545,-0.407960047877,0.001,550.0,3100.0,0.0,3000.0,0.0
1513265399930285160,,532245,,1513265398,146751426,'',0.767944870878,0.360010216821,0.00522129279349,-0.407934654056,0.001,550.0,3100.0,0.0,3000.0,0.0
1513265399940273057,,532246,,1513265398,156751426,'',0.767944870878,0.360008588167,-0.000701558615527,-0.407936282711,0.001,550.0,3100.0,0.0,3000.0,0.0
1513265399950202517,,532247,,1513265398,166751426,'',0.767944870878,0.360024714381,0.00492392603104,-0.407920156496,0.001,550.0,3100.0,0.0,3000.0,0.0
1513265399960110663,,532248,,1513265398,176751426,'',0.767944870878,0.360030959264,-0.00116048084641,-0.407913911613,0.001,550.0,3100.0,0.0,3000.0,0.0
1513265399970171155,,532249,,1513265398,186751426,'',0.767944870878,0.360046853584,-0.0014750151418,-0.407898017294,0.001,550.0,3100.0,0.0,3000.0,0.0
1513265399979920806,,532250,,1513265398,196751426,'',0.767944870878,0.360039958413,0.00462129522639,-0.407904912465,0.001,550.0,3100.0,0.0,3000.0,0.0
1513265399990401875,,532251,,1513265398,206751426,'',0.767944870878,0.360054154006,-0.00162070277652,-0.407890716872,0.001,550.0,3100.0,0.0,3000.0,0.0
1513265400000247907,,532252,,1513265398,216751426,'',0.767944870878,0.36004451762,-0.0014243930553,-0.407900353257,0.001,550.0,3100.0,0.0,3000.0,0.0
1513265400010127707,,532253,,1513265398,226751426,'',0.767944870878,0.360041881819,-0.00137311514477,-0.407902989058,0.001,550.0,3100.0,0.0,3000.0,0.0
1513265400020141152,,532254,,1513265398,236751426,'',0.767944870878,0.360056801379,-0.00167519171841,-0.407888069499,0.001,550.0,3100.0,0.0,3000.0,0.0
1513265400029968686,,532255,,1513265398,246751426,'',0.767944870878,0.360057579931,-0.00169143488374,-0.407887290947,0.001,550.0,3100.0,0.0,3000.0,0.0
1513265400039960535,,532256,,1513265398,256751426,'',0.767944870878,0.360037769967,-0.00129043372325,-0.40790710091,0.001,550.0,3100.0,0.0,3000.0,0.0
1513265400050322548,,532257,,1513265398,266751426,'',0.767944870878,0.360037196671,0.00468124856546,-0.407907674206,0.001,550.0,3100.0,0.0,3000.0,0.0
1513265400060334080,,532258,,1513265398,276751426,'',0.767944870878,0.360042402733,-0.00137773125022,-0.407902468144,0.001,550.0,3100.0,0.0,3000.0,0.0
1513265400070358633,,532259,,1513265398,286751426,'',0.767944870878,0.360035687204,-0.00124089234687,-0.407909183673,0.001,550.0,3100.0,0.0,3000.0,0.0
1513265400080219561,,532260,,1513265398,296751426,'',0.767944870878,0.360045839644,-0.0014498336299,-0.407899031234,0.001,550.0,3100.0,0.0,3000.0,0.0
1513265400090025332,,532261,,1513265398,306751426,'',0.767944870878,0.360059403294,-0.00172196407847,-0.407885467583,0.001,550.0,3100.0,0.0,3000.0,0.0
1513265400099929330,,532262,,1513265398,316751426,'',0.767944870878,0.360087777416,0.00961798633854,-0.407857093462,0.001,550.0,3100.0,0.0,3000.0,0.0
1513265400110445655,,532263,,1513265398,326751426,'',0.767944870878,0.36008274951,-0.00219596329809,-0.407862121368,0.001,550.0,3100.0,0.0,3000.0,0.0
1513265400120469449,,532264,,1513265398,336751426,'',0.767944870878,0.36007846764,-0.00806782073824,-0.407866403237,0.001,550.0,3100.0,0.0,3000.0,0.0
1513265400130339065,,532265,,1513265398,346751426,'',0.767944870878,0.360054212817,-0.00162064547864,-0.407890658061,0.001,550.0,3100.0,0.0,3000.0,0.0
1513265400140164919,,532266,,1513265398,356751426,'',0.767944870878,0.360055783487,-0.00165171181213,-0.407889087391,0.001,550.0,3100.0,0.0,3000.0,0.0
1513265400150220112,,532267,,1513265398,366751426,'',0.767944870878,0.360035775975,-0.00124722659297,-0.407909094902,0.001,550.0,3100.0,0.0,3000.0,0.0
1513265400160168269,,532268,,1513265398,376751426,'',-0.25,0.360019176156,-0.000912761540459,0.610019176156,0.001,-550.0,3100.0,0.0,3000.0,0.0
1513265400170037641,,532269,,1513265398,386751426,'',-0.25,0.360021690195,-0.000966131566875,0.610021690195,0.001,-550.0,3100.0,0.0,3000.0,0.0
1513265400179866226,,532270,,1513265398,396751426,'',-0.25,0.360018043614,-0.000891585028785,0.610018043614,0.001,-550.0,3100.0,0.0,3000.0,0.0
1513265400190397458,,532271,,1513265398,406751426,'',-0.25,0.360014763996,-0.00678321338284,0.610014763996,0.001,-550.0,3100.0,0.0,3000.0,0.0
1513265400200338913,,532272,,1513265398,416751426,'',-0.25,0.359945515853,-0.0232487445015,0.609945515853,0.001,-550.0,3100.0,0.0,3000.0,0.0
1513265400210286470,,532273,,1513265398,426751426,'',-0.25,0.359211796321,-0.121590096796,0.609211796321,0.001,-550.0,3100.0,0.0,3000.0,0.0
1513265400219949730,,532274,,1513265398,436751426,'',-0.25,0.357166240893,-0.27084842837,0.607166240893,0.001,-550.0,3100.0,0.0,3000.0,0.0
1513265400230385164,,532275,,1513265398,446751426,'',-0.25,0.353286912137,-0.484308514305,0.603286912137,0.001,-414.229495056,3100.0,0.0,3000.0,0.0
1513265400240353645,,532276,,1513265398,456751426,'',-0.25,0.347577327094,-0.642928627905,0.597577327094,0.001,89.6255379689,3100.0,0.0,3000.0,0.0
1513265400250264622,,532277,,1513265398,466751426,'',-0.25,0.340607323281,-0.734403261723,0.590607323281,0.001,387.540446762,3100.0,0.0,3000.0,0.0
1513265400260180499,,532278,,1513265398,476751426,'',-0.25,0.333304215161,-0.717895112312,0.583304215161,0.001,356.169577728,3100.0,0.0,3000.0,0.0
1513265400270360088,,532279,,1513265398,486751426,'',-0.25,0.32666229705,-0.613497166169,0.57666229705,0.001,63.7807778537,3100.0,0.0,3000.0,0.0
1513265400280063651,,532280,,1513265398,496751426,'',-0.25,0.321047828984,-0.511989157221,0.571047828984,0.001,-257.696507725,3100.0,0.0,3000.0,0.0
1513265400290052720,,532281,,1513265398,506751426,'',-0.25,0.31636255108,-0.429254878555,0.56636255108,0.001,-481.090576012,3100.0,0.0,3000.0,0.0
1513265400300398556,,532282,,1513265398,516751426,'',-0.25,0.312439714649,-0.373831501616,0.562439714649,0.001,-550.0,3100.0,0.0,3000.0,0.0
1513265400310268894,,532283,,1513265398,526751426,'',-0.25,0.308632063529,-0.392203312646,0.558632063529,0.001,-536.262419716,3100.0,0.0,3000.0,0.0
1513265400320266666,,532284,,1513265398,536751426,'',-0.25,0.304216176221,-0.481667322863,0.554216176221,0.001,-270.399390069,3100.0,0.0,3000.0,0.0
1513265400330197617,,532285,,1513265398,546751426,'',-0.25,0.298808907416,-0.574930630902,0.548808907416,0.001,47.8509974065,3100.0,0.0,3000.0,0.0
1513265400340012501,,532286,,1513265398,556751426,'',-0.25,0.29277509238,-0.619791837862,0.54277509238,0.001,135.461255427,3100.0,0.0,3000.0,0.0
1513265400349929325,,532287,,1513265398,566751426,'',-0.25,0.286685504868,-0.592070809337,0.536685504868,0.001,135.880168575,3100.0,0.0,3000.0,0.0
1513265400359980076,,532288,,1513265398,576751426,'',-0.25,0.281165506695,-0.52224714863,0.531165506695,0.001,-73.5700351069,3100.0,0.0,3000.0,0.0
1513265400370347405,,532289,,1513265398,586751426,'',-0.25,0.276386762722,-0.443574949021,0.526386762722,0.001,-287.701787525,3100.0,0.0,3000.0,0.0
1513265400379914587,,532290,,1513265398,596751426,'',-0.25,0.272300308899,-0.384846477135,0.522300308899,0.001,-456.604610812,3100.0,0.0,3000.0,0.0
1513265400390355051,,532291,,1513265398,606751426,'',-0.25,0.26858314426,-0.375269497935,0.51858314426,0.001,-471.575282318,3100.0,0.0,3000.0,0.0
1513265400400326922,,532292,,1513265398,616751426,'',-0.25,0.264665806274,-0.415246449913,0.514665806274,0.001,-373.799844957,3100.0,0.0,3000.0,0.0
1513265400410226823,,532293,,1513265398,626751426,'',-0.25,0.260179935612,-0.479477023348,0.510179935612,0.001,-125.905551495,3100.0,0.0,3000.0,0.0
1513265400420161908,,532294,,1513265398,636751426,'',-0.25,0.255020539607,-0.536056138991,0.505020539607,0.001,53.7209298446,3100.0,0.0,3000.0,0.0
1513265400430141351,,532295,,1513265398,646751426,'',-0.25,0.249587518982,-0.545417050417,0.499587518982,0.001,97.6567232977,3100.0,0.0,3000.0,0.0
1513265400440123215,,532296,,1513265398,656751426,'',-0.25,0.244390147548,-0.494026926821,0.494390147548,0.001,-43.1467847667,3100.0,0.0,3000.0,0.0
1513265400450059797,,532297,,1513265398,666751426,'',-0.25,0.239806248216,-0.431206532701,0.489806248216,0.001,-246.998548836,3100.0,0.0,3000.0,0.0
1513265400460185833,,532298,,1513265398,676751426,'',-0.25,0.235812719529,-0.374352737799,0.485812719529,0.001,-373.851517122,3100.0,0.0,3000.0,0.0
1513265400469956095,,532299,,1513265398,686751426,'',-0.25,0.232328721301,-0.333751337898,0.482328721301,0.001,-479.818673493,3100.0,0.0,3000.0,0.0
1513265400479934172,,532300,,1513265398,696751426,'',-0.25,0.229052653295,-0.327128096204,0.479052653295,0.001,-496.669302736,3100.0,0.0,3000.0,0.0
1513265400490273902,,532301,,1513265398,706751426,'',-0.25,0.225688528416,-0.34254822054,0.475688528416,0.001,-441.875481152,3100.0,0.0,3000.0,0.0
1513265400500211231,,532302,,1513265398,716751426,'',-0.25,0.222140495309,-0.37211757537,0.472140495309,0.001,-365.10234404,3100.0,0.0,3000.0,0.0
1513265400510100840,,532303,,1513265398,726751426,'',-0.25,0.218450661572,-0.369049532349,0.468450661572,0.001,-332.869799274,3100.0,0.0,3000.0,0.0
1513265400519973794,,532304,,1513265398,736751426,'',-0.25,0.2147150017,-0.382918714324,0.4647150017,0.001,-288.349082147,3100.0,0.0,3000.0,0.0
1513265400529832474,,532305,,1513265398,746751426,'',-0.25,0.210791601272,-0.398953969513,0.460791601272,0.001,-224.190569763,3100.0,0.0,3000.0,0.0
1513265400540407334,,532306,,1513265398,756751426,'',-0.25,0.206748828905,-0.412576482097,0.456748828905,0.001,-175.903202302,3100.0,0.0,3000.0,0.0
1513265400550261360,,532307,,1513265398,766751426,'',-0.25,0.202715693908,-0.402571139115,0.452715693908,0.001,-217.89923325,3100.0,0.0,3000.0,0.0
1513265400560260639,,532308,,1513265398,776751426,'',-0.25,0.198781595924,-0.388608489423,0.448781595924,0.001,-240.923013854,3100.0,0.0,3000.0,0.0
1513265400570160774,,532309,,1513265398,786751426,'',-0.25,0.195087947823,-0.355683849204,0.445087947823,0.001,-301.75579356,3100.0,0.0,3000.0,0.0
1513265400580063854,,532310,,1513265398,796751426,'',-0.25,0.191695077811,-0.328833784372,0.441695077811,0.001,-378.794557431,3100.0,0.0,3000.0,0.0
1513265400589913405,,532311,,1513265398,806751426,'',-0.25,0.188636311422,-0.290864696788,0.438636311422,0.001,-477.580360095,3100.0,0.0,3000.0,0.0
1513265400599954454,,532312,,1513265398,816751426,'',-0.25,0.18590113126,-0.259433769284,0.43590113126,0.001,-550.0,3100.0,0.0,3000.0,0.0
1513265400610424825,,532313,,1513265398,826751426,'',-0.25,0.183414321804,-0.238971550722,0.433414321804,0.001,-550.0,3100.0,0.0,3000.0,0.0
1513265400620311878,,532314,,1513265398,836751426,'',-0.25,0.181126017703,-0.222522412207,0.431126017703,0.001,-550.0,3100.0,0.0,3000.0,0.0
1513265400630325267,,532315,,1513265398,846751426,'',-0.25,0.179047264598,-0.204352686682,0.429047264598,0.001,-550.0,3100.0,0.0,3000.0,0.0
1513265400640223648,,532316,,1513265398,856751426,'',-0.25,0.177150997923,-0.177959029892,0.427150997923,0.001,-550.0,3100.0,0.0,3000.0,0.0
1513265400650213333,,532317,,1513265398,866751426,'',-0.25,0.175410812821,-0.166633537059,0.425410812821,0.001,-550.0,3100.0,0.0,3000.0,0.0
1513265400660109625,,532318,,1513265398,876751426,'',-0.25,0.173795787927,-0.157830620868,0.423795787927,0.001,-550.0,3100.0,0.0,3000.0,0.0
1513265400670057162,,532319,,1513265398,886751426,'',-0.25,0.172326993505,-0.140065705931,0.422326993505,0.001,-550.0,3100.0,0.0,3000.0,0.0
1513265400680119229,,532320,,1513265398,896751426,'',-0.25,0.170984377564,-0.124852956568,0.420984377564,0.001,-550.0,3100.0,0.0,3000.0,0.0
1513265400690131384,,532321,,1513265398,906751426,'',-0.25,0.169738763527,-0.117554826009,0.419738763527,0.001,-550.0,3100.0,0.0,3000.0,0.0
1513265400699963983,,532322,,1513265398,916751426,'',-0.25,0.168639373301,-0.107254792148,0.418639373301,0.001,-550.0,3100.0,0.0,3000.0,0.0
1513265400710376602,,532323,,1513265398,926751426,'',-0.25,0.167599347769,-0.104113538807,0.417599347769,0.001,-550.0,3100.0,0.0,3000.0,0.0
1513265400720247150,,532324,,1513265398,936751426,'',-0.25,0.166627676513,-0.0963897710683,0.416627676513,0.001,-550.0,3100.0,0.0,3000.0,0.0
1513265400730103217,,532325,,1513265398,946751426,'',-0.25,0.165700632378,-0.0955280816437,0.415700632378,0.001,-550.0,3100.0,0.0,3000.0,0.0
1513265400740121494,,532326,,1513265398,956751426,'',-0.25,0.164793462203,-0.0891151026724,0.414793462203,0.001,-550.0,3100.0,0.0,3000.0,0.0
1513265400749996295,,532327,,1513265398,966751426,'',-0.25,0.163900011512,-0.0889374081628,0.413900011512,0.001,-550.0,3100.0,0.0,3000.0,0.0
1513265400760117622,,532328,,1513265398,976751426,'',-0.25,0.163052661634,-0.0837319239422,0.413052661634,0.001,-550.0,3100.0,0.0,3000.0,0.0
1513265400770490166,,532329,,1513265398,986751426,'',-0.25,0.16228396747,-0.0682046861935,0.41228396747,0.001,-550.0,3100.0,0.0,3000.0,0.0
1513265400780361976,,532330,,1513265398,996751426,'',-0.25,0.161552118218,-0.0712887849512,0.411552118218,0.001,-550.0,3100.0,0.0,3000.0,0.0
1513265400790190945,,532331,,1513265399,6751426,'',-0.25,0.160875112545,-0.0695238016346,0.410875112545,0.001,-550.0,3100.0,0.0,3000.0,0.0
1513265400800265167,,532332,,1513265399,16751426,'',-0.25,0.160206389881,-0.0679270942578,0.410206389881,0.001,-550.0,3100.0,0.0,3000.0,0.0
1513265400810134475,,532333,,1513265399,26751426,'',-0.25,0.15958352309,-0.0613027241,0.40958352309,0.001,-550.0,3100.0,0.0,3000.0,0.0
1513265400820095876,,532334,,1513265399,36751426,'',-0.25,0.159033355513,-0.0501885206141,0.409033355513,0.001,-550.0,3100.0,0.0,3000.0,0.0
1513265400830154138,,532335,,1513265399,46751426,'',-0.25,0.158573070294,-0.0468409834901,0.408573070294,0.001,-550.0,3100.0,0.0,3000.0,0.0
1513265400840406119,,532336,,1513265399,56751426,'',-0.25,0.15823882393,-0.0281744444383,0.40823882393,0.001,-550.0,3100.0,0.0,3000.0,0.0
1513265400850277474,,532337,,1513265399,66751426,'',-0.25,0.158057166329,-0.0125951848068,0.408057166329,0.001,-550.0,3100.0,0.0,3000.0,0.0
1513265400860198955,,532338,,1513265399,76751426,'',-0.25,0.157998654753,-0.00546022440243,0.407998654753,0.001,-550.0,3100.0,0.0,3000.0,0.0
1513265400870215868,,532339,,1513265399,86751426,'',-0.25,0.158058642331,0.0111953614982,0.408058642331,0.001,-550.0,3100.0,0.0,3000.0,0.0
1513265400880159400,,532340,,1513265399,96751426,'',-0.25,0.1582244072,0.0197563658695,0.4082244072,0.001,-550.0,3100.0,0.0,3000.0,0.0
1513265400890181858,,532341,,1513265399,106751426,'',-0.25,0.158419266286,0.0217749017826,0.408419266286,0.001,-550.0,3100.0,0.0,3000.0,0.0
1513265400900202110,,532342,,1513265399,116751426,'',-0.25,0.158651956877,0.0230295501278,0.408651956877,0.001,-550.0,3100.0,0.0,3000.0,0.0
1513265400909943361,,532343,,1513265399,126751426,'',-0.25,0.158860592037,0.0247729473955,0.408860592037,0.001,-550.0,3100.0,0.0,3000.0,0.0
1513265400920425369,,532344,,1513265399,136751426,'',-0.25,0.159061290283,0.0207179643787,0.409061290283,0.001,-550.0,3100.0,0.0,3000.0,0.0
1513265400930269508,,532345,,1513265399,146751426,'',-0.25,0.159220786844,0.0174941558905,0.409220786844,0.001,-550.0,3100.0,0.0,3000.0,0.0
1513265400940059978,,532346,,1513265399,156751426,'',-0.25,0.159383239349,0.0142120018298,0.409383239349,0.001,-550.0,3100.0,0.0,3000.0,0.0
1513265400950000824,,532347,,1513265399,166751426,'',-0.25,0.15951079291,0.0116353613527,0.40951079291,0.001,-550.0,3100.0,0.0,3000.0,0.0
1513265400959961825,,532348,,1513265399,176751426,'',-0.25,0.159625326193,0.00932278075636,0.409625326193,0.001,-550.0,3100.0,0.0,3000.0,0.0
1513265400969860876,,532349,,1513265399,186751426,'',-0.25,0.159681320611,0.00223717913247,0.409681320611,0.001,-550.0,3100.0,0.0,3000.0,0.0
1513265400980301554,,532350,,1513265399,196751426,'',-0.25,0.159716354879,0.00152816325806,0.409716354879,0.001,-550.0,3100.0,0.0,3000.0,0.0
1513265400990247149,,532351,,1513265399,206751426,'',-0.25,0.15971314801,0.00159246593644,0.40971314801,0.001,-550.0,3100.0,0.0,3000.0,0.0
1513265401000024025,,532352,,1513265399,216751426,'',-0.25,0.159683460633,-0.00376544950791,0.409683460633,0.001,-550.0,3100.0,0.0,3000.0,0.0
1513265401010049569,,532353,,1513265399,226751426,'',-0.25,0.159622775005,-0.0084954354254,0.409622775005,0.001,-550.0,3100.0,0.0,3000.0,0.0
1513265401020023650,,532354,,1513265399,236751426,'',-0.25,0.159536148718,-0.0126972503467,0.409536148718,0.001,-550.0,3100.0,0.0,3000.0,0.0
1513265401030231271,,532355,,1513265399,246751426,'',-0.25,0.159448306593,-0.0109206198739,0.409448306593,0.001,-550.0,3100.0,0.0,3000.0,0.0
1513265401040312234,,532356,,1513265399,256751426,'',-0.25,0.159318038431,-0.0142465995729,0.409318038431,0.001,-550.0,3100.0,0.0,3000.0,0.0
1513265401050355358,,532357,,1513265399,266751426,'',-0.25,0.159173248881,-0.0113239289257,0.409173248881,0.001,-550.0,3100.0,0.0,3000.0,0.0
1513265401060327064,,532358,,1513265399,276751426,'',-0.25,0.158985364999,-0.0194395040823,0.408985364999,0.001,-550.0,3100.0,0.0,3000.0,0.0
1513265401070083928,,532359,,1513265399,286751426,'',-0.25,0.158777349387,-0.0211934991522,0.408777349387,0.001,-550.0,3100.0,0.0,3000.0,0.0
1513265401080083431,,532360,,1513265399,296751426,'',-0.25,0.15851484491,-0.0337573759583,0.40851484491,0.001,-550.0,3100.0,0.0,3000.0,0.0
1513265401089891401,,532361,,1513265399,306751426,'',-0.25,0.157908950686,-0.0870306475461,0.407908950686,0.001,-550.0,3100.0,0.0,3000.0,0.0
1513265401100378071,,532362,,1513265399,316751426,'',-0.25,0.156463182314,-0.206717180598,0.406463182314,0.001,-550.0,3100.0,0.0,3000.0,0.0
1513265401110333217,,532363,,1513265399,326751426,'',-0.25,0.153227262373,-0.433182710309,0.403227262373,0.001,67.905265588,3100.0,0.0,3000.0,0.0
1513265401120283458,,532364,,1513265399,336751426,'',-0.25,0.147217414724,-0.734631159698,0.397217414724,0.001,550.0,3100.0,0.0,3000.0,0.0
1513265401130269772,,532365,,1513265399,346751426,'',-0.25,0.138741945689,-0.896930643711,0.388741945689,0.001,550.0,3100.0,0.0,3000.0,0.0
1513265401140201139,,532366,,1513265399,356751426,'',-0.25,0.130344177641,-0.774932116408,0.380344177641,0.001,550.0,3100.0,0.0,3000.0,0.0
1513265401150156171,,532367,,1513265399,366751426,'',-0.25,0.123393310554,-0.634516204076,0.373393310554,0.001,550.0,3100.0,0.0,3000.0,0.0
1513265401160100572,,532368,,1513265399,376751426,'',-0.25,0.117724717945,-0.520003800517,0.367724717945,0.001,426.718593535,3100.0,0.0,3000.0,0.0
1513265401170083378,,532369,,1513265399,386751426,'',-0.25,0.113023349995,-0.425024548552,0.363023349995,0.001,190.788253641,3100.0,0.0,3000.0,0.0
1513265401180087263,,532370,,1513265399,396751426,'',-0.25,0.109148678715,-0.358663023532,0.359148678715,0.001,-21.1039258989,3100.0,0.0,3000.0,0.0
1513265401190030159,,532371,,1513265399,406751426,'',-0.25,0.105910940571,-0.299211455943,0.355910940571,0.001,-220.213983652,3100.0,0.0,3000.0,0.0
1513265401200418587,,532372,,1513265399,416751426,'',-0.25,0.103167760301,-0.261670732406,0.353167760301,0.001,-289.256651336,3100.0,0.0,3000.0,0.0
1513265401210417280,,532373,,1513265399,426751426,'',-0.25,0.100874074151,-0.215334535697,0.350874074151,0.001,-433.818463968,3100.0,0.0,3000.0,0.0
1513265401220246973,,532374,,1513265399,436751426,'',-0.25,0.0989046497878,-0.181504989369,0.348904649788,0.001,-534.374610651,3100.0,0.0,3000.0,0.0
1513265401230148715,,532375,,1513265399,446751426,'',-0.25,0.0972540147332,-0.154115971659,0.347254014733,0.001,-550.0,3100.0,0.0,3000.0,0.0
1513265401240164188,,532376,,1513265399,456751426,'',-0.25,0.0958738361675,-0.126232369684,0.345873836167,0.001,-550.0,3100.0,0.0,3000.0,0.0
1513265401250044068,,532377,,1513265399,466751426,'',-0.25,0.0947039878961,-0.108557163288,0.344703987896,0.001,-550.0,3100.0,0.0,3000.0,0.0
1513265401259979496,,532378,,1513265399,476751426,'',-0.25,0.0934859683037,-0.143508214594,0.343485968304,0.001,-550.0,3100.0,0.0,3000.0,0.0
1513265401270391186,,532379,,1513265399,486751426,'',-0.25,0.0914096960105,-0.27428077967,0.34140969601,0.001,-223.890012301,3100.0,0.0,3000.0,0.0
1513265401280332941,,532380,,1513265399,496751426,'',-0.25,0.087396313221,-0.508858879844,0.337396313221,0.001,488.263548778,3100.0,0.0,3000.0,0.0
1513265401290339265,,532381,,1513265399,506751426,'',-0.25,0.0811373629898,-0.692120106773,0.33113736299,0.001,550.0,3100.0,0.0,3000.0,0.0
1513265401300342294,,532382,,1513265399,516751426,'',-0.25,0.0742457196791,-0.660102638473,0.324245719679,0.001,550.0,3100.0,0.0,3000.0,0.0
1513265401310234726,,532383,,1513265399,526751426,'',-0.25,0.0683094493132,-0.546138511208,0.318309449313,0.001,550.0,3100.0,0.0,3000.0,0.0
1513265401320056712,,532384,,1513265399,536751426,'',-0.25,0.0633942480897,-0.452803968088,0.31339424809,0.001,391.033102194,3100.0,0.0,3000.0,0.0
1513265401330077044,,532385,,1513265399,546751426,'',-0.25,0.0593456913342,-0.365060356173,0.309345691334,0.001,128.476572356,3100.0,0.0,3000.0,0.0
1513265401340431546,,532386,,1513265399,556751426,'',-0.25,0.0560180394585,-0.303792716623,0.306018039458,0.001,-53.8056545255,3100.0,0.0,3000.0,0.0
1513265401350290933,,532387,,1513265399,566751426,'',-0.25,0.0532939982395,-0.248763891054,0.30329399824,0.001,-182.476286684,3100.0,0.0,3000.0,0.0
1513265401360232696,,532388,,1513265399,576751426,'',-0.25,0.0510634794917,-0.197748051177,0.301063479492,0.001,-336.956465731,3100.0,0.0,3000.0,0.0
1513265401370218882,,532389,,1513265399,586751426,'',-0.25,0.0492353770397,-0.166775353109,0.29923537704,0.001,-424.81848797,3100.0,0.0,3000.0,0.0
1513265401380079809,,532390,,1513265399,596751426,'',-0.25,0.047753949443,-0.136846918513,0.297753949443,0.001,-521.623469193,3100.0,0.0,3000.0,0.0
1513265401390243095,,532391,,1513265399,606751426,'',-0.25,0.0465328428228,-0.11217806237,0.296532842823,0.001,-550.0,3100.0,0.0,3000.0,0.0
1513265401400263480,,532392,,1513265399,616751426,'',-0.25,0.0455424880204,-0.0862156367982,0.29554248802,0.001,-550.0,3100.0,0.0,3000.0,0.0
1513265401409964939,,532393,,1513265399,626751426,'',-0.25,0.0447027466855,-0.0811647129475,0.294702746685,0.001,-550.0,3100.0,0.0,3000.0,0.0
1513265401420450207,,532394,,1513265399,636751426,'',-0.25,0.0437462790189,-0.121398411331,0.293746279019,0.001,-543.111514605,3100.0,0.0,3000.0,0.0
1513265401430434417,,532395,,1513265399,646751426,'',-0.25,0.0420233862014,-0.217620386154,0.292023386201,0.001,-249.158264797,3100.0,0.0,3000.0,0.0
1513265401440341151,,532396,,1513265399,656751426,'',-0.25,0.0391198155501,-0.361459826626,0.28911981555,0.001,192.466475635,3100.0,0.0,3000.0,0.0
1513265401450228934,,532397,,1513265399,666751426,'',-0.25,0.0347727963472,-0.488052288494,0.284772796347,0.001,550.0,3100.0,0.0,3000.0,0.0
1513265401460163274,,532398,,1513265399,676751426,'',-0.25,0.0297945724798,-0.48873240611,0.27979457248,0.001,550.0,3100.0,0.0,3000.0,0.0
1513265401470078508,,532399,,1513265399,686751426,'',-0.25,0.0253776209833,-0.405457781025,0.275377620983,0.001,377.556648125,3100.0,0.0,3000.0,0.0
1513265401480759347,,532400,,1513265399,696751426,'',-0.25,0.0217892082194,-0.327010421371,0.271789208219,0.001,141.252974287,3100.0,0.0,3000.0,0.0
1513265401490424157,,532401,,1513265399,706751426,'',-0.25,0.0188516659712,-0.267668439032,0.268851665971,0.001,-22.3670050868,3100.0,0.0,3000.0,0.0
1513265401500718506,,532402,,1513265399,716751426,'',-0.25,0.0164134916911,-0.218413729445,0.266413491691,0.001,-152.059016715,3100.0,0.0,3000.0,0.0
1513265401510554717,,532403,,1513265399,726751426,'',-0.25,0.0144301681791,-0.184302809973,0.264430168179,0.001,-265.260024587,3100.0,0.0,3000.0,0.0
1513265401520427643,,532404,,1513265399,736751426,'',-0.25,0.012796746189,-0.15130488645,0.262796746189,0.001,-359.357858598,3100.0,0.0,3000.0,0.0
1513265401530492212,,532405,,1513265399,746751426,'',-0.25,0.0114284502648,-0.129620022585,0.261428450265,0.001,-423.462232158,3100.0,0.0,3000.0,0.0
1513265401540390502,,532406,,1513265399,756751426,'',-0.25,0.010314162066,-0.101154636486,0.260314162066,0.001,-502.284091784,3100.0,0.0,3000.0,0.0
1513265401550316062,,532407,,1513265399,766751426,'',-0.25,0.00934524175214,-0.09349135581,0.259345241752,0.001,-519.791787894,3100.0,0.0,3000.0,0.0
1513265401560536373,,532408,,1513265399,776751426,'',-0.25,0.00827967413099,-0.125566764362,0.258279674131,0.001,-422.804264039,3100.0,0.0,3000.0,0.0
1513265401570264393,,532409,,1513265399,786751426,'',-0.25,0.00634396730918,-0.276607804115,0.256343967309,0.001,39.5034903691,3100.0,0.0,3000.0,0.0
1513265401580660106,,532410,,1513265399,796751426,'',-0.25,0.00223597957619,-0.518364500252,0.252235979576,0.001,550.0,3100.0,0.0,3000.0,0.0
1513265401590684993,,532411,,1513265399,806751426,'',-0.25,-0.0039034592024,-0.644854934349,0.246096540798,0.001,550.0,3100.0,0.0,3000.0,0.0
1513265401600742045,,532412,,1513265399,816751426,'',-0.25,-0.00989869338489,-0.542302817683,0.240101306615,0.001,550.0,3100.0,0.0,3000.0,0.0
1513265401610685009,,532413,,1513265399,826751426,'',-0.25,-0.0147574977449,-0.444144807134,0.235242502255,0.001,550.0,3100.0,0.0,3000.0,0.0
1513265401620273846,,532414,,1513265399,836751426,'',-0.25,-0.0187269034228,-0.354679773622,0.231273096577,0.001,354.722649742,3100.0,0.0,3000.0,0.0
1513265401630115752,,532415,,1513265399,846751426,'',-0.25,-0.0219560778365,-0.289443444895,0.228043922164,0.001,155.29505932,3100.0,0.0,3000.0,0.0
1513265401640360571,,532416,,1513265399,856751426,'',-0.25,-0.0245603518506,-0.236833620499,0.225439648149,0.001,16.5764770385,3100.0,0.0,3000.0,0.0
1513265401650568754,,532417,,1513265399,866751426,'',-0.25,-0.0267374405562,-0.192859091079,0.223262559444,0.001,-106.600199116,3100.0,0.0,3000.0,0.0
1513265401660600508,,532418,,1513265399,876751426,'',-0.25,-0.0284835265564,-0.157587243095,0.221516473444,0.001,-212.031265568,3100.0,0.0,3000.0,0.0
1513265401670443222,,532419,,1513265399,886751426,'',-0.25,-0.0298894664267,-0.129185816099,0.220110533573,0.001,-292.380998557,3100.0,0.0,3000.0,0.0
1513265401680567613,,532420,,1513265399,896751426,'',-0.25,-0.0310474106511,-0.105794145618,0.218952589349,0.001,-365.592125721,3100.0,0.0,3000.0,0.0
1513265401690300078,,532421,,1513265399,906751426,'',-0.25,-0.0319974239061,-0.0866028956914,0.218002576094,0.001,-412.32249693,3100.0,0.0,3000.0,0.0
1513265401700364105,,532422,,1513265399,916751426,'',-0.25,-0.0327741155886,-0.0709129207183,0.217225884411,0.001,-459.597938654,3100.0,0.0,3000.0,0.0
1513265401710449877,,532423,,1513265399,926751426,'',-0.25,-0.0334375749136,-0.066789429688,0.216562425086,0.001,-465.100925487,3100.0,0.0,3000.0,0.0
1513265401720536711,,532424,,1513265399,936751426,'',-0.25,-0.0340021382458,-0.0461048064318,0.215997861754,0.001,-530.718353185,3100.0,0.0,3000.0,0.0
1513265401730562890,,532425,,1513265399,946751426,'',-0.25,-0.0345174008678,-0.0542542136814,0.215482599132,0.001,-504.540036605,3100.0,0.0,3000.0,0.0
1513265401740541416,,532426,,1513265399,956751426,'',-0.25,-0.0351871335869,-0.096392560669,0.214812866413,0.001,-375.293136093,3100.0,0.0,3000.0,0.0
1513265401750663712,,532427,,1513265399,966751426,'',-0.25,-0.0368559419096,-0.238970630053,0.21314405809,0.001,67.8612369868,3100.0,0.0,3000.0,0.0
1513265401760575293,,532428,,1513265399,976751426,'',-0.25,-0.0403460906971,-0.446816083865,0.209653909303,0.001,550.0,3100.0,0.0,3000.0,0.0
1513265401770259934,,532429,,1513265399,986751426,'',-0.25,-0.0455694369777,-0.55469991972,0.204430563022,0.001,550.0,3100.0,0.0,3000.0,0.0
1513265401780436557,,532430,,1513265399,996751426,'',-0.25,-0.0506417482233,-0.461510231264,0.199358251777,0.001,550.0,3100.0,0.0,3000.0,0.0
1513265401790402783,,532431,,1513265400,6751426,'',-0.25,-0.0548493531532,-0.37650562146,0.195150646847,0.001,526.947906611,3100.0,0.0,3000.0,0.0
1513265401800519753,,532432,,1513265400,16751426,'',-0.25,-0.058272344209,-0.30736146213,0.191727655791,0.001,317.465968211,3100.0,0.0,3000.0,0.0
1513265401810577906,,532433,,1513265400,26751426,'',-0.25,-0.060998213438,-0.252298333649,0.189001786562,0.001,181.698349315,3100.0,0.0,3000.0,0.0
1513265401820160116,,532434,,1513265400,36751426,'',-0.25,-0.0632120286263,-0.207572189053,0.186787971374,0.001,47.5486861858,3100.0,0.0,3000.0,0.0
1513265401830241187,,532435,,1513265400,46751426,'',-0.25,-0.0650503823146,-0.170437465343,0.184949617685,0.001,-58.853482643,3100.0,0.0,3000.0,0.0
1513265401840619165,,532436,,1513265400,56751426,'',-0.25,-0.066555499784,-0.130756548349,0.183444500216,0.001,-174.448133138,3100.0,0.0,3000.0,0.0
1513265401850416912,,532437,,1513265400,66751426,'',-0.25,-0.0677856344474,-0.105910937064,0.182214365553,0.001,-250.377347988,3100.0,0.0,3000.0,0.0
1513265401860581040,,532438,,1513265400,76751426,'',-0.25,-0.0688288270485,-0.103393507969,0.181171172952,0.001,-249.837581109,3100.0,0.0,3000.0,0.0
1513265401870536201,,532439,,1513265400,86751426,'',-0.25,-0.0696741455916,-0.0770372759045,0.180325854408,0.001,-325.303600043,3100.0,0.0,3000.0,0.0
1513265401880295835,,532440,,1513265400,96751426,'',-0.25,-0.0703735349795,-0.062907754325,0.17962646502,0.001,-367.134318204,3100.0,0.0,3000.0,0.0
1513265401890139318,,532441,,1513265400,106751426,'',-0.25,-0.070947164485,-0.0513193706073,0.179052835515,0.001,-400.153644875,3100.0,0.0,3000.0,0.0
1513265401900703405,,532442,,1513265400,116751426,'',-0.25,-0.0714071118451,-0.0420277758616,0.178592888155,0.001,-429.082344719,3100.0,0.0,3000.0,0.0
1513265401910433732,,532443,,1513265400,126751426,'',-0.25,-0.0717770039955,-0.0345564517958,0.178222996004,0.001,-447.160226296,3100.0,0.0,3000.0,0.0
1513265401920683729,,532444,,1513265400,136751426,'',-0.25,-0.072104924034,-0.0372106730138,0.177895075966,0.001,-439.263700767,3100.0,0.0,3000.0,0.0
1513265401930589821,,532445,,1513265400,146751426,'',-0.25,-0.0725977745568,-0.0736481099807,0.177402225443,0.001,-327.218665282,3100.0,0.0,3000.0,0.0
1513265401940880727,,532446,,1513265400,156751426,'',-0.25,-0.0740077082795,-0.202896745522,0.175992291721,0.001,65.5582841291,3100.0,0.0,3000.0,0.0
1513265401950475150,,532447,,1513265400,166751426,'',-0.25,-0.0771310781158,-0.399598228828,0.172868921884,0.001,550.0,3100.0,0.0,3000.0,0.0
1513265401960842295,,532448,,1513265400,176751426,'',-0.25,-0.0819357777851,-0.515941320877,0.168064222215,0.001,550.0,3100.0,0.0,3000.0,0.0
1513265401970393422,,532449,,1513265400,186751426,'',-0.25,-0.086812652832,-0.454533113604,0.163187347168,0.001,550.0,3100.0,0.0,3000.0,0.0
1513265401980756045,,532450,,1513265400,196751426,'',-0.25,-0.0908593901796,-0.372785223521,0.15914060982,0.001,550.0,3100.0,0.0,3000.0,0.0
1513265401990461881,,532451,,1513265400,206751426,'',-0.25,-0.0941423263193,-0.297189174429,0.155857673681,0.001,393.087171386,3100.0,0.0,3000.0,0.0
1513265402000688474,,532452,,1513265400,216751426,'',-0.25,-0.0968178653542,-0.243139286145,0.153182134646,0.001,258.174347103,3100.0,0.0,3000.0,0.0
1513265402010559541,,532453,,1513265400,226751426,'',-0.25,-0.0990102332959,-0.198847614782,0.150989766704,0.001,136.327229859,3100.0,0.0,3000.0,0.0
1513265402020413302,,532454,,1513265400,236751426,'',-0.25,-0.100836405097,-0.171231930759,0.149163594903,0.001,54.4709203492,3100.0,0.0,3000.0,0.0
1513265402030329728,,532455,,1513265400,246751426,'',-0.25,-0.102290301069,-0.132582475893,0.147709698931,0.001,-58.0698814339,3100.0,0.0,3000.0,0.0
1513265402040733125,,532456,,1513265400,256751426,'',-0.25,-0.103494508059,-0.108256138538,0.146505491941,0.001,-134.970476973,3100.0,0.0,3000.0,0.0
1513265402050388633,,532457,,1513265400,266751426,'',-0.25,-0.104474895926,-0.0884508892627,0.145525104074,0.001,-181.764159957,3100.0,0.0,3000.0,0.0
1513265402060285032,,532458,,1513265400,276751426,'',-0.25,-0.105268298138,-0.0724233477712,0.144731701862,0.001,-230.102681836,3100.0,0.0,3000.0,0.0
1513265402070372941,,532459,,1513265400,286751426,'',-0.25,-0.105918465571,-0.059289296269,0.144081534429,0.001,-271.493237135,3100.0,0.0,3000.0,0.0
1513265402080407577,,532460,,1513265400,296751426,'',-0.25,-0.10644967017,-0.048558416469,0.14355032983,0.001,-298.74280539,3100.0,0.0,3000.0,0.0
1513265402090162099,,532461,,1513265400,306751426,'',-0.25,-0.106919071636,-0.0390788381016,0.143080928364,0.001,-324.663774672,3100.0,0.0,3000.0,0.0
1513265402100481061,,532462,,1513265400,316751426,'',-0.25,-0.107311516307,-0.0404298465125,0.142688483693,0.001,-320.448423887,3100.0,0.0,3000.0,0.0
1513265402110518302,,532463,,1513265400,326751426,'',-0.25,-0.107641270409,-0.0337645355212,0.142358729591,0.001,-342.046748425,3100.0,0.0,3000.0,0.0
1513265402120397490,,532464,,1513265400,336751426,'',-0.25,-0.107887387273,-0.019513970196,0.142112612727,0.001,-381.767649687,3100.0,0.0,3000.0,0.0
1513265402130308916,,532465,,1513265400,346751426,'',-0.25,-0.108079693763,-0.0156286469364,0.141920306237,0.001,-392.54538955,3100.0,0.0,3000.0,0.0
1513265402140160597,,532466,,1513265400,356751426,'',-0.25,-0.108246006132,-0.0215457827158,0.141753993868,0.001,-374.389763706,3100.0,0.0,3000.0,0.0
1513265402150435758,,532467,,1513265400,366751426,'',-0.25,-0.108520561784,-0.0438336335021,0.141479438216,0.001,-306.543325075,3100.0,0.0,3000.0,0.0
1513265402160080425,,532468,,1513265400,376751426,'',-0.25,-0.109501125118,-0.153924250055,0.140498874882,0.001,28.0918246955,3100.0,0.0,3000.0,0.0
1513265402170057877,,532469,,1513265400,386751426,'',-0.25,-0.112090941735,-0.342846150165,0.137909058265,0.001,550.0,3100.0,0.0,3000.0,0.0
1513265402180117942,,532470,,1513265400,396751426,'',-0.25,-0.116196865109,-0.436188621204,0.133803134891,0.001,550.0,3100.0,0.0,3000.0,0.0
1513265402190062995,,532471,,1513265400,406751426,'',-0.25,-0.120224482281,-0.364103245648,0.129775517719,0.001,550.0,3100.0,0.0,3000.0,0.0
1513265402200406284,,532472,,1513265400,416751426,'',-0.25,-0.123515138245,-0.297626805372,0.126484861755,0.001,507.180421502,3100.0,0.0,3000.0,0.0
1513265402210367697,,532473,,1513265400,426751426,'',-0.25,-0.1262278305,-0.242829882721,0.1237721695,0.001,349.136723032,3100.0,0.0,3000.0,0.0
1513265402220319728,,532474,,1513265400,436751426,'',-0.25,-0.128415760762,-0.198630995151,0.121584239238,0.001,219.519641016,3100.0,0.0,3000.0,0.0
1513265402230199429,,532475,,1513265400,446751426,'',-0.25,-0.130257911246,-0.170695602965,0.119742088754,0.001,144.555762981,3100.0,0.0,3000.0,0.0
1513265402240178816,,532476,,1513265400,456751426,'',-0.25,-0.131744766027,-0.131379496754,0.118255233973,0.001,20.4118563975,3100.0,0.0,3000.0,0.0
1513265402250068862,,532477,,1513265400,466751426,'',-0.25,-0.132958313931,-0.106866867341,0.117041686069,0.001,-38.0024600634,3100.0,0.0,3000.0,0.0
1513265402260043733,,532478,,1513265400,476751426,'',-0.25,-0.133962793004,-0.0958537278155,0.116037206996,0.001,-63.1681249975,3100.0,0.0,3000.0,0.0
1513265402270518004,,532479,,1513265400,486751426,'',-0.25,-0.13481271737,-0.0786849861108,0.11518728263,0.001,-118.14406432,3100.0,0.0,3000.0,0.0
1513265402280449946,,532480,,1513265400,496751426,'',-0.25,-0.135518507109,-0.0644270528083,0.114481492891,0.001,-160.229673963,3100.0,0.0,3000.0,0.0
1513265402290762021,,532481,,1513265400,506751426,'',-0.25,-0.136096977311,-0.0527390594131,0.113903022689,0.001,-194.087711848,3100.0,0.0,3000.0,0.0
1513265402300246871,,532482,,1513265400,516751426,'',-0.25,-0.136578884702,-0.0430034373848,0.113421115298,0.001,-222.069172217,3100.0,0.0,3000.0,0.0
1513265402310073870,,532483,,1513265400,526751426,'',-0.25,-0.1369824355,-0.0441328049224,0.1130175645,0.001,-216.756509875,3100.0,0.0,3000.0,0.0
1513265402320161279,,532484,,1513265400,536751426,'',-0.25,-0.137353074287,-0.0366476212699,0.112646925713,0.001,-238.829661082,3100.0,0.0,3000.0,0.0
1513265402330362964,,532485,,1513265400,546751426,'',-0.25,-0.137631971896,-0.0217357792732,0.112368028104,0.001,-281.296324052,3100.0,0.0,3000.0,0.0
1513265402340131855,,532486,,1513265400,556751426,'',-0.25,-0.137844369039,-0.0267266055606,0.112155630961,0.001,-267.027052414,3100.0,0.0,3000.0,0.0
1513265402350594684,,532487,,1513265400,566751426,'',-0.25,-0.138025354945,-0.0137937176872,0.111974645055,0.001,-305.519811267,3100.0,0.0,3000.0,0.0
1513265402360537055,,532488,,1513265400,576751426,'',-0.25,-0.138173349475,-0.0108048404988,0.111826650525,0.001,-314.902224073,3100.0,0.0,3000.0,0.0
1513265402370775109,,532489,,1513265400,586751426,'',-0.25,-0.138320985992,-0.0171012888942,0.111679014008,0.001,-294.724328008,3100.0,0.0,3000.0,0.0
1513265402380340115,,532490,,1513265400,596751426,'',-0.25,-0.138415857378,-0.00590448938775,0.111584142622,0.001,-328.201225168,3100.0,0.0,3000.0,0.0
1513265402390336338,,532491,,1513265400,606751426,'',-0.25,-0.138521099222,-0.0223347688948,0.111478900778,0.001,-277.78472448,3100.0,0.0,3000.0,0.0
1513265402400277522,,532492,,1513265400,616751426,'',-0.25,-0.138947391723,-0.0693931356289,0.111052608277,0.001,-134.866549597,3100.0,0.0,3000.0,0.0
1513265402410109699,,532493,,1513265400,626751426,'',-0.25,-0.140378759721,-0.207492157529,0.109621240279,0.001,286.922204462,3100.0,0.0,3000.0,0.0
1513265402420035258,,532494,,1513265400,636751426,'',-0.25,-0.143081112927,-0.31063261093,0.106918887073,0.001,550.0,3100.0,0.0,3000.0,0.0
1513265402430566736,,532495,,1513265400,646751426,'',-0.25,-0.146174508421,-0.285250483295,0.103825491579,0.001,519.190883726,3100.0,0.0,3000.0,0.0
1513265402440014051,,532496,,1513265400,656751426,'',-0.25,-0.148777384586,-0.241945473822,0.101222615414,0.001,418.630933443,3100.0,0.0,3000.0,0.0
1513265402450435571,,532497,,1513265400,666751426,'',-0.25,-0.150924058246,-0.18929846161,0.0990759417538,0.001,264.278217349,3100.0,0.0,3000.0,0.0
1513265402460366066,,532498,,1513265400,676751426,'',-0.25,-0.152674097379,-0.163221573229,0.0973259026212,0.001,190.405457063,3100.0,0.0,3000.0,0.0
1513265402470370761,,532499,,1513265400,686751426,'',-0.25,-0.154106242485,-0.134290295424,0.0958937575151,0.001,108.395008512,3100.0,0.0,3000.0,0.0
1513265402480232418,,532500,,1513265400,696751426,'',-0.25,-0.155292975957,-0.110319964098,0.0947070240434,0.001,32.0056489534,3100.0,0.0,3000.0,0.0
1513265402490459619,,532501,,1513265400,706751426,'',-0.25,-0.156267909212,-0.0906255156477,0.0937320907884,0.001,-21.2012966206,3100.0,0.0,3000.0,0.0
1513265402500409678,,532502,,1513265400,716751426,'',-0.25,-0.157055948882,-0.0747081612315,0.0929440511177,0.001,-63.593828752,3100.0,0.0,3000.0,0.0
1513265402510242820,,532503,,1513265400,726751426,'',-0.25,-0.157692583369,-0.0618465496632,0.0923074166305,0.001,-97.9953987903,3100.0,0.0,3000.0,0.0
1513265402520006741,,532504,,1513265400,736751426,'',-0.25,-0.158206105199,-0.0514713114522,0.091793894801,0.001,-129.043494072,3100.0,0.0,3000.0,0.0
1513265402530446777,,532505,,1513265400,746751426,'',-0.25,-0.158610574484,-0.0432983515451,0.0913894255163,0.001,-152.477407433,3100.0,0.0,3000.0,0.0
1513265402540427585,,532506,,1513265400,756751426,'',-0.25,-0.158990494384,-0.0356232288212,0.0910095056161,0.001,-176.444920783,3100.0,0.0,3000.0,0.0
1513265402550359600,,532507,,1513265400,766751426,'',-0.25,-0.159253534261,-0.0303135351923,0.0907464657388,0.001,-189.268900471,3100.0,0.0,3000.0,0.0
1513265402560258608,,532508,,1513265400,776751426,'',-0.25,-0.159516475698,-0.0250015133164,0.0904835243019,0.001,-205.125567008,3100.0,0.0,3000.0,0.0
1513265402570228605,,532509,,1513265400,786751426,'',-0.25,-0.159733137716,-0.0206197078657,0.0902668622845,0.001,-217.158202875,3100.0,0.0,3000.0,0.0
1513265402580001763,,532510,,1513265400,796751426,'',-0.25,-0.159900589925,-0.00795407595888,0.0900994100749,0.001,-255.251916501,3100.0,0.0,3000.0,0.0
1513265402590439002,,532511,,1513265400,806751426,'',-0.25,-0.160055218643,-0.0141108009295,0.0899447813571,0.001,-236.604729587,3100.0,0.0,3000.0,0.0
1513265402600323232,,532512,,1513265400,816751426,'',-0.25,-0.160173852707,-0.0117134855711,0.089826147293,0.001,-243.125950702,3100.0,0.0,3000.0,0.0
1513265402610215949,,532513,,1513265400,826751426,'',-0.25,-0.160262817236,-0.00991999770883,0.0897371827645,0.001,-248.0320378,3100.0,0.0,3000.0,0.0
1513265402620153097,,532514,,1513265400,836751426,'',-0.25,-0.160344118726,-0.0082809227985,0.0896558812745,0.001,-252.788870322,3100.0,0.0,3000.0,0.0
1513265402630202937,,532515,,1513265400,846751426,'',-0.25,-0.160385198447,-0.0074511418296,0.0896148015527,0.001,-255.316102764,3100.0,0.0,3000.0,0.0
1513265402640037950,,532516,,1513265400,856751426,'',-0.25,-0.16047094274,-0.0149961909058,0.0895290572598,0.001,-233.462983841,3100.0,0.0,3000.0,0.0
1513265402649964921,,532517,,1513265400,866751426,'',-0.25,-0.160933600231,-0.0798772139985,0.0890663997685,0.001,-45.200478363,3100.0,0.0,3000.0,0.0
1513265402660028810,,532518,,1513265400,876751426,'',-0.25,-0.162285467497,-0.19174570621,0.0877145325026,0.001,304.523198983,3100.0,0.0,3000.0,0.0
1513265402670363097,,532519,,1513265400,886751426,'',-0.25,-0.164531475227,-0.239157506519,0.085468524773,0.001,462.659233564,3100.0,0.0,3000.0,0.0
1513265402680446552,,532520,,1513265400,896751426,'',-0.25,-0.166785073692,-0.202909161545,0.0832149263082,0.001,353.208473915,3100.0,0.0,3000.0,0.0
1513265402690377060,,532521,,1513265400,906751426,'',-0.25,-0.168656826485,-0.174379625263,0.0813431735151,0.001,273.570186081,3100.0,0.0,3000.0,0.0
1513265402700530877,,532522,,1513265400,916751426,'',-0.25,-0.170196502548,-0.143277550732,0.0798034974523,0.001,185.499209389,3100.0,0.0,3000.0,0.0
1513265402710173782,,532523,,1513265400,926751426,'',-0.25,-0.171438335728,-0.108910053261,0.0785616642723,0.001,87.483599724,3100.0,0.0,3000.0,0.0
1513265402720110538,,532524,,1513265400,936751426,'',-0.25,-0.172422893863,-0.0890200224242,0.0775771061369,0.001,27.894631104,3100.0,0.0,3000.0,0.0
1513265402730342435,,532525,,1513265400,946751426,'',-0.25,-0.173230710646,-0.0727005057143,0.0767692893545,0.001,-17.2787558588,3100.0,0.0,3000.0,0.0
1513265402740433407,,532526,,1513265400,956751426,'',-0.25,-0.173882748737,-0.0595281119197,0.0761172512633,0.001,-56.6658778642,3100.0,0.0,3000.0,0.0
1513265402749999760,,532527,,1513265400,966751426,'',-0.25,-0.174415406355,-0.0394900636376,0.0755845936446,0.001,-117.882864748,3100.0,0.0,3000.0,0.0
1513265402760496662,,532528,,1513265400,976751426,'',-0.25,-0.174853226381,-0.0399241163376,0.0751467736195,0.001,-114.900387153,3100.0,0.0,3000.0,0.0
1513265402770454975,,532529,,1513265400,986751426,'',-0.25,-0.175211840995,-0.0326791600555,0.074788159005,0.001,-132.520670385,3100.0,0.0,3000.0,0.0
1513265402780483726,,532530,,1513265400,996751426,'',-0.25,-0.175504892245,-0.0267587557874,0.0744951077551,0.001,-150.263593896,3100.0,0.0,3000.0,0.0
1513265402790506748,,532531,,1513265401,6751426,'',-0.25,-0.17573671074,-0.0220773783232,0.0742632892598,0.001,-163.58436718,3100.0,0.0,3000.0,0.0
1513265402800497716,,532532,,1513265401,16751426,'',-0.25,-0.175934497668,-0.0180812077597,0.0740655023316,0.001,-176.403259393,3100.0,0.0,3000.0,0.0
1513265402810462330,,532533,,1513265401,26751426,'',-0.25,-0.176096951847,-0.0147989149875,0.0739030481533,0.001,-183.985718564,3100.0,0.0,3000.0,0.0
1513265402820278557,,532534,,1513265401,36751426,'',-0.25,-0.176237591678,-0.0119584286721,0.0737624083225,0.001,-192.574881029,3100.0,0.0,3000.0,0.0
1513265402830167707,,532535,,1513265401,46751426,'',-0.25,-0.176344907203,-0.00978998826363,0.0736550927969,0.001,-198.821560311,3100.0,0.0,3000.0,0.0
1513265402840120360,,532536,,1513265401,56751426,'',-0.25,-0.176432606024,-0.00801792718179,0.0735673939764,0.001,-205.008346051,3100.0,0.0,3000.0,0.0
1513265402850275578,,532537,,1513265401,66751426,'',-0.25,-0.176504625896,-0.00656267826758,0.0734953741037,0.001,-208.310220229,3100.0,0.0,3000.0,0.0
1513265402860239061,,532538,,1513265401,76751426,'',-0.25,-0.17659764826,-0.0046848032074,0.0734023517403,0.001,-213.769718026,3100.0,0.0,3000.0,0.0
1513265402870496701,,532539,,1513265401,86751426,'',-0.25,-0.176740716929,-0.0203508204557,0.073259283071,0.001,-165.077429503,3100.0,0.0,3000.0,0.0
1513265402880383656,,532540,,1513265401,96751426,'',-0.25,-0.176949594042,-0.0254129271898,0.0730504059585,0.001,-149.927597291,3100.0,0.0,3000.0,0.0
1513265402890382415,,532541,,1513265401,106751426,'',-0.25,-0.177256552107,-0.0377687200175,0.0727434478932,0.001,-111.622952005,3100.0,0.0,3000.0,0.0
1513265402900310310,,532542,,1513265401,116751426,'',-0.25,-0.177860790932,-0.0812284798848,0.0721392090684,0.001,15.8669905061,3100.0,0.0,3000.0,0.0
1513265402910159844,,532543,,1513265401,126751426,'',-0.25,-0.17887450435,-0.116420367937,0.07112549565,0.001,133.706746796,3100.0,0.0,3000.0,0.0
1513265402920474411,,532544,,1513265401,136751426,'',-0.25,-0.18016495754,-0.136743087094,0.0698350424595,0.001,195.388865035,3100.0,0.0,3000.0,0.0
1513265402930439427,,532545,,1513265401,146751426,'',-0.25,-0.181361290413,-0.112568121893,0.0686387095865,0.001,129.068996389,3100.0,0.0,3000.0,0.0
1513265402940425459,,532546,,1513265401,156751426,'',-0.25,-0.182370984231,-0.0921722303412,0.0676290157687,0.001,67.9959153464,3100.0,0.0,3000.0,0.0
1513265402950312888,,532547,,1513265401,166751426,'',-0.25,-0.183207170753,-0.0752809460531,0.0667928292473,0.001,13.9982076919,3100.0,0.0,3000.0,0.0
1513265402960228207,,532548,,1513265401,176751426,'',-0.25,-0.183898621696,-0.0705916995345,0.0661013783045,0.001,2.83019616493,3100.0,0.0,3000.0,0.0
1513265402970256413,,532549,,1513265401,186751426,'',-0.25,-0.184491507596,-0.0493356707385,0.0655084924043,0.001,-52.8194238739,3100.0,0.0,3000.0,0.0
1513265402980159477,,532550,,1513265401,196751426,'',-0.25,-0.184975495402,-0.0488386635743,0.0650245045979,0.001,-54.3202684058,3100.0,0.0,3000.0,0.0
1513265402990477664,,532551,,1513265401,206751426,'',-0.25,-0.185389645923,-0.0404749985472,0.0646103540771,0.001,-78.1437082566,3100.0,0.0,3000.0,0.0
1513265403000484002,,532552,,1513265401,216751426,'',-0.25,-0.185736444277,-0.0334689355598,0.0642635557229,0.001,-98.2835530353,3100.0,0.0,3000.0,0.0
1513265403010387729,,532553,,1513265401,226751426,'',-0.25,-0.18600309744,-0.0280813579081,0.0639969025604,0.001,-115.507049696,3100.0,0.0,3000.0,0.0
1513265403020371876,,532554,,1513265401,236751426,'',-0.25,-0.186238449055,-0.0233304650973,0.0637615509453,0.001,-127.528912873,3100.0,0.0,3000.0,0.0
1513265403030449032,,532555,,1513265401,246751426,'',-0.25,-0.186447890747,-0.0190990960336,0.0635521092534,0.001,-141.91623059,3100.0,0.0,3000.0,0.0
1513265403040218168,,532556,,1513265401,256751426,'',-0.25,-0.18661930241,-0.0156360510173,0.0633806975904,0.001,-149.579503802,3100.0,0.0,3000.0,0.0
1513265403050143181,,532557,,1513265401,266751426,'',-0.25,-0.186751411071,-0.0129687269785,0.0632485889288,0.001,-157.016451455,3100.0,0.0,3000.0,0.0
1513265403060064178,,532558,,1513265401,276751426,'',-0.25,-0.186876159769,-0.0104475823497,0.0631238402314,0.001,-164.854222481,3100.0,0.0,3000.0,0.0
1513265403070481709,,532559,,1513265401,286751426,'',-0.25,-0.18699586968,-0.0173038072069,0.0630041303202,0.001,-142.711027912,3100.0,0.0,3000.0,0.0
1513265403080361758,,532560,,1513265401,296751426,'',-0.25,-0.187213592788,-0.0314630398317,0.0627864072121,0.001,-99.8648604631,3100.0,0.0,3000.0,0.0
1513265403090251018,,532561,,1513265401,306751426,'',-0.25,-0.187650825071,-0.0597478404402,0.0623491749295,0.001,-13.3253244445,3100.0,0.0,3000.0,0.0
1513265403100335673,,532562,,1513265401,316751426,'',-0.25,-0.188495382014,-0.0983573325063,0.0615046179864,0.001,105.302259532,3100.0,0.0,3000.0,0.0
1513265403110113858,,532563,,1513265401,326751426,'',-0.25,-0.189549334614,-0.104899839452,0.0604506653857,0.001,128.185749443,3100.0,0.0,3000.0,0.0
1513265403120034446,,532564,,1513265401,336751426,'',-0.25,-0.190515337457,-0.094662215872,0.059484662543,0.001,94.4366664716,3100.0,0.0,3000.0,0.0
1513265403130060590,,532565,,1513265401,346751426,'',-0.25,-0.191358050374,-0.0776380751768,0.0586419496264,0.001,54.4188488609,3100.0,0.0,3000.0,0.0
1513265403140494277,,532566,,1513265401,356751426,'',-0.25,-0.19206342583,-0.0633885025169,0.0579365741703,0.001,13.4816441453,3100.0,0.0,3000.0,0.0
1513265403150462486,,532567,,1513265401,366751426,'',-0.25,-0.192664868842,-0.051240481603,0.0573351311583,0.001,-23.2549706819,3100.0,0.0,3000.0,0.0
1513265403160278048,,532568,,1513265401,376751426,'',-0.25,-0.193199541217,-0.0497208918595,0.0568004587828,0.001,-26.3319742743,3100.0,0.0,3000.0,0.0
1513265403170129234,,532569,,1513265401,386751426,'',-0.25,-0.193629285158,-0.0410386647355,0.0563707148418,0.001,-50.6743169731,3100.0,0.0,3000.0,0.0
1513265403180059505,,532570,,1513265401,396751426,'',-0.25,-0.193980480946,-0.0339448057362,0.0560195190541,0.001,-73.3662906778,3100.0,0.0,3000.0,0.0
1513265403190500405,,532571,,1513265401,406751426,'',-0.25,-0.194252594409,-0.0284430149603,0.055747405591,0.001,-86.4446043475,3100.0,0.0,3000.0,0.0
1513265403200477079,,532572,,1513265401,416751426,'',-0.25,-0.194482028274,-0.014527482111,0.0555179717256,0.001,-128.339814527,3100.0,0.0,3000.0,0.0
1513265403210428215,,532573,,1513265401,426751426,'',-0.25,-0.194679251607,-0.0198268477858,0.0553207483931,0.001,-111.652924554,3100.0,0.0,3000.0,0.0
1513265403220294134,,532574,,1513265401,436751426,'',-0.25,-0.194832899506,-0.0167227705243,0.055167100494,0.001,-120.545919304,3100.0,0.0,3000.0,0.0
1513265403230195327,,532575,,1513265401,446751426,'',-0.25,-0.194975017398,-0.0138514058412,0.0550249826024,0.001,-128.82160062,3100.0,0.0,3000.0,0.0
1513265403240085918,,532576,,1513265401,456751426,'',-0.25,-0.195066093456,-0.0120093235263,0.0549339065442,0.001,-134.927831183,3100.0,0.0,3000.0,0.0
1513265403250123852,,532577,,1513265401,466751426,'',-0.25,-0.19515826015,-0.0101491994757,0.0548417398505,0.001,-140.051883126,3100.0,0.0,3000.0,0.0
1513265403260787324,,532578,,1513265401,476751426,'',-0.25,-0.195291241673,-0.0167397743304,0.0547087583272,0.001,-119.175674965,3100.0,0.0,3000.0,0.0
1513265403269959933,,532579,,1513265401,486751426,'',-0.25,-0.195554162225,-0.0392652831749,0.0544458377754,0.001,-49.4391428665,3100.0,0.0,3000.0,0.0
1513265403280356867,,532580,,1513265401,496751426,'',-0.25,-0.196078689709,-0.0657814330718,0.0539213102907,0.001,30.7911246229,3100.0,0.0,3000.0,0.0
1513265403290296064,,532581,,1513265401,506751426,'',-0.25,-0.196847825023,-0.0780824178983,0.0531521749768,0.001,70.8582557641,3100.0,0.0,3000.0,0.0
1513265403300248391,,532582,,1513265401,516751426,'',-0.25,-0.197606115189,-0.0720389517828,0.0523938848108,0.001,49.7773157519,3100.0,0.0,3000.0,0.0
1513265403310144255,,532583,,1513265401,526751426,'',-0.25,-0.198253753959,-0.058955772652,0.0517462460411,0.001,20.1897294684,3100.0,0.0,3000.0,0.0
1513265403320546139,,532584,,1513265401,536751426,'',-0.25,-0.198816880906,-0.0568565357753,0.0511831190936,0.001,8.97863385007,3100.0,0.0,3000.0,0.0
1513265403330509573,,532585,,1513265401,546751426,'',-0.25,-0.199286440799,-0.0380949520309,0.0507135592012,0.001,-42.3602111507,3100.0,0.0,3000.0,0.0
1513265403340455128,,532586,,1513265401,556751426,'',-0.25,-0.199695197126,-0.0391182819632,0.0503048028743,0.001,-40.9814605273,3100.0,0.0,3000.0,0.0
1513265403350489479,,532587,,1513265401,566751426,'',-0.25,-0.200022702363,-0.032501845658,0.0499772976366,0.001,-56.9231332665,3100.0,0.0,3000.0,0.0
1513265403360309226,,532588,,1513265401,576751426,'',-0.25,-0.200305985641,-0.0267793524817,0.0496940143585,0.001,-75.1015483441,3100.0,0.0,3000.0,0.0
1513265403370315438,,532589,,1513265401,586751426,'',-0.25,-0.200538754065,-0.0220798280416,0.049461245935,0.001,-86.7137415394,3100.0,0.0,3000.0,0.0
1513265403380336026,,532590,,1513265401,596751426,'',-0.25,-0.20073691715,-0.0180756276341,0.0492630828504,0.001,-98.232566408,3100.0,0.0,3000.0,0.0
1513265403390198647,,532591,,1513265401,606751426,'',-0.25,-0.200890268504,-0.0149776009006,0.0491097314958,0.001,-108.135502528,3100.0,0.0,3000.0,0.0
1513265403400837672,,532592,,1513265401,616751426,'',-0.25,-0.20102492706,-0.012256486738,0.0489750729397,0.001,-114.137516958,3100.0,0.0,3000.0,0.0
1513265403410710528,,532593,,1513265401,626751426,'',-0.25,-0.201150219174,-0.00972434885206,0.0488497808263,0.001,-121.828898402,3100.0,0.0,3000.0,0.0
1513265403420685259,,532594,,1513265401,636751426,'',-0.25,-0.201237405984,-0.00796257415734,0.0487625940164,0.001,-127.158109311,3100.0,0.0,3000.0,0.0
1513265403430531523,,532595,,1513265401,646751426,'',-0.25,-0.201318621981,-0.0155970678217,0.048681378019,0.001,-103.839572114,3100.0,0.0,3000.0,0.0
1513265403440472025,,532596,,1513265401,656751426,'',-0.25,-0.201485995066,-0.0214966685906,0.048514004934,0.001,-85.6479662975,3100.0,0.0,3000.0,0.0
1513265403450654324,,532597,,1513265401,666751426,'',-0.25,-0.201851423509,-0.0512289708399,0.048148576491,0.001,2.55874029471,3100.0,0.0,3000.0,0.0
1513265403460496103,,532598,,1513265401,676751426,'',-0.25,-0.202456472238,-0.0668410432392,0.0475435277624,0.001,53.9394265359,3100.0,0.0,3000.0,0.0
1513265403470201436,,532599,,1513265401,686751426,'',-0.25,-0.203108099487,-0.062958705712,0.0468919005131,0.001,44.6205058473,3100.0,0.0,3000.0,0.0
1513265403480554365,,532600,,1513265401,696751426,'',-0.25,-0.203680892349,-0.0513876473613,0.0463191076514,0.001,7.91297328477,3100.0,0.0,3000.0,0.0
1513265403490546313,,532601,,1513265401,706751426,'',-0.25,-0.204185159909,-0.0504778828434,0.0458148400914,0.001,8.18290459262,3100.0,0.0,3000.0,0.0
1513265403500549737,,532602,,1513265401,716751426,'',-0.25,-0.204597832283,-0.0421443939552,0.045402167717,0.001,-12.911437429,3100.0,0.0,3000.0,0.0
1513265403510467691,,532603,,1513265401,726751426,'',-0.25,-0.204943645806,-0.0351590234388,0.0450563541942,0.001,-32.7279825856,3100.0,0.0,3000.0,0.0
1513265403520408409,,532604,,1513265401,736751426,'',-0.25,-0.205259513824,-0.028778638776,0.0447404861755,0.001,-51.8691125768,3100.0,0.0,3000.0,0.0
1513265403530423108,,532605,,1513265401,746751426,'',-0.25,-0.205525563385,-0.0234015267863,0.0444744366148,0.001,-67.4667720763,3100.0,0.0,3000.0,0.0
1513265403540252616,,532606,,1513265401,756751426,'',-0.25,-0.205745237144,-0.01896666049,0.0442547628564,0.001,-81.4679254138,3100.0,0.0,3000.0,0.0
1513265403550277685,,532607,,1513265401,766751426,'',-0.25,-0.205915820195,-0.0155170649134,0.0440841798054,0.001,-89.4199724896,3100.0,0.0,3000.0,0.0
1513265403560289111,,532608,,1513265401,776751426,'',-0.25,-0.206045809106,-0.00361163877082,0.0439541908938,0.001,-125.399748302,3100.0,0.0,3000.0,0.0
1513265403570583394,,532609,,1513265401,786751426,'',-0.25,-0.206161538567,-0.0105522609188,0.0438384614326,0.001,-105.01672109,3100.0,0.0,3000.0,0.0
1513265403580591247,,532610,,1513265401,796751426,'',-0.25,-0.206281181266,-0.0174128823626,0.0437188187337,0.001,-83.0368579528,3100.0,0.0,3000.0,0.0
1513265403590397082,,532611,,1513265401,806751426,'',-0.25,-0.206370123244,-0.00633846630941,0.0436298767564,0.001,-116.056105329,3100.0,0.0,3000.0,0.0
1513265403600492081,,532612,,1513265401,816751426,'',-0.25,-0.206426949135,-0.00518991898995,0.0435730508655,0.001,-119.530803117,3100.0,0.0,3000.0,0.0
1513265403610402914,,532613,,1513265401,826751426,'',-0.25,-0.206498162215,-0.00374696337097,0.0435018377851,0.001,-123.518451351,3100.0,0.0,3000.0,0.0
1513265403620315267,,532614,,1513265401,836751426,'',-0.25,-0.206641926854,-0.0194006987885,0.043358073146,0.001,-75.9722259912,3100.0,0.0,3000.0,0.0
1513265403630215946,,532615,,1513265401,846751426,'',-0.25,-0.206884868704,-0.0237728526474,0.0431151312964,0.001,-62.844346323,3100.0,0.0,3000.0,0.0
1513265403640586729,,532616,,1513265401,856751426,'',-0.25,-0.207242457812,-0.0443849337665,0.0427575421878,0.001,1.26545583831,3100.0,0.0,3000.0,0.0
1513265403650559630,,532617,,1513265401,866751426,'',-0.25,-0.207633446725,-0.036484813203,0.0423665532751,0.001,-20.2288274845,3100.0,0.0,3000.0,0.0
1513265403660497203,,532618,,1513265401,876751426,'',-0.25,-0.207987486713,-0.0386123922093,0.0420125132866,0.001,-13.8277522947,3100.0,0.0,3000.0,0.0
1513265403670374922,,532619,,1513265401,886751426,'',-0.25,-0.208318182624,-0.0319305338248,0.0416818173755,0.001,-32.7594203748,3100.0,0.0,3000.0,0.0
1513265403680194532,,532620,,1513265401,896751426,'',-0.25,-0.208587447223,-0.0264925568163,0.041412552777,0.001,-48.5856729119,3100.0,0.0,3000.0,0.0
1513265403690601602,,532621,,1513265401,906751426,'',-0.25,-0.208816977097,-0.0218541018203,0.0411830229031,0.001,-63.829384606,3100.0,0.0,3000.0,0.0
1513265403700793350,,532622,,1513265401,916751426,'',-0.25,-0.209012973898,-0.0178947618019,0.0409870261016,0.001,-73.0942106429,3100.0,0.0,3000.0,0.0
1513265403710848285,,532623,,1513265401,926751426,'',-0.25,-0.209173316388,-0.0146556761049,0.0408266836119,0.001,-83.349877665,3100.0,0.0,3000.0,0.0
1513265403720630153,,532624,,1513265401,936751426,'',-0.25,-0.209322553174,-0.0116408327588,0.0406774468256,0.001,-90.9690589912,3100.0,0.0,3000.0,0.0
1513265403730385256,,532625,,1513265401,946751426,'',-0.25,-0.209460165061,-0.00886254610166,0.0405398349386,0.001,-98.9831137695,3100.0,0.0,3000.0,0.0
1513265403740314802,,532626,,1513265401,956751426,'',-0.25,-0.209573674654,-0.00656966798657,0.040426325346,0.001,-105.519048983,3100.0,0.0,3000.0,0.0
1513265403750643948,,532627,,1513265401,966751426,'',-0.25,-0.20966748718,-0.0139556172479,0.0403325128202,0.001,-82.9276753396,3100.0,0.0,3000.0,0.0
1513265403760527788,,532628,,1513265401,976751426,'',-0.25,-0.209768618283,-0.0119117185658,0.0402313817173,0.001,-88.8139874206,3100.0,0.0,3000.0,0.0
1513265403770475888,,532629,,1513265401,986751426,'',-0.25,-0.209832862024,-0.00133021764741,0.0401671379765,0.001,-120.448708216,3100.0,0.0,3000.0,0.0
1513265403780540506,,532630,,1513265401,996751426,'',-0.25,-0.209894719769,-0.00936046951902,0.0401052802306,0.001,-96.0966558602,3100.0,0.0,3000.0,0.0
1513265403790540480,,532631,,1513265402,6751426,'',-0.25,-0.209971003631,-0.00781791041381,0.0400289963692,0.001,-100.823796037,3100.0,0.0,3000.0,0.0
1513265403800493617,,532632,,1513265402,16751426,'',-0.25,-0.210092664403,-0.0146397691251,0.039907335597,0.001,-79.5718339791,3100.0,0.0,3000.0,0.0
1513265403810402871,,532633,,1513265402,26751426,'',-0.25,-0.210250317538,-0.020730254292,0.0397496824617,0.001,-61.4600955197,3100.0,0.0,3000.0,0.0
1513265403820381581,,532634,,1513265402,36751426,'',-0.25,-0.210495716714,-0.0250524687888,0.0395042832858,0.001,-48.5877997195,3100.0,0.0,3000.0,0.0
1513265403830268344,,532635,,1513265402,46751426,'',-0.25,-0.210780412817,-0.028579982397,0.0392195871835,0.001,-36.4383313864,3100.0,0.0,3000.0,0.0
1513265403840649529,,532636,,1513265402,56751426,'',-0.25,-0.211053472857,-0.0323401224761,0.0389465271425,0.001,-27.6312327015,3100.0,0.0,3000.0,0.0
1513265403850551552,,532637,,1513265402,66751426,'',-0.25,-0.211310779585,-0.0178629649421,0.0386892204146,0.001,-65.999777336,3100.0,0.0,3000.0,0.0
1513265403860758655,,532638,,1513265402,76751426,'',-0.25,-0.211545757169,-0.0223984322451,0.0384542428307,0.001,-53.0973668264,3100.0,0.0,3000.0,0.0
1513265403870501717,,532639,,1513265402,86751426,'',-0.25,-0.211747624478,-0.0183163447989,0.0382523755218,0.001,-62.9454704892,3100.0,0.0,3000.0,0.0
1513265403880801548,,532640,,1513265402,96751426,'',-0.25,-0.211930033749,-0.0239105155692,0.038069966251,0.001,-45.9130049865,3100.0,0.0,3000.0,0.0
1513265403890721282,,532641,,1513265402,106751426,'',-0.25,-0.212085672031,-0.011490134306,0.0379143279689,0.001,-82.8838302508,3100.0,0.0,3000.0,0.0
1513265403900254128,,532642,,1513265402,116751426,'',-0.25,-0.212228260611,-0.00860950564385,0.0377717393893,0.001,-91.1512059782,3100.0,0.0,3000.0,0.0
1513265403910018863,,532643,,1513265402,126751426,'',-0.25,-0.212305639216,-0.00704688559805,0.0376943607841,0.001,-96.3426077932,3100.0,0.0,3000.0,0.0
1513265403920120273,,532644,,1513265402,136751426,'',-0.25,-0.212403903542,-0.0143423971791,0.0375960964583,0.001,-73.3884562634,3100.0,0.0,3000.0,0.0
1513265403930691978,,532645,,1513265402,146751426,'',-0.25,-0.212500006382,-0.00312318484968,0.0374999936177,0.001,-106.825847178,3100.0,0.0,3000.0,0.0
1513265403940624009,,532646,,1513265402,156751426,'',-0.25,-0.212569043492,-0.00172926060941,0.0374309565076,0.001,-110.950467077,3100.0,0.0,3000.0,0.0
1513265403950621292,,532647,,1513265402,166751426,'',-0.25,-0.212659408859,-0.00918278609946,0.0373405911414,0.001,-87.9094722537,3100.0,0.0,3000.0,0.0
1513265403960576492,,532648,,1513265402,176751426,'',-0.25,-0.212741763418,-0.00751880445232,0.0372582365819,0.001,-92.8576351044,3100.0,0.0,3000.0,0.0
1513265403970521898,,532649,,1513265402,186751426,'',-0.25,-0.212825177528,-0.00583499092198,0.0371748224718,0.001,-97.7083171827,3100.0,0.0,3000.0,0.0
1513265403980415325,,532650,,1513265402,196751426,'',-0.25,-0.212936551166,-0.0128655254817,0.0370634488338,0.001,-76.1125454596,3100.0,0.0,3000.0,0.0
1513265403990598459,,532651,,1513265402,206751426,'',-0.25,-0.21305210972,-0.0105302395697,0.0369478902801,0.001,-82.5127934772,3100.0,0.0,3000.0,0.0
1513265404000544542,,532652,,1513265402,216751426,'',-0.25,-0.213205358235,-0.0167116308422,0.0367946417654,0.001,-63.7951798587,3100.0,0.0,3000.0,0.0
1513265404010167935,,532653,,1513265402,226751426,'',-0.25,-0.213355374149,-0.0136806325571,0.0366446258512,0.001,-72.3484795406,3100.0,0.0,3000.0,0.0
1513265404020052507,,532654,,1513265402,236751426,'',-0.25,-0.21347029655,-0.0113565555108,0.0365297034497,0.001,-79.6496794719,3100.0,0.0,3000.0,0.0
1513265404030494458,,532655,,1513265402,246751426,'',-0.25,-0.213623025986,-0.0175506349904,0.0363769740141,0.001,-59.3743962223,3100.0,0.0,3000.0,0.0
1513265404040489964,,532656,,1513265402,256751426,'',-0.25,-0.213748116545,-0.0150243169701,0.0362518834553,0.001,-67.0764166534,3100.0,0.0,3000.0,0.0
1513265404050268075,,532657,,1513265402,266751426,'',-0.25,-0.213875332289,-0.0124522287512,0.0361246677112,0.001,-74.3961260843,3100.0,0.0,3000.0,0.0
1513265404060212800,,532658,,1513265402,276751426,'',-0.25,-0.213995140376,-0.0100299127451,0.0360048596242,0.001,-82.033483579,3100.0,0.0,3000.0,0.0
1513265404070243121,,532659,,1513265402,286751426,'',-0.25,-0.214093804347,-0.00803643625906,0.0359061956534,0.001,-86.8726150124,3100.0,0.0,3000.0,0.0
1513265404080445500,,532660,,1513265402,296751426,'',-0.25,-0.214174129429,-0.00641337924804,0.0358258705714,0.001,-91.7319478096,3100.0,0.0,3000.0,0.0
1513265404090444970,,532661,,1513265402,306751426,'',-0.25,-0.21425509114,-0.00477333008693,0.0357449088603,0.001,-96.3762083878,3100.0,0.0,3000.0,0.0
1513265404100458834,,532662,,1513265402,316751426,'',-0.25,-0.214313190387,-0.00360115570654,0.0356868096129,0.001,-99.9786979455,3100.0,0.0,3000.0,0.0
1513265404110271344,,532663,,1513265402,326751426,'',-0.25,-0.214379956653,-0.01153377096,0.035620043347,0.001,-75.3540391745,3100.0,0.0,3000.0,0.0
1513265404120126499,,532664,,1513265402,336751426,'',-0.25,-0.214434342679,-0.0104328479978,0.0355656573214,0.001,-78.803947727,3100.0,0.0,3000.0,0.0
1513265404130193146,,532665,,1513265402,346751426,'',-0.25,-0.214470507498,-0.00969992248342,0.0355294925015,0.001,-80.808739319,3100.0,0.0,3000.0,0.0
1513265404140200084,,532666,,1513265402,356751426,'',-0.25,-0.214549440015,-0.00811255599893,0.0354505599847,0.001,-85.9269645537,3100.0,0.0,3000.0,0.0
1513265404150600365,,532667,,1513265402,366751426,'',-0.25,-0.214656591001,-0.00594871661229,0.0353434089994,0.001,-91.4824750482,3100.0,0.0,3000.0,0.0
1513265404160750602,,532668,,1513265402,376751426,'',-0.25,-0.214777616302,-0.0127827366215,0.0352223836983,0.001,-70.7614568701,3100.0,0.0,3000.0,0.0
1513265404171025285,,532669,,1513265402,386751426,'',-0.25,-0.214909450872,-0.010121456295,0.0350905491278,0.001,-78.2422285294,3100.0,0.0,3000.0,0.0
1513265404180597584,,532670,,1513265402,396751426,'',-0.25,-0.215084857786,-0.0158532943743,0.0349151422143,0.001,-60.4370713858,3100.0,0.0,3000.0,0.0
1513265404190508306,,532671,,1513265402,406751426,'',-0.25,-0.215227313094,-0.0129756835792,0.0347726869055,0.001,-68.353058776,3100.0,0.0,3000.0,0.0
1513265404200800669,,532672,,1513265402,416751426,'',-0.25,-0.215369681308,-0.0101009555496,0.0346303186924,0.001,-77.0256552233,3100.0,0.0,3000.0,0.0
1513265404210260219,,532673,,1513265402,426751426,'',-0.25,-0.215526335032,-0.0162173246557,0.0344736649677,0.001,-57.9831502644,3100.0,0.0,3000.0,0.0
1513265404220303806,,532674,,1513265402,436751426,'',-0.25,-0.215646980166,-0.0137821381681,0.0343530198343,0.001,-65.8329378589,3100.0,0.0,3000.0,0.0
1513265404230506388,,532675,,1513265402,446751426,'',-0.25,-0.215755245892,-0.0115927926834,0.034244754108,0.001,-71.6677141352,3100.0,0.0,3000.0,0.0
1513265404240452272,,532676,,1513265402,456751426,'',-0.25,-0.215851446493,-0.00964920123032,0.0341485535066,0.001,-76.8323236585,3100.0,0.0,3000.0,0.0
1513265404250536707,,532677,,1513265402,466751426,'',-0.25,-0.215938069727,-0.0078988186234,0.034061930273,0.001,-81.709744211,3100.0,0.0,3000.0,0.0
1513265404260470463,,532678,,1513265402,476751426,'',-0.25,-0.216008939675,-0.00646676028069,0.033991060325,0.001,-85.861945604,3100.0,0.0,3000.0,0.0
1513265404270522477,,532679,,1513265402,486751426,'',-0.25,-0.216091704214,-0.0047894674293,0.0339082957864,0.001,-90.5610255943,3100.0,0.0,3000.0,0.0
1513265404280588850,,532680,,1513265402,496751426,'',-0.25,-0.216168881162,-0.0125135757127,0.0338311188376,0.001,-67.1883924102,3100.0,0.0,3000.0,0.0
1513265404290402820,,532681,,1513265402,506751426,'',-0.25,-0.216224404877,-0.00211254832311,0.0337755951227,0.001,-98.3175126826,3100.0,0.0,3000.0,0.0
1513265404300351205,,532682,,1513265402,516751426,'',-0.25,-0.216260173496,-0.00138826349612,0.0337398265039,0.001,-100.40246635,3100.0,0.0,3000.0,0.0
1513265404310436556,,532683,,1513265402,526751426,'',-0.25,-0.216331684862,-0.00922452408584,0.0336683151378,0.001,-77.1762309417,3100.0,0.0,3000.0,0.0
1513265404320632328,,532684,,1513265402,536751426,'',-0.25,-0.216398682228,-0.0078678819015,0.0336013177724,0.001,-80.436129065,3100.0,0.0,3000.0,0.0
1513265404330445025,,532685,,1513265402,546751426,'',-0.25,-0.216436149473,-0.00711100985944,0.0335638505271,0.001,-82.4477729208,3100.0,0.0,3000.0,0.0
1513265404340516289,,532686,,1513265402,556751426,'',-0.25,-0.216475024908,0.00295212051237,0.0335249750922,0.001,-112.823186938,3100.0,0.0,3000.0,0.0
1513265404350648193,,532687,,1513265402,566751426,'',-0.25,-0.216524210887,-0.00533497197489,0.0334757891127,0.001,-87.6770318008,3100.0,0.0,3000.0,0.0
1513265404360054793,,532688,,1513265402,576751426,'',-0.25,-0.216563043753,0.00472667592686,0.0334369562474,0.001,-117.624285235,3100.0,0.0,3000.0,0.0
1513265404370721338,,532689,,1513265402,586751426,'',-0.25,-0.216638204706,-0.0123099514792,0.0333617952936,0.001,-65.969996989,3100.0,0.0,3000.0,0.0
1513265404380844065,,532690,,1513265402,596751426,'',-0.25,-0.216732531765,-0.0104034289663,0.0332674682353,0.001,-71.7606726515,3100.0,0.0,3000.0,0.0
1513265404390369799,,532691,,1513265402,606751426,'',-0.25,-0.21681799918,-0.00867671485503,0.0331820008205,0.001,-76.6698594307,3100.0,0.0,3000.0,0.0
1513265404400150660,,532692,,1513265402,616751426,'',-0.25,-0.216912310537,-0.00677053767576,0.0330876894626,0.001,-82.6030512023,3100.0,0.0,3000.0,0.0
1513265404410084835,,532693,,1513265402,626751426,'',-0.25,-0.216990197691,-0.00519954120949,0.0330098023086,0.001,-86.5125730583,3100.0,0.0,3000.0,0.0
1513265404420057363,,532694,,1513265402,636751426,'',-0.25,-0.217095906029,-0.0123438802702,0.0329040939714,0.001,-64.7473382784,3100.0,0.0,3000.0,0.0
1513265404429996794,,532695,,1513265402,646751426,'',-0.25,-0.217197826331,-0.0102840010122,0.0328021736687,0.001,-70.8618377179,3100.0,0.0,3000.0,0.0
1513265404440039785,,532696,,1513265402,656751426,'',-0.25,-0.217290064494,-0.00842051208298,0.0327099355065,0.001,-76.4229822468,3100.0,0.0,3000.0,0.0
1513265404450344205,,532697,,1513265402,666751426,'',-0.25,-0.217357778944,-0.00705432141243,0.0326422210557,0.001,-79.6953733495,3100.0,0.0,3000.0,0.0
1513265404460358655,,532698,,1513265402,676751426,'',-0.25,-0.217429479007,-0.00560484264699,0.0325705209931,0.001,-84.0056413292,3100.0,0.0,3000.0,0.0
1513265404470395641,,532699,,1513265402,686751426,'',-0.25,-0.2174886101,-0.0136869306803,0.0325113899002,0.001,-60.428220496,3100.0,0.0,3000.0,0.0
1513265404480177237,,532700,,1513265402,696751426,'',-0.25,-0.217537128019,-0.0127046422239,0.0324628719808,0.001,-63.1677158471,3100.0,0.0,3000.0,0.0
1513265404490055128,,532701,,1513265402,706751426,'',-0.25,-0.217591555843,-0.00232729960556,0.0324084441571,0.001,-93.4014189522,3100.0,0.0,3000.0,0.0
1513265404500042112,,532702,,1513265402,716751426,'',-0.25,-0.217670054672,-0.000742230077533,0.0323299453278,0.001,-97.9833521763,3100.0,0.0,3000.0,0.0
1513265404510397099,,532703,,1513265402,726751426,'',-0.25,-0.217719025505,-0.00903199276403,0.0322809744948,0.001,-72.8902356834,3100.0,0.0,3000.0,0.0
1513265404520405604,,532704,,1513265402,736751426,'',-0.25,-0.217774805455,-0.00790480721697,0.0322251945453,0.001,-76.5878344012,3100.0,0.0,3000.0,0.0
1513265404530290483,,532705,,1513265402,746751426,'',-0.25,-0.217820712035,-0.00697354326606,0.0321792879652,0.001,-78.610240545,3100.0,0.0,3000.0,0.0
1513265404540290820,,532706,,1513265402,756751426,'',-0.25,-0.217883319649,-0.00570967323845,0.0321166803512,0.001,-82.3352270813,3100.0,0.0,3000.0,0.0
1513265404550203975,,532707,,1513265402,766751426,'',-0.25,-0.217927042145,-0.00482831282655,0.0320729578547,0.001,-84.7160581447,3100.0,0.0,3000.0,0.0
1513265404560133249,,532708,,1513265402,776751426,'',-0.25,-0.217961469473,-0.0041325083897,0.0320385305273,0.001,-87.1275528455,3100.0,0.0,3000.0,0.0
1513265404570310179,,532709,,1513265402,786751426,'',-0.25,-0.217990349105,-0.00355039631982,0.0320096508945,0.001,-88.4349285367,3100.0,0.0,3000.0,0.0
1513265404580464840,,532710,,1513265402,796751426,'',-0.25,-0.218022211374,-0.00290694396557,0.0319777886258,0.001,-90.3472043966,3100.0,0.0,3000.0,0.0
1513265404590397242,,532711,,1513265402,806751426,'',-0.25,-0.218040663494,-0.00253295892734,0.0319593365063,0.001,-91.423330323,3100.0,0.0,3000.0,0.0
1513265404600302159,,532712,,1513265402,816751426,'',-0.25,-0.218063426193,-0.0020735151319,0.0319365738069,0.001,-92.7134906037,3100.0,0.0,3000.0,0.0
1513265404610288567,,532713,,1513265402,826751426,'',-0.25,-0.218082025961,-0.00169809621938,0.0319179740392,0.001,-93.7749931792,3100.0,0.0,3000.0,0.0
1513265404620273856,,532714,,1513265402,836751426,'',-0.25,-0.218097269329,-0.00139042308997,0.0319027306709,0.001,-94.7028180298,3100.0,0.0,3000.0,0.0
1513265404630102418,,532715,,1513265402,846751426,'',-0.25,-0.218142764743,-0.00975084956481,0.0318572352566,0.001,-69.1826038952,3100.0,0.0,3000.0,0.0
1513265404639970795,,532716,,1513265402,856751426,'',-0.25,-0.218222633158,-0.00813757120172,0.0317773668421,0.001,-73.999138743,3100.0,0.0,3000.0,0.0
1513265404650434705,,532717,,1513265402,866751426,'',-0.25,-0.218295691378,-0.00666168690655,0.0317043086219,0.001,-78.1988302875,3100.0,0.0,3000.0,0.0
1513265404660378341,,532718,,1513265402,876751426,'',-0.25,-0.218397822,-0.0138777585659,0.0316021780004,0.001,-57.0007026179,3100.0,0.0,3000.0,0.0
1513265404670340462,,532719,,1513265402,886751426,'',-0.25,-0.21849869342,-0.0118415838554,0.03150130658,0.001,-62.4984038636,3100.0,0.0,3000.0,0.0
1513265404680262361,,532720,,1513265402,896751426,'',-0.25,-0.218604879465,-0.00969604161795,0.0313951205352,0.001,-68.1538230361,3100.0,0.0,3000.0,0.0
1513265404690265601,,532721,,1513265402,906751426,'',-0.25,-0.21870089338,-0.0077558648734,0.0312991066197,0.001,-73.5975551821,3100.0,0.0,3000.0,0.0
1513265404700160384,,532722,,1513265402,916751426,'',-0.25,-0.218770368455,-0.0063521164915,0.031229631545,0.001,-78.067771312,3100.0,0.0,3000.0,0.0
1513265404710410592,,532723,,1513265402,926751426,'',-0.25,-0.218844289158,-0.00485588180645,0.0311557108424,0.001,-81.8177881924,3100.0,0.0,3000.0,0.0
1513265404720177493,,532724,,1513265402,936751426,'',-0.25,-0.218929581288,-0.0124182038538,0.0310704187124,0.001,-58.8845739118,3100.0,0.0,3000.0,0.0
1513265404730207678,,532725,,1513265402,946751426,'',-0.25,-0.218974087101,-0.00223725496962,0.0310259128991,0.001,-89.4192377998,3100.0,0.0,3000.0,0.0
1513265404740491144,,532726,,1513265402,956751426,'',-0.25,-0.219001742429,-0.00168004705955,0.0309982575713,0.001,-91.1357876282,3100.0,0.0,3000.0,0.0
1513265404750320374,,532727,,1513265402,966751426,'',-0.25,-0.219083992128,-0.00929605732775,0.0309160078721,0.001,-68.2423933101,3100.0,0.0,3000.0,0.0
1513265404760272597,,532728,,1513265402,976751426,'',-0.25,-0.219167378855,-0.00761111466007,0.0308326211454,0.001,-72.661676585,3100.0,0.0,3000.0,0.0
1513265404770248104,,532729,,1513265402,986751426,'',-0.25,-0.219218590756,0.002708019662,0.0307814092437,0.001,-103.589660307,3100.0,0.0,3000.0,0.0
1513265404780188175,,532730,,1513265402,996751426,'',-0.25,-0.219261787628,-0.00569963785874,0.0307382123718,0.001,-78.097086544,3100.0,0.0,3000.0,0.0
1513265404790242156,,532731,,1513265403,6751426,'',-0.25,-0.219312874459,-0.00466804982153,0.0306871255406,0.001,-81.3605649937,3100.0,0.0,3000.0,0.0
1513265404800230085,,532732,,1513265403,16751426,'',-0.25,-0.21933816909,-0.00415622223025,0.0306618309103,0.001,-82.7887903395,3100.0,0.0,3000.0,0.0
1513265404810208082,,532733,,1513265403,26751426,'',-0.25,-0.21939188605,-0.00307393347865,0.03060811395,0.001,-85.5420492469,3100.0,0.0,3000.0,0.0
1513265404820233226,,532734,,1513265403,36751426,'',-0.25,-0.219427254149,-0.00235720647736,0.0305727458513,0.001,-87.6825118404,3100.0,0.0,3000.0,0.0
1513265404830091030,,532735,,1513265403,46751426,'',-0.25,-0.219474413033,-0.00140446683517,0.0305255869672,0.001,-90.3840608335,3100.0,0.0,3000.0,0.0
1513265404840490237,,532736,,1513265403,56751426,'',-0.25,-0.219521353038,-0.00973673811154,0.0304786469625,0.001,-65.0994163787,3100.0,0.0,3000.0,0.0
1513265404850390618,,532737,,1513265403,66751426,'',-0.25,-0.219558556499,0.000295145715261,0.0304414435012,0.001,-95.2415430004,3100.0,0.0,3000.0,0.0
1513265404860373598,,532738,,1513265403,76751426,'',-0.25,-0.219614680991,-0.00785391183644,0.0303853190087,0.001,-70.5224789404,3100.0,0.0,3000.0,0.0
1513265404870343869,,532739,,1513265403,86751426,'',-0.25,-0.219668050855,0.002497575138,0.0303319491451,0.001,-101.429568336,3100.0,0.0,3000.0,0.0
1513265404880331506,,532740,,1513265403,96751426,'',-0.25,-0.219712607064,-0.00588345222835,0.0302873929361,0.001,-76.5735151497,3100.0,0.0,3000.0,0.0
1513265404890280632,,532741,,1513265403,106751426,'',-0.25,-0.219747599327,0.00410477957868,0.030252400673,0.001,-106.269087913,3100.0,0.0,3000.0,0.0
1513265404900242941,,532742,,1513265403,116751426,'',-0.25,-0.219760577302,-0.00491077452053,0.0302394226984,0.001,-78.9278246169,3100.0,0.0,3000.0,0.0
1513265404910151961,,532743,,1513265403,126751426,'',-0.25,-0.219804599726,-0.00402027699407,0.030195400274,0.001,-81.5125383577,3100.0,0.0,3000.0,0.0
1513265404920096937,,532744,,1513265403,136751426,'',-0.25,-0.219840645531,-0.00329113269158,0.0301593544692,0.001,-83.5656038453,3100.0,0.0,3000.0,0.0
1513265404930157903,,532745,,1513265403,146751426,'',-0.25,-0.219861885517,-0.00286186077587,0.0301381144825,0.001,-84.6038190619,3100.0,0.0,3000.0,0.0
1513265404940065246,,532746,,1513265403,156751426,'',-0.25,-0.21989603263,-0.00217111318835,0.0301039673699,0.001,-86.8520898104,3100.0,0.0,3000.0,0.0
1513265404950456006,,532747,,1513265403,166751426,'',-0.25,-0.21990702012,-0.00194457309473,0.0300929798803,0.001,-87.4214560839,3100.0,0.0,3000.0,0.0
1513265404960438319,,532748,,1513265403,176751426,'',-0.25,-0.219916848137,-0.0017460588274,0.030083151863,0.001,-87.9895751758,3100.0,0.0,3000.0,0.0
1513265404970203676,,532749,,1513265403,186751426,'',-0.25,-0.219932518936,-0.00142972276167,0.0300674810645,0.001,-88.9471237033,3100.0,0.0,3000.0,0.0
1513265404980462657,,532750,,1513265403,196751426,'',-0.25,-0.219945351738,-0.00117067544077,0.0300546482616,0.001,-89.6372564506,3100.0,0.0,3000.0,0.0
1513265404990430535,,532751,,1513265403,206751426,'',-0.25,-0.219963804856,-0.000796272535523,0.0300361951443,0.001,-90.684335298,3100.0,0.0,3000.0,0.0
1513265405000328931,,532752,,1513265403,216751426,'',-0.25,-0.219986774129,-0.000334410819573,0.0300132258711,0.001,-92.0317222032,3100.0,0.0,3000.0,0.0
1513265405010340932,,532753,,1513265403,226751426,'',-0.25,-0.220005981068,5.32334894002e-05,0.029994018932,0.001,-93.1381151854,3100.0,0.0,3000.0,0.0
1513265405020272089,,532754,,1513265403,236751426,'',-0.25,-0.220031023422,0.000554997541689,0.0299689765781,0.001,-94.5896000873,3100.0,0.0,3000.0,0.0
1513265405030107057,,532755,,1513265403,246751426,'',-0.25,-0.220051685453,0.000976406696227,0.0299483145471,0.001,-95.8051590504,3100.0,0.0,3000.0,0.0
1513265405040005495,,532756,,1513265403,256751426,'',-0.25,-0.220109781938,-0.00713135928227,0.0298902180617,0.001,-71.0807766484,3100.0,0.0,3000.0,0.0
1513265405050016705,,532757,,1513265403,266751426,'',-0.25,-0.220156852537,0.00309721510987,0.0298431474629,0.001,-101.863287169,3100.0,0.0,3000.0,0.0
1513265405059929166,,532758,,1513265403,276751426,'',-0.25,-0.220219942856,-0.00490462114791,0.0297800571438,0.001,-77.8939926515,3100.0,0.0,3000.0,0.0
1513265405070479640,,532759,,1513265403,286751426,'',-0.25,-0.220256152381,-0.00417187262615,0.0297438476195,0.001,-79.7801075704,3100.0,0.0,3000.0,0.0
1513265405080501457,,532760,,1513265403,296751426,'',-0.25,-0.220310505393,-0.0030709676456,0.0296894946073,0.001,-82.7713681431,3100.0,0.0,3000.0,0.0
1513265405090339001,,532761,,1513265403,306751426,'',-0.25,-0.220370864338,-0.00185278601148,0.0296291356623,0.001,-86.1988557176,3100.0,0.0,3000.0,0.0
1513265405100192665,,532762,,1513265403,316751426,'',-0.25,-0.220421501814,-0.0101103321204,0.0295784981862,0.001,-61.2428644793,3100.0,0.0,3000.0,0.0
1513265405110166789,,532763,,1513265403,326751426,'',-0.25,-0.220486913156,0.000490187893385,0.0295130868444,0.001,-92.9836880453,3100.0,0.0,3000.0,0.0
1513265405120066977,,532764,,1513265403,336751426,'',-0.25,-0.220540888265,-0.00769213528545,0.0294591117346,0.001,-68.1371564999,3100.0,0.0,3000.0,0.0
1513265405130033453,,532765,,1513265403,346751426,'',-0.25,-0.2205925091,-0.00665110432559,0.0294074909002,0.001,-70.9161791794,3100.0,0.0,3000.0,0.0
1513265405140456522,,532766,,1513265403,356751426,'',-0.25,-0.220636423206,-0.00576592221094,0.0293635767937,0.001,-73.6374099409,3100.0,0.0,3000.0,0.0
1513265405150167013,,532767,,1513265403,366751426,'',-0.25,-0.22067185539,-0.00505519546636,0.0293281446099,0.001,-76.0687712303,3100.0,0.0,3000.0,0.0
1513265405160214541,,532768,,1513265403,376751426,'',-0.25,-0.220717110769,-0.004140404195,0.0292828892308,0.001,-78.600528444,3100.0,0.0,3000.0,0.0
1513265405170074509,,532769,,1513265403,386751426,'',-0.25,-0.220746598777,-0.0035440018725,0.0292534012231,0.001,-80.1009088429,3100.0,0.0,3000.0,0.0
1513265405180075999,,532770,,1513265403,396751426,'',-0.25,-0.22077834772,-0.0029022895972,0.0292216522802,0.001,-81.8498919141,3100.0,0.0,3000.0,0.0
1513265405190464050,,532771,,1513265403,406751426,'',-0.25,-0.220795621526,-0.00255297918161,0.0292043784744,0.001,-82.8086958677,3100.0,0.0,3000.0,0.0
1513265405200445086,,532772,,1513265403,416751426,'',-0.25,-0.220818482082,-0.00209095062136,0.0291815179178,0.001,-84.3124844063,3100.0,0.0,3000.0,0.0
1513265405210372407,,532773,,1513265403,426751426,'',-0.25,-0.220837257527,-0.00171148515792,0.029162742473,0.001,-85.2060629137,3100.0,0.0,3000.0,0.0
1513265405220368282,,532774,,1513265403,436751426,'',-0.25,-0.220852605111,-0.00140129925797,0.0291473948886,0.001,-86.1340370333,3100.0,0.0,3000.0,0.0
1513265405230309613,,532775,,1513265403,446751426,'',-0.25,-0.220856397883,-0.00132454998533,0.0291436021168,0.001,-86.3532822819,3100.0,0.0,3000.0,0.0
1513265405240208682,,532776,,1513265403,456751426,'',-0.25,-0.220868260387,-0.00108481722451,0.0291317396127,0.001,-87.1079384826,3100.0,0.0,3000.0,0.0
1513265405250079961,,532777,,1513265403,466751426,'',-0.25,-0.220878004795,-0.000887889686122,0.0291219952051,0.001,-87.5753577655,3100.0,0.0,3000.0,0.0
1513265405260034030,,532778,,1513265403,476751426,'',-0.25,-0.220894395784,-0.000556597201359,0.0291056042156,0.001,-88.5513998002,3100.0,0.0,3000.0,0.0
1513265405270162430,,532779,,1513265403,486751426,'',-0.25,-0.220916830077,-0.000106155072666,0.0290831699231,0.001,-89.8475995587,3100.0,0.0,3000.0,0.0
1513265405280496935,,532780,,1513265403,496751426,'',-0.25,-0.220917756602,-8.6905394385e-05,0.0290822433983,0.001,-89.9001888703,3100.0,0.0,3000.0,0.0
1513265405290510907,,532781,,1513265403,506751426,'',-0.25,-0.220927489475,0.000106014147842,0.0290725105249,0.001,-90.4590822707,3100.0,0.0,3000.0,0.0
1513265405300530607,,532782,,1513265403,516751426,'',-0.25,-0.220960493152,-0.00850858427904,0.0290395068482,0.001,-64.4457606243,3100.0,0.0,3000.0,0.0
