rosbagTimestamp,header,seq,stamp,secs,nsecs,frame_id,set_point,process_value,process_value_dot,error,time_step,command,p,i,d,i_clamp
1513266131890160753,,605437,,1513266130,92366423,'',0.471238898038,0.446725289148,0.000303868538817,-0.0245136088908,0.001,146.990682498,6000.0,0.0,300.0,0.0
1513266131900097695,,605438,,1513266130,102366423,'',0.471238898038,0.446713935881,0.000532935675396,-0.0245249621573,0.001,146.989374563,6000.0,0.0,300.0,0.0
1513266131910214177,,605439,,1513266130,112366423,'',0.471238898038,0.44670461328,0.000717894732212,-0.0245342847588,0.001,146.993036868,6000.0,0.0,300.0,0.0
1513266131920005063,,605440,,1513266130,122366423,'',0.471238898038,0.446711075287,0.000587681336768,-0.0245278227513,0.001,146.989477601,6000.0,0.0,300.0,0.0
1513266131930149473,,605441,,1513266130,132366423,'',0.471238898038,0.446716362924,0.000481132228231,-0.0245225351145,0.001,146.989925829,6000.0,0.0,300.0,0.0
1513266131940082062,,605442,,1513266130,142366423,'',0.471238898038,0.446707761596,0.000658147486364,-0.0245311364426,0.001,146.989007089,6000.0,0.0,300.0,0.0
1513266131949958900,,605443,,1513266130,152366423,'',0.471238898038,0.446713640888,0.000539007589082,-0.02452525715,0.001,146.993265898,6000.0,0.0,300.0,0.0
1513266131960123808,,605444,,1513266130,162366423,'',0.471238898038,0.446718465967,0.000441230634658,-0.0245204320718,0.001,146.989818082,6000.0,0.0,300.0,0.0
1513266131970055708,,605445,,1513266130,172366423,'',0.471238898038,0.446722414662,0.000361212987611,-0.0245164833764,0.001,146.99043883,6000.0,0.0,300.0,0.0
1513266131980009815,,605446,,1513266130,182366423,'',0.471238898038,0.446725649275,0.000295665738049,-0.0245132487634,0.001,146.99267175,6000.0,0.0,300.0,0.0
1513266131989980814,,605447,,1513266130,192366423,'',0.471238898038,0.446716407531,0.000486353011396,-0.0245224905073,0.001,146.989338264,6000.0,0.0,300.0,0.0
1513266132000105599,,605448,,1513266130,202366423,'',0.471238898038,0.446720728689,0.000398169460327,-0.0245181693498,0.001,146.990182003,6000.0,0.0,300.0,0.0
1513266132009859554,,605449,,1513266130,212366423,'',0.471238898038,0.446724260638,0.000326091590872,-0.0245146374005,0.001,146.992647209,6000.0,0.0,300.0,0.0
1513266132019983885,,605450,,1513266130,222366423,'',0.471238898038,0.446727159025,0.000266943076241,-0.0245117390136,0.001,146.990764639,6000.0,0.0,300.0,0.0
1513266132029959614,,605451,,1513266130,232366423,'',0.471238898038,0.446729531429,0.000218528495998,-0.0245093666094,0.001,146.991042113,6000.0,0.0,300.0,0.0
1513266132040309096,,605452,,1513266130,242366423,'',0.471238898038,0.44667940468,0.00122179923239,-0.024559493358,0.001,146.994249803,6000.0,0.0,300.0,0.0
1513266132050087007,,605453,,1513266130,252366423,'',0.471238898038,0.446690436232,0.00100024371407,-0.0245484618066,0.001,146.987728045,6000.0,0.0,300.0,0.0
1513266132060037473,,605454,,1513266130,262366423,'',0.471238898038,0.446699471455,0.000818782072706,-0.024539426584,0.001,146.988255941,6000.0,0.0,300.0,0.0
1513266132069957091,,605455,,1513266130,272366423,'',0.471238898038,0.446706852091,0.000670550815007,-0.0245320459475,0.001,146.993212114,6000.0,0.0,300.0,0.0
1513266132080390304,,605456,,1513266130,282366423,'',0.471238898038,0.446712906975,0.000548945708226,-0.0245259910633,0.001,146.997488076,6000.0,0.0,300.0,0.0
1513266132090330893,,605457,,1513266130,292366423,'',0.471238898038,0.44673131852,0.000179817434725,-0.024507579518,0.001,146.991089435,6000.0,0.0,300.0,0.0
1513266132100256215,,605458,,1513266130,302366423,'',0.471238898038,0.446732936252,0.000147210158588,-0.0245059617863,0.001,146.991330737,6000.0,0.0,300.0,0.0
1513266132110177053,,605459,,1513266130,312366423,'',0.471238898038,0.446734258721,0.000120554246295,-0.0245046393172,0.001,146.992097432,6000.0,0.0,300.0,0.0
1513266132120220828,,605460,,1513266130,322366423,'',0.471238898038,0.446721036057,-0.0141687309683,-0.0245178619818,0.001,151.369576851,6000.0,0.0,300.0,0.0
1513266132130225658,,605461,,1513266130,332366423,'',0.471238898038,0.446738873694,0.0145849759961,-0.0245000243449,0.001,142.597977986,6000.0,0.0,300.0,0.0
1513266132140058400,,605462,,1513266130,342366423,'',0.471238898038,0.446727223365,0.000265504663909,-0.0245116746736,0.001,146.992441949,6000.0,0.0,300.0,0.0
1513266132150016330,,605463,,1513266130,352366423,'',0.471238898038,0.44674275698,-4.99487319294e-05,-0.024496141058,0.001,146.992210995,6000.0,0.0,300.0,0.0
1513266132159963929,,605464,,1513266130,362366423,'',0.471238898038,0.446742300475,-4.08904760242e-05,-0.0244965975639,0.001,146.991859912,6000.0,0.0,300.0,0.0
1513266132170770607,,605465,,1513266130,372366423,'',0.471238898038,0.446741926829,-3.34763811256e-05,-0.0244969712096,0.001,146.992060851,6000.0,0.0,300.0,0.0
1513266132180038040,,605466,,1513266130,382366423,'',0.471238898038,0.446741621451,-2.74169058171e-05,-0.024497276587,0.001,146.991855278,6000.0,0.0,300.0,0.0
1513266132190006757,,605467,,1513266130,392366423,'',0.471238898038,0.446716635343,0.000478779917169,-0.0245222626954,0.001,146.989811116,6000.0,0.0,300.0,0.0
1513266132199840442,,605468,,1513266130,402366423,'',0.471238898038,0.446707957246,0.000654031282123,-0.0245309407926,0.001,146.988977698,6000.0,0.0,300.0,0.0
1513266132209826871,,605469,,1513266130,412366423,'',0.471238898038,0.446700408708,-0.013743208903,-0.0245384893305,0.001,151.281562112,6000.0,0.0,300.0,0.0
1513266132220257899,,605470,,1513266130,422366423,'',0.471238898038,0.446695144226,0.000918061434913,-0.0245437538126,0.001,146.987863863,6000.0,0.0,300.0,0.0
1513266132230111234,,605471,,1513266130,432366423,'',0.471238898038,0.446703322344,0.000751570012749,-0.0245355756946,0.001,146.988389327,6000.0,0.0,300.0,0.0
1513266132240089635,,605472,,1513266130,442366423,'',0.471238898038,0.446710018072,0.000615257318838,-0.0245288799666,0.001,146.989387981,6000.0,0.0,300.0,0.0
1513266132249978210,,605473,,1513266130,452366423,'',0.471238898038,0.446702773066,0.000757558359919,-0.0245361249721,0.001,146.987406657,6000.0,0.0,300.0,0.0
1513266132260044007,,605474,,1513266130,462366423,'',0.471238898038,0.446709568271,0.000620162513128,-0.0245293297675,0.001,146.992930432,6000.0,0.0,300.0,0.0
1513266132270090604,,605475,,1513266130,472366423,'',0.471238898038,0.446715128537,0.000507736535364,-0.024523769501,0.001,146.990004441,6000.0,0.0,300.0,0.0
1513266132279943761,,605476,,1513266130,482366423,'',0.471238898038,0.446719673851,0.000415832425785,-0.0245192241873,0.001,146.992847386,6000.0,0.0,300.0,0.0
1513266132289974235,,605477,,1513266130,492366423,'',0.471238898038,0.446723403897,0.000340412654888,-0.0245154941416,0.001,146.990498114,6000.0,0.0,300.0,0.0
1513266132300279551,,605478,,1513266130,502366423,'',0.471238898038,0.446726457356,0.000278673140877,-0.0245124406823,0.001,146.990680946,6000.0,0.0,300.0,0.0
1513266132310185077,,605479,,1513266130,512366423,'',0.471238898038,0.446716227404,0.000485024289297,-0.0245226706341,0.001,146.989739106,6000.0,0.0,300.0,0.0
1513266132320181011,,605480,,1513266130,522366423,'',0.471238898038,0.446720582815,0.000397049469664,-0.0245183152232,0.001,146.990283546,6000.0,0.0,300.0,0.0
1513266132330150274,,605481,,1513266130,532366423,'',0.471238898038,0.446711475457,0.000584202745389,-0.0245274225815,0.001,146.98946954,6000.0,0.0,300.0,0.0
1513266132340109889,,605482,,1513266130,542366423,'',0.471238898038,0.446716693236,0.000478229587997,-0.0245222048024,0.001,146.989369572,6000.0,0.0,300.0,0.0
1513266132349894770,,605483,,1513266130,552366423,'',0.471238898038,0.446720963418,0.000391502141229,-0.0245179346204,0.001,146.989837507,6000.0,0.0,300.0,0.0
1513266132360061562,,605484,,1513266130,562366423,'',0.471238898038,0.446711629372,0.000574928758052,-0.0245272686661,0.001,146.993198464,6000.0,0.0,300.0,0.0
1513266132370047832,,605485,,1513266130,572366423,'',0.471238898038,0.446716816886,0.000470685012648,-0.0245220811523,0.001,146.990408719,6000.0,0.0,300.0,0.0
1513266132379938416,,605486,,1513266130,582366423,'',0.471238898038,0.446721065101,0.000385316595907,-0.0245178329372,0.001,146.990436371,6000.0,0.0,300.0,0.0
1513266132389997220,,605487,,1513266130,592366423,'',0.471238898038,0.446710919445,0.000594869338403,-0.0245279785934,0.001,146.98946439,6000.0,0.0,300.0,0.0
1513266132399836453,,605488,,1513266130,602366423,'',0.471238898038,0.446716226636,0.000487193539926,-0.0245226714024,0.001,146.992857696,6000.0,0.0,300.0,0.0
1513266132409801827,,605489,,1513266130,612366423,'',0.471238898038,0.446720581811,0.000398832863692,-0.0245183162271,0.001,146.990168695,6000.0,0.0,300.0,0.0
1513266132420255324,,605490,,1513266130,622366423,'',0.471238898038,0.446724147103,0.000326497870199,-0.0245147509355,0.001,146.990491737,6000.0,0.0,300.0,0.0
1513266132430068822,,605491,,1513266130,632366423,'',0.471238898038,0.446727065016,0.000267297328967,-0.0245118330228,0.001,146.990909952,6000.0,0.0,300.0,0.0
1513266132439932026,,605492,,1513266130,642366423,'',0.471238898038,0.446717387066,0.000461316012426,-0.0245215109728,0.001,146.992947186,6000.0,0.0,300.0,0.0
1513266132449967235,,605493,,1513266130,652366423,'',0.471238898038,0.446707790358,0.000652304997313,-0.0245311076804,0.001,146.989009695,6000.0,0.0,300.0,0.0
1513266132459924941,,605494,,1513266130,662366423,'',0.471238898038,0.446713677746,0.000533955318346,-0.0245252202921,0.001,146.989039128,6000.0,0.0,300.0,0.0
1513266132470010483,,605495,,1513266130,672366423,'',0.471238898038,0.446718495205,0.000437113613477,-0.0245204028331,0.001,146.989567035,6000.0,0.0,300.0,0.0
1513266132480282486,,605496,,1513266130,682366423,'',0.471238898038,0.446722429683,0.000358021801754,-0.0245164683551,0.001,146.992857031,6000.0,0.0,300.0,0.0
1513266132490277591,,605497,,1513266130,692366423,'',0.471238898038,0.446711824495,0.000571769386514,-0.0245270735435,0.001,146.993728852,6000.0,0.0,300.0,0.0
1513266132500249287,,605498,,1513266130,702366423,'',0.471238898038,0.446716977628,0.000468078397338,-0.0245219204101,0.001,146.989977937,6000.0,0.0,300.0,0.0
1513266132510206335,,605499,,1513266130,712366423,'',0.471238898038,0.446721195872,0.000383199188717,-0.0245177021663,0.001,146.990335514,6000.0,0.0,300.0,0.0
1513266132520223814,,605500,,1513266130,722366423,'',0.471238898038,0.44672464325,0.000313831284215,-0.024514254788,0.001,146.992448476,6000.0,0.0,300.0,0.0
1513266132530089221,,605501,,1513266130,732366423,'',0.471238898038,0.446701539588,0.000784447279667,-0.0245373584505,0.001,146.994824408,6000.0,0.0,300.0,0.0
1513266132540041614,,605502,,1513266130,742366423,'',0.471238898038,0.446696501326,0.000884408067327,-0.0245423967126,0.001,146.986390767,6000.0,0.0,300.0,0.0
1513266132549869796,,605503,,1513266130,752366423,'',0.471238898038,0.4467044306,0.000724074959761,-0.0245344674381,0.001,146.988653011,6000.0,0.0,300.0,0.0
1513266132559913128,,605504,,1513266130,762366423,'',0.471238898038,0.446697267763,0.000869874960919,-0.0245416302753,0.001,146.992759422,6000.0,0.0,300.0,0.0
1513266132569951526,,605505,,1513266130,772366423,'',0.471238898038,0.446705060775,0.000712122207301,-0.0245338372631,0.001,146.992817911,6000.0,0.0,300.0,0.0
1513266132579817307,,605506,,1513266130,782366423,'',0.471238898038,0.446698735657,0.000842395685415,-0.0245401623815,0.001,146.988189273,6000.0,0.0,300.0,0.0
1513266132590387166,,605507,,1513266130,792366423,'',0.471238898038,0.446680558703,0.00120849276622,-0.0245583393357,0.001,146.987935977,6000.0,0.0,300.0,0.0
1513266132600138010,,605508,,1513266130,802366423,'',0.471238898038,0.446691365144,0.000989671030061,-0.0245475328944,0.001,146.986950759,6000.0,0.0,300.0,0.0
1513266132609875892,,605509,,1513266130,812366423,'',0.471238898038,0.446687784559,0.00105928632912,-0.0245511134799,0.001,146.988192287,6000.0,0.0,300.0,0.0
1513266132619890031,,605510,,1513266130,822366423,'',0.471238898038,0.446697299203,0.000867146406813,-0.0245415988355,0.001,146.987996445,6000.0,0.0,300.0,0.0
1513266132630241477,,605511,,1513266130,832366423,'',0.471238898038,0.44670507176,0.00071018642296,-0.0245338262789,0.001,146.993228114,6000.0,0.0,300.0,0.0
1513266132640135299,,605512,,1513266130,842366423,'',0.471238898038,0.446697878184,0.000854628399365,-0.0245410198544,0.001,146.98804975,6000.0,0.0,300.0,0.0
1513266132650031626,,605513,,1513266130,852366423,'',0.471238898038,0.446705559834,0.000699653970689,-0.0245333382041,0.001,146.989212523,6000.0,0.0,300.0,0.0
1513266132659893229,,605514,,1513266130,862366423,'',0.471238898038,0.446724056632,0.000323689251647,-0.0245148414064,0.001,146.990365437,6000.0,0.0,300.0,0.0
1513266132669993627,,605515,,1513266130,872366423,'',0.471238898038,0.446714375731,0.000520854480863,-0.0245245223075,0.001,146.990512324,6000.0,0.0,300.0,0.0
1513266132679922472,,605516,,1513266130,882366423,'',0.471238898038,0.446719056803,0.000426586095542,-0.0245198412352,0.001,146.990277854,6000.0,0.0,300.0,0.0
1513266132689829483,,605517,,1513266130,892366423,'',0.471238898038,0.446722615164,0.000354927104082,-0.0245162828745,0.001,147.097697247,6000.0,0.0,300.0,0.0
1513266132699803749,,605518,,1513266130,902366423,'',0.471238898038,0.446726044378,0.000285868886059,-0.02451285366,0.001,146.99101585,6000.0,0.0,300.0,0.0
1513266132710695712,,605519,,1513266130,912366423,'',0.471238898038,0.446728614065,0.000234120014527,-0.0245102839733,0.001,146.992321527,6000.0,0.0,300.0,0.0
1513266132720085888,,605520,,1513266130,922366423,'',0.471238898038,0.446730722392,0.000191662099737,-0.0245081756465,0.001,146.99114307,6000.0,0.0,300.0,0.0
1513266132730041524,,605521,,1513266130,932366423,'',0.471238898038,0.446732449486,0.000156881529472,-0.0245064485525,0.001,146.99228983,6000.0,0.0,300.0,0.0
1513266132740027563,,605522,,1513266130,942366423,'',0.471238898038,0.446746140219,-0.000123419671704,-0.0244927578195,0.001,146.992450026,6000.0,0.0,300.0,0.0
1513266132750090015,,605523,,1513266130,952366423,'',0.471238898038,0.446852076336,0.0122965497389,-0.024386821702,0.001,142.698774908,6000.0,0.0,300.0,0.0
1513266132759995119,,605524,,1513266130,962366423,'',0.471238898038,0.447122804333,0.0359391291725,-0.0241160937059,0.001,134.110096866,6000.0,0.0,300.0,0.0
1513266132770451587,,605525,,1513266130,972366423,'',0.471238898038,0.447605446563,0.0552920234786,-0.0236334514759,0.001,125.075501475,6000.0,0.0,300.0,0.0
1513266132780007906,,605526,,1513266130,982366423,'',0.471238898038,0.448263137983,0.0856772560026,-0.0229757600559,0.001,112.02129836,6000.0,0.0,300.0,0.0
1513266132789933434,,605527,,1513266130,992366423,'',0.471238898038,0.449089360455,0.0980946544153,-0.0221495375831,0.001,103.94262534,6000.0,0.0,300.0,0.0
1513266132799901019,,605528,,1513266131,2366423,'',0.471238898038,0.450158548198,0.120158653031,-0.021080349841,0.001,91.8123411549,6000.0,0.0,300.0,0.0
1513266132809873058,,605529,,1513266131,12366423,'',0.471238898038,0.451432106833,0.138105677075,-0.0198067912059,0.001,76.2316213789,6000.0,0.0,300.0,0.0
1513266132819943187,,605530,,1513266131,22366423,'',0.471238898038,0.452885537194,0.15241011991,-0.0183533608446,0.001,64.2097951357,6000.0,0.0,300.0,0.0
1513266132830002185,,605531,,1513266131,32366423,'',0.471238898038,0.454494495895,0.163579906011,-0.016744402143,0.001,51.1457899812,6000.0,0.0,300.0,0.0
1513266132839767604,,605532,,1513266131,42366423,'',0.471238898038,0.456172761199,0.173342378814,-0.015066136839,0.001,39.2340582728,6000.0,0.0,300.0,0.0
1513266132850210663,,605533,,1513266131,52366423,'',0.471238898038,0.457928396212,0.166991704629,-0.0133105018263,0.001,29.7191357841,6000.0,0.0,300.0,0.0
1513266132860197120,,605534,,1513266131,62366423,'',0.471238898038,0.459574601472,0.162850771476,-0.0116642965667,0.001,20.980155642,6000.0,0.0,300.0,0.0
1513266132870203066,,605535,,1513266131,72366423,'',0.471238898038,0.461105225163,0.146484575683,-0.0101336728757,0.001,16.5832131439,6000.0,0.0,300.0,0.0
1513266132880174349,,605536,,1513266131,82366423,'',0.471238898038,0.462496951708,0.132927956957,-0.00874194633089,0.001,13.3818536166,6000.0,0.0,300.0,0.0
1513266132890300093,,605537,,1513266131,92366423,'',0.471238898038,0.463690424579,0.108818735458,-0.00754847345964,0.001,12.5761374582,6000.0,0.0,300.0,0.0
1513266132900201077,,605538,,1513266131,102366423,'',0.471238898038,0.46474752569,0.102020535622,-0.00649137234845,0.001,8.21110655077,6000.0,0.0,300.0,0.0
1513266132910080720,,605539,,1513266131,112366423,'',0.471238898038,0.465730624925,0.0967154130459,-0.00550827311326,0.001,3.85454950459,6000.0,0.0,300.0,0.0
1513266132919952157,,605540,,1513266131,122366423,'',0.471238898038,0.466638739879,0.0929281373979,-0.00460015815954,0.001,0.200760763987,6000.0,0.0,300.0,0.0
1513266132929923955,,605541,,1513266131,132366423,'',0.471238898038,0.467514463779,0.0897949176975,-0.00372443425964,0.001,-4.7325284848,6000.0,0.0,300.0,0.0
1513266132939977924,,605542,,1513266131,142366423,'',0.471238898038,0.468347953598,0.0729588474561,-0.0028909444409,0.001,-4.67160534839,6000.0,0.0,300.0,0.0
1513266132949932815,,605543,,1513266131,152366423,'',0.471238898038,0.469082492138,0.0726736389396,-0.00215640590055,0.001,-8.48958252225,6000.0,0.0,300.0,0.0
1513266132960245832,,605544,,1513266131,162366423,'',0.471238898038,0.469789456665,0.0729500397564,-0.0014494413739,0.001,-12.1908019234,6000.0,0.0,300.0,0.0
1513266132970220969,,605545,,1513266131,172366423,'',0.471238898038,0.470407439413,0.060466670101,-0.000831458625965,0.001,-13.258549793,6000.0,0.0,300.0,0.0
1513266132980163924,,605546,,1513266131,182366423,'',0.471238898038,0.47096341495,0.0492295460512,0.0,0.001,0.0,6000.0,0.0,300.0,0.0
1513266132990138350,,605547,,1513266131,192366423,'',0.471238898038,0.471419599088,0.0545710054095,0.0,0.001,0.0,6000.0,0.0,300.0,0.0
1513266133000077820,,605548,,1513266131,202366423,'',0.471238898038,0.471883970003,0.0451946924453,0.0,0.001,0.0,6000.0,0.0,300.0,0.0
1513266133010026843,,605549,,1513266131,212366423,'',0.471238898038,0.47227714934,0.0372517464117,0.0,0.001,0.0,6000.0,0.0,300.0,0.0
1513266133020020949,,605550,,1513266131,222366423,'',0.471238898038,0.472648891553,0.0297410850165,0.0,0.001,0.0,6000.0,0.0,300.0,0.0
1513266133030390849,,605551,,1513266131,232366423,'',0.471238898038,0.472996218486,0.037278736601,0.0,0.001,0.0,6000.0,0.0,300.0,0.0
1513266133040195594,,605552,,1513266131,242366423,'',0.471238898038,0.473318253458,0.0307698169789,0.0,0.001,0.0,6000.0,0.0,300.0,0.0
1513266133050046723,,605553,,1513266131,252366423,'',0.471238898038,0.473594474006,0.0251906387207,0.0,0.001,0.0,6000.0,0.0,300.0,0.0
1513266133059974277,,605554,,1513266131,262366423,'',0.471238898038,0.473820266782,0.035174768343,0.0,0.001,0.0,6000.0,0.0,300.0,0.0
1513266133070016688,,605555,,1513266131,272366423,'',0.471238898038,0.473992796216,0.0171350610048,0.0,0.001,0.0,6000.0,0.0,300.0,0.0
1513266133079956085,,605556,,1513266131,282366423,'',0.471238898038,0.474160855961,0.0137417497149,0.0,0.001,0.0,6000.0,0.0,300.0,0.0
1513266133089940157,,605557,,1513266131,292366423,'',0.471238898038,0.474311653407,0.0252466855312,0.0,0.001,0.0,6000.0,0.0,300.0,0.0
1513266133099918998,,605558,,1513266131,302366423,'',0.471238898038,0.474471096482,0.00745187814609,0.0,0.001,0.0,6000.0,0.0,300.0,0.0
1513266133110332595,,605559,,1513266131,312366423,'',0.471238898038,0.474591688644,0.019577765578,0.0,0.001,0.0,6000.0,0.0,300.0,0.0
1513266133120147350,,605560,,1513266131,322366423,'',0.471238898038,0.47471691355,0.0170496406087,0.0,0.001,0.0,6000.0,0.0,300.0,0.0
1513266133130229922,,605561,,1513266131,332366423,'',0.471238898038,0.474817831568,0.0150187924746,0.0,0.001,0.0,6000.0,0.0,300.0,0.0
1513266133140725875,,605562,,1513266131,342366423,'',0.471238898038,0.474886575614,-0.00092407658408,0.0,0.001,0.0,6000.0,0.0,300.0,0.0
1513266133150448188,,605563,,1513266131,352366423,'',0.471238898038,0.475009099128,0.0111611321196,0.0,0.001,0.0,6000.0,0.0,300.0,0.0
1513266133160403780,,605564,,1513266131,362366423,'',0.471238898038,0.475109212835,0.00914088374689,0.0,0.001,0.0,6000.0,0.0,300.0,0.0
1513266133170221162,,605565,,1513266131,372366423,'',0.471238898038,0.475191367924,0.00748303198355,0.0,0.001,0.0,6000.0,0.0,300.0,0.0
1513266133180310057,,605566,,1513266131,382366423,'',0.471238898038,0.475272146414,0.00584988614004,0.0,0.001,0.0,6000.0,0.0,300.0,0.0
1513266133190351732,,605567,,1513266131,392366423,'',0.471238898038,0.475337407547,0.00453254903641,0.0,0.001,0.0,6000.0,0.0,300.0,0.0
1513266133200302513,,605568,,1513266131,402366423,'',0.471238898038,0.475378087952,0.00371226537698,0.0,0.001,0.0,6000.0,0.0,300.0,0.0
1513266133210227213,,605569,,1513266131,412366423,'',0.471238898038,0.475424437272,0.00277440410851,0.0,0.001,0.0,6000.0,0.0,300.0,0.0
1513266133220101247,,605570,,1513266131,422366423,'',0.471238898038,0.475449412009,0.0022714037563,0.0,0.001,0.0,6000.0,0.0,300.0,0.0
1513266133230323485,,605571,,1513266131,432366423,'',0.471238898038,0.475482064362,0.00161563340114,0.0,0.001,0.0,6000.0,0.0,300.0,0.0
1513266133239899033,,605572,,1513266131,442366423,'',0.471238898038,0.475507933172,-0.0134649492484,0.0,0.001,0.0,6000.0,0.0,300.0,0.0
1513266133249865145,,605573,,1513266131,452366423,'',0.471238898038,0.47552982042,0.000652633817248,0.0,0.001,0.0,6000.0,0.0,300.0,0.0
1513266133260523881,,605574,,1513266131,462366423,'',0.471238898038,0.475535691813,0.000534257596457,0.0,0.001,0.0,6000.0,0.0,300.0,0.0
1513266133270303055,,605575,,1513266131,472366423,'',0.471238898038,0.475540497411,0.000437369410489,0.0,0.001,0.0,6000.0,0.0,300.0,0.0
1513266133280275250,,605576,,1513266131,482366423,'',0.471238898038,0.475544431508,0.000358052000571,0.0,0.001,0.0,6000.0,0.0,300.0,0.0
1513266133290265126,,605577,,1513266131,492366423,'',0.471238898038,0.475547652431,0.000293113296945,0.0,0.001,0.0,6000.0,0.0,300.0,0.0
1513266133300280360,,605578,,1513266131,502366423,'',0.471238898038,0.475550283508,0.000240066756044,0.0,0.001,0.0,6000.0,0.0,300.0,0.0
1513266133310270417,,605579,,1513266131,512366423,'',0.471238898038,0.475551371315,0.000217657007602,0.0,0.001,0.0,6000.0,0.0,300.0,0.0
1513266133319880149,,605580,,1513266131,522366423,'',0.471238898038,0.475553333926,0.000178174481191,0.0,0.001,0.0,6000.0,0.0,300.0,0.0
1513266133329875074,,605581,,1513266131,532366423,'',0.471238898038,0.475528201548,0.000683368703088,0.0,0.001,0.0,6000.0,0.0,300.0,0.0
1513266133340365514,,605582,,1513266131,542366423,'',0.471238898038,0.475547577553,0.000292401575828,0.0,0.001,0.0,6000.0,0.0,300.0,0.0
1513266133350231106,,605583,,1513266131,552366423,'',0.471238898038,0.475550228116,0.000239365106395,0.0,0.001,0.0,6000.0,0.0,300.0,0.0
1513266133360328273,,605584,,1513266131,562366423,'',0.471238898038,0.475552398334,0.000195940104588,0.0,0.001,0.0,6000.0,0.0,300.0,0.0
1513266133370168430,,605585,,1513266131,572366423,'',0.471238898038,0.47556849487,0.0144277288957,0.0,0.001,0.0,6000.0,0.0,300.0,0.0
1513266133380743347,,605586,,1513266131,582366423,'',0.471238898038,0.475553000414,-0.0143731051553,0.0,0.001,0.0,6000.0,0.0,300.0,0.0
1513266133390171904,,605587,,1513266131,592366423,'',0.471238898038,0.475554667401,0.000150978732853,0.0,0.001,0.0,6000.0,0.0,300.0,0.0
1513266133400123675,,605588,,1513266131,602366423,'',0.471238898038,0.475543087578,0.000382981823082,0.0,0.001,0.0,6000.0,0.0,300.0,0.0
1513266133409988389,,605589,,1513266131,612366423,'',0.471238898038,0.475546552841,0.000313509720569,0.0,0.001,0.0,6000.0,0.0,300.0,0.0
1513266133420089214,,605590,,1513266131,622366423,'',0.471238898038,0.475535996795,0.00051881785145,0.0,0.001,0.0,6000.0,0.0,300.0,0.0
1513266133429946597,,605591,,1513266131,632366423,'',0.471238898038,0.475540729081,0.000425086276677,0.0,0.001,0.0,6000.0,0.0,300.0,0.0
1513266133439845315,,605592,,1513266131,642366423,'',0.471238898038,0.475544621165,0.0003479964262,0.0,0.001,0.0,6000.0,0.0,300.0,0.0
1513266133450345040,,605593,,1513266131,652366423,'',0.471238898038,0.475535601709,0.000528976467659,0.0,0.001,0.0,6000.0,0.0,300.0,0.0
1513266133460371144,,605594,,1513266131,662366423,'',0.471238898038,0.475513694921,-0.0135776494401,0.0,0.001,0.0,6000.0,0.0,300.0,0.0
1513266133470244922,,605595,,1513266131,672366423,'',0.471238898038,0.475522495168,0.000802044757788,0.0,0.001,0.0,6000.0,0.0,300.0,0.0
1513266133480209548,,605596,,1513266131,682366423,'',0.471238898038,0.475529693372,0.000656605607623,0.0,0.001,0.0,6000.0,0.0,300.0,0.0
1513266133490193732,,605597,,1513266131,692366423,'',0.471238898038,0.475535575628,0.000537755082774,0.0,0.001,0.0,6000.0,0.0,300.0,0.0
1513266133500188777,,605598,,1513266131,702366423,'',0.471238898038,0.475540403231,0.000440213731597,0.0,0.001,0.0,6000.0,0.0,300.0,0.0
1513266133510001681,,605599,,1513266131,712366423,'',0.471238898038,0.47554527983,0.00034310465161,0.0,0.001,0.0,6000.0,0.0,300.0,0.0
1513266133520055789,,605600,,1513266131,722366423,'',0.471238898038,0.475548341349,0.000280989424951,0.0,0.001,0.0,6000.0,0.0,300.0,0.0
1513266133529844217,,605601,,1513266131,732366423,'',0.471238898038,0.475538723727,0.000478453413756,0.0,0.001,0.0,6000.0,0.0,300.0,0.0
1513266133539953693,,605602,,1513266131,742366423,'',0.471238898038,0.475542973346,0.000391810531931,0.0,0.001,0.0,6000.0,0.0,300.0,0.0
1513266133550247274,,605603,,1513266131,752366423,'',0.471238898038,0.475546459405,0.000320735390691,0.0,0.001,0.0,6000.0,0.0,300.0,0.0
1513266133560151845,,605604,,1513266131,762366423,'',0.471238898038,0.475562866588,-1.03177328328e-05,0.0,0.001,0.0,6000.0,0.0,300.0,0.0
1513266133570015556,,605605,,1513266131,772366423,'',0.471238898038,0.475616837794,0.0134532677812,0.0,0.001,0.0,6000.0,0.0,300.0,0.0
1513266133579920935,,605606,,1513266131,782366423,'',0.471238898038,0.475671548893,-0.00221011093729,0.0,0.001,0.0,6000.0,0.0,300.0,0.0
1513266133589916313,,605607,,1513266131,792366423,'',0.471238898038,0.475769385484,0.0103702379262,0.0,0.001,0.0,6000.0,0.0,300.0,0.0
1513266133600021842,,605608,,1513266131,802366423,'',0.471238898038,0.475822205132,0.00929759956746,0.0,0.001,0.0,6000.0,0.0,300.0,0.0
1513266133609940562,,605609,,1513266131,812366423,'',0.471238898038,0.475893743777,0.0078532585947,0.0,0.001,0.0,6000.0,0.0,300.0,0.0
1513266133619910615,,605610,,1513266131,822366423,'',0.471238898038,0.475914897769,0.00742833142287,0.0,0.001,0.0,6000.0,0.0,300.0,0.0
1513266133629810663,,605611,,1513266131,832366423,'',0.471238898038,0.475955536789,0.00660529886403,0.0,0.001,0.0,6000.0,0.0,300.0,0.0
1513266133639818069,,605612,,1513266131,842366423,'',0.471238898038,0.475949677722,-0.00783556795239,0.0,0.001,0.0,6000.0,0.0,300.0,0.0
1513266133649930209,,605613,,1513266131,852366423,'',0.471238898038,0.475905304658,-0.00694105098137,0.0,0.001,0.0,6000.0,0.0,300.0,0.0
1513266133660017494,,605614,,1513266131,862366423,'',0.471238898038,0.475882742249,-0.00647773885621,0.0,0.001,0.0,6000.0,0.0,300.0,0.0
1513266133669864036,,605615,,1513266131,872366423,'',0.471238898038,0.475904435156,0.00763942235624,0.0,0.001,0.0,6000.0,0.0,300.0,0.0
1513266133679872875,,605616,,1513266131,882366423,'',0.471238898038,0.475882373683,0.00808008306183,0.0,0.001,0.0,6000.0,0.0,300.0,0.0
1513266133689865378,,605617,,1513266131,892366423,'',0.471238898038,0.475903798142,0.00764657988511,0.0,0.001,0.0,6000.0,0.0,300.0,0.0
1513266133699966405,,605618,,1513266131,902366423,'',0.471238898038,0.475972663008,0.00625696973427,0.0,0.001,0.0,6000.0,0.0,300.0,0.0
1513266133709935560,,605619,,1513266131,912366423,'',0.471238898038,0.476095587558,0.0183322783874,0.0,0.001,0.0,6000.0,0.0,300.0,0.0
1513266133719848902,,605620,,1513266131,922366423,'',0.471238898038,0.476260246106,0.015006769833,0.0,0.001,0.0,6000.0,0.0,300.0,0.0
1513266133730229281,,605621,,1513266131,932366423,'',0.471238898038,0.476394704563,0.0122911941709,0.0,0.001,0.0,6000.0,0.0,300.0,0.0
1513266133740042857,,605622,,1513266131,942366423,'',0.471238898038,0.476491867104,0.0103291631912,0.0,0.001,0.0,6000.0,0.0,300.0,0.0
1513266133750017960,,605623,,1513266131,952366423,'',0.471238898038,0.476612259553,0.00790751641064,0.0,0.001,0.0,6000.0,0.0,300.0,0.0
1513266133759985674,,605624,,1513266131,962366423,'',0.471238898038,0.476696564398,0.00620310837466,0.0,0.001,0.0,6000.0,0.0,300.0,0.0
1513266133769912128,,605625,,1513266131,972366423,'',0.471238898038,0.476777444456,0.00457631309779,0.0,0.001,0.0,6000.0,0.0,300.0,0.0
1513266133779837873,,605626,,1513266131,982366423,'',0.471238898038,0.476844467793,0.00321345603429,0.0,0.001,0.0,6000.0,0.0,300.0,0.0
1513266133789778187,,605627,,1513266131,992366423,'',0.471238898038,0.476912081548,0.0018405831568,0.0,0.001,0.0,6000.0,0.0,300.0,0.0
1513266133800086158,,605628,,1513266132,2366423,'',0.471238898038,0.476940497759,0.00126319627924,0.0,0.001,0.0,6000.0,0.0,300.0,0.0
1513266133810131541,,605629,,1513266132,12366423,'',0.471238898038,0.477068234358,-0.00131543178466,0.0,0.001,0.0,6000.0,0.0,300.0,0.0
1513266133820007153,,605630,,1513266132,22366423,'',0.471238898038,0.477174967161,0.0110888984179,0.0,0.001,0.0,6000.0,0.0,300.0,0.0
1513266133830055925,,605631,,1513266132,32366423,'',0.471238898038,0.477288100001,0.00880353515035,0.0,0.001,0.0,6000.0,0.0,300.0,0.0
1513266133840127250,,605632,,1513266132,42366423,'',0.471238898038,0.477497834284,0.0191236678088,0.0,0.001,0.0,6000.0,0.0,300.0,0.0
1513266133850075130,,605633,,1513266132,52366423,'',0.471238898038,0.477710612065,0.02938460728,0.0,0.001,0.0,6000.0,0.0,300.0,0.0
1513266133860020350,,605634,,1513266132,62366423,'',0.471238898038,0.477961669763,0.0243149210674,0.0,0.001,0.0,6000.0,0.0,300.0,0.0
1513266133869835700,,605635,,1513266132,72366423,'',0.471238898038,0.478207708209,0.0338968825065,0.0,0.001,0.0,6000.0,0.0,300.0,0.0
1513266133879842752,,605636,,1513266132,82366423,'',0.471238898038,0.47852577703,0.0274687095031,0.0,0.001,0.0,6000.0,0.0,300.0,0.0
1513266133889824872,,605637,,1513266132,92366423,'',0.471238898038,0.478863310414,0.0206500770957,0.0,0.001,0.0,6000.0,0.0,300.0,0.0
1513266133900323127,,605638,,1513266132,102366423,'',0.471238898038,0.479113048131,0.0301651687693,0.0,0.001,0.0,6000.0,0.0,300.0,0.0
1513266133910125384,,605639,,1513266132,112366423,'',0.471238898038,0.479317581629,0.0260242573127,0.0,0.001,0.0,6000.0,0.0,300.0,0.0
1513266133920150477,,605640,,1513266132,122366423,'',0.471238898038,0.479551369231,0.0213021908719,0.0,0.001,0.0,6000.0,0.0,300.0,0.0
1513266133929848719,,605641,,1513266132,132366423,'',0.471238898038,0.479729295759,0.0177107288696,0.0,0.001,0.0,6000.0,0.0,300.0,0.0
1513266133939808504,,605642,,1513266132,142366423,'',0.471238898038,0.479849780446,0.000716672068983,0.0,0.001,0.0,6000.0,0.0,300.0,0.0
1513266133949816191,,605643,,1513266132,152366423,'',0.471238898038,0.4799869393,0.0125043188278,0.0,0.001,0.0,6000.0,0.0,300.0,0.0
1513266133960276067,,605644,,1513266132,162366423,'',0.471238898038,0.48009909159,0.0102390881454,0.0,0.001,0.0,6000.0,0.0,300.0,0.0
1513266133970105336,,605645,,1513266132,172366423,'',0.471238898038,0.480245889641,0.0218344672815,0.0,0.001,0.0,6000.0,0.0,300.0,0.0
1513266133980037052,,605646,,1513266132,182366423,'',0.471238898038,0.4804694746,0.031874956295,0.0,0.001,0.0,6000.0,0.0,300.0,0.0
1513266133990093913,,605647,,1513266132,192366423,'',0.471238898038,0.480772793224,0.0403041044051,0.0,0.001,0.0,6000.0,0.0,300.0,0.0
1513266134000054790,,605648,,1513266132,202366423,'',0.471238898038,0.481282534848,0.0591214284397,0.0,0.001,0.0,6000.0,0.0,300.0,0.0
1513266134010040040,,605649,,1513266132,212366423,'',0.471238898038,0.481893967774,0.0613216716189,0.0,0.001,0.0,6000.0,0.0,300.0,0.0
1513266134019846913,,605650,,1513266132,222366423,'',0.471238898038,0.482617199307,0.0758245504263,0.0,0.001,0.0,6000.0,0.0,300.0,0.0
1513266134029850097,,605651,,1513266132,232366423,'',0.471238898038,0.48339161977,0.0892921427536,0.0121527217315,0.001,-99.2686301194,6000.0,0.0,300.0,0.0
1513266134039959327,,605652,,1513266132,242366423,'',0.471238898038,0.484287076416,0.0857555996078,0.0130481783776,0.001,-104.125063667,6000.0,0.0,300.0,0.0
1513266134050250293,,605653,,1513266132,252366423,'',0.471238898038,0.4851380085,0.0831227481729,0.0138991104611,0.001,-108.509180467,6000.0,0.0,300.0,0.0
1513266134060256162,,605654,,1513266132,262366423,'',0.471238898038,0.485923533957,0.081802672021,0.0146846359185,0.001,-112.453400826,6000.0,0.0,300.0,0.0
1513266134070152290,,605655,,1513266132,272366423,'',0.471238898038,0.486595277691,0.0682299253901,0.0153563796529,0.001,-112.337042178,6000.0,0.0,300.0,0.0
1513266134080298013,,605656,,1513266132,282366423,'',0.471238898038,0.487138851031,0.0426921223068,0.0158999529929,0.001,-107.937644252,6000.0,0.0,300.0,0.0
1513266134090183163,,605657,,1513266132,292366423,'',0.471238898038,0.487493905634,0.020964395499,0.016255007595,0.001,-103.866726202,6000.0,0.0,300.0,0.0
1513266134100040082,,605658,,1513266132,302366423,'',0.471238898038,0.487535798597,-0.00898884778923,0.0162969005583,0.001,-95.1344471985,6000.0,0.0,300.0,0.0
1513266134110146766,,605659,,1513266132,312366423,'',0.471238898038,0.487306842071,-0.0334843939191,0.0160679440322,0.001,-86.3350664286,6000.0,0.0,300.0,0.0
1513266134119961358,,605660,,1513266132,322366423,'',0.471238898038,0.486951330349,-0.0408630062301,0.0157124323101,0.001,-82.1924545707,6000.0,0.0,300.0,0.0
1513266134129916538,,605661,,1513266132,332366423,'',0.471238898038,0.486585300628,-0.0334658582264,0.0153464025895,0.001,-81.9900996295,6000.0,0.0,300.0,0.0
1513266134139840726,,605662,,1513266132,342366423,'',0.471238898038,0.486284961774,-0.0273962665317,0.0150460637358,0.001,-82.0276439536,6000.0,0.0,300.0,0.0
1513266134149876982,,605663,,1513266132,352366423,'',0.471238898038,0.486081356615,-0.0087246553919,0.0148424585763,0.001,-86.4878311439,6000.0,0.0,300.0,0.0
1513266134159792086,,605664,,1513266132,362366423,'',0.471238898038,0.486004481383,-0.00716662016369,0.014765583345,0.001,-86.3814356885,6000.0,0.0,300.0,0.0
1513266134170273335,,605665,,1513266132,372366423,'',0.471238898038,0.486042332124,-0.00793328208031,0.0148034340853,0.001,-86.4302932163,6000.0,0.0,300.0,0.0
1513266134180135166,,605666,,1513266132,382366423,'',0.471238898038,0.486038262618,-0.00784537938068,0.0147993645794,0.001,-86.4737366202,6000.0,0.0,300.0,0.0
1513266134190006422,,605667,,1513266132,392366423,'',0.471238898038,0.486058457668,-0.00825691514235,0.0148195596293,0.001,-86.4288321235,6000.0,0.0,300.0,0.0
1513266134200188499,,605668,,1513266132,402366423,'',0.471238898038,0.486035617945,-0.00779444580688,0.0147967199069,0.001,-86.4449760994,6000.0,0.0,300.0,0.0
1513266134210132400,,605669,,1513266132,412366423,'',0.471238898038,0.486004739378,-0.00716675206448,0.0147658413392,0.001,-86.4316275925,6000.0,0.0,300.0,0.0
1513266134220039730,,605670,,1513266132,422366423,'',0.471238898038,0.485980046265,-0.00666863949599,0.0147411482262,0.001,-86.4378643741,6000.0,0.0,300.0,0.0
1513266134229942098,,605671,,1513266132,432366423,'',0.471238898038,0.485946767206,-0.00599374565399,0.0147078691676,0.001,-86.4770773428,6000.0,0.0,300.0,0.0
1513266134239945142,,605672,,1513266132,442366423,'',0.471238898038,0.485906618776,-0.00518133018274,0.0146677207374,0.001,-86.4410908948,6000.0,0.0,300.0,0.0
1513266134249925252,,605673,,1513266132,452366423,'',0.471238898038,0.485884979993,-0.0047532970479,0.014646081955,0.001,-86.445923065,6000.0,0.0,300.0,0.0
1513266134259842760,,605674,,1513266132,462366423,'',0.471238898038,0.485879870921,-0.00464859751068,0.0146409728827,0.001,-86.4772326036,6000.0,0.0,300.0,0.0
1513266134269822189,,605675,,1513266132,472366423,'',0.471238898038,0.485852484694,0.01046168603,0.0146135866553,0.001,-90.8330506445,6000.0,0.0,300.0,0.0
1513266134280370793,,605676,,1513266132,482366423,'',0.471238898038,0.485802987032,-0.00307858124181,0.0145640889931,0.001,-86.4305208988,6000.0,0.0,300.0,0.0
1513266134290279836,,605677,,1513266132,492366423,'',0.471238898038,0.485775332149,-0.00252253756938,0.0145364341105,0.001,-86.4713281349,6000.0,0.0,300.0,0.0
1513266134300261940,,605678,,1513266132,502366423,'',0.471238898038,0.485752572256,-0.00206491513933,0.0145136742173,0.001,-86.4742301462,6000.0,0.0,300.0,0.0
1513266134310155913,,605679,,1513266132,512366423,'',0.471238898038,0.485693385441,-0.0154250792955,0.0144544874024,0.001,-82.0688698998,6000.0,0.0,300.0,0.0
1513266134320058851,,605680,,1513266132,522366423,'',0.471238898038,0.485606594728,-0.0136753884138,0.0143676966896,0.001,-82.0722977711,6000.0,0.0,300.0,0.0
1513266134329952097,,605681,,1513266132,532366423,'',0.471238898038,0.485496481022,-0.0114495971294,0.0142575829836,0.001,-82.0903438835,6000.0,0.0,300.0,0.0
1513266134339899728,,605682,,1513266132,542366423,'',0.471238898038,0.485365800559,-0.00881105459272,0.0141269025207,0.001,-82.1055605064,6000.0,0.0,300.0,0.0
1513266134350189238,,605683,,1513266132,552366423,'',0.471238898038,0.485156329791,-0.0191379948063,0.013917431752,0.001,-77.8426491004,6000.0,0.0,300.0,0.0
1513266134360132790,,605684,,1513266132,562366423,'',0.471238898038,0.484902154125,-0.0285580025905,0.0136632560864,0.001,-73.3678627504,6000.0,0.0,300.0,0.0
1513266134370074048,,605685,,1513266132,572366423,'',0.471238898038,0.484581496386,-0.0220831865588,0.0133425983478,0.001,-73.4495701651,6000.0,0.0,300.0,0.0
1513266134379935235,,605686,,1513266132,582366423,'',0.471238898038,0.484251638385,-0.0299770447114,0.0130127403467,0.001,-68.7739055695,6000.0,0.0,300.0,0.0
1513266134389962976,,605687,,1513266132,592366423,'',0.471238898038,0.483931419595,-0.0235078304391,0.012692521557,0.001,-69.0162788481,6000.0,0.0,300.0,0.0
1513266134400211527,,605688,,1513266132,602366423,'',0.471238898038,0.483602304273,-0.0314198841587,0.0123634062341,0.001,-64.726637927,6000.0,0.0,300.0,0.0
1513266134410168179,,605689,,1513266132,612366423,'',0.471238898038,0.483306511751,-0.0254437404546,0.012067613713,0.001,-64.7426328358,6000.0,0.0,300.0,0.0
1513266134420139193,,605690,,1513266132,622366423,'',0.471238898038,0.483080134951,-0.0208679052832,0.0118412369122,0.001,-64.716588439,6000.0,0.0,300.0,0.0
1513266134430389618,,605691,,1513266132,632366423,'',0.471238898038,0.482893221849,-0.0170920438485,0.0116543238108,0.001,-64.7986594248,6000.0,0.0,300.0,0.0
1513266134440096496,,605692,,1513266132,642366423,'',0.471238898038,0.482712648148,-0.0134448643418,0.0114737501098,0.001,-64.7842319121,6000.0,0.0,300.0,0.0
1513266134450140588,,605693,,1513266132,652366423,'',0.471238898038,0.482554031351,-0.0102353397354,0.0113151333129,0.001,-64.8034606178,6000.0,0.0,300.0,0.0
1513266134460136192,,605694,,1513266132,662366423,'',0.471238898038,0.482412006266,-0.00736624546778,0.0111731082272,0.001,-64.8876689828,6000.0,0.0,300.0,0.0
1513266134470936991,,605695,,1513266132,672366423,'',0.471238898038,0.482307166967,-0.00524021436637,0.0110682689286,0.001,-64.8258283455,6000.0,0.0,300.0,0.0
1513266134480403227,,605696,,1513266132,682366423,'',0.471238898038,0.482220128747,-0.00348447140902,0.0109812307082,0.001,-64.8357346214,6000.0,0.0,300.0,0.0
1513266134490268220,,605697,,1513266132,692366423,'',0.471238898038,0.482163623052,-0.00234634313307,0.0109247250134,0.001,-64.8236987415,6000.0,0.0,300.0,0.0
1513266134500438688,,605698,,1513266132,702366423,'',0.471238898038,0.482142521862,-0.00192133512295,0.0109036238239,0.001,-64.8372654431,6000.0,0.0,300.0,0.0
1513266134510218213,,605699,,1513266132,712366423,'',0.471238898038,0.482152010362,-0.002114071002,0.0109131123235,0.001,-64.8545788994,6000.0,0.0,300.0,0.0
1513266134520158850,,605700,,1513266132,722366423,'',0.471238898038,0.482145939257,-0.00199215654267,0.0109070412188,0.001,-64.8385618698,6000.0,0.0,300.0,0.0
1513266134530039208,,605701,,1513266132,732366423,'',0.471238898038,0.482128023114,-0.00163093903925,0.0108891250758,0.001,-64.8419420267,6000.0,0.0,300.0,0.0
1513266134540494925,,605702,,1513266132,742366423,'',0.471238898038,0.482099887787,-0.0010627128934,0.0108609897489,0.001,-64.8468423054,6000.0,0.0,300.0,0.0
1513266134550482245,,605703,,1513266132,752366423,'',0.471238898038,0.482063860898,0.0142178937768,0.0108249628592,0.001,-69.2323443228,6000.0,0.0,300.0,0.0
1513266134560248775,,605704,,1513266132,762366423,'',0.471238898038,0.482060825818,-0.000277661016609,0.0108219277796,0.001,-64.8480487117,6000.0,0.0,300.0,0.0
1513266134570370571,,605705,,1513266132,772366423,'',0.471238898038,0.482058346066,-0.000227389284659,0.010819448028,0.001,-64.849960965,6000.0,0.0,300.0,0.0
1513266134580246754,,605706,,1513266132,782366423,'',0.471238898038,0.482043597639,7.05834785282e-05,0.0108046996006,0.001,-64.8496890436,6000.0,0.0,300.0,0.0
1513266134590385574,,605707,,1513266132,792366423,'',0.471238898038,0.482042056626,-0.0144528170703,0.0108031585876,0.001,-60.4570924923,6000.0,0.0,300.0,0.0
1513266134600392780,,605708,,1513266132,802366423,'',0.471238898038,0.482015373814,-0.013911288904,0.0107764757757,0.001,-60.5521378006,6000.0,0.0,300.0,0.0
1513266134610024995,,605709,,1513266132,812366423,'',0.471238898038,0.481995780386,0.00104156106932,0.0107568823473,0.001,-64.8543420495,6000.0,0.0,300.0,0.0
1513266134619999302,,605710,,1513266132,822366423,'',0.471238898038,0.482005092629,0.000852672856496,0.0107661945903,0.001,-64.8527076681,6000.0,0.0,300.0,0.0
1513266134630229515,,605711,,1513266132,832366423,'',0.471238898038,0.481986257161,0.00122979211899,0.0107473591223,0.001,-64.8545497496,6000.0,0.0,300.0,0.0
1513266134640489451,,605712,,1513266132,842366423,'',0.471238898038,0.481970558606,0.00154760190322,0.0107316605672,0.001,-64.846047914,6000.0,0.0,300.0,0.0
1513266134650491627,,605713,,1513266132,852366423,'',0.471238898038,0.481984444845,0.00126694264447,0.010745546807,0.001,-64.8543374212,6000.0,0.0,300.0,0.0
1513266134660710570,,605714,,1513266132,862366423,'',0.471238898038,0.481982073031,0.00131488515462,0.0107431749929,0.001,-64.8568985227,6000.0,0.0,300.0,0.0
1513266134670661872,,605715,,1513266132,872366423,'',0.471238898038,0.481980292386,0.00135020519757,0.0107413943479,0.001,-64.8554455852,6000.0,0.0,300.0,0.0
1513266134680628176,,605716,,1513266132,882366423,'',0.471238898038,0.481967510196,0.00160872002422,0.0107286121575,0.001,-64.8566037456,6000.0,0.0,300.0,0.0
1513266134690490800,,605717,,1513266132,892366423,'',0.471238898038,0.481943172572,0.0020977133174,0.0107042745334,0.001,-64.8480378403,6000.0,0.0,300.0,0.0
1513266134700377395,,605718,,1513266132,902366423,'',0.471238898038,0.481962025298,0.0017172907659,0.0107231272596,0.001,-64.8567280773,6000.0,0.0,300.0,0.0
1513266134710452050,,605719,,1513266132,912366423,'',0.471238898038,0.48197746172,0.00140580462238,0.0107385636815,0.001,-64.8557020644,6000.0,0.0,300.0,0.0
1513266134720196579,,605720,,1513266132,922366423,'',0.471238898038,0.481964155022,0.00167292368336,0.0107252569839,0.001,-64.8457684479,6000.0,0.0,300.0,0.0
1513266134730119786,,605721,,1513266132,932366423,'',0.471238898038,0.48195391058,0.00187894425858,0.010715012542,0.001,-64.8579720293,6000.0,0.0,300.0,0.0
1513266134740192453,,605722,,1513266132,942366423,'',0.471238898038,0.481972929838,0.0160544608909,0.0107340317999,0.001,-69.2307730031,6000.0,0.0,300.0,0.0
1513266134749970144,,605723,,1513266132,952366423,'',0.471238898038,0.481974120369,0.00147028738452,0.0107352223308,0.001,-64.846629418,6000.0,0.0,300.0,0.0
1513266134759988330,,605724,,1513266132,962366423,'',0.471238898038,0.48198605144,0.00122385542012,0.0107471534012,0.001,-64.8523386907,6000.0,0.0,300.0,0.0
1513266134770650515,,605725,,1513266132,972366423,'',0.471238898038,0.481944292589,-0.0124881843211,0.0107053945502,0.001,-60.4620133486,6000.0,0.0,300.0,0.0
1513266134780451860,,605726,,1513266132,982366423,'',0.471238898038,0.48195049645,0.00194583695321,0.0107115984115,0.001,-64.8316414256,6000.0,0.0,300.0,0.0
1513266134790166550,,605727,,1513266132,992366423,'',0.471238898038,0.481980788906,0.00133476503174,0.0107418908671,0.001,-64.8627608489,6000.0,0.0,300.0,0.0
1513266134800445359,,605728,,1513266133,2366423,'',0.471238898038,0.48197842977,-0.0131737641136,0.0107395317314,0.001,-60.4556174656,6000.0,0.0,300.0,0.0
1513266134810639767,,605729,,1513266133,12366423,'',0.471238898038,0.481977194653,0.00141644771383,0.0107382966144,0.001,-64.8668552073,6000.0,0.0,300.0,0.0
1513266134820468716,,605730,,1513266133,22366423,'',0.471238898038,0.482003947989,0.000876024550713,0.0107650499504,0.001,-64.8527980158,6000.0,0.0,300.0,0.0
1513266134830419778,,605731,,1513266133,32366423,'',0.471238898038,0.482011769082,0.000717358351265,0.0107728710431,0.001,-64.8534709817,6000.0,0.0,300.0,0.0
1513266134840264350,,605732,,1513266133,42366423,'',0.471238898038,0.482018172943,0.000596125134788,0.0107792749048,0.001,-64.8513371323,6000.0,0.0,300.0,0.0
1513266134850534920,,605733,,1513266133,52366423,'',0.471238898038,0.482023416245,0.000488182452971,0.0107845182067,0.001,-64.8486661036,6000.0,0.0,300.0,0.0
1513266134860287212,,605734,,1513266133,62366423,'',0.471238898038,0.482015658978,0.000641573616573,0.0107767609392,0.001,-64.8518736541,6000.0,0.0,300.0,0.0
1513266134870062263,,605735,,1513266133,72366423,'',0.471238898038,0.482008144171,0.000789926479697,0.0107692461323,0.001,-64.8524099073,6000.0,0.0,300.0,0.0
1513266134880017922,,605736,,1513266133,82366423,'',0.471238898038,0.482015203421,0.000646891439433,0.0107763053827,0.001,-64.8483689374,6000.0,0.0,300.0,0.0
1513266134890114199,,605737,,1513266133,92366423,'',0.471238898038,0.482020994896,0.000529544158853,0.0107820968576,0.001,-64.8516050598,6000.0,0.0,300.0,0.0
1513266134900504978,,605738,,1513266133,102366423,'',0.471238898038,0.481999841836,0.000958248633945,0.0107609437979,0.001,-64.8531221191,6000.0,0.0,300.0,0.0
1513266134910396683,,605739,,1513266133,112366423,'',0.471238898038,0.482009710367,0.0153086157865,0.0107708123286,0.001,-69.148449578,6000.0,0.0,300.0,0.0
1513266134920529567,,605740,,1513266133,122366423,'',0.471238898038,0.482030829265,0.000327181354967,0.0107919312264,0.001,-64.8512710407,6000.0,0.0,300.0,0.0
1513266134930287168,,605741,,1513266133,132366423,'',0.471238898038,0.482033782174,0.000267910533886,0.0107948841359,0.001,-64.8533078226,6000.0,0.0,300.0,0.0
1513266134940199045,,605742,,1513266133,142366423,'',0.471238898038,0.482036196394,0.00021945229965,0.0107972983554,0.001,-64.8503164412,6000.0,0.0,300.0,0.0
1513266134950461571,,605743,,1513266133,152366423,'',0.471238898038,0.482038175906,0.000179719508499,0.010799277868,0.001,-64.8487768206,6000.0,0.0,300.0,0.0
1513266134960585702,,605744,,1513266133,162366423,'',0.471238898038,0.482039614411,0.000154112139107,0.0108007163723,0.001,-64.8500705738,6000.0,0.0,300.0,0.0
1513266134970539059,,605745,,1513266133,172366423,'',0.471238898038,0.482039515532,0.000159727618666,0.0108006174938,0.001,-64.8500795329,6000.0,0.0,300.0,0.0
1513266134980393838,,605746,,1513266133,182366423,'',0.471238898038,0.482065387609,-0.000360507873596,0.0108264895701,0.001,-64.8497336112,6000.0,0.0,300.0,0.0
1513266134990844737,,605747,,1513266133,192366423,'',0.471238898038,0.482074490987,-0.000549081860378,0.0108355929482,0.001,-64.8465510738,6000.0,0.0,300.0,0.0
1513266135000296423,,605748,,1513266133,202366423,'',0.471238898038,0.482069528978,-0.000449505278308,0.0108306309396,0.001,-64.8477523992,6000.0,0.0,300.0,0.0
1513266135010136424,,605749,,1513266133,212366423,'',0.471238898038,0.482065473831,-0.000368127418476,0.010826575793,0.001,-64.8502972673,6000.0,0.0,300.0,0.0
1513266135020316276,,605750,,1513266133,222366423,'',0.471238898038,0.482062146521,-0.00030135562177,0.0108232484823,0.001,-64.8482262562,6000.0,0.0,300.0,0.0
1513266135030338178,,605751,,1513266133,232366423,'',0.471238898038,0.482059425891,-0.000246758577112,0.0108205278526,0.001,-64.8495495316,6000.0,0.0,300.0,0.0
1513266135040427451,,605752,,1513266133,242366423,'',0.471238898038,0.482082454098,-0.000713141558963,0.0108435560595,0.001,-64.8461889832,6000.0,0.0,300.0,0.0
1513266135050149501,,605753,,1513266133,252366423,'',0.471238898038,0.482089005785,-0.000845997845443,0.010850107747,0.001,-64.8455342316,6000.0,0.0,300.0,0.0
1513266135060279785,,605754,,1513266133,262366423,'',0.471238898038,0.482081423928,-0.000692826264369,0.01084252589,0.001,-64.851086442,6000.0,0.0,300.0,0.0
1513266135070113930,,605755,,1513266133,272366423,'',0.471238898038,0.482087653198,-0.000821366668276,0.0108487551596,0.001,-64.8457179065,6000.0,0.0,300.0,0.0
1513266135080192802,,605756,,1513266133,282366423,'',0.471238898038,0.482093326566,-0.00093747513695,0.0108544285275,0.001,-64.8460803801,6000.0,0.0,300.0,0.0
1513266135089950405,,605757,,1513266133,292366423,'',0.471238898038,0.482097669785,-0.0010216157031,0.0108587717462,0.001,-64.8506367506,6000.0,0.0,300.0,0.0
1513266135099965526,,605758,,1513266133,302366423,'',0.471238898038,0.482088501909,-0.0008362967491,0.0108496038704,0.001,-64.8451579175,6000.0,0.0,300.0,0.0
1513266135109917765,,605759,,1513266133,312366423,'',0.471238898038,0.482093026107,-0.00092628083894,0.0108541280686,0.001,-64.8460349187,6000.0,0.0,300.0,0.0
1513266135120316081,,605760,,1513266133,322366423,'',0.471238898038,0.482084716353,-0.000758573673511,0.010845818315,0.001,-64.8508106577,6000.0,0.0,300.0,0.0
1513266135130408972,,605761,,1513266133,332366423,'',0.471238898038,0.482077898056,-0.000620967033076,0.0108390000178,0.001,-64.8461976121,6000.0,0.0,300.0,0.0
1513266135139865181,,605762,,1513266133,342366423,'',0.471238898038,0.482072318652,-0.000508363694304,0.010833420614,0.001,-64.8480263921,6000.0,0.0,300.0,0.0
1513266135149890937,,605763,,1513266133,352366423,'',0.471238898038,0.482067750992,-0.000416179333074,0.0108288529539,0.001,-64.8478823579,6000.0,0.0,300.0,0.0
1513266135159869049,,605764,,1513266133,362366423,'',0.471238898038,0.482076901747,-0.000604972899047,0.0108380037081,0.001,-64.8470396923,6000.0,0.0,300.0,0.0
1513266135170447284,,605765,,1513266133,372366423,'',0.471238898038,0.482071502544,-0.000495260417395,0.0108326045057,0.001,-64.8473235673,6000.0,0.0,300.0,0.0
1513266135180326865,,605766,,1513266133,382366423,'',0.471238898038,0.482052744213,-0.0146725487536,0.010813846175,0.001,-60.4603012594,6000.0,0.0,300.0,0.0
1513266135190304810,,605767,,1513266133,392366423,'',0.471238898038,0.482064549372,-0.000345796793948,0.0108256513339,0.001,-64.850581891,6000.0,0.0,300.0,0.0
1513266135200179266,,605768,,1513266133,402366423,'',0.471238898038,0.482075195641,-0.000563813832075,0.0108362976022,0.001,-64.8476658903,6000.0,0.0,300.0,0.0
1513266135210131612,,605769,,1513266133,412366423,'',0.471238898038,0.482057921471,-0.000212779847672,0.0108190234321,0.001,-64.846615689,6000.0,0.0,300.0,0.0
1513266135220209799,,605770,,1513266133,422366423,'',0.471238898038,0.482056035545,-0.000179551258964,0.0108171375062,0.001,-64.8485826983,6000.0,0.0,300.0,0.0
1513266135230066831,,605771,,1513266133,432366423,'',0.471238898038,0.482066877517,-0.000398769937402,0.0108279794786,0.001,-64.8504819569,6000.0,0.0,300.0,0.0
1513266135239974962,,605772,,1513266133,442366423,'',0.471238898038,0.482063295911,-0.000326446356642,0.0108243978725,0.001,-64.8479012602,6000.0,0.0,300.0,0.0
1513266135249852242,,605773,,1513266133,452366423,'',0.471238898038,0.482059495026,-0.000242675140491,0.0108205969872,0.001,-64.8497128036,6000.0,0.0,300.0,0.0
1513266135259840232,,605774,,1513266133,462366423,'',0.471238898038,0.482057252309,-0.000198661007962,0.0108183542708,0.001,-64.8484576759,6000.0,0.0,300.0,0.0
1513266135270299454,,605775,,1513266133,472366423,'',0.471238898038,0.482081871971,-0.000697089847797,0.0108429739325,0.001,-64.8464445594,6000.0,0.0,300.0,0.0
1513266135280240679,,605776,,1513266133,482366423,'',0.471238898038,0.482075570328,-0.000570650090075,0.0108366722896,0.001,-64.8468127034,6000.0,0.0,300.0,0.0
1513266135290204772,,605777,,1513266133,492366423,'',0.471238898038,0.482084419229,0.013803195168,0.0108455211901,0.001,-69.1338922325,6000.0,0.0,300.0,0.0
1513266135300187285,,605778,,1513266133,502366423,'',0.471238898038,0.482063880281,-0.000336374261161,0.0108249822427,0.001,-64.8479452524,6000.0,0.0,300.0,0.0
1513266135310708342,,605779,,1513266133,512366423,'',0.471238898038,0.482060841489,-0.000275351421039,0.0108219434508,0.001,-64.8483073468,6000.0,0.0,300.0,0.0
1513266135320137023,,605780,,1513266133,522366423,'',0.471238898038,0.482071341029,-0.000484962821598,0.0108324429906,0.001,-64.850446275,6000.0,0.0,300.0,0.0
1513266135330030050,,605781,,1513266133,532366423,'',0.471238898038,0.482080185859,-0.000664564991843,0.0108412878206,0.001,-64.8467804735,6000.0,0.0,300.0,0.0
1513266135340018270,,605782,,1513266133,542366423,'',0.471238898038,0.482087163409,-0.000805864825116,0.0108482653705,0.001,-64.8462297276,6000.0,0.0,300.0,0.0
1513266135349904582,,605783,,1513266133,552366423,'',0.471238898038,0.482079901837,-0.000659692066501,0.0108410037982,0.001,-64.8468028918,6000.0,0.0,300.0,0.0
1513266135359864742,,605784,,1513266133,562366423,'',0.471238898038,0.482073968289,-0.000540251955167,0.0108350702506,0.001,-64.8466053003,6000.0,0.0,300.0,0.0
1513266135370424528,,605785,,1513266133,572366423,'',0.471238898038,0.482095643853,0.0135759110972,0.0108567458143,0.001,-69.2296501074,6000.0,0.0,300.0,0.0
1513266135380394927,,605786,,1513266133,582366423,'',0.471238898038,0.482072818409,-0.00052029662835,0.0108339203706,0.001,-64.8470620475,6000.0,0.0,300.0,0.0
1513266135390162195,,605787,,1513266133,592366423,'',0.471238898038,0.482054419194,-0.000145237380032,0.0108155211554,0.001,-64.8487185121,6000.0,0.0,300.0,0.0
1513266135400217847,,605788,,1513266133,602366423,'',0.471238898038,0.482065798735,-0.000375774136332,0.0108269006966,0.001,-64.8479160657,6000.0,0.0,300.0,0.0
1513266135410391640,,605789,,1513266133,612366423,'',0.471238898038,0.482049096162,-3.63039714552e-05,0.0108101981237,0.001,-64.849197106,6000.0,0.0,300.0,0.0
1513266135420490773,,605790,,1513266133,622366423,'',0.471238898038,0.482048740208,-2.97326811533e-05,0.0108098421694,0.001,-64.8492531122,6000.0,0.0,300.0,0.0
1513266135430349581,,605791,,1513266133,632366423,'',0.471238898038,0.482048447471,-2.4328443866e-05,0.0108095494321,0.001,-64.8490682221,6000.0,0.0,300.0,0.0
1513266135440201889,,605792,,1513266133,642366423,'',0.471238898038,0.482050055649,-5.48786932417e-05,0.010811157611,0.001,-64.8491245208,6000.0,0.0,300.0,0.0
1513266135450055887,,605793,,1513266133,652366423,'',0.471238898038,0.482039252141,0.000165095398962,0.0108003541025,0.001,-64.8502988659,6000.0,0.0,300.0,0.0
1513266135460616741,,605794,,1513266133,662366423,'',0.471238898038,0.482040677659,0.000135219634332,0.0108017796204,0.001,-64.849898901,6000.0,0.0,300.0,0.0
1513266135470669593,,605795,,1513266133,672366423,'',0.471238898038,0.482041848036,0.000110691075189,0.0108029499972,0.001,-64.8498681909,6000.0,0.0,300.0,0.0
1513266135480432204,,605796,,1513266133,682366423,'',0.471238898038,0.482044595129,5.19051555441e-05,0.0108056970904,0.001,-64.8492457486,6000.0,0.0,300.0,0.0
1513266135490491009,,605797,,1513266133,692366423,'',0.471238898038,0.482045055063,4.2486022017e-05,0.0108061570244,0.001,-64.8496321164,6000.0,0.0,300.0,0.0
1513266135500414061,,605798,,1513266133,702366423,'',0.471238898038,0.482045431291,3.47811365282e-05,0.010806533252,0.001,-64.8495460005,6000.0,0.0,300.0,0.0
1513266135510461229,,605799,,1513266133,712366423,'',0.471238898038,0.482045738871,2.84820952027e-05,0.0108068408327,0.001,-64.8493390872,6000.0,0.0,300.0,0.0
1513266135520325826,,605800,,1513266133,722366423,'',0.471238898038,0.482032432484,0.000296849913606,0.010793534446,0.001,-64.8508285668,6000.0,0.0,300.0,0.0
1513266135530241615,,605801,,1513266133,732366423,'',0.471238898038,0.482035093469,0.000243103948586,0.0107961954307,0.001,-64.8487063195,6000.0,0.0,300.0,0.0
1513266135540103581,,605802,,1513266133,742366423,'',0.471238898038,0.48204957903,-4.32230971784e-05,0.0108106809914,0.001,-64.8491820059,6000.0,0.0,300.0,0.0
1513266135550204228,,605803,,1513266133,752366423,'',0.471238898038,0.482035095938,0.000248537887768,0.0107961978992,0.001,-64.8505678009,6000.0,0.0,300.0,0.0
1513266135559978731,,605804,,1513266133,762366423,'',0.471238898038,0.482050236539,-6.13832189289e-05,0.0108113385003,0.001,-64.8491081309,6000.0,0.0,300.0,0.0
1513266135570572292,,605805,,1513266133,772366423,'',0.471238898038,0.482049672639,-5.02422019713e-05,0.0108107746009,0.001,-64.8490478673,6000.0,0.0,300.0,0.0
1513266135580252818,,605806,,1513266133,782366423,'',0.471238898038,0.482049211544,-4.11322940029e-05,0.0108103135056,0.001,-64.8492374656,6000.0,0.0,300.0,0.0
1513266135590579792,,605807,,1513266133,792366423,'',0.471238898038,0.482062095447,-0.014857241971,0.0108231974088,0.001,-60.4723358768,6000.0,0.0,300.0,0.0
1513266135600256230,,605808,,1513266133,802366423,'',0.471238898038,0.482073308295,-0.000515653578614,0.0108344102564,0.001,-64.8473233276,6000.0,0.0,300.0,0.0
1513266135610153462,,605809,,1513266133,812366423,'',0.471238898038,0.482068558623,-0.000422096982024,0.0108296605844,0.001,-64.8476982246,6000.0,0.0,300.0,0.0
1513266135620181332,,605810,,1513266133,822366423,'',0.471238898038,0.482063724366,-0.000330519385075,0.0108248263278,0.001,-64.8479829172,6000.0,0.0,300.0,0.0
1513266135630016547,,605811,,1513266133,832366423,'',0.471238898038,0.482060713276,-0.000270547087786,0.010821815238,0.001,-64.8479804233,6000.0,0.0,300.0,0.0
1513266135640067543,,605812,,1513266133,842366423,'',0.471238898038,0.482058253636,-0.0002215580811,0.0108193555973,0.001,-64.8495342883,6000.0,0.0,300.0,0.0
1513266135650367767,,605813,,1513266133,852366423,'',0.471238898038,0.482043809432,7.25797029983e-05,0.0108049113931,0.001,-64.8496274776,6000.0,0.0,300.0,0.0
1513266135660137788,,605814,,1513266133,862366423,'',0.471238898038,0.48204496884,5.10333694972e-05,0.0108060708016,0.001,-64.849572808,6000.0,0.0,300.0,0.0
1513266135670665528,,605815,,1513266133,872366423,'',0.471238898038,0.482045360747,4.1777417347e-05,0.010806462708,0.001,-64.8495292595,6000.0,0.0,300.0,0.0
1513266135680012456,,605816,,1513266133,882366423,'',0.471238898038,0.482060062335,0.0143008918796,0.0108211642965,0.001,-69.2502243635,6000.0,0.0,300.0,0.0
1513266135690166847,,605817,,1513266133,892366423,'',0.471238898038,0.482045313798,4.39995963712e-05,0.0108064157598,0.001,-64.8495329652,6000.0,0.0,300.0,0.0
1513266135700038776,,605818,,1513266133,902366423,'',0.471238898038,0.482031332618,-0.0142313730341,0.0107924345798,0.001,-60.4704701347,6000.0,0.0,300.0,0.0
1513266135709938195,,605819,,1513266133,912366423,'',0.471238898038,0.482034194527,0.000266931333047,0.0107952964889,0.001,-64.8491270731,6000.0,0.0,300.0,0.0
1513266135720326429,,605820,,1513266133,922366423,'',0.471238898038,0.482023854664,0.000472603218858,0.0107849566259,0.001,-64.8507851656,6000.0,0.0,300.0,0.0
1513266135730386747,,605821,,1513266133,932366423,'',0.471238898038,0.482029125752,0.000365612980156,0.0107902277137,0.001,-64.8510209233,6000.0,0.0,300.0,0.0
1513266135740242114,,605822,,1513266133,942366423,'',0.471238898038,0.482019653248,0.00055367431438,0.0107807552099,0.001,-64.8480301682,6000.0,0.0,300.0,0.0
1513266135750237251,,605823,,1513266133,952366423,'',0.471238898038,0.482023339754,0.000480486545315,0.010784441716,0.001,-64.8516840691,6000.0,0.0,300.0,0.0
1513266135760016101,,605824,,1513266133,962366423,'',0.471238898038,0.482002891663,0.000892037973788,0.0107639936242,0.001,-64.8523648807,6000.0,0.0,300.0,0.0
1513266135770596828,,605825,,1513266133,972366423,'',0.471238898038,0.481971039804,0.00152923692861,0.0107321417654,0.001,-64.8450698595,6000.0,0.0,300.0,0.0
1513266135779884661,,605826,,1513266133,982366423,'',0.471238898038,0.481984841451,0.00125185445271,0.0107459434125,0.001,-64.8551243197,6000.0,0.0,300.0,0.0
