rosbagTimestamp,header,seq,stamp,secs,nsecs,frame_id,set_point,process_value,process_value_dot,error,time_step,command,p,i,d,i_clamp
1513267043400710329,,696591,,1513267041,585445376,'',1.44862327916,1.4382954134,-0.0118974253327,0.0,0.001,0.0,5000.0,0.0,0.0,0.0
1513267043410883255,,696592,,1513267041,595445376,'',1.44862327916,1.43949632802,0.0132339242867,0.0,0.001,0.0,5000.0,0.0,0.0,0.0
1513267043421060527,,696593,,1513267041,605445376,'',1.44862327916,1.4382954134,-0.0103968347558,0.0,0.001,0.0,5000.0,0.0,0.0,0.0
1513267043431003889,,696594,,1513267041,615445376,'',1.44862327916,1.4382954134,-0.00891668357962,0.0,0.001,0.0,5000.0,0.0,0.0,0.0
1513267043440835227,,696595,,1513267041,625445376,'',1.44862327916,1.4382954134,-0.00999957937562,0.0,0.001,0.0,5000.0,0.0,0.0,0.0
1513267043450722650,,696596,,1513267041,635445376,'',1.44862327916,1.4382954134,-0.0104499351463,0.0,0.001,0.0,5000.0,0.0,0.0,0.0
1513267043460875983,,696597,,1513267041,645445376,'',1.44862327916,1.43949632802,0.0147968105038,0.0,0.001,0.0,5000.0,0.0,0.0,0.0
1513267043471241267,,696598,,1513267041,655445376,'',1.44862327916,1.4382954134,-0.00865711507967,0.0,0.001,0.0,5000.0,0.0,0.0,0.0
1513267043481243771,,696599,,1513267041,665445376,'',1.44862327916,1.4382954134,-0.00960393027503,0.0,0.001,0.0,5000.0,0.0,0.0,0.0
1513267043491163652,,696600,,1513267041,675445376,'',1.44862327916,1.43949632802,0.0128562760988,0.0,0.001,0.0,5000.0,0.0,0.0,0.0
1513267043501169621,,696601,,1513267041,685445376,'',1.44862327916,1.4382954134,-0.0102020829015,0.0,0.001,0.0,5000.0,0.0,0.0,0.0
1513267043511099727,,696602,,1513267041,695445376,'',1.44862327916,1.4382954134,-0.0109246447231,0.0,0.001,0.0,5000.0,0.0,0.0,0.0
1513267043521142270,,696603,,1513267041,705445376,'',1.44862327916,1.44069724264,0.0390355320272,0.0,0.001,0.0,5000.0,0.0,0.0,0.0
1513267043531016710,,696604,,1513267041,715445376,'',1.44862327916,1.43949632802,0.0133622353679,0.0,0.001,0.0,5000.0,0.0,0.0,0.0
1513267043540913154,,696605,,1513267041,725445376,'',1.44862327916,1.43949632802,0.013605249664,0.0,0.001,0.0,5000.0,0.0,0.0,0.0
1513267043550941418,,696606,,1513267041,735445376,'',1.44862327916,1.4382954134,-0.0100635033831,0.0,0.001,0.0,5000.0,0.0,0.0,0.0
1513267043560890382,,696607,,1513267041,745445376,'',1.44862327916,1.4382954134,-0.0091528876536,0.0,0.001,0.0,5000.0,0.0,0.0,0.0
1513267043571163460,,696608,,1513267041,755445376,'',1.44862327916,1.43949632802,0.0154858728688,0.0,0.001,0.0,5000.0,0.0,0.0,0.0
1513267043581086093,,696609,,1513267041,765445376,'',1.44862327916,1.4382954134,-0.00851299485808,0.0,0.001,0.0,5000.0,0.0,0.0,0.0
1513267043591152415,,696610,,1513267041,775445376,'',1.44862327916,1.43949632802,0.0146509391198,0.0,0.001,0.0,5000.0,0.0,0.0,0.0
1513267043601077412,,696611,,1513267041,785445376,'',1.44862327916,1.43949632802,0.0150605324775,0.0,0.001,0.0,5000.0,0.0,0.0,0.0
1513267043611089798,,696612,,1513267041,795445376,'',1.44862327916,1.4382954134,-0.0100980964989,0.0,0.001,0.0,5000.0,0.0,0.0,0.0
1513267043621134359,,696613,,1513267041,805445376,'',1.44862327916,1.43949632802,0.0134518395828,0.0,0.001,0.0,5000.0,0.0,0.0,0.0
1513267043631146071,,696614,,1513267041,815445376,'',1.44862327916,1.4382954134,-0.0114589685206,0.0,0.001,0.0,5000.0,0.0,0.0,0.0
1513267043640927787,,696615,,1513267041,825445376,'',1.44862327916,1.4382954134,-0.012879126915,0.0,0.001,0.0,5000.0,0.0,0.0,0.0
1513267043650809548,,696616,,1513267041,835445376,'',1.44862327916,1.4382954134,-0.0118638958871,0.0,0.001,0.0,5000.0,0.0,0.0,0.0
1513267043660820449,,696617,,1513267041,845445376,'',1.44862327916,1.4382954134,-0.011028573596,0.0,0.001,0.0,5000.0,0.0,0.0,0.0
1513267043671247749,,696618,,1513267041,855445376,'',1.44862327916,1.43949632802,0.0134499202196,0.0,0.001,0.0,5000.0,0.0,0.0,0.0
1513267043681189099,,696619,,1513267041,865445376,'',1.44862327916,1.43949632802,0.0123083680909,0.0,0.001,0.0,5000.0,0.0,0.0,0.0
1513267043691305019,,696620,,1513267041,875445376,'',1.44862327916,1.4382954134,-0.0114774105321,0.0,0.001,0.0,5000.0,0.0,0.0,0.0
1513267043700991625,,696621,,1513267041,885445376,'',1.44862327916,1.43949632802,0.0135300953982,0.0,0.001,0.0,5000.0,0.0,0.0,0.0
1513267043710907678,,696622,,1513267041,895445376,'',1.44862327916,1.43949632802,0.0128924758936,0.0,0.001,0.0,5000.0,0.0,0.0,0.0
1513267043720734085,,696623,,1513267041,905445376,'',1.44862327916,1.43949632802,0.0118796757073,0.0,0.001,0.0,5000.0,0.0,0.0,0.0
1513267043730772907,,696624,,1513267041,915445376,'',1.44862327916,1.4382954134,-0.0131082963531,0.0,0.001,0.0,5000.0,0.0,0.0,0.0
1513267043741365813,,696625,,1513267041,925445376,'',1.44862327916,1.43709449878,-0.0362789810776,0.0,0.001,0.0,5000.0,0.0,0.0,0.0
1513267043751289687,,696626,,1513267041,935445376,'',1.44862327916,1.43949632802,0.0121712922274,0.0,0.001,0.0,5000.0,0.0,0.0,0.0
1513267043761236671,,696627,,1513267041,945445376,'',1.44862327916,1.4382954134,-0.0112305922844,0.0,0.001,0.0,5000.0,0.0,0.0,0.0
1513267043771187862,,696628,,1513267041,955445376,'',1.44862327916,1.4382954134,-0.011413124072,0.0,0.001,0.0,5000.0,0.0,0.0,0.0
1513267043781148376,,696629,,1513267041,965445376,'',1.44862327916,1.4382954134,-0.011060760605,0.0,0.001,0.0,5000.0,0.0,0.0,0.0
1513267043791031083,,696630,,1513267041,975445376,'',1.44862327916,1.4382954134,-0.0111505604038,0.0,0.001,0.0,5000.0,0.0,0.0,0.0
1513267043800871471,,696631,,1513267041,985445376,'',1.44862327916,1.43949632802,0.0134009426577,0.0,0.001,0.0,5000.0,0.0,0.0,0.0
1513267043810955594,,696632,,1513267041,995445376,'',1.44862327916,1.43949632802,0.0122371485755,0.0,0.001,0.0,5000.0,0.0,0.0,0.0
1513267043820967280,,696633,,1513267042,5445376,'',1.44862327916,1.43949632802,0.011740000552,0.0,0.001,0.0,5000.0,0.0,0.0,0.0
1513267043830802909,,696634,,1513267042,15445376,'',1.44862327916,1.43949632802,0.0112840530189,0.0,0.001,0.0,5000.0,0.0,0.0,0.0
1513267043840882981,,696635,,1513267042,25445376,'',1.44862327916,1.4382954134,-0.0132695076806,0.0,0.001,0.0,5000.0,0.0,0.0,0.0
1513267043851113767,,696636,,1513267042,35445376,'',1.44862327916,1.4382954134,-0.0126088752872,0.0,0.001,0.0,5000.0,0.0,0.0,0.0
1513267043860817542,,696637,,1513267042,45445376,'',1.44862327916,1.4382954134,-0.0137349023534,0.0,0.001,0.0,5000.0,0.0,0.0,0.0
1513267043870806507,,696638,,1513267042,55445376,'',1.44862327916,1.4382954134,-0.0125571067539,0.0,0.001,0.0,5000.0,0.0,0.0,0.0
1513267043880793120,,696639,,1513267042,65445376,'',1.44862327916,1.4382954134,-0.0138169518501,0.0,0.001,0.0,5000.0,0.0,0.0,0.0
1513267043890711223,,696640,,1513267042,75445376,'',1.44862327916,1.4382954134,-0.0144007246218,0.0,0.001,0.0,5000.0,0.0,0.0,0.0
1513267043900682395,,696641,,1513267042,85445376,'',1.44862327916,1.4382954134,-0.0126406236732,0.0,0.001,0.0,5000.0,0.0,0.0,0.0
1513267043911105801,,696642,,1513267042,95445376,'',1.44862327916,1.43949632802,0.0104207667928,0.0,0.001,0.0,5000.0,0.0,0.0,0.0
1513267043921088448,,696643,,1513267042,105445376,'',1.44862327916,1.44069724264,0.034463794127,0.0,0.001,0.0,5000.0,0.0,0.0,0.0
1513267043931112765,,696644,,1513267042,115445376,'',1.44862327916,1.43949632802,0.0100475729296,0.0,0.001,0.0,5000.0,0.0,0.0,0.0
1513267043941047779,,696645,,1513267042,125445376,'',1.44862327916,1.4382954134,-0.0138055884158,0.0,0.001,0.0,5000.0,0.0,0.0,0.0
1513267043950996652,,696646,,1513267042,135445376,'',1.44862327916,1.4382954134,-0.0135109221488,0.0,0.001,0.0,5000.0,0.0,0.0,0.0
1513267043961574639,,696647,,1513267042,145445376,'',1.44862327916,1.43949632802,0.0101814088346,0.0,0.001,0.0,5000.0,0.0,0.0,0.0
1513267043970998094,,696648,,1513267042,155445376,'',1.44862327916,1.43949632802,0.0109313638221,0.0,0.001,0.0,5000.0,0.0,0.0,0.0
1513267043981067161,,696649,,1513267042,165445376,'',1.44862327916,1.4382954134,-0.0130873251682,0.0,0.001,0.0,5000.0,0.0,0.0,0.0
1513267043991047469,,696650,,1513267042,175445376,'',1.44862327916,1.4382954134,-0.0128541016868,0.0,0.001,0.0,5000.0,0.0,0.0,0.0
1513267044000950171,,696651,,1513267042,185445376,'',1.44862327916,1.43949632802,0.010698859655,0.0,0.001,0.0,5000.0,0.0,0.0,0.0
1513267044010872698,,696652,,1513267042,195445376,'',1.44862327916,1.4382954134,-0.0149691298911,0.0,0.001,0.0,5000.0,0.0,0.0,0.0
1513267044021010871,,696653,,1513267042,205445376,'',1.44862327916,1.43949632802,0.0088925031362,0.0,0.001,0.0,5000.0,0.0,0.0,0.0
1513267044030829330,,696654,,1513267042,215445376,'',1.44862327916,1.43949632802,0.00809629706041,0.0,0.001,0.0,5000.0,0.0,0.0,0.0
1513267044040840917,,696655,,1513267042,225445376,'',1.44862327916,1.4382954134,-0.0176108344056,0.0,0.001,0.0,5000.0,0.0,0.0,0.0
1513267044051163373,,696656,,1513267042,235445376,'',1.44862327916,1.4382954134,-0.0179961582037,0.0,0.001,0.0,5000.0,0.0,0.0,0.0
1513267044061015205,,696657,,1513267042,245445376,'',1.44862327916,1.43949632802,0.00642243781797,0.0,0.001,0.0,5000.0,0.0,0.0,0.0
1513267044070984387,,696658,,1513267042,255445376,'',1.44862327916,1.43949632802,0.00612503807433,0.0,0.001,0.0,5000.0,0.0,0.0,0.0
1513267044080785531,,696659,,1513267042,265445376,'',1.44862327916,1.4382954134,-0.0178007286608,0.0,0.001,0.0,5000.0,0.0,0.0,0.0
1513267044090805226,,696660,,1513267042,275445376,'',1.44862327916,1.44069724264,0.0299847372013,0.0,0.001,0.0,5000.0,0.0,0.0,0.0
1513267044100768361,,696661,,1513267042,285445376,'',1.44862327916,1.4382954134,-0.0199109968549,0.0,0.001,0.0,5000.0,0.0,0.0,0.0
1513267044110765815,,696662,,1513267042,295445376,'',1.44862327916,1.43949632802,0.00310904186008,0.0,0.001,0.0,5000.0,0.0,0.0,0.0
1513267044120705378,,696663,,1513267042,305445376,'',1.44862327916,1.44069724264,0.0267644941611,0.0,0.001,0.0,5000.0,0.0,0.0,0.0
1513267044131154832,,696664,,1513267042,315445376,'',1.44862327916,1.43949632802,0.0020251193539,0.0,0.001,0.0,5000.0,0.0,0.0,0.0
1513267044141248049,,696665,,1513267042,325445376,'',1.44862327916,1.4382954134,-0.0221147098105,0.0,0.001,0.0,5000.0,0.0,0.0,0.0
1513267044151236641,,696666,,1513267042,335445376,'',1.44862327916,1.4382954134,-0.0220518469077,0.0,0.001,0.0,5000.0,0.0,0.0,0.0
1513267044161101728,,696667,,1513267042,345445376,'',1.44862327916,1.44069724264,0.0255323430515,0.0,0.001,0.0,5000.0,0.0,0.0,0.0
1513267044171062770,,696668,,1513267042,355445376,'',1.44862327916,1.43949632802,0.000569858215573,0.0,0.001,0.0,5000.0,0.0,0.0,0.0
1513267044180932098,,696669,,1513267042,365445376,'',1.44862327916,1.43949632802,7.04285942714e-05,0.0,0.001,0.0,5000.0,0.0,0.0,0.0
1513267044190939606,,696670,,1513267042,375445376,'',1.44862327916,1.4382954134,-0.0268389584849,0.0,0.001,0.0,5000.0,0.0,0.0,0.0
1513267044201046416,,696671,,1513267042,385445376,'',1.44862327916,1.44069724264,0.0195217773832,0.0,0.001,0.0,5000.0,0.0,0.0,0.0
1513267044210905275,,696672,,1513267042,395445376,'',1.44862327916,1.44069724264,0.0173760212982,0.0,0.001,0.0,5000.0,0.0,0.0,0.0
1513267044221249902,,696673,,1513267042,405445376,'',1.44862327916,1.44069724264,0.0164190255653,0.0,0.001,0.0,5000.0,0.0,0.0,0.0
1513267044231190084,,696674,,1513267042,415445376,'',1.44862327916,1.43949632802,-0.00772430053194,0.0,0.001,0.0,5000.0,0.0,0.0,0.0
1513267044241068839,,696675,,1513267042,425445376,'',1.44862327916,1.44069724264,0.0162157783778,0.0,0.001,0.0,5000.0,0.0,0.0,0.0
1513267044251021148,,696676,,1513267042,435445376,'',1.44862327916,1.43949632802,-0.00744462626326,0.0,0.001,0.0,5000.0,0.0,0.0,0.0
1513267044261004192,,696677,,1513267042,445445376,'',1.44862327916,1.43949632802,-0.00869659738106,0.0,0.001,0.0,5000.0,0.0,0.0,0.0
1513267044271095774,,696678,,1513267042,455445376,'',1.44862327916,1.4382954134,-0.0317387804417,0.0,0.001,0.0,5000.0,0.0,0.0,0.0
1513267044280910399,,696679,,1513267042,465445376,'',1.44862327916,1.43949632802,-0.00655812272557,0.0,0.001,0.0,5000.0,0.0,0.0,0.0
1513267044290826133,,696680,,1513267042,475445376,'',1.44862327916,1.44069724264,0.0166660760006,0.0,0.001,0.0,5000.0,0.0,0.0,0.0
1513267044301362366,,696681,,1513267042,485445376,'',1.44862327916,1.44069724264,0.016666432466,0.0,0.001,0.0,5000.0,0.0,0.0,0.0
1513267044311276303,,696682,,1513267042,495445376,'',1.44862327916,1.43949632802,-0.00794359266927,0.0,0.001,0.0,5000.0,0.0,0.0,0.0
1513267044321217496,,696683,,1513267042,505445376,'',1.44862327916,1.44189815727,0.0389391494593,0.0,0.001,0.0,5000.0,0.0,0.0,0.0
1513267044331020145,,696684,,1513267042,515445376,'',1.44862327916,1.44189815727,0.0379532399877,0.0,0.001,0.0,5000.0,0.0,0.0,0.0
1513267044341020959,,696685,,1513267042,525445376,'',1.44862327916,1.43949632802,-0.011782727745,0.0,0.001,0.0,5000.0,0.0,0.0,0.0
1513267044350825976,,696686,,1513267042,535445376,'',1.44862327916,1.43949632802,-0.0126695152532,0.0,0.001,0.0,5000.0,0.0,0.0,0.0
1513267044360902604,,696687,,1513267042,545445376,'',1.44862327916,1.44189815727,0.0346301604637,0.0,0.001,0.0,5000.0,0.0,0.0,0.0
1513267044370724643,,696688,,1513267042,555445376,'',1.44862327916,1.44189815727,0.0331499797747,0.0,0.001,0.0,5000.0,0.0,0.0,0.0
1513267044380748140,,696689,,1513267042,565445376,'',1.44862327916,1.44069724264,0.00811973364163,0.0,0.001,0.0,5000.0,0.0,0.0,0.0
1513267044391221908,,696690,,1513267042,575445376,'',1.44862327916,1.44069724264,0.00969170761536,0.0,0.001,0.0,5000.0,0.0,0.0,0.0
1513267044401231231,,696691,,1513267042,585445376,'',1.44862327916,1.44069724264,0.00839827305584,0.0,0.001,0.0,5000.0,0.0,0.0,0.0
1513267044411043156,,696692,,1513267042,595445376,'',1.44862327916,1.44069724264,0.00821592538072,0.0,0.001,0.0,5000.0,0.0,0.0,0.0
1513267044420940310,,696693,,1513267042,605445376,'',1.44862327916,1.44069724264,0.00719076236336,0.0,0.001,0.0,5000.0,0.0,0.0,0.0
1513267044430872379,,696694,,1513267042,615445376,'',1.44862327916,1.43949632802,-0.0165920022147,0.0,0.001,0.0,5000.0,0.0,0.0,0.0
1513267044440803830,,696695,,1513267042,625445376,'',1.44862327916,1.43949632802,-0.0162248926928,0.0,0.001,0.0,5000.0,0.0,0.0,0.0
1513267044450700854,,696696,,1513267042,635445376,'',1.44862327916,1.44069724264,0.00823141248948,0.0,0.001,0.0,5000.0,0.0,0.0,0.0
1513267044461171729,,696697,,1513267042,645445376,'',1.44862327916,1.43949632802,-0.0157093713359,0.0,0.001,0.0,5000.0,0.0,0.0,0.0
1513267044471230530,,696698,,1513267042,655445376,'',1.44862327916,1.44069724264,0.00835315540342,0.0,0.001,0.0,5000.0,0.0,0.0,0.0
1513267044480971373,,696699,,1513267042,665445376,'',1.44862327916,1.44189815727,0.0315207596751,0.0,0.001,0.0,5000.0,0.0,0.0,0.0
1513267044490861585,,696700,,1513267042,675445376,'',1.44862327916,1.44069724264,0.0063527379001,0.0,0.001,0.0,5000.0,0.0,0.0,0.0
1513267044500848268,,696701,,1513267042,685445376,'',1.44862327916,1.43949632802,-0.0167733133069,0.0,0.001,0.0,5000.0,0.0,0.0,0.0
1513267044510865094,,696702,,1513267042,695445376,'',1.44862327916,1.43949632802,-0.0163631676793,0.0,0.001,0.0,5000.0,0.0,0.0,0.0
1513267044520934888,,696703,,1513267042,705445376,'',1.44862327916,1.44069724264,0.00776028198956,0.0,0.001,0.0,5000.0,0.0,0.0,0.0
1513267044530923027,,696704,,1513267042,715445376,'',1.44862327916,1.44189815727,0.0313968668466,0.0,0.001,0.0,5000.0,0.0,0.0,0.0
1513267044541046768,,696705,,1513267042,725445376,'',1.44862327916,1.44189815727,0.0313168707394,0.0,0.001,0.0,5000.0,0.0,0.0,0.0
1513267044550903049,,696706,,1513267042,735445376,'',1.44862327916,1.43949632802,-0.0170886593184,0.0,0.001,0.0,5000.0,0.0,0.0,0.0
1513267044560938705,,696707,,1513267042,745445376,'',1.44862327916,1.44069724264,0.00722046764279,0.0,0.001,0.0,5000.0,0.0,0.0,0.0
1513267044570721149,,696708,,1513267042,755445376,'',1.44862327916,1.44189815727,0.0310807023715,0.0,0.001,0.0,5000.0,0.0,0.0,0.0
1513267044581207210,,696709,,1513267042,765445376,'',1.44862327916,1.43949632802,-0.0173568278355,0.0,0.001,0.0,5000.0,0.0,0.0,0.0
1513267044591191382,,696710,,1513267042,775445376,'',1.44862327916,1.43949632802,-0.0167926657096,0.0,0.001,0.0,5000.0,0.0,0.0,0.0
1513267044601196852,,696711,,1513267042,785445376,'',1.44862327916,1.44069724264,0.00785319304229,0.0,0.001,0.0,5000.0,0.0,0.0,0.0
1513267044610952235,,696712,,1513267042,795445376,'',1.44862327916,1.44069724264,0.00598269060818,0.0,0.001,0.0,5000.0,0.0,0.0,0.0
1513267044620916923,,696713,,1513267042,805445376,'',1.44862327916,1.44069724264,0.00580007657529,0.0,0.001,0.0,5000.0,0.0,0.0,0.0
1513267044630869823,,696714,,1513267042,815445376,'',1.44862327916,1.44069724264,0.00522551591773,0.0,0.001,0.0,5000.0,0.0,0.0,0.0
1513267044640864656,,696715,,1513267042,825445376,'',1.44862327916,1.44189815727,0.0297785868654,0.0,0.001,0.0,5000.0,0.0,0.0,0.0
1513267044650755906,,696716,,1513267042,835445376,'',1.44862327916,1.44069724264,0.00531620792506,0.0,0.001,0.0,5000.0,0.0,0.0,0.0
1513267044660698978,,696717,,1513267042,845445376,'',1.44862327916,1.43949632802,-0.0190111095115,0.0,0.001,0.0,5000.0,0.0,0.0,0.0
1513267044671109193,,696718,,1513267042,855445376,'',1.44862327916,1.44069724264,0.00250192402471,0.0,0.001,0.0,5000.0,0.0,0.0,0.0
1513267044681030580,,696719,,1513267042,865445376,'',1.44862327916,1.44069724264,0.00423768546704,0.0,0.001,0.0,5000.0,0.0,0.0,0.0
1513267044690979715,,696720,,1513267042,875445376,'',1.44862327916,1.43949632802,-0.0198718665673,0.0,0.001,0.0,5000.0,0.0,0.0,0.0
1513267044700801259,,696721,,1513267042,885445376,'',1.44862327916,1.44069724264,0.0035661499191,0.0,0.001,0.0,5000.0,0.0,0.0,0.0
1513267044710696570,,696722,,1513267042,895445376,'',1.44862327916,1.44189815727,0.0262442558405,0.0,0.001,0.0,5000.0,0.0,0.0,0.0
1513267044721179481,,696723,,1513267042,905445376,'',1.44862327916,1.44069724264,0.00073570384856,0.0,0.001,0.0,5000.0,0.0,0.0,0.0
1513267044731067170,,696724,,1513267042,915445376,'',1.44862327916,1.44189815727,0.0243626110376,0.0,0.001,0.0,5000.0,0.0,0.0,0.0
1513267044740984406,,696725,,1513267042,925445376,'',1.44862327916,1.44069724264,0.000902403567667,0.0,0.001,0.0,5000.0,0.0,0.0,0.0
1513267044751053629,,696726,,1513267042,935445376,'',1.44862327916,1.44069724264,0.00114894393801,0.0,0.001,0.0,5000.0,0.0,0.0,0.0
1513267044760944707,,696727,,1513267042,945445376,'',1.44862327916,1.44189815727,0.024728237645,0.0,0.001,0.0,5000.0,0.0,0.0,0.0
1513267044771126205,,696728,,1513267042,955445376,'',1.44862327916,1.44069724264,0.000802264122173,0.0,0.001,0.0,5000.0,0.0,0.0,0.0
1513267044781028533,,696729,,1513267042,965445376,'',1.44862327916,1.43949632802,-0.0231478567749,0.0,0.001,0.0,5000.0,0.0,0.0,0.0
1513267044791096258,,696730,,1513267042,975445376,'',1.44862327916,1.44189815727,0.0246984177395,0.0,0.001,0.0,5000.0,0.0,0.0,0.0
1513267044801080194,,696731,,1513267042,985445376,'',1.44862327916,1.44189815727,0.0237352736587,0.0,0.001,0.0,5000.0,0.0,0.0,0.0
1513267044811063812,,696732,,1513267042,995445376,'',1.44862327916,1.44069724264,-0.00127143994945,0.0,0.001,0.0,5000.0,0.0,0.0,0.0
1513267044821064695,,696733,,1513267043,5445376,'',1.44862327916,1.44189815727,0.0240585271723,0.0,0.001,0.0,5000.0,0.0,0.0,0.0
1513267044831022540,,696734,,1513267043,15445376,'',1.44862327916,1.44069724264,0.000274423296338,0.0,0.001,0.0,5000.0,0.0,0.0,0.0
1513267044841037091,,696735,,1513267043,25445376,'',1.44862327916,1.43949632802,-0.024030525831,0.0,0.001,0.0,5000.0,0.0,0.0,0.0
1513267044850923609,,696736,,1513267043,35445376,'',1.44862327916,1.44069724264,0.000634882295692,0.0,0.001,0.0,5000.0,0.0,0.0,0.0
1513267044860856890,,696737,,1513267043,45445376,'',1.44862327916,1.43949632802,-0.0236924504257,0.0,0.001,0.0,5000.0,0.0,0.0,0.0
1513267044870745251,,696738,,1513267043,55445376,'',1.44862327916,1.44069724264,-0.000347476221088,0.0,0.001,0.0,5000.0,0.0,0.0,0.0
1513267044880735240,,696739,,1513267043,65445376,'',1.44862327916,1.44069724264,-0.00030652073587,0.0,0.001,0.0,5000.0,0.0,0.0,0.0
1513267044891300103,,696740,,1513267043,75445376,'',1.44862327916,1.44069724264,0.000638252875631,0.0,0.001,0.0,5000.0,0.0,0.0,0.0
1513267044901222407,,696741,,1513267043,85445376,'',1.44862327916,1.44069724264,-0.000344362072833,0.0,0.001,0.0,5000.0,0.0,0.0,0.0
1513267044911104196,,696742,,1513267043,95445376,'',1.44862327916,1.44069724264,-0.000314760285014,0.0,0.001,0.0,5000.0,0.0,0.0,0.0
1513267044921091400,,696743,,1513267043,105445376,'',1.44862327916,1.44189815727,0.0230434555632,0.0,0.001,0.0,5000.0,0.0,0.0,0.0
1513267044930982122,,696744,,1513267043,115445376,'',1.44862327916,1.44069724264,-0.00192284406499,0.0,0.001,0.0,5000.0,0.0,0.0,0.0
1513267044941054613,,696745,,1513267043,125445376,'',1.44862327916,1.44069724264,-0.00157743833257,0.0,0.001,0.0,5000.0,0.0,0.0,0.0
1513267044951086943,,696746,,1513267043,135445376,'',1.44862327916,1.43949632802,-0.0250692214107,0.0,0.001,0.0,5000.0,0.0,0.0,0.0
1513267044961095395,,696747,,1513267043,145445376,'',1.44862327916,1.44069724264,-0.000270986547686,0.0,0.001,0.0,5000.0,0.0,0.0,0.0
1513267044971137275,,696748,,1513267043,155445376,'',1.44862327916,1.43949632802,-0.0230918892255,0.0,0.001,0.0,5000.0,0.0,0.0,0.0
1513267044980901967,,696749,,1513267043,165445376,'',1.44862327916,1.44069724264,0.000972845027755,0.0,0.001,0.0,5000.0,0.0,0.0,0.0
1513267044990893498,,696750,,1513267043,175445376,'',1.44862327916,1.44189815727,0.0250074652254,0.0,0.001,0.0,5000.0,0.0,0.0,0.0
1513267045000778737,,696751,,1513267043,185445376,'',1.44862327916,1.44189815727,0.024449017324,0.0,0.001,0.0,5000.0,0.0,0.0,0.0
1513267045010841094,,696752,,1513267043,195445376,'',1.44862327916,1.44069724264,0.000185745822245,0.0,0.001,0.0,5000.0,0.0,0.0,0.0
1513267045021243514,,696753,,1513267043,205445376,'',1.44862327916,1.44189815727,0.0230941062429,0.0,0.001,0.0,5000.0,0.0,0.0,0.0
1513267045031196304,,696754,,1513267043,215445376,'',1.44862327916,1.44069724264,0.000322397977796,0.0,0.001,0.0,5000.0,0.0,0.0,0.0
1513267045041138379,,696755,,1513267043,225445376,'',1.44862327916,1.44069724264,0.00107306879596,0.0,0.001,0.0,5000.0,0.0,0.0,0.0
1513267045051168080,,696756,,1513267043,235445376,'',1.44862327916,1.44189815727,0.0260083944471,0.0,0.001,0.0,5000.0,0.0,0.0,0.0
1513267045061070164,,696757,,1513267043,245445376,'',1.44862327916,1.44069724264,0.00142956268694,0.0,0.001,0.0,5000.0,0.0,0.0,0.0
1513267045071127945,,696758,,1513267043,255445376,'',1.44862327916,1.44069724264,-0.000118029937219,0.0,0.001,0.0,5000.0,0.0,0.0,0.0
1513267045081015112,,696759,,1513267043,265445376,'',1.44862327916,1.43949632802,-0.023420624151,0.0,0.001,0.0,5000.0,0.0,0.0,0.0
1513267045091081966,,696760,,1513267043,275445376,'',1.44862327916,1.44069724264,0.00199122202262,0.0,0.001,0.0,5000.0,0.0,0.0,0.0
1513267045100932688,,696761,,1513267043,285445376,'',1.44862327916,1.44069724264,0.00296035496277,0.0,0.001,0.0,5000.0,0.0,0.0,0.0
1513267045110914033,,696762,,1513267043,295445376,'',1.44862327916,1.43949632802,-0.0199993057738,0.0,0.001,0.0,5000.0,0.0,0.0,0.0
1513267045120833451,,696763,,1513267043,305445376,'',1.44862327916,1.44069724264,0.0035855583754,0.0,0.001,0.0,5000.0,0.0,0.0,0.0
1513267045131149323,,696764,,1513267043,315445376,'',1.44862327916,1.43949632802,-0.0199748215589,0.0,0.001,0.0,5000.0,0.0,0.0,0.0
1513267045141004831,,696765,,1513267043,325445376,'',1.44862327916,1.44069724264,0.002197309108,0.0,0.001,0.0,5000.0,0.0,0.0,0.0
1513267045150969358,,696766,,1513267043,335445376,'',1.44862327916,1.44069724264,0.00170215895578,0.0,0.001,0.0,5000.0,0.0,0.0,0.0
1513267045160903769,,696767,,1513267043,345445376,'',1.44862327916,1.44069724264,0.00137973599581,0.0,0.001,0.0,5000.0,0.0,0.0,0.0
1513267045170945074,,696768,,1513267043,355445376,'',1.44862327916,1.44069724264,0.00117032598631,0.0,0.001,0.0,5000.0,0.0,0.0,0.0
1513267045180710623,,696769,,1513267043,365445376,'',1.44862327916,1.43949632802,-0.0215002758861,0.0,0.001,0.0,5000.0,0.0,0.0,0.0
1513267045191124107,,696770,,1513267043,375445376,'',1.44862327916,1.43949632802,-0.0211069497334,0.0,0.001,0.0,5000.0,0.0,0.0,0.0
1513267045201168822,,696771,,1513267043,385445376,'',1.44862327916,1.44069724264,0.00302848159571,0.0,0.001,0.0,5000.0,0.0,0.0,0.0
1513267045210984651,,696772,,1513267043,395445376,'',1.44862327916,1.44069724264,0.00331066982741,0.0,0.001,0.0,5000.0,0.0,0.0,0.0
1513267045221202781,,696773,,1513267043,405445376,'',1.44862327916,1.44069724264,0.00274310969696,0.0,0.001,0.0,5000.0,0.0,0.0,0.0
1513267045231280482,,696774,,1513267043,415445376,'',1.44862327916,1.44069724264,0.00229626030758,0.0,0.001,0.0,5000.0,0.0,0.0,0.0
1513267045241147807,,696775,,1513267043,425445376,'',1.44862327916,1.44069724264,0.00142396791981,0.0,0.001,0.0,5000.0,0.0,0.0,0.0
1513267045251048463,,696776,,1513267043,435445376,'',1.44862327916,1.43949632802,-0.0239890358892,0.0,0.001,0.0,5000.0,0.0,0.0,0.0
1513267045260992697,,696777,,1513267043,445445376,'',1.44862327916,1.43949632802,-0.023153103792,0.0,0.001,0.0,5000.0,0.0,0.0,0.0
1513267045270829664,,696778,,1513267043,455445376,'',1.44862327916,1.43949632802,-0.0212074747732,0.0,0.001,0.0,5000.0,0.0,0.0,0.0
1513267045280755157,,696779,,1513267043,465445376,'',1.44862327916,1.44069724264,0.00207432451817,0.0,0.001,0.0,5000.0,0.0,0.0,0.0
1513267045291035221,,696780,,1513267043,475445376,'',1.44862327916,1.43949632802,-0.0216100161428,0.0,0.001,0.0,5000.0,0.0,0.0,0.0
1513267045301205793,,696781,,1513267043,485445376,'',1.44862327916,1.43949632802,-0.0211648120318,0.0,0.001,0.0,5000.0,0.0,0.0,0.0
1513267045311141913,,696782,,1513267043,495445376,'',1.44862327916,1.44069724264,0.00251136015126,0.0,0.001,0.0,5000.0,0.0,0.0,0.0
1513267045321190604,,696783,,1513267043,505445376,'',1.44862327916,1.44189815727,0.0258427011234,0.0,0.001,0.0,5000.0,0.0,0.0,0.0
1513267045331161349,,696784,,1513267043,515445376,'',1.44862327916,1.44189815727,0.0246101623182,0.0,0.001,0.0,5000.0,0.0,0.0,0.0
1513267045340966413,,696785,,1513267043,525445376,'',1.44862327916,1.44069724264,0.000756375342464,0.0,0.001,0.0,5000.0,0.0,0.0,0.0
1513267045350927235,,696786,,1513267043,535445376,'',1.44862327916,1.44069724264,0.001042936763,0.0,0.001,0.0,5000.0,0.0,0.0,0.0
1513267045360970204,,696787,,1513267043,545445376,'',1.44862327916,1.44069724264,0.00128188940051,0.0,0.001,0.0,5000.0,0.0,0.0,0.0
1513267045371026142,,696788,,1513267043,555445376,'',1.44862327916,1.43949632802,-0.021940824207,0.0,0.001,0.0,5000.0,0.0,0.0,0.0
1513267045380896135,,696789,,1513267043,565445376,'',1.44862327916,1.44069724264,0.00190300854508,0.0,0.001,0.0,5000.0,0.0,0.0,0.0
1513267045390836216,,696790,,1513267043,575445376,'',1.44862327916,1.43949632802,-0.022232387494,0.0,0.001,0.0,5000.0,0.0,0.0,0.0
1513267045400906148,,696791,,1513267043,585445376,'',1.44862327916,1.44069724264,0.00165088326703,0.0,0.001,0.0,5000.0,0.0,0.0,0.0
1513267045410877609,,696792,,1513267043,595445376,'',1.44862327916,1.44069724264,0.00182205694704,0.0,0.001,0.0,5000.0,0.0,0.0,0.0
1513267045420862963,,696793,,1513267043,605445376,'',1.44862327916,1.44069724264,0.000177462476269,0.0,0.001,0.0,5000.0,0.0,0.0,0.0
1513267045431358115,,696794,,1513267043,615445376,'',1.44862327916,1.44069724264,0.0019557160752,0.0,0.001,0.0,5000.0,0.0,0.0,0.0
1513267045441208908,,696795,,1513267043,625445376,'',1.44862327916,1.44069724264,0.00295555158829,0.0,0.001,0.0,5000.0,0.0,0.0,0.0
1513267045451247737,,696796,,1513267043,635445376,'',1.44862327916,1.44069724264,0.001571779418,0.0,0.001,0.0,5000.0,0.0,0.0,0.0
1513267045461245870,,696797,,1513267043,645445376,'',1.44862327916,1.44069724264,0.000799653138157,0.0,0.001,0.0,5000.0,0.0,0.0,0.0
1513267045471381756,,696798,,1513267043,655445376,'',1.44862327916,1.44069724264,0.000549809915102,0.0,0.001,0.0,5000.0,0.0,0.0,0.0
1513267045481193298,,696799,,1513267043,665445376,'',1.44862327916,1.44189815727,0.0246399636788,0.0,0.001,0.0,5000.0,0.0,0.0,0.0
1513267045491559079,,696800,,1513267043,675445376,'',1.44862327916,1.44069724264,0.000287359364323,0.0,0.001,0.0,5000.0,0.0,0.0,0.0
1513267045501305769,,696801,,1513267043,685445376,'',1.44862327916,1.44189815727,0.0236245993677,0.0,0.001,0.0,5000.0,0.0,0.0,0.0
1513267045511250349,,696802,,1513267043,695445376,'',1.44862327916,1.43949632802,-0.0247194846846,0.0,0.001,0.0,5000.0,0.0,0.0,0.0
1513267045521061944,,696803,,1513267043,705445376,'',1.44862327916,1.44069724264,-0.000815289528463,0.0,0.001,0.0,5000.0,0.0,0.0,0.0
1513267045531020652,,696804,,1513267043,715445376,'',1.44862327916,1.44069724264,-0.00109882583382,0.0,0.001,0.0,5000.0,0.0,0.0,0.0
1513267045540938169,,696805,,1513267043,725445376,'',1.44862327916,1.44069724264,-0.00093228141254,0.0,0.001,0.0,5000.0,0.0,0.0,0.0
1513267045550968178,,696806,,1513267043,735445376,'',1.44862327916,1.44069724264,-0.00115321408395,0.0,0.001,0.0,5000.0,0.0,0.0,0.0
1513267045560911171,,696807,,1513267043,745445376,'',1.44862327916,1.44069724264,-0.001352529924,0.0,0.001,0.0,5000.0,0.0,0.0,0.0
1513267045571075861,,696808,,1513267043,755445376,'',1.44862327916,1.44069724264,-0.0015707044351,0.0,0.001,0.0,5000.0,0.0,0.0,0.0
1513267045580880274,,696809,,1513267043,765445376,'',1.44862327916,1.44069724264,-0.000916639301957,0.0,0.001,0.0,5000.0,0.0,0.0,0.0
1513267045590926501,,696810,,1513267043,775445376,'',1.44862327916,1.44069724264,-0.000671465496784,0.0,0.001,0.0,5000.0,0.0,0.0,0.0
1513267045600852267,,696811,,1513267043,785445376,'',1.44862327916,1.43949632802,-0.0239259455722,0.0,0.001,0.0,5000.0,0.0,0.0,0.0
1513267045611295270,,696812,,1513267043,795445376,'',1.44862327916,1.44069724264,0.000317584753567,0.0,0.001,0.0,5000.0,0.0,0.0,0.0
1513267045621417857,,696813,,1513267043,805445376,'',1.44862327916,1.43949632802,-0.0244124860321,0.0,0.001,0.0,5000.0,0.0,0.0,0.0
1513267045631327320,,696814,,1513267043,815445376,'',1.44862327916,1.44069724264,0.000364868494879,0.0,0.001,0.0,5000.0,0.0,0.0,0.0
1513267045641274588,,696815,,1513267043,825445376,'',1.44862327916,1.44069724264,0.000766984359882,0.0,0.001,0.0,5000.0,0.0,0.0,0.0
1513267045651348308,,696816,,1513267043,835445376,'',1.44862327916,1.44069724264,0.00060214221008,0.0,0.001,0.0,5000.0,0.0,0.0,0.0
1513267045661319301,,696817,,1513267043,845445376,'',1.44862327916,1.44069724264,2.92211636592e-05,0.0,0.001,0.0,5000.0,0.0,0.0,0.0
1513267045670990389,,696818,,1513267043,855445376,'',1.44862327916,1.44189815727,0.0237072612767,0.0,0.001,0.0,5000.0,0.0,0.0,0.0
1513267045680988155,,696819,,1513267043,865445376,'',1.44862327916,1.44069724264,-0.000505097090221,0.0,0.001,0.0,5000.0,0.0,0.0,0.0
1513267045690919633,,696820,,1513267043,875445376,'',1.44862327916,1.44069724264,-0.000409899156905,0.0,0.001,0.0,5000.0,0.0,0.0,0.0
1513267045700936209,,696821,,1513267043,885445376,'',1.44862327916,1.43949632802,-0.0232011287058,0.0,0.001,0.0,5000.0,0.0,0.0,0.0
1513267045710939443,,696822,,1513267043,895445376,'',1.44862327916,1.43949632802,-0.022481318018,0.0,0.001,0.0,5000.0,0.0,0.0,0.0
1513267045721276825,,696823,,1513267043,905445376,'',1.44862327916,1.44069724264,0.00145730283045,0.0,0.001,0.0,5000.0,0.0,0.0,0.0
1513267045731154510,,696824,,1513267043,915445376,'',1.44862327916,1.43949632802,-0.0221695737074,0.0,0.001,0.0,5000.0,0.0,0.0,0.0
1513267045740945501,,696825,,1513267043,925445376,'',1.44862327916,1.44189815727,0.0259442103171,0.0,0.001,0.0,5000.0,0.0,0.0,0.0
1513267045751092455,,696826,,1513267043,935445376,'',1.44862327916,1.44069724264,0.00181690072023,0.0,0.001,0.0,5000.0,0.0,0.0,0.0
1513267045761007198,,696827,,1513267043,945445376,'',1.44862327916,1.44069724264,0.00147306435755,0.0,0.001,0.0,5000.0,0.0,0.0,0.0
1513267045770966327,,696828,,1513267043,955445376,'',1.44862327916,1.44069724264,0.00113100701058,0.0,0.001,0.0,5000.0,0.0,0.0,0.0
1513267045781362597,,696829,,1513267043,965445376,'',1.44862327916,1.43949632802,-0.0242510243576,0.0,0.001,0.0,5000.0,0.0,0.0,0.0
1513267045791166607,,696830,,1513267043,975445376,'',1.44862327916,1.44069724264,0.000422370426837,0.0,0.001,0.0,5000.0,0.0,0.0,0.0
1513267045801187036,,696831,,1513267043,985445376,'',1.44862327916,1.44189815727,0.0228015366184,0.0,0.001,0.0,5000.0,0.0,0.0,0.0
1513267045810949470,,696832,,1513267043,995445376,'',1.44862327916,1.44189815727,0.0217317959336,0.0,0.001,0.0,5000.0,0.0,0.0,0.0
1513267045821033986,,696833,,1513267044,5445376,'',1.44862327916,1.43949632802,-0.0270998376177,0.0,0.001,0.0,5000.0,0.0,0.0,0.0
1513267045831099532,,696834,,1513267044,15445376,'',1.44862327916,1.44189815727,0.0214695464202,0.0,0.001,0.0,5000.0,0.0,0.0,0.0
1513267045841189772,,696835,,1513267044,25445376,'',1.44862327916,1.44069724264,-0.00446655176371,0.0,0.001,0.0,5000.0,0.0,0.0,0.0
1513267045850939188,,696836,,1513267044,35445376,'',1.44862327916,1.44069724264,-0.00415564088688,0.0,0.001,0.0,5000.0,0.0,0.0,0.0
1513267045860901522,,696837,,1513267044,45445376,'',1.44862327916,1.44069724264,-0.00388285391651,0.0,0.001,0.0,5000.0,0.0,0.0,0.0
1513267045870891715,,696838,,1513267044,55445376,'',1.44862327916,1.44069724264,-0.00413307950052,0.0,0.001,0.0,5000.0,0.0,0.0,0.0
1513267045880883969,,696839,,1513267044,65445376,'',1.44862327916,1.44069724264,-0.00383009901871,0.0,0.001,0.0,5000.0,0.0,0.0,0.0
1513267045891258969,,696840,,1513267044,75445376,'',1.44862327916,1.44069724264,-0.00400898923112,0.0,0.001,0.0,5000.0,0.0,0.0,0.0
1513267045901221939,,696841,,1513267044,85445376,'',1.44862327916,1.44069724264,-0.00420837600362,0.0,0.001,0.0,5000.0,0.0,0.0,0.0
1513267045911180831,,696842,,1513267044,95445376,'',1.44862327916,1.44069724264,-0.00475264761297,0.0,0.001,0.0,5000.0,0.0,0.0,0.0
1513267045921165454,,696843,,1513267044,105445376,'',1.44862327916,1.44069724264,-0.00520676544318,0.0,0.001,0.0,5000.0,0.0,0.0,0.0
1513267045930958074,,696844,,1513267044,115445376,'',1.44862327916,1.44069724264,-0.00593963305,0.0,0.001,0.0,5000.0,0.0,0.0,0.0
1513267045940929169,,696845,,1513267044,125445376,'',1.44862327916,1.44189815727,0.0171720213354,0.0,0.001,0.0,5000.0,0.0,0.0,0.0
1513267045950900607,,696846,,1513267044,135445376,'',1.44862327916,1.44189815727,0.0180247008165,0.0,0.001,0.0,5000.0,0.0,0.0,0.0
1513267045960881780,,696847,,1513267044,145445376,'',1.44862327916,1.44189815727,0.0187183782405,0.0,0.001,0.0,5000.0,0.0,0.0,0.0
1513267045970673040,,696848,,1513267044,155445376,'',1.44862327916,1.44069724264,-0.00368042160884,0.0,0.001,0.0,5000.0,0.0,0.0,0.0
1513267045981151566,,696849,,1513267044,165445376,'',1.44862327916,1.44069724264,-0.00170942120149,0.0,0.001,0.0,5000.0,0.0,0.0,0.0
1513267045991089825,,696850,,1513267044,175445376,'',1.44862327916,1.43949632802,-0.0255708178349,0.0,0.001,0.0,5000.0,0.0,0.0,0.0
1513267046000955453,,696851,,1513267044,185445376,'',1.44862327916,1.43949632802,-0.0252917637387,0.0,0.001,0.0,5000.0,0.0,0.0,0.0
1513267046010968954,,696852,,1513267044,195445376,'',1.44862327916,1.44069724264,-0.00255653347468,0.0,0.001,0.0,5000.0,0.0,0.0,0.0
1513267046020946368,,696853,,1513267044,205445376,'',1.44862327916,1.44189815727,0.0212656088791,0.0,0.001,0.0,5000.0,0.0,0.0,0.0
1513267046030834184,,696854,,1513267044,215445376,'',1.44862327916,1.44069724264,-0.00418119318391,0.0,0.001,0.0,5000.0,0.0,0.0,0.0
1513267046040887520,,696855,,1513267044,225445376,'',1.44862327916,1.44189815727,0.0199317051061,0.0,0.001,0.0,5000.0,0.0,0.0,0.0
1513267046050817083,,696856,,1513267044,235445376,'',1.44862327916,1.44069724264,-0.00476767852888,0.0,0.001,0.0,5000.0,0.0,0.0,0.0
1513267046061208748,,696857,,1513267044,245445376,'',1.44862327916,1.44069724264,-0.00512472333751,0.0,0.001,0.0,5000.0,0.0,0.0,0.0
1513267046071204404,,696858,,1513267044,255445376,'',1.44862327916,1.44069724264,-0.00419634965297,0.0,0.001,0.0,5000.0,0.0,0.0,0.0
1513267046081196771,,696859,,1513267044,265445376,'',1.44862327916,1.44069724264,-0.00347927291915,0.0,0.001,0.0,5000.0,0.0,0.0,0.0
1513267046091053745,,696860,,1513267044,275445376,'',1.44862327916,1.44069724264,-0.00371770682807,0.0,0.001,0.0,5000.0,0.0,0.0,0.0
1513267046101029760,,696861,,1513267044,285445376,'',1.44862327916,1.44069724264,-0.00348578212434,0.0,0.001,0.0,5000.0,0.0,0.0,0.0
1513267046110897521,,696862,,1513267044,295445376,'',1.44862327916,1.44189815727,0.0209304671362,0.0,0.001,0.0,5000.0,0.0,0.0,0.0
1513267046120862932,,696863,,1513267044,305445376,'',1.44862327916,1.44069724264,-0.00540031820686,0.0,0.001,0.0,5000.0,0.0,0.0,0.0
1513267046131197862,,696864,,1513267044,315445376,'',1.44862327916,1.44069724264,-0.00388967885184,0.0,0.001,0.0,5000.0,0.0,0.0,0.0
1513267046141218021,,696865,,1513267044,325445376,'',1.44862327916,1.44189815727,0.0202155627305,0.0,0.001,0.0,5000.0,0.0,0.0,0.0
1513267046151226754,,696866,,1513267044,335445376,'',1.44862327916,1.44189815727,0.0205697982004,0.0,0.001,0.0,5000.0,0.0,0.0,0.0
1513267046161074519,,696867,,1513267044,345445376,'',1.44862327916,1.43949632802,-0.0272140836423,0.0,0.001,0.0,5000.0,0.0,0.0,0.0
1513267046170998200,,696868,,1513267044,355445376,'',1.44862327916,1.44069724264,-0.00426233427979,0.0,0.001,0.0,5000.0,0.0,0.0,0.0
1513267046180934971,,696869,,1513267044,365445376,'',1.44862327916,1.43949632802,-0.0272876312497,0.0,0.001,0.0,5000.0,0.0,0.0,0.0
1513267046190909440,,696870,,1513267044,375445376,'',1.44862327916,1.44189815727,0.0221816524944,0.0,0.001,0.0,5000.0,0.0,0.0,0.0
1513267046200918983,,696871,,1513267044,385445376,'',1.44862327916,1.44069724264,-0.000824228096972,0.0,0.001,0.0,5000.0,0.0,0.0,0.0
1513267046211043683,,696872,,1513267044,395445376,'',1.44862327916,1.44069724264,-0.00066085660429,0.0,0.001,0.0,5000.0,0.0,0.0,0.0
1513267046220990635,,696873,,1513267044,405445376,'',1.44862327916,1.43949632802,-0.0238082867928,0.0,0.001,0.0,5000.0,0.0,0.0,0.0
1513267046230684617,,696874,,1513267044,415445376,'',1.44862327916,1.44189815727,0.0246311514833,0.0,0.001,0.0,5000.0,0.0,0.0,0.0
1513267046241040511,,696875,,1513267044,425445376,'',1.44862327916,1.44069724264,-0.000485800582646,0.0,0.001,0.0,5000.0,0.0,0.0,0.0
1513267046251016666,,696876,,1513267044,435445376,'',1.44862327916,1.44189815727,0.0212726786063,0.0,0.001,0.0,5000.0,0.0,0.0,0.0
1513267046260843627,,696877,,1513267044,445445376,'',1.44862327916,1.44189815727,0.0192022606003,0.0,0.001,0.0,5000.0,0.0,0.0,0.0
1513267046271190576,,696878,,1513267044,455445376,'',1.44862327916,1.44069724264,-0.00809053729807,0.0,0.001,0.0,5000.0,0.0,0.0,0.0
1513267046281176113,,696879,,1513267044,465445376,'',1.44862327916,1.44189815727,0.014903828985,0.0,0.001,0.0,5000.0,0.0,0.0,0.0
1513267046291226853,,696880,,1513267044,475445376,'',1.44862327916,1.44189815727,0.0129992541253,0.0,0.001,0.0,5000.0,0.0,0.0,0.0
1513267046301074359,,696881,,1513267044,485445376,'',1.44862327916,1.44189815727,0.0105729553638,0.0,0.001,0.0,5000.0,0.0,0.0,0.0
1513267046311107027,,696882,,1513267044,495445376,'',1.44862327916,1.44069724264,-0.0155389677254,0.0,0.001,0.0,5000.0,0.0,0.0,0.0
1513267046321058927,,696883,,1513267044,505445376,'',1.44862327916,1.44189815727,0.00721030189969,0.0,0.001,0.0,5000.0,0.0,0.0,0.0
1513267046330985435,,696884,,1513267044,515445376,'',1.44862327916,1.44189815727,0.00507554918076,0.0,0.001,0.0,5000.0,0.0,0.0,0.0
1513267046340873621,,696885,,1513267044,525445376,'',1.44862327916,1.44189815727,0.00336170095486,0.0,0.001,0.0,5000.0,0.0,0.0,0.0
1513267046350850814,,696886,,1513267044,535445376,'',1.44862327916,1.44189815727,0.00185820036271,0.0,0.001,0.0,5000.0,0.0,0.0,0.0
1513267046360864972,,696887,,1513267044,545445376,'',1.44862327916,1.44309907189,0.02483098888,0.0,0.001,0.0,5000.0,0.0,0.0,0.0
1513267046370889868,,696888,,1513267044,555445376,'',1.44862327916,1.44309907189,0.0246530831557,0.0,0.001,0.0,5000.0,0.0,0.0,0.0
1513267046381237884,,696889,,1513267044,565445376,'',1.44862327916,1.44309907189,0.0244265430432,0.0,0.001,0.0,5000.0,0.0,0.0,0.0
1513267046391162384,,696890,,1513267044,575445376,'',1.44862327916,1.44309907189,0.0221475132322,0.0,0.001,0.0,5000.0,0.0,0.0,0.0
1513267046401123727,,696891,,1513267044,585445376,'',1.44862327916,1.44069724264,-0.0276346580366,0.0,0.001,0.0,5000.0,0.0,0.0,0.0
1513267046411158354,,696892,,1513267044,595445376,'',1.44862327916,1.44189815727,-0.00450736632136,0.0,0.001,0.0,5000.0,0.0,0.0,0.0
1513267046421007123,,696893,,1513267044,605445376,'',1.44862327916,1.44189815727,-0.00542392691465,0.0,0.001,0.0,5000.0,0.0,0.0,0.0
1513267046430906647,,696894,,1513267044,615445376,'',1.44862327916,1.44189815727,-0.00668056160238,0.0,0.001,0.0,5000.0,0.0,0.0,0.0
1513267046440898959,,696895,,1513267044,625445376,'',1.44862327916,1.44429998651,0.0416200687137,0.0,0.001,0.0,5000.0,0.0,0.0,0.0
1513267046450822680,,696896,,1513267044,635445376,'',1.44862327916,1.44189815727,-0.00612309534531,0.0,0.001,0.0,5000.0,0.0,0.0,0.0
1513267046461218091,,696897,,1513267044,645445376,'',1.44862327916,1.44309907189,0.0183064501921,0.0,0.001,0.0,5000.0,0.0,0.0,0.0
1513267046471102792,,696898,,1513267044,655445376,'',1.44862327916,1.44069724264,-0.0295768741014,0.0,0.001,0.0,5000.0,0.0,0.0,0.0
1513267046481156448,,696899,,1513267044,665445376,'',1.44862327916,1.44189815727,-0.00391305349916,0.0,0.001,0.0,5000.0,0.0,0.0,0.0
1513267046491207859,,696900,,1513267044,675445376,'',1.44862327916,1.44189815727,-0.00283762484519,0.0,0.001,0.0,5000.0,0.0,0.0,0.0
1513267046501079208,,696901,,1513267044,685445376,'',1.44862327916,1.44069724264,-0.0273678175728,0.0,0.001,0.0,5000.0,0.0,0.0,0.0
1513267046510966198,,696902,,1513267044,695445376,'',1.44862327916,1.44309907189,0.0207163507082,0.0,0.001,0.0,5000.0,0.0,0.0,0.0
1513267046521164572,,696903,,1513267044,705445376,'',1.44862327916,1.44189815727,-0.00373028040937,0.0,0.001,0.0,5000.0,0.0,0.0,0.0
1513267046531052672,,696904,,1513267044,715445376,'',1.44862327916,1.44189815727,-0.00215822629875,0.0,0.001,0.0,5000.0,0.0,0.0,0.0
1513267046540988548,,696905,,1513267044,725445376,'',1.44862327916,1.44189815727,-0.0021834186589,0.0,0.001,0.0,5000.0,0.0,0.0,0.0
1513267046550969773,,696906,,1513267044,735445376,'',1.44862327916,1.44189815727,-0.00310757317314,0.0,0.001,0.0,5000.0,0.0,0.0,0.0
1513267046560950950,,696907,,1513267044,745445376,'',1.44862327916,1.44309907189,0.0199031190523,0.0,0.001,0.0,5000.0,0.0,0.0,0.0
1513267046571219857,,696908,,1513267044,755445376,'',1.44862327916,1.44309907189,0.0193194586495,0.0,0.001,0.0,5000.0,0.0,0.0,0.0
1513267046581186671,,696909,,1513267044,765445376,'',1.44862327916,1.44189815727,-0.00494152395304,0.0,0.001,0.0,5000.0,0.0,0.0,0.0
1513267046591110363,,696910,,1513267044,775445376,'',1.44862327916,1.44189815727,-0.00630470788797,0.0,0.001,0.0,5000.0,0.0,0.0,0.0
1513267046601127131,,696911,,1513267044,785445376,'',1.44862327916,1.44309907189,0.0181418835216,0.0,0.001,0.0,5000.0,0.0,0.0,0.0
1513267046611106813,,696912,,1513267044,795445376,'',1.44862327916,1.44069724264,-0.0287528631104,0.0,0.001,0.0,5000.0,0.0,0.0,0.0
1513267046620980125,,696913,,1513267044,805445376,'',1.44862327916,1.44189815727,-0.00278522438093,0.0,0.001,0.0,5000.0,0.0,0.0,0.0
1513267046630925450,,696914,,1513267044,815445376,'',1.44862327916,1.44309907189,0.019786578909,0.0,0.001,0.0,5000.0,0.0,0.0,0.0
1513267046640918314,,696915,,1513267044,825445376,'',1.44862327916,1.44189815727,-0.00406872839221,0.0,0.001,0.0,5000.0,0.0,0.0,0.0
1513267046650894874,,696916,,1513267044,835445376,'',1.44862327916,1.44309907189,0.0204084668748,0.0,0.001,0.0,5000.0,0.0,0.0,0.0
1513267046660794260,,696917,,1513267044,845445376,'',1.44862327916,1.44189815727,-0.00402766020672,0.0,0.001,0.0,5000.0,0.0,0.0,0.0
1513267046670820961,,696918,,1513267044,855445376,'',1.44862327916,1.44309907189,0.0191661593625,0.0,0.001,0.0,5000.0,0.0,0.0,0.0
1513267046680809089,,696919,,1513267044,865445376,'',1.44862327916,1.44069724264,-0.0296893253418,0.0,0.001,0.0,5000.0,0.0,0.0,0.0
1513267046691222271,,696920,,1513267044,875445376,'',1.44862327916,1.44189815727,-0.0057988939967,0.0,0.001,0.0,5000.0,0.0,0.0,0.0
1513267046701160198,,696921,,1513267044,885445376,'',1.44862327916,1.44309907189,0.0168809173651,0.0,0.001,0.0,5000.0,0.0,0.0,0.0
1513267046711103455,,696922,,1513267044,895445376,'',1.44862327916,1.44309907189,0.0155975368696,0.0,0.001,0.0,5000.0,0.0,0.0,0.0
1513267046720959275,,696923,,1513267044,905445376,'',1.44862327916,1.44069724264,-0.0321575744902,0.0,0.001,0.0,5000.0,0.0,0.0,0.0
1513267046730801137,,696924,,1513267044,915445376,'',1.44862327916,1.44189815727,-0.0064590378349,0.0,0.001,0.0,5000.0,0.0,0.0,0.0
1513267046740751889,,696925,,1513267044,925445376,'',1.44862327916,1.44309907189,0.0172174321729,0.0,0.001,0.0,5000.0,0.0,0.0,0.0
1513267046751210622,,696926,,1513267044,935445376,'',1.44862327916,1.44189815727,-0.00753945385064,0.0,0.001,0.0,5000.0,0.0,0.0,0.0
1513267046761165933,,696927,,1513267044,945445376,'',1.44862327916,1.44309907189,0.0154744348242,0.0,0.001,0.0,5000.0,0.0,0.0,0.0
1513267046771140017,,696928,,1513267044,955445376,'',1.44862327916,1.44429998651,0.0376951642782,0.0,0.001,0.0,5000.0,0.0,0.0,0.0
1513267046781017738,,696929,,1513267044,965445376,'',1.44862327916,1.44189815727,-0.00932013871825,0.0,0.001,0.0,5000.0,0.0,0.0,0.0
1513267046790994455,,696930,,1513267044,975445376,'',1.44862327916,1.44189815727,-0.00927604169607,0.0,0.001,0.0,5000.0,0.0,0.0,0.0
1513267046800977534,,696931,,1513267044,985445376,'',1.44862327916,1.44309907189,0.0148559938352,0.0,0.001,0.0,5000.0,0.0,0.0,0.0
1513267046810796640,,696932,,1513267044,995445376,'',1.44862327916,1.44189815727,-0.00860108579192,0.0,0.001,0.0,5000.0,0.0,0.0,0.0
1513267046820797098,,696933,,1513267045,5445376,'',1.44862327916,1.44189815727,-0.00748241020887,0.0,0.001,0.0,5000.0,0.0,0.0,0.0
1513267046831212722,,696934,,1513267045,15445376,'',1.44862327916,1.44309907189,0.0163777035288,0.0,0.001,0.0,5000.0,0.0,0.0,0.0
1513267046841093369,,696935,,1513267045,25445376,'',1.44862327916,1.44189815727,-0.0081353220176,0.0,0.001,0.0,5000.0,0.0,0.0,0.0
1513267046851175246,,696936,,1513267045,35445376,'',1.44862327916,1.44189815727,-0.00745490622156,0.0,0.001,0.0,5000.0,0.0,0.0,0.0
1513267046861090869,,696937,,1513267045,45445376,'',1.44862327916,1.44189815727,-0.00738640817216,0.0,0.001,0.0,5000.0,0.0,0.0,0.0
1513267046871041831,,696938,,1513267045,55445376,'',1.44862327916,1.44309907189,0.017728749714,0.0,0.001,0.0,5000.0,0.0,0.0,0.0
1513267046880924421,,696939,,1513267045,65445376,'',1.44862327916,1.44189815727,-0.00581374761896,0.0,0.001,0.0,5000.0,0.0,0.0,0.0
1513267046890857033,,696940,,1513267045,75445376,'',1.44862327916,1.44189815727,-0.00741471187194,0.0,0.001,0.0,5000.0,0.0,0.0,0.0
1513267046900850841,,696941,,1513267045,85445376,'',1.44862327916,1.44309907189,0.0172509727241,0.0,0.001,0.0,5000.0,0.0,0.0,0.0
1513267046910717184,,696942,,1513267045,95445376,'',1.44862327916,1.44309907189,0.0162815355478,0.0,0.001,0.0,5000.0,0.0,0.0,0.0
1513267046920760720,,696943,,1513267045,105445376,'',1.44862327916,1.44189815727,-0.00910026134509,0.0,0.001,0.0,5000.0,0.0,0.0,0.0
1513267046931134717,,696944,,1513267045,115445376,'',1.44862327916,1.44189815727,-0.00916786547044,0.0,0.001,0.0,5000.0,0.0,0.0,0.0
1513267046940972491,,696945,,1513267045,125445376,'',1.44862327916,1.44429998651,0.0369741384751,0.0,0.001,0.0,5000.0,0.0,0.0,0.0
1513267046950961824,,696946,,1513267045,135445376,'',1.44862327916,1.44309907189,0.0120956911465,0.0,0.001,0.0,5000.0,0.0,0.0,0.0
1513267046960962261,,696947,,1513267045,145445376,'',1.44862327916,1.44309907189,0.0124878729876,0.0,0.001,0.0,5000.0,0.0,0.0,0.0
1513267046970797786,,696948,,1513267045,155445376,'',1.44862327916,1.44069724264,-0.0352104669904,0.0,0.001,0.0,5000.0,0.0,0.0,0.0
1513267046980957143,,696949,,1513267045,165445376,'',1.44862327916,1.44189815727,-0.00992094290931,0.0,0.001,0.0,5000.0,0.0,0.0,0.0
1513267046991183816,,696950,,1513267045,175445376,'',1.44862327916,1.44189815727,-0.0103373161474,0.0,0.001,0.0,5000.0,0.0,0.0,0.0
1513267047001147553,,696951,,1513267045,185445376,'',1.44862327916,1.44189815727,-0.00896026026687,0.0,0.001,0.0,5000.0,0.0,0.0,0.0
1513267047011113036,,696952,,1513267045,195445376,'',1.44862327916,1.44189815727,-0.0090603436804,0.0,0.001,0.0,5000.0,0.0,0.0,0.0
1513267047021072228,,696953,,1513267045,205445376,'',1.44862327916,1.44189815727,-0.00869828353404,0.0,0.001,0.0,5000.0,0.0,0.0,0.0
1513267047031048778,,696954,,1513267045,215445376,'',1.44862327916,1.44309907189,0.0158203714549,0.0,0.001,0.0,5000.0,0.0,0.0,0.0
1513267047041115710,,696955,,1513267045,225445376,'',1.44862327916,1.44189815727,-0.00858430379623,0.0,0.001,0.0,5000.0,0.0,0.0,0.0
1513267047050987210,,696956,,1513267045,235445376,'',1.44862327916,1.44189815727,-0.00918184552207,0.0,0.001,0.0,5000.0,0.0,0.0,0.0
1513267047060862856,,696957,,1513267045,245445376,'',1.44862327916,1.44309907189,0.0154103235156,0.0,0.001,0.0,5000.0,0.0,0.0,0.0
1513267047070842527,,696958,,1513267045,255445376,'',1.44862327916,1.44309907189,0.0143050807654,0.0,0.001,0.0,5000.0,0.0,0.0,0.0
1513267047080766134,,696959,,1513267045,265445376,'',1.44862327916,1.44189815727,-0.00947791098299,0.0,0.001,0.0,5000.0,0.0,0.0,0.0
1513267047090892960,,696960,,1513267045,275445376,'',1.44862327916,1.44189815727,-0.00947735629195,0.0,0.001,0.0,5000.0,0.0,0.0,0.0
1513267047101325145,,696961,,1513267045,285445376,'',1.44862327916,1.44189815727,-0.010345404517,0.0,0.001,0.0,5000.0,0.0,0.0,0.0
1513267047111110728,,696962,,1513267045,295445376,'',1.44862327916,1.44309907189,0.0126706029442,0.0,0.001,0.0,5000.0,0.0,0.0,0.0
1513267047121190741,,696963,,1513267045,305445376,'',1.44862327916,1.44309907189,0.0116291932669,0.0,0.001,0.0,5000.0,0.0,0.0,0.0
1513267047131152479,,696964,,1513267045,315445376,'',1.44862327916,1.44189815727,-0.0129867543323,0.0,0.001,0.0,5000.0,0.0,0.0,0.0
1513267047140961823,,696965,,1513267045,325445376,'',1.44862327916,1.44309907189,0.0110140734811,0.0,0.001,0.0,5000.0,0.0,0.0,0.0
1513267047151066504,,696966,,1513267045,335445376,'',1.44862327916,1.44309907189,0.00948710759092,0.0,0.001,0.0,5000.0,0.0,0.0,0.0
1513267047160896148,,696967,,1513267045,345445376,'',1.44862327916,1.44309907189,0.00955697045835,0.0,0.001,0.0,5000.0,0.0,0.0,0.0
1513267047170815665,,696968,,1513267045,355445376,'',1.44862327916,1.44309907189,0.00999633041646,0.0,0.001,0.0,5000.0,0.0,0.0,0.0
1513267047181212890,,696969,,1513267045,365445376,'',1.44862327916,1.44189815727,-0.0134873347282,0.0,0.001,0.0,5000.0,0.0,0.0,0.0
1513267047191227914,,696970,,1513267045,375445376,'',1.44862327916,1.44189815727,-0.0132052958567,0.0,0.001,0.0,5000.0,0.0,0.0,0.0
1513267047200984423,,696971,,1513267045,385445376,'',1.44862327916,1.44189815727,-0.0129883395723,0.0,0.001,0.0,5000.0,0.0,0.0,0.0
1513267047210946829,,696972,,1513267045,395445376,'',1.44862327916,1.44189815727,-0.0123441704629,0.0,0.001,0.0,5000.0,0.0,0.0,0.0
1513267047221019889,,696973,,1513267045,405445376,'',1.44862327916,1.44189815727,-0.0118385043014,0.0,0.001,0.0,5000.0,0.0,0.0,0.0
1513267047230896635,,696974,,1513267045,415445376,'',1.44862327916,1.44309907189,0.0123018466481,0.0,0.001,0.0,5000.0,0.0,0.0,0.0
1513267047241019882,,696975,,1513267045,425445376,'',1.44862327916,1.44309907189,0.0126675926056,0.0,0.001,0.0,5000.0,0.0,0.0,0.0
1513267047251240977,,696976,,1513267045,435445376,'',1.44862327916,1.44309907189,0.0125781798733,0.0,0.001,0.0,5000.0,0.0,0.0,0.0
1513267047261198789,,696977,,1513267045,445445376,'',1.44862327916,1.44189815727,-0.0135169379989,0.0,0.001,0.0,5000.0,0.0,0.0,0.0
1513267047271178625,,696978,,1513267045,455445376,'',1.44862327916,1.44189815727,-0.0128650411064,0.0,0.001,0.0,5000.0,0.0,0.0,0.0
1513267047281397475,,696979,,1513267045,465445376,'',1.44862327916,1.44189815727,-0.0136538212734,0.0,0.001,0.0,5000.0,0.0,0.0,0.0
1513267047291513778,,696980,,1513267045,475445376,'',1.44862327916,1.44429998651,0.0333725815846,0.0,0.001,0.0,5000.0,0.0,0.0,0.0
1513267047301531138,,696981,,1513267045,485445376,'',1.44862327916,1.44189815727,-0.0141745287578,0.0,0.001,0.0,5000.0,0.0,0.0,0.0
1513267047311396887,,696982,,1513267045,495445376,'',1.44862327916,1.44189815727,-0.0125291380672,0.0,0.001,0.0,5000.0,0.0,0.0,0.0
1513267047321023363,,696983,,1513267045,505445376,'',1.44862327916,1.44189815727,-0.0128128404957,0.0,0.001,0.0,5000.0,0.0,0.0,0.0
1513267047331097790,,696984,,1513267045,515445376,'',1.44862327916,1.44189815727,-0.0126585634995,0.0,0.001,0.0,5000.0,0.0,0.0,0.0
1513267047341484928,,696985,,1513267045,525445376,'',1.44862327916,1.44309907189,0.0108151304901,0.0,0.001,0.0,5000.0,0.0,0.0,0.0
1513267047351067418,,696986,,1513267045,535445376,'',1.44862327916,1.44309907189,0.0106472422781,0.0,0.001,0.0,5000.0,0.0,0.0,0.0
1513267047361265249,,696987,,1513267045,545445376,'',1.44862327916,1.44189815727,-0.0137431588082,0.0,0.001,0.0,5000.0,0.0,0.0,0.0
1513267047371174685,,696988,,1513267045,555445376,'',1.44862327916,1.44309907189,0.0103361255214,0.0,0.001,0.0,5000.0,0.0,0.0,0.0
1513267047381347995,,696989,,1513267045,565445376,'',1.44862327916,1.44189815727,-0.0127671156386,0.0,0.001,0.0,5000.0,0.0,0.0,0.0
1513267047391176051,,696990,,1513267045,575445376,'',1.44862327916,1.44309907189,0.011106078066,0.0,0.001,0.0,5000.0,0.0,0.0,0.0
1513267047400971829,,696991,,1513267045,585445376,'',1.44862327916,1.44189815727,-0.0129899794366,0.0,0.001,0.0,5000.0,0.0,0.0,0.0
1513267047411112930,,696992,,1513267045,595445376,'',1.44862327916,1.44309907189,0.0122891924376,0.0,0.001,0.0,5000.0,0.0,0.0,0.0
1513267047421468625,,696993,,1513267045,605445376,'',1.44862327916,1.44189815727,-0.0115069263041,0.0,0.001,0.0,5000.0,0.0,0.0,0.0
1513267047431458623,,696994,,1513267045,615445376,'',1.44862327916,1.44189815727,-0.0106485775793,0.0,0.001,0.0,5000.0,0.0,0.0,0.0
1513267047441494152,,696995,,1513267045,625445376,'',1.44862327916,1.44189815727,-0.00910038686555,0.0,0.001,0.0,5000.0,0.0,0.0,0.0
1513267047451538124,,696996,,1513267045,635445376,'',1.44862327916,1.44309907189,0.0146341238361,0.0,0.001,0.0,5000.0,0.0,0.0,0.0
1513267047461312835,,696997,,1513267045,645445376,'',1.44862327916,1.44309907189,0.0153797632053,0.0,0.001,0.0,5000.0,0.0,0.0,0.0
1513267047471123277,,696998,,1513267045,655445376,'',1.44862327916,1.44189815727,-0.00897609453562,0.0,0.001,0.0,5000.0,0.0,0.0,0.0
1513267047480859749,,696999,,1513267045,665445376,'',1.44862327916,1.44309907189,0.0159450621859,0.0,0.001,0.0,5000.0,0.0,0.0,0.0
1513267047490915236,,697000,,1513267045,675445376,'',1.44862327916,1.44309907189,0.0144151500782,0.0,0.001,0.0,5000.0,0.0,0.0,0.0
1513267047500958566,,697001,,1513267045,685445376,'',1.44862327916,1.44309907189,0.0127052046466,0.0,0.001,0.0,5000.0,0.0,0.0,0.0
1513267047510840505,,697002,,1513267045,695445376,'',1.44862327916,1.44309907189,0.011687112912,0.0,0.001,0.0,5000.0,0.0,0.0,0.0
1513267047521210304,,697003,,1513267045,705445376,'',1.44862327916,1.44309907189,0.0108964967285,0.0,0.001,0.0,5000.0,0.0,0.0,0.0
1513267047531226293,,697004,,1513267045,715445376,'',1.44862327916,1.44429998651,0.0340325101562,0.0,0.001,0.0,5000.0,0.0,0.0,0.0
1513267047541186158,,697005,,1513267045,725445376,'',1.44862327916,1.44189815727,-0.0148808355697,0.0,0.001,0.0,5000.0,0.0,0.0,0.0
1513267047551081390,,697006,,1513267045,735445376,'',1.44862327916,1.44309907189,0.00989489795825,0.0,0.001,0.0,5000.0,0.0,0.0,0.0
1513267047561082344,,697007,,1513267045,745445376,'',1.44862327916,1.44189815727,-0.0139455148896,0.0,0.001,0.0,5000.0,0.0,0.0,0.0
1513267047571069945,,697008,,1513267045,755445376,'',1.44862327916,1.44309907189,0.00972851343382,0.0,0.001,0.0,5000.0,0.0,0.0,0.0
1513267047580887270,,697009,,1513267045,765445376,'',1.44862327916,1.44189815727,-0.0136494817909,0.0,0.001,0.0,5000.0,0.0,0.0,0.0
1513267047590882959,,697010,,1513267045,775445376,'',1.44862327916,1.44189815727,-0.0133086517611,0.0,0.001,0.0,5000.0,0.0,0.0,0.0
1513267047600911878,,697011,,1513267045,785445376,'',1.44862327916,1.44309907189,0.00941182326192,0.0,0.001,0.0,5000.0,0.0,0.0,0.0
1513267047610836703,,697012,,1513267045,795445376,'',1.44862327916,1.44189815727,-0.0143643209132,0.0,0.001,0.0,5000.0,0.0,0.0,0.0
1513267047621290097,,697013,,1513267045,805445376,'',1.44862327916,1.44309907189,0.0097868878761,0.0,0.001,0.0,5000.0,0.0,0.0,0.0
1513267047631237697,,697014,,1513267045,815445376,'',1.44862327916,1.44189815727,-0.0140044102075,0.0,0.001,0.0,5000.0,0.0,0.0,0.0
1513267047641180462,,697015,,1513267045,825445376,'',1.44862327916,1.44189815727,-0.0139877675117,0.0,0.001,0.0,5000.0,0.0,0.0,0.0
1513267047651207990,,697016,,1513267045,835445376,'',1.44862327916,1.44309907189,0.0097121715454,0.0,0.001,0.0,5000.0,0.0,0.0,0.0
1513267047661124078,,697017,,1513267045,845445376,'',1.44862327916,1.44309907189,0.00881236544823,0.0,0.001,0.0,5000.0,0.0,0.0,0.0
1513267047671210650,,697018,,1513267045,855445376,'',1.44862327916,1.44309907189,0.00759539971551,0.0,0.001,0.0,5000.0,0.0,0.0,0.0
1513267047681005341,,697019,,1513267045,865445376,'',1.44862327916,1.44309907189,0.00788181580433,0.0,0.001,0.0,5000.0,0.0,0.0,0.0
1513267047691062607,,697020,,1513267045,875445376,'',1.44862327916,1.44309907189,0.00900951816962,0.0,0.001,0.0,5000.0,0.0,0.0,0.0
1513267047700856849,,697021,,1513267045,885445376,'',1.44862327916,1.44309907189,0.00788865707125,0.0,0.001,0.0,5000.0,0.0,0.0,0.0
1513267047710972970,,697022,,1513267045,895445376,'',1.44862327916,1.44309907189,0.00910833121275,0.0,0.001,0.0,5000.0,0.0,0.0,0.0
1513267047720842186,,697023,,1513267045,905445376,'',1.44862327916,1.44189815727,-0.0132635285988,0.0,0.001,0.0,5000.0,0.0,0.0,0.0
