rosbagTimestamp,header,seq,stamp,secs,nsecs,frame_id,set_point,process_value,process_value_dot,error,time_step,command,p,i,d,i_clamp
1513266665221700936,,658779,,1513266663,413234221,'',0.471238898038,0.478308586148,0.00038509421485,0.00706968810934,0.001,35.3484405467,-5000.0,0.0,0.0,0.0
1513266665231275986,,658780,,1513266663,423234221,'',0.471238898038,0.476651627997,-0.0325180855904,0.00541272995872,0.001,27.0636497936,-5000.0,0.0,0.0,0.0
1513266665241240205,,658781,,1513266663,433234221,'',0.471238898038,0.478308586148,0.00209935826374,0.00706968810934,0.001,35.3484405467,-5000.0,0.0,0.0,0.0
1513266665251144953,,658782,,1513266663,443234221,'',0.471238898038,0.478308586148,0.000510892495965,0.00706968810934,0.001,35.3484405467,-5000.0,0.0,0.0,0.0
1513266665261592048,,658783,,1513266663,453234221,'',0.471238898038,0.478308586148,0.000378682383139,0.00706968810934,0.001,35.3484405467,-5000.0,0.0,0.0,0.0
1513266665271523569,,658784,,1513266663,463234221,'',0.471238898038,0.478308586148,0.000292406798443,0.00706968810934,0.001,35.3484405467,-5000.0,0.0,0.0,0.0
1513266665281493100,,658785,,1513266663,473234221,'',0.471238898038,0.478308586148,0.00139587603559,0.00706968810934,0.001,35.3484405467,-5000.0,0.0,0.0,0.0
1513266665291275823,,658786,,1513266663,483234221,'',0.471238898038,0.476651627997,-0.0317520615139,0.00541272995872,0.001,27.0636497936,-5000.0,0.0,0.0,0.0
1513266665301196443,,658787,,1513266663,493234221,'',0.471238898038,0.479965544298,0.0336526760529,0.00872664625997,0.001,43.6332312999,-5000.0,0.0,0.0,0.0
1513266665311085842,,658788,,1513266663,503234221,'',0.471238898038,0.478308586148,-0.000411905029834,0.00706968810934,0.001,35.3484405467,-5000.0,0.0,0.0,0.0
1513266665321539211,,658789,,1513266663,513234221,'',0.471238898038,0.478308586148,-0.0015962235081,0.00706968810934,0.001,35.3484405467,-5000.0,0.0,0.0,0.0
1513266665331481703,,658790,,1513266663,523234221,'',0.471238898038,0.479965544298,0.0321143936517,0.00872664625997,0.001,43.6332312999,-5000.0,0.0,0.0,0.0
1513266665341581487,,658791,,1513266663,533234221,'',0.471238898038,0.479965544298,0.0317462654709,0.00872664625997,0.001,43.6332312999,-5000.0,0.0,0.0,0.0
1513266665351453729,,658792,,1513266663,543234221,'',0.471238898038,0.478308586148,-0.00142152587226,0.00706968810934,0.001,35.3484405467,-5000.0,0.0,0.0,0.0
1513266665361271920,,658793,,1513266663,553234221,'',0.471238898038,0.478308586148,-0.00180792150842,0.00706968810934,0.001,35.3484405467,-5000.0,0.0,0.0,0.0
1513266665371244652,,658794,,1513266663,563234221,'',0.471238898038,0.478308586148,-0.00208222280463,0.00706968810934,0.001,35.3484405467,-5000.0,0.0,0.0,0.0
1513266665381261257,,658795,,1513266663,573234221,'',0.471238898038,0.478308586148,-0.000529127254058,0.00706968810934,0.001,35.3484405467,-5000.0,0.0,0.0,0.0
1513266665391173090,,658796,,1513266663,583234221,'',0.471238898038,0.479965544298,0.0330074039973,0.00872664625997,0.001,43.6332312999,-5000.0,0.0,0.0,0.0
1513266665401104305,,658797,,1513266663,593234221,'',0.471238898038,0.479965544298,0.0324603440111,0.00872664625997,0.001,43.6332312999,-5000.0,0.0,0.0,0.0
1513266665411571696,,658798,,1513266663,603234221,'',0.471238898038,0.478308586148,-0.000773027269119,0.00706968810934,0.001,35.3484405467,-5000.0,0.0,0.0,0.0
1513266665421421094,,658799,,1513266663,613234221,'',0.471238898038,0.478308586148,-2.27564085274e-05,0.00706968810934,0.001,35.3484405467,-5000.0,0.0,0.0,0.0
1513266665431390576,,658800,,1513266663,623234221,'',0.471238898038,0.479965544298,0.0316101703425,0.00872664625997,0.001,43.6332312999,-5000.0,0.0,0.0,0.0
1513266665441292264,,658801,,1513266663,633234221,'',0.471238898038,0.478308586148,-0.00277115991278,0.00706968810934,0.001,35.3484405467,-5000.0,0.0,0.0,0.0
1513266665451190225,,658802,,1513266663,643234221,'',0.471238898038,0.478308586148,-0.0022387874624,0.00706968810934,0.001,35.3484405467,-5000.0,0.0,0.0,0.0
1513266665461142653,,658803,,1513266663,653234221,'',0.471238898038,0.479965544298,0.0297986867083,0.00872664625997,0.001,43.6332312999,-5000.0,0.0,0.0,0.0
1513266665471206227,,658804,,1513266663,663234221,'',0.471238898038,0.478308586148,-0.00298763985843,0.00706968810934,0.001,35.3484405467,-5000.0,0.0,0.0,0.0
1513266665481155717,,658805,,1513266663,673234221,'',0.471238898038,0.478308586148,-0.00236599305714,0.00706968810934,0.001,35.3484405467,-5000.0,0.0,0.0,0.0
1513266665491606108,,658806,,1513266663,683234221,'',0.471238898038,0.478308586148,-0.00256945455799,0.00706968810934,0.001,35.3484405467,-5000.0,0.0,0.0,0.0
1513266665501514368,,658807,,1513266663,693234221,'',0.471238898038,0.478308586148,-0.00330506199757,0.00706968810934,0.001,35.3484405467,-5000.0,0.0,0.0,0.0
1513266665511489719,,658808,,1513266663,703234221,'',0.471238898038,0.479965544298,0.030101263552,0.00872664625997,0.001,43.6332312999,-5000.0,0.0,0.0,0.0
1513266665521396492,,658809,,1513266663,713234221,'',0.471238898038,0.481622502449,0.0622433886052,0.0103836044106,0.001,51.918022053,-5000.0,0.0,0.0,0.0
1513266665531491644,,658810,,1513266663,723234221,'',0.471238898038,0.478308586148,-0.00313367488497,0.00706968810934,0.001,35.3484405467,-5000.0,0.0,0.0,0.0
1513266665541342579,,658811,,1513266663,733234221,'',0.471238898038,0.478308586148,-0.00254829838516,0.00706968810934,0.001,35.3484405467,-5000.0,0.0,0.0,0.0
1513266665551353501,,658812,,1513266663,743234221,'',0.471238898038,0.478308586148,-0.0020862910729,0.00706968810934,0.001,35.3484405467,-5000.0,0.0,0.0,0.0
1513266665561213022,,658813,,1513266663,753234221,'',0.471238898038,0.478308586148,-0.00293324488532,0.00706968810934,0.001,35.3484405467,-5000.0,0.0,0.0,0.0
1513266665571175005,,658814,,1513266663,763234221,'',0.471238898038,0.478308586148,-0.00346986815837,0.00706968810934,0.001,35.3484405467,-5000.0,0.0,0.0,0.0
1513266665581486505,,658815,,1513266663,773234221,'',0.471238898038,0.478308586148,-0.0015239796788,0.00706968810934,0.001,35.3484405467,-5000.0,0.0,0.0,0.0
1513266665591459085,,658816,,1513266663,783234221,'',0.471238898038,0.478308586148,-0.0012626514668,0.00706968810934,0.001,35.3484405467,-5000.0,0.0,0.0,0.0
1513266665601269186,,658817,,1513266663,793234221,'',0.471238898038,0.478308586148,-0.000359136783629,0.00706968810934,0.001,35.3484405467,-5000.0,0.0,0.0,0.0
1513266665611163031,,658818,,1513266663,803234221,'',0.471238898038,0.479965544298,0.031258085404,0.00872664625997,0.001,43.6332312999,-5000.0,0.0,0.0,0.0
1513266665621109911,,658819,,1513266663,813234221,'',0.471238898038,0.478308586148,3.11540931999e-05,0.00706968810934,0.001,35.3484405467,-5000.0,0.0,0.0,0.0
1513266665631170758,,658820,,1513266663,823234221,'',0.471238898038,0.478308586148,-3.10836438728e-05,0.00706968810934,0.001,35.3484405467,-5000.0,0.0,0.0,0.0
1513266665641023083,,658821,,1513266663,833234221,'',0.471238898038,0.478308586148,-0.000793521544171,0.00706968810934,0.001,35.3484405467,-5000.0,0.0,0.0,0.0
1513266665651530281,,658822,,1513266663,843234221,'',0.471238898038,0.479965544298,0.031576154656,0.00872664625997,0.001,43.6332312999,-5000.0,0.0,0.0,0.0
1513266665661429887,,658823,,1513266663,853234221,'',0.471238898038,0.478308586148,-0.00161702547391,0.00706968810934,0.001,35.3484405467,-5000.0,0.0,0.0,0.0
1513266665671402931,,658824,,1513266663,863234221,'',0.471238898038,0.478308586148,-0.00361801315697,0.00706968810934,0.001,35.3484405467,-5000.0,0.0,0.0,0.0
1513266665681413892,,658825,,1513266663,873234221,'',0.471238898038,0.476651627997,-0.0368837235518,0.00541272995872,0.001,27.0636497936,-5000.0,0.0,0.0,0.0
1513266665691371247,,658826,,1513266663,883234221,'',0.471238898038,0.478308586148,-0.00271735503593,0.00706968810934,0.001,35.3484405467,-5000.0,0.0,0.0,0.0
1513266665701336908,,658827,,1513266663,893234221,'',0.471238898038,0.476651627997,-0.0349374833222,0.00541272995872,0.001,27.0636497936,-5000.0,0.0,0.0,0.0
1513266665711103279,,658828,,1513266663,903234221,'',0.471238898038,0.478308586148,-0.000570186438138,0.00706968810934,0.001,35.3484405467,-5000.0,0.0,0.0,0.0
1513266665721453165,,658829,,1513266663,913234221,'',0.471238898038,0.478308586148,-0.000466753583937,0.00706968810934,0.001,35.3484405467,-5000.0,0.0,0.0,0.0
1513266665731496645,,658830,,1513266663,923234221,'',0.471238898038,0.478308586148,-0.0015880835527,0.00706968810934,0.001,35.3484405467,-5000.0,0.0,0.0,0.0
1513266665741255643,,658831,,1513266663,933234221,'',0.471238898038,0.478308586148,-0.000743584101567,0.00706968810934,0.001,35.3484405467,-5000.0,0.0,0.0,0.0
1513266665751090211,,658832,,1513266663,943234221,'',0.471238898038,0.478308586148,-0.000668425318129,0.00706968810934,0.001,35.3484405467,-5000.0,0.0,0.0,0.0
1513266665761634678,,658833,,1513266663,953234221,'',0.471238898038,0.478308586148,-0.00232626349613,0.00706968810934,0.001,35.3484405467,-5000.0,0.0,0.0,0.0
1513266665771527849,,658834,,1513266663,963234221,'',0.471238898038,0.478308586148,-0.00190538319586,0.00706968810934,0.001,35.3484405467,-5000.0,0.0,0.0,0.0
1513266665781504513,,658835,,1513266663,973234221,'',0.471238898038,0.478308586148,-0.00327913391162,0.00706968810934,0.001,35.3484405467,-5000.0,0.0,0.0,0.0
1513266665791374033,,658836,,1513266663,983234221,'',0.471238898038,0.478308586148,-0.001988724787,0.00706968810934,0.001,35.3484405467,-5000.0,0.0,0.0,0.0
1513266665801249661,,658837,,1513266663,993234221,'',0.471238898038,0.478308586148,-0.00226909768054,0.00706968810934,0.001,35.3484405467,-5000.0,0.0,0.0,0.0
1513266665811251777,,658838,,1513266664,3234221,'',0.471238898038,0.478308586148,-0.00238055094543,0.00706968810934,0.001,35.3484405467,-5000.0,0.0,0.0,0.0
1513266665821167636,,658839,,1513266664,13234221,'',0.471238898038,0.479965544298,0.0314158680131,0.00872664625997,0.001,43.6332312999,-5000.0,0.0,0.0,0.0
1513266665831173465,,658840,,1513266664,23234221,'',0.471238898038,0.478308586148,-0.00231984127533,0.00706968810934,0.001,35.3484405467,-5000.0,0.0,0.0,0.0
1513266665841037951,,658841,,1513266664,33234221,'',0.471238898038,0.476651627997,-0.0335270095852,0.00541272995872,0.001,27.0636497936,-5000.0,0.0,0.0,0.0
1513266665851532285,,658842,,1513266664,43234221,'',0.471238898038,0.478308586148,-0.00123255185103,0.00706968810934,0.001,35.3484405467,-5000.0,0.0,0.0,0.0
1513266665861599804,,658843,,1513266664,53234221,'',0.471238898038,0.478308586148,0.000125298616991,0.00706968810934,0.001,35.3484405467,-5000.0,0.0,0.0,0.0
1513266665871450862,,658844,,1513266664,63234221,'',0.471238898038,0.478308586148,0.000112572185375,0.00706968810934,0.001,35.3484405467,-5000.0,0.0,0.0,0.0
1513266665881420441,,658845,,1513266664,73234221,'',0.471238898038,0.478308586148,0.00126736971031,0.00706968810934,0.001,35.3484405467,-5000.0,0.0,0.0,0.0
1513266665891369577,,658846,,1513266664,83234221,'',0.471238898038,0.478308586148,0.00282949235236,0.00706968810934,0.001,35.3484405467,-5000.0,0.0,0.0,0.0
1513266665901351627,,658847,,1513266664,93234221,'',0.471238898038,0.476651627997,-0.0286356553903,0.00541272995872,0.001,27.0636497936,-5000.0,0.0,0.0,0.0
1513266665911322481,,658848,,1513266664,103234221,'',0.471238898038,0.478308586148,0.00397316009198,0.00706968810934,0.001,35.3484405467,-5000.0,0.0,0.0,0.0
1513266665921233815,,658849,,1513266664,113234221,'',0.471238898038,0.476651627997,-0.0325119033397,0.00541272995872,0.001,27.0636497936,-5000.0,0.0,0.0,0.0
1513266665931185745,,658850,,1513266664,123234221,'',0.471238898038,0.478308586148,0.000171196611429,0.00706968810934,0.001,35.3484405467,-5000.0,0.0,0.0,0.0
1513266665941287388,,658851,,1513266664,133234221,'',0.471238898038,0.479965544298,0.0335401925873,0.00872664625997,0.001,43.6332312999,-5000.0,0.0,0.0,0.0
1513266665951251598,,658852,,1513266664,143234221,'',0.471238898038,0.478308586148,7.1554420753e-05,0.00706968810934,0.001,35.3484405467,-5000.0,0.0,0.0,0.0
1513266665961554450,,658853,,1513266664,153234221,'',0.471238898038,0.478308586148,0.000662985165867,0.00706968810934,0.001,35.3484405467,-5000.0,0.0,0.0,0.0
1513266665971250197,,658854,,1513266664,163234221,'',0.471238898038,0.478308586148,0.00177978835841,0.00706968810934,0.001,35.3484405467,-5000.0,0.0,0.0,0.0
1513266665981071140,,658855,,1513266664,173234221,'',0.471238898038,0.478308586148,0.000315748728445,0.00706968810934,0.001,35.3484405467,-5000.0,0.0,0.0,0.0
1513266665991502713,,658856,,1513266664,183234221,'',0.471238898038,0.478308586148,0.000879572986352,0.00706968810934,0.001,35.3484405467,-5000.0,0.0,0.0,0.0
1513266666001482231,,658857,,1513266664,193234221,'',0.471238898038,0.479965544298,0.031783631548,0.00872664625997,0.001,43.6332312999,-5000.0,0.0,0.0,0.0
1513266666011355754,,658858,,1513266664,203234221,'',0.471238898038,0.478308586148,-0.000851513987131,0.00706968810934,0.001,35.3484405467,-5000.0,0.0,0.0,0.0
1513266666021304166,,658859,,1513266664,213234221,'',0.471238898038,0.476651627997,-0.0335242962177,0.00541272995872,0.001,27.0636497936,-5000.0,0.0,0.0,0.0
1513266666031151187,,658860,,1513266664,223234221,'',0.471238898038,0.476651627997,-0.0328612256656,0.00541272995872,0.001,27.0636497936,-5000.0,0.0,0.0,0.0
1513266666041153249,,658861,,1513266664,233234221,'',0.471238898038,0.478308586148,-0.000762913749253,0.00706968810934,0.001,35.3484405467,-5000.0,0.0,0.0,0.0
1513266666051524255,,658862,,1513266664,243234221,'',0.471238898038,0.479965544298,0.0302971356275,0.00872664625997,0.001,43.6332312999,-5000.0,0.0,0.0,0.0
1513266666061395755,,658863,,1513266664,253234221,'',0.471238898038,0.476651627997,-0.0341184708085,0.00541272995872,0.001,27.0636497936,-5000.0,0.0,0.0,0.0
1513266666071367661,,658864,,1513266664,263234221,'',0.471238898038,0.478308586148,-0.000466373432628,0.00706968810934,0.001,35.3484405467,-5000.0,0.0,0.0,0.0
1513266666081315200,,658865,,1513266664,273234221,'',0.471238898038,0.478308586148,0.000148499278927,0.00706968810934,0.001,35.3484405467,-5000.0,0.0,0.0,0.0
1513266666091213470,,658866,,1513266664,283234221,'',0.471238898038,0.479965544298,0.0317236758089,0.00872664625997,0.001,43.6332312999,-5000.0,0.0,0.0,0.0
1513266666101118330,,658867,,1513266664,293234221,'',0.471238898038,0.479965544298,0.0313384572389,0.00872664625997,0.001,43.6332312999,-5000.0,0.0,0.0,0.0
1513266666111539202,,658868,,1513266664,303234221,'',0.471238898038,0.478308586148,-0.00239233111238,0.00706968810934,0.001,35.3484405467,-5000.0,0.0,0.0,0.0
1513266666121512450,,658869,,1513266664,313234221,'',0.471238898038,0.478308586148,-0.00132038578616,0.00706968810934,0.001,35.3484405467,-5000.0,0.0,0.0,0.0
1513266666131271568,,658870,,1513266664,323234221,'',0.471238898038,0.478308586148,-0.00169589576541,0.00706968810934,0.001,35.3484405467,-5000.0,0.0,0.0,0.0
1513266666141319183,,658871,,1513266664,333234221,'',0.471238898038,0.478308586148,-0.00146168943548,0.00706968810934,0.001,35.3484405467,-5000.0,0.0,0.0,0.0
1513266666151211975,,658872,,1513266664,343234221,'',0.471238898038,0.478308586148,0.000527667738558,0.00706968810934,0.001,35.3484405467,-5000.0,0.0,0.0,0.0
1513266666161298681,,658873,,1513266664,353234221,'',0.471238898038,0.478308586148,0.000380130473266,0.00706968810934,0.001,35.3484405467,-5000.0,0.0,0.0,0.0
1513266666171177266,,658874,,1513266664,363234221,'',0.471238898038,0.478308586148,0.000807757361564,0.00706968810934,0.001,35.3484405467,-5000.0,0.0,0.0,0.0
1513266666181079406,,658875,,1513266664,373234221,'',0.471238898038,0.478308586148,0.00251300280023,0.00706968810934,0.001,35.3484405467,-5000.0,0.0,0.0,0.0
1513266666191647494,,658876,,1513266664,383234221,'',0.471238898038,0.478308586148,0.00152718280295,0.00706968810934,0.001,35.3484405467,-5000.0,0.0,0.0,0.0
1513266666201549979,,658877,,1513266664,393234221,'',0.471238898038,0.478308586148,0.0012933168254,0.00706968810934,0.001,35.3484405467,-5000.0,0.0,0.0,0.0
1513266666211469560,,658878,,1513266664,403234221,'',0.471238898038,0.478308586148,0.000456357412806,0.00706968810934,0.001,35.3484405467,-5000.0,0.0,0.0,0.0
1513266666221367494,,658879,,1513266664,413234221,'',0.471238898038,0.478308586148,0.0015293213174,0.00706968810934,0.001,35.3484405467,-5000.0,0.0,0.0,0.0
1513266666231305490,,658880,,1513266664,423234221,'',0.471238898038,0.476651627997,-0.031045410057,0.00541272995872,0.001,27.0636497936,-5000.0,0.0,0.0,0.0
1513266666241265545,,658881,,1513266664,433234221,'',0.471238898038,0.476651627997,-0.0308763739725,0.00541272995872,0.001,27.0636497936,-5000.0,0.0,0.0,0.0
1513266666251281775,,658882,,1513266664,443234221,'',0.471238898038,0.478308586148,0.00322655994508,0.00706968810934,0.001,35.3484405467,-5000.0,0.0,0.0,0.0
1513266666261176338,,658883,,1513266664,453234221,'',0.471238898038,0.478308586148,0.00272093098704,0.00706968810934,0.001,35.3484405467,-5000.0,0.0,0.0,0.0
1513266666271070352,,658884,,1513266664,463234221,'',0.471238898038,0.478308586148,0.00289878729736,0.00706968810934,0.001,35.3484405467,-5000.0,0.0,0.0,0.0
1513266666281549064,,658885,,1513266664,473234221,'',0.471238898038,0.476651627997,-0.0290865261709,0.00541272995872,0.001,27.0636497936,-5000.0,0.0,0.0,0.0
1513266666291444874,,658886,,1513266664,483234221,'',0.471238898038,0.479965544298,0.0387989387198,0.00872664625997,0.001,43.6332312999,-5000.0,0.0,0.0,0.0
1513266666301405896,,658887,,1513266664,493234221,'',0.471238898038,0.476651627997,-0.0271817301037,0.00541272995872,0.001,27.0636497936,-5000.0,0.0,0.0,0.0
1513266666311339544,,658888,,1513266664,503234221,'',0.471238898038,0.478308586148,0.00623255215038,0.00706968810934,0.001,35.3484405467,-5000.0,0.0,0.0,0.0
1513266666321121307,,658889,,1513266664,513234221,'',0.471238898038,0.479965544298,0.0373591788618,0.00872664625997,0.001,43.6332312999,-5000.0,0.0,0.0,0.0
1513266666331237031,,658890,,1513266664,523234221,'',0.471238898038,0.478308586148,0.00267146742173,0.00706968810934,0.001,35.3484405467,-5000.0,0.0,0.0,0.0
1513266666341561329,,658891,,1513266664,533234221,'',0.471238898038,0.476651627997,-0.030160960447,0.00541272995872,0.001,27.0636497936,-5000.0,0.0,0.0,0.0
1513266666351488374,,658892,,1513266664,543234221,'',0.471238898038,0.478308586148,0.00329795486887,0.00706968810934,0.001,35.3484405467,-5000.0,0.0,0.0,0.0
1513266666361270515,,658893,,1513266664,553234221,'',0.471238898038,0.478308586148,0.00328487673052,0.00706968810934,0.001,35.3484405467,-5000.0,0.0,0.0,0.0
1513266666371250186,,658894,,1513266664,563234221,'',0.471238898038,0.476651627997,-0.0307049530912,0.00541272995872,0.001,27.0636497936,-5000.0,0.0,0.0,0.0
1513266666381150594,,658895,,1513266664,573234221,'',0.471238898038,0.478308586148,0.00164987539383,0.00706968810934,0.001,35.3484405467,-5000.0,0.0,0.0,0.0
1513266666391370659,,658896,,1513266664,583234221,'',0.471238898038,0.479965544298,0.0348109267389,0.00872664625997,0.001,43.6332312999,-5000.0,0.0,0.0,0.0
1513266666401276078,,658897,,1513266664,593234221,'',0.471238898038,0.478308586148,0.00109013373803,0.00706968810934,0.001,35.3484405467,-5000.0,0.0,0.0,0.0
1513266666411286024,,658898,,1513266664,603234221,'',0.471238898038,0.478308586148,0.00140411329767,0.00706968810934,0.001,35.3484405467,-5000.0,0.0,0.0,0.0
1513266666421194832,,658899,,1513266664,613234221,'',0.471238898038,0.479965544298,0.0351043541173,0.00872664625997,0.001,43.6332312999,-5000.0,0.0,0.0,0.0
1513266666431629263,,658900,,1513266664,623234221,'',0.471238898038,0.478308586148,0.00253990734779,0.00706968810934,0.001,35.3484405467,-5000.0,0.0,0.0,0.0
1513266666441581735,,658901,,1513266664,633234221,'',0.471238898038,0.478308586148,0.0020456783994,0.00706968810934,0.001,35.3484405467,-5000.0,0.0,0.0,0.0
1513266666451532148,,658902,,1513266664,643234221,'',0.471238898038,0.476651627997,-0.0311397817869,0.00541272995872,0.001,27.0636497936,-5000.0,0.0,0.0,0.0
1513266666461465179,,658903,,1513266664,653234221,'',0.471238898038,0.476651627997,-0.0308904143579,0.00541272995872,0.001,27.0636497936,-5000.0,0.0,0.0,0.0
1513266666471378026,,658904,,1513266664,663234221,'',0.471238898038,0.478308586148,0.00342639483488,0.00706968810934,0.001,35.3484405467,-5000.0,0.0,0.0,0.0
1513266666481396658,,658905,,1513266664,673234221,'',0.471238898038,0.479965544298,0.0344415666337,0.00872664625997,0.001,43.6332312999,-5000.0,0.0,0.0,0.0
1513266666491309627,,658906,,1513266664,683234221,'',0.471238898038,0.478308586148,0.00137730852499,0.00706968810934,0.001,35.3484405467,-5000.0,0.0,0.0,0.0
1513266666501286777,,658907,,1513266664,693234221,'',0.471238898038,0.478308586148,0.00114331752662,0.00706968810934,0.001,35.3484405467,-5000.0,0.0,0.0,0.0
1513266666511407652,,658908,,1513266664,703234221,'',0.471238898038,0.478308586148,0.000849406321923,0.00706968810934,0.001,35.3484405467,-5000.0,0.0,0.0,0.0
1513266666521291170,,658909,,1513266664,713234221,'',0.471238898038,0.478308586148,0.000611489800144,0.00706968810934,0.001,35.3484405467,-5000.0,0.0,0.0,0.0
1513266666531151180,,658910,,1513266664,723234221,'',0.471238898038,0.476651627997,-0.0299495718703,0.00541272995872,0.001,27.0636497936,-5000.0,0.0,0.0,0.0
1513266666541532858,,658911,,1513266664,733234221,'',0.471238898038,0.478308586148,0.00288493388667,0.00706968810934,0.001,35.3484405467,-5000.0,0.0,0.0,0.0
1513266666551420320,,658912,,1513266664,743234221,'',0.471238898038,0.476651627997,-0.0297839607833,0.00541272995872,0.001,27.0636497936,-5000.0,0.0,0.0,0.0
1513266666561543314,,658913,,1513266664,753234221,'',0.471238898038,0.478308586148,0.0054331357831,0.00706968810934,0.001,35.3484405467,-5000.0,0.0,0.0,0.0
1513266666571416142,,658914,,1513266664,763234221,'',0.471238898038,0.479965544298,0.0402969205647,0.00872664625997,0.001,43.6332312999,-5000.0,0.0,0.0,0.0
1513266666581168023,,658915,,1513266664,773234221,'',0.471238898038,0.479965544298,0.0383258592263,0.00872664625997,0.001,43.6332312999,-5000.0,0.0,0.0,0.0
1513266666591190357,,658916,,1513266664,783234221,'',0.471238898038,0.478308586148,0.0068800848334,0.00706968810934,0.001,35.3484405467,-5000.0,0.0,0.0,0.0
1513266666601172571,,658917,,1513266664,793234221,'',0.471238898038,0.478308586148,0.00570293904481,0.00706968810934,0.001,35.3484405467,-5000.0,0.0,0.0,0.0
1513266666611175842,,658918,,1513266664,803234221,'',0.471238898038,0.478308586148,0.00656896778817,0.00706968810934,0.001,35.3484405467,-5000.0,0.0,0.0,0.0
1513266666621545231,,658919,,1513266664,813234221,'',0.471238898038,0.478308586148,0.00482022146281,0.00706968810934,0.001,35.3484405467,-5000.0,0.0,0.0,0.0
1513266666631513017,,658920,,1513266664,823234221,'',0.471238898038,0.478308586148,0.00513909188948,0.00706968810934,0.001,35.3484405467,-5000.0,0.0,0.0,0.0
1513266666641473402,,658921,,1513266664,833234221,'',0.471238898038,0.478308586148,0.00482876224464,0.00706968810934,0.001,35.3484405467,-5000.0,0.0,0.0,0.0
1513266666651197767,,658922,,1513266664,843234221,'',0.471238898038,0.478308586148,0.00581211921964,0.00706968810934,0.001,35.3484405467,-5000.0,0.0,0.0,0.0
1513266666661189732,,658923,,1513266664,853234221,'',0.471238898038,0.478308586148,0.00545400499311,0.00706968810934,0.001,35.3484405467,-5000.0,0.0,0.0,0.0
1513266666671144056,,658924,,1513266664,863234221,'',0.471238898038,0.479965544298,0.037865426478,0.00872664625997,0.001,43.6332312999,-5000.0,0.0,0.0,0.0
1513266666681056584,,658925,,1513266664,873234221,'',0.471238898038,0.478308586148,0.00290943879602,0.00706968810934,0.001,35.3484405467,-5000.0,0.0,0.0,0.0
1513266666691514192,,658926,,1513266664,883234221,'',0.471238898038,0.478308586148,0.00124623843024,0.00706968810934,0.001,35.3484405467,-5000.0,0.0,0.0,0.0
1513266666701502448,,658927,,1513266664,893234221,'',0.471238898038,0.478308586148,0.00279872712857,0.00706968810934,0.001,35.3484405467,-5000.0,0.0,0.0,0.0
1513266666711402518,,658928,,1513266664,903234221,'',0.471238898038,0.476651627997,-0.0311074257951,0.00541272995872,0.001,27.0636497936,-5000.0,0.0,0.0,0.0
1513266666721444051,,658929,,1513266664,913234221,'',0.471238898038,0.478308586148,0.00436065900293,0.00706968810934,0.001,35.3484405467,-5000.0,0.0,0.0,0.0
1513266666731340354,,658930,,1513266664,923234221,'',0.471238898038,0.478308586148,0.00302711062704,0.00706968810934,0.001,35.3484405467,-5000.0,0.0,0.0,0.0
1513266666741307208,,658931,,1513266664,933234221,'',0.471238898038,0.478308586148,0.000709899433406,0.00706968810934,0.001,35.3484405467,-5000.0,0.0,0.0,0.0
1513266666751409863,,658932,,1513266664,943234221,'',0.471238898038,0.478308586148,-2.94355378267e-06,0.00706968810934,0.001,35.3484405467,-5000.0,0.0,0.0,0.0
1513266666761233250,,658933,,1513266664,953234221,'',0.471238898038,0.478308586148,0.000618564305601,0.00706968810934,0.001,35.3484405467,-5000.0,0.0,0.0,0.0
1513266666771094585,,658934,,1513266664,963234221,'',0.471238898038,0.478308586148,0.000438815463115,0.00706968810934,0.001,35.3484405467,-5000.0,0.0,0.0,0.0
1513266666781652965,,658935,,1513266664,973234221,'',0.471238898038,0.481622502449,0.0660223552827,0.0103836044106,0.001,51.918022053,-5000.0,0.0,0.0,0.0
1513266666791604876,,658936,,1513266664,983234221,'',0.471238898038,0.478308586148,0.000401153589906,0.00706968810934,0.001,35.3484405467,-5000.0,0.0,0.0,0.0
1513266666801569211,,658937,,1513266664,993234221,'',0.471238898038,0.476651627997,-0.0324284672294,0.00541272995872,0.001,27.0636497936,-5000.0,0.0,0.0,0.0
1513266666811532879,,658938,,1513266665,3234221,'',0.471238898038,0.476651627997,-0.0319790313536,0.00541272995872,0.001,27.0636497936,-5000.0,0.0,0.0,0.0
1513266666821432080,,658939,,1513266665,13234221,'',0.471238898038,0.476651627997,-0.0305216224264,0.00541272995872,0.001,27.0636497936,-5000.0,0.0,0.0,0.0
1513266666831319632,,658940,,1513266665,23234221,'',0.471238898038,0.478308586148,0.00305277330253,0.00706968810934,0.001,35.3484405467,-5000.0,0.0,0.0,0.0
1513266666841282706,,658941,,1513266665,33234221,'',0.471238898038,0.479965544298,0.0365656061275,0.00872664625997,0.001,43.6332312999,-5000.0,0.0,0.0,0.0
1513266666851323265,,658942,,1513266665,43234221,'',0.471238898038,0.478308586148,0.00195869401644,0.00706968810934,0.001,35.3484405467,-5000.0,0.0,0.0,0.0
1513266666861241047,,658943,,1513266665,53234221,'',0.471238898038,0.478308586148,0.00100695232467,0.00706968810934,0.001,35.3484405467,-5000.0,0.0,0.0,0.0
1513266666871252550,,658944,,1513266665,63234221,'',0.471238898038,0.478308586148,0.000773514163597,0.00706968810934,0.001,35.3484405467,-5000.0,0.0,0.0,0.0
1513266666881190141,,658945,,1513266665,73234221,'',0.471238898038,0.478308586148,0.0025052212114,0.00706968810934,0.001,35.3484405467,-5000.0,0.0,0.0,0.0
1513266666891269236,,658946,,1513266665,83234221,'',0.471238898038,0.478308586148,0.00142490182539,0.00706968810934,0.001,35.3484405467,-5000.0,0.0,0.0,0.0
1513266666901531163,,658947,,1513266665,93234221,'',0.471238898038,0.476651627997,-0.0309950247477,0.00541272995872,0.001,27.0636497936,-5000.0,0.0,0.0,0.0
1513266666911472145,,658948,,1513266665,103234221,'',0.471238898038,0.479965544298,0.0360916202258,0.00872664625997,0.001,43.6332312999,-5000.0,0.0,0.0,0.0
1513266666921480711,,658949,,1513266665,113234221,'',0.471238898038,0.478308586148,0.00266338216576,0.00706968810934,0.001,35.3484405467,-5000.0,0.0,0.0,0.0
1513266666931515355,,658950,,1513266665,123234221,'',0.471238898038,0.478308586148,0.00218142529772,0.00706968810934,0.001,35.3484405467,-5000.0,0.0,0.0,0.0
1513266666941476342,,658951,,1513266665,133234221,'',0.471238898038,0.479965544298,0.0371024291563,0.00872664625997,0.001,43.6332312999,-5000.0,0.0,0.0,0.0
1513266666951269355,,658952,,1513266665,143234221,'',0.471238898038,0.479965544298,0.0358239721406,0.00872664625997,0.001,43.6332312999,-5000.0,0.0,0.0,0.0
1513266666961220523,,658953,,1513266665,153234221,'',0.471238898038,0.479965544298,0.0370658874153,0.00872664625997,0.001,43.6332312999,-5000.0,0.0,0.0,0.0
1513266666971704016,,658954,,1513266665,163234221,'',0.471238898038,0.478308586148,0.00419606141573,0.00706968810934,0.001,35.3484405467,-5000.0,0.0,0.0,0.0
1513266666981566918,,658955,,1513266665,173234221,'',0.471238898038,0.478308586148,0.00274855376603,0.00706968810934,0.001,35.3484405467,-5000.0,0.0,0.0,0.0
1513266666991486963,,658956,,1513266665,183234221,'',0.471238898038,0.478308586148,0.00280658883183,0.00706968810934,0.001,35.3484405467,-5000.0,0.0,0.0,0.0
1513266667001382790,,658957,,1513266665,193234221,'',0.471238898038,0.478308586148,0.0016771102203,0.00706968810934,0.001,35.3484405467,-5000.0,0.0,0.0,0.0
1513266667011262423,,658958,,1513266665,203234221,'',0.471238898038,0.478308586148,0.00189391840858,0.00706968810934,0.001,35.3484405467,-5000.0,0.0,0.0,0.0
1513266667021372821,,658959,,1513266665,213234221,'',0.471238898038,0.478308586148,0.000924248891756,0.00706968810934,0.001,35.3484405467,-5000.0,0.0,0.0,0.0
1513266667031297062,,658960,,1513266665,223234221,'',0.471238898038,0.476651627997,-0.0307638173579,0.00541272995872,0.001,27.0636497936,-5000.0,0.0,0.0,0.0
1513266667041247586,,658961,,1513266665,233234221,'',0.471238898038,0.476651627997,-0.0287742427852,0.00541272995872,0.001,27.0636497936,-5000.0,0.0,0.0,0.0
1513266667051300734,,658962,,1513266665,243234221,'',0.471238898038,0.479965544298,0.0378521451072,0.00872664625997,0.001,43.6332312999,-5000.0,0.0,0.0,0.0
1513266667061693546,,658963,,1513266665,253234221,'',0.471238898038,0.478308586148,0.00362422339188,0.00706968810934,0.001,35.3484405467,-5000.0,0.0,0.0,0.0
1513266667071666988,,658964,,1513266665,263234221,'',0.471238898038,0.478308586148,0.00415244878166,0.00706968810934,0.001,35.3484405467,-5000.0,0.0,0.0,0.0
1513266667081584270,,658965,,1513266665,273234221,'',0.471238898038,0.478308586148,0.00336842139372,0.00706968810934,0.001,35.3484405467,-5000.0,0.0,0.0,0.0
1513266667091481641,,658966,,1513266665,283234221,'',0.471238898038,0.478308586148,0.00275772551771,0.00706968810934,0.001,35.3484405467,-5000.0,0.0,0.0,0.0
1513266667101477699,,658967,,1513266665,293234221,'',0.471238898038,0.476651627997,-0.0281775365719,0.00541272995872,0.001,27.0636497936,-5000.0,0.0,0.0,0.0
1513266667111456297,,658968,,1513266665,303234221,'',0.471238898038,0.478308586148,0.00617112852218,0.00706968810934,0.001,35.3484405467,-5000.0,0.0,0.0,0.0
1513266667121299632,,658969,,1513266665,313234221,'',0.471238898038,0.478308586148,0.00860867248594,0.00706968810934,0.001,35.3484405467,-5000.0,0.0,0.0,0.0
1513266667131357503,,658970,,1513266665,323234221,'',0.471238898038,0.478308586148,0.00950582131077,0.00706968810934,0.001,35.3484405467,-5000.0,0.0,0.0,0.0
1513266667141251242,,658971,,1513266665,333234221,'',0.471238898038,0.478308586148,0.0120278433478,0.00706968810934,0.001,35.3484405467,-5000.0,0.0,0.0,0.0
1513266667151346114,,658972,,1513266665,343234221,'',0.471238898038,0.478308586148,0.0117092499125,0.00706968810934,0.001,35.3484405467,-5000.0,0.0,0.0,0.0
1513266667161248552,,658973,,1513266665,353234221,'',0.471238898038,0.476651627997,-0.0213340982619,0.00541272995872,0.001,27.0636497936,-5000.0,0.0,0.0,0.0
1513266667171209445,,658974,,1513266665,363234221,'',0.471238898038,0.478308586148,0.0128696382788,0.00706968810934,0.001,35.3484405467,-5000.0,0.0,0.0,0.0
1513266667181180838,,658975,,1513266665,373234221,'',0.471238898038,0.476651627997,-0.0215854161402,0.00541272995872,0.001,27.0636497936,-5000.0,0.0,0.0,0.0
1513266667191149749,,658976,,1513266665,383234221,'',0.471238898038,0.478308586148,0.0108862619353,0.00706968810934,0.001,35.3484405467,-5000.0,0.0,0.0,0.0
1513266667201587882,,658977,,1513266665,393234221,'',0.471238898038,0.478308586148,0.0113168342566,0.00706968810934,0.001,35.3484405467,-5000.0,0.0,0.0,0.0
1513266667211506569,,658978,,1513266665,403234221,'',0.471238898038,0.478308586148,0.0110415567735,0.00706968810934,0.001,35.3484405467,-5000.0,0.0,0.0,0.0
1513266667221498898,,658979,,1513266665,413234221,'',0.471238898038,0.478308586148,0.0113851238109,0.00706968810934,0.001,35.3484405467,-5000.0,0.0,0.0,0.0
1513266667231469093,,658980,,1513266665,423234221,'',0.471238898038,0.476651627997,-0.0216235965553,0.00541272995872,0.001,27.0636497936,-5000.0,0.0,0.0,0.0
1513266667241441844,,658981,,1513266665,433234221,'',0.471238898038,0.478308586148,0.0116154278363,0.00706968810934,0.001,35.3484405467,-5000.0,0.0,0.0,0.0
1513266667251457837,,658982,,1513266665,443234221,'',0.471238898038,0.478308586148,0.0107852051556,0.00706968810934,0.001,35.3484405467,-5000.0,0.0,0.0,0.0
1513266667261305365,,658983,,1513266665,453234221,'',0.471238898038,0.476651627997,-0.0222659513199,0.00541272995872,0.001,27.0636497936,-5000.0,0.0,0.0,0.0
1513266667271247711,,658984,,1513266665,463234221,'',0.471238898038,0.478308586148,0.0110652490416,0.00706968810934,0.001,35.3484405467,-5000.0,0.0,0.0,0.0
1513266667281215573,,658985,,1513266665,473234221,'',0.471238898038,0.478308586148,0.0115053277749,0.00706968810934,0.001,35.3484405467,-5000.0,0.0,0.0,0.0
1513266667291253951,,658986,,1513266665,483234221,'',0.471238898038,0.476651627997,-0.0209858794038,0.00541272995872,0.001,27.0636497936,-5000.0,0.0,0.0,0.0
1513266667301602098,,658987,,1513266665,493234221,'',0.471238898038,0.476651627997,-0.0207995500698,0.00541272995872,0.001,27.0636497936,-5000.0,0.0,0.0,0.0
1513266667311549076,,658988,,1513266665,503234221,'',0.471238898038,0.476651627997,-0.0200788016481,0.00541272995872,0.001,27.0636497936,-5000.0,0.0,0.0,0.0
1513266667321386023,,658989,,1513266665,513234221,'',0.471238898038,0.476651627997,-0.0200299091691,0.00541272995872,0.001,27.0636497936,-5000.0,0.0,0.0,0.0
1513266667331335001,,658990,,1513266665,523234221,'',0.471238898038,0.476651627997,-0.0200095076673,0.00541272995872,0.001,27.0636497936,-5000.0,0.0,0.0,0.0
1513266667341318203,,658991,,1513266665,533234221,'',0.471238898038,0.478308586148,0.0121470629608,0.00706968810934,0.001,35.3484405467,-5000.0,0.0,0.0,0.0
1513266667351613344,,658992,,1513266665,543234221,'',0.471238898038,0.476651627997,-0.0198749018772,0.00541272995872,0.001,27.0636497936,-5000.0,0.0,0.0,0.0
1513266667361586453,,658993,,1513266665,553234221,'',0.471238898038,0.478308586148,0.0153142981383,0.00706968810934,0.001,35.3484405467,-5000.0,0.0,0.0,0.0
1513266667371691232,,658994,,1513266665,563234221,'',0.471238898038,0.479965544298,0.0495831394918,0.00872664625997,0.001,43.6332312999,-5000.0,0.0,0.0,0.0
1513266667381641533,,658995,,1513266665,573234221,'',0.471238898038,0.476651627997,-0.0166912238791,0.00541272995872,0.001,27.0636497936,-5000.0,0.0,0.0,0.0
1513266667391572573,,658996,,1513266665,583234221,'',0.471238898038,0.476651627997,-0.0154920117098,0.00541272995872,0.001,27.0636497936,-5000.0,0.0,0.0,0.0
1513266667401381842,,658997,,1513266665,593234221,'',0.471238898038,0.476651627997,-0.0156440822535,0.00541272995872,0.001,27.0636497936,-5000.0,0.0,0.0,0.0
1513266667411484039,,658998,,1513266665,603234221,'',0.471238898038,0.476651627997,-0.0152237224908,0.00541272995872,0.001,27.0636497936,-5000.0,0.0,0.0,0.0
1513266667421393895,,658999,,1513266665,613234221,'',0.471238898038,0.476651627997,-0.014278140778,0.00541272995872,0.001,27.0636497936,-5000.0,0.0,0.0,0.0
1513266667431328461,,659000,,1513266665,623234221,'',0.471238898038,0.476651627997,-0.0140846437823,0.00541272995872,0.001,27.0636497936,-5000.0,0.0,0.0,0.0
1513266667441147203,,659001,,1513266665,633234221,'',0.471238898038,0.478308586148,0.0189111758563,0.00706968810934,0.001,35.3484405467,-5000.0,0.0,0.0,0.0
1513266667451590029,,659002,,1513266665,643234221,'',0.471238898038,0.478308586148,0.0184366742532,0.00706968810934,0.001,35.3484405467,-5000.0,0.0,0.0,0.0
1513266667461558910,,659003,,1513266665,653234221,'',0.471238898038,0.476651627997,-0.0129075195219,0.00541272995872,0.001,27.0636497936,-5000.0,0.0,0.0,0.0
1513266667471478505,,659004,,1513266665,663234221,'',0.471238898038,0.478308586148,0.0187058581754,0.00706968810934,0.001,35.3484405467,-5000.0,0.0,0.0,0.0
1513266667481361870,,659005,,1513266665,673234221,'',0.471238898038,0.476651627997,-0.0151299333782,0.00541272995872,0.001,27.0636497936,-5000.0,0.0,0.0,0.0
1513266667491283337,,659006,,1513266665,683234221,'',0.471238898038,0.478308586148,0.0161541937791,0.00706968810934,0.001,35.3484405467,-5000.0,0.0,0.0,0.0
1513266667501434613,,659007,,1513266665,693234221,'',0.471238898038,0.478308586148,0.0150331751792,0.00706968810934,0.001,35.3484405467,-5000.0,0.0,0.0,0.0
1513266667511769876,,659008,,1513266665,703234221,'',0.471238898038,0.476651627997,-0.0181144541107,0.00541272995872,0.001,27.0636497936,-5000.0,0.0,0.0,0.0
1513266667521497043,,659009,,1513266665,713234221,'',0.471238898038,0.474994669847,-0.0524204298776,0.00375577180809,0.001,18.7788590404,-5000.0,0.0,0.0,0.0
1513266667531422774,,659010,,1513266665,723234221,'',0.471238898038,0.476651627997,-0.0190553175863,0.00541272995872,0.001,27.0636497936,-5000.0,0.0,0.0,0.0
1513266667541563080,,659011,,1513266665,733234221,'',0.471238898038,0.478308586148,0.0130519467522,0.00706968810934,0.001,35.3484405467,-5000.0,0.0,0.0,0.0
1513266667551578685,,659012,,1513266665,743234221,'',0.471238898038,0.476651627997,-0.0196353819323,0.00541272995872,0.001,27.0636497936,-5000.0,0.0,0.0,0.0
1513266667561492275,,659013,,1513266665,753234221,'',0.471238898038,0.478308586148,0.014907292318,0.00706968810934,0.001,35.3484405467,-5000.0,0.0,0.0,0.0
1513266667571483664,,659014,,1513266665,763234221,'',0.471238898038,0.478308586148,0.0163506791682,0.00706968810934,0.001,35.3484405467,-5000.0,0.0,0.0,0.0
1513266667581407554,,659015,,1513266665,773234221,'',0.471238898038,0.476651627997,-0.0158293867939,0.00541272995872,0.001,27.0636497936,-5000.0,0.0,0.0,0.0
1513266667591418039,,659016,,1513266665,783234221,'',0.471238898038,0.478308586148,0.0163015496001,0.00706968810934,0.001,35.3484405467,-5000.0,0.0,0.0,0.0
1513266667601335995,,659017,,1513266665,793234221,'',0.471238898038,0.476651627997,-0.0164993813688,0.00541272995872,0.001,27.0636497936,-5000.0,0.0,0.0,0.0
1513266667611346591,,659018,,1513266665,803234221,'',0.471238898038,0.478308586148,0.0175150320025,0.00706968810934,0.001,35.3484405467,-5000.0,0.0,0.0,0.0
1513266667621851158,,659019,,1513266665,813234221,'',0.471238898038,0.478308586148,0.0178877952819,0.00706968810934,0.001,35.3484405467,-5000.0,0.0,0.0,0.0
1513266667631626560,,659020,,1513266665,823234221,'',0.471238898038,0.476651627997,-0.0152393229886,0.00541272995872,0.001,27.0636497936,-5000.0,0.0,0.0,0.0
1513266667641635521,,659021,,1513266665,833234221,'',0.471238898038,0.478308586148,0.0173863489256,0.00706968810934,0.001,35.3484405467,-5000.0,0.0,0.0,0.0
1513266667651457210,,659022,,1513266665,843234221,'',0.471238898038,0.479965544298,0.0500003664029,0.00872664625997,0.001,43.6332312999,-5000.0,0.0,0.0,0.0
1513266667661529151,,659023,,1513266665,853234221,'',0.471238898038,0.478308586148,0.0172410108153,0.00706968810934,0.001,35.3484405467,-5000.0,0.0,0.0,0.0
1513266667671225540,,659024,,1513266665,863234221,'',0.471238898038,0.478308586148,0.0177998661989,0.00706968810934,0.001,35.3484405467,-5000.0,0.0,0.0,0.0
1513266667681700887,,659025,,1513266665,873234221,'',0.471238898038,0.476651627997,-0.0152576075739,0.00541272995872,0.001,27.0636497936,-5000.0,0.0,0.0,0.0
1513266667691672628,,659026,,1513266665,883234221,'',0.471238898038,0.476651627997,-0.0143741716297,0.00541272995872,0.001,27.0636497936,-5000.0,0.0,0.0,0.0
1513266667701684060,,659027,,1513266665,893234221,'',0.471238898038,0.476651627997,-0.0154056448775,0.00541272995872,0.001,27.0636497936,-5000.0,0.0,0.0,0.0
1513266667711506015,,659028,,1513266665,903234221,'',0.471238898038,0.478308586148,0.0165665307852,0.00706968810934,0.001,35.3484405467,-5000.0,0.0,0.0,0.0
1513266667721401650,,659029,,1513266665,913234221,'',0.471238898038,0.478308586148,0.0165042412688,0.00706968810934,0.001,35.3484405467,-5000.0,0.0,0.0,0.0
1513266667731546197,,659030,,1513266665,923234221,'',0.471238898038,0.478308586148,0.0165529693733,0.00706968810934,0.001,35.3484405467,-5000.0,0.0,0.0,0.0
1513266667741392351,,659031,,1513266665,933234221,'',0.471238898038,0.476651627997,-0.0162951300219,0.00541272995872,0.001,27.0636497936,-5000.0,0.0,0.0,0.0
1513266667751439298,,659032,,1513266665,943234221,'',0.471238898038,0.478308586148,0.0171732539725,0.00706968810934,0.001,35.3484405467,-5000.0,0.0,0.0,0.0
1513266667761356456,,659033,,1513266665,953234221,'',0.471238898038,0.478308586148,0.0188097670851,0.00706968810934,0.001,35.3484405467,-5000.0,0.0,0.0,0.0
1513266667771200987,,659034,,1513266665,963234221,'',0.471238898038,0.478308586148,0.0171364608865,0.00706968810934,0.001,35.3484405467,-5000.0,0.0,0.0,0.0
1513266667781166536,,659035,,1513266665,973234221,'',0.471238898038,0.478308586148,0.016463850394,0.00706968810934,0.001,35.3484405467,-5000.0,0.0,0.0,0.0
1513266667791222645,,659036,,1513266665,983234221,'',0.471238898038,0.476651627997,-0.0157425081202,0.00541272995872,0.001,27.0636497936,-5000.0,0.0,0.0,0.0
1513266667801397061,,659037,,1513266665,993234221,'',0.471238898038,0.476651627997,-0.0140955331396,0.00541272995872,0.001,27.0636497936,-5000.0,0.0,0.0,0.0
1513266667811643052,,659038,,1513266666,3234221,'',0.471238898038,0.476651627997,-0.012762655875,0.00541272995872,0.001,27.0636497936,-5000.0,0.0,0.0,0.0
1513266667821674260,,659039,,1513266666,13234221,'',0.471238898038,0.476651627997,-0.0115775871147,0.00541272995872,0.001,27.0636497936,-5000.0,0.0,0.0,0.0
1513266667831743281,,659040,,1513266666,23234221,'',0.471238898038,0.476651627997,-0.0112663205043,0.00541272995872,0.001,27.0636497936,-5000.0,0.0,0.0,0.0
1513266667841494882,,659041,,1513266666,33234221,'',0.471238898038,0.478308586148,0.0200740287033,0.00706968810934,0.001,35.3484405467,-5000.0,0.0,0.0,0.0
1513266667851518837,,659042,,1513266666,43234221,'',0.471238898038,0.478308586148,0.0199752336153,0.00706968810934,0.001,35.3484405467,-5000.0,0.0,0.0,0.0
1513266667861531756,,659043,,1513266666,53234221,'',0.471238898038,0.478308586148,0.0200211246693,0.00706968810934,0.001,35.3484405467,-5000.0,0.0,0.0,0.0
1513266667871471814,,659044,,1513266666,63234221,'',0.471238898038,0.476651627997,-0.0115930288299,0.00541272995872,0.001,27.0636497936,-5000.0,0.0,0.0,0.0
1513266667881707737,,659045,,1513266666,73234221,'',0.471238898038,0.476651627997,-0.00884570896974,0.00541272995872,0.001,27.0636497936,-5000.0,0.0,0.0,0.0
1513266667891558965,,659046,,1513266666,83234221,'',0.471238898038,0.476651627997,-0.0096590599685,0.00541272995872,0.001,27.0636497936,-5000.0,0.0,0.0,0.0
1513266667901633717,,659047,,1513266666,93234221,'',0.471238898038,0.476651627997,-0.00980107507918,0.00541272995872,0.001,27.0636497936,-5000.0,0.0,0.0,0.0
1513266667911488294,,659048,,1513266666,103234221,'',0.471238898038,0.474994669847,-0.0420615240851,0.00375577180809,0.001,18.7788590404,-5000.0,0.0,0.0,0.0
1513266667921368595,,659049,,1513266666,113234221,'',0.471238898038,0.478308586148,0.0221267475011,0.00706968810934,0.001,35.3484405467,-5000.0,0.0,0.0,0.0
1513266667931362783,,659050,,1513266666,123234221,'',0.471238898038,0.478308586148,0.0223365287466,0.00706968810934,0.001,35.3484405467,-5000.0,0.0,0.0,0.0
1513266667941634850,,659051,,1513266666,133234221,'',0.471238898038,0.478308586148,0.0219264520615,0.00706968810934,0.001,35.3484405467,-5000.0,0.0,0.0,0.0
1513266667951648991,,659052,,1513266666,143234221,'',0.471238898038,0.478308586148,0.0209871601064,0.00706968810934,0.001,35.3484405467,-5000.0,0.0,0.0,0.0
1513266667961833159,,659053,,1513266666,153234221,'',0.471238898038,0.479965544298,0.0536564444172,0.00872664625997,0.001,43.6332312999,-5000.0,0.0,0.0,0.0
1513266667971646214,,659054,,1513266666,163234221,'',0.471238898038,0.476651627997,-0.0120959541016,0.00541272995872,0.001,27.0636497936,-5000.0,0.0,0.0,0.0
1513266667981566275,,659055,,1513266666,173234221,'',0.471238898038,0.476651627997,-0.0122533755118,0.00541272995872,0.001,27.0636497936,-5000.0,0.0,0.0,0.0
1513266667991623928,,659056,,1513266666,183234221,'',0.471238898038,0.476651627997,-0.0112663935991,0.00541272995872,0.001,27.0636497936,-5000.0,0.0,0.0,0.0
1513266668001816041,,659057,,1513266666,193234221,'',0.471238898038,0.476651627997,-0.0122357711234,0.00541272995872,0.001,27.0636497936,-5000.0,0.0,0.0,0.0
1513266668011858238,,659058,,1513266666,203234221,'',0.471238898038,0.478308586148,0.0203243964295,0.00706968810934,0.001,35.3484405467,-5000.0,0.0,0.0,0.0
1513266668021599322,,659059,,1513266666,213234221,'',0.471238898038,0.476651627997,-0.010143284281,0.00541272995872,0.001,27.0636497936,-5000.0,0.0,0.0,0.0
1513266668031842864,,659060,,1513266666,223234221,'',0.471238898038,0.476651627997,-0.00948884052988,0.00541272995872,0.001,27.0636497936,-5000.0,0.0,0.0,0.0
1513266668041653313,,659061,,1513266666,233234221,'',0.471238898038,0.478308586148,0.0232752014987,0.00706968810934,0.001,35.3484405467,-5000.0,0.0,0.0,0.0
1513266668051922278,,659062,,1513266666,243234221,'',0.471238898038,0.476651627997,-0.0101968016527,0.00541272995872,0.001,27.0636497936,-5000.0,0.0,0.0,0.0
1513266668061681230,,659063,,1513266666,253234221,'',0.471238898038,0.476651627997,-0.0107569347609,0.00541272995872,0.001,27.0636497936,-5000.0,0.0,0.0,0.0
1513266668071733941,,659064,,1513266666,263234221,'',0.471238898038,0.476651627997,-0.0107342218431,0.00541272995872,0.001,27.0636497936,-5000.0,0.0,0.0,0.0
