rosbagTimestamp,header,seq,stamp,secs,nsecs,frame_id,set_point,process_value,process_value_dot,error,time_step,command,p,i,d,i_clamp
1513266665231334733,,658774,,1513266663,423234221,'',1.02974425868,1.05025245719,0.00893160583254,0.0205081985104,0.001,-151.263965693,7200.0,0.0,410.0,0.0
1513266665241283309,,658775,,1513266663,433234221,'',1.02974425868,1.05030760506,0.00781568301178,0.0205633463844,0.001,-151.280404503,7200.0,0.0,410.0,0.0
1513266665251608467,,658776,,1513266663,443234221,'',1.02974425868,1.05035137456,0.00693288736139,0.0206071158813,0.001,-151.227701839,7200.0,0.0,410.0,0.0
1513266665261598075,,658777,,1513266663,453234221,'',1.02974425868,1.05033496222,0.00726666091421,0.0205907035457,0.001,-151.248887212,7200.0,0.0,410.0,0.0
1513266665271528336,,658778,,1513266663,463234221,'',1.02974425868,1.05029531337,0.00806706076241,0.0205510546905,0.001,-151.290257787,7200.0,0.0,410.0,0.0
1513266665281497437,,658779,,1513266663,473234221,'',1.02974425868,1.05031615725,0.00766062738471,0.0205718985695,0.001,-151.292685322,7200.0,0.0,410.0,0.0
1513266665291283520,,658780,,1513266663,483234221,'',1.02974425868,1.05030309104,-0.0223584417923,0.0205588323627,0.001,-139.011639344,7200.0,0.0,410.0,0.0
1513266665301140754,,658781,,1513266663,493234221,'',1.02974425868,1.05031685909,0.00764888202132,0.0205726004128,0.001,-151.266215967,7200.0,0.0,410.0,0.0
1513266665311573714,,658782,,1513266663,503234221,'',1.02974425868,1.05036006845,0.00677942201054,0.0206158097761,0.001,-151.215329466,7200.0,0.0,410.0,0.0
1513266665321552644,,658783,,1513266663,513234221,'',1.02974425868,1.05036572698,0.00666331251398,0.0206214683067,0.001,-151.214312849,7200.0,0.0,410.0,0.0
1513266665331483114,,658784,,1513266663,523234221,'',1.02974425868,1.05036760717,-0.0236578246196,0.0206233484925,0.001,-138.509274318,7200.0,0.0,410.0,0.0
1513266665341584841,,658785,,1513266663,533234221,'',1.02974425868,1.05031659542,-0.0226212290581,0.020572336741,0.001,-138.981066019,7200.0,0.0,410.0,0.0
1513266665351472981,,658786,,1513266663,543234221,'',1.02974425868,1.05025032613,-0.0212587480183,0.0205060674545,0.001,-139.088583934,7200.0,0.0,410.0,0.0
1513266665361277957,,658787,,1513266663,553234221,'',1.02974425868,1.05025277809,0.00897359649068,0.0205085194107,0.001,-151.337720831,7200.0,0.0,410.0,0.0
1513266665371172996,,658788,,1513266663,563234221,'',1.02974425868,1.05019532349,-0.0201509509792,0.0204510648132,0.001,-138.937605886,7200.0,0.0,410.0,0.0
1513266665381279845,,658789,,1513266663,573234221,'',1.02974425868,1.05023201515,0.00937830284124,0.020487756469,0.001,-151.368275345,7200.0,0.0,410.0,0.0
1513266665391159019,,658790,,1513266663,583234221,'',1.02974425868,1.05023306145,-0.020933499956,0.0204888027726,0.001,-138.878947048,7200.0,0.0,410.0,0.0
1513266665401117307,,658791,,1513266663,593234221,'',1.02974425868,1.05023290697,-0.0209263011624,0.0204886482954,0.001,-139.069367671,7200.0,0.0,410.0,0.0
1513266665411580642,,658792,,1513266663,603234221,'',1.02974425868,1.05023684009,0.00927228350558,0.0204925814161,0.001,-151.355505262,7200.0,0.0,410.0,0.0
1513266665421423310,,658793,,1513266663,613234221,'',1.02974425868,1.0502357984,-0.0209929003362,0.0204915397259,0.001,-138.873775224,7200.0,0.0,410.0,0.0
1513266665431390674,,658794,,1513266663,623234221,'',1.02974425868,1.05026565979,0.00869477772248,0.0205214011126,0.001,-151.323346769,7200.0,0.0,410.0,0.0
1513266665441346258,,658795,,1513266663,633234221,'',1.02974425868,1.05026137926,-0.0214974058753,0.0205171205789,0.001,-138.863897479,7200.0,0.0,410.0,0.0
1513266665451585845,,658796,,1513266663,643234221,'',1.02974425868,1.05031023302,-0.022487101783,0.0205659743447,0.001,-138.827163644,7200.0,0.0,410.0,0.0
1513266665461128308,,658797,,1513266663,653234221,'',1.02974425868,1.05037984791,0.00638421180882,0.0206355892319,0.001,-151.13750413,7200.0,0.0,410.0,0.0
1513266665471362670,,658798,,1513266663,663234221,'',1.02974425868,1.05040834523,0.00581042924074,0.0206640865494,0.001,-151.161844953,7200.0,0.0,410.0,0.0
1513266665481295476,,658799,,1513266663,673234221,'',1.02974425868,1.05043053884,-0.0249216498677,0.0206862801655,0.001,-138.684990361,7200.0,0.0,410.0,0.0
1513266665491320507,,658800,,1513266663,683234221,'',1.02974425868,1.05045255404,0.00491129530942,0.0207082953603,0.001,-151.112867225,7200.0,0.0,410.0,0.0
1513266665501173561,,658801,,1513266663,693234221,'',1.02974425868,1.05044467879,0.00506025934259,0.0207004201101,0.001,-151.136065326,7200.0,0.0,410.0,0.0
1513266665511207021,,658802,,1513266663,703234221,'',1.02974425868,1.05048994498,0.00414472957776,0.0207456862996,0.001,-151.074712937,7200.0,0.0,410.0,0.0
1513266665521115198,,658803,,1513266663,713234221,'',1.02974425868,1.05047362431,0.00446852499497,0.0207293656331,0.001,-151.093495919,7200.0,0.0,410.0,0.0
1513266665531327288,,658804,,1513266663,723234221,'',1.02974425868,1.05047636091,0.00430900400995,0.020732102229,0.001,-151.088235669,7200.0,0.0,410.0,0.0
1513266665541455940,,658805,,1513266663,733234221,'',1.02974425868,1.05041179018,0.00564394478714,0.0206675315049,0.001,-151.172145396,7200.0,0.0,410.0,0.0
1513266665551447710,,658806,,1513266663,743234221,'',1.02974425868,1.05043573619,0.00518645711092,0.0206914775094,0.001,-151.137702035,7200.0,0.0,410.0,0.0
1513266665561359133,,658807,,1513266663,753234221,'',1.02974425868,1.05045685923,0.00477517943568,0.020712600549,0.001,-151.068226603,7200.0,0.0,410.0,0.0
1513266665571520287,,658808,,1513266663,763234221,'',1.02974425868,1.05047254291,0.00445986671591,0.0207282842339,0.001,-151.094269901,7200.0,0.0,410.0,0.0
1513266665581573303,,658809,,1513266663,773234221,'',1.02974425868,1.05045860805,0.00473975966213,0.0207143493747,0.001,-151.109930314,7200.0,0.0,410.0,0.0
1513266665591356901,,658810,,1513266663,783234221,'',1.02974425868,1.05044537263,0.00502038708026,0.0207011139534,0.001,-151.120823308,7200.0,0.0,410.0,0.0
1513266665601277323,,658811,,1513266663,793234221,'',1.02974425868,1.05037715331,-0.0238783256518,0.0206328946359,0.001,-138.734710856,7200.0,0.0,410.0,0.0
1513266665611470526,,658812,,1513266663,803234221,'',1.02974425868,1.05035225796,-0.0233800586422,0.0206079992872,0.001,-138.78094066,7200.0,0.0,410.0,0.0
1513266665621449183,,658813,,1513266663,813234221,'',1.02974425868,1.05038518147,0.00623946753311,0.0206409227907,0.001,-151.187507446,7200.0,0.0,410.0,0.0
1513266665631447813,,658814,,1513266663,823234221,'',1.02974425868,1.05041263257,0.0056943695927,0.0206683738926,0.001,-151.161598943,7200.0,0.0,410.0,0.0
1513266665641367354,,658815,,1513266663,833234221,'',1.02974425868,1.05032761009,-0.022868856501,0.0205833514094,0.001,-138.76064965,7200.0,0.0,410.0,0.0
1513266665651394984,,658816,,1513266663,843234221,'',1.02974425868,1.05034035938,0.00716299241022,0.0205961007057,0.001,-151.239993136,7200.0,0.0,410.0,0.0
1513266665661401467,,658817,,1513266663,853234221,'',1.02974425868,1.05035104094,0.00695100427317,0.0206067822666,0.001,-151.233560874,7200.0,0.0,410.0,0.0
1513266665671179044,,658818,,1513266663,863234221,'',1.02974425868,1.05035494253,-0.0234083721609,0.020610683858,0.001,-138.759494779,7200.0,0.0,410.0,0.0
1513266665681119397,,658819,,1513266663,873234221,'',1.02974425868,1.05038781114,0.00621508196691,0.020643552465,0.001,-151.076843431,7200.0,0.0,410.0,0.0
1513266665691496377,,658820,,1513266663,883234221,'',1.02974425868,1.05044436871,0.00506221460935,0.0207001100351,0.001,-151.121935522,7200.0,0.0,410.0,0.0
1513266665701544661,,658821,,1513266663,893234221,'',1.02974425868,1.05038069919,0.00635260587689,0.0206364405155,0.001,-151.192473236,7200.0,0.0,410.0,0.0
1513266665711356100,,658822,,1513266663,903234221,'',1.02974425868,1.05035783883,0.00682463238114,0.020613580151,0.001,-151.220488675,7200.0,0.0,410.0,0.0
1513266665721377304,,658823,,1513266663,913234221,'',1.02974425868,1.05041925799,0.00559520564428,0.0206749993109,0.001,-151.161300359,7200.0,0.0,410.0,0.0
1513266665731332566,,658824,,1513266663,923234221,'',1.02974425868,1.05044052676,0.00516066722897,0.0206962680823,0.001,-151.08814915,7200.0,0.0,410.0,0.0
1513266665741260153,,658825,,1513266663,933234221,'',1.02974425868,1.05040616055,-0.0244283732751,0.0206619018692,0.001,-138.692687607,7200.0,0.0,410.0,0.0
1513266665751129541,,658826,,1513266663,943234221,'',1.02974425868,1.05040171373,0.00593905962136,0.0206574550577,0.001,-151.176208952,7200.0,0.0,410.0,0.0
1513266665761637084,,658827,,1513266663,953234221,'',1.02974425868,1.05045489304,0.00486170343254,0.0207106343651,0.001,-151.114584045,7200.0,0.0,410.0,0.0
1513266665771542757,,658828,,1513266663,963234221,'',1.02974425868,1.05041473591,0.0056658229628,0.0206704772377,0.001,-151.107837501,7200.0,0.0,410.0,0.0
1513266665781513281,,658829,,1513266663,973234221,'',1.02974425868,1.05043570753,-0.0250393969525,0.0206914488508,0.001,-138.657008981,7200.0,0.0,410.0,0.0
1513266665791439836,,658830,,1513266663,983234221,'',1.02974425868,1.05048271119,0.00429162851765,0.0207384525177,0.001,-151.08326568,7200.0,0.0,410.0,0.0
1513266665801302329,,658831,,1513266663,993234221,'',1.02974425868,1.05043581471,0.00524423360933,0.0206915560359,0.001,-151.139680202,7200.0,0.0,410.0,0.0
1513266665811185554,,658832,,1513266664,3234221,'',1.02974425868,1.0504009672,0.00592735427266,0.0206567085186,0.001,-151.064541849,7200.0,0.0,410.0,0.0
1513266665821536718,,658833,,1513266664,13234221,'',1.02974425868,1.0504542521,0.00485272304727,0.02070999342,0.001,-151.114825667,7200.0,0.0,410.0,0.0
1513266665831449712,,658834,,1513266664,23234221,'',1.02974425868,1.05044334758,0.00507341018925,0.0206990889063,0.001,-151.129589118,7200.0,0.0,410.0,0.0
1513266665841420481,,658835,,1513266664,33234221,'',1.02974425868,1.05046030369,0.00473229988257,0.0207160450104,0.001,-151.108024708,7200.0,0.0,410.0,0.0
1513266665851279633,,658836,,1513266664,43234221,'',1.02974425868,1.05042090708,0.00553681649247,0.0206766484057,0.001,-151.15284628,7200.0,0.0,410.0,0.0
1513266665861329844,,658837,,1513266664,53234221,'',1.02974425868,1.05047060789,0.00453236310046,0.0207263492131,0.001,-151.10226018,7200.0,0.0,410.0,0.0
1513266665871270462,,658838,,1513266664,63234221,'',1.02974425868,1.05037795078,0.00640849020131,0.0206336921043,0.001,-151.205632824,7200.0,0.0,410.0,0.0
1513266665881216576,,658839,,1513266664,73234221,'',1.02974425868,1.05040905344,0.00577823832962,0.0206647947658,0.001,-151.227781323,7200.0,0.0,410.0,0.0
1513266665891271531,,658840,,1513266664,83234221,'',1.02974425868,1.05043158821,0.00532401940192,0.0206873295321,0.001,-151.151325292,7200.0,0.0,410.0,0.0
1513266665901226933,,658841,,1513266664,93234221,'',1.02974425868,1.05040025405,0.00594892629451,0.0206559953688,0.001,-151.124392755,7200.0,0.0,410.0,0.0
1513266665911322486,,658842,,1513266664,103234221,'',1.02974425868,1.05042727108,0.00541016978307,0.0206830124046,0.001,-151.14301261,7200.0,0.0,410.0,0.0
1513266665921558867,,658843,,1513266664,113234221,'',1.02974425868,1.05034041235,0.00716012645493,0.0205961536754,0.001,-151.225087059,7200.0,0.0,410.0,0.0
1513266665931522325,,658844,,1513266664,123234221,'',1.02974425868,1.050297398,0.00803795114031,0.0205531393208,0.001,-151.274454016,7200.0,0.0,410.0,0.0
1513266665941460071,,658845,,1513266664,133234221,'',1.02974425868,1.05023576929,0.0092967054858,0.0204915106099,0.001,-151.360363214,7200.0,0.0,410.0,0.0
1513266665951336202,,658846,,1513266664,143234221,'',1.02974425868,1.05020542437,-0.0203740663424,0.0204611656982,0.001,-139.103480752,7200.0,0.0,410.0,0.0
1513266665961275777,,658847,,1513266664,153234221,'',1.02974425868,1.05026893601,0.00862369019716,0.0205246773378,0.001,-151.241544304,7200.0,0.0,410.0,0.0
1513266665971248101,,658848,,1513266664,163234221,'',1.02974425868,1.05028830243,-0.0220458305829,0.020544043749,0.001,-138.825140103,7200.0,0.0,410.0,0.0
1513266665981661764,,658849,,1513266664,173234221,'',1.02974425868,1.05033447594,0.00729274689224,0.020590217266,0.001,-151.246558179,7200.0,0.0,410.0,0.0
1513266665991412546,,658850,,1513266664,183234221,'',1.02974425868,1.05039971582,0.0059725912529,0.0206554571436,0.001,-151.124315736,7200.0,0.0,410.0,0.0
1513266666001331487,,658851,,1513266664,193234221,'',1.02974425868,1.05039903322,0.00597457365515,0.0206547745474,0.001,-151.174521858,7200.0,0.0,410.0,0.0
1513266666011310632,,658852,,1513266664,203234221,'',1.02974425868,1.05031652769,-0.0226383140817,0.0205722690183,0.001,-138.802360025,7200.0,0.0,410.0,0.0
1513266666021296960,,658853,,1513266664,213234221,'',1.02974425868,1.05035766862,0.00681837227607,0.0206134099463,0.001,-151.226732247,7200.0,0.0,410.0,0.0
1513266666031065590,,658854,,1513266664,223234221,'',1.02974425868,1.05036424645,0.00667848620979,0.020619987776,0.001,-151.210700774,7200.0,0.0,410.0,0.0
1513266666041555999,,658855,,1513266664,233234221,'',1.02974425868,1.05042419529,0.00546754416601,0.0206799366133,0.001,-151.144285102,7200.0,0.0,410.0,0.0
1513266666051358601,,658856,,1513266664,243234221,'',1.02974425868,1.05047336612,0.00447431339207,0.0207291074472,0.001,-151.130466868,7200.0,0.0,410.0,0.0
1513266666061402257,,658857,,1513266664,253234221,'',1.02974425868,1.05048561956,0.00422357070157,0.0207413608869,0.001,-151.086670041,7200.0,0.0,410.0,0.0
1513266666071183256,,658858,,1513266664,263234221,'',1.02974425868,1.05044401996,0.00510118301142,0.0206997612796,0.001,-151.126825234,7200.0,0.0,410.0,0.0
1513266666081653199,,658859,,1513266664,273234221,'',1.02974425868,1.05043661376,0.00524056152712,0.02069235508,0.001,-151.132587574,7200.0,0.0,410.0,0.0
1513266666091483517,,658860,,1513266664,283234221,'',1.02974425868,1.05048344097,0.00429034375517,0.0207391822894,0.001,-151.084131089,7200.0,0.0,410.0,0.0
1513266666101420776,,658861,,1513266664,293234221,'',1.02974425868,1.05046303521,0.00469017909609,0.0207187765366,0.001,-151.043006591,7200.0,0.0,410.0,0.0
1513266666111215524,,658862,,1513266664,303234221,'',1.02974425868,1.05042607404,0.00543493246626,0.020681815361,0.001,-151.146493016,7200.0,0.0,410.0,0.0
1513266666121217128,,658863,,1513266664,313234221,'',1.02974425868,1.05041902931,-0.0246981785082,0.0206747706328,0.001,-138.883107789,7200.0,0.0,410.0,0.0
1513266666131665643,,658864,,1513266664,323234221,'',1.02974425868,1.05041776037,0.00561145318631,0.0206735016971,0.001,-151.154177895,7200.0,0.0,410.0,0.0
1513266666141532980,,658865,,1513266664,333234221,'',1.02974425868,1.05046800499,0.00459400730434,0.020723746317,0.001,-151.095749534,7200.0,0.0,410.0,0.0
1513266666151429160,,658866,,1513266664,343234221,'',1.02974425868,1.05028165105,-0.0521961386191,0.0205373923687,0.001,-126.356430334,7200.0,0.0,410.0,0.0
1513266666161410678,,658867,,1513266664,353234221,'',1.02974425868,1.04983806995,-0.0432333410947,0.0200938112695,0.001,-126.799421794,7200.0,0.0,410.0,0.0
1513266666171568609,,658868,,1513266664,363234221,'',1.02974425868,1.04922878796,-0.0611896002593,0.0194845292877,0.001,-115.087664283,7200.0,0.0,410.0,0.0
1513266666181492018,,658869,,1513266664,373234221,'',1.02974425868,1.04834462059,-0.103893344893,0.0186003619136,0.001,-91.9254820808,7200.0,0.0,410.0,0.0
1513266666191568497,,658870,,1513266664,383234221,'',1.02974425868,1.04729728082,-0.113021600365,0.0175530221391,0.001,-79.9395504085,7200.0,0.0,410.0,0.0
1513266666201521902,,658871,,1513266664,393234221,'',1.02974425868,1.04608940823,-0.118891682788,0.0163451495546,0.001,-68.6399066308,7200.0,0.0,410.0,0.0
1513266666211314745,,658872,,1513266664,403234221,'',1.02974425868,1.0447682289,-0.152755393666,0.015023970228,0.001,-45.3399730316,7200.0,0.0,410.0,0.0
1513266666221364801,,658873,,1513266664,413234221,'',1.02974425868,1.04322592389,-0.151877568694,0.0134816652104,0.001,-34.536387439,7200.0,0.0,410.0,0.0
1513266666231141647,,658874,,1513266664,423234221,'',1.02974425868,1.04158593047,-0.179311846179,0.0118416717926,0.001,-11.3670944802,7200.0,0.0,410.0,0.0
1513266666241130163,,658875,,1513266664,433234221,'',1.02974425868,1.03997153143,-0.17697379103,0.0102272727536,0.001,-1.07222321344,7200.0,0.0,410.0,0.0
1513266666251553166,,658876,,1513266664,443234221,'',1.02974425868,1.03824510259,-0.172377429882,0.00850084391013,0.001,8.26495476182,7200.0,0.0,410.0,0.0
1513266666261559297,,658877,,1513266664,453234221,'',1.02974425868,1.03639070911,-0.195473286975,0.00664645043603,0.001,32.1393256344,7200.0,0.0,410.0,0.0
1513266666271513766,,658878,,1513266664,463234221,'',1.02974425868,1.03460884299,-0.15945236526,0.00486458431564,0.001,30.7123337108,7200.0,0.0,410.0,0.0
1513266666281567291,,658879,,1513266664,473234221,'',1.02974425868,1.03279268852,-0.18333900136,0.00304842984557,0.001,53.2276895947,7200.0,0.0,410.0,0.0
1513266666291457864,,658880,,1513266664,483234221,'',1.02974425868,1.03111755073,-0.14950851598,0.00137329205171,0.001,51.2971805136,7200.0,0.0,410.0,0.0
1513266666301350164,,658881,,1513266664,493234221,'',1.02974425868,1.02950323179,-0.147182128279,-0.00024102688327,0.001,62.5181137136,7200.0,0.0,410.0,0.0
1513266666311283316,,658882,,1513266664,503234221,'',1.02974425868,1.02812392646,-0.149602032494,0.0,0.001,0.0,7200.0,0.0,410.0,0.0
1513266666321273303,,658883,,1513266664,513234221,'',1.02974425868,1.02683703713,-0.123601633309,0.0,0.001,0.0,7200.0,0.0,410.0,0.0
1513266666331274469,,658884,,1513266664,523234221,'',1.02974425868,1.02575501977,-0.101752671409,0.0,0.001,0.0,7200.0,0.0,410.0,0.0
1513266666341236810,,658885,,1513266664,533234221,'',1.02974425868,1.02478694723,-0.0822016517667,0.0,0.001,0.0,7200.0,0.0,410.0,0.0
1513266666351179665,,658886,,1513266664,543234221,'',1.02974425868,1.02389000395,-0.0640831055453,0.0,0.001,0.0,7200.0,0.0,410.0,0.0
1513266666361177800,,658887,,1513266664,553234221,'',1.02974425868,1.02309363224,-0.0782769468269,0.0,0.001,0.0,7200.0,0.0,410.0,0.0
1513266666371564511,,658888,,1513266664,563234221,'',1.02974425868,1.02239114335,-0.0640850057499,0.0,0.001,0.0,7200.0,0.0,410.0,0.0
1513266666381424521,,658889,,1513266664,573234221,'',1.02974425868,1.02181591961,-0.0524641221469,0.0,0.001,0.0,7200.0,0.0,410.0,0.0
1513266666391433938,,658890,,1513266664,583234221,'',1.02974425868,1.02131635531,-0.0423711134585,0.0,0.001,0.0,7200.0,0.0,410.0,0.0
1513266666401316922,,658891,,1513266664,593234221,'',1.02974425868,1.02080483395,-0.0320331284424,0.0,0.001,0.0,7200.0,0.0,410.0,0.0
1513266666411288219,,658892,,1513266664,603234221,'',1.02974425868,1.02029869825,-0.052092804171,0.0,0.001,0.0,7200.0,0.0,410.0,0.0
1513266666421197077,,658893,,1513266664,613234221,'',1.02974425868,1.01996678414,-0.0453775062861,0.0,0.001,0.0,7200.0,0.0,410.0,0.0
1513266666431555547,,658894,,1513266664,623234221,'',1.02974425868,1.01955945792,-0.0371503727361,0.0,0.001,0.0,7200.0,0.0,410.0,0.0
1513266666441435562,,658895,,1513266664,633234221,'',1.02974425868,1.01919899776,-0.0298631517204,0.0,0.001,0.0,7200.0,0.0,410.0,0.0
1513266666451332261,,658896,,1513266664,643234221,'',1.02974425868,1.01893134218,-0.0244582810767,0.0,0.001,0.0,7200.0,0.0,410.0,0.0
1513266666461260976,,658897,,1513266664,653234221,'',1.02974425868,1.01868365416,-0.0194566440837,0.0,0.001,0.0,7200.0,0.0,410.0,0.0
1513266666471278044,,658898,,1513266664,663234221,'',1.02974425868,1.01839284408,-0.0134504499154,0.0,0.001,0.0,7200.0,0.0,410.0,0.0
1513266666481609713,,658899,,1513266664,673234221,'',1.02974425868,1.01804964068,-0.0368251541077,0.0,0.001,0.0,7200.0,0.0,410.0,0.0
1513266666491562907,,658900,,1513266664,683234221,'',1.02974425868,1.01776884381,-0.0311784873238,0.0,0.001,0.0,7200.0,0.0,410.0,0.0
1513266666501539683,,658901,,1513266664,693234221,'',1.02974425868,1.01748821703,-0.0255247221744,0.0,0.001,0.0,7200.0,0.0,410.0,0.0
1513266666511536729,,658902,,1513266664,703234221,'',1.02974425868,1.01731552413,-0.0220559063636,0.0,0.001,0.0,7200.0,0.0,410.0,0.0
1513266666521471583,,658903,,1513266664,713234221,'',1.02974425868,1.01711710028,-0.0180563885729,0.0,0.001,0.0,7200.0,0.0,410.0,0.0
1513266666531304787,,658904,,1513266664,723234221,'',1.02974425868,1.01695454232,-0.0147797992791,0.0,0.001,0.0,7200.0,0.0,410.0,0.0
1513266666541321990,,658905,,1513266664,733234221,'',1.02974425868,1.01682170895,-0.0121023519693,0.0,0.001,0.0,7200.0,0.0,410.0,0.0
1513266666551336320,,658906,,1513266664,743234221,'',1.02974425868,1.01671282193,-0.00990757750842,0.0,0.001,0.0,7200.0,0.0,410.0,0.0
1513266666561425960,,658907,,1513266664,753234221,'',1.02974425868,1.01648305597,-0.0355553208067,0.0,0.001,0.0,7200.0,0.0,410.0,0.0
1513266666571442405,,658908,,1513266664,763234221,'',1.02974425868,1.0161353354,-0.0588067341307,0.0,0.001,0.0,7200.0,0.0,410.0,0.0
1513266666581287638,,658909,,1513266664,773234221,'',1.02974425868,1.01544210948,-0.0750650838754,0.0,0.001,0.0,7200.0,0.0,410.0,0.0
1513266666591266305,,658910,,1513266664,783234221,'',1.02974425868,1.01476745474,-0.0614192308335,0.0,0.001,0.0,7200.0,0.0,410.0,0.0
1513266666601174545,,658911,,1513266664,793234221,'',1.02974425868,1.01421570148,-0.0502817467349,0.0,0.001,0.0,7200.0,0.0,410.0,0.0
1513266666611091981,,658912,,1513266664,803234221,'',1.02974425868,1.01370790587,-0.0400307000871,0.0,0.001,0.0,7200.0,0.0,410.0,0.0
1513266666621605029,,658913,,1513266664,813234221,'',1.02974425868,1.01320871348,-0.0602350203599,-0.0165355451923,0.001,143.96185973,7200.0,0.0,410.0,0.0
1513266666631523409,,658914,,1513266664,823234221,'',1.02974425868,1.0127544931,-0.0207900326156,-0.0169897655722,0.001,130.889640755,7200.0,0.0,410.0,0.0
1513266666641400725,,658915,,1513266664,833234221,'',1.02974425868,1.01246054224,-0.0451320082874,-0.0172837164328,0.001,143.030318509,7200.0,0.0,410.0,0.0
1513266666651372491,,658916,,1513266664,843234221,'',1.02974425868,1.01222073299,-0.0100037518432,-0.0175235256907,0.001,130.294043871,7200.0,0.0,410.0,0.0
1513266666661290618,,658917,,1513266664,853234221,'',1.02974425868,1.01207442612,-0.0373277540785,-0.0176698325591,0.001,142.148982632,7200.0,0.0,410.0,0.0
1513266666671152581,,658918,,1513266664,863234221,'',1.02974425868,1.01190300158,-0.00358269229088,-0.0178412570922,0.001,129.939502897,7200.0,0.0,410.0,0.0
1513266666681544356,,658919,,1513266664,873234221,'',1.02974425868,1.01176232202,-0.0310104966692,-0.0179819366594,0.001,141.977112849,7200.0,0.0,410.0,0.0
1513266666691421373,,658920,,1513266664,883234221,'',1.02974425868,1.0116741076,0.0010488191486,-0.0180701510772,0.001,129.693379616,7200.0,0.0,410.0,0.0
1513266666701432547,,658921,,1513266664,893234221,'',1.02974425868,1.01162925221,0.00194447308084,-0.0181150064687,0.001,129.630991924,7200.0,0.0,410.0,0.0
1513266666711292949,,658922,,1513266664,903234221,'',1.02974425868,1.01167559408,0.001003709299,-0.0180686645955,0.001,129.685749955,7200.0,0.0,410.0,0.0
1513266666721362732,,658923,,1513266664,913234221,'',1.02974425868,1.01184954014,0.0277593427288,-0.0178947185337,0.001,117.404658901,7200.0,0.0,410.0,0.0
1513266666731192001,,658924,,1513266664,923234221,'',1.02974425868,1.01218347328,0.0210078744047,-0.0175607853992,0.001,117.788241852,7200.0,0.0,410.0,0.0
1513266666741092582,,658925,,1513266664,933234221,'',1.02974425868,1.01256479313,0.0435936453358,-0.0171794655441,0.001,106.14537689,7200.0,0.0,410.0,0.0
1513266666751604463,,658926,,1513266664,943234221,'',1.02974425868,1.01292844834,0.0362456672557,-0.0168158103402,0.001,106.155297458,7200.0,0.0,410.0,0.0
1513266666761559414,,658927,,1513266664,953234221,'',1.02974425868,1.01325126821,0.0297260459088,-0.0164929904635,0.001,106.515516414,7200.0,0.0,410.0,0.0
1513266666771355173,,658928,,1513266664,963234221,'',1.02974425868,1.01338074302,-0.00316460985285,-0.0163635156568,0.001,119.1254707,7200.0,0.0,410.0,0.0
1513266666781233280,,658929,,1513266664,973234221,'',1.02974425868,1.01345865172,-0.00474651659639,-0.0162856069521,0.001,119.218653725,7200.0,0.0,410.0,0.0
1513266666791071505,,658930,,1513266664,983234221,'',1.02974425868,1.01349418286,-0.00547183888136,-0.0162500758203,0.001,119.203310013,7200.0,0.0,410.0,0.0
1513266666801098459,,658931,,1513266664,993234221,'',1.02974425868,1.01360755922,0.0225115662976,-0.0161366994524,0.001,106.913084176,7200.0,0.0,410.0,0.0
1513266666811538794,,658932,,1513266665,3234221,'',1.02974425868,1.01367488633,0.0211530773761,-0.0160693723493,0.001,106.961046441,7200.0,0.0,410.0,0.0
1513266666821571032,,658933,,1513266665,13234221,'',1.02974425868,1.0138940376,0.0167275123912,-0.015850221072,0.001,107.239360944,7200.0,0.0,410.0,0.0
1513266666831565895,,658934,,1513266665,23234221,'',1.02974425868,1.01409931957,0.0125812435973,-0.0156449391066,0.001,107.461815562,7200.0,0.0,410.0,0.0
1513266666841480167,,658935,,1513266665,33234221,'',1.02974425868,1.01440430721,0.0367005540563,-0.0153399514638,0.001,95.29079325,7200.0,0.0,410.0,0.0
1513266666851378981,,658936,,1513266665,43234221,'',1.02974425868,1.01470726684,0.0305825136808,-0.0150369918413,0.001,95.675968536,7200.0,0.0,410.0,0.0
1513266666861398662,,658937,,1513266665,53234221,'',1.02974425868,1.01511904268,0.0222606376165,-0.0146252159928,0.001,96.1354491222,7200.0,0.0,410.0,0.0
1513266666871572896,,658938,,1513266665,63234221,'',1.02974425868,1.01564584759,0.0418871313614,-0.0140984110857,0.001,84.3128458989,7200.0,0.0,410.0,0.0
1513266666881572325,,658939,,1513266665,73234221,'',1.02974425868,1.01607567875,0.0331985455854,-0.0136685799273,0.001,84.8206865662,7200.0,0.0,410.0,0.0
1513266666891476188,,658940,,1513266665,83234221,'',1.02974425868,1.01645306305,0.055845166031,-0.0132911956234,0.001,73.1589141851,7200.0,0.0,410.0,0.0
1513266666901485535,,658941,,1513266665,93234221,'',1.02974425868,1.01673851537,0.0197958481867,-0.0130057433071,0.001,85.4606913244,7200.0,0.0,410.0,0.0
1513266666911388034,,658942,,1513266665,103234221,'',1.02974425868,1.01694154665,0.0157028127062,-0.0128027120279,0.001,85.7048666812,7200.0,0.0,410.0,0.0
1513266666921361334,,658943,,1513266665,113234221,'',1.02974425868,1.017109274,0.0123199721638,-0.0126349846726,0.001,85.8822773995,7200.0,0.0,410.0,0.0
1513266666931230326,,658944,,1513266665,123234221,'',1.02974425868,1.01721981416,0.0100905905622,-0.0125244445158,0.001,86.2078954995,7200.0,0.0,410.0,0.0
1513266666941420736,,658945,,1513266665,133234221,'',1.02974425868,1.01733809719,0.0077041720513,-0.0124061614915,0.001,86.1404994543,7200.0,0.0,410.0,0.0
1513266666951173753,,658946,,1513266665,143234221,'',1.02974425868,1.01743241068,0.00580386811325,-0.012311847994,0.001,86.2525979163,7200.0,0.0,410.0,0.0
1513266666961671111,,658947,,1513266665,153234221,'',1.02974425868,1.01751181568,0.00420345739224,-0.0122324429961,0.001,86.2975594663,7200.0,0.0,410.0,0.0
1513266666971589560,,658948,,1513266665,163234221,'',1.02974425868,1.01760051147,0.00241605663238,-0.0121437472081,0.001,86.4389802719,7200.0,0.0,410.0,0.0
1513266666981575379,,658949,,1513266665,173234221,'',1.02974425868,1.01762585362,0.0321824772564,-0.012118405056,0.001,74.0169368357,7200.0,0.0,410.0,0.0
1513266666991489363,,658950,,1513266665,183234221,'',1.02974425868,1.01764295094,0.00155623157816,-0.0121013077356,0.001,86.4875295221,7200.0,0.0,410.0,0.0
1513266667001500531,,658951,,1513266665,193234221,'',1.02974425868,1.01765695153,0.00127395872005,-0.0120873071498,0.001,86.5021437573,7200.0,0.0,410.0,0.0
1513266667011429487,,658952,,1513266665,203234221,'',1.02974425868,1.01766840871,0.00104296473014,-0.012075849969,0.001,86.5171747998,7200.0,0.0,410.0,0.0
1513266667021383834,,658953,,1513266665,213234221,'',1.02974425868,1.01770429403,0.000319460790905,-0.0120399646444,0.001,86.5561057092,7200.0,0.0,410.0,0.0
1513266667031124666,,658954,,1513266665,223234221,'',1.02974425868,1.01784650856,0.0277391182877,-0.011897750112,0.001,74.2860324254,7200.0,0.0,410.0,0.0
1513266667041172326,,658955,,1513266665,233234221,'',1.02974425868,1.01790734673,0.0265063238086,-0.0118369119435,0.001,74.3183301634,7200.0,0.0,410.0,0.0
1513266667051671556,,658956,,1513266665,243234221,'',1.02974425868,1.01787338403,-0.00309032454037,-0.0118708746504,0.001,86.7510780636,7200.0,0.0,410.0,0.0
1513266667061321689,,658957,,1513266665,253234221,'',1.02974425868,1.01784559531,-0.00252993913728,-0.0118986633684,0.001,86.7169037797,7200.0,0.0,410.0,0.0
1513266667071278935,,658958,,1513266665,263234221,'',1.02974425868,1.01782285204,-0.00207129986907,-0.0119214066398,0.001,86.6882723807,7200.0,0.0,410.0,0.0
1513266667081595800,,658959,,1513266665,273234221,'',1.02974425868,1.01767132355,0.000999387730307,-0.0120729351286,0.001,86.5183127646,7200.0,0.0,410.0,0.0
1513266667091503492,,658960,,1513266665,283234221,'',1.02974425868,1.01768247952,0.000775463680316,-0.0120617791569,0.001,86.5316375352,7200.0,0.0,410.0,0.0
1513266667101433870,,658961,,1513266665,293234221,'',1.02974425868,1.0176325982,0.0017746480496,-0.012111660476,0.001,86.4752789303,7200.0,0.0,410.0,0.0
1513266667111445199,,658962,,1513266665,303234221,'',1.02974425868,1.017591777,-0.0276823234581,-0.0121524816721,0.001,98.8591158182,7200.0,0.0,410.0,0.0
1513266667121289068,,658963,,1513266665,313234221,'',1.02974425868,1.01758910574,0.00265283088481,-0.0121551529414,0.001,86.4483519402,7200.0,0.0,410.0,0.0
1513266667131267988,,658964,,1513266665,323234221,'',1.02974425868,1.01755947341,0.0032535068017,-0.0121847852631,0.001,86.3956629192,7200.0,0.0,410.0,0.0
1513266667141180311,,658965,,1513266665,333234221,'',1.02974425868,1.01758866802,0.00266231168066,-0.0121555906612,0.001,86.4004648628,7200.0,0.0,410.0,0.0
1513266667151208169,,658966,,1513266665,343234221,'',1.02974425868,1.01755859489,0.00326908869221,-0.01218566379,0.001,86.3946896234,7200.0,0.0,410.0,0.0
1513266667161568102,,658967,,1513266665,353234221,'',1.02974425868,1.01752990335,-0.0264392745385,-0.0122143553311,0.001,98.8491039436,7200.0,0.0,410.0,0.0
1513266667171727389,,658968,,1513266665,363234221,'',1.02974425868,1.01753095497,-0.0264517552328,-0.0122133037037,0.001,98.868583991,7200.0,0.0,410.0,0.0
1513266667181627943,,658969,,1513266665,373234221,'',1.02974425868,1.01756524823,0.00313556153193,-0.0121790104493,0.001,86.3971172422,7200.0,0.0,410.0,0.0
1513266667191527127,,658970,,1513266665,383234221,'',1.02974425868,1.01748787036,0.00469583428472,-0.0122563883143,0.001,86.3575603206,7200.0,0.0,410.0,0.0
1513266667201473683,,658971,,1513266665,393234221,'',1.02974425868,1.0175329779,0.0037858325434,-0.012211280772,0.001,86.3648159744,7200.0,0.0,410.0,0.0
1513266667211485122,,658972,,1513266665,403234221,'',1.02974425868,1.01756691689,0.00309932688092,-0.0121773417914,0.001,86.4026868275,7200.0,0.0,410.0,0.0
1513266667221512115,,658973,,1513266665,413234221,'',1.02974425868,1.01762177491,0.00199825754594,-0.0121224837624,0.001,86.46233055,7200.0,0.0,410.0,0.0
1513266667231270434,,658974,,1513266665,423234221,'',1.02974425868,1.01755634272,0.00331046025999,-0.0121879159552,0.001,86.3892540021,7200.0,0.0,410.0,0.0
1513266667241630379,,658975,,1513266665,433234221,'',1.02974425868,1.01753180833,-0.0264745540126,-0.0122124503516,0.001,98.5977461745,7200.0,0.0,410.0,0.0
1513266667251531765,,658976,,1513266665,443234221,'',1.02974425868,1.01751030509,0.0042398992823,-0.012233953585,0.001,86.3416092286,7200.0,0.0,410.0,0.0
1513266667261512926,,658977,,1513266665,453234221,'',1.02974425868,1.01754835546,0.00347105522164,-0.0121959032196,0.001,86.3819750351,7200.0,0.0,410.0,0.0
1513266667271540618,,658978,,1513266665,463234221,'',1.02974425868,1.01757742017,0.00289066337987,-0.0121668385039,0.001,86.4132682046,7200.0,0.0,410.0,0.0
1513266667281391890,,658979,,1513266665,473234221,'',1.02974425868,1.01760324614,0.0023675784516,-0.0121410125366,0.001,86.4646713377,7200.0,0.0,410.0,0.0
1513266667291501309,,658980,,1513266665,483234221,'',1.02974425868,1.01762444482,0.00193821556966,-0.0121198138531,0.001,86.4676429616,7200.0,0.0,410.0,0.0
1513266667301394773,,658981,,1513266665,493234221,'',1.02974425868,1.0176120014,-0.0280913211008,-0.0121322572749,0.001,98.9172201687,7200.0,0.0,410.0,0.0
1513266667311371469,,658982,,1513266665,503234221,'',1.02974425868,1.01757674616,-0.0273696663529,-0.0121675125176,0.001,98.7643359841,7200.0,0.0,410.0,0.0
1513266667321346732,,658983,,1513266665,513234221,'',1.02974425868,1.01757467894,0.00295280857462,-0.0121695797328,0.001,86.4078662609,7200.0,0.0,410.0,0.0
1513266667331646126,,658984,,1513266665,523234221,'',1.02974425868,1.01752066132,0.00403743874907,-0.012223597356,0.001,86.3840913022,7200.0,0.0,410.0,0.0
1513266667341672947,,658985,,1513266665,533234221,'',1.02974425868,1.01750109995,-0.0258487987117,-0.0122431587298,0.001,98.8036820322,7200.0,0.0,410.0,0.0
1513266667351599575,,658986,,1513266665,543234221,'',1.02974425868,1.01754081953,0.0036292230142,-0.0122034391453,0.001,86.3721353042,7200.0,0.0,410.0,0.0
1513266667361576599,,658987,,1513266665,553234221,'',1.02974425868,1.01757161671,0.00301013417288,-0.0121726419622,0.001,86.4094123985,7200.0,0.0,410.0,0.0
1513266667371644671,,658988,,1513266665,563234221,'',1.02974425868,1.01757163189,0.0030091180963,-0.0121726267856,0.001,86.4094291818,7200.0,0.0,410.0,0.0
1513266667381454731,,658989,,1513266665,573234221,'',1.02974425868,1.01759900031,0.0024483042046,-0.0121452583693,0.001,86.4648184163,7200.0,0.0,410.0,0.0
1513266667391560571,,658990,,1513266665,583234221,'',1.02974425868,1.01764850894,0.00144826305033,-0.0120957497412,0.001,86.5057309223,7200.0,0.0,410.0,0.0
1513266667401457624,,658991,,1513266665,593234221,'',1.02974425868,1.01763288906,0.00175803079425,-0.0121113696134,0.001,86.4763019634,7200.0,0.0,410.0,0.0
1513266667411403292,,658992,,1513266665,603234221,'',1.02974425868,1.01756990549,0.00302690030268,-0.0121743531902,0.001,86.4060216619,7200.0,0.0,410.0,0.0
1513266667421427368,,658993,,1513266665,613234221,'',1.02974425868,1.01759714525,0.00247807504372,-0.0121471134218,0.001,86.4364171908,7200.0,0.0,410.0,0.0
1513266667431346563,,658994,,1513266665,623234221,'',1.02974425868,1.01759352807,0.00255186026152,-0.0121507306029,0.001,86.4313707478,7200.0,0.0,410.0,0.0
1513266667441153477,,658995,,1513266665,633234221,'',1.02974425868,1.01761644366,0.00208999433536,-0.012127815018,0.001,86.4978530958,7200.0,0.0,410.0,0.0
1513266667451712470,,658996,,1513266665,643234221,'',1.02974425868,1.01760766262,0.00226708876509,-0.0121365960572,0.001,86.4640795434,7200.0,0.0,410.0,0.0
1513266667461626899,,658997,,1513266665,653234221,'',1.02974425868,1.01759998573,0.00242373133728,-0.0121442729431,0.001,86.4415040531,7200.0,0.0,410.0,0.0
1513266667471697863,,658998,,1513266665,663234221,'',1.02974425868,1.01762177945,0.00198410938032,-0.0121224792293,0.001,86.4631204903,7200.0,0.0,410.0,0.0
1513266667481455759,,658999,,1513266665,673234221,'',1.02974425868,1.0176396121,0.00162438971508,-0.0121046465726,0.001,86.4838038768,7200.0,0.0,410.0,0.0
1513266667491357464,,659000,,1513266665,683234221,'',1.02974425868,1.01760075288,0.00241063559828,-0.0121435057958,0.001,86.4623466715,7200.0,0.0,410.0,0.0
1513266667501355903,,659001,,1513266665,693234221,'',1.02974425868,1.01759597364,0.00251306822792,-0.0121482850408,0.001,86.4341191439,7200.0,0.0,410.0,0.0
1513266667511841299,,659002,,1513266665,703234221,'',1.02974425868,1.01759047649,0.00262435861531,-0.0121537821828,0.001,86.4289758457,7200.0,0.0,410.0,0.0
1513266667521771123,,659003,,1513266665,713234221,'',1.02974425868,1.01761399299,0.00214838739869,-0.0121302656858,0.001,86.4552167578,7200.0,0.0,410.0,0.0
1513266667531650295,,659004,,1513266665,723234221,'',1.02974425868,1.01763323941,0.00175884214162,-0.0121110192702,0.001,86.4759995366,7200.0,0.0,410.0,0.0
1513266667541583601,,659005,,1513266665,733234221,'',1.02974425868,1.01764799515,0.001475554056,-0.0120962635234,0.001,86.5058190695,7200.0,0.0,410.0,0.0
1513266667551471222,,659006,,1513266665,743234221,'',1.02974425868,1.01766107968,0.00120793771152,-0.0120831789948,0.001,86.5068160403,7200.0,0.0,410.0,0.0
1513266667561329049,,659007,,1513266665,753234221,'',1.02974425868,1.01764677604,0.00149224516222,-0.0120974826319,0.001,86.4966264913,7200.0,0.0,410.0,0.0
1513266667571673216,,659008,,1513266665,763234221,'',1.02974425868,1.01768756608,0.00067257996125,-0.0120566926013,0.001,86.5359488699,7200.0,0.0,410.0,0.0
1513266667581583966,,659009,,1513266665,773234221,'',1.02974425868,1.0176934604,0.000550872105803,-0.0120507982738,0.001,86.5485725777,7200.0,0.0,410.0,0.0
1513266667591552917,,659010,,1513266665,783234221,'',1.02974425868,1.01759332623,0.00255754301963,-0.0121509324421,0.001,86.4311439148,7200.0,0.0,410.0,0.0
1513266667601608778,,659011,,1513266665,793234221,'',1.02974425868,1.01764219883,0.00156520175522,-0.012102059843,0.001,86.4891776518,7200.0,0.0,410.0,0.0
1513266667611551448,,659012,,1513266665,803234221,'',1.02974425868,1.01770976488,0.000207797864705,-0.0120344937949,0.001,86.5619804711,7200.0,0.0,410.0,0.0
1513266667621692221,,659013,,1513266665,813234221,'',1.02974425868,1.01771164608,0.000170117555781,-0.0120326126016,0.001,86.5643355388,7200.0,0.0,410.0,0.0
1513266667631785959,,659014,,1513266665,823234221,'',1.02974425868,1.01771318326,0.000139327663543,-0.012031075413,0.001,86.567063606,7200.0,0.0,410.0,0.0
1513266667641773428,,659015,,1513266665,833234221,'',1.02974425868,1.01771444451,0.000114064794032,-0.0120298141617,0.001,86.5683051079,7200.0,0.0,410.0,0.0
1513266667651417784,,659016,,1513266665,843234221,'',1.02974425868,1.01774141649,-0.000424798739553,-0.0120028421852,0.001,86.5926078322,7200.0,0.0,410.0,0.0
1513266667661251372,,659017,,1513266665,853234221,'',1.02974425868,1.01773755817,-0.000347767667319,-0.0120067005104,0.001,86.5932708392,7200.0,0.0,410.0,0.0
1513266667671584552,,659018,,1513266665,863234221,'',1.02974425868,1.01773440582,-0.000284831342421,-0.0120098528592,0.001,86.5868198297,7200.0,0.0,410.0,0.0
1513266667681423092,,659019,,1513266665,873234221,'',1.02974425868,1.01773181855,-0.000233176874133,-0.0120124401234,0.001,86.5846428845,7200.0,0.0,410.0,0.0
1513266667691345399,,659020,,1513266665,883234221,'',1.02974425868,1.01772970086,-0.000190897280875,-0.0120145578198,0.001,86.5843295222,7200.0,0.0,410.0,0.0
1513266667701160695,,659021,,1513266665,893234221,'',1.02974425868,1.01772796684,-0.000156277855016,-0.0120162918344,0.001,86.5824570751,7200.0,0.0,410.0,0.0
1513266667711625358,,659022,,1513266665,903234221,'',1.02974425868,1.01772654729,-0.000127936699027,-0.0120177113835,0.001,86.5808617431,7200.0,0.0,410.0,0.0
1513266667721646827,,659023,,1513266665,913234221,'',1.02974425868,1.01772538528,-0.000104737239644,-0.0120188733959,0.001,86.5796081616,7200.0,0.0,410.0,0.0
1513266667731560216,,659024,,1513266665,923234221,'',1.02974425868,1.01772443581,-8.57810612355e-05,-0.0120198228712,0.001,86.5777004752,7200.0,0.0,410.0,0.0
1513266667741403964,,659025,,1513266665,933234221,'',1.02974425868,1.01778151844,0.0290407910186,-0.0119627402395,0.001,74.1779245048,7200.0,0.0,410.0,0.0
1513266667751349270,,659026,,1513266665,943234221,'',1.02974425868,1.01782830342,0.0280942750334,-0.0119159552601,0.001,74.2079372898,7200.0,0.0,410.0,0.0
1513266667761392176,,659027,,1513266665,953234221,'',1.02974425868,1.01783368092,-0.00229348482659,-0.0119105777571,0.001,86.7003558027,7200.0,0.0,410.0,0.0
1513266667771227815,,659028,,1513266665,963234221,'',1.02974425868,1.01781309001,-0.00187755890272,-0.0119311686672,0.001,86.6783064596,7200.0,0.0,410.0,0.0
1513266667781676441,,659029,,1513266665,973234221,'',1.02974425868,1.01774248096,-0.000463166127559,-0.0120017777127,0.001,86.5942684375,7200.0,0.0,410.0,0.0
1513266667791625780,,659030,,1513266665,983234221,'',1.02974425868,1.01776658112,-0.000946483307144,-0.0119776775544,0.001,86.6177024618,7200.0,0.0,410.0,0.0
1513266667801650480,,659031,,1513266665,993234221,'',1.02974425868,1.01772995457,-0.000207001210134,-0.0120143041109,0.001,86.5845343102,7200.0,0.0,410.0,0.0
1513266667811757005,,659032,,1513266666,3234221,'',1.02974425868,1.01770055646,0.000380883469613,-0.0120437022204,0.001,86.5524727244,7200.0,0.0,410.0,0.0
1513266667821693010,,659033,,1513266666,13234221,'',1.02974425868,1.01772912039,-0.000191768302234,-0.0120151382915,0.001,86.5818012382,7200.0,0.0,410.0,0.0
1513266667831587933,,659034,,1513266666,23234221,'',1.02974425868,1.01772749518,-0.000157066541622,-0.0120167634951,0.001,86.5806360444,7200.0,0.0,410.0,0.0
1513266667841250872,,659035,,1513266666,33234221,'',1.02974425868,1.0177261579,-0.000128512478826,-0.0120181007808,0.001,86.5816850315,7200.0,0.0,410.0,0.0
1513266667851175899,,659036,,1513266666,43234221,'',1.02974425868,1.01764138712,-0.0286882415872,-0.0121028715567,0.001,98.9613409724,7200.0,0.0,410.0,0.0
1513266667861738934,,659037,,1513266666,53234221,'',1.02974425868,1.01765394144,0.00134421144004,-0.0120903172386,0.001,86.5004534924,7200.0,0.0,410.0,0.0
1513266667871772812,,659038,,1513266666,63234221,'',1.02974425868,1.01763949844,0.00163481371862,-0.0121047602382,0.001,86.4844812981,7200.0,0.0,410.0,0.0
1513266667881664364,,659039,,1513266666,73234221,'',1.02974425868,1.01765409502,0.00133890021098,-0.0120901636553,0.001,86.5110283819,7200.0,0.0,410.0,0.0
1513266667891539094,,659040,,1513266666,83234221,'',1.02974425868,1.01766607221,0.00109608922712,-0.0120781864708,0.001,86.5137607964,7200.0,0.0,410.0,0.0
1513266667901329517,,659041,,1513266666,93234221,'',1.02974425868,1.01776009962,0.0294810042028,-0.0119841590579,0.001,74.1394739731,7200.0,0.0,410.0,0.0
1513266667911473927,,659042,,1513266666,103234221,'',1.02974425868,1.01775285354,-0.000655075240385,-0.0119914051405,0.001,86.6101644678,7200.0,0.0,410.0,0.0
1513266667921718489,,659043,,1513266666,113234221,'',1.02974425868,1.01780257928,-0.00166087750769,-0.0119416793918,0.001,86.6671310154,7200.0,0.0,410.0,0.0
1513266667931849416,,659044,,1513266666,123234221,'',1.02974425868,1.0178141187,-0.00189938749134,-0.0119301399736,0.001,86.6792771248,7200.0,0.0,410.0,0.0
1513266667941755711,,659045,,1513266666,133234221,'',1.02974425868,1.01776954311,-0.000998981932523,-0.0119747155647,0.001,86.6283933742,7200.0,0.0,410.0,0.0
1513266667951569014,,659046,,1513266666,143234221,'',1.02974425868,1.01765416139,0.00131979311751,-0.0120900972848,0.001,86.5005651324,7200.0,0.0,410.0,0.0
1513266667962008536,,659047,,1513266666,153234221,'',1.02974425868,1.01766610284,0.00108092131103,-0.0120781558367,0.001,86.5228467365,7200.0,0.0,410.0,0.0
1513266667971431467,,659048,,1513266666,163234221,'',1.02974425868,1.01767590408,0.000884861320892,-0.0120683545955,0.001,86.5231532312,7200.0,0.0,410.0,0.0
1513266667981969336,,659049,,1513266666,173234221,'',1.02974425868,1.01768392479,0.000724418408722,-0.0120603338888,0.001,86.5332502393,7200.0,0.0,410.0,0.0
1513266667991872582,,659050,,1513266666,183234221,'',1.02974425868,1.01769049047,0.000593081119529,-0.0120537682022,0.001,86.541049679,7200.0,0.0,410.0,0.0
1513266668001309014,,659051,,1513266666,193234221,'',1.02974425868,1.01772115578,-3.15290899914e-05,-0.0120231029005,0.001,86.5747863725,7200.0,0.0,410.0,0.0
1513266668012071766,,659052,,1513266666,203234221,'',1.02974425868,1.01774596078,-0.000524015625756,-0.0119982978971,0.001,86.6024731768,7200.0,0.0,410.0,0.0
1513266668021735328,,659053,,1513266666,213234221,'',1.02974425868,1.01771463689,0.000104638038951,-0.012029621782,0.001,86.5684860133,7200.0,0.0,410.0,0.0
1513266668031866059,,659054,,1513266666,223234221,'',1.02974425868,1.01776925503,-0.000994162067849,-0.0119750036463,0.001,86.6288579814,7200.0,0.0,410.0,0.0
1513266668041733138,,659055,,1513266666,233234221,'',1.02974425868,1.01773504962,-0.000302070392322,-0.0120092090612,0.001,86.590297941,7200.0,0.0,410.0,0.0
1513266668051740052,,659056,,1513266666,243234221,'',1.02974425868,1.01773487706,-0.00030017418519,-0.0120093816152,0.001,86.5901053965,7200.0,0.0,410.0,0.0
1513266668061944709,,659057,,1513266666,253234221,'',1.02974425868,1.01770533045,0.00030513481162,-0.0120389282256,0.001,86.5571357749,7200.0,0.0,410.0,0.0
1513266668071573239,,659058,,1513266666,263234221,'',1.02974425868,1.01770801025,0.000249917429005,-0.0120362484232,0.001,86.5622546132,7200.0,0.0,410.0,0.0
