rosbagTimestamp,header,seq,stamp,secs,nsecs,frame_id,set_point,process_value,process_value_dot,error,time_step,command,p,i,d,i_clamp
1513267020880481864,,694341,,1513267019,65445376,'',0.471238898038,0.478308586148,-0.00232146880033,0.00706968810934,0.001,35.3484405467,-5000.0,0.0,0.0,0.0
1513267020890476080,,694342,,1513267019,75445376,'',0.471238898038,0.478308586148,-0.00186020553726,0.00706968810934,0.001,35.3484405467,-5000.0,0.0,0.0,0.0
1513267020900512976,,694343,,1513267019,85445376,'',0.471238898038,0.476651627997,-0.0355154967365,0.00541272995872,0.001,27.0636497936,-5000.0,0.0,0.0,0.0
1513267020910755245,,694344,,1513267019,95445376,'',0.471238898038,0.476651627997,-0.0362093296819,0.00541272995872,0.001,27.0636497936,-5000.0,0.0,0.0,0.0
1513267020920734371,,694345,,1513267019,105445376,'',0.471238898038,0.479965544298,0.0300140052911,0.00872664625997,0.001,43.6332312999,-5000.0,0.0,0.0,0.0
1513267020930676044,,694346,,1513267019,115445376,'',0.471238898038,0.478308586148,-0.00281513655697,0.00706968810934,0.001,35.3484405467,-5000.0,0.0,0.0,0.0
1513267020940494426,,694347,,1513267019,125445376,'',0.471238898038,0.478308586148,-0.00173644642,0.00706968810934,0.001,35.3484405467,-5000.0,0.0,0.0,0.0
1513267020950565438,,694348,,1513267019,135445376,'',0.471238898038,0.476651627997,-0.0366541775652,0.00541272995872,0.001,27.0636497936,-5000.0,0.0,0.0,0.0
1513267020960389574,,694349,,1513267019,145445376,'',0.471238898038,0.479965544298,0.0295604412074,0.00872664625997,0.001,43.6332312999,-5000.0,0.0,0.0,0.0
1513267020970317997,,694350,,1513267019,155445376,'',0.471238898038,0.478308586148,-0.00323489582481,0.00706968810934,0.001,35.3484405467,-5000.0,0.0,0.0,0.0
1513267020980957284,,694351,,1513267019,165445376,'',0.471238898038,0.479965544298,0.0307829724556,0.00872664625997,0.001,43.6332312999,-5000.0,0.0,0.0,0.0
1513267020990334311,,694352,,1513267019,175445376,'',0.471238898038,0.479965544298,0.0300090918522,0.00872664625997,0.001,43.6332312999,-5000.0,0.0,0.0,0.0
1513267021000174128,,694353,,1513267019,185445376,'',0.471238898038,0.478308586148,-0.00219803439671,0.00706968810934,0.001,35.3484405467,-5000.0,0.0,0.0,0.0
1513267021010694628,,694354,,1513267019,195445376,'',0.471238898038,0.478308586148,-0.0029562570743,0.00706968810934,0.001,35.3484405467,-5000.0,0.0,0.0,0.0
1513267021020664189,,694355,,1513267019,205445376,'',0.471238898038,0.478308586148,-0.00240755681409,0.00706968810934,0.001,35.3484405467,-5000.0,0.0,0.0,0.0
1513267021030723528,,694356,,1513267019,215445376,'',0.471238898038,0.478308586148,-0.00248634533121,0.00706968810934,0.001,35.3484405467,-5000.0,0.0,0.0,0.0
1513267021040557903,,694357,,1513267019,225445376,'',0.471238898038,0.476651627997,-0.0361653619283,0.00541272995872,0.001,27.0636497936,-5000.0,0.0,0.0,0.0
1513267021050425317,,694358,,1513267019,235445376,'',0.471238898038,0.478308586148,-0.003942310577,0.00706968810934,0.001,35.3484405467,-5000.0,0.0,0.0,0.0
1513267021060378784,,694359,,1513267019,245445376,'',0.471238898038,0.479965544298,0.0271784158421,0.00872664625997,0.001,43.6332312999,-5000.0,0.0,0.0,0.0
1513267021070351842,,694360,,1513267019,255445376,'',0.471238898038,0.478308586148,-0.00522855117736,0.00706968810934,0.001,35.3484405467,-5000.0,0.0,0.0,0.0
1513267021080734939,,694361,,1513267019,265445376,'',0.471238898038,0.478308586148,-0.00488017603658,0.00706968810934,0.001,35.3484405467,-5000.0,0.0,0.0,0.0
1513267021090711181,,694362,,1513267019,275445376,'',0.471238898038,0.478308586148,-0.00462163978592,0.00706968810934,0.001,35.3484405467,-5000.0,0.0,0.0,0.0
1513267021100682695,,694363,,1513267019,285445376,'',0.471238898038,0.476651627997,-0.0372195359651,0.00541272995872,0.001,27.0636497936,-5000.0,0.0,0.0,0.0
1513267021110687557,,694364,,1513267019,295445376,'',0.471238898038,0.479965544298,0.0286011755674,0.00872664625997,0.001,43.6332312999,-5000.0,0.0,0.0,0.0
1513267021120558229,,694365,,1513267019,305445376,'',0.471238898038,0.478308586148,-0.00515412706589,0.00706968810934,0.001,35.3484405467,-5000.0,0.0,0.0,0.0
1513267021130455573,,694366,,1513267019,315445376,'',0.471238898038,0.479965544298,0.0249877327228,0.00872664625997,0.001,43.6332312999,-5000.0,0.0,0.0,0.0
1513267021140468573,,694367,,1513267019,325445376,'',0.471238898038,0.478308586148,-0.00699234170425,0.00706968810934,0.001,35.3484405467,-5000.0,0.0,0.0,0.0
1513267021150419616,,694368,,1513267019,335445376,'',0.471238898038,0.478308586148,-0.00642466720161,0.00706968810934,0.001,35.3484405467,-5000.0,0.0,0.0,0.0
1513267021160336731,,694369,,1513267019,345445376,'',0.471238898038,0.478308586148,-0.00831238799639,0.00706968810934,0.001,35.3484405467,-5000.0,0.0,0.0,0.0
1513267021170308146,,694370,,1513267019,355445376,'',0.471238898038,0.478308586148,-0.00679337149258,0.00706968810934,0.001,35.3484405467,-5000.0,0.0,0.0,0.0
1513267021180181953,,694371,,1513267019,365445376,'',0.471238898038,0.478308586148,-0.00800451702341,0.00706968810934,0.001,35.3484405467,-5000.0,0.0,0.0,0.0
1513267021190643418,,694372,,1513267019,375445376,'',0.471238898038,0.478308586148,-0.00896760107722,0.00706968810934,0.001,35.3484405467,-5000.0,0.0,0.0,0.0
1513267021200623197,,694373,,1513267019,385445376,'',0.471238898038,0.479965544298,0.025467286879,0.00872664625997,0.001,43.6332312999,-5000.0,0.0,0.0,0.0
1513267021210459522,,694374,,1513267019,395445376,'',0.471238898038,0.476651627997,-0.0392874430386,0.00541272995872,0.001,27.0636497936,-5000.0,0.0,0.0,0.0
1513267021220328669,,694375,,1513267019,405445376,'',0.471238898038,0.478308586148,-0.00589885076617,0.00706968810934,0.001,35.3484405467,-5000.0,0.0,0.0,0.0
1513267021230311587,,694376,,1513267019,415445376,'',0.471238898038,0.479965544298,0.0279845064474,0.00872664625997,0.001,43.6332312999,-5000.0,0.0,0.0,0.0
1513267021240750894,,694377,,1513267019,425445376,'',0.471238898038,0.479965544298,0.027149868698,0.00872664625997,0.001,43.6332312999,-5000.0,0.0,0.0,0.0
1513267021250670824,,694378,,1513267019,435445376,'',0.471238898038,0.479965544298,0.0264537422694,0.00872664625997,0.001,43.6332312999,-5000.0,0.0,0.0,0.0
1513267021260637183,,694379,,1513267019,445445376,'',0.471238898038,0.479965544298,0.0258849538385,0.00872664625997,0.001,43.6332312999,-5000.0,0.0,0.0,0.0
1513267021270749714,,694380,,1513267019,455445376,'',0.471238898038,0.478308586148,-0.00492219779176,0.00706968810934,0.001,35.3484405467,-5000.0,0.0,0.0,0.0
1513267021280381746,,694381,,1513267019,465445376,'',0.471238898038,0.478308586148,-0.00459208949452,0.00706968810934,0.001,35.3484405467,-5000.0,0.0,0.0,0.0
1513267021290468705,,694382,,1513267019,475445376,'',0.471238898038,0.478308586148,-0.00617463456308,0.00706968810934,0.001,35.3484405467,-5000.0,0.0,0.0,0.0
1513267021300428471,,694383,,1513267019,485445376,'',0.471238898038,0.479965544298,0.0265196591628,0.00872664625997,0.001,43.6332312999,-5000.0,0.0,0.0,0.0
1513267021310345217,,694384,,1513267019,495445376,'',0.471238898038,0.478308586148,-0.00690981529895,0.00706968810934,0.001,35.3484405467,-5000.0,0.0,0.0,0.0
1513267021320668905,,694385,,1513267019,505445376,'',0.471238898038,0.478308586148,-0.00571108356963,0.00706968810934,0.001,35.3484405467,-5000.0,0.0,0.0,0.0
1513267021330670345,,694386,,1513267019,515445376,'',0.471238898038,0.478308586148,-0.00581173180443,0.00706968810934,0.001,35.3484405467,-5000.0,0.0,0.0,0.0
1513267021340550151,,694387,,1513267019,525445376,'',0.471238898038,0.478308586148,-0.00710523894487,0.00706968810934,0.001,35.3484405467,-5000.0,0.0,0.0,0.0
1513267021350700810,,694388,,1513267019,535445376,'',0.471238898038,0.478308586148,-0.0070642321262,0.00706968810934,0.001,35.3484405467,-5000.0,0.0,0.0,0.0
1513267021360635992,,694389,,1513267019,545445376,'',0.471238898038,0.478308586148,-0.00818202527559,0.00706968810934,0.001,35.3484405467,-5000.0,0.0,0.0,0.0
1513267021370481310,,694390,,1513267019,555445376,'',0.471238898038,0.478308586148,-0.00918348988256,0.00706968810934,0.001,35.3484405467,-5000.0,0.0,0.0,0.0
1513267021380397375,,694391,,1513267019,565445376,'',0.471238898038,0.479965544298,0.0241151546927,0.00872664625997,0.001,43.6332312999,-5000.0,0.0,0.0,0.0
1513267021390356378,,694392,,1513267019,575445376,'',0.471238898038,0.478308586148,-0.00955266206243,0.00706968810934,0.001,35.3484405467,-5000.0,0.0,0.0,0.0
1513267021400280855,,694393,,1513267019,585445376,'',0.471238898038,0.478308586148,-0.0113784700514,0.00706968810934,0.001,35.3484405467,-5000.0,0.0,0.0,0.0
1513267021410273834,,694394,,1513267019,595445376,'',0.471238898038,0.479965544298,0.0224234298044,0.00872664625997,0.001,43.6332312999,-5000.0,0.0,0.0,0.0
1513267021420708645,,694395,,1513267019,605445376,'',0.471238898038,0.478308586148,-0.00904757056606,0.00706968810934,0.001,35.3484405467,-5000.0,0.0,0.0,0.0
1513267021430629517,,694396,,1513267019,615445376,'',0.471238898038,0.478308586148,-0.0098018519876,0.00706968810934,0.001,35.3484405467,-5000.0,0.0,0.0,0.0
1513267021440402679,,694397,,1513267019,625445376,'',0.471238898038,0.478308586148,-0.00795971401297,0.00706968810934,0.001,35.3484405467,-5000.0,0.0,0.0,0.0
1513267021450311875,,694398,,1513267019,635445376,'',0.471238898038,0.478308586148,-0.00777869523767,0.00706968810934,0.001,35.3484405467,-5000.0,0.0,0.0,0.0
1513267021460762192,,694399,,1513267019,645445376,'',0.471238898038,0.479965544298,0.0251986969869,0.00872664625997,0.001,43.6332312999,-5000.0,0.0,0.0,0.0
1513267021470606436,,694400,,1513267019,655445376,'',0.471238898038,0.476651627997,-0.0408431861245,0.00541272995872,0.001,27.0636497936,-5000.0,0.0,0.0,0.0
1513267021480523607,,694401,,1513267019,665445376,'',0.471238898038,0.479965544298,0.025536605815,0.00872664625997,0.001,43.6332312999,-5000.0,0.0,0.0,0.0
1513267021490492706,,694402,,1513267019,675445376,'',0.471238898038,0.478308586148,-0.00528639857825,0.00706968810934,0.001,35.3484405467,-5000.0,0.0,0.0,0.0
1513267021500443839,,694403,,1513267019,685445376,'',0.471238898038,0.478308586148,-0.00605229217054,0.00706968810934,0.001,35.3484405467,-5000.0,0.0,0.0,0.0
1513267021510333708,,694404,,1513267019,695445376,'',0.471238898038,0.478308586148,-0.00669168485637,0.00706968810934,0.001,35.3484405467,-5000.0,0.0,0.0,0.0
1513267021520751767,,694405,,1513267019,705445376,'',0.471238898038,0.478308586148,-0.00536358979361,0.00706968810934,0.001,35.3484405467,-5000.0,0.0,0.0,0.0
1513267021530622311,,694406,,1513267019,715445376,'',0.471238898038,0.479965544298,0.0290373447713,0.00872664625997,0.001,43.6332312999,-5000.0,0.0,0.0,0.0
1513267021540618699,,694407,,1513267019,725445376,'',0.471238898038,0.478308586148,-0.00664140228088,0.00706968810934,0.001,35.3484405467,-5000.0,0.0,0.0,0.0
1513267021550551904,,694408,,1513267019,735445376,'',0.471238898038,0.479965544298,0.0231399755333,0.00872664625997,0.001,43.6332312999,-5000.0,0.0,0.0,0.0
1513267021560366750,,694409,,1513267019,745445376,'',0.471238898038,0.478308586148,-0.00906914696812,0.00706968810934,0.001,35.3484405467,-5000.0,0.0,0.0,0.0
1513267021570828815,,694410,,1513267019,755445376,'',0.471238898038,0.478308586148,-0.00867107705071,0.00706968810934,0.001,35.3484405467,-5000.0,0.0,0.0,0.0
1513267021580773842,,694411,,1513267019,765445376,'',0.471238898038,0.479965544298,0.0250848032697,0.00872664625997,0.001,43.6332312999,-5000.0,0.0,0.0,0.0
1513267021590654582,,694412,,1513267019,775445376,'',0.471238898038,0.478308586148,-0.00680545165104,0.00706968810934,0.001,35.3484405467,-5000.0,0.0,0.0,0.0
1513267021600557292,,694413,,1513267019,785445376,'',0.471238898038,0.478308586148,-0.00614365891415,0.00706968810934,0.001,35.3484405467,-5000.0,0.0,0.0,0.0
1513267021610534261,,694414,,1513267019,795445376,'',0.471238898038,0.478308586148,-0.00502940387643,0.00706968810934,0.001,35.3484405467,-5000.0,0.0,0.0,0.0
1513267021620383541,,694415,,1513267019,805445376,'',0.471238898038,0.479965544298,0.0275235897258,0.00872664625997,0.001,43.6332312999,-5000.0,0.0,0.0,0.0
1513267021630251206,,694416,,1513267019,815445376,'',0.471238898038,0.478308586148,-0.00605138002808,0.00706968810934,0.001,35.3484405467,-5000.0,0.0,0.0,0.0
1513267021640334613,,694417,,1513267019,825445376,'',0.471238898038,0.479965544298,0.0254731370011,0.00872664625997,0.001,43.6332312999,-5000.0,0.0,0.0,0.0
1513267021650853951,,694418,,1513267019,835445376,'',0.471238898038,0.476651627997,-0.0405848822417,0.00541272995872,0.001,27.0636497936,-5000.0,0.0,0.0,0.0
1513267021660746832,,694419,,1513267019,845445376,'',0.471238898038,0.478308586148,-0.00700344746988,0.00706968810934,0.001,35.3484405467,-5000.0,0.0,0.0,0.0
1513267021670762546,,694420,,1513267019,855445376,'',0.471238898038,0.479965544298,0.0264902565946,0.00872664625997,0.001,43.6332312999,-5000.0,0.0,0.0,0.0
1513267021680544212,,694421,,1513267019,865445376,'',0.471238898038,0.476651627997,-0.0384671690353,0.00541272995872,0.001,27.0636497936,-5000.0,0.0,0.0,0.0
1513267021690657372,,694422,,1513267019,875445376,'',0.471238898038,0.479965544298,0.0281426225641,0.00872664625997,0.001,43.6332312999,-5000.0,0.0,0.0,0.0
1513267021700587997,,694423,,1513267019,885445376,'',0.471238898038,0.478308586148,-0.00497931474395,0.00706968810934,0.001,35.3484405467,-5000.0,0.0,0.0,0.0
1513267021710494112,,694424,,1513267019,895445376,'',0.471238898038,0.478308586148,-0.0046535000838,0.00706968810934,0.001,35.3484405467,-5000.0,0.0,0.0,0.0
1513267021720605461,,694425,,1513267019,905445376,'',0.471238898038,0.478308586148,-0.00745422395267,0.00706968810934,0.001,35.3484405467,-5000.0,0.0,0.0,0.0
1513267021730590307,,694426,,1513267019,915445376,'',0.471238898038,0.479965544298,0.0260952364616,0.00872664625997,0.001,43.6332312999,-5000.0,0.0,0.0,0.0
1513267021740693301,,694427,,1513267019,925445376,'',0.471238898038,0.478308586148,-0.00603775580114,0.00706968810934,0.001,35.3484405467,-5000.0,0.0,0.0,0.0
1513267021750449101,,694428,,1513267019,935445376,'',0.471238898038,0.478308586148,-0.00611548366471,0.00706968810934,0.001,35.3484405467,-5000.0,0.0,0.0,0.0
1513267021760574874,,694429,,1513267019,945445376,'',0.471238898038,0.478308586148,-0.00627978238475,0.00706968810934,0.001,35.3484405467,-5000.0,0.0,0.0,0.0
1513267021770380170,,694430,,1513267019,955445376,'',0.471238898038,0.478308586148,-0.0051387770312,0.00706968810934,0.001,35.3484405467,-5000.0,0.0,0.0,0.0
1513267021780831297,,694431,,1513267019,965445376,'',0.471238898038,0.478308586148,-0.00532765280868,0.00706968810934,0.001,35.3484405467,-5000.0,0.0,0.0,0.0
1513267021790725626,,694432,,1513267019,975445376,'',0.471238898038,0.478308586148,-0.0049318161926,0.00706968810934,0.001,35.3484405467,-5000.0,0.0,0.0,0.0
1513267021800620009,,694433,,1513267019,985445376,'',0.471238898038,0.478308586148,-0.00393523469115,0.00706968810934,0.001,35.3484405467,-5000.0,0.0,0.0,0.0
1513267021810602292,,694434,,1513267019,995445376,'',0.471238898038,0.478308586148,-0.00444078483111,0.00706968810934,0.001,35.3484405467,-5000.0,0.0,0.0,0.0
1513267021820733716,,694435,,1513267020,5445376,'',0.471238898038,0.478308586148,-0.00422969905192,0.00706968810934,0.001,35.3484405467,-5000.0,0.0,0.0,0.0
1513267021830645252,,694436,,1513267020,15445376,'',0.471238898038,0.478308586148,-0.00221304334793,0.00706968810934,0.001,35.3484405467,-5000.0,0.0,0.0,0.0
1513267021840668566,,694437,,1513267020,25445376,'',0.471238898038,0.478308586148,-0.00236006073901,0.00706968810934,0.001,35.3484405467,-5000.0,0.0,0.0,0.0
1513267021850496522,,694438,,1513267020,35445376,'',0.471238898038,0.478308586148,-0.00136630094925,0.00706968810934,0.001,35.3484405467,-5000.0,0.0,0.0,0.0
1513267021860396754,,694439,,1513267020,45445376,'',0.471238898038,0.479965544298,0.0334139187046,0.00872664625997,0.001,43.6332312999,-5000.0,0.0,0.0,0.0
1513267021870377994,,694440,,1513267020,55445376,'',0.471238898038,0.478308586148,0.001232959753,0.00706968810934,0.001,35.3484405467,-5000.0,0.0,0.0,0.0
1513267021880336451,,694441,,1513267020,65445376,'',0.471238898038,0.478308586148,0.00339958109504,0.00706968810934,0.001,35.3484405467,-5000.0,0.0,0.0,0.0
1513267021890235251,,694442,,1513267020,75445376,'',0.471238898038,0.478308586148,0.00399558359025,0.00706968810934,0.001,35.3484405467,-5000.0,0.0,0.0,0.0
1513267021900828355,,694443,,1513267020,85445376,'',0.471238898038,0.478308586148,0.00326946765359,0.00706968810934,0.001,35.3484405467,-5000.0,0.0,0.0,0.0
1513267021910724503,,694444,,1513267020,95445376,'',0.471238898038,0.478308586148,0.00328583368901,0.00706968810934,0.001,35.3484405467,-5000.0,0.0,0.0,0.0
1513267021920720584,,694445,,1513267020,105445376,'',0.471238898038,0.478308586148,0.00274854476034,0.00706968810934,0.001,35.3484405467,-5000.0,0.0,0.0,0.0
1513267021930617531,,694446,,1513267020,115445376,'',0.471238898038,0.478308586148,0.00166797078638,0.00706968810934,0.001,35.3484405467,-5000.0,0.0,0.0,0.0
1513267021940730414,,694447,,1513267020,125445376,'',0.471238898038,0.478308586148,0.00308915294619,0.00706968810934,0.001,35.3484405467,-5000.0,0.0,0.0,0.0
1513267021950688050,,694448,,1513267020,135445376,'',0.471238898038,0.478308586148,0.00243974936269,0.00706968810934,0.001,35.3484405467,-5000.0,0.0,0.0,0.0
1513267021960549482,,694449,,1513267020,145445376,'',0.471238898038,0.476651627997,-0.0294947422932,0.00541272995872,0.001,27.0636497936,-5000.0,0.0,0.0,0.0
1513267021970569633,,694450,,1513267020,155445376,'',0.471238898038,0.478308586148,0.00329825880916,0.00706968810934,0.001,35.3484405467,-5000.0,0.0,0.0,0.0
1513267021980450542,,694451,,1513267020,165445376,'',0.471238898038,0.479965544298,0.034890470154,0.00872664625997,0.001,43.6332312999,-5000.0,0.0,0.0,0.0
1513267021990828867,,694452,,1513267020,175445376,'',0.471238898038,0.478308586148,0.00418503755286,0.00706968810934,0.001,35.3484405467,-5000.0,0.0,0.0,0.0
1513267022000781688,,694453,,1513267020,185445376,'',0.471238898038,0.479965544298,0.0362799734353,0.00872664625997,0.001,43.6332312999,-5000.0,0.0,0.0,0.0
1513267022010780729,,694454,,1513267020,195445376,'',0.471238898038,0.478308586148,0.00412294822484,0.00706968810934,0.001,35.3484405467,-5000.0,0.0,0.0,0.0
1513267022020709471,,694455,,1513267020,205445376,'',0.471238898038,0.478308586148,0.00348971920109,0.00706968810934,0.001,35.3484405467,-5000.0,0.0,0.0,0.0
1513267022030725074,,694456,,1513267020,215445376,'',0.471238898038,0.479965544298,0.0362508837456,0.00872664625997,0.001,43.6332312999,-5000.0,0.0,0.0,0.0
1513267022040597563,,694457,,1513267020,225445376,'',0.471238898038,0.478308586148,0.00104191598427,0.00706968810934,0.001,35.3484405467,-5000.0,0.0,0.0,0.0
1513267022050493070,,694458,,1513267020,235445376,'',0.471238898038,0.476651627997,-0.0307585647111,0.00541272995872,0.001,27.0636497936,-5000.0,0.0,0.0,0.0
1513267022060503566,,694459,,1513267020,245445376,'',0.471238898038,0.479965544298,0.0362188426073,0.00872664625997,0.001,43.6332312999,-5000.0,0.0,0.0,0.0
1513267022070500249,,694460,,1513267020,255445376,'',0.471238898038,0.478308586148,0.00219611038832,0.00706968810934,0.001,35.3484405467,-5000.0,0.0,0.0,0.0
1513267022080388929,,694461,,1513267020,265445376,'',0.471238898038,0.476651627997,-0.0297693714978,0.00541272995872,0.001,27.0636497936,-5000.0,0.0,0.0,0.0
1513267022090392131,,694462,,1513267020,275445376,'',0.471238898038,0.478308586148,0.00256633710146,0.00706968810934,0.001,35.3484405467,-5000.0,0.0,0.0,0.0
1513267022100313162,,694463,,1513267020,285445376,'',0.471238898038,0.478308586148,0.0027152724505,0.00706968810934,0.001,35.3484405467,-5000.0,0.0,0.0,0.0
1513267022110253577,,694464,,1513267020,295445376,'',0.471238898038,0.478308586148,0.00164458514847,0.00706968810934,0.001,35.3484405467,-5000.0,0.0,0.0,0.0
1513267022120321652,,694465,,1513267020,305445376,'',0.471238898038,0.481622502449,0.0645623512955,0.0103836044106,0.001,51.918022053,-5000.0,0.0,0.0,0.0
1513267022130751992,,694466,,1513267020,315445376,'',0.471238898038,0.479965544298,0.0302966728113,0.00872664625997,0.001,43.6332312999,-5000.0,0.0,0.0,0.0
1513267022140715202,,694467,,1513267020,325445376,'',0.471238898038,0.476651627997,-0.0348821011936,0.00541272995872,0.001,27.0636497936,-5000.0,0.0,0.0,0.0
1513267022150699052,,694468,,1513267020,335445376,'',0.471238898038,0.479965544298,0.0311078871928,0.00872664625997,0.001,43.6332312999,-5000.0,0.0,0.0,0.0
1513267022160436661,,694469,,1513267020,345445376,'',0.471238898038,0.476651627997,-0.0352847150595,0.00541272995872,0.001,27.0636497936,-5000.0,0.0,0.0,0.0
1513267022170407562,,694470,,1513267020,355445376,'',0.471238898038,0.476651627997,-0.033166688616,0.00541272995872,0.001,27.0636497936,-5000.0,0.0,0.0,0.0
1513267022180393151,,694471,,1513267020,365445376,'',0.471238898038,0.476651627997,-0.0307480716115,0.00541272995872,0.001,27.0636497936,-5000.0,0.0,0.0,0.0
1513267022190265063,,694472,,1513267020,375445376,'',0.471238898038,0.478308586148,0.00170313216854,0.00706968810934,0.001,35.3484405467,-5000.0,0.0,0.0,0.0
1513267022200697744,,694473,,1513267020,385445376,'',0.471238898038,0.479965544298,0.0342448926467,0.00872664625997,0.001,43.6332312999,-5000.0,0.0,0.0,0.0
1513267022210677017,,694474,,1513267020,395445376,'',0.471238898038,0.478308586148,0.00249977917776,0.00706968810934,0.001,35.3484405467,-5000.0,0.0,0.0,0.0
1513267022220667716,,694475,,1513267020,405445376,'',0.471238898038,0.478308586148,0.00503819258665,0.00706968810934,0.001,35.3484405467,-5000.0,0.0,0.0,0.0
1513267022230478905,,694476,,1513267020,415445376,'',0.471238898038,0.478308586148,0.00581748193751,0.00706968810934,0.001,35.3484405467,-5000.0,0.0,0.0,0.0
1513267022240470501,,694477,,1513267020,425445376,'',0.471238898038,0.478308586148,0.00713555019471,0.00706968810934,0.001,35.3484405467,-5000.0,0.0,0.0,0.0
1513267022250340909,,694478,,1513267020,435445376,'',0.471238898038,0.478308586148,0.00763068153861,0.00706968810934,0.001,35.3484405467,-5000.0,0.0,0.0,0.0
1513267022260383280,,694479,,1513267020,445445376,'',0.471238898038,0.478308586148,0.00866371916228,0.00706968810934,0.001,35.3484405467,-5000.0,0.0,0.0,0.0
1513267022270228474,,694480,,1513267020,455445376,'',0.471238898038,0.478308586148,0.00887489958393,0.00706968810934,0.001,35.3484405467,-5000.0,0.0,0.0,0.0
1513267022280710590,,694481,,1513267020,465445376,'',0.471238898038,0.478308586148,0.0089651133898,0.00706968810934,0.001,35.3484405467,-5000.0,0.0,0.0,0.0
1513267022290694173,,694482,,1513267020,475445376,'',0.471238898038,0.478308586148,0.00859859474349,0.00706968810934,0.001,35.3484405467,-5000.0,0.0,0.0,0.0
1513267022300636441,,694483,,1513267020,485445376,'',0.471238898038,0.478308586148,0.00893985982404,0.00706968810934,0.001,35.3484405467,-5000.0,0.0,0.0,0.0
1513267022310572457,,694484,,1513267020,495445376,'',0.471238898038,0.478308586148,0.0103068042714,0.00706968810934,0.001,35.3484405467,-5000.0,0.0,0.0,0.0
1513267022320587428,,694485,,1513267020,505445376,'',0.471238898038,0.478308586148,0.0108350367069,0.00706968810934,0.001,35.3484405467,-5000.0,0.0,0.0,0.0
1513267022330552969,,694486,,1513267020,515445376,'',0.471238898038,0.478308586148,0.0105762545014,0.00706968810934,0.001,35.3484405467,-5000.0,0.0,0.0,0.0
1513267022340423164,,694487,,1513267020,525445376,'',0.471238898038,0.476651627997,-0.0235963083855,0.00541272995872,0.001,27.0636497936,-5000.0,0.0,0.0,0.0
1513267022350320767,,694488,,1513267020,535445376,'',0.471238898038,0.478308586148,0.00982629203811,0.00706968810934,0.001,35.3484405467,-5000.0,0.0,0.0,0.0
1513267022360332786,,694489,,1513267020,545445376,'',0.471238898038,0.478308586148,0.0110712767577,0.00706968810934,0.001,35.3484405467,-5000.0,0.0,0.0,0.0
1513267022370709368,,694490,,1513267020,555445376,'',0.471238898038,0.478308586148,0.0103089660287,0.00706968810934,0.001,35.3484405467,-5000.0,0.0,0.0,0.0
1513267022380734263,,694491,,1513267020,565445376,'',0.471238898038,0.478308586148,0.0114509118533,0.00706968810934,0.001,35.3484405467,-5000.0,0.0,0.0,0.0
1513267022390655726,,694492,,1513267020,575445376,'',0.471238898038,0.476651627997,-0.0221520629555,0.00541272995872,0.001,27.0636497936,-5000.0,0.0,0.0,0.0
1513267022400606140,,694493,,1513267020,585445376,'',0.471238898038,0.476651627997,-0.0218067428111,0.00541272995872,0.001,27.0636497936,-5000.0,0.0,0.0,0.0
1513267022410526896,,694494,,1513267020,595445376,'',0.471238898038,0.478308586148,0.00956516860678,0.00706968810934,0.001,35.3484405467,-5000.0,0.0,0.0,0.0
1513267022420403444,,694495,,1513267020,605445376,'',0.471238898038,0.476651627997,-0.0231453862558,0.00541272995872,0.001,27.0636497936,-5000.0,0.0,0.0,0.0
1513267022430366667,,694496,,1513267020,615445376,'',0.471238898038,0.478308586148,0.00957453688328,0.00706968810934,0.001,35.3484405467,-5000.0,0.0,0.0,0.0
1513267022440327456,,694497,,1513267020,625445376,'',0.471238898038,0.479965544298,0.0430402072281,0.00872664625997,0.001,43.6332312999,-5000.0,0.0,0.0,0.0
1513267022450797443,,694498,,1513267020,635445376,'',0.471238898038,0.478308586148,0.00964772923861,0.00706968810934,0.001,35.3484405467,-5000.0,0.0,0.0,0.0
1513267022460735774,,694499,,1513267020,645445376,'',0.471238898038,0.478308586148,0.010393834285,0.00706968810934,0.001,35.3484405467,-5000.0,0.0,0.0,0.0
1513267022470661845,,694500,,1513267020,655445376,'',0.471238898038,0.478308586148,0.0096018642066,0.00706968810934,0.001,35.3484405467,-5000.0,0.0,0.0,0.0
1513267022480428202,,694501,,1513267020,665445376,'',0.471238898038,0.476651627997,-0.0231600840888,0.00541272995872,0.001,27.0636497936,-5000.0,0.0,0.0,0.0
1513267022490298704,,694502,,1513267020,675445376,'',0.471238898038,0.476651627997,-0.022537644796,0.00541272995872,0.001,27.0636497936,-5000.0,0.0,0.0,0.0
1513267022500298392,,694503,,1513267020,685445376,'',0.471238898038,0.478308586148,0.011448434944,0.00706968810934,0.001,35.3484405467,-5000.0,0.0,0.0,0.0
1513267022510668357,,694504,,1513267020,695445376,'',0.471238898038,0.478308586148,0.0105733114481,0.00706968810934,0.001,35.3484405467,-5000.0,0.0,0.0,0.0
1513267022520646942,,694505,,1513267020,705445376,'',0.471238898038,0.476651627997,-0.0224464896463,0.00541272995872,0.001,27.0636497936,-5000.0,0.0,0.0,0.0
1513267022530497434,,694506,,1513267020,715445376,'',0.471238898038,0.476651627997,-0.0213831852194,0.00541272995872,0.001,27.0636497936,-5000.0,0.0,0.0,0.0
1513267022540440810,,694507,,1513267020,725445376,'',0.471238898038,0.478308586148,0.0135330061214,0.00706968810934,0.001,35.3484405467,-5000.0,0.0,0.0,0.0
1513267022550376019,,694508,,1513267020,735445376,'',0.471238898038,0.478308586148,0.0134142763289,0.00706968810934,0.001,35.3484405467,-5000.0,0.0,0.0,0.0
1513267022560320218,,694509,,1513267020,745445376,'',0.471238898038,0.476651627997,-0.0181946828914,0.00541272995872,0.001,27.0636497936,-5000.0,0.0,0.0,0.0
1513267022570719670,,694510,,1513267020,755445376,'',0.471238898038,0.478308586148,0.0161410112176,0.00706968810934,0.001,35.3484405467,-5000.0,0.0,0.0,0.0
1513267022580783565,,694511,,1513267020,765445376,'',0.471238898038,0.476651627997,-0.0188899342836,0.00541272995872,0.001,27.0636497936,-5000.0,0.0,0.0,0.0
1513267022590567413,,694512,,1513267020,775445376,'',0.471238898038,0.476651627997,-0.0184576934883,0.00541272995872,0.001,27.0636497936,-5000.0,0.0,0.0,0.0
1513267022600249031,,694513,,1513267020,785445376,'',0.471238898038,0.476651627997,-0.0168975250589,0.00541272995872,0.001,27.0636497936,-5000.0,0.0,0.0,0.0
1513267022610731615,,694514,,1513267020,795445376,'',0.471238898038,0.478308586148,0.0165651652602,0.00706968810934,0.001,35.3484405467,-5000.0,0.0,0.0,0.0
1513267022620717241,,694515,,1513267020,805445376,'',0.471238898038,0.476651627997,-0.0162336530304,0.00541272995872,0.001,27.0636497936,-5000.0,0.0,0.0,0.0
1513267022630550693,,694516,,1513267020,815445376,'',0.471238898038,0.476651627997,-0.0156883839376,0.00541272995872,0.001,27.0636497936,-5000.0,0.0,0.0,0.0
1513267022640460618,,694517,,1513267020,825445376,'',0.471238898038,0.478308586148,0.0163791460051,0.00706968810934,0.001,35.3484405467,-5000.0,0.0,0.0,0.0
1513267022650447668,,694518,,1513267020,835445376,'',0.471238898038,0.478308586148,0.0163479717294,0.00706968810934,0.001,35.3484405467,-5000.0,0.0,0.0,0.0
1513267022660471035,,694519,,1513267020,845445376,'',0.471238898038,0.476651627997,-0.014592341551,0.00541272995872,0.001,27.0636497936,-5000.0,0.0,0.0,0.0
1513267022670518643,,694520,,1513267020,855445376,'',0.471238898038,0.478308586148,0.018465051801,0.00706968810934,0.001,35.3484405467,-5000.0,0.0,0.0,0.0
1513267022680283465,,694521,,1513267020,865445376,'',0.471238898038,0.476651627997,-0.0159095504098,0.00541272995872,0.001,27.0636497936,-5000.0,0.0,0.0,0.0
1513267022690322649,,694522,,1513267020,875445376,'',0.471238898038,0.476651627997,-0.0166605016471,0.00541272995872,0.001,27.0636497936,-5000.0,0.0,0.0,0.0
1513267022700762526,,694523,,1513267020,885445376,'',0.471238898038,0.478308586148,0.0167675727553,0.00706968810934,0.001,35.3484405467,-5000.0,0.0,0.0,0.0
1513267022710687981,,694524,,1513267020,895445376,'',0.471238898038,0.476651627997,-0.0156035727792,0.00541272995872,0.001,27.0636497936,-5000.0,0.0,0.0,0.0
1513267022720617898,,694525,,1513267020,905445376,'',0.471238898038,0.478308586148,0.0175398365029,0.00706968810934,0.001,35.3484405467,-5000.0,0.0,0.0,0.0
1513267022730707864,,694526,,1513267020,915445376,'',0.471238898038,0.476651627997,-0.014842684638,0.00541272995872,0.001,27.0636497936,-5000.0,0.0,0.0,0.0
1513267022740520220,,694527,,1513267020,925445376,'',0.471238898038,0.478308586148,0.0200062709758,0.00706968810934,0.001,35.3484405467,-5000.0,0.0,0.0,0.0
1513267022750510153,,694528,,1513267020,935445376,'',0.471238898038,0.476651627997,-0.0133235455102,0.00541272995872,0.001,27.0636497936,-5000.0,0.0,0.0,0.0
1513267022760472139,,694529,,1513267020,945445376,'',0.471238898038,0.476651627997,-0.0144416694492,0.00541272995872,0.001,27.0636497936,-5000.0,0.0,0.0,0.0
1513267022770391167,,694530,,1513267020,955445376,'',0.471238898038,0.476651627997,-0.0141018638719,0.00541272995872,0.001,27.0636497936,-5000.0,0.0,0.0,0.0
1513267022780512293,,694531,,1513267020,965445376,'',0.471238898038,0.476651627997,-0.0127884686789,0.00541272995872,0.001,27.0636497936,-5000.0,0.0,0.0,0.0
1513267022790698377,,694532,,1513267020,975445376,'',0.471238898038,0.478308586148,0.0193229173252,0.00706968810934,0.001,35.3484405467,-5000.0,0.0,0.0,0.0
1513267022800555923,,694533,,1513267020,985445376,'',0.471238898038,0.478308586148,0.0187810367023,0.00706968810934,0.001,35.3484405467,-5000.0,0.0,0.0,0.0
1513267022810343065,,694534,,1513267020,995445376,'',0.471238898038,0.478308586148,0.0207332733746,0.00706968810934,0.001,35.3484405467,-5000.0,0.0,0.0,0.0
1513267022820340685,,694535,,1513267021,5445376,'',0.471238898038,0.478308586148,0.0200185934888,0.00706968810934,0.001,35.3484405467,-5000.0,0.0,0.0,0.0
1513267022830746383,,694536,,1513267021,15445376,'',0.471238898038,0.476651627997,-0.0145721306223,0.00541272995872,0.001,27.0636497936,-5000.0,0.0,0.0,0.0
1513267022840661306,,694537,,1513267021,25445376,'',0.471238898038,0.476651627997,-0.0124414552586,0.00541272995872,0.001,27.0636497936,-5000.0,0.0,0.0,0.0
1513267022850515936,,694538,,1513267021,35445376,'',0.471238898038,0.476651627997,-0.0125578169413,0.00541272995872,0.001,27.0636497936,-5000.0,0.0,0.0,0.0
1513267022860332673,,694539,,1513267021,45445376,'',0.471238898038,0.476651627997,-0.0115336846001,0.00541272995872,0.001,27.0636497936,-5000.0,0.0,0.0,0.0
1513267022870475449,,694540,,1513267021,55445376,'',0.471238898038,0.476651627997,-0.0118829091514,0.00541272995872,0.001,27.0636497936,-5000.0,0.0,0.0,0.0
1513267022880665549,,694541,,1513267021,65445376,'',0.471238898038,0.478308586148,0.0231920481084,0.00706968810934,0.001,35.3484405467,-5000.0,0.0,0.0,0.0
1513267022890526184,,694542,,1513267021,75445376,'',0.471238898038,0.476651627997,-0.0102983729332,0.00541272995872,0.001,27.0636497936,-5000.0,0.0,0.0,0.0
1513267022900454798,,694543,,1513267021,85445376,'',0.471238898038,0.478308586148,0.0231746744711,0.00706968810934,0.001,35.3484405467,-5000.0,0.0,0.0,0.0
1513267022910546199,,694544,,1513267021,95445376,'',0.471238898038,0.478308586148,0.0245405857849,0.00706968810934,0.001,35.3484405467,-5000.0,0.0,0.0,0.0
1513267022920406287,,694545,,1513267021,105445376,'',0.471238898038,0.476651627997,-0.00853708392968,0.00541272995872,0.001,27.0636497936,-5000.0,0.0,0.0,0.0
1513267022930841725,,694546,,1513267021,115445376,'',0.471238898038,0.476651627997,-0.00758776012098,0.00541272995872,0.001,27.0636497936,-5000.0,0.0,0.0,0.0
1513267022940802581,,694547,,1513267021,125445376,'',0.471238898038,0.474994669847,-0.0395835171173,0.00375577180809,0.001,18.7788590404,-5000.0,0.0,0.0,0.0
1513267022950724911,,694548,,1513267021,135445376,'',0.471238898038,0.476651627997,-0.0055725439145,0.00541272995872,0.001,27.0636497936,-5000.0,0.0,0.0,0.0
1513267022960836824,,694549,,1513267021,145445376,'',0.471238898038,0.478308586148,0.0247306356053,0.00706968810934,0.001,35.3484405467,-5000.0,0.0,0.0,0.0
1513267022970701990,,694550,,1513267021,155445376,'',0.471238898038,0.476651627997,-0.00885839354921,0.00541272995872,0.001,27.0636497936,-5000.0,0.0,0.0,0.0
1513267022980587529,,694551,,1513267021,165445376,'',0.471238898038,0.478308586148,0.0244378261128,0.00706968810934,0.001,35.3484405467,-5000.0,0.0,0.0,0.0
1513267022990496249,,694552,,1513267021,175445376,'',0.471238898038,0.476651627997,-0.00975030023003,0.00541272995872,0.001,27.0636497936,-5000.0,0.0,0.0,0.0
1513267023000451218,,694553,,1513267021,185445376,'',0.471238898038,0.476651627997,-0.00919845375072,0.00541272995872,0.001,27.0636497936,-5000.0,0.0,0.0,0.0
1513267023010362979,,694554,,1513267021,195445376,'',0.471238898038,0.476651627997,-0.00754877131148,0.00541272995872,0.001,27.0636497936,-5000.0,0.0,0.0,0.0
1513267023020326206,,694555,,1513267021,205445376,'',0.471238898038,0.476651627997,-0.00684527880874,0.00541272995872,0.001,27.0636497936,-5000.0,0.0,0.0,0.0
1513267023030332729,,694556,,1513267021,215445376,'',0.471238898038,0.476651627997,-0.00745098080121,0.00541272995872,0.001,27.0636497936,-5000.0,0.0,0.0,0.0
1513267023040720459,,694557,,1513267021,225445376,'',0.471238898038,0.476651627997,-0.00672084523971,0.00541272995872,0.001,27.0636497936,-5000.0,0.0,0.0,0.0
1513267023050701502,,694558,,1513267021,235445376,'',0.471238898038,0.478308586148,0.0243421409858,0.00706968810934,0.001,35.3484405467,-5000.0,0.0,0.0,0.0
1513267023060653215,,694559,,1513267021,245445376,'',0.471238898038,0.478308586148,0.0236053487716,0.00706968810934,0.001,35.3484405467,-5000.0,0.0,0.0,0.0
1513267023070462308,,694560,,1513267021,255445376,'',0.471238898038,0.476651627997,-0.00929048022367,0.00541272995872,0.001,27.0636497936,-5000.0,0.0,0.0,0.0
1513267023080786096,,694561,,1513267021,265445376,'',0.471238898038,0.476651627997,-0.00879934172402,0.00541272995872,0.001,27.0636497936,-5000.0,0.0,0.0,0.0
1513267023090835829,,694562,,1513267021,275445376,'',0.471238898038,0.478308586148,0.0243701269972,0.00706968810934,0.001,35.3484405467,-5000.0,0.0,0.0,0.0
1513267023100710408,,694563,,1513267021,285445376,'',0.471238898038,0.476651627997,-0.00747439148709,0.00541272995872,0.001,27.0636497936,-5000.0,0.0,0.0,0.0
1513267023110711956,,694564,,1513267021,295445376,'',0.471238898038,0.478308586148,0.0248970605564,0.00706968810934,0.001,35.3484405467,-5000.0,0.0,0.0,0.0
1513267023120619999,,694565,,1513267021,305445376,'',0.471238898038,0.476651627997,-0.00759912738335,0.00541272995872,0.001,27.0636497936,-5000.0,0.0,0.0,0.0
1513267023130559295,,694566,,1513267021,315445376,'',0.471238898038,0.476651627997,-0.00868077893163,0.00541272995872,0.001,27.0636497936,-5000.0,0.0,0.0,0.0
1513267023140539543,,694567,,1513267021,325445376,'',0.471238898038,0.478308586148,0.0231902999431,0.00706968810934,0.001,35.3484405467,-5000.0,0.0,0.0,0.0
1513267023150521418,,694568,,1513267021,335445376,'',0.471238898038,0.476651627997,-0.0102427151071,0.00541272995872,0.001,27.0636497936,-5000.0,0.0,0.0,0.0
1513267023160315890,,694569,,1513267021,345445376,'',0.471238898038,0.476651627997,-0.00833073938843,0.00541272995872,0.001,27.0636497936,-5000.0,0.0,0.0,0.0
1513267023170623751,,694570,,1513267021,355445376,'',0.471238898038,0.476651627997,-0.00916238605122,0.00541272995872,0.001,27.0636497936,-5000.0,0.0,0.0,0.0
1513267023180508824,,694571,,1513267021,365445376,'',0.471238898038,0.476651627997,-0.00626262644849,0.00541272995872,0.001,27.0636497936,-5000.0,0.0,0.0,0.0
1513267023190550278,,694572,,1513267021,375445376,'',0.471238898038,0.476651627997,-0.00441861012834,0.00541272995872,0.001,27.0636497936,-5000.0,0.0,0.0,0.0
1513267023200486266,,694573,,1513267021,385445376,'',0.471238898038,0.478308586148,0.0286415325269,0.00706968810934,0.001,35.3484405467,-5000.0,0.0,0.0,0.0
1513267023210455989,,694574,,1513267021,395445376,'',0.471238898038,0.476651627997,-0.00341837703099,0.00541272995872,0.001,27.0636497936,-5000.0,0.0,0.0,0.0
1513267023220688846,,694575,,1513267021,405445376,'',0.471238898038,0.476651627997,-0.00281002560225,0.00541272995872,0.001,27.0636497936,-5000.0,0.0,0.0,0.0
1513267023230653872,,694576,,1513267021,415445376,'',0.471238898038,0.476651627997,-0.00236377044493,0.00541272995872,0.001,27.0636497936,-5000.0,0.0,0.0,0.0
1513267023240681751,,694577,,1513267021,425445376,'',0.471238898038,0.476651627997,-0.00372222239896,0.00541272995872,0.001,27.0636497936,-5000.0,0.0,0.0,0.0
1513267023250541909,,694578,,1513267021,435445376,'',0.471238898038,0.476651627997,-0.00309517847904,0.00541272995872,0.001,27.0636497936,-5000.0,0.0,0.0,0.0
1513267023260525804,,694579,,1513267021,445445376,'',0.471238898038,0.476651627997,-0.00309428657049,0.00541272995872,0.001,27.0636497936,-5000.0,0.0,0.0,0.0
1513267023270531968,,694580,,1513267021,455445376,'',0.471238898038,0.478308586148,0.0284149887143,0.00706968810934,0.001,35.3484405467,-5000.0,0.0,0.0,0.0
1513267023280577128,,694581,,1513267021,465445376,'',0.471238898038,0.476651627997,-0.0059508387348,0.00541272995872,0.001,27.0636497936,-5000.0,0.0,0.0,0.0
1513267023290461219,,694582,,1513267021,475445376,'',0.471238898038,0.474994669847,-0.0394516022388,0.00375577180809,0.001,18.7788590404,-5000.0,0.0,0.0,0.0
1513267023300410066,,694583,,1513267021,485445376,'',0.471238898038,0.478308586148,0.0285694819994,0.00706968810934,0.001,35.3484405467,-5000.0,0.0,0.0,0.0
1513267023310384727,,694584,,1513267021,495445376,'',0.471238898038,0.476651627997,-0.00582060246812,0.00541272995872,0.001,27.0636497936,-5000.0,0.0,0.0,0.0
1513267023320506416,,694585,,1513267021,505445376,'',0.471238898038,0.476651627997,-0.00654949245317,0.00541272995872,0.001,27.0636497936,-5000.0,0.0,0.0,0.0
1513267023330424496,,694586,,1513267021,515445376,'',0.471238898038,0.474994669847,-0.0382526172602,0.00375577180809,0.001,18.7788590404,-5000.0,0.0,0.0,0.0
1513267023340415602,,694587,,1513267021,525445376,'',0.471238898038,0.476651627997,-0.00558717203265,0.00541272995872,0.001,27.0636497936,-5000.0,0.0,0.0,0.0
1513267023350213522,,694588,,1513267021,535445376,'',0.471238898038,0.476651627997,-0.00519584010201,0.00541272995872,0.001,27.0636497936,-5000.0,0.0,0.0,0.0
1513267023360828331,,694589,,1513267021,545445376,'',0.471238898038,0.476651627997,-0.00304089971562,0.00541272995872,0.001,27.0636497936,-5000.0,0.0,0.0,0.0
1513267023370802544,,694590,,1513267021,555445376,'',0.471238898038,0.476651627997,-0.00362854461038,0.00541272995872,0.001,27.0636497936,-5000.0,0.0,0.0,0.0
1513267023380601778,,694591,,1513267021,565445376,'',0.471238898038,0.474994669847,-0.0351891202776,0.00375577180809,0.001,18.7788590404,-5000.0,0.0,0.0,0.0
1513267023390562752,,694592,,1513267021,575445376,'',0.471238898038,0.476651627997,-0.00203277311754,0.00541272995872,0.001,27.0636497936,-5000.0,0.0,0.0,0.0
1513267023400496804,,694593,,1513267021,585445376,'',0.471238898038,0.476651627997,-0.0004632004076,0.00541272995872,0.001,27.0636497936,-5000.0,0.0,0.0,0.0
1513267023410282856,,694594,,1513267021,595445376,'',0.471238898038,0.476651627997,0.000251354753519,0.00541272995872,0.001,27.0636497936,-5000.0,0.0,0.0,0.0
1513267023420788358,,694595,,1513267021,605445376,'',0.471238898038,0.476651627997,0.000833475112862,0.00541272995872,0.001,27.0636497936,-5000.0,0.0,0.0,0.0
1513267023430814319,,694596,,1513267021,615445376,'',0.471238898038,0.476651627997,0.0012421012967,0.00541272995872,0.001,27.0636497936,-5000.0,0.0,0.0,0.0
1513267023440681073,,694597,,1513267021,625445376,'',0.471238898038,0.474994669847,-0.0317671345325,0.00375577180809,0.001,18.7788590404,-5000.0,0.0,0.0,0.0
1513267023450541405,,694598,,1513267021,635445376,'',0.471238898038,0.478308586148,0.0353063410292,0.00706968810934,0.001,35.3484405467,-5000.0,0.0,0.0,0.0
1513267023460596678,,694599,,1513267021,645445376,'',0.471238898038,0.476651627997,0.00214617443862,0.00541272995872,0.001,27.0636497936,-5000.0,0.0,0.0,0.0
1513267023470510243,,694600,,1513267021,655445376,'',0.471238898038,0.476651627997,0.00242709552323,0.00541272995872,0.001,27.0636497936,-5000.0,0.0,0.0,0.0
1513267023480394530,,694601,,1513267021,665445376,'',0.471238898038,0.474994669847,-0.0307967075013,0.00375577180809,0.001,18.7788590404,-5000.0,0.0,0.0,0.0
1513267023490628296,,694602,,1513267021,675445376,'',0.471238898038,0.476651627997,0.00230153949404,0.00541272995872,0.001,27.0636497936,-5000.0,0.0,0.0,0.0
1513267023500669488,,694603,,1513267021,685445376,'',0.471238898038,0.476651627997,0.0024995141153,0.00541272995872,0.001,27.0636497936,-5000.0,0.0,0.0,0.0
1513267023510664208,,694604,,1513267021,695445376,'',0.471238898038,0.476651627997,0.00506156931748,0.00541272995872,0.001,27.0636497936,-5000.0,0.0,0.0,0.0
1513267023520593071,,694605,,1513267021,705445376,'',0.471238898038,0.474994669847,-0.0274492346932,0.00375577180809,0.001,18.7788590404,-5000.0,0.0,0.0,0.0
1513267023530561020,,694606,,1513267021,715445376,'',0.471238898038,0.476651627997,0.00555894434565,0.00541272995872,0.001,27.0636497936,-5000.0,0.0,0.0,0.0
1513267023540475333,,694607,,1513267021,725445376,'',0.471238898038,0.474994669847,-0.0288746533259,0.00375577180809,0.001,18.7788590404,-5000.0,0.0,0.0,0.0
1513267023550812265,,694608,,1513267021,735445376,'',0.471238898038,0.478308586148,0.0389298539273,0.00706968810934,0.001,35.3484405467,-5000.0,0.0,0.0,0.0
1513267023560632041,,694609,,1513267021,745445376,'',0.471238898038,0.476651627997,0.00565404951885,0.00541272995872,0.001,27.0636497936,-5000.0,0.0,0.0,0.0
1513267023570586627,,694610,,1513267021,755445376,'',0.471238898038,0.476651627997,0.00696642160874,0.00541272995872,0.001,27.0636497936,-5000.0,0.0,0.0,0.0
1513267023580481191,,694611,,1513267021,765445376,'',0.471238898038,0.474994669847,-0.0259108269335,0.00375577180809,0.001,18.7788590404,-5000.0,0.0,0.0,0.0
1513267023590450101,,694612,,1513267021,775445376,'',0.471238898038,0.474994669847,-0.026636824293,0.00375577180809,0.001,18.7788590404,-5000.0,0.0,0.0,0.0
1513267023600354884,,694613,,1513267021,785445376,'',0.471238898038,0.476651627997,0.00441835632768,0.00541272995872,0.001,27.0636497936,-5000.0,0.0,0.0,0.0
1513267023610727282,,694614,,1513267021,795445376,'',0.471238898038,0.478308586148,0.0357726423135,0.00706968810934,0.001,35.3484405467,-5000.0,0.0,0.0,0.0
1513267023620685983,,694615,,1513267021,805445376,'',0.471238898038,0.476651627997,0.00433632331982,0.00541272995872,0.001,27.0636497936,-5000.0,0.0,0.0,0.0
1513267023630557947,,694616,,1513267021,815445376,'',0.471238898038,0.476651627997,0.00482517755204,0.00541272995872,0.001,27.0636497936,-5000.0,0.0,0.0,0.0
1513267023640553991,,694617,,1513267021,825445376,'',0.471238898038,0.476651627997,0.00215398149979,0.00541272995872,0.001,27.0636497936,-5000.0,0.0,0.0,0.0
1513267023650491785,,694618,,1513267021,835445376,'',0.471238898038,0.476651627997,0.00353393042107,0.00541272995872,0.001,27.0636497936,-5000.0,0.0,0.0,0.0
1513267023660388514,,694619,,1513267021,845445376,'',0.471238898038,0.476651627997,0.00348303038491,0.00541272995872,0.001,27.0636497936,-5000.0,0.0,0.0,0.0
1513267023670420690,,694620,,1513267021,855445376,'',0.471238898038,0.476651627997,0.00467826410059,0.00541272995872,0.001,27.0636497936,-5000.0,0.0,0.0,0.0
1513267023680456711,,694621,,1513267021,865445376,'',0.471238898038,0.476651627997,0.00511706747299,0.00541272995872,0.001,27.0636497936,-5000.0,0.0,0.0,0.0
1513267023690787789,,694622,,1513267021,875445376,'',0.471238898038,0.476651627997,0.00425505006266,0.00541272995872,0.001,27.0636497936,-5000.0,0.0,0.0,0.0
1513267023700686856,,694623,,1513267021,885445376,'',0.471238898038,0.476651627997,0.00406959253463,0.00541272995872,0.001,27.0636497936,-5000.0,0.0,0.0,0.0
1513267023710700994,,694624,,1513267021,895445376,'',0.471238898038,0.476651627997,0.00463620833583,0.00541272995872,0.001,27.0636497936,-5000.0,0.0,0.0,0.0
1513267023720671574,,694625,,1513267021,905445376,'',0.471238898038,0.476651627997,0.00433963375809,0.00541272995872,0.001,27.0636497936,-5000.0,0.0,0.0,0.0
1513267023730675343,,694626,,1513267021,915445376,'',0.471238898038,0.476651627997,0.00404525862253,0.00541272995872,0.001,27.0636497936,-5000.0,0.0,0.0,0.0
1513267023740564604,,694627,,1513267021,925445376,'',0.471238898038,0.476651627997,0.00513686391352,0.00541272995872,0.001,27.0636497936,-5000.0,0.0,0.0,0.0
1513267023750603960,,694628,,1513267021,935445376,'',0.471238898038,0.478308586148,0.0375936431994,0.00706968810934,0.001,35.3484405467,-5000.0,0.0,0.0,0.0
1513267023760456564,,694629,,1513267021,945445376,'',0.471238898038,0.478308586148,0.0356418291086,0.00706968810934,0.001,35.3484405467,-5000.0,0.0,0.0,0.0
1513267023770477869,,694630,,1513267021,955445376,'',0.471238898038,0.476651627997,0.00108078621033,0.00541272995872,0.001,27.0636497936,-5000.0,0.0,0.0,0.0
1513267023780381635,,694631,,1513267021,965445376,'',0.471238898038,0.474994669847,-0.0289515185347,0.00375577180809,0.001,18.7788590404,-5000.0,0.0,0.0,0.0
1513267023790789093,,694632,,1513267021,975445376,'',0.471238898038,0.474994669847,-0.0278114278956,0.00375577180809,0.001,18.7788590404,-5000.0,0.0,0.0,0.0
1513267023800619369,,694633,,1513267021,985445376,'',0.471238898038,0.476651627997,0.00590716967085,0.00541272995872,0.001,27.0636497936,-5000.0,0.0,0.0,0.0
1513267023810532980,,694634,,1513267021,995445376,'',0.471238898038,0.476651627997,0.00541347455656,0.00541272995872,0.001,27.0636497936,-5000.0,0.0,0.0,0.0
1513267023820433579,,694635,,1513267022,5445376,'',0.471238898038,0.478308586148,0.0378467699903,0.00706968810934,0.001,35.3484405467,-5000.0,0.0,0.0,0.0
1513267023830355164,,694636,,1513267022,15445376,'',0.471238898038,0.476651627997,0.0034847573449,0.00541272995872,0.001,27.0636497936,-5000.0,0.0,0.0,0.0
1513267023840368551,,694637,,1513267022,25445376,'',0.471238898038,0.476651627997,0.00461392993088,0.00541272995872,0.001,27.0636497936,-5000.0,0.0,0.0,0.0
1513267023850262373,,694638,,1513267022,35445376,'',0.471238898038,0.476651627997,0.00372287673391,0.00541272995872,0.001,27.0636497936,-5000.0,0.0,0.0,0.0
1513267023860699922,,694639,,1513267022,45445376,'',0.471238898038,0.474994669847,-0.0274067382351,0.00375577180809,0.001,18.7788590404,-5000.0,0.0,0.0,0.0
1513267023870647676,,694640,,1513267022,55445376,'',0.471238898038,0.476651627997,0.00743782647976,0.00541272995872,0.001,27.0636497936,-5000.0,0.0,0.0,0.0
1513267023880621968,,694641,,1513267022,65445376,'',0.471238898038,0.476651627997,0.00780422120046,0.00541272995872,0.001,27.0636497936,-5000.0,0.0,0.0,0.0
1513267023890532066,,694642,,1513267022,75445376,'',0.471238898038,0.474994669847,-0.0233876741703,0.00375577180809,0.001,18.7788590404,-5000.0,0.0,0.0,0.0
1513267023900515021,,694643,,1513267022,85445376,'',0.471238898038,0.476651627997,0.00945590119597,0.00541272995872,0.001,27.0636497936,-5000.0,0.0,0.0,0.0
1513267023910371573,,694644,,1513267022,95445376,'',0.471238898038,0.476651627997,0.00899278994814,0.00541272995872,0.001,27.0636497936,-5000.0,0.0,0.0,0.0
1513267023920343438,,694645,,1513267022,105445376,'',0.471238898038,0.476651627997,0.0085418624271,0.00541272995872,0.001,27.0636497936,-5000.0,0.0,0.0,0.0
1513267023930731899,,694646,,1513267022,115445376,'',0.471238898038,0.476651627997,0.00941423082765,0.00541272995872,0.001,27.0636497936,-5000.0,0.0,0.0,0.0
1513267023940766536,,694647,,1513267022,125445376,'',0.471238898038,0.476651627997,0.00707885182713,0.00541272995872,0.001,27.0636497936,-5000.0,0.0,0.0,0.0
1513267023950660858,,694648,,1513267022,135445376,'',0.471238898038,0.474994669847,-0.0259358103308,0.00375577180809,0.001,18.7788590404,-5000.0,0.0,0.0,0.0
1513267023960665769,,694649,,1513267022,145445376,'',0.471238898038,0.474994669847,-0.0236609280162,0.00375577180809,0.001,18.7788590404,-5000.0,0.0,0.0,0.0
1513267023970589237,,694650,,1513267022,155445376,'',0.471238898038,0.474994669847,-0.0248209545758,0.00375577180809,0.001,18.7788590404,-5000.0,0.0,0.0,0.0
1513267023980505131,,694651,,1513267022,165445376,'',0.471238898038,0.476651627997,0.00880802967218,0.00541272995872,0.001,27.0636497936,-5000.0,0.0,0.0,0.0
1513267023990691852,,694652,,1513267022,175445376,'',0.471238898038,0.476651627997,0.00842222114138,0.00541272995872,0.001,27.0636497936,-5000.0,0.0,0.0,0.0
1513267024000446048,,694653,,1513267022,185445376,'',0.471238898038,0.474994669847,-0.02408319046,0.00375577180809,0.001,18.7788590404,-5000.0,0.0,0.0,0.0
1513267024010375662,,694654,,1513267022,195445376,'',0.471238898038,0.474994669847,-0.0233020674371,0.00375577180809,0.001,18.7788590404,-5000.0,0.0,0.0,0.0
1513267024020357326,,694655,,1513267022,205445376,'',0.471238898038,0.474994669847,-0.0225305445766,0.00375577180809,0.001,18.7788590404,-5000.0,0.0,0.0,0.0
1513267024030785395,,694656,,1513267022,215445376,'',0.471238898038,0.476651627997,0.0107739967339,0.00541272995872,0.001,27.0636497936,-5000.0,0.0,0.0,0.0
1513267024040404106,,694657,,1513267022,225445376,'',0.471238898038,0.474994669847,-0.0228490560348,0.00375577180809,0.001,18.7788590404,-5000.0,0.0,0.0,0.0
1513267024050334541,,694658,,1513267022,235445376,'',0.471238898038,0.474994669847,-0.0229822082536,0.00375577180809,0.001,18.7788590404,-5000.0,0.0,0.0,0.0
1513267024060785568,,694659,,1513267022,245445376,'',0.471238898038,0.474994669847,-0.0235901779845,0.00375577180809,0.001,18.7788590404,-5000.0,0.0,0.0,0.0
1513267024070590371,,694660,,1513267022,255445376,'',0.471238898038,0.476651627997,0.006913890373,0.00541272995872,0.001,27.0636497936,-5000.0,0.0,0.0,0.0
1513267024080593772,,694661,,1513267022,265445376,'',0.471238898038,0.476651627997,0.0080606978151,0.00541272995872,0.001,27.0636497936,-5000.0,0.0,0.0,0.0
1513267024090473450,,694662,,1513267022,275445376,'',0.471238898038,0.476651627997,0.00719054812191,0.00541272995872,0.001,27.0636497936,-5000.0,0.0,0.0,0.0
1513267024100383476,,694663,,1513267022,285445376,'',0.471238898038,0.476651627997,0.00835360392808,0.00541272995872,0.001,27.0636497936,-5000.0,0.0,0.0,0.0
1513267024110433007,,694664,,1513267022,295445376,'',0.471238898038,0.474994669847,-0.0240474667044,0.00375577180809,0.001,18.7788590404,-5000.0,0.0,0.0,0.0
1513267024120259083,,694665,,1513267022,305445376,'',0.471238898038,0.476651627997,0.0106768563761,0.00541272995872,0.001,27.0636497936,-5000.0,0.0,0.0,0.0
1513267024130451886,,694666,,1513267022,315445376,'',0.471238898038,0.476651627997,0.0117734551002,0.00541272995872,0.001,27.0636497936,-5000.0,0.0,0.0,0.0
1513267024140663913,,694667,,1513267022,325445376,'',0.471238898038,0.476651627997,0.0114634740226,0.00541272995872,0.001,27.0636497936,-5000.0,0.0,0.0,0.0
1513267024150598419,,694668,,1513267022,335445376,'',0.471238898038,0.476651627997,0.0104921018243,0.00541272995872,0.001,27.0636497936,-5000.0,0.0,0.0,0.0
1513267024160545371,,694669,,1513267022,345445376,'',0.471238898038,0.474994669847,-0.0236738833965,0.00375577180809,0.001,18.7788590404,-5000.0,0.0,0.0,0.0
1513267024170497621,,694670,,1513267022,355445376,'',0.471238898038,0.476651627997,0.0103587359671,0.00541272995872,0.001,27.0636497936,-5000.0,0.0,0.0,0.0
1513267024180403210,,694671,,1513267022,365445376,'',0.471238898038,0.474994669847,-0.0219999086628,0.00375577180809,0.001,18.7788590404,-5000.0,0.0,0.0,0.0
1513267024190356306,,694672,,1513267022,375445376,'',0.471238898038,0.474994669847,-0.0216507097379,0.00375577180809,0.001,18.7788590404,-5000.0,0.0,0.0,0.0
1513267024200825026,,694673,,1513267022,385445376,'',0.471238898038,0.474994669847,-0.0219646995544,0.00375577180809,0.001,18.7788590404,-5000.0,0.0,0.0,0.0
1513267024210819902,,694674,,1513267022,395445376,'',0.471238898038,0.474994669847,-0.0216484496186,0.00375577180809,0.001,18.7788590404,-5000.0,0.0,0.0,0.0
1513267024220588567,,694675,,1513267022,405445376,'',0.471238898038,0.476651627997,0.0109674927896,0.00541272995872,0.001,27.0636497936,-5000.0,0.0,0.0,0.0
1513267024230587845,,694676,,1513267022,415445376,'',0.471238898038,0.476651627997,0.00953951412152,0.00541272995872,0.001,27.0636497936,-5000.0,0.0,0.0,0.0
1513267024240658957,,694677,,1513267022,425445376,'',0.471238898038,0.476651627997,0.00903276684691,0.00541272995872,0.001,27.0636497936,-5000.0,0.0,0.0,0.0
1513267024250606682,,694678,,1513267022,435445376,'',0.471238898038,0.476651627997,0.00853560741778,0.00541272995872,0.001,27.0636497936,-5000.0,0.0,0.0,0.0
1513267024260511957,,694679,,1513267022,445445376,'',0.471238898038,0.476651627997,0.00934387334877,0.00541272995872,0.001,27.0636497936,-5000.0,0.0,0.0,0.0
1513267024270446862,,694680,,1513267022,455445376,'',0.471238898038,0.476651627997,0.00770716931014,0.00541272995872,0.001,27.0636497936,-5000.0,0.0,0.0,0.0
1513267024280424665,,694681,,1513267022,465445376,'',0.471238898038,0.476651627997,0.00875007344795,0.00541272995872,0.001,27.0636497936,-5000.0,0.0,0.0,0.0
1513267024290572494,,694682,,1513267022,475445376,'',0.471238898038,0.474994669847,-0.0238806876888,0.00375577180809,0.001,18.7788590404,-5000.0,0.0,0.0,0.0
1513267024300496559,,694683,,1513267022,485445376,'',0.471238898038,0.474994669847,-0.0237141920852,0.00375577180809,0.001,18.7788590404,-5000.0,0.0,0.0,0.0
1513267024310354479,,694684,,1513267022,495445376,'',0.471238898038,0.474994669847,-0.0235325403486,0.00375577180809,0.001,18.7788590404,-5000.0,0.0,0.0,0.0
1513267024320365922,,694685,,1513267022,505445376,'',0.471238898038,0.474994669847,-0.0240819316226,0.00375577180809,0.001,18.7788590404,-5000.0,0.0,0.0,0.0
1513267024330335136,,694686,,1513267022,515445376,'',0.471238898038,0.476651627997,0.00826725740419,0.00541272995872,0.001,27.0636497936,-5000.0,0.0,0.0,0.0
1513267024340723413,,694687,,1513267022,525445376,'',0.471238898038,0.476651627997,0.00669411912068,0.00541272995872,0.001,27.0636497936,-5000.0,0.0,0.0,0.0
1513267024350609866,,694688,,1513267022,535445376,'',0.471238898038,0.474994669847,-0.0261432254163,0.00375577180809,0.001,18.7788590404,-5000.0,0.0,0.0,0.0
1513267024360414532,,694689,,1513267022,545445376,'',0.471238898038,0.474994669847,-0.0250412802225,0.00375577180809,0.001,18.7788590404,-5000.0,0.0,0.0,0.0
1513267024370822271,,694690,,1513267022,555445376,'',0.471238898038,0.476651627997,0.0075272945402,0.00541272995872,0.001,27.0636497936,-5000.0,0.0,0.0,0.0
1513267024380771905,,694691,,1513267022,565445376,'',0.471238898038,0.476651627997,0.0061143703387,0.00541272995872,0.001,27.0636497936,-5000.0,0.0,0.0,0.0
1513267024390641569,,694692,,1513267022,575445376,'',0.471238898038,0.474994669847,-0.0278081217998,0.00375577180809,0.001,18.7788590404,-5000.0,0.0,0.0,0.0
1513267024400738646,,694693,,1513267022,585445376,'',0.471238898038,0.474994669847,-0.0281949549604,0.00375577180809,0.001,18.7788590404,-5000.0,0.0,0.0,0.0
1513267024410661006,,694694,,1513267022,595445376,'',0.471238898038,0.476651627997,0.00616041443415,0.00541272995872,0.001,27.0636497936,-5000.0,0.0,0.0,0.0
1513267024420806194,,694695,,1513267022,605445376,'',0.471238898038,0.476651627997,0.00632246581553,0.00541272995872,0.001,27.0636497936,-5000.0,0.0,0.0,0.0
1513267024430565914,,694696,,1513267022,615445376,'',0.471238898038,0.478308586148,0.0386352675835,0.00706968810934,0.001,35.3484405467,-5000.0,0.0,0.0,0.0
1513267024440497752,,694697,,1513267022,625445376,'',0.471238898038,0.474994669847,-0.026225884438,0.00375577180809,0.001,18.7788590404,-5000.0,0.0,0.0,0.0
1513267024450387684,,694698,,1513267022,635445376,'',0.471238898038,0.474994669847,-0.0267925837938,0.00375577180809,0.001,18.7788590404,-5000.0,0.0,0.0,0.0
1513267024460476053,,694699,,1513267022,645445376,'',0.471238898038,0.476651627997,0.00614296131896,0.00541272995872,0.001,27.0636497936,-5000.0,0.0,0.0,0.0
1513267024470857890,,694700,,1513267022,655445376,'',0.471238898038,0.478308586148,0.0395543670364,0.00706968810934,0.001,35.3484405467,-5000.0,0.0,0.0,0.0
1513267024480792209,,694701,,1513267022,665445376,'',0.471238898038,0.476651627997,0.00433410044288,0.00541272995872,0.001,27.0636497936,-5000.0,0.0,0.0,0.0
1513267024490717252,,694702,,1513267022,675445376,'',0.471238898038,0.474994669847,-0.0287151404427,0.00375577180809,0.001,18.7788590404,-5000.0,0.0,0.0,0.0
1513267024500504710,,694703,,1513267022,685445376,'',0.471238898038,0.474994669847,-0.0271481268708,0.00375577180809,0.001,18.7788590404,-5000.0,0.0,0.0,0.0
1513267024510470224,,694704,,1513267022,695445376,'',0.471238898038,0.474994669847,-0.0269613633917,0.00375577180809,0.001,18.7788590404,-5000.0,0.0,0.0,0.0
1513267024520419585,,694705,,1513267022,705445376,'',0.471238898038,0.476651627997,0.00590311365387,0.00541272995872,0.001,27.0636497936,-5000.0,0.0,0.0,0.0
1513267024530305383,,694706,,1513267022,715445376,'',0.471238898038,0.476651627997,0.00546477542153,0.00541272995872,0.001,27.0636497936,-5000.0,0.0,0.0,0.0
1513267024540738621,,694707,,1513267022,725445376,'',0.471238898038,0.476651627997,0.00686436985404,0.00541272995872,0.001,27.0636497936,-5000.0,0.0,0.0,0.0
1513267024550676078,,694708,,1513267022,735445376,'',0.471238898038,0.474994669847,-0.0253237135348,0.00375577180809,0.001,18.7788590404,-5000.0,0.0,0.0,0.0
1513267024560900417,,694709,,1513267022,745445376,'',0.471238898038,0.474994669847,-0.02682631887,0.00375577180809,0.001,18.7788590404,-5000.0,0.0,0.0,0.0
1513267024570848326,,694710,,1513267022,755445376,'',0.471238898038,0.476651627997,0.00602445685652,0.00541272995872,0.001,27.0636497936,-5000.0,0.0,0.0,0.0
1513267024580851455,,694711,,1513267022,765445376,'',0.471238898038,0.476651627997,0.00424019935466,0.00541272995872,0.001,27.0636497936,-5000.0,0.0,0.0,0.0
1513267024590714202,,694712,,1513267022,775445376,'',0.471238898038,0.476651627997,0.00287074163849,0.00541272995872,0.001,27.0636497936,-5000.0,0.0,0.0,0.0
1513267024600579714,,694713,,1513267022,785445376,'',0.471238898038,0.476651627997,0.00302518954318,0.00541272995872,0.001,27.0636497936,-5000.0,0.0,0.0,0.0
1513267024610459850,,694714,,1513267022,795445376,'',0.471238898038,0.478308586148,0.0371069294977,0.00706968810934,0.001,35.3484405467,-5000.0,0.0,0.0,0.0
1513267024620452086,,694715,,1513267022,805445376,'',0.471238898038,0.476651627997,0.00353790979089,0.00541272995872,0.001,27.0636497936,-5000.0,0.0,0.0,0.0
1513267024630409988,,694716,,1513267022,815445376,'',0.471238898038,0.476651627997,0.00413328352894,0.00541272995872,0.001,27.0636497936,-5000.0,0.0,0.0,0.0
1513267024640383186,,694717,,1513267022,825445376,'',0.471238898038,0.476651627997,0.00392105976009,0.00541272995872,0.001,27.0636497936,-5000.0,0.0,0.0,0.0
1513267024650375465,,694718,,1513267022,835445376,'',0.471238898038,0.478308586148,0.037221832269,0.00706968810934,0.001,35.3484405467,-5000.0,0.0,0.0,0.0
1513267024660735302,,694719,,1513267022,845445376,'',0.471238898038,0.476651627997,0.00304776014234,0.00541272995872,0.001,27.0636497936,-5000.0,0.0,0.0,0.0
1513267024670753856,,694720,,1513267022,855445376,'',0.471238898038,0.476651627997,0.00132002437512,0.00541272995872,0.001,27.0636497936,-5000.0,0.0,0.0,0.0
1513267024680802375,,694721,,1513267022,865445376,'',0.471238898038,0.476651627997,0.0028385932628,0.00541272995872,0.001,27.0636497936,-5000.0,0.0,0.0,0.0
1513267024690745325,,694722,,1513267022,875445376,'',0.471238898038,0.478308586148,0.0358440017927,0.00706968810934,0.001,35.3484405467,-5000.0,0.0,0.0,0.0
1513267024700693673,,694723,,1513267022,885445376,'',0.471238898038,0.476651627997,0.00369838910696,0.00541272995872,0.001,27.0636497936,-5000.0,0.0,0.0,0.0
