rosbagTimestamp,header,seq,stamp,secs,nsecs,frame_id,set_point,process_value,process_value_dot,error,time_step,command,p,i,d,i_clamp
1513267381540658176,,730401,,1513267379,718669309,'',0.837758040957,0.864142046269,0.014059434552,0.0263840053113,0.001,-195.746386763,7200.0,0.0,410.0,0.0
1513267381550555150,,730402,,1513267379,728669309,'',0.837758040957,0.864154698126,-0.0164769739414,0.0263966571689,0.001,-183.261530662,7200.0,0.0,410.0,0.0
1513267381561080287,,730403,,1513267379,738669309,'',0.837758040957,0.864062693519,0.015660440152,0.0263046525617,0.001,-195.853474086,7200.0,0.0,410.0,0.0
1513267381570960932,,730404,,1513267379,748669309,'',0.837758040957,0.864067585262,0.0155553431104,0.0263095443048,0.001,-195.829474168,7200.0,0.0,410.0,0.0
1513267381581002878,,730405,,1513267379,758669309,'',0.837758040957,0.86409687776,-0.0153119461343,0.0263388368028,0.001,-183.306842939,7200.0,0.0,410.0,0.0
1513267381590938095,,730406,,1513267379,768669309,'',0.837758040957,0.864148077268,-0.0163479391915,0.0263900363102,0.001,-183.398147072,7200.0,0.0,410.0,0.0
1513267381600819819,,730407,,1513267379,778669309,'',0.837758040957,0.864139427047,-0.0161813439836,0.0263813860899,0.001,-183.272301701,7200.0,0.0,410.0,0.0
1513267381610925999,,730408,,1513267379,788669309,'',0.837758040957,0.864133319658,0.0142154792046,0.0263752787012,0.001,-195.638195133,7200.0,0.0,410.0,0.0
1513267381620880783,,730409,,1513267379,798669309,'',0.837758040957,0.864154089562,0.0138086929873,0.0263960486051,0.001,-195.727497206,7200.0,0.0,410.0,0.0
1513267381630910393,,730410,,1513267379,808669309,'',0.837758040957,0.864252712412,0.0118108922959,0.0264946714545,0.001,-195.622899811,7200.0,0.0,410.0,0.0
1513267381640840500,,730411,,1513267379,818669309,'',0.837758040957,0.864301301137,-0.0194588363903,0.0265432601795,0.001,-183.089091148,7200.0,0.0,410.0,0.0
1513267381650825472,,730412,,1513267379,828669309,'',0.837758040957,0.864231948064,0.0122185765949,0.0264739071067,0.001,-195.539834846,7200.0,0.0,410.0,0.0
1513267381660842630,,730413,,1513267379,838669309,'',0.837758040957,0.864283693065,-0.0191133586914,0.0265256521077,0.001,-183.124104283,7200.0,0.0,410.0,0.0
1513267381670923393,,730414,,1513267379,848669309,'',0.837758040957,0.864247708631,-0.0183958137164,0.0264896676741,0.001,-183.149747628,7200.0,0.0,410.0,0.0
1513267381680734214,,730415,,1513267379,858669309,'',0.837758040957,0.864274344777,0.0113406322285,0.0265163038192,0.001,-195.519048916,7200.0,0.0,410.0,0.0
1513267381690713373,,730416,,1513267379,868669309,'',0.837758040957,0.864294032299,0.010951756935,0.0265359913414,0.001,-195.576792964,7200.0,0.0,410.0,0.0
1513267381700763061,,730417,,1513267379,878669309,'',0.837758040957,0.864339169543,0.0100383254273,0.0265811285854,0.001,-195.526426515,7200.0,0.0,410.0,0.0
1513267381710592597,,730418,,1513267379,888669309,'',0.837758040957,0.864373844066,0.00934251002919,0.0266158031089,0.001,-195.487734906,7200.0,0.0,410.0,0.0
1513267381720661813,,730419,,1513267379,898669309,'',0.837758040957,0.864322965763,-0.0198963364317,0.0265649248057,0.001,-183.054751332,7200.0,0.0,410.0,0.0
1513267381730958202,,730420,,1513267379,908669309,'',0.837758040957,0.864334823056,0.010158358932,0.0265767820989,0.001,-195.535285644,7200.0,0.0,410.0,0.0
1513267381740947152,,730421,,1513267379,918669309,'',0.837758040957,0.864344505158,-0.0203262483207,0.0265864642008,0.001,-183.206729011,7200.0,0.0,410.0,0.0
1513267381750850512,,730422,,1513267379,928669309,'',0.837758040957,0.864383584137,0.00916457130101,0.0266255431793,0.001,-195.481391498,7200.0,0.0,410.0,0.0
1513267381760925346,,730423,,1513267379,938669309,'',0.837758040957,0.864355117584,-0.0205338200856,0.0265970766269,0.001,-183.036293254,7200.0,0.0,410.0,0.0
1513267381770696405,,730424,,1513267379,948669309,'',0.837758040957,0.864330541622,-0.0200306990703,0.0265725006647,0.001,-183.238025289,7200.0,0.0,410.0,0.0
1513267381780764409,,730425,,1513267379,958669309,'',0.837758040957,0.864341473035,0.0100278829899,0.0265834320773,0.001,-195.519900198,7200.0,0.0,410.0,0.0
1513267381790754576,,730426,,1513267379,968669309,'',0.837758040957,0.864291363611,-0.0192485211268,0.0265333226533,0.001,-183.107941885,7200.0,0.0,410.0,0.0
1513267381801019930,,730427,,1513267379,978669309,'',0.837758040957,0.864280282798,-0.0190185965036,0.0265222418403,0.001,-183.112879893,7200.0,0.0,410.0,0.0
1513267381810856890,,730428,,1513267379,988669309,'',0.837758040957,0.864217246661,-0.0177433756872,0.0264592057037,0.001,-183.1754596,7200.0,0.0,410.0,0.0
1513267381820816449,,730429,,1513267379,998669309,'',0.837758040957,0.864247019169,-0.0183348322703,0.0264889782121,0.001,-183.134216014,7200.0,0.0,410.0,0.0
1513267381830637230,,730430,,1513267380,8669309,'',0.837758040957,0.864244406229,-0.0182921807601,0.0264863652717,0.001,-183.2890002,7200.0,0.0,410.0,0.0
1513267381840561937,,730431,,1513267380,18669309,'',0.837758040957,0.864246563053,0.0119400864219,0.0264885220954,0.001,-195.654507448,7200.0,0.0,410.0,0.0
1513267381850617810,,730432,,1513267380,28669309,'',0.837758040957,0.864217922624,-0.0177641250553,0.0264598816663,0.001,-183.181705336,7200.0,0.0,410.0,0.0
1513267381860639054,,730433,,1513267380,38669309,'',0.837758040957,0.864219527974,-0.0177909672049,0.0264614870166,0.001,-183.188672932,7200.0,0.0,410.0,0.0
1513267381870624694,,730434,,1513267380,48669309,'',0.837758040957,0.864278477877,0.0112985476868,0.0265204369197,0.001,-195.49608027,7200.0,0.0,410.0,0.0
1513267381880587289,,730435,,1513267380,58669309,'',0.837758040957,0.864328109203,0.010300469737,0.0265700682457,0.001,-195.538768209,7200.0,0.0,410.0,0.0
1513267381890554553,,730436,,1513267380,68669309,'',0.837758040957,0.864342541036,0.0100036142115,0.0265845000788,0.001,-195.530559539,7200.0,0.0,410.0,0.0
1513267381900986365,,730437,,1513267380,78669309,'',0.837758040957,0.86432357443,0.0103850026398,0.0265655334723,0.001,-195.543828341,7200.0,0.0,410.0,0.0
1513267381910955797,,730438,,1513267380,88669309,'',0.837758040957,0.864284265703,0.0111755282818,0.0265262247453,0.001,-195.582175545,7200.0,0.0,410.0,0.0
1513267381920913307,,730439,,1513267380,98669309,'',0.837758040957,0.864275577854,0.011363252272,0.026517536897,0.001,-195.601867182,7200.0,0.0,410.0,0.0
1513267381930881727,,730440,,1513267380,108669309,'',0.837758040957,0.864187827867,-0.0171519846135,0.0264297869102,0.001,-183.224298464,7200.0,0.0,410.0,0.0
1513267381940859397,,730441,,1513267380,118669309,'',0.837758040957,0.864195771636,0.0129554999364,0.0264377306787,0.001,-195.691555808,7200.0,0.0,410.0,0.0
1513267381950699788,,730442,,1513267380,128669309,'',0.837758040957,0.864259031294,0.0116787999068,0.0265009903362,0.001,-195.746223332,7200.0,0.0,410.0,0.0
1513267381960852847,,730443,,1513267380,138669309,'',0.837758040957,0.864253598775,-0.0184946220163,0.0264955578178,0.001,-183.157685033,7200.0,0.0,410.0,0.0
1513267381970833384,,730444,,1513267380,148669309,'',0.837758040957,0.864252400347,-0.0184602088035,0.0264943593893,0.001,-183.312129099,7200.0,0.0,410.0,0.0
1513267381980806517,,730445,,1513267380,158669309,'',0.837758040957,0.86422083596,0.0124588526029,0.0264627950028,0.001,-195.658469189,7200.0,0.0,410.0,0.0
1513267381990706651,,730446,,1513267380,168669309,'',0.837758040957,0.864278738023,0.0112833766078,0.0265206970652,0.001,-195.593859101,7200.0,0.0,410.0,0.0
1513267382000626992,,730447,,1513267380,178669309,'',0.837758040957,0.864219247464,-0.0177908333644,0.026461206507,0.001,-183.343569012,7200.0,0.0,410.0,0.0
1513267382010708223,,730448,,1513267380,188669309,'',0.837758040957,0.86419447595,-0.0172845361898,0.0264364349928,0.001,-183.396075721,7200.0,0.0,410.0,0.0
1513267382020824579,,730449,,1513267380,198669309,'',0.837758040957,0.864226118224,-0.0179437252455,0.0264680772672,0.001,-183.204284662,7200.0,0.0,410.0,0.0
1513267382030975170,,730450,,1513267380,208669309,'',0.837758040957,0.864255426333,0.0117510122722,0.0264973853756,0.001,-195.610586566,7200.0,0.0,410.0,0.0
1513267382040837506,,730451,,1513267380,218669309,'',0.837758040957,0.864306686987,-0.0195526502055,0.0265486460301,0.001,-183.260647383,7200.0,0.0,410.0,0.0
1513267382050729300,,730452,,1513267380,228669309,'',0.837758040957,0.864347169952,-0.0203651157586,0.0265891289952,0.001,-183.045225041,7200.0,0.0,410.0,0.0
1513267382060690493,,730453,,1513267380,238669309,'',0.837758040957,0.864328465615,0.0102833995349,0.026570424658,0.001,-195.526191505,7200.0,0.0,410.0,0.0
1513267382071005693,,730454,,1513267380,248669309,'',0.837758040957,0.864368831064,0.00946988654988,0.0266107901072,0.001,-195.497066423,7200.0,0.0,410.0,0.0
1513267382080999666,,730455,,1513267380,258669309,'',0.837758040957,0.864373221912,0.00938615047623,0.0266151809545,0.001,-195.496760356,7200.0,0.0,410.0,0.0
1513267382091036038,,730456,,1513267380,268669309,'',0.837758040957,0.864405746553,0.00873941766028,0.0266477055957,0.001,-195.456440501,7200.0,0.0,410.0,0.0
1513267382100908573,,730457,,1513267380,278669309,'',0.837758040957,0.864374666239,-0.0209251306557,0.0266166252814,0.001,-183.030859464,7200.0,0.0,410.0,0.0
1513267382110730829,,730458,,1513267380,288669309,'',0.837758040957,0.864325394272,0.0103359318195,0.0265673533151,0.001,-195.451962168,7200.0,0.0,410.0,0.0
1513267382120735206,,730459,,1513267380,298669309,'',0.837758040957,0.864305974455,-0.0195417102674,0.0265479334975,0.001,-183.286401347,7200.0,0.0,410.0,0.0
1513267382130725032,,730460,,1513267380,308669309,'',0.837758040957,0.864320193479,-0.0198331239244,0.0265621525221,0.001,-183.083375251,7200.0,0.0,410.0,0.0
1513267382140734444,,730461,,1513267380,318669309,'',0.837758040957,0.864251545551,0.0118278180472,0.0264935045932,0.001,-195.52607783,7200.0,0.0,410.0,0.0
1513267382150717639,,730462,,1513267380,328669309,'',0.837758040957,0.86422207931,-0.0178504838972,0.0264640383524,0.001,-183.192856067,7200.0,0.0,410.0,0.0
1513267382160521681,,730463,,1513267380,338669309,'',0.837758040957,0.864203310152,0.0128082554198,0.026445269195,0.001,-195.672967065,7200.0,0.0,410.0,0.0
1513267382170816982,,730464,,1513267380,348669309,'',0.837758040957,0.864209684186,-0.0175952095616,0.0264516432292,0.001,-183.199735676,7200.0,0.0,410.0,0.0
1513267382180827934,,730465,,1513267380,358669309,'',0.837758040957,0.8642470434,0.0119369683934,0.0264890024431,0.001,-195.535054948,7200.0,0.0,410.0,0.0
1513267382190803910,,730466,,1513267380,368669309,'',0.837758040957,0.864214198171,-0.0176882496443,0.0264561572133,0.001,-183.025174519,7200.0,0.0,410.0,0.0
1513267382200688061,,730467,,1513267380,378669309,'',0.837758040957,0.864218422413,0.0124890191112,0.0264603814562,0.001,-195.666100184,7200.0,0.0,410.0,0.0
1513267382210711342,,730468,,1513267380,388669309,'',0.837758040957,0.864304586254,0.0107507596714,0.0265465452968,0.001,-195.457721822,7200.0,0.0,410.0,0.0
1513267382220867045,,730469,,1513267380,398669309,'',0.837758040957,0.864263617165,-0.0187135897768,0.0265055762075,0.001,-183.139124174,7200.0,0.0,410.0,0.0
1513267382231066614,,730470,,1513267380,408669309,'',0.837758040957,0.864205992745,0.0127344890455,0.0264479517874,0.001,-195.680069019,7200.0,0.0,410.0,0.0
1513267382240888814,,730471,,1513267380,418669309,'',0.837758040957,0.864181896979,0.0132178810527,0.0264238560215,0.001,-195.581673698,7200.0,0.0,410.0,0.0
1513267382250855553,,730472,,1513267380,428669309,'',0.837758040957,0.864193440944,0.0129947448213,0.0264353999872,0.001,-195.68903795,7200.0,0.0,410.0,0.0
1513267382260999487,,730473,,1513267380,438669309,'',0.837758040957,0.864229221374,0.0122689585629,0.0264711804168,0.001,-195.653963988,7200.0,0.0,410.0,0.0
1513267382270962085,,730474,,1513267380,448669309,'',0.837758040957,0.864228120293,-0.0179833384852,0.0264700793353,0.001,-183.365310106,7200.0,0.0,410.0,0.0
1513267382280694920,,730475,,1513267380,458669309,'',0.837758040957,0.864282389533,0.0112092311364,0.0265243485753,0.001,-195.599746451,7200.0,0.0,410.0,0.0
1513267382290788749,,730476,,1513267380,468669309,'',0.837758040957,0.864327794516,0.0102961686337,0.0265697535592,0.001,-195.529972989,7200.0,0.0,410.0,0.0
1513267382301040605,,730477,,1513267380,478669309,'',0.837758040957,0.864365646923,0.00953585590444,0.0266076059661,0.001,-195.489355595,7200.0,0.0,410.0,0.0
1513267382310999266,,730478,,1513267380,488669309,'',0.837758040957,0.864366046138,0.00951392913226,0.0266080051807,0.001,-195.421251817,7200.0,0.0,410.0,0.0
1513267382320956381,,730479,,1513267380,498669309,'',0.837758040957,0.864312149277,-0.0196695566056,0.0265541083194,0.001,-183.084582329,7200.0,0.0,410.0,0.0
1513267382331015501,,730480,,1513267380,508669309,'',0.837758040957,0.864270638563,-0.0188360996806,0.0265125976054,0.001,-183.114497637,7200.0,0.0,410.0,0.0
1513267382340932139,,730481,,1513267380,518669309,'',0.837758040957,0.864244075477,0.0119759684356,0.0264860345196,0.001,-195.539076023,7200.0,0.0,410.0,0.0
1513267382350946823,,730482,,1513267380,528669309,'',0.837758040957,0.864270188851,0.0114504544231,0.0265121478934,0.001,-195.607923507,7200.0,0.0,410.0,0.0
1513267382360854234,,730483,,1513267380,538669309,'',0.837758040957,0.864239435751,-0.0182207692857,0.0264813947938,0.001,-183.171691652,7200.0,0.0,410.0,0.0
1513267382370871978,,730484,,1513267380,548669309,'',0.837758040957,0.864244978761,0.0119567450451,0.0264869378041,0.001,-195.532305321,7200.0,0.0,410.0,0.0
1513267382380785501,,730485,,1513267380,558669309,'',0.837758040957,0.864295092498,-0.0193336693686,0.0265370515405,0.001,-183.111384212,7200.0,0.0,410.0,0.0
1513267382390792536,,730486,,1513267380,568669309,'',0.837758040957,0.864337776347,0.0100918992423,0.0265797353893,0.001,-195.527981115,7200.0,0.0,410.0,0.0
1513267382400688755,,730487,,1513267380,578669309,'',0.837758040957,0.864315400489,-0.0197402925636,0.0265573595315,0.001,-183.104313062,7200.0,0.0,410.0,0.0
1513267382410586104,,730488,,1513267380,588669309,'',0.837758040957,0.864327153073,0.0103035698581,0.0265691121154,0.001,-195.531694752,7200.0,0.0,410.0,0.0
1513267382420555576,,730489,,1513267380,598669309,'',0.837758040957,0.864391407809,0.0090050899374,0.026633366852,0.001,-195.475251684,7200.0,0.0,410.0,0.0
1513267382430950831,,730490,,1513267380,608669309,'',0.837758040957,0.864363443252,-0.020704633059,0.0266054022951,0.001,-183.018758141,7200.0,0.0,410.0,0.0
1513267382440999874,,730491,,1513267380,618669309,'',0.837758040957,0.864372282272,0.00939812002613,0.0266142413147,0.001,-195.485767489,7200.0,0.0,410.0,0.0
1513267382450931663,,730492,,1513267380,628669309,'',0.837758040957,0.864402140045,0.00880183885194,0.0266440990878,0.001,-195.456160803,7200.0,0.0,410.0,0.0
1513267382460828408,,730493,,1513267380,638669309,'',0.837758040957,0.864426371604,0.00831069033727,0.0266683306464,0.001,-195.350453198,7200.0,0.0,410.0,0.0
1513267382470815474,,730494,,1513267380,648669309,'',0.837758040957,0.864391238097,0.00901301407399,0.0266331971398,0.001,-195.468325755,7200.0,0.0,410.0,0.0
1513267382480665654,,730495,,1513267380,658669309,'',0.837758040957,0.864308861822,-0.0196239678561,0.0265508208645,0.001,-182.958562586,7200.0,0.0,410.0,0.0
1513267382491055016,,730496,,1513267380,668669309,'',0.837758040957,0.864269727678,0.0114412150145,0.0265116867203,0.001,-195.508835151,7200.0,0.0,410.0,0.0
1513267382501021789,,730497,,1513267380,678669309,'',0.837758040957,0.864288997682,0.0110455573577,0.0265309567247,0.001,-195.490560805,7200.0,0.0,410.0,0.0
1513267382510968056,,730498,,1513267380,688669309,'',0.837758040957,0.864303635145,-0.0195312887696,0.0265455941876,0.001,-183.076822702,7200.0,0.0,410.0,0.0
1513267382520878834,,730499,,1513267380,698669309,'',0.837758040957,0.864238648711,0.0120558139235,0.0264806077541,0.001,-195.643369263,7200.0,0.0,410.0,0.0
1513267382530752158,,730500,,1513267380,708669309,'',0.837758040957,0.864235182706,-0.0181643182954,0.0264771417491,0.001,-183.140669599,7200.0,0.0,410.0,0.0
1513267382540613521,,730501,,1513267380,718669309,'',0.837758040957,0.86421101251,0.0126145388917,0.0264529715532,0.001,-195.669430697,7200.0,0.0,410.0,0.0
1513267382550988741,,730502,,1513267380,728669309,'',0.837758040957,0.864238897348,-0.0182240310075,0.0264808563904,0.001,-183.308775364,7200.0,0.0,410.0,0.0
1513267382560927308,,730503,,1513267380,738669309,'',0.837758040957,0.864241345785,-0.0182676107472,0.0264833048278,0.001,-183.155148067,7200.0,0.0,410.0,0.0
1513267382570809476,,730504,,1513267380,748669309,'',0.837758040957,0.864265599039,-0.0187458583772,0.0265075580813,0.001,-183.144294524,7200.0,0.0,410.0,0.0
1513267382580859235,,730505,,1513267380,758669309,'',0.837758040957,0.864228712164,-0.0179945591045,0.0264706712066,0.001,-183.325717719,7200.0,0.0,410.0,0.0
1513267382590809885,,730506,,1513267380,768669309,'',0.837758040957,0.864255947614,0.0117438394874,0.0264979066565,0.001,-195.619289807,7200.0,0.0,410.0,0.0
1513267382600718864,,730507,,1513267380,778669309,'',0.837758040957,0.864228119812,0.0123117792296,0.0264700788543,0.001,-195.777959369,7200.0,0.0,410.0,0.0
1513267382610815483,,730508,,1513267380,788669309,'',0.837758040957,0.864230953903,0.0122651391506,0.0264729129457,0.001,-195.653226397,7200.0,0.0,410.0,0.0
1513267382621006127,,730509,,1513267380,798669309,'',0.837758040957,0.864232059313,0.0122331370302,0.0264740183559,0.001,-195.53490332,7200.0,0.0,410.0,0.0
1513267382631007442,,730510,,1513267380,808669309,'',0.837758040957,0.864260330188,0.0116500635657,0.0265022892305,0.001,-195.624757419,7200.0,0.0,410.0,0.0
1513267382641017019,,730511,,1513267380,818669309,'',0.837758040957,0.864288815764,0.0110812972177,0.0265307748071,0.001,-195.586990021,7200.0,0.0,410.0,0.0
1513267382650874465,,730512,,1513267380,828669309,'',0.837758040957,0.864333415439,-0.0201025094529,0.0265753744818,0.001,-183.060682776,7200.0,0.0,410.0,0.0
1513267382660861772,,730513,,1513267380,838669309,'',0.837758040957,0.864313789373,-0.0197053996457,0.0265557484158,0.001,-183.269469574,7200.0,0.0,410.0,0.0
1513267382670709602,,730514,,1513267380,848669309,'',0.837758040957,0.864136908569,-0.0161318043649,0.0263788676115,0.001,-183.287893943,7200.0,0.0,410.0,0.0
1513267382680658481,,730515,,1513267380,858669309,'',0.837758040957,0.863877648046,-0.0411728884196,0.0261196070888,0.001,-171.096703076,7200.0,0.0,410.0,0.0
1513267382690650181,,730516,,1513267380,868669309,'',0.837758040957,0.863481296313,-0.033152879912,0.0257232553555,0.001,-171.542135062,7200.0,0.0,410.0,0.0
1513267382701131484,,730517,,1513267380,878669309,'',0.837758040957,0.863184000147,-0.027149241995,0.0254259591894,0.001,-172.09878506,7200.0,0.0,410.0,0.0
1513267382711071017,,730518,,1513267380,888669309,'',0.837758040957,0.862803532047,-0.0497401440689,0.0250454910902,0.001,-159.827642117,7200.0,0.0,410.0,0.0
1513267382720996325,,730519,,1513267380,898669309,'',0.837758040957,0.862541039283,-0.0444381787255,0.0247829983253,0.001,-160.122639373,7200.0,0.0,410.0,0.0
1513267382730837808,,730520,,1513267380,908669309,'',0.837758040957,0.862222697302,-0.0380089708035,0.0244646563448,0.001,-160.810683636,7200.0,0.0,410.0,0.0
1513267382740999348,,730521,,1513267380,918669309,'',0.837758040957,0.861962008118,-0.0327369367785,0.0242039671609,0.001,-160.854216899,7200.0,0.0,410.0,0.0
1513267382750632746,,730522,,1513267380,928669309,'',0.837758040957,0.861783234767,0.00115901610346,0.0240251938097,0.001,-173.451029696,7200.0,0.0,410.0,0.0
1513267382760583341,,730523,,1513267380,938669309,'',0.837758040957,0.861551339552,0.00583257988313,0.0237932985945,0.001,-173.658192328,7200.0,0.0,410.0,0.0
1513267382771098387,,730524,,1513267380,948669309,'',0.837758040957,0.861357005684,-0.0205267718896,0.0235989647266,0.001,-161.435046926,7200.0,0.0,410.0,0.0
1513267382781004359,,730525,,1513267380,958669309,'',0.837758040957,0.861030546227,-0.0442124007586,0.0232725052697,0.001,-149.396379854,7200.0,0.0,410.0,0.0
1513267382790934864,,730526,,1513267380,968669309,'',0.837758040957,0.860606695342,-0.0356500370326,0.0228486543845,0.001,-149.848490356,7200.0,0.0,410.0,0.0
1513267382800999629,,730527,,1513267380,978669309,'',0.837758040957,0.8599877722,-0.0534295549387,0.022229731243,0.001,-138.503856654,7200.0,0.0,410.0,0.0
1513267382811006496,,730528,,1513267380,988669309,'',0.837758040957,0.859369495441,-0.0712327237496,0.0216114544838,0.001,-126.286489096,7200.0,0.0,410.0,0.0
1513267382820876750,,730529,,1513267380,998669309,'',0.837758040957,0.858671810908,-0.0874146847437,0.0209137699507,0.001,-114.600775511,7200.0,0.0,410.0,0.0
1513267382830856432,,730530,,1513267381,8669309,'',0.837758040957,0.858020592252,-0.0742541229091,0.0202625512946,0.001,-115.298114404,7200.0,0.0,410.0,0.0
1513267382840720735,,730531,,1513267381,18669309,'',0.837758040957,0.857406537007,-0.0618440855793,0.0196484960498,0.001,-115.933250613,7200.0,0.0,410.0,0.0
1513267382850696371,,730532,,1513267381,28669309,'',0.837758040957,0.856821572469,-0.080306995041,0.019063531512,0.001,-104.129777536,7200.0,0.0,410.0,0.0
1513267382860666818,,730533,,1513267381,38669309,'',0.837758040957,0.856401782999,-0.0415448173816,0.0186437420417,0.001,-117.13378894,7200.0,0.0,410.0,0.0
1513267382870614110,,730534,,1513267381,48669309,'',0.837758040957,0.855972229915,-0.0328671738448,0.0182141889581,0.001,-117.600125542,7200.0,0.0,410.0,0.0
1513267382881137320,,730535,,1513267381,58669309,'',0.837758040957,0.855595097058,-0.0252534942894,0.0178370561007,0.001,-118.011493935,7200.0,0.0,410.0,0.0
1513267382890938919,,730536,,1513267381,68669309,'',0.837758040957,0.855283102061,-0.0189427173491,0.0175250611041,0.001,-118.357752412,7200.0,0.0,410.0,0.0
1513267382900929446,,730537,,1513267381,78669309,'',0.837758040957,0.854867117237,-0.0408132480616,0.01710907628,0.001,-106.704403406,7200.0,0.0,410.0,0.0
1513267382910785644,,730538,,1513267381,88669309,'',0.837758040957,0.854362511142,-0.060901480867,0.0166044701842,0.001,-95.088103432,7200.0,0.0,410.0,0.0
1513267382920858263,,730539,,1513267381,98669309,'',0.837758040957,0.853757133115,-0.0789593432858,0.0159990921573,0.001,-82.6219825868,7200.0,0.0,410.0,0.0
1513267382930758836,,730540,,1513267381,108669309,'',0.837758040957,0.852570139503,-0.176099886045,0.0148120985455,0.001,-34.1597529442,7200.0,0.0,410.0,0.0
1513267382940820590,,730541,,1513267381,118669309,'',0.837758040957,0.850114318273,-0.338440917726,0.0123562773161,0.001,50.4831644175,7200.0,0.0,410.0,0.0
1513267382950715689,,730542,,1513267381,128669309,'',0.837758040957,0.84590333393,-0.49559835667,0.00814529297308,0.001,141.254745419,7200.0,0.0,410.0,0.0
1513267382960597228,,730543,,1513267381,138669309,'',0.837758040957,0.840364913515,-0.595665425768,0.00260687255806,0.001,221.729626605,7200.0,0.0,410.0,0.0
1513267382971069513,,730544,,1513267381,148669309,'',0.837758040957,0.834765285306,-0.543105296586,-0.00299275565147,0.001,245.757624364,7200.0,0.0,410.0,0.0
1513267382981052418,,730545,,1513267381,158669309,'',0.837758040957,0.829859697285,-0.444002086182,-0.00789834367262,0.001,240.955505233,7200.0,0.0,410.0,0.0
1513267382991059335,,730546,,1513267381,168669309,'',0.837758040957,0.825883179586,-0.363670803134,0.0,0.001,0.0,7200.0,0.0,410.0,0.0
1513267383001010018,,730547,,1513267381,178669309,'',0.837758040957,0.822760521808,-0.270315079261,0.0,0.001,0.0,7200.0,0.0,410.0,0.0
1513267383010960350,,730548,,1513267381,188669309,'',0.837758040957,0.820392548351,-0.192196895465,0.0,0.001,0.0,7200.0,0.0,410.0,0.0
1513267383020913869,,730549,,1513267381,198669309,'',0.837758040957,0.818608014472,-0.186426594063,0.0,0.001,0.0,7200.0,0.0,410.0,0.0
1513267383030812407,,730550,,1513267381,208669309,'',0.837758040957,0.816773722129,-0.179644235758,-0.0209843188278,0.001,223.637125504,7200.0,0.0,410.0,0.0
1513267383040795814,,730551,,1513267381,218669309,'',0.837758040957,0.815209502989,-0.148039790445,-0.0225485379679,0.001,223.2927524,7200.0,0.0,410.0,0.0
1513267383050666705,,730552,,1513267381,228669309,'',0.837758040957,0.81385478613,-0.120668158724,-0.0239032548277,0.001,221.673848652,7200.0,0.0,410.0,0.0
1513267383060665937,,730553,,1513267381,238669309,'',0.837758040957,0.812773567769,-0.0988282046609,-0.0249844731886,0.001,219.715976146,7200.0,0.0,410.0,0.0
1513267383070635380,,730554,,1513267381,248669309,'',0.837758040957,0.811995309027,-0.0831177104221,-0.0257627319306,0.001,219.123600176,7200.0,0.0,410.0,0.0
1513267383080569389,,730555,,1513267381,258669309,'',0.837758040957,0.811275078468,-0.0685729933796,-0.0264829624895,0.001,218.902519966,7200.0,0.0,410.0,0.0
1513267383090975063,,730556,,1513267381,268669309,'',0.837758040957,0.811023758524,-0.00293908489641,-0.0267342824328,0.001,193.692474976,7200.0,0.0,410.0,0.0
1513267383100951300,,730557,,1513267381,278669309,'',0.837758040957,0.811385859696,0.0502952356495,-0.026372181261,0.001,169.606300677,7200.0,0.0,410.0,0.0
1513267383110893387,,730558,,1513267381,288669309,'',0.837758040957,0.812252169327,0.0933595244337,-0.0255058716301,0.001,145.207453633,7200.0,0.0,410.0,0.0
1513267383120895307,,730559,,1513267381,298669309,'',0.837758040957,0.813228387195,0.103927517015,-0.0245296537625,0.001,133.791494718,7200.0,0.0,410.0,0.0
1513267383130943099,,730560,,1513267381,308669309,'',0.837758040957,0.814218805678,0.114193996889,-0.0235392352793,0.001,122.473475764,7200.0,0.0,410.0,0.0
1513267383140744469,,730561,,1513267381,318669309,'',0.837758040957,0.815417254057,0.150543442589,-0.0223407869001,0.001,100.115847524,7200.0,0.0,410.0,0.0
1513267383150899226,,730562,,1513267381,328669309,'',0.837758040957,0.816994618587,0.148955873811,-0.0207634223707,0.001,88.119359553,7200.0,0.0,410.0,0.0
1513267383160810479,,730563,,1513267381,338669309,'',0.837758040957,0.818771056601,0.173619802701,-0.0189869843561,0.001,67.0316740527,7200.0,0.0,410.0,0.0
1513267383170668636,,730564,,1513267381,348669309,'',0.837758040957,0.820413428237,0.170722775839,-0.0173446127207,0.001,56.01618188,7200.0,0.0,410.0,0.0
1513267383180625913,,730565,,1513267381,358669309,'',0.837758040957,0.821946367552,0.139756686628,-0.0158116734052,0.001,56.1453235786,7200.0,0.0,410.0,0.0
1513267383190628226,,730566,,1513267381,368669309,'',0.837758040957,0.82339532765,0.140766469909,-0.0143627133078,0.001,45.4635289778,7200.0,0.0,410.0,0.0
1513267383200557275,,730567,,1513267381,378669309,'',0.837758040957,0.824659050709,0.115238320183,-0.0130989902481,0.001,46.8281394925,7200.0,0.0,410.0,0.0
1513267383211041696,,730568,,1513267381,388669309,'',0.837758040957,0.825718898271,0.093833481487,-0.0120391426867,0.001,48.9177357907,7200.0,0.0,410.0,0.0
1513267383221007244,,730569,,1513267381,398669309,'',0.837758040957,0.82656109426,0.0768196097385,-0.0111969466973,0.001,49.6027391157,7200.0,0.0,410.0,0.0
1513267383230933322,,730570,,1513267381,408669309,'',0.837758040957,0.827308427937,0.0920085607859,-0.01044961302,0.001,37.3203201802,7200.0,0.0,410.0,0.0
1513267383240971418,,730571,,1513267381,418669309,'',0.837758040957,0.827890038388,0.0499765744336,-0.00986800256878,0.001,50.4542862266,7200.0,0.0,410.0,0.0
1513267383250944068,,730572,,1513267381,428669309,'',0.837758040957,0.828392375825,0.0398436495443,-0.00936566513271,0.001,51.0355591247,7200.0,0.0,410.0,0.0
1513267383260854170,,730573,,1513267381,438669309,'',0.837758040957,0.828749232321,0.0326310286464,-0.00900880863635,0.001,51.7210231242,7200.0,0.0,410.0,0.0
1513267383270859713,,730574,,1513267381,448669309,'',0.837758040957,0.829176707724,0.0240010387316,-0.00858133323376,0.001,51.9146890323,7200.0,0.0,410.0,0.0
1513267383280913837,,730575,,1513267381,458669309,'',0.837758040957,0.82952895649,0.0168905182544,-0.00822908446721,0.001,52.3210665157,7200.0,0.0,410.0,0.0
1513267383290978176,,730576,,1513267381,468669309,'',0.837758040957,0.829819006363,0.0413093288023,-0.00793903459473,0.001,40.2038584355,7200.0,0.0,410.0,0.0
1513267383300898326,,730577,,1513267381,478669309,'',0.837758040957,0.830081125842,0.0360004783365,-0.00767691511498,0.001,40.7722927824,7200.0,0.0,410.0,0.0
1513267383310753624,,730578,,1513267381,488669309,'',0.837758040957,0.830298652078,0.0315989872098,-0.00745938887933,0.001,40.6618315145,7200.0,0.0,410.0,0.0
1513267383320849640,,730579,,1513267381,498669309,'',0.837758040957,0.830526385092,-0.00327836282571,-0.00723165586498,0.001,53.4233241623,7200.0,0.0,410.0,0.0
1513267383330721660,,730580,,1513267381,508669309,'',0.837758040957,0.830742846519,0.0226348248589,-0.00701519443862,0.001,41.1891072237,7200.0,0.0,410.0,0.0
1513267383340700847,,730581,,1513267381,518669309,'',0.837758040957,0.830890943321,0.019639225636,-0.00686709763588,0.001,41.524122911,7200.0,0.0,410.0,0.0
1513267383350538036,,730582,,1513267381,528669309,'',0.837758040957,0.831037958077,0.0166673054439,-0.00672008288058,0.001,41.5273417963,7200.0,0.0,410.0,0.0
1513267383361153738,,730583,,1513267381,538669309,'',0.837758040957,0.831132946697,0.0147473143507,-0.00662509425988,0.001,41.6391562943,7200.0,0.0,410.0,0.0
1513267383370778554,,730584,,1513267381,548669309,'',0.837758040957,0.83120882693,0.0132010002569,-0.00654921402769,0.001,41.8327329692,7200.0,0.0,410.0,0.0
1513267383381098330,,730585,,1513267381,558669309,'',0.837758040957,0.83130235693,0.0113143745917,-0.00645568402687,0.001,41.7106023356,7200.0,0.0,410.0,0.0
1513267383391067929,,730586,,1513267381,568669309,'',0.837758040957,0.831349891752,0.0103429670648,-0.00640814920499,0.001,41.8498466226,7200.0,0.0,410.0,0.0
1513267383401061788,,730587,,1513267381,578669309,'',0.837758040957,0.831415289562,0.00901818336321,-0.00634275139517,0.001,41.955524749,7200.0,0.0,410.0,0.0
1513267383410859993,,730588,,1513267381,588669309,'',0.837758040957,0.831467068958,-0.022298451466,-0.0062909719996,0.001,54.2767563973,7200.0,0.0,410.0,0.0
1513267383420977166,,730589,,1513267381,598669309,'',0.837758040957,0.83153880377,0.00653509595768,-0.00621923718709,0.001,42.0862110784,7200.0,0.0,410.0,0.0
1513267383430839703,,730590,,1513267381,608669309,'',0.837758040957,0.831568871566,0.00591102814583,-0.00618916939149,0.001,42.1390925783,7200.0,0.0,410.0,0.0
1513267383440851261,,730591,,1513267381,618669309,'',0.837758040957,0.831595839913,0.00537853862797,-0.00616220104428,0.001,42.1471947977,7200.0,0.0,410.0,0.0
1513267383450623910,,730592,,1513267381,628669309,'',0.837758040957,0.831644112774,0.00440508794169,-0.00611392818279,0.001,42.2442342237,7200.0,0.0,410.0,0.0
1513267383460694047,,730593,,1513267381,638669309,'',0.837758040957,0.831655101658,0.00419066758859,-0.00610293929948,0.001,42.2143269583,7200.0,0.0,410.0,0.0
1513267383471056871,,730594,,1513267381,648669309,'',0.837758040957,0.831692720949,0.00343075097946,-0.00606532000791,0.001,42.2566046484,7200.0,0.0,410.0,0.0
1513267383481042481,,730595,,1513267381,658669309,'',0.837758040957,0.831723596078,0.00280706769503,-0.00603444487893,0.001,42.293797718,7200.0,0.0,410.0,0.0
1513267383490869237,,730596,,1513267381,668669309,'',0.837758040957,0.831721746431,0.00284671755767,-0.00603629452584,0.001,42.2903478716,7200.0,0.0,410.0,0.0
1513267383500876563,,730597,,1513267381,678669309,'',0.837758040957,0.831693064755,-0.026855181503,-0.00606497620225,0.001,54.4654185131,7200.0,0.0,410.0,0.0
1513267383510787723,,730598,,1513267381,688669309,'',0.837758040957,0.831751862224,0.002242760411,-0.00600617873285,0.001,42.3433793239,7200.0,0.0,410.0,0.0
1513267383520754471,,730599,,1513267381,698669309,'',0.837758040957,0.831771935395,0.00183606843398,-0.00598610556255,0.001,42.3463512879,7200.0,0.0,410.0,0.0
1513267383530656186,,730600,,1513267381,708669309,'',0.837758040957,0.831762977201,0.00201015896458,-0.00599506375613,0.001,42.3355607351,7200.0,0.0,410.0,0.0
1513267383540837800,,730601,,1513267381,718669309,'',0.837758040957,0.83177767596,0.00170063748493,-0.00598036499708,0.001,42.3512330455,7200.0,0.0,410.0,0.0
1513267383550757276,,730602,,1513267381,728669309,'',0.837758040957,0.83179712885,0.00131142116355,-0.00596091210723,0.001,42.3854242224,7200.0,0.0,410.0,0.0
1513267383560687428,,730603,,1513267381,738669309,'',0.837758040957,0.831808994598,0.00107359353429,-0.00594904635937,0.001,42.3980652444,7200.0,0.0,410.0,0.0
1513267383570654126,,730604,,1513267381,748669309,'',0.837758040957,0.831954155545,-0.00185298210078,-0.00580388541231,0.001,42.5473067467,7200.0,0.0,410.0,0.0
1513267383581086701,,730605,,1513267381,758669309,'',0.837758040957,0.832129247599,0.0248898145536,-0.0056287933586,0.001,30.2906638331,7200.0,0.0,410.0,0.0
1513267383591026921,,730606,,1513267381,768669309,'',0.837758040957,0.83235266309,0.020376797388,-0.00540537786736,0.001,30.5301312716,7200.0,0.0,410.0,0.0
1513267383600995709,,730607,,1513267381,778669309,'',0.837758040957,0.832646123956,0.0447200712591,-0.00511191700082,0.001,18.3182805369,7200.0,0.0,410.0,0.0
1513267383610976771,,730608,,1513267381,788669309,'',0.837758040957,0.832855649545,0.0102068437408,-0.00490239141207,0.001,31.095424619,7200.0,0.0,410.0,0.0
1513267383620815315,,730609,,1513267381,798669309,'',0.837758040957,0.833028560044,0.00670817492021,-0.00472948091376,0.001,31.2790201681,7200.0,0.0,410.0,0.0
1513267383630753019,,730610,,1513267381,808669309,'',0.837758040957,0.833195920635,0.00333657761632,-0.00456212032223,0.001,31.4697608292,7200.0,0.0,410.0,0.0
1513267383640749298,,730611,,1513267381,818669309,'',0.837758040957,0.833415290827,-0.00110205248806,-0.00434275012998,0.001,31.7158657372,7200.0,0.0,410.0,0.0
1513267383650795973,,730612,,1513267381,828669309,'',0.837758040957,0.833482778724,-0.00245608739441,-0.00427526223366,0.001,31.7911721891,7200.0,0.0,410.0,0.0
1513267383660777757,,730613,,1513267381,838669309,'',0.837758040957,0.833598247394,0.0255058806417,-0.00415979356281,0.001,19.4356533668,7200.0,0.0,410.0,0.0
1513267383670697241,,730614,,1513267381,848669309,'',0.837758040957,0.833689548437,-0.00661918299187,-0.00406849252042,0.001,31.9669266727,7200.0,0.0,410.0,0.0
1513267383681140847,,730615,,1513267381,858669309,'',0.837758040957,0.83371417856,0.0231474898247,-0.00404386239759,0.001,19.8342716649,7200.0,0.0,410.0,0.0
1513267383691015132,,730616,,1513267381,868669309,'',0.837758040957,0.833817196688,0.0210768238518,-0.00394084426954,0.001,19.708429422,7200.0,0.0,410.0,0.0
1513267383700995720,,730617,,1513267381,878669309,'',0.837758040957,0.833949963218,-0.0118888183873,-0.00380807773898,0.001,32.3324390241,7200.0,0.0,410.0,0.0
1513267383710942356,,730618,,1513267381,888669309,'',0.837758040957,0.833977980469,0.0178336176538,-0.00378006048785,0.001,19.8214375578,7200.0,0.0,410.0,0.0
1513267383720941115,,730619,,1513267381,898669309,'',0.837758040957,0.833999542348,-0.0128883374626,-0.00375849860925,0.001,32.2507248588,7200.0,0.0,410.0,0.0
1513267383730769669,,730620,,1513267381,908669309,'',0.837758040957,0.834050046257,-0.0139035840711,-0.00370799469999,0.001,32.3898200938,7200.0,0.0,410.0,0.0
1513267383740793046,,730621,,1513267381,918669309,'',0.837758040957,0.834037422708,0.0166248624695,-0.00372061824953,0.001,19.9524117871,7200.0,0.0,410.0,0.0
1513267383750682912,,730622,,1513267381,928669309,'',0.837758040957,0.834079250119,0.0157705826859,-0.00367879083829,0.001,19.9847303475,7200.0,0.0,410.0,0.0
1513267383760689790,,730623,,1513267381,938669309,'',0.837758040957,0.834117341032,0.0149954361562,-0.00364069992484,0.001,20.1728090463,7200.0,0.0,410.0,0.0
1513267383770602513,,730624,,1513267381,948669309,'',0.837758040957,0.834147942926,0.0143786092459,-0.00361009803117,0.001,20.0748541046,7200.0,0.0,410.0,0.0
1513267383781072053,,730625,,1513267381,958669309,'',0.837758040957,0.834165847144,-0.0162647858489,-0.0035921938135,0.001,32.5662119612,7200.0,0.0,410.0,0.0
1513267383791038950,,730626,,1513267381,968669309,'',0.837758040957,0.834266768419,0.0119778109149,-0.00349127253819,0.001,20.2017623255,7200.0,0.0,410.0,0.0
1513267383801022839,,730627,,1513267381,978669309,'',0.837758040957,0.834347823182,0.0103446121372,-0.00341021777573,0.001,20.3872465524,7200.0,0.0,410.0,0.0
1513267383810808036,,730628,,1513267381,988669309,'',0.837758040957,0.834635778596,0.0348036164733,-0.00312226236165,0.001,8.19398329866,7200.0,0.0,410.0,0.0
1513267383820876907,,730629,,1513267381,998669309,'',0.837758040957,0.834893220625,0.02959888058,-0.00286482033199,0.001,8.4599555665,7200.0,0.0,410.0,0.0
1513267383830640414,,730630,,1513267382,8669309,'',0.837758040957,0.835099990741,-0.00485618917755,-0.00265805021623,0.001,21.1353400252,7200.0,0.0,410.0,0.0
1513267383841035581,,730631,,1513267382,18669309,'',0.837758040957,0.835327881604,0.0208228558032,0.0,0.001,-550.0,7200.0,0.0,410.0,0.0
1513267383850911592,,730632,,1513267382,28669309,'',0.837758040957,0.835488402745,0.0175760076025,0.0,0.001,0.0,7200.0,0.0,410.0,0.0
1513267383860979023,,730633,,1513267382,38669309,'',0.837758040957,0.835646351153,0.0143876879403,0.0,0.001,0.0,7200.0,0.0,410.0,0.0
1513267383870885028,,730634,,1513267382,48669309,'',0.837758040957,0.835775586221,0.0117789708469,0.0,0.001,0.0,7200.0,0.0,410.0,0.0
1513267383880832653,,730635,,1513267382,58669309,'',0.837758040957,0.835851992784,0.0102308683859,0.0,0.001,0.0,7200.0,0.0,410.0,0.0
1513267383890715992,,730636,,1513267382,68669309,'',0.837758040957,0.835948299442,0.038561717104,0.0,0.001,0.0,7200.0,0.0,410.0,0.0
1513267383901086284,,730637,,1513267382,78669309,'',0.837758040957,0.83599296562,-0.0228976065561,0.0,0.001,0.0,7200.0,0.0,410.0,0.0
1513267383910948727,,730638,,1513267382,88669309,'',0.837758040957,0.83605925246,0.00605012044715,0.0,0.001,0.0,7200.0,0.0,410.0,0.0
1513267383921070660,,730639,,1513267382,98669309,'',0.837758040957,0.836113652375,0.00495252316028,0.0,0.001,0.0,7200.0,0.0,410.0,0.0
1513267383931032695,,730640,,1513267382,108669309,'',0.837758040957,0.836130606626,0.00460468148481,0.0,0.001,0.0,7200.0,0.0,410.0,0.0
1513267383940984817,,730641,,1513267382,118669309,'',0.837758040957,0.836172061652,0.00376931201592,0.0,0.001,0.0,7200.0,0.0,410.0,0.0
1513267383950796844,,730642,,1513267382,128669309,'',0.837758040957,0.836205915679,0.00308711195704,0.0,0.001,0.0,7200.0,0.0,410.0,0.0
1513267383960627488,,730643,,1513267382,138669309,'',0.837758040957,0.836233698165,0.00252726090507,0.0,0.001,0.0,7200.0,0.0,410.0,0.0
1513267383970528298,,730644,,1513267382,148669309,'',0.837758040957,0.836256444714,0.00206889011281,0.0,0.001,0.0,7200.0,0.0,410.0,0.0
1513267383981017384,,730645,,1513267382,158669309,'',0.837758040957,0.836248562573,0.00222310335086,0.0,0.001,0.0,7200.0,0.0,410.0,0.0
1513267383991002036,,730646,,1513267382,168669309,'',0.837758040957,0.836268620061,0.00181975895067,0.0,0.001,0.0,7200.0,0.0,410.0,0.0
1513267384000937223,,730647,,1513267382,178669309,'',0.837758040957,0.836259666938,0.00200815077092,0.0,0.001,0.0,7200.0,0.0,410.0,0.0
1513267384010896685,,730648,,1513267382,188669309,'',0.837758040957,0.8362209551,-0.0274835396879,0.0,0.001,0.0,7200.0,0.0,410.0,0.0
1513267384020952433,,730649,,1513267382,198669309,'',0.837758040957,0.836245960542,0.00229259201291,0.0,0.001,0.0,7200.0,0.0,410.0,0.0
1513267384030891027,,730650,,1513267382,208669309,'',0.837758040957,0.836266482615,0.00187679220444,0.0,0.001,0.0,7200.0,0.0,410.0,0.0
1513267384040911970,,730651,,1513267382,218669309,'',0.837758040957,0.836283279776,0.00153646323826,0.0,0.001,0.0,7200.0,0.0,410.0,0.0
1513267384050900202,,730652,,1513267382,228669309,'',0.837758040957,0.836297032199,0.0012578239883,0.0,0.001,0.0,7200.0,0.0,410.0,0.0
1513267384061082615,,730653,,1513267382,238669309,'',0.837758040957,0.836283267029,0.00152812609892,0.0,0.001,0.0,7200.0,0.0,410.0,0.0
1513267384070867289,,730654,,1513267382,248669309,'',0.837758040957,0.836325745799,0.000678350021255,0.0,0.001,0.0,7200.0,0.0,410.0,0.0
1513267384080764262,,730655,,1513267382,258669309,'',0.837758040957,0.836386780783,0.02971736212,0.0,0.001,0.0,7200.0,0.0,410.0,0.0
1513267384090671366,,730656,,1513267382,268669309,'',0.837758040957,0.836653581501,0.0243280867467,0.0,0.001,0.0,7200.0,0.0,410.0,0.0
1513267384101093960,,730657,,1513267382,278669309,'',0.837758040957,0.8367671169,0.0220492458979,0.0,0.001,0.0,7200.0,0.0,410.0,0.0
1513267384110580729,,730658,,1513267382,288669309,'',0.837758040957,0.836937414046,0.018605686241,0.0,0.001,0.0,7200.0,0.0,410.0,0.0
1513267384121136164,,730659,,1513267382,298669309,'',0.837758040957,0.837104385581,0.0152309441356,0.0,0.001,0.0,7200.0,0.0,410.0,0.0
1513267384131051776,,730660,,1513267382,308669309,'',0.837758040957,0.837215751183,0.0129719491331,0.0,0.001,0.0,7200.0,0.0,410.0,0.0
1513267384141064623,,730661,,1513267382,318669309,'',0.837758040957,0.837223188885,0.0128234763288,0.0,0.001,0.0,7200.0,0.0,410.0,0.0
1513267384150971474,,730662,,1513267382,328669309,'',0.837758040957,0.8372800271,-0.0185977003804,0.0,0.001,0.0,7200.0,0.0,410.0,0.0
1513267384160989114,,730663,,1513267382,338669309,'',0.837758040957,0.83733364041,0.0106056466021,0.0,0.001,0.0,7200.0,0.0,410.0,0.0
1513267384170964937,,730664,,1513267382,348669309,'',0.837758040957,0.837399423398,-0.0209988952785,0.0,0.001,0.0,7200.0,0.0,410.0,0.0
1513267384180935112,,730665,,1513267382,358669309,'',0.837758040957,0.837375327435,0.0097688543722,0.0,0.001,0.0,7200.0,0.0,410.0,0.0
1513267384190844310,,730666,,1513267382,368669309,'',0.837758040957,0.837408025768,-0.0211687424604,0.0,0.001,0.0,7200.0,0.0,410.0,0.0
1513267384200845614,,730667,,1513267382,378669309,'',0.837758040957,0.837461050293,0.00802970669289,0.0,0.001,0.0,7200.0,0.0,410.0,0.0
1513267384210806824,,730668,,1513267382,388669309,'',0.837758040957,0.837479126748,0.0076751776793,0.0,0.001,0.0,7200.0,0.0,410.0,0.0
1513267384220832576,,730669,,1513267382,398669309,'',0.837758040957,0.837547811612,0.0062836355485,0.0,0.001,0.0,7200.0,0.0,410.0,0.0
1513267384230686581,,730670,,1513267382,408669309,'',0.837758040957,0.837527147718,0.00668844139976,0.0,0.001,0.0,7200.0,0.0,410.0,0.0
1513267384240602429,,730671,,1513267382,418669309,'',0.837758040957,0.837587028009,0.00547778349257,0.0,0.001,0.0,7200.0,0.0,410.0,0.0
1513267384250934993,,730672,,1513267382,428669309,'',0.837758040957,0.837636166841,0.00448429607124,0.0,0.001,0.0,7200.0,0.0,410.0,0.0
1513267384260853452,,730673,,1513267382,438669309,'',0.837758040957,0.8376465693,-0.0260067932194,0.0,0.001,0.0,7200.0,0.0,410.0,0.0
1513267384270799203,,730674,,1513267382,448669309,'',0.837758040957,0.837632785268,0.00453928615554,0.0,0.001,0.0,7200.0,0.0,410.0,0.0
1513267384280852889,,730675,,1513267382,458669309,'',0.837758040957,0.837648458755,0.00421958377408,0.0,0.001,0.0,7200.0,0.0,410.0,0.0
1513267384290642429,,730676,,1513267382,468669309,'',0.837758040957,0.837660605032,0.00398336034986,0.0,0.001,0.0,7200.0,0.0,410.0,0.0
1513267384300986196,,730677,,1513267382,478669309,'',0.837758040957,0.83764571631,0.00429062741823,0.0,0.001,0.0,7200.0,0.0,410.0,0.0
1513267384310925914,,730678,,1513267382,488669309,'',0.837758040957,0.837658299112,0.00403692086492,0.0,0.001,0.0,7200.0,0.0,410.0,0.0
1513267384320875882,,730679,,1513267382,498669309,'',0.837758040957,0.837637101319,-0.0258164705103,0.0,0.001,0.0,7200.0,0.0,410.0,0.0
1513267384330847871,,730680,,1513267382,508669309,'',0.837758040957,0.837626835046,0.00466497178396,0.0,0.001,0.0,7200.0,0.0,410.0,0.0
1513267384341003845,,730681,,1513267382,518669309,'',0.837758040957,0.837639508183,0.00439760618216,0.0,0.001,0.0,7200.0,0.0,410.0,0.0
1513267384350934242,,730682,,1513267382,528669309,'',0.837758040957,0.837651530351,0.00415764340657,0.0,0.001,0.0,7200.0,0.0,410.0,0.0
1513267384360901452,,730683,,1513267382,538669309,'',0.837758040957,0.837688963355,0.00340373148269,0.0,0.001,0.0,7200.0,0.0,410.0,0.0
1513267384371321146,,730684,,1513267382,548669309,'',0.837758040957,0.837694279171,0.00329353640647,0.0,0.001,0.0,7200.0,0.0,410.0,0.0
1513267384380701692,,730685,,1513267382,558669309,'',0.837758040957,0.837748738503,0.002190605007,0.0,0.001,0.0,7200.0,0.0,410.0,0.0
1513267384390571951,,730686,,1513267382,568669309,'',0.837758040957,0.837799403138,0.00117633570813,0.0,0.001,0.0,7200.0,0.0,410.0,0.0
1513267384400613487,,730687,,1513267382,578669309,'',0.837758040957,0.837945003385,-0.00176215672147,0.0,0.001,0.0,7200.0,0.0,410.0,0.0
1513267384411079561,,730688,,1513267382,588669309,'',0.837758040957,0.837983134881,-0.00254479985401,0.0,0.001,0.0,7200.0,0.0,410.0,0.0
1513267384421024609,,730689,,1513267382,598669309,'',0.837758040957,0.838072234375,0.0259305290597,0.0,0.001,0.0,7200.0,0.0,410.0,0.0
1513267384430952859,,730690,,1513267382,608669309,'',0.837758040957,0.838062015349,-0.00415419773272,0.0,0.001,0.0,7200.0,0.0,410.0,0.0
1513267384440780864,,730691,,1513267382,618669309,'',0.837758040957,0.838053070423,-0.00397370936314,0.0,0.001,0.0,7200.0,0.0,410.0,0.0
1513267384450721828,,730692,,1513267382,628669309,'',0.837758040957,0.838072754301,-0.00436691550654,0.0,0.001,0.0,7200.0,0.0,410.0,0.0
1513267384460963888,,730693,,1513267382,638669309,'',0.837758040957,0.838139653261,-0.00571928473439,0.0,0.001,0.0,7200.0,0.0,410.0,0.0
1513267384470969457,,730694,,1513267382,648669309,'',0.837758040957,0.838225487914,0.0228341973379,0.0,0.001,0.0,7200.0,0.0,410.0,0.0
1513267384480866380,,730695,,1513267382,658669309,'',0.837758040957,0.838209193721,-0.00710683420116,0.0,0.001,0.0,7200.0,0.0,410.0,0.0
1513267384490779698,,730696,,1513267382,668669309,'',0.837758040957,0.838229958542,-0.0075237252716,0.0,0.001,0.0,7200.0,0.0,410.0,0.0
1513267384500687634,,730697,,1513267382,678669309,'',0.837758040957,0.838190508,-0.00672005013584,0.0,0.001,0.0,7200.0,0.0,410.0,0.0
1513267384510633545,,730698,,1513267382,688669309,'',0.837758040957,0.838268992118,0.021973181952,0.0,0.001,0.0,7200.0,0.0,410.0,0.0
1513267384520728599,,730699,,1513267382,698669309,'',0.837758040957,0.838273676136,-0.00839551187281,0.0,0.001,0.0,7200.0,0.0,410.0,0.0
1513267384530657223,,730700,,1513267382,708669309,'',0.837758040957,0.838280510401,0.0217420214648,0.0,0.001,0.0,7200.0,0.0,410.0,0.0
1513267384540986325,,730701,,1513267382,718669309,'',0.837758040957,0.838283159626,-0.00858253344059,0.0,0.001,0.0,7200.0,0.0,410.0,0.0
1513267384550913681,,730702,,1513267382,728669309,'',0.837758040957,0.838257747893,-0.00808253266457,0.0,0.001,0.0,7200.0,0.0,410.0,0.0
1513267384560767657,,730703,,1513267382,738669309,'',0.837758040957,0.838350215977,0.0203257030122,0.0,0.001,0.0,7200.0,0.0,410.0,0.0
1513267384571070071,,730704,,1513267382,748669309,'',0.837758040957,0.838260920646,-0.00815059935873,0.0,0.001,0.0,7200.0,0.0,410.0,0.0
1513267384581245235,,730705,,1513267382,758669309,'',0.837758040957,0.838355564289,0.0201977352343,0.0,0.001,0.0,7200.0,0.0,410.0,0.0
1513267384591089669,,730706,,1513267382,768669309,'',0.837758040957,0.838372459294,0.0198517130101,0.0,0.001,0.0,7200.0,0.0,410.0,0.0
1513267384600974038,,730707,,1513267382,778669309,'',0.837758040957,0.838385608712,-0.0106831312578,0.0,0.001,0.0,7200.0,0.0,410.0,0.0
1513267384610921105,,730708,,1513267382,788669309,'',0.837758040957,0.838371873892,-0.0103962752158,0.0,0.001,0.0,7200.0,0.0,410.0,0.0
1513267384620958615,,730709,,1513267382,798669309,'',0.837758040957,0.838386857695,-0.0106886069324,0.0,0.001,0.0,7200.0,0.0,410.0,0.0
1513267384630904771,,730710,,1513267382,808669309,'',0.837758040957,0.838397643813,-0.0109034033345,0.0,0.001,0.0,7200.0,0.0,410.0,0.0
1513267384640842731,,730711,,1513267382,818669309,'',0.837758040957,0.838407306596,-0.0110918127096,0.0,0.001,0.0,7200.0,0.0,410.0,0.0
1513267384650655362,,730712,,1513267382,828669309,'',0.837758040957,0.838527105656,0.01677252235,0.0,0.001,0.0,7200.0,0.0,410.0,0.0
1513267384660743996,,730713,,1513267382,838669309,'',0.837758040957,0.838623286744,0.0148365822015,0.0,0.001,0.0,7200.0,0.0,410.0,0.0
1513267384670596980,,730714,,1513267382,848669309,'',0.837758040957,0.838728919972,0.0126960530358,0.0,0.001,0.0,7200.0,0.0,410.0,0.0
1513267384681189413,,730715,,1513267382,858669309,'',0.837758040957,0.838783779671,-0.0186942799592,0.0,0.001,0.0,7200.0,0.0,410.0,0.0
1513267384691094977,,730716,,1513267382,868669309,'',0.837758040957,0.838859087246,0.0100650027738,0.0,0.001,0.0,7200.0,0.0,410.0,0.0
1513267384701021248,,730717,,1513267382,878669309,'',0.837758040957,0.8388135468,-0.0193020328455,0.0,0.001,0.0,7200.0,0.0,410.0,0.0
1513267384710872473,,730718,,1513267382,888669309,'',0.837758040957,0.838857090981,0.0101169636736,0.0,0.001,0.0,7200.0,0.0,410.0,0.0
1513267384720868847,,730719,,1513267382,898669309,'',0.837758040957,0.838868896446,0.00986908925485,0.0,0.001,0.0,7200.0,0.0,410.0,0.0
1513267384730883284,,730720,,1513267382,908669309,'',0.837758040957,0.838900486668,-0.0210517588064,0.0,0.001,0.0,7200.0,0.0,410.0,0.0
1513267384740890995,,730721,,1513267382,918669309,'',0.837758040957,0.838929743143,0.00864093837318,0.0,0.001,0.0,7200.0,0.0,410.0,0.0
1513267384750691480,,730722,,1513267382,928669309,'',0.837758040957,0.838953962177,0.0081478073358,0.0,0.001,0.0,7200.0,0.0,410.0,0.0
1513267384761186200,,730723,,1513267382,938669309,'',0.837758040957,0.838975243187,0.00772140359537,0.0,0.001,0.0,7200.0,0.0,410.0,0.0
1513267384771045326,,730724,,1513267382,948669309,'',0.837758040957,0.838963367241,0.00796008958482,0.0,0.001,0.0,7200.0,0.0,410.0,0.0
1513267384781063642,,730725,,1513267382,958669309,'',0.837758040957,0.839009954493,0.0070231815318,0.0,0.001,0.0,7200.0,0.0,410.0,0.0
1513267384790964461,,730726,,1513267382,968669309,'',0.837758040957,0.839017412855,0.0068786952888,0.0,0.001,0.0,7200.0,0.0,410.0,0.0
1513267384800923047,,730727,,1513267382,978669309,'',0.837758040957,0.83904975018,0.00622198995764,0.0,0.001,0.0,7200.0,0.0,410.0,0.0
