rosbagTimestamp,header,seq,stamp,secs,nsecs,frame_id,set_point,process_value,process_value_dot,error,time_step,command,p,i,d,i_clamp
1513266990649914909,,691316,,1513266988,835445376,'',1.43116998664,1.42148260868,0.00769782564085,-0.00968737795832,0.001,48.4368897916,5000.0,0.0,0.0,0.0
1513266990659806490,,691317,,1513266988,845445376,'',1.43116998664,1.4226835233,0.0304729953037,-0.00848646333538,0.001,42.4323166769,5000.0,0.0,0.0,0.0
1513266990669797417,,691318,,1513266988,855445376,'',1.43116998664,1.42148260868,0.00598954916292,-0.00968737795832,0.001,48.4368897916,5000.0,0.0,0.0,0.0
1513266990679917425,,691319,,1513266988,865445376,'',1.43116998664,1.42148260868,0.00571219960439,-0.00968737795832,0.001,48.4368897916,5000.0,0.0,0.0,0.0
1513266990689840198,,691320,,1513266988,875445376,'',1.43116998664,1.42148260868,0.00815505169712,-0.00968737795832,0.001,48.4368897916,5000.0,0.0,0.0,0.0
1513266990700097052,,691321,,1513266988,885445376,'',1.43116998664,1.42028169405,-0.015388622859,-0.0108882925812,0.001,54.4414629062,5000.0,0.0,0.0,0.0
1513266990710082774,,691322,,1513266988,895445376,'',1.43116998664,1.42148260868,0.00897189411604,-0.00968737795832,0.001,48.4368897916,5000.0,0.0,0.0,0.0
1513266990720136563,,691323,,1513266988,905445376,'',1.43116998664,1.42028169405,-0.0150588342355,-0.0108882925812,0.001,54.4414629062,5000.0,0.0,0.0,0.0
1513266990730027564,,691324,,1513266988,915445376,'',1.43116998664,1.42148260868,0.00880504444709,-0.00968737795832,0.001,48.4368897916,5000.0,0.0,0.0,0.0
1513266990739949398,,691325,,1513266988,925445376,'',1.43116998664,1.4226835233,0.0331538418576,-0.00848646333538,0.001,42.4323166769,5000.0,0.0,0.0,0.0
1513266990749888945,,691326,,1513266988,935445376,'',1.43116998664,1.42148260868,0.00904089920805,-0.00968737795832,0.001,48.4368897916,5000.0,0.0,0.0,0.0
1513266990759784324,,691327,,1513266988,945445376,'',1.43116998664,1.42148260868,0.0078415921708,-0.00968737795832,0.001,48.4368897916,5000.0,0.0,0.0,0.0
1513266990769934685,,691328,,1513266988,955445376,'',1.43116998664,1.42028169405,-0.0165197088927,-0.0108882925812,0.001,54.4414629062,5000.0,0.0,0.0,0.0
1513266990779779514,,691329,,1513266988,965445376,'',1.43116998664,1.42148260868,0.00763136939479,-0.00968737795832,0.001,48.4368897916,5000.0,0.0,0.0,0.0
1513266990789641719,,691330,,1513266988,975445376,'',1.43116998664,1.42028169405,-0.0158046724638,-0.0108882925812,0.001,54.4414629062,5000.0,0.0,0.0,0.0
1513266990800052391,,691331,,1513266988,985445376,'',1.43116998664,1.42148260868,0.00908799956398,-0.00968737795832,0.001,48.4368897916,5000.0,0.0,0.0,0.0
1513266990810053548,,691332,,1513266988,995445376,'',1.43116998664,1.42028169405,-0.014601260748,-0.0108882925812,0.001,54.4414629062,5000.0,0.0,0.0,0.0
1513266990819919239,,691333,,1513266989,5445376,'',1.43116998664,1.42148260868,0.00794403633075,-0.00968737795832,0.001,48.4368897916,5000.0,0.0,0.0,0.0
1513266990829847891,,691334,,1513266989,15445376,'',1.43116998664,1.42028169405,-0.0168368293462,-0.0108882925812,0.001,54.4414629062,5000.0,0.0,0.0,0.0
1513266990839652345,,691335,,1513266989,25445376,'',1.43116998664,1.42148260868,0.00693653936159,-0.00968737795832,0.001,48.4368897916,5000.0,0.0,0.0,0.0
1513266990849794160,,691336,,1513266989,35445376,'',1.43116998664,1.42148260868,0.00693979150567,-0.00968737795832,0.001,48.4368897916,5000.0,0.0,0.0,0.0
1513266990860065864,,691337,,1513266989,45445376,'',1.43116998664,1.42148260868,0.00614308060952,-0.00968737795832,0.001,48.4368897916,5000.0,0.0,0.0,0.0
1513266990870019777,,691338,,1513266989,55445376,'',1.43116998664,1.42148260868,0.00629686747596,-0.00968737795832,0.001,48.4368897916,5000.0,0.0,0.0,0.0
1513266990879957001,,691339,,1513266989,65445376,'',1.43116998664,1.42148260868,0.00424603872225,-0.00968737795832,0.001,48.4368897916,5000.0,0.0,0.0,0.0
1513266990889858931,,691340,,1513266989,75445376,'',1.43116998664,1.42028169405,-0.0194429652848,-0.0108882925812,0.001,54.4414629062,5000.0,0.0,0.0,0.0
1513266990899819365,,691341,,1513266989,85445376,'',1.43116998664,1.42148260868,0.00387624335362,-0.00968737795832,0.001,48.4368897916,5000.0,0.0,0.0,0.0
1513266990909795769,,691342,,1513266989,95445376,'',1.43116998664,1.42148260868,0.00365861523865,-0.00968737795832,0.001,48.4368897916,5000.0,0.0,0.0,0.0
1513266990920072168,,691343,,1513266989,105445376,'',1.43116998664,1.42148260868,0.00346127832491,-0.00968737795832,0.001,48.4368897916,5000.0,0.0,0.0,0.0
1513266990930065053,,691344,,1513266989,115445376,'',1.43116998664,1.42148260868,0.00334316861981,-0.00968737795832,0.001,48.4368897916,5000.0,0.0,0.0,0.0
1513266990940009481,,691345,,1513266989,125445376,'',1.43116998664,1.42028169405,-0.0209767197671,-0.0108882925812,0.001,54.4414629062,5000.0,0.0,0.0,0.0
1513266990950123117,,691346,,1513266989,135445376,'',1.43116998664,1.42148260868,0.00181244674921,-0.00968737795832,0.001,48.4368897916,5000.0,0.0,0.0,0.0
1513266990959829316,,691347,,1513266989,145445376,'',1.43116998664,1.42148260868,0.00142968818129,-0.00968737795832,0.001,48.4368897916,5000.0,0.0,0.0,0.0
1513266990969815330,,691348,,1513266989,155445376,'',1.43116998664,1.42148260868,0.00208749662795,-0.00968737795832,0.001,48.4368897916,5000.0,0.0,0.0,0.0
1513266990979671151,,691349,,1513266989,165445376,'',1.43116998664,1.42148260868,0.00257288436135,-0.00968737795832,0.001,48.4368897916,5000.0,0.0,0.0,0.0
1513266990990016075,,691350,,1513266989,175445376,'',1.43116998664,1.4226835233,0.0263414342033,-0.00848646333538,0.001,42.4323166769,5000.0,0.0,0.0,0.0
1513266990999995217,,691351,,1513266989,185445376,'',1.43116998664,1.42148260868,0.00170182925894,-0.00968737795832,0.001,48.4368897916,5000.0,0.0,0.0,0.0
1513266991009860531,,691352,,1513266989,195445376,'',1.43116998664,1.42148260868,0.00185732471456,-0.00968737795832,0.001,48.4368897916,5000.0,0.0,0.0,0.0
1513266991019772661,,691353,,1513266989,205445376,'',1.43116998664,1.42148260868,0.00239806450569,-0.00968737795832,0.001,48.4368897916,5000.0,0.0,0.0,0.0
1513266991029760203,,691354,,1513266989,215445376,'',1.43116998664,1.42148260868,0.00233128251706,-0.00968737795832,0.001,48.4368897916,5000.0,0.0,0.0,0.0
1513266991040148214,,691355,,1513266989,225445376,'',1.43116998664,1.4226835233,0.0256872245655,-0.00848646333538,0.001,42.4323166769,5000.0,0.0,0.0,0.0
1513266991050063800,,691356,,1513266989,235445376,'',1.43116998664,1.42148260868,0.000326361995008,-0.00968737795832,0.001,48.4368897916,5000.0,0.0,0.0,0.0
1513266991060077349,,691357,,1513266989,245445376,'',1.43116998664,1.42148260868,0.00115588027652,-0.00968737795832,0.001,48.4368897916,5000.0,0.0,0.0,0.0
1513266991069994919,,691358,,1513266989,255445376,'',1.43116998664,1.42148260868,0.00134829549665,-0.00968737795832,0.001,48.4368897916,5000.0,0.0,0.0,0.0
1513266991079973663,,691359,,1513266989,265445376,'',1.43116998664,1.42148260868,0.00100612387921,-0.00968737795832,0.001,48.4368897916,5000.0,0.0,0.0,0.0
1513266991089829641,,691360,,1513266989,275445376,'',1.43116998664,1.42148260868,0.00247970663347,-0.00968737795832,0.001,48.4368897916,5000.0,0.0,0.0,0.0
1513266991099769367,,691361,,1513266989,285445376,'',1.43116998664,1.4226835233,0.0262452377106,-0.00848646333538,0.001,42.4323166769,5000.0,0.0,0.0,0.0
1513266991109664758,,691362,,1513266989,295445376,'',1.43116998664,1.42148260868,0.00073173077598,-0.00968737795832,0.001,48.4368897916,5000.0,0.0,0.0,0.0
1513266991119724461,,691363,,1513266989,305445376,'',1.43116998664,1.42028169405,-0.0222430335539,-0.0108882925812,0.001,54.4414629062,5000.0,0.0,0.0,0.0
1513266991129609457,,691364,,1513266989,315445376,'',1.43116998664,1.42028169405,-0.0216811094038,-0.0108882925812,0.001,54.4414629062,5000.0,0.0,0.0,0.0
1513266991140133413,,691365,,1513266989,325445376,'',1.43116998664,1.42028169405,-0.0212284693807,-0.0108882925812,0.001,54.4414629062,5000.0,0.0,0.0,0.0
1513266991150091542,,691366,,1513266989,335445376,'',1.43116998664,1.4226835233,0.0267262887283,-0.00848646333538,0.001,42.4323166769,5000.0,0.0,0.0,0.0
1513266991160091488,,691367,,1513266989,345445376,'',1.43116998664,1.4226835233,0.0266690476269,-0.00848646333538,0.001,42.4323166769,5000.0,0.0,0.0,0.0
1513266991169889256,,691368,,1513266989,355445376,'',1.43116998664,1.42028169405,-0.0209946789678,-0.0108882925812,0.001,54.4414629062,5000.0,0.0,0.0,0.0
1513266991179896185,,691369,,1513266989,365445376,'',1.43116998664,1.42028169405,-0.0211171380103,-0.0108882925812,0.001,54.4414629062,5000.0,0.0,0.0,0.0
1513266991189739736,,691370,,1513266989,375445376,'',1.43116998664,1.42148260868,0.00212789779517,-0.00968737795832,0.001,48.4368897916,5000.0,0.0,0.0,0.0
1513266991199772948,,691371,,1513266989,385445376,'',1.43116998664,1.4226835233,0.0263243455982,-0.00848646333538,0.001,42.4323166769,5000.0,0.0,0.0,0.0
1513266991209742099,,691372,,1513266989,395445376,'',1.43116998664,1.42148260868,0.00157545944142,-0.00968737795832,0.001,48.4368897916,5000.0,0.0,0.0,0.0
1513266991219807918,,691373,,1513266989,405445376,'',1.43116998664,1.42148260868,0.00210220715251,-0.00968737795832,0.001,48.4368897916,5000.0,0.0,0.0,0.0
1513266991230058517,,691374,,1513266989,415445376,'',1.43116998664,1.42148260868,0.00307214775653,-0.00968737795832,0.001,48.4368897916,5000.0,0.0,0.0,0.0
1513266991240006064,,691375,,1513266989,425445376,'',1.43116998664,1.42148260868,0.00251852959221,-0.00968737795832,0.001,48.4368897916,5000.0,0.0,0.0,0.0
1513266991249724877,,691376,,1513266989,435445376,'',1.43116998664,1.42148260868,0.00292722525507,-0.00968737795832,0.001,48.4368897916,5000.0,0.0,0.0,0.0
1513266991260254665,,691377,,1513266989,445445376,'',1.43116998664,1.42148260868,0.00236396080113,-0.00968737795832,0.001,48.4368897916,5000.0,0.0,0.0,0.0
1513266991269984900,,691378,,1513266989,455445376,'',1.43116998664,1.42028169405,-0.0215144222025,-0.0108882925812,0.001,54.4414629062,5000.0,0.0,0.0,0.0
1513266991280017205,,691379,,1513266989,465445376,'',1.43116998664,1.42148260868,0.00358227507659,-0.00968737795832,0.001,48.4368897916,5000.0,0.0,0.0,0.0
1513266991289907052,,691380,,1513266989,475445376,'',1.43116998664,1.42148260868,0.0037301041778,-0.00968737795832,0.001,48.4368897916,5000.0,0.0,0.0,0.0
1513266991299722315,,691381,,1513266989,485445376,'',1.43116998664,1.42028169405,-0.0194948296191,-0.0108882925812,0.001,54.4414629062,5000.0,0.0,0.0,0.0
1513266991310131410,,691382,,1513266989,495445376,'',1.43116998664,1.42148260868,0.00521987604919,-0.00968737795832,0.001,48.4368897916,5000.0,0.0,0.0,0.0
1513266991320061085,,691383,,1513266989,505445376,'',1.43116998664,1.42148260868,0.00603398632211,-0.00968737795832,0.001,48.4368897916,5000.0,0.0,0.0,0.0
1513266991330051766,,691384,,1513266989,515445376,'',1.43116998664,1.42148260868,0.00540456596224,-0.00968737795832,0.001,48.4368897916,5000.0,0.0,0.0,0.0
1513266991340022665,,691385,,1513266989,525445376,'',1.43116998664,1.42028169405,-0.0166979685722,-0.0108882925812,0.001,54.4414629062,5000.0,0.0,0.0,0.0
1513266991349969254,,691386,,1513266989,535445376,'',1.43116998664,1.42028169405,-0.0158061510326,-0.0108882925812,0.001,54.4414629062,5000.0,0.0,0.0,0.0
1513266991359923208,,691387,,1513266989,545445376,'',1.43116998664,1.42028169405,-0.0155384185317,-0.0108882925812,0.001,54.4414629062,5000.0,0.0,0.0,0.0
1513266991369886367,,691388,,1513266989,555445376,'',1.43116998664,1.42148260868,0.00790531185456,-0.00968737795832,0.001,48.4368897916,5000.0,0.0,0.0,0.0
1513266991379764629,,691389,,1513266989,565445376,'',1.43116998664,1.42148260868,0.00680724593214,-0.00968737795832,0.001,48.4368897916,5000.0,0.0,0.0,0.0
1513266991389770589,,691390,,1513266989,575445376,'',1.43116998664,1.42148260868,0.006401705303,-0.00968737795832,0.001,48.4368897916,5000.0,0.0,0.0,0.0
1513266991399775444,,691391,,1513266989,585445376,'',1.43116998664,1.42028169405,-0.019870154146,-0.0108882925812,0.001,54.4414629062,5000.0,0.0,0.0,0.0
1513266991410183620,,691392,,1513266989,595445376,'',1.43116998664,1.42148260868,0.00450481991348,-0.00968737795832,0.001,48.4368897916,5000.0,0.0,0.0,0.0
1513266991420059074,,691393,,1513266989,605445376,'',1.43116998664,1.42028169405,-0.0191622317781,-0.0108882925812,0.001,54.4414629062,5000.0,0.0,0.0,0.0
1513266991429787084,,691394,,1513266989,615445376,'',1.43116998664,1.42148260868,0.00460896614022,-0.00968737795832,0.001,48.4368897916,5000.0,0.0,0.0,0.0
1513266991439803192,,691395,,1513266989,625445376,'',1.43116998664,1.4226835233,0.0275869835979,-0.00848646333538,0.001,42.4323166769,5000.0,0.0,0.0,0.0
1513266991449799688,,691396,,1513266989,635445376,'',1.43116998664,1.4226835233,0.0252318767077,-0.00848646333538,0.001,42.4323166769,5000.0,0.0,0.0,0.0
1513266991459751178,,691397,,1513266989,645445376,'',1.43116998664,1.4226835233,0.024559157739,-0.00848646333538,0.001,42.4323166769,5000.0,0.0,0.0,0.0
1513266991469796799,,691398,,1513266989,655445376,'',1.43116998664,1.4226835233,0.0239880441989,-0.00848646333538,0.001,42.4323166769,5000.0,0.0,0.0,0.0
1513266991479743362,,691399,,1513266989,665445376,'',1.43116998664,1.42148260868,-0.00240207850979,-0.00968737795832,0.001,48.4368897916,5000.0,0.0,0.0,0.0
1513266991490194178,,691400,,1513266989,675445376,'',1.43116998664,1.42148260868,-0.00546907028356,-0.00968737795832,0.001,48.4368897916,5000.0,0.0,0.0,0.0
1513266991500112027,,691401,,1513266989,685445376,'',1.43116998664,1.4226835233,0.0157976251265,-0.00848646333538,0.001,42.4323166769,5000.0,0.0,0.0,0.0
1513266991510134024,,691402,,1513266989,695445376,'',1.43116998664,1.4226835233,0.012028438698,-0.00848646333538,0.001,42.4323166769,5000.0,0.0,0.0,0.0
1513266991520095521,,691403,,1513266989,705445376,'',1.43116998664,1.42388443792,0.0323597643069,-0.00728554871245,0.001,36.4277435623,5000.0,0.0,0.0,0.0
1513266991530038253,,691404,,1513266989,715445376,'',1.43116998664,1.42388443792,0.0299853472683,-0.00728554871245,0.001,36.4277435623,5000.0,0.0,0.0,0.0
1513266991539867393,,691405,,1513266989,725445376,'',1.43116998664,1.4226835233,0.00376471686527,-0.00848646333538,0.001,42.4323166769,5000.0,0.0,0.0,0.0
1513266991549862596,,691406,,1513266989,735445376,'',1.43116998664,1.42388443792,0.0237712020909,-0.00728554871245,0.001,36.4277435623,5000.0,0.0,0.0,0.0
1513266991560135956,,691407,,1513266989,745445376,'',1.43116998664,1.42388443792,0.0198028455819,-0.00728554871245,0.001,36.4277435623,5000.0,0.0,0.0,0.0
1513266991570220580,,691408,,1513266989,755445376,'',1.43116998664,1.42388443792,0.0157172056433,-0.00728554871245,0.001,36.4277435623,5000.0,0.0,0.0,0.0
1513266991580074349,,691409,,1513266989,765445376,'',1.43116998664,1.42508535255,0.0336169432621,-0.00608463408952,0.001,30.4231704476,5000.0,0.0,0.0,0.0
1513266991589965153,,691410,,1513266989,775445376,'',1.43116998664,1.42628626717,0.0512489700023,-0.00488371946659,0.001,24.4185973329,5000.0,0.0,0.0,0.0
1513266991599837245,,691411,,1513266989,785445376,'',1.43116998664,1.42628626717,0.0419442225975,-0.00488371946659,0.001,24.4185973329,5000.0,0.0,0.0,0.0
1513266991609988167,,691412,,1513266989,795445376,'',1.43116998664,1.42628626717,0.0339100882094,-0.00488371946659,0.001,24.4185973329,5000.0,0.0,0.0,0.0
1513266991619921000,,691413,,1513266989,805445376,'',1.43116998664,1.42628626717,0.023780941922,-0.00488371946659,0.001,24.4185973329,5000.0,0.0,0.0,0.0
1513266991629903026,,691414,,1513266989,815445376,'',1.43116998664,1.42748718179,0.0397101447522,-0.00368280484366,0.001,18.4140242183,5000.0,0.0,0.0,0.0
1513266991640161069,,691415,,1513266989,825445376,'',1.43116998664,1.42868809641,0.0559147832498,-0.00248189022073,0.001,12.4094511036,5000.0,0.0,0.0,0.0
1513266991650013122,,691416,,1513266989,835445376,'',1.43116998664,1.42988901104,0.0686554069004,-0.00128097559779,0.001,6.40487798897,5000.0,0.0,0.0,0.0
1513266991660012040,,691417,,1513266989,845445376,'',1.43116998664,1.42868809641,0.0367037460694,-0.00248189022073,0.001,12.4094511036,5000.0,0.0,0.0,0.0
1513266991669948851,,691418,,1513266989,855445376,'',1.43116998664,1.42988901104,0.0520680908756,-0.00128097559779,0.001,6.40487798897,5000.0,0.0,0.0,0.0
1513266991680021272,,691419,,1513266989,865445376,'',1.43116998664,1.42988901104,0.0430784010348,-0.00128097559779,0.001,6.40487798897,5000.0,0.0,0.0,0.0
1513266991689901329,,691420,,1513266989,875445376,'',1.43116998664,1.42988901104,0.0348466257091,0.0,0.001,0.0,5000.0,0.0,0.0,0.0
1513266991699837669,,691421,,1513266989,885445376,'',1.43116998664,1.43108992566,0.0496545987754,0.0,0.001,0.0,5000.0,0.0,0.0,0.0
1513266991709669517,,691422,,1513266989,895445376,'',1.43116998664,1.43108992566,0.0397725757362,0.0,0.001,0.0,5000.0,0.0,0.0,0.0
1513266991720138714,,691423,,1513266989,905445376,'',1.43116998664,1.43229084028,0.0537646065339,0.0,0.001,0.0,5000.0,0.0,0.0,0.0
1513266991729669277,,691424,,1513266989,915445376,'',1.43116998664,1.43229084028,0.045368357463,0.0,0.001,0.0,5000.0,0.0,0.0,0.0
1513266991740171328,,691425,,1513266989,925445376,'',1.43116998664,1.43469266953,0.0864886843312,0.0,0.001,0.0,5000.0,0.0,0.0,0.0
1513266991750062374,,691426,,1513266989,935445376,'',1.43116998664,1.43349175491,0.0552534716196,0.0,0.001,0.0,5000.0,0.0,0.0,0.0
1513266991759905570,,691427,,1513266989,945445376,'',1.43116998664,1.43349175491,0.0478789896807,0.0,0.001,0.0,5000.0,0.0,0.0,0.0
1513266991770589842,,691428,,1513266989,955445376,'',1.43116998664,1.43349175491,0.04139070578,0.0,0.001,0.0,5000.0,0.0,0.0,0.0
1513266991779848932,,691429,,1513266989,965445376,'',1.43116998664,1.43229084028,0.0114171436207,0.0,0.001,0.0,5000.0,0.0,0.0,0.0
1513266991789785177,,691430,,1513266989,975445376,'',1.43116998664,1.43349175491,0.0291811487602,0.0,0.001,0.0,5000.0,0.0,0.0,0.0
1513266991799778677,,691431,,1513266989,985445376,'',1.43116998664,1.43349175491,0.0256026995228,0.0,0.001,0.0,5000.0,0.0,0.0,0.0
1513266991809732877,,691432,,1513266989,995445376,'',1.43116998664,1.43349175491,0.0213551677044,0.0,0.001,0.0,5000.0,0.0,0.0,0.0
1513266991819753651,,691433,,1513266990,5445376,'',1.43116998664,1.43349175491,0.0179545930686,0.0,0.001,0.0,5000.0,0.0,0.0,0.0
1513266991830112303,,691434,,1513266990,15445376,'',1.43116998664,1.43469266953,0.0367665126546,0.0,0.001,0.0,5000.0,0.0,0.0,0.0
1513266991840089437,,691435,,1513266990,25445376,'',1.43116998664,1.43349175491,0.00895056662673,0.0,0.001,0.0,5000.0,0.0,0.0,0.0
1513266991850154754,,691436,,1513266990,35445376,'',1.43116998664,1.43469266953,0.0276839490857,0.0,0.001,0.0,5000.0,0.0,0.0,0.0
1513266991859986429,,691437,,1513266990,45445376,'',1.43116998664,1.43469266953,0.0256689016155,0.0,0.001,0.0,5000.0,0.0,0.0,0.0
1513266991869712563,,691438,,1513266990,55445376,'',1.43116998664,1.43349175491,-0.00193726603196,0.0,0.001,0.0,5000.0,0.0,0.0,0.0
1513266991879878262,,691439,,1513266990,65445376,'',1.43116998664,1.43469266953,0.0190693998176,0.0,0.001,0.0,5000.0,0.0,0.0,0.0
1513266991889592902,,691440,,1513266990,75445376,'',1.43116998664,1.43349175491,-0.00734599078898,0.0,0.001,0.0,5000.0,0.0,0.0,0.0
1513266991900126934,,691441,,1513266990,85445376,'',1.43116998664,1.43349175491,-0.0113355836341,0.0,0.001,0.0,5000.0,0.0,0.0,0.0
1513266991910042963,,691442,,1513266990,95445376,'',1.43116998664,1.43589358415,0.0334605915528,0.0,0.001,0.0,5000.0,0.0,0.0,0.0
1513266991919953577,,691443,,1513266990,105445376,'',1.43116998664,1.43589358415,0.0317464743362,0.0,0.001,0.0,5000.0,0.0,0.0,0.0
1513266991929975953,,691444,,1513266990,115445376,'',1.43116998664,1.43469266953,0.00534048693108,0.0,0.001,0.0,5000.0,0.0,0.0,0.0
1513266991939927572,,691445,,1513266990,125445376,'',1.43116998664,1.43469266953,0.00316854480027,0.0,0.001,0.0,5000.0,0.0,0.0,0.0
1513266991949739647,,691446,,1513266990,135445376,'',1.43116998664,1.43589358415,0.0242677344022,0.0,0.001,0.0,5000.0,0.0,0.0,0.0
1513266991960043537,,691447,,1513266990,145445376,'',1.43116998664,1.43589358415,0.0197837003063,0.0,0.001,0.0,5000.0,0.0,0.0,0.0
1513266991970075937,,691448,,1513266990,155445376,'',1.43116998664,1.43589358415,0.0183233558493,0.0,0.001,0.0,5000.0,0.0,0.0,0.0
1513266991979906346,,691449,,1513266990,165445376,'',1.43116998664,1.43589358415,0.0158680959243,0.0,0.001,0.0,5000.0,0.0,0.0,0.0
1513266991989700440,,691450,,1513266990,175445376,'',1.43116998664,1.43589358415,0.0130199286904,0.0,0.001,0.0,5000.0,0.0,0.0,0.0
1513266992000131469,,691451,,1513266990,185445376,'',1.43116998664,1.43709449878,0.0348198732117,0.0,0.001,0.0,5000.0,0.0,0.0,0.0
1513266992009997686,,691452,,1513266990,195445376,'',1.43116998664,1.43589358415,0.00866286345303,0.0,0.001,0.0,5000.0,0.0,0.0,0.0
1513266992019940966,,691453,,1513266990,205445376,'',1.43116998664,1.43469266953,-0.0176186261756,0.0,0.001,0.0,5000.0,0.0,0.0,0.0
1513266992029744450,,691454,,1513266990,215445376,'',1.43116998664,1.43709449878,0.0261710204677,0.0,0.001,0.0,5000.0,0.0,0.0,0.0
1513266992039691735,,691455,,1513266990,225445376,'',1.43116998664,1.43589358415,-0.00238411114084,0.0,0.001,0.0,5000.0,0.0,0.0,0.0
1513266992049686086,,691456,,1513266990,235445376,'',1.43116998664,1.43709449878,0.0183286789632,0.0,0.001,0.0,5000.0,0.0,0.0,0.0
1513266992060154065,,691457,,1513266990,245445376,'',1.43116998664,1.4382954134,0.0370210023706,0.0,0.001,0.0,5000.0,0.0,0.0,0.0
1513266992070325777,,691458,,1513266990,255445376,'',1.43116998664,1.43709449878,0.00726912980372,0.0,0.001,0.0,5000.0,0.0,0.0,0.0
1513266992080170509,,691459,,1513266990,265445376,'',1.43116998664,1.43709449878,0.00373174476177,0.0,0.001,0.0,5000.0,0.0,0.0,0.0
1513266992090168980,,691460,,1513266990,275445376,'',1.43116998664,1.43709449878,0.000900666585285,0.0,0.001,0.0,5000.0,0.0,0.0,0.0
1513266992099996548,,691461,,1513266990,285445376,'',1.43116998664,1.4382954134,0.022278891462,0.0,0.001,0.0,5000.0,0.0,0.0,0.0
1513266992110131440,,691462,,1513266990,295445376,'',1.43116998664,1.4382954134,0.0199767516796,0.0,0.001,0.0,5000.0,0.0,0.0,0.0
1513266992119844233,,691463,,1513266990,305445376,'',1.43116998664,1.43709449878,-0.00523684788312,0.0,0.001,0.0,5000.0,0.0,0.0,0.0
1513266992129982756,,691464,,1513266990,315445376,'',1.43116998664,1.4382954134,0.0181488531853,0.0,0.001,0.0,5000.0,0.0,0.0,0.0
1513266992140131304,,691465,,1513266990,325445376,'',1.43116998664,1.4382954134,0.0166354594171,0.0,0.001,0.0,5000.0,0.0,0.0,0.0
1513266992150055564,,691466,,1513266990,335445376,'',1.43116998664,1.4382954134,0.0149969844794,0.0,0.001,0.0,5000.0,0.0,0.0,0.0
1513266992160022611,,691467,,1513266990,345445376,'',1.43116998664,1.4382954134,0.0139685053698,0.0,0.001,0.0,5000.0,0.0,0.0,0.0
1513266992169999166,,691468,,1513266990,355445376,'',1.43116998664,1.43709449878,-0.0123338296713,0.0,0.001,0.0,5000.0,0.0,0.0,0.0
1513266992179857718,,691469,,1513266990,365445376,'',1.43116998664,1.43949632802,0.0330538307454,0.0,0.001,0.0,5000.0,0.0,0.0,0.0
1513266992189904288,,691470,,1513266990,375445376,'',1.43116998664,1.4382954134,0.00716338691805,0.0,0.001,0.0,5000.0,0.0,0.0,0.0
1513266992199898225,,691471,,1513266990,385445376,'',1.43116998664,1.43709449878,-0.0175087067788,0.0,0.001,0.0,5000.0,0.0,0.0,0.0
1513266992209824075,,691472,,1513266990,395445376,'',1.43116998664,1.43949632802,0.0284155557017,0.0,0.001,0.0,5000.0,0.0,0.0,0.0
1513266992219980275,,691473,,1513266990,405445376,'',1.43116998664,1.4382954134,0.0025459068208,0.0,0.001,0.0,5000.0,0.0,0.0,0.0
1513266992229764198,,691474,,1513266990,415445376,'',1.43116998664,1.43949632802,0.023309619743,0.0,0.001,0.0,5000.0,0.0,0.0,0.0
1513266992239939647,,691475,,1513266990,425445376,'',1.43116998664,1.44069724264,0.0436913517452,0.0,0.001,0.0,5000.0,0.0,0.0,0.0
1513266992249694694,,691476,,1513266990,435445376,'',1.43116998664,1.44189815727,0.0585934951997,0.0,0.001,0.0,5000.0,0.0,0.0,0.0
1513266992259624628,,691477,,1513266990,445445376,'',1.43116998664,1.44309907189,0.0669152911043,0.0,0.001,0.0,5000.0,0.0,0.0,0.0
1513266992269687240,,691478,,1513266990,455445376,'',1.43116998664,1.44670181576,0.119422266582,0.0155318291233,0.001,-77.6591456163,5000.0,0.0,0.0,0.0
1513266992279754770,,691479,,1513266990,465445376,'',1.43116998664,1.44790273038,0.119374455153,0.0167327437462,0.001,-83.6637187309,5000.0,0.0,0.0,0.0
1513266992289693277,,691480,,1513266990,475445376,'',1.43116998664,1.449103645,0.123183811137,0.0179336583691,0.001,-89.6682918456,5000.0,0.0,0.0,0.0
1513266992300197281,,691481,,1513266990,485445376,'',1.43116998664,1.44790273038,0.0801062661896,0.0167327437462,0.001,-83.6637187309,5000.0,0.0,0.0,0.0
1513266992310300299,,691482,,1513266990,495445376,'',1.43116998664,1.449103645,0.0863552680906,0.0179336583691,0.001,-89.6682918456,5000.0,0.0,0.0,0.0
1513266992320036756,,691483,,1513266990,505445376,'',1.43116998664,1.44790273038,0.0461225485193,0.0167327437462,0.001,-83.6637187309,5000.0,0.0,0.0,0.0
1513266992330037029,,691484,,1513266990,515445376,'',1.43116998664,1.44790273038,0.033786193562,0.0167327437462,0.001,-83.6637187309,5000.0,0.0,0.0,0.0
1513266992340026977,,691485,,1513266990,525445376,'',1.43116998664,1.45030455963,0.0712837352284,0.019134572992,0.001,-95.6728649602,5000.0,0.0,0.0,0.0
1513266992350015664,,691486,,1513266990,535445376,'',1.43116998664,1.449103645,0.0393887493029,0.0179336583691,0.001,-89.6682918456,5000.0,0.0,0.0,0.0
1513266992359872589,,691487,,1513266990,545445376,'',1.43116998664,1.449103645,0.0322748728193,0.0179336583691,0.001,-89.6682918456,5000.0,0.0,0.0,0.0
1513266992369861750,,691488,,1513266990,555445376,'',1.43116998664,1.45030455963,0.0506282063017,0.019134572992,0.001,-95.6728649602,5000.0,0.0,0.0,0.0
1513266992379906693,,691489,,1513266990,565445376,'',1.43116998664,1.449103645,0.0218708927685,0.0179336583691,0.001,-89.6682918456,5000.0,0.0,0.0,0.0
1513266992389886218,,691490,,1513266990,575445376,'',1.43116998664,1.45030455963,0.0412571248736,0.019134572992,0.001,-95.6728649602,5000.0,0.0,0.0,0.0
1513266992399707778,,691491,,1513266990,585445376,'',1.43116998664,1.449103645,0.0121978648634,0.0179336583691,0.001,-89.6682918456,5000.0,0.0,0.0,0.0
1513266992409980725,,691492,,1513266990,595445376,'',1.43116998664,1.45030455963,0.0298839630634,0.019134572992,0.001,-95.6728649602,5000.0,0.0,0.0,0.0
1513266992419708468,,691493,,1513266990,605445376,'',1.43116998664,1.449103645,-0.000129995184487,0.0179336583691,0.001,-89.6682918456,5000.0,0.0,0.0,0.0
1513266992430291360,,691494,,1513266990,615445376,'',1.43116998664,1.45030455963,0.0201277151575,0.019134572992,0.001,-95.6728649602,5000.0,0.0,0.0,0.0
1513266992439684706,,691495,,1513266990,625445376,'',1.43116998664,1.45030455963,0.0160825728213,0.019134572992,0.001,-95.6728649602,5000.0,0.0,0.0,0.0
1513266992449646135,,691496,,1513266990,635445376,'',1.43116998664,1.45150547425,0.0369066480836,0.020335487615,0.001,-101.677438075,5000.0,0.0,0.0,0.0
1513266992459791677,,691497,,1513266990,645445376,'',1.43116998664,1.45030455963,0.00896261365309,0.019134572992,0.001,-95.6728649602,5000.0,0.0,0.0,0.0
1513266992470063469,,691498,,1513266990,655445376,'',1.43116998664,1.45030455963,0.00603878117318,0.019134572992,0.001,-95.6728649602,5000.0,0.0,0.0,0.0
1513266992480108277,,691499,,1513266990,665445376,'',1.43116998664,1.449103645,-0.0205480492133,0.0179336583691,0.001,-89.6682918456,5000.0,0.0,0.0,0.0
1513266992489943228,,691500,,1513266990,675445376,'',1.43116998664,1.45030455963,0.00170737810415,0.019134572992,0.001,-95.6728649602,5000.0,0.0,0.0,0.0
1513266992499805834,,691501,,1513266990,685445376,'',1.43116998664,1.45030455963,0.000859134300833,0.019134572992,0.001,-95.6728649602,5000.0,0.0,0.0,0.0
1513266992509878462,,691502,,1513266990,695445376,'',1.43116998664,1.45030455963,-0.000207737680619,0.019134572992,0.001,-95.6728649602,5000.0,0.0,0.0,0.0
1513266992519785049,,691503,,1513266990,705445376,'',1.43116998664,1.45150547425,0.0232292557855,0.020335487615,0.001,-101.677438075,5000.0,0.0,0.0,0.0
1513266992530162239,,691504,,1513266990,715445376,'',1.43116998664,1.45150547425,0.0224764788781,0.020335487615,0.001,-101.677438075,5000.0,0.0,0.0,0.0
1513266992540080314,,691505,,1513266990,725445376,'',1.43116998664,1.45030455963,-0.00190698812892,0.019134572992,0.001,-95.6728649602,5000.0,0.0,0.0,0.0
1513266992550002214,,691506,,1513266990,735445376,'',1.43116998664,1.45030455963,-0.00284138632992,0.019134572992,0.001,-95.6728649602,5000.0,0.0,0.0,0.0
1513266992559948095,,691507,,1513266990,745445376,'',1.43116998664,1.45030455963,-0.00404899118587,0.019134572992,0.001,-95.6728649602,5000.0,0.0,0.0,0.0
1513266992569853270,,691508,,1513266990,755445376,'',1.43116998664,1.45030455963,-0.004700994814,0.019134572992,0.001,-95.6728649602,5000.0,0.0,0.0,0.0
1513266992579879120,,691509,,1513266990,765445376,'',1.43116998664,1.45150547425,0.0182343111518,0.020335487615,0.001,-101.677438075,5000.0,0.0,0.0,0.0
1513266992589849581,,691510,,1513266990,775445376,'',1.43116998664,1.45030455963,-0.00712672051963,0.019134572992,0.001,-95.6728649602,5000.0,0.0,0.0,0.0
1513266992600019769,,691511,,1513266990,785445376,'',1.43116998664,1.45150547425,0.0165880980936,0.020335487615,0.001,-101.677438075,5000.0,0.0,0.0,0.0
1513266992610042609,,691512,,1513266990,795445376,'',1.43116998664,1.45030455963,-0.00798239176751,0.019134572992,0.001,-95.6728649602,5000.0,0.0,0.0,0.0
1513266992619960982,,691513,,1513266990,805445376,'',1.43116998664,1.45150547425,0.015868707938,0.020335487615,0.001,-101.677438075,5000.0,0.0,0.0,0.0
1513266992629854622,,691514,,1513266990,815445376,'',1.43116998664,1.45030455963,-0.00779868904565,0.019134572992,0.001,-95.6728649602,5000.0,0.0,0.0,0.0
1513266992639731352,,691515,,1513266990,825445376,'',1.43116998664,1.45030455963,-0.00769146204262,0.019134572992,0.001,-95.6728649602,5000.0,0.0,0.0,0.0
1513266992650158940,,691516,,1513266990,835445376,'',1.43116998664,1.45150547425,0.0160964370784,0.020335487615,0.001,-101.677438075,5000.0,0.0,0.0,0.0
1513266992660165222,,691517,,1513266990,845445376,'',1.43116998664,1.45030455963,-0.00754852036429,0.019134572992,0.001,-95.6728649602,5000.0,0.0,0.0,0.0
1513266992670114372,,691518,,1513266990,855445376,'',1.43116998664,1.45030455963,-0.00835708877678,0.019134572992,0.001,-95.6728649602,5000.0,0.0,0.0,0.0
1513266992680150426,,691519,,1513266990,865445376,'',1.43116998664,1.45150547425,0.0151831311792,0.020335487615,0.001,-101.677438075,5000.0,0.0,0.0,0.0
1513266992689966938,,691520,,1513266990,875445376,'',1.43116998664,1.45030455963,-0.00793233017425,0.019134572992,0.001,-95.6728649602,5000.0,0.0,0.0,0.0
1513266992699881753,,691521,,1513266990,885445376,'',1.43116998664,1.45030455963,-0.00828698438243,0.019134572992,0.001,-95.6728649602,5000.0,0.0,0.0,0.0
1513266992709949869,,691522,,1513266990,895445376,'',1.43116998664,1.45030455963,-0.00713457937914,0.019134572992,0.001,-95.6728649602,5000.0,0.0,0.0,0.0
1513266992719727748,,691523,,1513266990,905445376,'',1.43116998664,1.45030455963,-0.00669284830229,0.019134572992,0.001,-95.6728649602,5000.0,0.0,0.0,0.0
1513266992730148353,,691524,,1513266990,915445376,'',1.43116998664,1.45030455963,-0.00715474682476,0.019134572992,0.001,-95.6728649602,5000.0,0.0,0.0,0.0
1513266992740060145,,691525,,1513266990,925445376,'',1.43116998664,1.45270638887,0.0400464985569,0.0215364022379,0.001,-107.68201119,5000.0,0.0,0.0,0.0
1513266992750096441,,691526,,1513266990,935445376,'',1.43116998664,1.45150547425,0.0159509523321,0.020335487615,0.001,-101.677438075,5000.0,0.0,0.0,0.0
1513266992759870182,,691527,,1513266990,945445376,'',1.43116998664,1.45030455963,-0.00902350308211,0.019134572992,0.001,-95.6728649602,5000.0,0.0,0.0,0.0
1513266992769908454,,691528,,1513266990,955445376,'',1.43116998664,1.45030455963,-0.00917188067738,0.019134572992,0.001,-95.6728649602,5000.0,0.0,0.0,0.0
1513266992779788607,,691529,,1513266990,965445376,'',1.43116998664,1.45030455963,-0.00889573503341,0.019134572992,0.001,-95.6728649602,5000.0,0.0,0.0,0.0
1513266992789687306,,691530,,1513266990,975445376,'',1.43116998664,1.45270638887,0.0386087130789,0.0215364022379,0.001,-107.68201119,5000.0,0.0,0.0,0.0
1513266992800201629,,691531,,1513266990,985445376,'',1.43116998664,1.45150547425,0.0161259469593,0.020335487615,0.001,-101.677438075,5000.0,0.0,0.0,0.0
1513266992810165033,,691532,,1513266990,995445376,'',1.43116998664,1.45030455963,-0.00753975553632,0.019134572992,0.001,-95.6728649602,5000.0,0.0,0.0,0.0
1513266992820007009,,691533,,1513266991,5445376,'',1.43116998664,1.45030455963,-0.0070262992595,0.019134572992,0.001,-95.6728649602,5000.0,0.0,0.0,0.0
1513266992829934117,,691534,,1513266991,15445376,'',1.43116998664,1.45030455963,-0.00698012888993,0.019134572992,0.001,-95.6728649602,5000.0,0.0,0.0,0.0
1513266992839951072,,691535,,1513266991,25445376,'',1.43116998664,1.45030455963,-0.00698740412113,0.019134572992,0.001,-95.6728649602,5000.0,0.0,0.0,0.0
1513266992850003419,,691536,,1513266991,35445376,'',1.43116998664,1.45150547425,0.018040880589,0.020335487615,0.001,-101.677438075,5000.0,0.0,0.0,0.0
1513266992859784845,,691537,,1513266991,45445376,'',1.43116998664,1.45030455963,-0.00722370152587,0.019134572992,0.001,-95.6728649602,5000.0,0.0,0.0,0.0
1513266992869645983,,691538,,1513266991,55445376,'',1.43116998664,1.45030455963,-0.00761806593399,0.019134572992,0.001,-95.6728649602,5000.0,0.0,0.0,0.0
1513266992880111460,,691539,,1513266991,65445376,'',1.43116998664,1.45030455963,-0.00668322889987,0.019134572992,0.001,-95.6728649602,5000.0,0.0,0.0,0.0
1513266992890242143,,691540,,1513266991,75445376,'',1.43116998664,1.45030455963,-0.00720716020461,0.019134572992,0.001,-95.6728649602,5000.0,0.0,0.0,0.0
1513266992900287946,,691541,,1513266991,85445376,'',1.43116998664,1.45030455963,-0.00680220621438,0.019134572992,0.001,-95.6728649602,5000.0,0.0,0.0,0.0
1513266992910180579,,691542,,1513266991,95445376,'',1.43116998664,1.45150547425,0.0173563556679,0.020335487615,0.001,-101.677438075,5000.0,0.0,0.0,0.0
1513266992920150130,,691543,,1513266991,105445376,'',1.43116998664,1.45030455963,-0.00691489479922,0.019134572992,0.001,-95.6728649602,5000.0,0.0,0.0,0.0
1513266992930065681,,691544,,1513266991,115445376,'',1.43116998664,1.45150547425,0.0168324296179,0.020335487615,0.001,-101.677438075,5000.0,0.0,0.0,0.0
1513266992939897041,,691545,,1513266991,125445376,'',1.43116998664,1.45150547425,0.0164493347186,0.020335487615,0.001,-101.677438075,5000.0,0.0,0.0,0.0
1513266992950058811,,691546,,1513266991,135445376,'',1.43116998664,1.45030455963,-0.0073060656002,0.019134572992,0.001,-95.6728649602,5000.0,0.0,0.0,0.0
1513266992959932907,,691547,,1513266991,145445376,'',1.43116998664,1.45030455963,-0.0072833674779,0.019134572992,0.001,-95.6728649602,5000.0,0.0,0.0,0.0
1513266992969756840,,691548,,1513266991,155445376,'',1.43116998664,1.449103645,-0.0310555944379,0.0179336583691,0.001,-89.6682918456,5000.0,0.0,0.0,0.0
1513266992980075520,,691549,,1513266991,165445376,'',1.43116998664,1.45150547425,0.0173566658757,0.020335487615,0.001,-101.677438075,5000.0,0.0,0.0,0.0
1513266992990136474,,691550,,1513266991,175445376,'',1.43116998664,1.45030455963,-0.00524973406162,0.019134572992,0.001,-95.6728649602,5000.0,0.0,0.0,0.0
1513266992999967647,,691551,,1513266991,185445376,'',1.43116998664,1.45150547425,0.0182048035602,0.020335487615,0.001,-101.677438075,5000.0,0.0,0.0,0.0
1513266993009944410,,691552,,1513266991,195445376,'',1.43116998664,1.45150547425,0.0180024684545,0.020335487615,0.001,-101.677438075,5000.0,0.0,0.0,0.0
1513266993019863621,,691553,,1513266991,205445376,'',1.43116998664,1.45150547425,0.016882874818,0.020335487615,0.001,-101.677438075,5000.0,0.0,0.0,0.0
1513266993029847571,,691554,,1513266991,215445376,'',1.43116998664,1.45030455963,-0.00772501932705,0.019134572992,0.001,-95.6728649602,5000.0,0.0,0.0,0.0
1513266993039831324,,691555,,1513266991,225445376,'',1.43116998664,1.45150547425,0.0152255143159,0.020335487615,0.001,-101.677438075,5000.0,0.0,0.0,0.0
1513266993049908571,,691556,,1513266991,235445376,'',1.43116998664,1.449103645,-0.0321078476657,0.0179336583691,0.001,-89.6682918456,5000.0,0.0,0.0,0.0
1513266993059851932,,691557,,1513266991,245445376,'',1.43116998664,1.45030455963,-0.00727446925557,0.019134572992,0.001,-95.6728649602,5000.0,0.0,0.0,0.0
1513266993069824952,,691558,,1513266991,255445376,'',1.43116998664,1.45150547425,0.016487546076,0.020335487615,0.001,-101.677438075,5000.0,0.0,0.0,0.0
1513266993079832887,,691559,,1513266991,265445376,'',1.43116998664,1.449103645,-0.031050871213,0.0179336583691,0.001,-89.6682918456,5000.0,0.0,0.0,0.0
1513266993089653542,,691560,,1513266991,275445376,'',1.43116998664,1.45030455963,-0.00472842621456,0.019134572992,0.001,-95.6728649602,5000.0,0.0,0.0,0.0
1513266993100193316,,691561,,1513266991,285445376,'',1.43116998664,1.45030455963,-0.00561543452601,0.019134572992,0.001,-95.6728649602,5000.0,0.0,0.0,0.0
1513266993110098465,,691562,,1513266991,295445376,'',1.43116998664,1.45150547425,0.0187835670714,0.020335487615,0.001,-101.677438075,5000.0,0.0,0.0,0.0
1513266993120018703,,691563,,1513266991,305445376,'',1.43116998664,1.45030455963,-0.0052832273699,0.019134572992,0.001,-95.6728649602,5000.0,0.0,0.0,0.0
1513266993129988959,,691564,,1513266991,315445376,'',1.43116998664,1.45150547425,0.0203390139903,0.020335487615,0.001,-101.677438075,5000.0,0.0,0.0,0.0
1513266993139869471,,691565,,1513266991,325445376,'',1.43116998664,1.45030455963,-0.00325978215461,0.019134572992,0.001,-95.6728649602,5000.0,0.0,0.0,0.0
1513266993149914579,,691566,,1513266991,335445376,'',1.43116998664,1.45030455963,-0.00353466424768,0.019134572992,0.001,-95.6728649602,5000.0,0.0,0.0,0.0
1513266993159959002,,691567,,1513266991,345445376,'',1.43116998664,1.45270638887,0.0433282699932,0.0215364022379,0.001,-107.68201119,5000.0,0.0,0.0,0.0
1513266993169809175,,691568,,1513266991,355445376,'',1.43116998664,1.45150547425,0.019944354339,0.020335487615,0.001,-101.677438075,5000.0,0.0,0.0,0.0
1513266993179822886,,691569,,1513266991,365445376,'',1.43116998664,1.45150547425,0.0189931688923,0.020335487615,0.001,-101.677438075,5000.0,0.0,0.0,0.0
1513266993189715981,,691570,,1513266991,375445376,'',1.43116998664,1.45030455963,-0.00515525282341,0.019134572992,0.001,-95.6728649602,5000.0,0.0,0.0,0.0
1513266993200120951,,691571,,1513266991,385445376,'',1.43116998664,1.45030455963,-0.00464405427128,0.019134572992,0.001,-95.6728649602,5000.0,0.0,0.0,0.0
1513266993210084267,,691572,,1513266991,395445376,'',1.43116998664,1.45030455963,-0.00503307598109,0.019134572992,0.001,-95.6728649602,5000.0,0.0,0.0,0.0
1513266993220155722,,691573,,1513266991,405445376,'',1.43116998664,1.45030455963,-0.00499840090637,0.019134572992,0.001,-95.6728649602,5000.0,0.0,0.0,0.0
1513266993229970378,,691574,,1513266991,415445376,'',1.43116998664,1.45030455963,-0.00495707006541,0.019134572992,0.001,-95.6728649602,5000.0,0.0,0.0,0.0
1513266993239895342,,691575,,1513266991,425445376,'',1.43116998664,1.45030455963,-0.00493249056659,0.019134572992,0.001,-95.6728649602,5000.0,0.0,0.0,0.0
1513266993250113272,,691576,,1513266991,435445376,'',1.43116998664,1.45030455963,-0.00535257376152,0.019134572992,0.001,-95.6728649602,5000.0,0.0,0.0,0.0
1513266993260001167,,691577,,1513266991,445445376,'',1.43116998664,1.45150547425,0.0193967966561,0.020335487615,0.001,-101.677438075,5000.0,0.0,0.0,0.0
1513266993270012820,,691578,,1513266991,455445376,'',1.43116998664,1.45030455963,-0.00313137663317,0.019134572992,0.001,-95.6728649602,5000.0,0.0,0.0,0.0
1513266993279888108,,691579,,1513266991,465445376,'',1.43116998664,1.45150547425,0.0199218637793,0.020335487615,0.001,-101.677438075,5000.0,0.0,0.0,0.0
1513266993289746775,,691580,,1513266991,475445376,'',1.43116998664,1.45030455963,-0.00436156177039,0.019134572992,0.001,-95.6728649602,5000.0,0.0,0.0,0.0
1513266993299817709,,691581,,1513266991,485445376,'',1.43116998664,1.449103645,-0.0299135660902,0.0179336583691,0.001,-89.6682918456,5000.0,0.0,0.0,0.0
1513266993310210386,,691582,,1513266991,495445376,'',1.43116998664,1.45030455963,-0.0063237561331,0.019134572992,0.001,-95.6728649602,5000.0,0.0,0.0,0.0
1513266993319993900,,691583,,1513266991,505445376,'',1.43116998664,1.45030455963,-0.00563553251332,0.019134572992,0.001,-95.6728649602,5000.0,0.0,0.0,0.0
1513266993329918412,,691584,,1513266991,515445376,'',1.43116998664,1.45150547425,0.0178548485987,0.020335487615,0.001,-101.677438075,5000.0,0.0,0.0,0.0
1513266993339823281,,691585,,1513266991,525445376,'',1.43116998664,1.45030455963,-0.00613189344831,0.019134572992,0.001,-95.6728649602,5000.0,0.0,0.0,0.0
1513266993350393493,,691586,,1513266991,535445376,'',1.43116998664,1.45030455963,-0.00678239827276,0.019134572992,0.001,-95.6728649602,5000.0,0.0,0.0,0.0
1513266993359722712,,691587,,1513266991,545445376,'',1.43116998664,1.449103645,-0.0289043638266,0.0179336583691,0.001,-89.6682918456,5000.0,0.0,0.0,0.0
1513266993369816046,,691588,,1513266991,555445376,'',1.43116998664,1.45030455963,-0.00379817476871,0.019134572992,0.001,-95.6728649602,5000.0,0.0,0.0,0.0
1513266993379665977,,691589,,1513266991,565445376,'',1.43116998664,1.45030455963,-0.00309070532718,0.019134572992,0.001,-95.6728649602,5000.0,0.0,0.0,0.0
1513266993390097004,,691590,,1513266991,575445376,'',1.43116998664,1.45150547425,0.0208120049091,0.020335487615,0.001,-101.677438075,5000.0,0.0,0.0,0.0
1513266993400073942,,691591,,1513266991,585445376,'',1.43116998664,1.45150547425,0.0192773698719,0.020335487615,0.001,-101.677438075,5000.0,0.0,0.0,0.0
1513266993410011481,,691592,,1513266991,595445376,'',1.43116998664,1.45030455963,-0.00451501589257,0.019134572992,0.001,-95.6728649602,5000.0,0.0,0.0,0.0
1513266993419851121,,691593,,1513266991,605445376,'',1.43116998664,1.45030455963,-0.00459804561038,0.019134572992,0.001,-95.6728649602,5000.0,0.0,0.0,0.0
1513266993429789879,,691594,,1513266991,615445376,'',1.43116998664,1.45150547425,0.0182452125686,0.020335487615,0.001,-101.677438075,5000.0,0.0,0.0,0.0
1513266993439851424,,691595,,1513266991,625445376,'',1.43116998664,1.45030455963,-0.00536127370806,0.019134572992,0.001,-95.6728649602,5000.0,0.0,0.0,0.0
1513266993450188371,,691596,,1513266991,635445376,'',1.43116998664,1.45030455963,-0.00343255691319,0.019134572992,0.001,-95.6728649602,5000.0,0.0,0.0,0.0
1513266993460153693,,691597,,1513266991,645445376,'',1.43116998664,1.449103645,-0.027075964833,0.0179336583691,0.001,-89.6682918456,5000.0,0.0,0.0,0.0
1513266993470055577,,691598,,1513266991,655445376,'',1.43116998664,1.45030455963,-0.00318389952778,0.019134572992,0.001,-95.6728649602,5000.0,0.0,0.0,0.0
1513266993479919496,,691599,,1513266991,665445376,'',1.43116998664,1.449103645,-0.0272457026248,0.0179336583691,0.001,-89.6682918456,5000.0,0.0,0.0,0.0
1513266993489893129,,691600,,1513266991,675445376,'',1.43116998664,1.45150547425,0.0221753861276,0.020335487615,0.001,-101.677438075,5000.0,0.0,0.0,0.0
1513266993499913196,,691601,,1513266991,685445376,'',1.43116998664,1.45030455963,-0.00170795447831,0.019134572992,0.001,-95.6728649602,5000.0,0.0,0.0,0.0
1513266993509863817,,691602,,1513266991,695445376,'',1.43116998664,1.45030455963,-0.0018195064504,0.019134572992,0.001,-95.6728649602,5000.0,0.0,0.0,0.0
1513266993519746408,,691603,,1513266991,705445376,'',1.43116998664,1.45150547425,0.0218653996812,0.020335487615,0.001,-101.677438075,5000.0,0.0,0.0,0.0
1513266993529681978,,691604,,1513266991,715445376,'',1.43116998664,1.45030455963,-0.00235259671852,0.019134572992,0.001,-95.6728649602,5000.0,0.0,0.0,0.0
1513266993539852496,,691605,,1513266991,725445376,'',1.43116998664,1.449103645,-0.0265967081506,0.0179336583691,0.001,-89.6682918456,5000.0,0.0,0.0,0.0
1513266993550123670,,691606,,1513266991,735445376,'',1.43116998664,1.45030455963,-0.00317264267659,0.019134572992,0.001,-95.6728649602,5000.0,0.0,0.0,0.0
1513266993560150598,,691607,,1513266991,745445376,'',1.43116998664,1.45030455963,-0.00517012416515,0.019134572992,0.001,-95.6728649602,5000.0,0.0,0.0,0.0
1513266993570013271,,691608,,1513266991,755445376,'',1.43116998664,1.45030455963,-0.00423251662355,0.019134572992,0.001,-95.6728649602,5000.0,0.0,0.0,0.0
1513266993579958183,,691609,,1513266991,765445376,'',1.43116998664,1.449103645,-0.0277497311339,0.0179336583691,0.001,-89.6682918456,5000.0,0.0,0.0,0.0
1513266993589867251,,691610,,1513266991,775445376,'',1.43116998664,1.45150547425,0.0196564758102,0.020335487615,0.001,-101.677438075,5000.0,0.0,0.0,0.0
1513266993599864373,,691611,,1513266991,785445376,'',1.43116998664,1.45030455963,-0.00509550685312,0.019134572992,0.001,-95.6728649602,5000.0,0.0,0.0,0.0
1513266993609858215,,691612,,1513266991,795445376,'',1.43116998664,1.45030455963,-0.00494703566187,0.019134572992,0.001,-95.6728649602,5000.0,0.0,0.0,0.0
1513266993620122971,,691613,,1513266991,805445376,'',1.43116998664,1.45150547425,0.0192560227914,0.020335487615,0.001,-101.677438075,5000.0,0.0,0.0,0.0
1513266993630150422,,691614,,1513266991,815445376,'',1.43116998664,1.45030455963,-0.00508432452724,0.019134572992,0.001,-95.6728649602,5000.0,0.0,0.0,0.0
1513266993640090835,,691615,,1513266991,825445376,'',1.43116998664,1.45030455963,-0.00504839969949,0.019134572992,0.001,-95.6728649602,5000.0,0.0,0.0,0.0
1513266993650096927,,691616,,1513266991,835445376,'',1.43116998664,1.45030455963,-0.00505430846411,0.019134572992,0.001,-95.6728649602,5000.0,0.0,0.0,0.0
1513266993659995053,,691617,,1513266991,845445376,'',1.43116998664,1.45030455963,-0.00551485332555,0.019134572992,0.001,-95.6728649602,5000.0,0.0,0.0,0.0
1513266993670078325,,691618,,1513266991,855445376,'',1.43116998664,1.45030455963,-0.00453861975924,0.019134572992,0.001,-95.6728649602,5000.0,0.0,0.0,0.0
1513266993679877174,,691619,,1513266991,865445376,'',1.43116998664,1.45150547425,0.0191881481419,0.020335487615,0.001,-101.677438075,5000.0,0.0,0.0,0.0
1513266993689890874,,691620,,1513266991,875445376,'',1.43116998664,1.45030455963,-0.00457553347305,0.019134572992,0.001,-95.6728649602,5000.0,0.0,0.0,0.0
1513266993699852030,,691621,,1513266991,885445376,'',1.43116998664,1.45030455963,-0.00417692977927,0.019134572992,0.001,-95.6728649602,5000.0,0.0,0.0,0.0
1513266993709828332,,691622,,1513266991,895445376,'',1.43116998664,1.45030455963,-0.00558222931271,0.019134572992,0.001,-95.6728649602,5000.0,0.0,0.0,0.0
1513266993719688817,,691623,,1513266991,905445376,'',1.43116998664,1.45150547425,0.0179524332113,0.020335487615,0.001,-101.677438075,5000.0,0.0,0.0,0.0
1513266993729806740,,691624,,1513266991,915445376,'',1.43116998664,1.45150547425,0.0176999212754,0.020335487615,0.001,-101.677438075,5000.0,0.0,0.0,0.0
1513266993740090072,,691625,,1513266991,925445376,'',1.43116998664,1.45150547425,0.0183544619903,0.020335487615,0.001,-101.677438075,5000.0,0.0,0.0,0.0
1513266993750222000,,691626,,1513266991,935445376,'',1.43116998664,1.45030455963,-0.00572290366379,0.019134572992,0.001,-95.6728649602,5000.0,0.0,0.0,0.0
1513266993760086591,,691627,,1513266991,945445376,'',1.43116998664,1.45030455963,-0.00512225159744,0.019134572992,0.001,-95.6728649602,5000.0,0.0,0.0,0.0
1513266993770041402,,691628,,1513266991,955445376,'',1.43116998664,1.45030455963,-0.00460168549396,0.019134572992,0.001,-95.6728649602,5000.0,0.0,0.0,0.0
1513266993780119954,,691629,,1513266991,965445376,'',1.43116998664,1.45030455963,-0.0059398164606,0.019134572992,0.001,-95.6728649602,5000.0,0.0,0.0,0.0
1513266993790042543,,691630,,1513266991,975445376,'',1.43116998664,1.45030455963,-0.00656271373605,0.019134572992,0.001,-95.6728649602,5000.0,0.0,0.0,0.0
1513266993800143351,,691631,,1513266991,985445376,'',1.43116998664,1.45150547425,0.0179133458721,0.020335487615,0.001,-101.677438075,5000.0,0.0,0.0,0.0
1513266993809931741,,691632,,1513266991,995445376,'',1.43116998664,1.45150547425,0.0172567525898,0.020335487615,0.001,-101.677438075,5000.0,0.0,0.0,0.0
1513266993819735411,,691633,,1513266992,5445376,'',1.43116998664,1.45030455963,-0.00622795825877,0.019134572992,0.001,-95.6728649602,5000.0,0.0,0.0,0.0
1513266993830162469,,691634,,1513266992,15445376,'',1.43116998664,1.45030455963,-0.00641723936486,0.019134572992,0.001,-95.6728649602,5000.0,0.0,0.0,0.0
1513266993840228138,,691635,,1513266992,25445376,'',1.43116998664,1.45030455963,-0.00694455001816,0.019134572992,0.001,-95.6728649602,5000.0,0.0,0.0,0.0
1513266993850148732,,691636,,1513266992,35445376,'',1.43116998664,1.45030455963,-0.00740958768668,0.019134572992,0.001,-95.6728649602,5000.0,0.0,0.0,0.0
1513266993860174297,,691637,,1513266992,45445376,'',1.43116998664,1.45030455963,-0.00560463829533,0.019134572992,0.001,-95.6728649602,5000.0,0.0,0.0,0.0
1513266993870082566,,691638,,1513266992,55445376,'',1.43116998664,1.45030455963,-0.00453103683491,0.019134572992,0.001,-95.6728649602,5000.0,0.0,0.0,0.0
1513266993879927634,,691639,,1513266992,65445376,'',1.43116998664,1.45030455963,-0.00414156302328,0.019134572992,0.001,-95.6728649602,5000.0,0.0,0.0,0.0
1513266993890075727,,691640,,1513266992,75445376,'',1.43116998664,1.45030455963,-0.00423376502817,0.019134572992,0.001,-95.6728649602,5000.0,0.0,0.0,0.0
1513266993900034130,,691641,,1513266992,85445376,'',1.43116998664,1.45030455963,-0.00393918554225,0.019134572992,0.001,-95.6728649602,5000.0,0.0,0.0,0.0
1513266993909964026,,691642,,1513266992,95445376,'',1.43116998664,1.45030455963,-0.00364277153057,0.019134572992,0.001,-95.6728649602,5000.0,0.0,0.0,0.0
1513266993919960792,,691643,,1513266992,105445376,'',1.43116998664,1.45030455963,-0.0051697525336,0.019134572992,0.001,-95.6728649602,5000.0,0.0,0.0,0.0
1513266993929883497,,691644,,1513266992,115445376,'',1.43116998664,1.45030455963,-0.00551948031724,0.019134572992,0.001,-95.6728649602,5000.0,0.0,0.0,0.0
1513266993940331959,,691645,,1513266992,125445376,'',1.43116998664,1.45030455963,-0.0049162801747,0.019134572992,0.001,-95.6728649602,5000.0,0.0,0.0,0.0
1513266993950273809,,691646,,1513266992,135445376,'',1.43116998664,1.45030455963,-0.00402574397568,0.019134572992,0.001,-95.6728649602,5000.0,0.0,0.0,0.0
1513266993960190352,,691647,,1513266992,145445376,'',1.43116998664,1.45030455963,-0.00463979513248,0.019134572992,0.001,-95.6728649602,5000.0,0.0,0.0,0.0
1513266993969914119,,691648,,1513266992,155445376,'',1.43116998664,1.45270638887,0.0424153433001,0.0215364022379,0.001,-107.68201119,5000.0,0.0,0.0,0.0
1513266993979912848,,691649,,1513266992,165445376,'',1.43116998664,1.45030455963,-0.00458230706452,0.019134572992,0.001,-95.6728649602,5000.0,0.0,0.0,0.0
1513266993990028959,,691650,,1513266992,175445376,'',1.43116998664,1.45150547425,0.019532404297,0.020335487615,0.001,-101.677438075,5000.0,0.0,0.0,0.0
1513266993999971806,,691651,,1513266992,185445376,'',1.43116998664,1.45030455963,-0.00391923966235,0.019134572992,0.001,-95.6728649602,5000.0,0.0,0.0,0.0
1513266994010037212,,691652,,1513266992,195445376,'',1.43116998664,1.45030455963,-0.00326225969572,0.019134572992,0.001,-95.6728649602,5000.0,0.0,0.0,0.0
1513266994020323180,,691653,,1513266992,205445376,'',1.43116998664,1.449103645,-0.0259096444416,0.0179336583691,0.001,-89.6682918456,5000.0,0.0,0.0,0.0
1513266994030153957,,691654,,1513266992,215445376,'',1.43116998664,1.45030455963,-0.000501210054333,0.019134572992,0.001,-95.6728649602,5000.0,0.0,0.0,0.0
1513266994040015025,,691655,,1513266992,225445376,'',1.43116998664,1.45150547425,0.0242605366149,0.020335487615,0.001,-101.677438075,5000.0,0.0,0.0,0.0
1513266994049877585,,691656,,1513266992,235445376,'',1.43116998664,1.45030455963,-7.86735321099e-06,0.019134572992,0.001,-95.6728649602,5000.0,0.0,0.0,0.0
1513266994059889598,,691657,,1513266992,245445376,'',1.43116998664,1.45030455963,-0.000386114060107,0.019134572992,0.001,-95.6728649602,5000.0,0.0,0.0,0.0
1513266994069743416,,691658,,1513266992,255445376,'',1.43116998664,1.45150547425,0.0230103331939,0.020335487615,0.001,-101.677438075,5000.0,0.0,0.0,0.0
1513266994080142170,,691659,,1513266992,265445376,'',1.43116998664,1.45150547425,0.0227236887689,0.020335487615,0.001,-101.677438075,5000.0,0.0,0.0,0.0
1513266994089834737,,691660,,1513266992,275445376,'',1.43116998664,1.45150547425,0.0225195915317,0.020335487615,0.001,-101.677438075,5000.0,0.0,0.0,0.0
1513266994100372958,,691661,,1513266992,285445376,'',1.43116998664,1.45030455963,-0.00318788659764,0.019134572992,0.001,-95.6728649602,5000.0,0.0,0.0,0.0
1513266994110143515,,691662,,1513266992,295445376,'',1.43116998664,1.45030455963,-0.00297316447252,0.019134572992,0.001,-95.6728649602,5000.0,0.0,0.0,0.0
1513266994119875258,,691663,,1513266992,305445376,'',1.43116998664,1.449103645,-0.0270902160801,0.0179336583691,0.001,-89.6682918456,5000.0,0.0,0.0,0.0
1513266994129874187,,691664,,1513266992,315445376,'',1.43116998664,1.45030455963,-0.00152907435857,0.019134572992,0.001,-95.6728649602,5000.0,0.0,0.0,0.0
1513266994139801469,,691665,,1513266992,325445376,'',1.43116998664,1.45150547425,0.0224613182663,0.020335487615,0.001,-101.677438075,5000.0,0.0,0.0,0.0
1513266994150172190,,691666,,1513266992,335445376,'',1.43116998664,1.45030455963,-0.00102055645095,0.019134572992,0.001,-95.6728649602,5000.0,0.0,0.0,0.0
1513266994159868405,,691667,,1513266992,345445376,'',1.43116998664,1.45150547425,0.0229489496269,0.020335487615,0.001,-101.677438075,5000.0,0.0,0.0,0.0
1513266994169847534,,691668,,1513266992,355445376,'',1.43116998664,1.45030455963,-0.00143032511826,0.019134572992,0.001,-95.6728649602,5000.0,0.0,0.0,0.0
1513266994179831267,,691669,,1513266992,365445376,'',1.43116998664,1.45030455963,-0.000774819170985,0.019134572992,0.001,-95.6728649602,5000.0,0.0,0.0,0.0
1513266994189818118,,691670,,1513266992,375445376,'',1.43116998664,1.449103645,-0.0248720058017,0.0179336583691,0.001,-89.6682918456,5000.0,0.0,0.0,0.0
1513266994199874344,,691671,,1513266992,385445376,'',1.43116998664,1.449103645,-0.0247392569031,0.0179336583691,0.001,-89.6682918456,5000.0,0.0,0.0,0.0
1513266994209765878,,691672,,1513266992,395445376,'',1.43116998664,1.449103645,-0.0241767882043,0.0179336583691,0.001,-89.6682918456,5000.0,0.0,0.0,0.0
1513266994220205686,,691673,,1513266992,405445376,'',1.43116998664,1.45030455963,0.000469991163992,0.019134572992,0.001,-95.6728649602,5000.0,0.0,0.0,0.0
1513266994230163139,,691674,,1513266992,415445376,'',1.43116998664,1.45030455963,0.000823945845049,0.019134572992,0.001,-95.6728649602,5000.0,0.0,0.0,0.0
1513266994240153818,,691675,,1513266992,425445376,'',1.43116998664,1.45030455963,0.000741678176055,0.019134572992,0.001,-95.6728649602,5000.0,0.0,0.0,0.0
1513266994250050895,,691676,,1513266992,435445376,'',1.43116998664,1.449103645,-0.0231174183695,0.0179336583691,0.001,-89.6682918456,5000.0,0.0,0.0,0.0
