rosbagTimestamp,header,seq,stamp,secs,nsecs,frame_id,set_point,process_value,process_value_dot,error,time_step,command,p,i,d,i_clamp
1513264794248275051,,471699,,1513264792,476820663,'',1.29154364648,1.28425644702,0.000613376460197,-0.0072871994542,0.001,-36.435997271,-5000.0,0.0,0.0,0.0
1513264794258371846,,471700,,1513264792,486820663,'',1.29154364648,1.2856059284,0.0262102722339,-0.00593771807379,0.001,-29.688590369,-5000.0,0.0,0.0,0.0
1513264794268305593,,471701,,1513264792,496820663,'',1.29154364648,1.2856059284,0.0258580896135,-0.00593771807379,0.001,-29.688590369,-5000.0,0.0,0.0,0.0
1513264794278632984,,471702,,1513264792,506820663,'',1.29154364648,1.28425644702,-0.00211905996615,-0.0072871994542,0.001,-36.435997271,-5000.0,0.0,0.0,0.0
1513264794288632967,,471703,,1513264792,516820663,'',1.29154364648,1.28425644702,-0.00271587413129,-0.0072871994542,0.001,-36.435997271,-5000.0,0.0,0.0,0.0
1513264794298785483,,471704,,1513264792,526820663,'',1.29154364648,1.28425644702,-0.00514400608628,-0.0072871994542,0.001,-36.435997271,-5000.0,0.0,0.0,0.0
1513264794308603722,,471705,,1513264792,536820663,'',1.29154364648,1.2856059284,0.0229955134059,-0.00593771807379,0.001,-29.688590369,-5000.0,0.0,0.0,0.0
1513264794318646731,,471706,,1513264792,546820663,'',1.29154364648,1.28425644702,-0.00406802992528,-0.0072871994542,0.001,-36.435997271,-5000.0,0.0,0.0,0.0
1513264794328496097,,471707,,1513264792,556820663,'',1.29154364648,1.28290696564,-0.0300502891184,-0.00863668083461,0.001,-43.1834041731,-5000.0,0.0,0.0,0.0
1513264794338510542,,471708,,1513264792,566820663,'',1.29154364648,1.28425644702,-0.00479665871573,-0.0072871994542,0.001,-36.435997271,-5000.0,0.0,0.0,0.0
1513264794348388072,,471709,,1513264792,576820663,'',1.29154364648,1.28425644702,-0.00388243184374,-0.0072871994542,0.001,-36.435997271,-5000.0,0.0,0.0,0.0
1513264794358352908,,471710,,1513264792,586820663,'',1.29154364648,1.28425644702,-0.00414040811515,-0.0072871994542,0.001,-36.435997271,-5000.0,0.0,0.0,0.0
1513264794368304894,,471711,,1513264792,596820663,'',1.29154364648,1.28290696564,-0.0306670555745,-0.00863668083461,0.001,-43.1834041731,-5000.0,0.0,0.0,0.0
1513264794378216375,,471712,,1513264792,606820663,'',1.29154364648,1.28425644702,-0.00337226834449,-0.0072871994542,0.001,-36.435997271,-5000.0,0.0,0.0,0.0
1513264794388753484,,471713,,1513264792,616820663,'',1.29154364648,1.28425644702,-0.00276053274947,-0.0072871994542,0.001,-36.435997271,-5000.0,0.0,0.0,0.0
1513264794398668012,,471714,,1513264792,626820663,'',1.29154364648,1.28290696564,-0.0289593189806,-0.00863668083461,0.001,-43.1834041731,-5000.0,0.0,0.0,0.0
1513264794408627313,,471715,,1513264792,636820663,'',1.29154364648,1.2856059284,0.0248685175746,-0.00593771807379,0.001,-29.688590369,-5000.0,0.0,0.0,0.0
1513264794418437502,,471716,,1513264792,646820663,'',1.29154364648,1.28425644702,-0.0019379241482,-0.0072871994542,0.001,-36.435997271,-5000.0,0.0,0.0,0.0
1513264794428403252,,471717,,1513264792,656820663,'',1.29154364648,1.28425644702,-0.00162061542966,-0.0072871994542,0.001,-36.435997271,-5000.0,0.0,0.0,0.0
1513264794438486580,,471718,,1513264792,666820663,'',1.29154364648,1.28290696564,-0.0271135859652,-0.00863668083461,0.001,-43.1834041731,-5000.0,0.0,0.0,0.0
1513264794448349757,,471719,,1513264792,676820663,'',1.29154364648,1.2856059284,0.026787694645,-0.00593771807379,0.001,-29.688590369,-5000.0,0.0,0.0,0.0
1513264794458320264,,471720,,1513264792,686820663,'',1.29154364648,1.2856059284,0.0258563127694,-0.00593771807379,0.001,-29.688590369,-5000.0,0.0,0.0,0.0
1513264794468312555,,471721,,1513264792,696820663,'',1.29154364648,1.28425644702,-0.000676952914882,-0.0072871994542,0.001,-36.435997271,-5000.0,0.0,0.0,0.0
1513264794478243338,,471722,,1513264792,706820663,'',1.29154364648,1.28290696564,-0.0263238266776,-0.00863668083461,0.001,-43.1834041731,-5000.0,0.0,0.0,0.0
1513264794488709292,,471723,,1513264792,716820663,'',1.29154364648,1.28425644702,0.00127978681805,-0.0072871994542,0.001,-36.435997271,-5000.0,0.0,0.0,0.0
1513264794498748613,,471724,,1513264792,726820663,'',1.29154364648,1.28425644702,0.000586018123684,-0.0072871994542,0.001,-36.435997271,-5000.0,0.0,0.0,0.0
1513264794508677905,,471725,,1513264792,736820663,'',1.29154364648,1.28425644702,0.00098553385351,-0.0072871994542,0.001,-36.435997271,-5000.0,0.0,0.0,0.0
1513264794518614450,,471726,,1513264792,746820663,'',1.29154364648,1.28425644702,-0.000595415192513,-0.0072871994542,0.001,-36.435997271,-5000.0,0.0,0.0,0.0
1513264794528555297,,471727,,1513264792,756820663,'',1.29154364648,1.28290696564,-0.026763937657,-0.00863668083461,0.001,-43.1834041731,-5000.0,0.0,0.0,0.0
1513264794538635129,,471728,,1513264792,766820663,'',1.29154364648,1.28290696564,-0.0259122955502,-0.00863668083461,0.001,-43.1834041731,-5000.0,0.0,0.0,0.0
1513264794548453607,,471729,,1513264792,776820663,'',1.29154364648,1.28290696564,-0.0266525010949,-0.00863668083461,0.001,-43.1834041731,-5000.0,0.0,0.0,0.0
1513264794558415907,,471730,,1513264792,786820663,'',1.29154364648,1.2856059284,0.0267236883472,-0.00593771807379,0.001,-29.688590369,-5000.0,0.0,0.0,0.0
1513264794568275827,,471731,,1513264792,796820663,'',1.29154364648,1.28425644702,-0.000523987001699,-0.0072871994542,0.001,-36.435997271,-5000.0,0.0,0.0,0.0
1513264794578314209,,471732,,1513264792,806820663,'',1.29154364648,1.28425644702,0.000503088315548,-0.0072871994542,0.001,-36.435997271,-5000.0,0.0,0.0,0.0
1513264794588377323,,471733,,1513264792,816820663,'',1.29154364648,1.28425644702,-0.000543722185223,-0.0072871994542,0.001,-36.435997271,-5000.0,0.0,0.0,0.0
1513264794598276936,,471734,,1513264792,826820663,'',1.29154364648,1.28425644702,-0.00043044538606,-0.0072871994542,0.001,-36.435997271,-5000.0,0.0,0.0,0.0
1513264794608308548,,471735,,1513264792,836820663,'',1.29154364648,1.28425644702,-0.000307784418294,-0.0072871994542,0.001,-36.435997271,-5000.0,0.0,0.0,0.0
1513264794618266224,,471736,,1513264792,846820663,'',1.29154364648,1.2856059284,0.0274272120692,-0.00593771807379,0.001,-29.688590369,-5000.0,0.0,0.0,0.0
1513264794628741421,,471737,,1513264792,856820663,'',1.29154364648,1.28425644702,0.00115226414142,-0.0072871994542,0.001,-36.435997271,-5000.0,0.0,0.0,0.0
1513264794638715394,,471738,,1513264792,866820663,'',1.29154364648,1.28290696564,-0.02532311332,-0.00863668083461,0.001,-43.1834041731,-5000.0,0.0,0.0,0.0
1513264794648637233,,471739,,1513264792,876820663,'',1.29154364648,1.28290696564,-0.0251929458201,-0.00863668083461,0.001,-43.1834041731,-5000.0,0.0,0.0,0.0
1513264794658436533,,471740,,1513264792,886820663,'',1.29154364648,1.28425644702,0.00117923589499,-0.0072871994542,0.001,-36.435997271,-5000.0,0.0,0.0,0.0
1513264794668571542,,471741,,1513264792,896820663,'',1.29154364648,1.28425644702,0.00190253912847,-0.0072871994542,0.001,-36.435997271,-5000.0,0.0,0.0,0.0
1513264794678456861,,471742,,1513264792,906820663,'',1.29154364648,1.28425644702,5.5709130317e-05,-0.0072871994542,0.001,-36.435997271,-5000.0,0.0,0.0,0.0
1513264794688386109,,471743,,1513264792,916820663,'',1.29154364648,1.28425644702,-0.00147550263924,-0.0072871994542,0.001,-36.435997271,-5000.0,0.0,0.0,0.0
1513264794698352231,,471744,,1513264792,926820663,'',1.29154364648,1.28425644702,-0.0021497809056,-0.0072871994542,0.001,-36.435997271,-5000.0,0.0,0.0,0.0
1513264794708327273,,471745,,1513264792,936820663,'',1.29154364648,1.2856059284,0.023547444438,-0.00593771807379,0.001,-29.688590369,-5000.0,0.0,0.0,0.0
1513264794718213935,,471746,,1513264792,946820663,'',1.29154364648,1.28425644702,-0.00303965094249,-0.0072871994542,0.001,-36.435997271,-5000.0,0.0,0.0,0.0
1513264794728965247,,471747,,1513264792,956820663,'',1.29154364648,1.28425644702,-0.00396269453692,-0.0072871994542,0.001,-36.435997271,-5000.0,0.0,0.0,0.0
1513264794738243196,,471748,,1513264792,966820663,'',1.29154364648,1.28425644702,-0.00324411752458,-0.0072871994542,0.001,-36.435997271,-5000.0,0.0,0.0,0.0
1513264794748698504,,471749,,1513264792,976820663,'',1.29154364648,1.28425644702,-0.0035319987358,-0.0072871994542,0.001,-36.435997271,-5000.0,0.0,0.0,0.0
1513264794758569098,,471750,,1513264792,986820663,'',1.29154364648,1.2856059284,0.0228181079015,-0.00593771807379,0.001,-29.688590369,-5000.0,0.0,0.0,0.0
1513264794768421922,,471751,,1513264792,996820663,'',1.29154364648,1.28290696564,-0.030325568505,-0.00863668083461,0.001,-43.1834041731,-5000.0,0.0,0.0,0.0
1513264794778404188,,471752,,1513264793,6820663,'',1.29154364648,1.28425644702,-0.00343162184654,-0.0072871994542,0.001,-36.435997271,-5000.0,0.0,0.0,0.0
1513264794788357399,,471753,,1513264793,16820663,'',1.29154364648,1.2856059284,0.0235074559069,-0.00593771807379,0.001,-29.688590369,-5000.0,0.0,0.0,0.0
1513264794798396554,,471754,,1513264793,26820663,'',1.29154364648,1.28425644702,-0.0030424530684,-0.0072871994542,0.001,-36.435997271,-5000.0,0.0,0.0,0.0
1513264794808377462,,471755,,1513264793,36820663,'',1.29154364648,1.28425644702,-0.00345315061139,-0.0072871994542,0.001,-36.435997271,-5000.0,0.0,0.0,0.0
1513264794818276651,,471756,,1513264793,46820663,'',1.29154364648,1.28425644702,-0.00134198173835,-0.0072871994542,0.001,-36.435997271,-5000.0,0.0,0.0,0.0
1513264794828320148,,471757,,1513264793,56820663,'',1.29154364648,1.28425644702,-0.000624764082819,-0.0072871994542,0.001,-36.435997271,-5000.0,0.0,0.0,0.0
1513264794838829752,,471758,,1513264793,66820663,'',1.29154364648,1.28290696564,-0.0257711715474,-0.00863668083461,0.001,-43.1834041731,-5000.0,0.0,0.0,0.0
1513264794848760126,,471759,,1513264793,76820663,'',1.29154364648,1.28425644702,-0.000285574217923,-0.0072871994542,0.001,-36.435997271,-5000.0,0.0,0.0,0.0
1513264794858439403,,471760,,1513264793,86820663,'',1.29154364648,1.28425644702,0.000704466105273,-0.0072871994542,0.001,-36.435997271,-5000.0,0.0,0.0,0.0
1513264794868463640,,471761,,1513264793,96820663,'',1.29154364648,1.28290696564,-0.0261284068226,-0.00863668083461,0.001,-43.1834041731,-5000.0,0.0,0.0,0.0
1513264794878443607,,471762,,1513264793,106820663,'',1.29154364648,1.2856059284,0.0281676418095,-0.00593771807379,0.001,-29.688590369,-5000.0,0.0,0.0,0.0
1513264794888484739,,471763,,1513264793,116820663,'',1.29154364648,1.28425644702,0.00119799798764,-0.0072871994542,0.001,-36.435997271,-5000.0,0.0,0.0,0.0
1513264794898372684,,471764,,1513264793,126820663,'',1.29154364648,1.2856059284,0.0287271930273,-0.00593771807379,0.001,-29.688590369,-5000.0,0.0,0.0,0.0
1513264794908293440,,471765,,1513264793,136820663,'',1.29154364648,1.28425644702,0.000773814486288,-0.0072871994542,0.001,-36.435997271,-5000.0,0.0,0.0,0.0
1513264794918347910,,471766,,1513264793,146820663,'',1.29154364648,1.2856059284,0.026823217897,-0.00593771807379,0.001,-29.688590369,-5000.0,0.0,0.0,0.0
1513264794928202673,,471767,,1513264793,156820663,'',1.29154364648,1.28425644702,-0.00188652581204,-0.0072871994542,0.001,-36.435997271,-5000.0,0.0,0.0,0.0
1513264794938707773,,471768,,1513264793,166820663,'',1.29154364648,1.28425644702,-0.0015443139714,-0.0072871994542,0.001,-36.435997271,-5000.0,0.0,0.0,0.0
1513264794948627519,,471769,,1513264793,176820663,'',1.29154364648,1.28425644702,-0.00174492450741,-0.0072871994542,0.001,-36.435997271,-5000.0,0.0,0.0,0.0
1513264794958519041,,471770,,1513264793,186820663,'',1.29154364648,1.28425644702,-0.00140131657682,-0.0072871994542,0.001,-36.435997271,-5000.0,0.0,0.0,0.0
1513264794968524603,,471771,,1513264793,196820663,'',1.29154364648,1.28425644702,-0.000684647056627,-0.0072871994542,0.001,-36.435997271,-5000.0,0.0,0.0,0.0
1513264794978410869,,471772,,1513264793,206820663,'',1.29154364648,1.28425644702,-3.95189014141e-05,-0.0072871994542,0.001,-36.435997271,-5000.0,0.0,0.0,0.0
1513264794988271345,,471773,,1513264793,216820663,'',1.29154364648,1.28290696564,-0.026224010737,-0.00863668083461,0.001,-43.1834041731,-5000.0,0.0,0.0,0.0
1513264794998368220,,471774,,1513264793,226820663,'',1.29154364648,1.28425644702,0.000389614877741,-0.0072871994542,0.001,-36.435997271,-5000.0,0.0,0.0,0.0
1513264795008887646,,471775,,1513264793,236820663,'',1.29154364648,1.28425644702,-0.000120913914037,-0.0072871994542,0.001,-36.435997271,-5000.0,0.0,0.0,0.0
1513264795018805030,,471776,,1513264793,246820663,'',1.29154364648,1.28425644702,0.000371817541951,-0.0072871994542,0.001,-36.435997271,-5000.0,0.0,0.0,0.0
1513264795028715687,,471777,,1513264793,256820663,'',1.29154364648,1.28425644702,0.00122357442483,-0.0072871994542,0.001,-36.435997271,-5000.0,0.0,0.0,0.0
1513264795038169922,,471778,,1513264793,266820663,'',1.29154364648,1.28425644702,0.00143602787618,-0.0072871994542,0.001,-36.435997271,-5000.0,0.0,0.0,0.0
1513264795048260353,,471779,,1513264793,276820663,'',1.29154364648,1.28425644702,-0.000230367105188,-0.0072871994542,0.001,-36.435997271,-5000.0,0.0,0.0,0.0
1513264795058216953,,471780,,1513264793,286820663,'',1.29154364648,1.28425644702,-0.000659797014187,-0.0072871994542,0.001,-36.435997271,-5000.0,0.0,0.0,0.0
1513264795068217224,,471781,,1513264793,296820663,'',1.29154364648,1.28290696564,-0.0267321130361,-0.00863668083461,0.001,-43.1834041731,-5000.0,0.0,0.0,0.0
1513264795078691408,,471782,,1513264793,306820663,'',1.29154364648,1.28425644702,0.000888622299497,-0.0072871994542,0.001,-36.435997271,-5000.0,0.0,0.0,0.0
1513264795088655643,,471783,,1513264793,316820663,'',1.29154364648,1.28290696564,-0.0259560926122,-0.00863668083461,0.001,-43.1834041731,-5000.0,0.0,0.0,0.0
1513264795098554606,,471784,,1513264793,326820663,'',1.29154364648,1.2856059284,0.0277968481344,-0.00593771807379,0.001,-29.688590369,-5000.0,0.0,0.0,0.0
1513264795108618147,,471785,,1513264793,336820663,'',1.29154364648,1.2856059284,0.029612547805,-0.00593771807379,0.001,-29.688590369,-5000.0,0.0,0.0,0.0
1513264795118352193,,471786,,1513264793,346820663,'',1.29154364648,1.28425644702,0.00333466604213,-0.0072871994542,0.001,-36.435997271,-5000.0,0.0,0.0,0.0
1513264795128333717,,471787,,1513264793,356820663,'',1.29154364648,1.28425644702,0.00321177903153,-0.0072871994542,0.001,-36.435997271,-5000.0,0.0,0.0,0.0
1513264795138308170,,471788,,1513264793,366820663,'',1.29154364648,1.28290696564,-0.0250346726694,-0.00863668083461,0.001,-43.1834041731,-5000.0,0.0,0.0,0.0
1513264795148741749,,471789,,1513264793,376820663,'',1.29154364648,1.28425644702,0.00179401287068,-0.0072871994542,0.001,-36.435997271,-5000.0,0.0,0.0,0.0
1513264795158654964,,471790,,1513264793,386820663,'',1.29154364648,1.28290696564,-0.0247328958344,-0.00863668083461,0.001,-43.1834041731,-5000.0,0.0,0.0,0.0
1513264795168584871,,471791,,1513264793,396820663,'',1.29154364648,1.28425644702,0.00408891941082,-0.0072871994542,0.001,-36.435997271,-5000.0,0.0,0.0,0.0
1513264795178509499,,471792,,1513264793,406820663,'',1.29154364648,1.28425644702,0.00289477872305,-0.0072871994542,0.001,-36.435997271,-5000.0,0.0,0.0,0.0
1513264795188377477,,471793,,1513264793,416820663,'',1.29154364648,1.2856059284,0.0284987062607,-0.00593771807379,0.001,-29.688590369,-5000.0,0.0,0.0,0.0
1513264795198387243,,471794,,1513264793,426820663,'',1.29154364648,1.28425644702,0.00145481352763,-0.0072871994542,0.001,-36.435997271,-5000.0,0.0,0.0,0.0
1513264795208316445,,471795,,1513264793,436820663,'',1.29154364648,1.28290696564,-0.0249967199629,-0.00863668083461,0.001,-43.1834041731,-5000.0,0.0,0.0,0.0
1513264795218309410,,471796,,1513264793,446820663,'',1.29154364648,1.28425644702,0.00179915360277,-0.0072871994542,0.001,-36.435997271,-5000.0,0.0,0.0,0.0
1513264795228707483,,471797,,1513264793,456820663,'',1.29154364648,1.28425644702,0.00250088983282,-0.0072871994542,0.001,-36.435997271,-5000.0,0.0,0.0,0.0
1513264795238635964,,471798,,1513264793,466820663,'',1.29154364648,1.28425644702,0.00116227557723,-0.0072871994542,0.001,-36.435997271,-5000.0,0.0,0.0,0.0
1513264795248573659,,471799,,1513264793,476820663,'',1.29154364648,1.2856059284,0.0277189709624,-0.00593771807379,0.001,-29.688590369,-5000.0,0.0,0.0,0.0
1513264795258799628,,471800,,1513264793,486820663,'',1.29154364648,1.28290696564,-0.0262932479088,-0.00863668083461,0.001,-43.1834041731,-5000.0,0.0,0.0,0.0
1513264795268627220,,471801,,1513264793,496820663,'',1.29154364648,1.28425644702,0.00128908601777,-0.0072871994542,0.001,-36.435997271,-5000.0,0.0,0.0,0.0
1513264795278446153,,471802,,1513264793,506820663,'',1.29154364648,1.2856059284,0.0268127505593,-0.00593771807379,0.001,-29.688590369,-5000.0,0.0,0.0,0.0
1513264795288397358,,471803,,1513264793,516820663,'',1.29154364648,1.28425644702,8.28029618192e-05,-0.0072871994542,0.001,-36.435997271,-5000.0,0.0,0.0,0.0
1513264795298202773,,471804,,1513264793,526820663,'',1.29154364648,1.28425644702,-0.00193291262067,-0.0072871994542,0.001,-36.435997271,-5000.0,0.0,0.0,0.0
1513264795308697453,,471805,,1513264793,536820663,'',1.29154364648,1.28425644702,-0.00203941276179,-0.0072871994542,0.001,-36.435997271,-5000.0,0.0,0.0,0.0
1513264795318636473,,471806,,1513264793,546820663,'',1.29154364648,1.2856059284,0.0235384991961,-0.00593771807379,0.001,-29.688590369,-5000.0,0.0,0.0,0.0
1513264795328572588,,471807,,1513264793,556820663,'',1.29154364648,1.28425644702,-0.00454139155858,-0.0072871994542,0.001,-36.435997271,-5000.0,0.0,0.0,0.0
1513264795338567250,,471808,,1513264793,566820663,'',1.29154364648,1.28425644702,-0.00518327053541,-0.0072871994542,0.001,-36.435997271,-5000.0,0.0,0.0,0.0
1513264795348331110,,471809,,1513264793,576820663,'',1.29154364648,1.2856059284,0.0195661603796,-0.00593771807379,0.001,-29.688590369,-5000.0,0.0,0.0,0.0
1513264795358457767,,471810,,1513264793,586820663,'',1.29154364648,1.2856059284,0.0175418083641,-0.00593771807379,0.001,-29.688590369,-5000.0,0.0,0.0,0.0
1513264795368364514,,471811,,1513264793,596820663,'',1.29154364648,1.2856059284,0.0158357982089,-0.00593771807379,0.001,-29.688590369,-5000.0,0.0,0.0,0.0
1513264795378752412,,471812,,1513264793,606820663,'',1.29154364648,1.2856059284,0.0119992618671,-0.00593771807379,0.001,-29.688590369,-5000.0,0.0,0.0,0.0
1513264795388655175,,471813,,1513264793,616820663,'',1.29154364648,1.28425644702,-0.0165329532527,-0.0072871994542,0.001,-36.435997271,-5000.0,0.0,0.0,0.0
1513264795398623659,,471814,,1513264793,626820663,'',1.29154364648,1.2856059284,0.0097308600429,-0.00593771807379,0.001,-29.688590369,-5000.0,0.0,0.0,0.0
1513264795408630193,,471815,,1513264793,636820663,'',1.29154364648,1.28695540978,0.0346155586524,-0.00458823669339,0.001,-22.9411834669,-5000.0,0.0,0.0,0.0
1513264795418811918,,471816,,1513264793,646820663,'',1.29154364648,1.28425644702,-0.0212533085616,-0.0072871994542,0.001,-36.435997271,-5000.0,0.0,0.0,0.0
1513264795428694137,,471817,,1513264793,656820663,'',1.29154364648,1.2856059284,0.0034675895262,-0.00593771807379,0.001,-29.688590369,-5000.0,0.0,0.0,0.0
1513264795438484134,,471818,,1513264793,666820663,'',1.29154364648,1.28695540978,0.0275691139058,-0.00458823669339,0.001,-22.9411834669,-5000.0,0.0,0.0,0.0
1513264795448492658,,471819,,1513264793,676820663,'',1.29154364648,1.28695540978,0.0235446162757,-0.00458823669339,0.001,-22.9411834669,-5000.0,0.0,0.0,0.0
1513264795458468404,,471820,,1513264793,686820663,'',1.29154364648,1.28695540978,0.0203113167735,-0.00458823669339,0.001,-22.9411834669,-5000.0,0.0,0.0,0.0
1513264795468340652,,471821,,1513264793,696820663,'',1.29154364648,1.28695540978,0.0166061246317,-0.00458823669339,0.001,-22.9411834669,-5000.0,0.0,0.0,0.0
1513264795478402999,,471822,,1513264793,706820663,'',1.29154364648,1.28695540978,0.0145278184295,-0.00458823669339,0.001,-22.9411834669,-5000.0,0.0,0.0,0.0
1513264795488442336,,471823,,1513264793,716820663,'',1.29154364648,1.2856059284,-0.0153494472774,-0.00593771807379,0.001,-29.688590369,-5000.0,0.0,0.0,0.0
1513264795498790915,,471824,,1513264793,726820663,'',1.29154364648,1.28695540978,0.0102847844423,-0.00458823669339,0.001,-22.9411834669,-5000.0,0.0,0.0,0.0
1513264795508742103,,471825,,1513264793,736820663,'',1.29154364648,1.28695540978,0.00842348287644,-0.00458823669339,0.001,-22.9411834669,-5000.0,0.0,0.0,0.0
1513264795518572302,,471826,,1513264793,746820663,'',1.29154364648,1.28695540978,0.00734933824074,-0.00458823669339,0.001,-22.9411834669,-5000.0,0.0,0.0,0.0
1513264795528603939,,471827,,1513264793,756820663,'',1.29154364648,1.28695540978,0.00550242758759,-0.00458823669339,0.001,-22.9411834669,-5000.0,0.0,0.0,0.0
1513264795538463781,,471828,,1513264793,766820663,'',1.29154364648,1.2856059284,-0.0226908803561,-0.00593771807379,0.001,-29.688590369,-5000.0,0.0,0.0,0.0
1513264795548467286,,471829,,1513264793,776820663,'',1.29154364648,1.28695540978,0.00330849414296,-0.00458823669339,0.001,-22.9411834669,-5000.0,0.0,0.0,0.0
1513264795558339960,,471830,,1513264793,786820663,'',1.29154364648,1.28830489116,0.0289974492888,-0.00323875531298,0.001,-16.1937765649,-5000.0,0.0,0.0,0.0
1513264795568332217,,471831,,1513264793,796820663,'',1.29154364648,1.28830489116,0.0256981433813,-0.00323875531298,0.001,-16.1937765649,-5000.0,0.0,0.0,0.0
1513264795578276720,,471832,,1513264793,806820663,'',1.29154364648,1.28695540978,-0.00417483825708,-0.00458823669339,0.001,-22.9411834669,-5000.0,0.0,0.0,0.0
1513264795588238002,,471833,,1513264793,816820663,'',1.29154364648,1.28695540978,-0.00691240121715,-0.00458823669339,0.001,-22.9411834669,-5000.0,0.0,0.0,0.0
1513264795598158154,,471834,,1513264793,826820663,'',1.29154364648,1.28695540978,-0.0100566582501,-0.00458823669339,0.001,-22.9411834669,-5000.0,0.0,0.0,0.0
1513264795608795016,,471835,,1513264793,836820663,'',1.29154364648,1.28695540978,-0.0112849013634,-0.00458823669339,0.001,-22.9411834669,-5000.0,0.0,0.0,0.0
1513264795618699890,,471836,,1513264793,846820663,'',1.29154364648,1.28695540978,-0.0131138041478,-0.00458823669339,0.001,-22.9411834669,-5000.0,0.0,0.0,0.0
1513264795628597823,,471837,,1513264793,856820663,'',1.29154364648,1.28830489116,0.0120854111645,-0.00323875531298,0.001,-16.1937765649,-5000.0,0.0,0.0,0.0
1513264795638670263,,471838,,1513264793,866820663,'',1.29154364648,1.28830489116,0.00989370893661,-0.00323875531298,0.001,-16.1937765649,-5000.0,0.0,0.0,0.0
1513264795648649033,,471839,,1513264793,876820663,'',1.29154364648,1.28965437254,0.0367576444567,-0.00188927393257,0.001,-9.44636966286,-5000.0,0.0,0.0,0.0
1513264795658625037,,471840,,1513264793,886820663,'',1.29154364648,1.28965437254,0.036465282336,-0.00188927393257,0.001,-9.44636966286,-5000.0,0.0,0.0,0.0
1513264795668502353,,471841,,1513264793,896820663,'',1.29154364648,1.28830489116,0.00853709656674,-0.00323875531298,0.001,-16.1937765649,-5000.0,0.0,0.0,0.0
1513264795678411894,,471842,,1513264793,906820663,'',1.29154364648,1.28695540978,-0.0177463255956,-0.00458823669339,0.001,-22.9411834669,-5000.0,0.0,0.0,0.0
1513264795688350892,,471843,,1513264793,916820663,'',1.29154364648,1.28830489116,0.00925055801685,-0.00323875531298,0.001,-16.1937765649,-5000.0,0.0,0.0,0.0
1513264795698278885,,471844,,1513264793,926820663,'',1.29154364648,1.28830489116,0.0104278077692,-0.00323875531298,0.001,-16.1937765649,-5000.0,0.0,0.0,0.0
1513264795708569329,,471845,,1513264793,936820663,'',1.29154364648,1.28695540978,-0.0157120781847,-0.00458823669339,0.001,-22.9411834669,-5000.0,0.0,0.0,0.0
1513264795718470360,,471846,,1513264793,946820663,'',1.29154364648,1.28695540978,-0.0158325539872,-0.00458823669339,0.001,-22.9411834669,-5000.0,0.0,0.0,0.0
1513264795728481904,,471847,,1513264793,956820663,'',1.29154364648,1.28830489116,0.0108384341238,-0.00323875531298,0.001,-16.1937765649,-5000.0,0.0,0.0,0.0
1513264795738436156,,471848,,1513264793,966820663,'',1.29154364648,1.28695540978,-0.0159264725601,-0.00458823669339,0.001,-22.9411834669,-5000.0,0.0,0.0,0.0
1513264795748401820,,471849,,1513264793,976820663,'',1.29154364648,1.28695540978,-0.0154322143865,-0.00458823669339,0.001,-22.9411834669,-5000.0,0.0,0.0,0.0
1513264795758380135,,471850,,1513264793,986820663,'',1.29154364648,1.28695540978,-0.0145478055032,-0.00458823669339,0.001,-22.9411834669,-5000.0,0.0,0.0,0.0
1513264795768348955,,471851,,1513264793,996820663,'',1.29154364648,1.28830489116,0.0118106189854,-0.00323875531298,0.001,-16.1937765649,-5000.0,0.0,0.0,0.0
1513264795778772095,,471852,,1513264794,6820663,'',1.29154364648,1.28695540978,-0.0136190197904,-0.00458823669339,0.001,-22.9411834669,-5000.0,0.0,0.0,0.0
1513264795788666180,,471853,,1513264794,16820663,'',1.29154364648,1.28695540978,-0.0130293923296,-0.00458823669339,0.001,-22.9411834669,-5000.0,0.0,0.0,0.0
1513264795798644325,,471854,,1513264794,26820663,'',1.29154364648,1.28695540978,-0.0136323621483,-0.00458823669339,0.001,-22.9411834669,-5000.0,0.0,0.0,0.0
1513264795808618765,,471855,,1513264794,36820663,'',1.29154364648,1.28695540978,-0.0140384912702,-0.00458823669339,0.001,-22.9411834669,-5000.0,0.0,0.0,0.0
1513264795818663063,,471856,,1513264794,46820663,'',1.29154364648,1.28830489116,0.0137909670393,-0.00323875531298,0.001,-16.1937765649,-5000.0,0.0,0.0,0.0
1513264795828571579,,471857,,1513264794,56820663,'',1.29154364648,1.28695540978,-0.0115174205463,-0.00458823669339,0.001,-22.9411834669,-5000.0,0.0,0.0,0.0
1513264795838451650,,471858,,1513264794,66820663,'',1.29154364648,1.28830489116,0.0148458249205,-0.00323875531298,0.001,-16.1937765649,-5000.0,0.0,0.0,0.0
1513264795848320541,,471859,,1513264794,76820663,'',1.29154364648,1.28830489116,0.0136462077242,-0.00323875531298,0.001,-16.1937765649,-5000.0,0.0,0.0,0.0
1513264795858654537,,471860,,1513264794,86820663,'',1.29154364648,1.28830489116,0.0130950525299,-0.00323875531298,0.001,-16.1937765649,-5000.0,0.0,0.0,0.0
1513264795868628638,,471861,,1513264794,96820663,'',1.29154364648,1.28695540978,-0.0150523800244,-0.00458823669339,0.001,-22.9411834669,-5000.0,0.0,0.0,0.0
1513264795878557198,,471862,,1513264794,106820663,'',1.29154364648,1.28830489116,0.0128821538504,-0.00323875531298,0.001,-16.1937765649,-5000.0,0.0,0.0,0.0
1513264795888564643,,471863,,1513264794,116820663,'',1.29154364648,1.28695540978,-0.0142398102309,-0.00458823669339,0.001,-22.9411834669,-5000.0,0.0,0.0,0.0
1513264795898519442,,471864,,1513264794,126820663,'',1.29154364648,1.28695540978,-0.0135799290591,-0.00458823669339,0.001,-22.9411834669,-5000.0,0.0,0.0,0.0
1513264795908462740,,471865,,1513264794,136820663,'',1.29154364648,1.2856059284,-0.0403046860226,-0.00593771807379,0.001,-29.688590369,-5000.0,0.0,0.0,0.0
1513264795918405235,,471866,,1513264794,146820663,'',1.29154364648,1.28695540978,-0.014625001066,-0.00458823669339,0.001,-22.9411834669,-5000.0,0.0,0.0,0.0
1513264795928586704,,471867,,1513264794,156820663,'',1.29154364648,1.28830489116,0.0122613100537,-0.00323875531298,0.001,-16.1937765649,-5000.0,0.0,0.0,0.0
1513264795938389453,,471868,,1513264794,166820663,'',1.29154364648,1.28830489116,0.0129677052893,-0.00323875531298,0.001,-16.1937765649,-5000.0,0.0,0.0,0.0
1513264795948357103,,471869,,1513264794,176820663,'',1.29154364648,1.28830489116,0.0135891152525,-0.00323875531298,0.001,-16.1937765649,-5000.0,0.0,0.0,0.0
1513264795958583369,,471870,,1513264794,186820663,'',1.29154364648,1.28830489116,0.0130879401635,-0.00323875531298,0.001,-16.1937765649,-5000.0,0.0,0.0,0.0
1513264795968284516,,471871,,1513264794,196820663,'',1.29154364648,1.28830489116,0.0116998289202,-0.00323875531298,0.001,-16.1937765649,-5000.0,0.0,0.0,0.0
1513264795978837819,,471872,,1513264794,206820663,'',1.29154364648,1.28695540978,-0.0137327485889,-0.00458823669339,0.001,-22.9411834669,-5000.0,0.0,0.0,0.0
1513264795988949031,,471873,,1513264794,216820663,'',1.29154364648,1.28695540978,-0.0140745967045,-0.00458823669339,0.001,-22.9411834669,-5000.0,0.0,0.0,0.0
1513264795998829142,,471874,,1513264794,226820663,'',1.29154364648,1.28695540978,-0.0149133439405,-0.00458823669339,0.001,-22.9411834669,-5000.0,0.0,0.0,0.0
1513264796008832522,,471875,,1513264794,236820663,'',1.29154364648,1.28695540978,-0.0146953714881,-0.00458823669339,0.001,-22.9411834669,-5000.0,0.0,0.0,0.0
1513264796018819017,,471876,,1513264794,246820663,'',1.29154364648,1.28695540978,-0.0134596617548,-0.00458823669339,0.001,-22.9411834669,-5000.0,0.0,0.0,0.0
1513264796028758143,,471877,,1513264794,256820663,'',1.29154364648,1.28695540978,-0.013411824817,-0.00458823669339,0.001,-22.9411834669,-5000.0,0.0,0.0,0.0
1513264796038577491,,471878,,1513264794,266820663,'',1.29154364648,1.28830489116,0.0138161215652,-0.00323875531298,0.001,-16.1937765649,-5000.0,0.0,0.0,0.0
1513264796048508590,,471879,,1513264794,276820663,'',1.29154364648,1.28830489116,0.0122638405139,-0.00323875531298,0.001,-16.1937765649,-5000.0,0.0,0.0,0.0
1513264796058446602,,471880,,1513264794,286820663,'',1.29154364648,1.28830489116,0.0123575434852,-0.00323875531298,0.001,-16.1937765649,-5000.0,0.0,0.0,0.0
1513264796068408481,,471881,,1513264794,296820663,'',1.29154364648,1.28695540978,-0.0146101282267,-0.00458823669339,0.001,-22.9411834669,-5000.0,0.0,0.0,0.0
1513264796078376019,,471882,,1513264794,306820663,'',1.29154364648,1.28830489116,0.0108848028771,-0.00323875531298,0.001,-16.1937765649,-5000.0,0.0,0.0,0.0
1513264796088343906,,471883,,1513264794,316820663,'',1.29154364648,1.28830489116,0.0108964456781,-0.00323875531298,0.001,-16.1937765649,-5000.0,0.0,0.0,0.0
1513264796098756762,,471884,,1513264794,326820663,'',1.29154364648,1.28830489116,0.010360100666,-0.00323875531298,0.001,-16.1937765649,-5000.0,0.0,0.0,0.0
1513264796108627996,,471885,,1513264794,336820663,'',1.29154364648,1.28965437254,0.0342579385502,-0.00188927393257,0.001,-9.44636966286,-5000.0,0.0,0.0,0.0
1513264796118586261,,471886,,1513264794,346820663,'',1.29154364648,1.29100385392,0.0518262385898,-0.000539792552163,0.001,-2.69896276082,-5000.0,0.0,0.0,0.0
1513264796128389774,,471887,,1513264794,356820663,'',1.29154364648,1.2923533353,0.0647688246514,0.000809688828245,0.001,4.04844414122,-5000.0,0.0,0.0,0.0
1513264796138516513,,471888,,1513264794,366820663,'',1.29154364648,1.2923533353,0.0535362153084,0.0,0.001,0.0,-5000.0,0.0,0.0,0.0
1513264796148442647,,471889,,1513264794,376820663,'',1.29154364648,1.2923533353,0.0458344389971,0.0,0.001,0.0,-5000.0,0.0,0.0,0.0
1513264796158507090,,471890,,1513264794,386820663,'',1.29154364648,1.29100385392,0.0122047708031,0.0,0.001,0.0,-5000.0,0.0,0.0,0.0
1513264796168352245,,471891,,1513264794,396820663,'',1.29154364648,1.29100385392,0.00556507749,0.0,0.001,0.0,-5000.0,0.0,0.0,0.0
1513264796178507323,,471892,,1513264794,406820663,'',1.29154364648,1.2923533353,0.0273462068522,0.0,0.001,0.0,-5000.0,0.0,0.0,0.0
1513264796188181600,,471893,,1513264794,416820663,'',1.29154364648,1.2923533353,0.0209567647808,0.0,0.001,0.0,-5000.0,0.0,0.0,0.0
1513264796198733112,,471894,,1513264794,426820663,'',1.29154364648,1.29370281668,0.038467171118,0.0,0.001,0.0,-5000.0,0.0,0.0,0.0
1513264796208693961,,471895,,1513264794,436820663,'',1.29154364648,1.29505229806,0.0567799340961,0.0,0.001,0.0,-5000.0,0.0,0.0,0.0
1513264796218556409,,471896,,1513264794,446820663,'',1.29154364648,1.29370281668,0.022660422585,0.0,0.001,0.0,-5000.0,0.0,0.0,0.0
1513264796228323005,,471897,,1513264794,456820663,'',1.29154364648,1.29505229806,0.041330634771,0.0,0.001,0.0,-5000.0,0.0,0.0,0.0
1513264796238394898,,471898,,1513264794,466820663,'',1.29154364648,1.29775126083,0.0808869593376,0.0,0.001,0.0,-5000.0,0.0,0.0,0.0
1513264796248447769,,471899,,1513264794,476820663,'',1.29154364648,1.29775126083,0.0671614528915,0.0,0.001,0.0,-5000.0,0.0,0.0,0.0
1513264796258431867,,471900,,1513264794,486820663,'',1.29154364648,1.29775126083,0.0544314655076,0.0,0.001,0.0,-5000.0,0.0,0.0,0.0
1513264796268780118,,471901,,1513264794,496820663,'',1.29154364648,1.29775126083,0.0430065910676,0.0,0.001,0.0,-5000.0,0.0,0.0,0.0
1513264796278758990,,471902,,1513264794,506820663,'',1.29154364648,1.29775126083,0.0327887980419,0.0,0.001,0.0,-5000.0,0.0,0.0,0.0
1513264796288557113,,471903,,1513264794,516820663,'',1.29154364648,1.29775126083,0.0229268714504,0.0,0.001,0.0,-5000.0,0.0,0.0,0.0
1513264796298485528,,471904,,1513264794,526820663,'',1.29154364648,1.29910074221,0.0415843066307,0.0,0.001,0.0,-5000.0,0.0,0.0,0.0
1513264796308472239,,471905,,1513264794,536820663,'',1.29154364648,1.29910074221,0.033074781897,0.0,0.001,0.0,-5000.0,0.0,0.0,0.0
1513264796318502356,,471906,,1513264794,546820663,'',1.29154364648,1.29910074221,0.0256728910334,0.0,0.001,0.0,-5000.0,0.0,0.0,0.0
1513264796328446482,,471907,,1513264794,556820663,'',1.29154364648,1.30045022359,0.0456964663939,0.0,0.001,0.0,-5000.0,0.0,0.0,0.0
1513264796338476876,,471908,,1513264794,566820663,'',1.29154364648,1.29910074221,0.0140888916031,0.0,0.001,0.0,-5000.0,0.0,0.0,0.0
1513264796348398697,,471909,,1513264794,576820663,'',1.29154364648,1.29910074221,0.00963247166752,0.0,0.001,0.0,-5000.0,0.0,0.0,0.0
1513264796358309360,,471910,,1513264794,586820663,'',1.29154364648,1.30045022359,0.0316967006883,0.0,0.001,0.0,-5000.0,0.0,0.0,0.0
1513264796368357453,,471911,,1513264794,596820663,'',1.29154364648,1.30045022359,0.0283859552015,0.0,0.001,0.0,-5000.0,0.0,0.0,0.0
1513264796378234778,,471912,,1513264794,606820663,'',1.29154364648,1.30045022359,0.0257142379824,0.0,0.001,0.0,-5000.0,0.0,0.0,0.0
1513264796388765280,,471913,,1513264794,616820663,'',1.29154364648,1.30045022359,0.0225016115152,0.0,0.001,0.0,-5000.0,0.0,0.0,0.0
1513264796398622445,,471914,,1513264794,626820663,'',1.29154364648,1.30045022359,0.0209012232673,0.0,0.001,0.0,-5000.0,0.0,0.0,0.0
1513264796408604558,,471915,,1513264794,636820663,'',1.29154364648,1.29910074221,-0.00615986612898,0.0,0.001,0.0,-5000.0,0.0,0.0,0.0
1513264796418414180,,471916,,1513264794,646820663,'',1.29154364648,1.30045022359,0.0202519247393,0.0,0.001,0.0,-5000.0,0.0,0.0,0.0
1513264796428491200,,471917,,1513264794,656820663,'',1.29154364648,1.29910074221,-0.00637516626008,0.0,0.001,0.0,-5000.0,0.0,0.0,0.0
1513264796438434264,,471918,,1513264794,666820663,'',1.29154364648,1.29910074221,-0.00527128622259,0.0,0.001,0.0,-5000.0,0.0,0.0,0.0
1513264796448799473,,471919,,1513264794,676820663,'',1.29154364648,1.29910074221,-0.00676278652694,0.0,0.001,0.0,-5000.0,0.0,0.0,0.0
1513264796458662885,,471920,,1513264794,686820663,'',1.29154364648,1.30045022359,0.0207335601906,0.0,0.001,0.0,-5000.0,0.0,0.0,0.0
1513264796468698648,,471921,,1513264794,696820663,'',1.29154364648,1.29910074221,-0.00580788664464,0.0,0.001,0.0,-5000.0,0.0,0.0,0.0
1513264796478718057,,471922,,1513264794,706820663,'',1.29154364648,1.30045022359,0.0191091989633,0.0,0.001,0.0,-5000.0,0.0,0.0,0.0
1513264796488692246,,471923,,1513264794,716820663,'',1.29154364648,1.29910074221,-0.0085969759553,0.0,0.001,0.0,-5000.0,0.0,0.0,0.0
1513264796498629370,,471924,,1513264794,726820663,'',1.29154364648,1.30045022359,0.0182495296985,0.0,0.001,0.0,-5000.0,0.0,0.0,0.0
1513264796508720114,,471925,,1513264794,736820663,'',1.29154364648,1.29910074221,-0.00974326346153,0.0,0.001,0.0,-5000.0,0.0,0.0,0.0
1513264796518712158,,471926,,1513264794,746820663,'',1.29154364648,1.29910074221,-0.00897455635372,0.0,0.001,0.0,-5000.0,0.0,0.0,0.0
1513264796528524722,,471927,,1513264794,756820663,'',1.29154364648,1.29910074221,-0.0104084642297,0.0,0.001,0.0,-5000.0,0.0,0.0,0.0
1513264796538455193,,471928,,1513264794,766820663,'',1.29154364648,1.30179970497,0.0424247696348,0.0,0.001,0.0,-5000.0,0.0,0.0,0.0
1513264796548428372,,471929,,1513264794,776820663,'',1.29154364648,1.30045022359,0.0143589140926,0.0,0.001,0.0,-5000.0,0.0,0.0,0.0
1513264796558501542,,471930,,1513264794,786820663,'',1.29154364648,1.30045022359,0.0133177696898,0.0,0.001,0.0,-5000.0,0.0,0.0,0.0
1513264796568439109,,471931,,1513264794,796820663,'',1.29154364648,1.29910074221,-0.0143684445402,0.0,0.001,0.0,-5000.0,0.0,0.0,0.0
1513264796578755539,,471932,,1513264794,806820663,'',1.29154364648,1.29910074221,-0.0136896353166,0.0,0.001,0.0,-5000.0,0.0,0.0,0.0
1513264796588680055,,471933,,1513264794,816820663,'',1.29154364648,1.30045022359,0.0135671539592,0.0,0.001,0.0,-5000.0,0.0,0.0,0.0
1513264796598585819,,471934,,1513264794,826820663,'',1.29154364648,1.30045022359,0.0116407989436,0.0,0.001,0.0,-5000.0,0.0,0.0,0.0
1513264796608539684,,471935,,1513264794,836820663,'',1.29154364648,1.30179970497,0.0357225164557,0.0,0.001,0.0,-5000.0,0.0,0.0,0.0
1513264796618604524,,471936,,1513264794,846820663,'',1.29154364648,1.29910074221,-0.0183294578352,0.0,0.001,0.0,-5000.0,0.0,0.0,0.0
1513264796628578155,,471937,,1513264794,856820663,'',1.29154364648,1.29910074221,-0.0169863510503,0.0,0.001,0.0,-5000.0,0.0,0.0,0.0
1513264796638548558,,471938,,1513264794,866820663,'',1.29154364648,1.30045022359,0.0108652332738,0.0,0.001,0.0,-5000.0,0.0,0.0,0.0
1513264796648496885,,471939,,1513264794,876820663,'',1.29154364648,1.29910074221,-0.017825819216,0.0,0.001,0.0,-5000.0,0.0,0.0,0.0
1513264796658256796,,471940,,1513264794,886820663,'',1.29154364648,1.30045022359,0.00780902939192,0.0,0.001,0.0,-5000.0,0.0,0.0,0.0
1513264796668208853,,471941,,1513264794,896820663,'',1.29154364648,1.30045022359,0.00790988366527,0.0,0.001,0.0,-5000.0,0.0,0.0,0.0
1513264796678667809,,471942,,1513264794,906820663,'',1.29154364648,1.30045022359,0.00656837292792,0.0,0.001,0.0,-5000.0,0.0,0.0,0.0
1513264796688675553,,471943,,1513264794,916820663,'',1.29154364648,1.29910074221,-0.0209052774183,0.0,0.001,0.0,-5000.0,0.0,0.0,0.0
1513264796698559419,,471944,,1513264794,926820663,'',1.29154364648,1.30179970497,0.0314545753984,0.0,0.001,0.0,-5000.0,0.0,0.0,0.0
1513264796708277911,,471945,,1513264794,936820663,'',1.29154364648,1.30045022359,0.00394269256146,0.0,0.001,0.0,-5000.0,0.0,0.0,0.0
1513264796718292604,,471946,,1513264794,946820663,'',1.29154364648,1.30179970497,0.0309298547719,0.0,0.001,0.0,-5000.0,0.0,0.0,0.0
1513264796728234583,,471947,,1513264794,956820663,'',1.29154364648,1.30045022359,0.00345554682113,0.0,0.001,0.0,-5000.0,0.0,0.0,0.0
1513264796738611543,,471948,,1513264794,966820663,'',1.29154364648,1.29910074221,-0.023910026443,0.0,0.001,0.0,-5000.0,0.0,0.0,0.0
1513264796748706006,,471949,,1513264794,976820663,'',1.29154364648,1.30045022359,0.00270983065386,0.0,0.001,0.0,-5000.0,0.0,0.0,0.0
1513264796758512340,,471950,,1513264794,986820663,'',1.29154364648,1.29910074221,-0.0240496402813,0.0,0.001,0.0,-5000.0,0.0,0.0,0.0
1513264796768435234,,471951,,1513264794,996820663,'',1.29154364648,1.30045022359,0.00219145064763,0.0,0.001,0.0,-5000.0,0.0,0.0,0.0
1513264796778440466,,471952,,1513264795,6820663,'',1.29154364648,1.29910074221,-0.0238881702712,0.0,0.001,0.0,-5000.0,0.0,0.0,0.0
1513264796788249925,,471953,,1513264795,16820663,'',1.29154364648,1.30045022359,0.00277426740851,0.0,0.001,0.0,-5000.0,0.0,0.0,0.0
1513264796798209574,,471954,,1513264795,26820663,'',1.29154364648,1.30045022359,0.0023036838891,0.0,0.001,0.0,-5000.0,0.0,0.0,0.0
1513264796808231795,,471955,,1513264795,36820663,'',1.29154364648,1.30045022359,0.00286219046768,0.0,0.001,0.0,-5000.0,0.0,0.0,0.0
1513264796818712770,,471956,,1513264795,46820663,'',1.29154364648,1.30045022359,0.0023539503383,0.0,0.001,0.0,-5000.0,0.0,0.0,0.0
1513264796828616900,,471957,,1513264795,56820663,'',1.29154364648,1.30179970497,0.0280812456962,0.0,0.001,0.0,-5000.0,0.0,0.0,0.0
1513264796838623821,,471958,,1513264795,66820663,'',1.29154364648,1.29910074221,-0.0260752320816,0.0,0.001,0.0,-5000.0,0.0,0.0,0.0
1513264796848594337,,471959,,1513264795,76820663,'',1.29154364648,1.30045022359,0.000956040671003,0.0,0.001,0.0,-5000.0,0.0,0.0,0.0
1513264796858597938,,471960,,1513264795,86820663,'',1.29154364648,1.30045022359,-0.000255067373146,0.0,0.001,0.0,-5000.0,0.0,0.0,0.0
1513264796868463334,,471961,,1513264795,96820663,'',1.29154364648,1.29910074221,-0.0259659517466,0.0,0.001,0.0,-5000.0,0.0,0.0,0.0
1513264796878357834,,471962,,1513264795,106820663,'',1.29154364648,1.30045022359,0.0001247610174,0.0,0.001,0.0,-5000.0,0.0,0.0,0.0
1513264796888771222,,471963,,1513264795,116820663,'',1.29154364648,1.30045022359,-0.000330180476013,0.0,0.001,0.0,-5000.0,0.0,0.0,0.0
1513264796898690551,,471964,,1513264795,126820663,'',1.29154364648,1.30045022359,-0.000778136618736,0.0,0.001,0.0,-5000.0,0.0,0.0,0.0
1513264796908782447,,471965,,1513264795,136820663,'',1.29154364648,1.30179970497,0.0260890305351,0.0,0.001,0.0,-5000.0,0.0,0.0,0.0
1513264796918626918,,471966,,1513264795,146820663,'',1.29154364648,1.30179970497,0.0262540508772,0.0,0.001,0.0,-5000.0,0.0,0.0,0.0
1513264796928591687,,471967,,1513264795,156820663,'',1.29154364648,1.30045022359,-0.00129717516907,0.0,0.001,0.0,-5000.0,0.0,0.0,0.0
1513264796938532305,,471968,,1513264795,166820663,'',1.29154364648,1.30045022359,-0.000581929712584,0.0,0.001,0.0,-5000.0,0.0,0.0,0.0
1513264796948349769,,471969,,1513264795,176820663,'',1.29154364648,1.30045022359,-0.00244347409833,0.0,0.001,0.0,-5000.0,0.0,0.0,0.0
1513264796958378731,,471970,,1513264795,186820663,'',1.29154364648,1.29910074221,-0.0287548490399,0.0,0.001,0.0,-5000.0,0.0,0.0,0.0
1513264796968351013,,471971,,1513264795,196820663,'',1.29154364648,1.30045022359,-0.00169096495769,0.0,0.001,0.0,-5000.0,0.0,0.0,0.0
1513264796978432104,,471972,,1513264795,206820663,'',1.29154364648,1.30045022359,-0.00135052304272,0.0,0.001,0.0,-5000.0,0.0,0.0,0.0
1513264796988504075,,471973,,1513264795,216820663,'',1.29154364648,1.30179970497,0.0255746330769,0.0,0.001,0.0,-5000.0,0.0,0.0,0.0
1513264796998383479,,471974,,1513264795,226820663,'',1.29154364648,1.30045022359,-0.00185313222974,0.0,0.001,0.0,-5000.0,0.0,0.0,0.0
1513264797008418692,,471975,,1513264795,236820663,'',1.29154364648,1.30045022359,-0.00251165863914,0.0,0.001,0.0,-5000.0,0.0,0.0,0.0
1513264797018708667,,471976,,1513264795,246820663,'',1.29154364648,1.30045022359,-0.00210430414291,0.0,0.001,0.0,-5000.0,0.0,0.0,0.0
1513264797028739074,,471977,,1513264795,256820663,'',1.29154364648,1.30045022359,-0.00363863021695,0.0,0.001,0.0,-5000.0,0.0,0.0,0.0
1513264797038685915,,471978,,1513264795,266820663,'',1.29154364648,1.30045022359,-0.00349719138771,0.0,0.001,0.0,-5000.0,0.0,0.0,0.0
1513264797048666441,,471979,,1513264795,276820663,'',1.29154364648,1.30045022359,-0.00475962167394,0.0,0.001,0.0,-5000.0,0.0,0.0,0.0
1513264797058598722,,471980,,1513264795,286820663,'',1.29154364648,1.30045022359,-0.00389653351752,0.0,0.001,0.0,-5000.0,0.0,0.0,0.0
1513264797068585299,,471981,,1513264795,296820663,'',1.29154364648,1.29910074221,-0.0309524710635,0.0,0.001,0.0,-5000.0,0.0,0.0,0.0
1513264797078560721,,471982,,1513264795,306820663,'',1.29154364648,1.30045022359,-0.00159785837721,0.0,0.001,0.0,-5000.0,0.0,0.0,0.0
1513264797088545375,,471983,,1513264795,316820663,'',1.29154364648,1.30179970497,0.0244766139079,0.0,0.001,0.0,-5000.0,0.0,0.0,0.0
1513264797098554426,,471984,,1513264795,326820663,'',1.29154364648,1.30314918635,0.0501287789312,0.0,0.001,0.0,-5000.0,0.0,0.0,0.0
1513264797108540700,,471985,,1513264795,336820663,'',1.29154364648,1.30179970497,0.0221768531821,0.0,0.001,0.0,-5000.0,0.0,0.0,0.0
1513264797118456837,,471986,,1513264795,346820663,'',1.29154364648,1.30179970497,0.022048147333,0.0,0.001,0.0,-5000.0,0.0,0.0,0.0
1513264797128464874,,471987,,1513264795,356820663,'',1.29154364648,1.30045022359,-0.00529718825639,0.0,0.001,0.0,-5000.0,0.0,0.0,0.0
1513264797138606011,,471988,,1513264795,366820663,'',1.29154364648,1.30045022359,-0.00586440172351,0.0,0.001,0.0,-5000.0,0.0,0.0,0.0
1513264797148365368,,471989,,1513264795,376820663,'',1.29154364648,1.30179970497,0.0214455472619,0.0,0.001,0.0,-5000.0,0.0,0.0,0.0
1513264797158745421,,471990,,1513264795,386820663,'',1.29154364648,1.30045022359,-0.00576594896813,0.0,0.001,0.0,-5000.0,0.0,0.0,0.0
1513264797168666574,,471991,,1513264795,396820663,'',1.29154364648,1.30045022359,-0.00521793754176,0.0,0.001,0.0,-5000.0,0.0,0.0,0.0
1513264797178619036,,471992,,1513264795,406820663,'',1.29154364648,1.30045022359,-0.00427648270593,0.0,0.001,0.0,-5000.0,0.0,0.0,0.0
1513264797188516814,,471993,,1513264795,416820663,'',1.29154364648,1.30314918635,0.0490398879975,0.0,0.001,0.0,-5000.0,0.0,0.0,0.0
1513264797198408391,,471994,,1513264795,426820663,'',1.29154364648,1.30179970497,0.0226975149301,0.0,0.001,0.0,-5000.0,0.0,0.0,0.0
1513264797208454705,,471995,,1513264795,436820663,'',1.29154364648,1.30179970497,0.0219995419517,0.0,0.001,0.0,-5000.0,0.0,0.0,0.0
1513264797218401964,,471996,,1513264795,446820663,'',1.29154364648,1.30045022359,-0.00478298067173,0.0,0.001,0.0,-5000.0,0.0,0.0,0.0
1513264797228390820,,471997,,1513264795,456820663,'',1.29154364648,1.30045022359,-0.0044566699338,0.0,0.001,0.0,-5000.0,0.0,0.0,0.0
1513264797238450543,,471998,,1513264795,466820663,'',1.29154364648,1.29910074221,-0.0323203454549,0.0,0.001,0.0,-5000.0,0.0,0.0,0.0
1513264797248435533,,471999,,1513264795,476820663,'',1.29154364648,1.30045022359,-0.0046917022883,0.0,0.001,0.0,-5000.0,0.0,0.0,0.0
1513264797258412033,,472000,,1513264795,486820663,'',1.29154364648,1.30045022359,-0.00729816024822,0.0,0.001,0.0,-5000.0,0.0,0.0,0.0
1513264797268351944,,472001,,1513264795,496820663,'',1.29154364648,1.30045022359,-0.00843535462037,0.0,0.001,0.0,-5000.0,0.0,0.0,0.0
1513264797278731159,,472002,,1513264795,506820663,'',1.29154364648,1.30179970497,0.0188185385549,0.0,0.001,0.0,-5000.0,0.0,0.0,0.0
1513264797288649365,,472003,,1513264795,516820663,'',1.29154364648,1.30179970497,0.017322178041,0.0,0.001,0.0,-5000.0,0.0,0.0,0.0
1513264797298730104,,472004,,1513264795,526820663,'',1.29154364648,1.30045022359,-0.00957833995529,0.0,0.001,0.0,-5000.0,0.0,0.0,0.0
1513264797308609181,,472005,,1513264795,536820663,'',1.29154364648,1.30045022359,-0.00934557993456,0.0,0.001,0.0,-5000.0,0.0,0.0,0.0
1513264797318662120,,472006,,1513264795,546820663,'',1.29154364648,1.30179970497,0.0181535831526,0.0,0.001,0.0,-5000.0,0.0,0.0,0.0
1513264797328647180,,472007,,1513264795,556820663,'',1.29154364648,1.30045022359,-0.00988145616638,0.0,0.001,0.0,-5000.0,0.0,0.0,0.0
1513264797338596635,,472008,,1513264795,566820663,'',1.29154364648,1.29910074221,-0.0373228300328,0.0,0.001,0.0,-5000.0,0.0,0.0,0.0
1513264797348728917,,472009,,1513264795,576820663,'',1.29154364648,1.30045022359,-0.00979027943001,0.0,0.001,0.0,-5000.0,0.0,0.0,0.0
1513264797358605818,,472010,,1513264795,586820663,'',1.29154364648,1.30045022359,-0.00905202933886,0.0,0.001,0.0,-5000.0,0.0,0.0,0.0
1513264797368481172,,472011,,1513264795,596820663,'',1.29154364648,1.30045022359,-0.00789937885714,0.0,0.001,0.0,-5000.0,0.0,0.0,0.0
1513264797378308458,,472012,,1513264795,606820663,'',1.29154364648,1.30045022359,-0.00836172661286,0.0,0.001,0.0,-5000.0,0.0,0.0,0.0
1513264797388321005,,472013,,1513264795,616820663,'',1.29154364648,1.30045022359,-0.00788638282775,0.0,0.001,0.0,-5000.0,0.0,0.0,0.0
1513264797398751646,,472014,,1513264795,626820663,'',1.29154364648,1.30045022359,-0.00745756588812,0.0,0.001,0.0,-5000.0,0.0,0.0,0.0
1513264797408623581,,472015,,1513264795,636820663,'',1.29154364648,1.30045022359,-0.00703488523746,0.0,0.001,0.0,-5000.0,0.0,0.0,0.0
1513264797418668589,,472016,,1513264795,646820663,'',1.29154364648,1.30045022359,-0.00725569559557,0.0,0.001,0.0,-5000.0,0.0,0.0,0.0
1513264797428593426,,472017,,1513264795,656820663,'',1.29154364648,1.30179970497,0.0202485446691,0.0,0.001,0.0,-5000.0,0.0,0.0,0.0
1513264797438458445,,472018,,1513264795,666820663,'',1.29154364648,1.30179970497,0.0175364682918,0.0,0.001,0.0,-5000.0,0.0,0.0,0.0
1513264797448451123,,472019,,1513264795,676820663,'',1.29154364648,1.30045022359,-0.0113294597753,0.0,0.001,0.0,-5000.0,0.0,0.0,0.0
1513264797458611319,,472020,,1513264795,686820663,'',1.29154364648,1.30045022359,-0.0106602654148,0.0,0.001,0.0,-5000.0,0.0,0.0,0.0
1513264797468427168,,472021,,1513264795,696820663,'',1.29154364648,1.29910074221,-0.03591818615,0.0,0.001,0.0,-5000.0,0.0,0.0,0.0
1513264797478483571,,472022,,1513264795,706820663,'',1.29154364648,1.30179970497,0.0182253464169,0.0,0.001,0.0,-5000.0,0.0,0.0,0.0
1513264797488421688,,472023,,1513264795,716820663,'',1.29154364648,1.30045022359,-0.00935087536489,0.0,0.001,0.0,-5000.0,0.0,0.0,0.0
1513264797498321339,,472024,,1513264795,726820663,'',1.29154364648,1.30045022359,-0.00813233067755,0.0,0.001,0.0,-5000.0,0.0,0.0,0.0
1513264797508337220,,472025,,1513264795,736820663,'',1.29154364648,1.30179970497,0.0196310362072,0.0,0.001,0.0,-5000.0,0.0,0.0,0.0
1513264797518755111,,472026,,1513264795,746820663,'',1.29154364648,1.30045022359,-0.0081814762776,0.0,0.001,0.0,-5000.0,0.0,0.0,0.0
1513264797528662304,,472027,,1513264795,756820663,'',1.29154364648,1.30045022359,-0.00827010674562,0.0,0.001,0.0,-5000.0,0.0,0.0,0.0
1513264797538662147,,472028,,1513264795,766820663,'',1.29154364648,1.30045022359,-0.00730311596216,0.0,0.001,0.0,-5000.0,0.0,0.0,0.0
1513264797548511825,,472029,,1513264795,776820663,'',1.29154364648,1.30045022359,-0.00796361504233,0.0,0.001,0.0,-5000.0,0.0,0.0,0.0
1513264797558448923,,472030,,1513264795,786820663,'',1.29154364648,1.30045022359,-0.00749785509798,0.0,0.001,0.0,-5000.0,0.0,0.0,0.0
1513264797568375704,,472031,,1513264795,796820663,'',1.29154364648,1.30045022359,-0.00754836195167,0.0,0.001,0.0,-5000.0,0.0,0.0,0.0
1513264797578248953,,472032,,1513264795,806820663,'',1.29154364648,1.30045022359,-0.00716669360835,0.0,0.001,0.0,-5000.0,0.0,0.0,0.0
1513264797588695871,,472033,,1513264795,816820663,'',1.29154364648,1.30179970497,0.0189209910911,0.0,0.001,0.0,-5000.0,0.0,0.0,0.0
1513264797598626237,,472034,,1513264795,826820663,'',1.29154364648,1.30045022359,-0.00773540131901,0.0,0.001,0.0,-5000.0,0.0,0.0,0.0
1513264797608795963,,472035,,1513264795,836820663,'',1.29154364648,1.30179970497,0.0198492928763,0.0,0.001,0.0,-5000.0,0.0,0.0,0.0
1513264797618641375,,472036,,1513264795,846820663,'',1.29154364648,1.30179970497,0.0196685568787,0.0,0.001,0.0,-5000.0,0.0,0.0,0.0
1513264797628527716,,472037,,1513264795,856820663,'',1.29154364648,1.30045022359,-0.00817760397288,0.0,0.001,0.0,-5000.0,0.0,0.0,0.0
1513264797638559702,,472038,,1513264795,866820663,'',1.29154364648,1.30045022359,-0.00771064704698,0.0,0.001,0.0,-5000.0,0.0,0.0,0.0
1513264797648588330,,472039,,1513264795,876820663,'',1.29154364648,1.30045022359,-0.00721691600821,0.0,0.001,0.0,-5000.0,0.0,0.0,0.0
1513264797658551056,,472040,,1513264795,886820663,'',1.29154364648,1.30179970497,0.0174114567017,0.0,0.001,0.0,-5000.0,0.0,0.0,0.0
1513264797668825087,,472041,,1513264795,896820663,'',1.29154364648,1.30045022359,-0.00900728308234,0.0,0.001,0.0,-5000.0,0.0,0.0,0.0
1513264797678887826,,472042,,1513264795,906820663,'',1.29154364648,1.30045022359,-0.00885236188542,0.0,0.001,0.0,-5000.0,0.0,0.0,0.0
1513264797688774027,,472043,,1513264795,916820663,'',1.29154364648,1.30314918635,0.0451925672243,0.0,0.001,0.0,-5000.0,0.0,0.0,0.0
1513264797698702018,,472044,,1513264795,926820663,'',1.29154364648,1.30045022359,-0.00858306250225,0.0,0.001,0.0,-5000.0,0.0,0.0,0.0
1513264797708322013,,472045,,1513264795,936820663,'',1.29154364648,1.30179970497,0.0187793097554,0.0,0.001,0.0,-5000.0,0.0,0.0,0.0
1513264797718288493,,472046,,1513264795,946820663,'',1.29154364648,1.30045022359,-0.00793187955356,0.0,0.001,0.0,-5000.0,0.0,0.0,0.0
1513264797728406314,,472047,,1513264795,956820663,'',1.29154364648,1.30045022359,-0.00797692431886,0.0,0.001,0.0,-5000.0,0.0,0.0,0.0
1513264797738317430,,472048,,1513264795,966820663,'',1.29154364648,1.30179970497,0.0192120397048,0.0,0.001,0.0,-5000.0,0.0,0.0,0.0
1513264797748777068,,472049,,1513264795,976820663,'',1.29154364648,1.30045022359,-0.0090033832999,0.0,0.001,0.0,-5000.0,0.0,0.0,0.0
1513264797758808511,,472050,,1513264795,986820663,'',1.29154364648,1.30045022359,-0.00880348025966,0.0,0.001,0.0,-5000.0,0.0,0.0,0.0
1513264797768676245,,472051,,1513264795,996820663,'',1.29154364648,1.30045022359,-0.00915701498839,0.0,0.001,0.0,-5000.0,0.0,0.0,0.0
1513264797778603562,,472052,,1513264796,6820663,'',1.29154364648,1.30045022359,-0.0113896934202,0.0,0.001,0.0,-5000.0,0.0,0.0,0.0
1513264797788491785,,472053,,1513264796,16820663,'',1.29154364648,1.30045022359,-0.00984056255688,0.0,0.001,0.0,-5000.0,0.0,0.0,0.0
1513264797798464900,,472054,,1513264796,26820663,'',1.29154364648,1.30179970497,0.01669467159,0.0,0.001,0.0,-5000.0,0.0,0.0,0.0
1513264797808447382,,472055,,1513264796,36820663,'',1.29154364648,1.30179970497,0.0170813365174,0.0,0.001,0.0,-5000.0,0.0,0.0,0.0
1513264797818380504,,472056,,1513264796,46820663,'',1.29154364648,1.30045022359,-0.0103809331272,0.0,0.001,0.0,-5000.0,0.0,0.0,0.0
1513264797828656696,,472057,,1513264796,56820663,'',1.29154364648,1.30045022359,-0.0104616564947,0.0,0.001,0.0,-5000.0,0.0,0.0,0.0
1513264797838614284,,472058,,1513264796,66820663,'',1.29154364648,1.30045022359,-0.00909554980402,0.0,0.001,0.0,-5000.0,0.0,0.0,0.0
1513264797848506042,,472059,,1513264796,76820663,'',1.29154364648,1.30045022359,-0.0104484490597,0.0,0.001,0.0,-5000.0,0.0,0.0,0.0
1513264797858578430,,472060,,1513264796,86820663,'',1.29154364648,1.30314918635,0.0443660056218,0.0,0.001,0.0,-5000.0,0.0,0.0,0.0
1513264797868431617,,472061,,1513264796,96820663,'',1.29154364648,1.30045022359,-0.0101847421023,0.0,0.001,0.0,-5000.0,0.0,0.0,0.0
1513264797878552339,,472062,,1513264796,106820663,'',1.29154364648,1.30045022359,-0.00833721140976,0.0,0.001,0.0,-5000.0,0.0,0.0,0.0
1513264797888246704,,472063,,1513264796,116820663,'',1.29154364648,1.30045022359,-0.00826076338018,0.0,0.001,0.0,-5000.0,0.0,0.0,0.0
1513264797898770187,,472064,,1513264796,126820663,'',1.29154364648,1.30045022359,-0.00773208461675,0.0,0.001,0.0,-5000.0,0.0,0.0,0.0
1513264797908728007,,472065,,1513264796,136820663,'',1.29154364648,1.30314918635,0.0461313032215,0.0,0.001,0.0,-5000.0,0.0,0.0,0.0
1513264797918628881,,472066,,1513264796,146820663,'',1.29154364648,1.29910074221,-0.0365320104586,0.0,0.001,0.0,-5000.0,0.0,0.0,0.0
1513264797928473412,,472067,,1513264796,156820663,'',1.29154364648,1.30045022359,-0.00902108515681,0.0,0.001,0.0,-5000.0,0.0,0.0,0.0
1513264797938419027,,472068,,1513264796,166820663,'',1.29154364648,1.30045022359,-0.00885049405423,0.0,0.001,0.0,-5000.0,0.0,0.0,0.0
1513264797948429074,,472069,,1513264796,176820663,'',1.29154364648,1.30179970497,0.0184785056439,0.0,0.001,0.0,-5000.0,0.0,0.0,0.0
1513264797958489933,,472070,,1513264796,186820663,'',1.29154364648,1.30179970497,0.0180413542748,0.0,0.001,0.0,-5000.0,0.0,0.0,0.0
1513264797968409692,,472071,,1513264796,196820663,'',1.29154364648,1.30045022359,-0.00801430814713,0.0,0.001,0.0,-5000.0,0.0,0.0,0.0
1513264797978402635,,472072,,1513264796,206820663,'',1.29154364648,1.30179970497,0.0177392886403,0.0,0.001,0.0,-5000.0,0.0,0.0,0.0
1513264797988399868,,472073,,1513264796,216820663,'',1.29154364648,1.30045022359,-0.0083462753427,0.0,0.001,0.0,-5000.0,0.0,0.0,0.0
1513264797998511466,,472074,,1513264796,226820663,'',1.29154364648,1.30179970497,0.018447016741,0.0,0.001,0.0,-5000.0,0.0,0.0,0.0
1513264798008445559,,472075,,1513264796,236820663,'',1.29154364648,1.30045022359,-0.00966488940388,0.0,0.001,0.0,-5000.0,0.0,0.0,0.0
1513264798018429724,,472076,,1513264796,246820663,'',1.29154364648,1.30045022359,-0.00980378704905,0.0,0.001,0.0,-5000.0,0.0,0.0,0.0
1513264798028807597,,472077,,1513264796,256820663,'',1.29154364648,1.29910074221,-0.0362537102725,0.0,0.001,0.0,-5000.0,0.0,0.0,0.0
1513264798038742723,,472078,,1513264796,266820663,'',1.29154364648,1.30045022359,-0.00987245931373,0.0,0.001,0.0,-5000.0,0.0,0.0,0.0
1513264798048792887,,472079,,1513264796,276820663,'',1.29154364648,1.30045022359,-0.00860772082375,0.0,0.001,0.0,-5000.0,0.0,0.0,0.0
1513264798058809523,,472080,,1513264796,286820663,'',1.29154364648,1.30045022359,-0.00755283843285,0.0,0.001,0.0,-5000.0,0.0,0.0,0.0
1513264798068644516,,472081,,1513264796,296820663,'',1.29154364648,1.30179970497,0.0199774303674,0.0,0.001,0.0,-5000.0,0.0,0.0,0.0
1513264798078505412,,472082,,1513264796,306820663,'',1.29154364648,1.30045022359,-0.00836880067046,0.0,0.001,0.0,-5000.0,0.0,0.0,0.0
1513264798088507643,,472083,,1513264796,316820663,'',1.29154364648,1.30045022359,-0.00833269646253,0.0,0.001,0.0,-5000.0,0.0,0.0,0.0
1513264798098589456,,472084,,1513264796,326820663,'',1.29154364648,1.30045022359,-0.00831216280457,0.0,0.001,0.0,-5000.0,0.0,0.0,0.0
1513264798108484589,,472085,,1513264796,336820663,'',1.29154364648,1.30179970497,0.0173389830554,0.0,0.001,0.0,-5000.0,0.0,0.0,0.0
1513264798118469974,,472086,,1513264796,346820663,'',1.29154364648,1.30179970497,0.0185921765319,0.0,0.001,0.0,-5000.0,0.0,0.0,0.0
1513264798128391510,,472087,,1513264796,356820663,'',1.29154364648,1.30045022359,-0.00810363225218,0.0,0.001,0.0,-5000.0,0.0,0.0,0.0
1513264798138322705,,472088,,1513264796,366820663,'',1.29154364648,1.30179970497,0.0176941413692,0.0,0.001,0.0,-5000.0,0.0,0.0,0.0
1513264798148770100,,472089,,1513264796,376820663,'',1.29154364648,1.30179970497,0.0174778842636,0.0,0.001,0.0,-5000.0,0.0,0.0,0.0
1513264798158830713,,472090,,1513264796,386820663,'',1.29154364648,1.30045022359,-0.00944495633176,0.0,0.001,0.0,-5000.0,0.0,0.0,0.0
1513264798168882319,,472091,,1513264796,396820663,'',1.29154364648,1.30179970497,0.0190533516884,0.0,0.001,0.0,-5000.0,0.0,0.0,0.0
1513264798178853823,,472092,,1513264796,406820663,'',1.29154364648,1.30179970497,0.0196079864779,0.0,0.001,0.0,-5000.0,0.0,0.0,0.0
1513264798188712059,,472093,,1513264796,416820663,'',1.29154364648,1.30179970497,0.0189787494003,0.0,0.001,0.0,-5000.0,0.0,0.0,0.0
1513264798198644072,,472094,,1513264796,426820663,'',1.29154364648,1.30045022359,-0.00731242082386,0.0,0.001,0.0,-5000.0,0.0,0.0,0.0
1513264798208766935,,472095,,1513264796,436820663,'',1.29154364648,1.29910074221,-0.0351957258198,0.0,0.001,0.0,-5000.0,0.0,0.0,0.0
1513264798218854615,,472096,,1513264796,446820663,'',1.29154364648,1.30179970497,0.0187101576236,0.0,0.001,0.0,-5000.0,0.0,0.0,0.0
1513264798228953985,,472097,,1513264796,456820663,'',1.29154364648,1.30179970497,0.0191211306693,0.0,0.001,0.0,-5000.0,0.0,0.0,0.0
1513264798238842634,,472098,,1513264796,466820663,'',1.29154364648,1.30179970497,0.0200966836876,0.0,0.001,0.0,-5000.0,0.0,0.0,0.0
1513264798248797178,,472099,,1513264796,476820663,'',1.29154364648,1.30179970497,0.0203719389249,0.0,0.001,0.0,-5000.0,0.0,0.0,0.0
1513264798258839569,,472100,,1513264796,486820663,'',1.29154364648,1.30045022359,-0.00701401142972,0.0,0.001,0.0,-5000.0,0.0,0.0,0.0
1513264798268784588,,472101,,1513264796,496820663,'',1.29154364648,1.30045022359,-0.00665186627276,0.0,0.001,0.0,-5000.0,0.0,0.0,0.0
1513264798278807194,,472102,,1513264796,506820663,'',1.29154364648,1.30179970497,0.0183571413365,0.0,0.001,0.0,-5000.0,0.0,0.0,0.0
1513264798288647248,,472103,,1513264796,516820663,'',1.29154364648,1.30179970497,0.0185055053416,0.0,0.001,0.0,-5000.0,0.0,0.0,0.0
1513264798298612641,,472104,,1513264796,526820663,'',1.29154364648,1.30179970497,0.0195491212687,0.0,0.001,0.0,-5000.0,0.0,0.0,0.0
1513264798308328259,,472105,,1513264796,536820663,'',1.29154364648,1.30045022359,-0.00774961986527,0.0,0.001,0.0,-5000.0,0.0,0.0,0.0
1513264798318728765,,472106,,1513264796,546820663,'',1.29154364648,1.30179970497,0.0188932212127,0.0,0.001,0.0,-5000.0,0.0,0.0,0.0
1513264798328234714,,472107,,1513264796,556820663,'',1.29154364648,1.30179970497,0.0183113102936,0.0,0.001,0.0,-5000.0,0.0,0.0,0.0
1513264798338691590,,472108,,1513264796,566820663,'',1.29154364648,1.30045022359,-0.00929271798403,0.0,0.001,0.0,-5000.0,0.0,0.0,0.0
1513264798348541164,,472109,,1513264796,576820663,'',1.29154364648,1.30179970497,0.0166914418202,0.0,0.001,0.0,-5000.0,0.0,0.0,0.0
1513264798358644258,,472110,,1513264796,586820663,'',1.29154364648,1.30045022359,-0.010614129748,0.0,0.001,0.0,-5000.0,0.0,0.0,0.0
1513264798368580122,,472111,,1513264796,596820663,'',1.29154364648,1.30045022359,-0.0106331389307,0.0,0.001,0.0,-5000.0,0.0,0.0,0.0
1513264798378549814,,472112,,1513264796,606820663,'',1.29154364648,1.29910074221,-0.0368158182023,0.0,0.001,0.0,-5000.0,0.0,0.0,0.0
1513264798388426131,,472113,,1513264796,616820663,'',1.29154364648,1.30045022359,-0.0107370452625,0.0,0.001,0.0,-5000.0,0.0,0.0,0.0
1513264798398304042,,472114,,1513264796,626820663,'',1.29154364648,1.30179970497,0.0179548551929,0.0,0.001,0.0,-5000.0,0.0,0.0,0.0
1513264798408739272,,472115,,1513264796,636820663,'',1.29154364648,1.30179970497,0.0156513146298,0.0,0.001,0.0,-5000.0,0.0,0.0,0.0
1513264798418760040,,472116,,1513264796,646820663,'',1.29154364648,1.30179970497,0.0176880680842,0.0,0.001,0.0,-5000.0,0.0,0.0,0.0
1513264798428588372,,472117,,1513264796,656820663,'',1.29154364648,1.30045022359,-0.00974946631061,0.0,0.001,0.0,-5000.0,0.0,0.0,0.0
1513264798438498164,,472118,,1513264796,666820663,'',1.29154364648,1.30314918635,0.0440436193558,0.0,0.001,0.0,-5000.0,0.0,0.0,0.0
1513264798448461251,,472119,,1513264796,676820663,'',1.29154364648,1.30045022359,-0.0106138830143,0.0,0.001,0.0,-5000.0,0.0,0.0,0.0
1513264798458311266,,472120,,1513264796,686820663,'',1.29154364648,1.30045022359,-0.0101806588744,0.0,0.001,0.0,-5000.0,0.0,0.0,0.0
1513264798468514991,,472121,,1513264796,696820663,'',1.29154364648,1.30045022359,-0.0103391009405,0.0,0.001,0.0,-5000.0,0.0,0.0,0.0
1513264798478798248,,472122,,1513264796,706820663,'',1.29154364648,1.30045022359,-0.00990246613936,0.0,0.001,0.0,-5000.0,0.0,0.0,0.0
1513264798488776555,,472123,,1513264796,716820663,'',1.29154364648,1.30045022359,-0.00955770092336,0.0,0.001,0.0,-5000.0,0.0,0.0,0.0
1513264798498669755,,472124,,1513264796,726820663,'',1.29154364648,1.30179970497,0.016500493697,0.0,0.001,0.0,-5000.0,0.0,0.0,0.0
1513264798508634837,,472125,,1513264796,736820663,'',1.29154364648,1.30314918635,0.0410926822676,0.0,0.001,0.0,-5000.0,0.0,0.0,0.0
1513264798518610206,,472126,,1513264796,746820663,'',1.29154364648,1.30179970497,0.012310848875,0.0,0.001,0.0,-5000.0,0.0,0.0,0.0
1513264798528541879,,472127,,1513264796,756820663,'',1.29154364648,1.30179970497,0.0124535223727,0.0,0.001,0.0,-5000.0,0.0,0.0,0.0
1513264798538506253,,472128,,1513264796,766820663,'',1.29154364648,1.30045022359,-0.0126088008301,0.0,0.001,0.0,-5000.0,0.0,0.0,0.0
1513264798548348488,,472129,,1513264796,776820663,'',1.29154364648,1.30045022359,-0.0123063545579,0.0,0.001,0.0,-5000.0,0.0,0.0,0.0
1513264798558366700,,472130,,1513264796,786820663,'',1.29154364648,1.30045022359,-0.0125285698259,0.0,0.001,0.0,-5000.0,0.0,0.0,0.0
1513264798568731980,,472131,,1513264796,796820663,'',1.29154364648,1.30045022359,-0.0112406364093,0.0,0.001,0.0,-5000.0,0.0,0.0,0.0
1513264798578678091,,472132,,1513264796,806820663,'',1.29154364648,1.30045022359,-0.010686300257,0.0,0.001,0.0,-5000.0,0.0,0.0,0.0
1513264798588579411,,472133,,1513264796,816820663,'',1.29154364648,1.30179970497,0.017006652394,0.0,0.001,0.0,-5000.0,0.0,0.0,0.0
1513264798598480622,,472134,,1513264796,826820663,'',1.29154364648,1.30179970497,0.0139116674933,0.0,0.001,0.0,-5000.0,0.0,0.0,0.0
1513264798608439336,,472135,,1513264796,836820663,'',1.29154364648,1.30179970497,0.0123328118217,0.0,0.001,0.0,-5000.0,0.0,0.0,0.0
1513264798618574374,,472136,,1513264796,846820663,'',1.29154364648,1.30045022359,-0.0131889744267,0.0,0.001,0.0,-5000.0,0.0,0.0,0.0
1513264798628568874,,472137,,1513264796,856820663,'',1.29154364648,1.30045022359,-0.0117778212981,0.0,0.001,0.0,-5000.0,0.0,0.0,0.0
1513264798638470032,,472138,,1513264796,866820663,'',1.29154364648,1.30179970497,0.0160516878585,0.0,0.001,0.0,-5000.0,0.0,0.0,0.0
