rosbagTimestamp,header,seq,stamp,secs,nsecs,frame_id,set_point,process_value,process_value_dot,error,time_step,command,p,i,d,i_clamp
1513265940794221029,,586343,,1513265939,63616,'',0.296705972839,0.258202565634,-0.00788088033733,-0.0385034072046,0.001,233.338695955,6000.0,0.0,300.0,0.0
1513265940803985527,,586344,,1513265939,10063616,'',0.296705972839,0.258204014923,0.00551971587011,-0.038501957916,0.001,229.349929403,6000.0,0.0,300.0,0.0
1513265940813861164,,586345,,1513265939,20063616,'',0.296705972839,0.258216202567,-0.00814730237301,-0.0384897702721,0.001,233.397425377,6000.0,0.0,300.0,0.0
1513265940823827212,,586346,,1513265939,30063616,'',0.296705972839,0.258215585448,0.00528431799458,-0.0384903873914,0.001,229.351308745,6000.0,0.0,300.0,0.0
1513265940833761767,,586347,,1513265939,40063616,'',0.296705972839,0.258226896122,0.00505306671139,-0.0384790767172,0.001,229.355188458,6000.0,0.0,300.0,0.0
1513265940843810613,,586348,,1513265939,50063616,'',0.296705972839,0.258201255731,0.00557091173168,-0.0385047171078,0.001,229.348081281,6000.0,0.0,300.0,0.0
1513265940853883644,,586349,,1513265939,60063616,'',0.296705972839,0.258191011623,0.00577576620059,-0.0385149612162,0.001,229.349225642,6000.0,0.0,300.0,0.0
1513265940864181460,,586350,,1513265939,70063616,'',0.296705972839,0.258195068992,-0.00772926609527,-0.0385109038467,0.001,233.399387447,6000.0,0.0,300.0,0.0
1513265940874087472,,586351,,1513265939,80063616,'',0.296705972839,0.258233219198,0.00492360145394,-0.0384727536406,0.001,229.357074135,6000.0,0.0,300.0,0.0
1513265940884087160,,586352,,1513265939,90063616,'',0.296705972839,0.258216517669,-0.00816500571171,-0.0384894551702,0.001,233.394506675,6000.0,0.0,300.0,0.0
1513265940894000018,,586353,,1513265939,100063616,'',0.296705972839,0.258215074177,-0.00813035929667,-0.0384908986624,0.001,233.392034619,6000.0,0.0,300.0,0.0
1513265940903927619,,586354,,1513265939,110063616,'',0.296705972839,0.258228432135,0.00502489267916,-0.0384775407038,0.001,229.347680167,6000.0,0.0,300.0,0.0
1513265940913825734,,586355,,1513265939,120063616,'',0.296705972839,0.258237595616,-0.00858193598385,-0.0384683772232,0.001,233.398774656,6000.0,0.0,300.0,0.0
1513265940924256539,,586356,,1513265939,130063616,'',0.296705972839,0.258233855041,0.00492068892836,-0.0384721177978,0.001,229.351082599,6000.0,0.0,300.0,0.0
1513265940933990670,,586357,,1513265939,140063616,'',0.296705972839,0.258195684317,0.0056894713449,-0.0385102885224,0.001,229.384111609,6000.0,0.0,300.0,0.0
1513265940943871871,,586358,,1513265939,150063616,'',0.296705972839,0.258224528441,0.0051032256893,-0.0384814443979,0.001,229.321100154,6000.0,0.0,300.0,0.0
1513265940953877954,,586359,,1513265939,160063616,'',0.296705972839,0.258245631709,0.00467792810346,-0.0384603411304,0.001,229.353855742,6000.0,0.0,300.0,0.0
1513265940963844041,,586360,,1513265939,170063616,'',0.296705972839,0.258216034337,-0.0081479690821,-0.0384899385018,0.001,233.392110406,6000.0,0.0,300.0,0.0
1513265940973758574,,586361,,1513265939,180063616,'',0.296705972839,0.258200731098,-0.00784183785188,-0.0385052417413,0.001,233.345592447,6000.0,0.0,300.0,0.0
1513265940984291357,,586362,,1513265939,190063616,'',0.296705972839,0.258227190823,0.00505104547741,-0.038478782016,0.001,229.350833744,6000.0,0.0,300.0,0.0
1513265940993861994,,586363,,1513265939,200063616,'',0.296705972839,0.25818912607,-0.00760225848806,-0.0385168467687,0.001,233.392184711,6000.0,0.0,300.0,0.0
1513265941004246650,,586364,,1513265939,210063616,'',0.296705972839,0.258217037209,-0.0081697614088,-0.0384889356301,0.001,233.399273156,6000.0,0.0,300.0,0.0
1513265941014116377,,586365,,1513265939,220063616,'',0.296705972839,0.258204686159,-0.00791296132332,-0.0385012866802,0.001,233.34544292,6000.0,0.0,300.0,0.0
1513265941023986408,,586366,,1513265939,230063616,'',0.296705972839,0.258180835517,0.00599052410719,-0.0385251373218,0.001,229.343174696,6000.0,0.0,300.0,0.0
1513265941033961886,,586367,,1513265939,240063616,'',0.296705972839,0.258176212335,0.00608530236337,-0.0385297605042,0.001,229.347971118,6000.0,0.0,300.0,0.0
1513265941043972314,,586368,,1513265939,250063616,'',0.296705972839,0.258169918562,-0.00721253071172,-0.0385360542772,0.001,233.390556506,6000.0,0.0,300.0,0.0
1513265941053899256,,586369,,1513265939,260063616,'',0.296705972839,0.258201747163,0.00556486041076,-0.0385042256758,0.001,229.383882394,6000.0,0.0,300.0,0.0
1513265941063885333,,586370,,1513265939,270063616,'',0.296705972839,0.258192003882,0.00576533899254,-0.0385139689567,0.001,229.352638072,6000.0,0.0,300.0,0.0
1513265941073789872,,586371,,1513265939,280063616,'',0.296705972839,0.258195429919,-0.0077284146636,-0.0385105429197,0.001,233.451403294,6000.0,0.0,300.0,0.0
1513265941083751241,,586372,,1513265939,290063616,'',0.296705972839,0.258160812718,-0.00703587167369,-0.038545160121,0.001,233.394358803,6000.0,0.0,300.0,0.0
1513265941094084451,,586373,,1513265939,300063616,'',0.296705972839,0.258193365408,-0.00769046762808,-0.0385126074307,0.001,233.348093025,6000.0,0.0,300.0,0.0
1513265941104031365,,586374,,1513265939,310063616,'',0.296705972839,0.258171029573,-0.00723755259909,-0.0385349432659,0.001,233.385942487,6000.0,0.0,300.0,0.0
1513265941114020771,,586375,,1513265939,320063616,'',0.296705972839,0.258178223725,0.00604370516671,-0.038527749114,0.001,229.349886246,6000.0,0.0,300.0,0.0
1513265941123875732,,586376,,1513265939,330063616,'',0.296705972839,0.258197678827,0.00564845355904,-0.0385082940121,0.001,229.347751967,6000.0,0.0,300.0,0.0
1513265941133855015,,586377,,1513265939,340063616,'',0.296705972839,0.258212534463,-0.00807339389391,-0.0384934383765,0.001,233.394169022,6000.0,0.0,300.0,0.0
1513265941143834223,,586378,,1513265939,350063616,'',0.296705972839,0.258186529224,-0.00754826770357,-0.0385194436153,0.001,233.394147666,6000.0,0.0,300.0,0.0
1513265941153871190,,586379,,1513265939,360063616,'',0.296705972839,0.258216887068,0.00525835112249,-0.0384890857706,0.001,229.359393011,6000.0,0.0,300.0,0.0
1513265941163805456,,586380,,1513265939,370063616,'',0.296705972839,0.258167807889,0.00624691221101,-0.0385381649501,0.001,229.345001842,6000.0,0.0,300.0,0.0
1513265941173729267,,586381,,1513265939,380063616,'',0.296705972839,0.258151580778,0.00656805379819,-0.0385543920607,0.001,229.391477114,6000.0,0.0,300.0,0.0
1513265941183857734,,586382,,1513265939,390063616,'',0.296705972839,0.258150374743,-0.00683126834056,-0.0385555980959,0.001,233.391364813,6000.0,0.0,300.0,0.0
1513265941194186500,,586383,,1513265939,400063616,'',0.296705972839,0.258137721017,0.00684603205323,-0.0385682518223,0.001,229.346689321,6000.0,0.0,300.0,0.0
1513265941204131151,,586384,,1513265939,410063616,'',0.296705972839,0.258151146935,0.00657585165332,-0.0385548259041,0.001,229.347749044,6000.0,0.0,300.0,0.0
1513265941213984462,,586385,,1513265939,420063616,'',0.296705972839,0.258184719759,-0.00752239812451,-0.0385212530797,0.001,233.352712862,6000.0,0.0,300.0,0.0
1513265941223987346,,586386,,1513265939,430063616,'',0.296705972839,0.258166009456,-0.00715039243188,-0.0385399633832,0.001,233.394867591,6000.0,0.0,300.0,0.0
1513265941233864479,,586387,,1513265939,440063616,'',0.296705972839,0.2581617496,0.00636001194323,-0.0385442232389,0.001,229.391374637,6000.0,0.0,300.0,0.0
1513265941243848754,,586388,,1513265939,450063616,'',0.296705972839,0.258145316724,-0.00672571552561,-0.0385606561155,0.001,233.398669472,6000.0,0.0,300.0,0.0
1513265941253830742,,586389,,1513265939,460063616,'',0.296705972839,0.258135817207,0.0068928911837,-0.0385701556317,0.001,229.342554623,6000.0,0.0,300.0,0.0
1513265941263783355,,586390,,1513265939,470063616,'',0.296705972839,0.258159261393,-0.00700383131309,-0.0385467114462,0.001,233.343114219,6000.0,0.0,300.0,0.0
1513265941273663518,,586391,,1513265939,480063616,'',0.296705972839,0.258133715985,-0.00649038468325,-0.0385722568543,0.001,233.391237189,6000.0,0.0,300.0,0.0
1513265941284129112,,586392,,1513265939,490063616,'',0.296705972839,0.258148978091,-0.00680050385873,-0.0385569947483,0.001,233.392709152,6000.0,0.0,300.0,0.0
1513265941294038801,,586393,,1513265939,500063616,'',0.296705972839,0.258123434637,0.00713763486902,-0.0385825382019,0.001,229.354335302,6000.0,0.0,300.0,0.0
1513265941303902435,,586394,,1513265939,510063616,'',0.296705972839,0.25816271002,0.00634562020035,-0.0385432628195,0.001,229.343156046,6000.0,0.0,300.0,0.0
1513265941313928349,,586395,,1513265939,520063616,'',0.296705972839,0.258206641633,-0.00796223522006,-0.0384993312058,0.001,233.349968205,6000.0,0.0,300.0,0.0
1513265941323766242,,586396,,1513265939,530063616,'',0.296705972839,0.258242952572,0.00472731336972,-0.0384630202667,0.001,229.350553388,6000.0,0.0,300.0,0.0
1513265941333735506,,586397,,1513265939,540063616,'',0.296705972839,0.258261382475,0.00435487722124,-0.0384445903642,0.001,229.355190922,6000.0,0.0,300.0,0.0
1513265941344182347,,586398,,1513265939,550063616,'',0.296705972839,0.258300492555,0.00356518358384,-0.0384054802839,0.001,229.35747542,6000.0,0.0,300.0,0.0
1513265941354098330,,586399,,1513265939,560063616,'',0.296705972839,0.258332504388,0.00291881465983,-0.0383734684512,0.001,229.363118679,6000.0,0.0,300.0,0.0
1513265941364090511,,586400,,1513265939,570063616,'',0.296705972839,0.258323461381,0.00309898986876,-0.0383825114582,0.001,229.375471092,6000.0,0.0,300.0,0.0
1513265941373957991,,586401,,1513265939,580063616,'',0.296705972839,0.258339596982,0.00277640092771,-0.0383663758569,0.001,229.365231702,6000.0,0.0,300.0,0.0
1513265941383987566,,586402,,1513265939,590063616,'',0.296705972839,0.258341111975,0.00274401329022,-0.0383648608638,0.001,229.357782489,6000.0,0.0,300.0,0.0
1513265941393752637,,586403,,1513265939,600063616,'',0.296705972839,0.258353551846,0.00249080421591,-0.0383524209928,0.001,229.362282982,6000.0,0.0,300.0,0.0
1513265941403719186,,586404,,1513265939,610063616,'',0.296705972839,0.258364870166,0.00225967327297,-0.038341102673,0.001,229.365928371,6000.0,0.0,300.0,0.0
1513265941414149872,,586405,,1513265939,620063616,'',0.296705972839,0.258326955317,0.0030287973687,-0.0383790175219,0.001,229.378272733,6000.0,0.0,300.0,0.0
1513265941424067462,,586406,,1513265939,630063616,'',0.296705972839,0.258354174716,0.00247956902321,-0.0383517981227,0.001,229.363056845,6000.0,0.0,300.0,0.0
1513265941434137202,,586407,,1513265939,640063616,'',0.296705972839,0.25831483676,-0.0101517498318,-0.0383911360792,0.001,233.408705495,6000.0,0.0,300.0,0.0
1513265941444486293,,586408,,1513265939,650063616,'',0.296705972839,0.258319130101,-0.0102397986831,-0.0383868427379,0.001,233.468277184,6000.0,0.0,300.0,0.0
1513265941453849998,,586409,,1513265939,660063616,'',0.296705972839,0.258311892658,0.00332987908126,-0.0383940801809,0.001,229.368632338,6000.0,0.0,300.0,0.0
1513265941463769755,,586410,,1513265939,670063616,'',0.296705972839,0.258330602878,0.00295362238289,-0.0383753699612,0.001,229.356569521,6000.0,0.0,300.0,0.0
1513265941474274114,,586411,,1513265939,680063616,'',0.296705972839,0.25831980274,-0.0102584878534,-0.0383861700995,0.001,233.394378929,6000.0,0.0,300.0,0.0
1513265941484203063,,586412,,1513265939,690063616,'',0.296705972839,0.258323890508,0.00308528996719,-0.0383820823309,0.001,229.362278088,6000.0,0.0,300.0,0.0
1513265941494206269,,586413,,1513265939,700063616,'',0.296705972839,0.25831450389,0.00327113662212,-0.0383914689486,0.001,229.380568098,6000.0,0.0,300.0,0.0
1513265941503940336,,586414,,1513265939,710063616,'',0.296705972839,0.258331160082,0.00293443288621,-0.0383748127572,0.001,229.387077709,6000.0,0.0,300.0,0.0
1513265941513739170,,586415,,1513265939,720063616,'',0.296705972839,0.258296262174,-0.00978736806611,-0.0384097106646,0.001,233.406914057,6000.0,0.0,300.0,0.0
1513265941524216330,,586416,,1513265939,730063616,'',0.296705972839,0.258290543396,-0.00968428009565,-0.0384154294426,0.001,233.409152951,6000.0,0.0,300.0,0.0
1513265941534203783,,586417,,1513265939,740063616,'',0.296705972839,0.258301070189,0.0035369661304,-0.0384049026497,0.001,229.383465117,6000.0,0.0,300.0,0.0
1513265941544146138,,586418,,1513265939,750063616,'',0.296705972839,0.25831048308,0.00335283335458,-0.0383954897595,0.001,229.355219863,6000.0,0.0,300.0,0.0
1513265941554073064,,586419,,1513265939,760063616,'',0.296705972839,0.25832750503,-0.0104121454317,-0.0383784678091,0.001,233.39715141,6000.0,0.0,300.0,0.0
1513265941564042231,,586420,,1513265939,770063616,'',0.296705972839,0.258331116321,0.00293706773429,-0.0383748565185,0.001,229.363019247,6000.0,0.0,300.0,0.0
1513265941574009653,,586421,,1513265939,780063616,'',0.296705972839,0.258323106485,0.00310413326988,-0.0383828663543,0.001,229.383112446,6000.0,0.0,300.0,0.0
1513265941584008101,,586422,,1513265939,790063616,'',0.296705972839,0.258338403226,0.00279684197428,-0.0383675696135,0.001,229.359898504,6000.0,0.0,300.0,0.0
1513265941594083764,,586423,,1513265939,800063616,'',0.296705972839,0.258351871293,0.0025263778441,-0.0383541015463,0.001,229.377476154,6000.0,0.0,300.0,0.0
1513265941603987820,,586424,,1513265939,810063616,'',0.296705972839,0.258387809638,0.0152247499044,-0.0383181632009,0.001,225.312888315,6000.0,0.0,300.0,0.0
1513265941613900891,,586425,,1513265939,820063616,'',0.296705972839,0.258466245643,0.0136449293074,-0.0382397271956,0.001,225.329438101,6000.0,0.0,300.0,0.0
1513265941623745108,,586426,,1513265939,830063616,'',0.296705972839,0.258639167038,0.0235654043304,-0.0380668058008,0.001,221.294165494,6000.0,0.0,300.0,0.0
1513265941634231969,,586427,,1513265939,840063616,'',0.296705972839,0.258915403994,0.0448340910901,-0.0377905688447,0.001,213.22519827,6000.0,0.0,300.0,0.0
1513265941644029780,,586428,,1513265939,850063616,'',0.296705972839,0.259310639652,0.0502766578365,-0.0373953331869,0.001,209.181318508,6000.0,0.0,300.0,0.0
1513265941654096737,,586429,,1513265939,860063616,'',0.296705972839,0.25977442878,0.0409121416728,-0.0369315440594,0.001,209.773037214,6000.0,0.0,300.0,0.0
1513265941664098589,,586430,,1513265939,870063616,'',0.296705972839,0.260227979183,0.0317505949069,-0.0364779936557,0.001,209.411793164,6000.0,0.0,300.0,0.0
1513265941673887164,,586431,,1513265939,880063616,'',0.296705972839,0.260595706022,0.0243200313282,-0.0361102668167,0.001,209.323420403,6000.0,0.0,300.0,0.0
1513265941683856389,,586432,,1513265939,890063616,'',0.296705972839,0.260934438177,0.030900116901,-0.0357715346622,0.001,205.510539262,6000.0,0.0,300.0,0.0
1513265941693965711,,586433,,1513265939,900063616,'',0.296705972839,0.261211225959,0.0253079300841,-0.0354947468805,0.001,205.498247388,6000.0,0.0,300.0,0.0
1513265941703828307,,586434,,1513265939,910063616,'',0.296705972839,0.261463919175,0.033625445368,-0.0352420536641,0.001,201.302971445,6000.0,0.0,300.0,0.0
1513265941714288670,,586435,,1513265939,920063616,'',0.296705972839,0.26180447184,0.0401724198932,-0.0349015009987,0.001,197.322192353,6000.0,0.0,300.0,0.0
1513265941724273060,,586436,,1513265939,930063616,'',0.296705972839,0.262203992988,0.045524335844,-0.0345019798514,0.001,193.245422734,6000.0,0.0,300.0,0.0
1513265941734258539,,586437,,1513265939,940063616,'',0.296705972839,0.262686843907,0.0491927806725,-0.0340191289323,0.001,189.583391023,6000.0,0.0,300.0,0.0
1513265941744167664,,586438,,1513265939,950063616,'',0.296705972839,0.263274541382,0.0641673389484,-0.0334314314565,0.001,181.26272547,6000.0,0.0,300.0,0.0
1513265941754269589,,586439,,1513265939,960063616,'',0.296705972839,0.263839864222,0.052745226279,-0.0328661086174,0.001,181.249677048,6000.0,0.0,300.0,0.0
1513265941764070265,,586440,,1513265939,970063616,'',0.296705972839,0.264324722236,0.042948910029,-0.0323812506029,0.001,181.326925253,6000.0,0.0,300.0,0.0
1513265941774046663,,586441,,1513265939,980063616,'',0.296705972839,0.264807022203,0.0466349718726,-0.0318989506356,0.001,177.64589854,6000.0,0.0,300.0,0.0
1513265941783882027,,586442,,1513265939,990063616,'',0.296705972839,0.265251475816,0.0510757684553,-0.0314544970235,0.001,173.310861617,6000.0,0.0,300.0,0.0
1513265941793842082,,586443,,1513265940,63616,'',0.296705972839,0.265723665756,0.0549552596612,-0.030982307083,0.001,169.67046202,6000.0,0.0,300.0,0.0
1513265941803885910,,586444,,1513265940,10063616,'',0.296705972839,0.26626742361,0.0573936598414,-0.030438549229,0.001,165.327367348,6000.0,0.0,300.0,0.0
1513265941813783346,,586445,,1513265940,20063616,'',0.296705972839,0.266908403919,0.0712920207834,-0.0297975689202,0.001,157.312051619,6000.0,0.0,300.0,0.0
1513265941824208150,,586446,,1513265940,30063616,'',0.296705972839,0.267586502363,0.071019527023,-0.0291194704759,0.001,153.300760164,6000.0,0.0,300.0,0.0
1513265941834147735,,586447,,1513265940,40063616,'',0.296705972839,0.268296975377,0.0700871734889,-0.0284089974624,0.001,149.814338855,6000.0,0.0,300.0,0.0
1513265941844013000,,586448,,1513265940,50063616,'',0.296705972839,0.268952587845,0.0702633999528,-0.0277533849939,0.001,145.076729552,6000.0,0.0,300.0,0.0
1513265941853981493,,586449,,1513265940,60063616,'',0.296705972839,0.269521834483,0.0453358382184,-0.0271841383557,0.001,149.444076237,6000.0,0.0,300.0,0.0
1513265941864062330,,586450,,1513265940,70063616,'',0.296705972839,0.270038273641,0.0483279517573,-0.0266676991978,0.001,145.434043271,6000.0,0.0,300.0,0.0
1513265941873872819,,586451,,1513265940,80063616,'',0.296705972839,0.270497730538,0.0390482139553,-0.026208242301,0.001,145.543384845,6000.0,0.0,300.0,0.0
1513265941884064829,,586452,,1513265940,90063616,'',0.296705972839,0.271020127935,0.0553428426369,-0.0256858449042,0.001,137.377026117,6000.0,0.0,300.0,0.0
1513265941893917618,,586453,,1513265940,100063616,'',0.296705972839,0.271615185848,0.0567456992715,-0.0250907869909,0.001,133.435928623,6000.0,0.0,300.0,0.0
1513265941904734589,,586454,,1513265940,110063616,'',0.296705972839,0.272285516518,0.0700509591514,-0.0244204563208,0.001,125.868198875,6000.0,0.0,300.0,0.0
1513265941914020258,,586455,,1513265940,120063616,'',0.296705972839,0.273110972209,0.0936428345099,-0.0235950006303,0.001,113.363530346,6000.0,0.0,300.0,0.0
1513265941923938049,,586456,,1513265940,130063616,'',0.296705972839,0.274039570796,0.101731247417,-0.0226664020435,0.001,105.385409019,6000.0,0.0,300.0,0.0
1513265941933949443,,586457,,1513265940,140063616,'',0.296705972839,0.274978932329,0.0961785616976,-0.0217270405097,0.001,101.32997823,6000.0,0.0,300.0,0.0
1513265941943922265,,586458,,1513265940,150063616,'',0.296705972839,0.275940872551,0.0901698249476,-0.0207651002885,0.001,97.3201893107,6000.0,0.0,300.0,0.0
1513265941954262018,,586459,,1513265940,160063616,'',0.296705972839,0.276859538755,0.0850324701271,-0.0198464340844,0.001,93.4656987673,6000.0,0.0,300.0,0.0
1513265941964175956,,586460,,1513265940,170063616,'',0.296705972839,0.277731446657,0.0942589350104,-0.0189745261819,0.001,86.0525867001,6000.0,0.0,300.0,0.0
1513265941974118993,,586461,,1513265940,180063616,'',0.296705972839,0.278567819694,0.0773702827128,-0.0181381531445,0.001,86.2507427498,6000.0,0.0,300.0,0.0
1513265941984042662,,586462,,1513265940,190063616,'',0.296705972839,0.279446988542,0.0998812071258,-0.0172589842974,0.001,73.4694402607,6000.0,0.0,300.0,0.0
1513265941993964733,,586463,,1513265940,200063616,'',0.296705972839,0.280346797371,0.0951241714888,-0.0163591754682,0.001,69.5644507003,6000.0,0.0,300.0,0.0
1513265942003884843,,586464,,1513265940,210063616,'',0.296705972839,0.281350006277,0.101704985599,-0.0153559665617,0.001,61.4940526642,6000.0,0.0,300.0,0.0
1513265942013969647,,586465,,1513265940,220063616,'',0.296705972839,0.282446455716,0.106400713238,-0.0142595171234,0.001,54.1844615101,6000.0,0.0,300.0,0.0
1513265942023916960,,586466,,1513265940,230063616,'',0.296705972839,0.283549591568,0.110971746868,-0.0131563812708,0.001,45.4432277056,6000.0,0.0,300.0,0.0
1513265942034338903,,586467,,1513265940,240063616,'',0.296705972839,0.284706325353,0.114449763737,-0.0119996474858,0.001,37.3866325848,6000.0,0.0,300.0,0.0
1513265942044298762,,586468,,1513265940,250063616,'',0.296705972839,0.28583222747,0.118550961964,-0.0108737453695,0.001,29.4935800578,6000.0,0.0,300.0,0.0
1513265942054297903,,586469,,1513265940,260063616,'',0.296705972839,0.286937201814,0.109675192784,-0.0097687710255,0.001,26.0859459826,6000.0,0.0,300.0,0.0
1513265942064089902,,586470,,1513265940,270063616,'',0.296705972839,0.287945940797,0.0892942453577,-0.00876003204159,0.001,25.6208662089,6000.0,0.0,300.0,0.0
1513265942073995589,,586471,,1513265940,280063616,'',0.296705972839,0.288906623126,0.096730244833,-0.00779934971295,0.001,17.6397132535,6000.0,0.0,300.0,0.0
1513265942084018808,,586472,,1513265940,290063616,'',0.296705972839,0.28981342262,0.091825300287,-0.00689255021867,0.001,13.6417106993,6000.0,0.0,300.0,0.0
1513265942093949233,,586473,,1513265940,300063616,'',0.296705972839,0.290636202375,0.0752013655383,-0.00606977046434,0.001,14.1839406506,6000.0,0.0,300.0,0.0
1513265942103843893,,586474,,1513265940,310063616,'',0.296705972839,0.291384210034,0.0735081931308,-0.00532176280509,0.001,9.77020451545,6000.0,0.0,300.0,0.0
1513265942114366784,,586475,,1513265940,320063616,'',0.296705972839,0.292080857761,0.072856600645,-0.00462511507844,0.001,6.40199041707,6000.0,0.0,300.0,0.0
1513265942124316173,,586476,,1513265940,330063616,'',0.296705972839,0.292712323932,0.06009957996,-0.00399364890675,0.001,5.83920134169,6000.0,0.0,300.0,0.0
1513265942133874594,,586477,,1513265940,340063616,'',0.296705972839,0.293277666283,0.0486776748119,-0.00342830655562,0.001,5.86663298591,6000.0,0.0,300.0,0.0
1513265942143812863,,586478,,1513265940,350063616,'',0.296705972839,0.293762446354,0.0523057198008,-0.00294352648518,0.001,2.19395591769,6000.0,0.0,300.0,0.0
1513265942153823848,,586479,,1513265940,360063616,'',0.296705972839,0.294220193338,0.0430587699951,-0.00248577950117,0.001,2.23174620183,6000.0,0.0,300.0,0.0
1513265942164209913,,586480,,1513265940,370063616,'',0.296705972839,0.294656544213,0.0476665534443,-0.0020494286264,0.001,-2.0777362832,6000.0,0.0,300.0,0.0
1513265942174401539,,586481,,1513265940,380063616,'',0.296705972839,0.29506009844,0.039506791106,-0.00164587439854,0.001,-2.0405822934,6000.0,0.0,300.0,0.0
1513265942184319725,,586482,,1513265940,390063616,'',0.296705972839,0.295452164248,0.045010628529,-0.00125380859095,0.001,-6.03619206955,6000.0,0.0,300.0,0.0
1513265942194274977,,586483,,1513265940,400063616,'',0.296705972839,0.295942331928,0.0485284183338,0.0,0.001,0.0,6000.0,0.0,300.0,0.0
1513265942204100579,,586484,,1513265940,410063616,'',0.296705972839,0.29643958807,0.0519064960793,0.0,0.001,0.0,6000.0,0.0,300.0,0.0
1513265942213919597,,586485,,1513265940,420063616,'',0.296705972839,0.29699197971,0.0541721291123,0.0,0.001,0.0,6000.0,0.0,300.0,0.0
1513265942223921653,,586486,,1513265940,430063616,'',0.296705972839,0.29757557501,0.0558047048667,0.0,0.001,0.0,6000.0,0.0,300.0,0.0
1513265942233933179,,586487,,1513265940,440063616,'',0.296705972839,0.298127549903,0.0580814534246,0.0,0.001,0.0,6000.0,0.0,300.0,0.0
1513265942243865602,,586488,,1513265940,450063616,'',0.296705972839,0.29867519599,0.0604439513666,0.0,0.001,0.0,6000.0,0.0,300.0,0.0
1513265942253865347,,586489,,1513265940,460063616,'',0.296705972839,0.299205740558,0.0497320913926,0.0,0.001,0.0,6000.0,0.0,300.0,0.0
1513265942263807807,,586490,,1513265940,470063616,'',0.296705972839,0.29970212829,0.0531279551314,0.0,0.001,0.0,6000.0,0.0,300.0,0.0
1513265942274220372,,586491,,1513265940,480063616,'',0.296705972839,0.300178977436,0.0434939732752,0.0,0.001,0.0,6000.0,0.0,300.0,0.0
1513265942284216442,,586492,,1513265940,490063616,'',0.296705972839,0.300620743995,0.0479922360722,0.0,0.001,0.0,6000.0,0.0,300.0,0.0
1513265942294381029,,586493,,1513265940,500063616,'',0.296705972839,0.301051432502,0.0392910409682,0.0,0.001,0.0,6000.0,0.0,300.0,0.0
1513265942304342572,,586494,,1513265940,510063616,'',0.296705972839,0.301489561933,0.0438623370082,0.0,0.001,0.0,6000.0,0.0,300.0,0.0
1513265942314198308,,586495,,1513265940,520063616,'',0.296705972839,0.301981493745,0.0473500653796,0.0,0.001,0.0,6000.0,0.0,300.0,0.0
1513265942324031880,,586496,,1513265940,530063616,'',0.296705972839,0.302541982079,0.0628731606386,0.0,0.001,0.0,6000.0,0.0,300.0,0.0
1513265942333958991,,586497,,1513265940,540063616,'',0.296705972839,0.303094217442,0.0517136256845,0.0,0.001,0.0,6000.0,0.0,300.0,0.0
1513265942344023061,,586498,,1513265940,550063616,'',0.296705972839,0.303692242111,0.0664808402712,0.0,0.001,0.0,6000.0,0.0,300.0,0.0
1513265942354247825,,586499,,1513265940,560063616,'',0.296705972839,0.304242877387,0.0553524174854,0.0,0.001,0.0,6000.0,0.0,300.0,0.0
1513265942364174058,,586500,,1513265940,570063616,'',0.296705972839,0.304765677742,0.0582154639376,0.0,0.001,0.0,6000.0,0.0,300.0,0.0
1513265942374439866,,586501,,1513265940,580063616,'',0.296705972839,0.305314175614,0.0471350217352,0.0,0.001,0.0,6000.0,0.0,300.0,0.0
1513265942383946542,,586502,,1513265940,590063616,'',0.296705972839,0.305811247316,0.0505172031911,0.0,0.001,0.0,6000.0,0.0,300.0,0.0
1513265942394405746,,586503,,1513265940,600063616,'',0.296705972839,0.306264882836,0.0413532908936,0.0,0.001,0.0,6000.0,0.0,300.0,0.0
1513265942404447063,,586504,,1513265940,610063616,'',0.296705972839,0.306684821639,0.0462917397267,0.0,0.001,0.0,6000.0,0.0,300.0,0.0
1513265942414384433,,586505,,1513265940,620063616,'',0.296705972839,0.307074953413,0.0249889191803,0.0,0.001,0.0,6000.0,0.0,300.0,0.0
1513265942424344270,,586506,,1513265940,630063616,'',0.296705972839,0.307373039842,0.0323884792532,0.0,0.001,0.0,6000.0,0.0,300.0,0.0
1513265942434356758,,586507,,1513265940,640063616,'',0.296705972839,0.307638841704,0.0270217351081,0.0109328688648,0.001,-73.5643965684,6000.0,0.0,300.0,0.0
1513265942444467990,,586508,,1513265940,650063616,'',0.296705972839,0.307857207907,0.0226104884241,0.0111512350682,0.001,-73.7323501437,6000.0,0.0,300.0,0.0
1513265942454195518,,586509,,1513265940,660063616,'',0.296705972839,0.308060124108,0.0185111996413,0.0113541512689,0.001,-73.6442826161,6000.0,0.0,300.0,0.0
1513265942464253804,,586510,,1513265940,670063616,'',0.296705972839,0.308226326653,0.0151535957324,0.011520353814,0.001,-73.7038755699,6000.0,0.0,300.0,0.0
1513265942474120672,,586511,,1513265940,680063616,'',0.296705972839,0.308398484365,0.0116786828463,0.0116925115256,0.001,-73.6641727544,6000.0,0.0,300.0,0.0
1513265942484115037,,586512,,1513265940,690063616,'',0.296705972839,0.308551697442,0.00858045729663,0.011845724603,0.001,-73.6662158416,6000.0,0.0,300.0,0.0
1513265942493984444,,586513,,1513265940,700063616,'',0.296705972839,0.308761190326,0.0177720424476,0.012055217487,0.001,-77.689272897,6000.0,0.0,300.0,0.0
1513265942503961801,,586514,,1513265940,710063616,'',0.296705972839,0.308922682409,0.0279313667333,0.0122167095699,0.001,-81.7135663633,6000.0,0.0,300.0,0.0
1513265942514404068,,586515,,1513265940,720063616,'',0.296705972839,0.30906448147,0.0116434405935,0.0123585086308,0.001,-77.66179249,6000.0,0.0,300.0,0.0
1513265942524115788,,586516,,1513265940,730063616,'',0.296705972839,0.309168808582,0.00953607266485,0.0124628357432,0.001,-77.6433824026,6000.0,0.0,300.0,0.0
1513265942533888943,,586517,,1513265940,740063616,'',0.296705972839,0.309290055104,0.00708856648883,0.0125840822649,0.001,-77.6439142782,6000.0,0.0,300.0,0.0
1513265942544343005,,586518,,1513265940,750063616,'',0.296705972839,0.309403543594,0.0182244453595,0.0126975707552,0.001,-81.6885993948,6000.0,0.0,300.0,0.0
1513265942554338508,,586519,,1513265940,760063616,'',0.296705972839,0.309519838557,0.015867411011,0.0128138657182,0.001,-81.6526276656,6000.0,0.0,300.0,0.0
1513265942564362930,,586520,,1513265940,770063616,'',0.296705972839,0.309638637564,0.0134648456766,0.0129326647245,0.001,-81.6411984735,6000.0,0.0,300.0,0.0
1513265942574293178,,586521,,1513265940,780063616,'',0.296705972839,0.309725022399,0.0117148628838,0.0130190495602,0.001,-81.5778034834,6000.0,0.0,300.0,0.0
1513265942584163775,,586522,,1513265940,790063616,'',0.296705972839,0.309856195672,0.0224876386105,0.0131502228331,0.001,-85.6905553925,6000.0,0.0,300.0,0.0
1513265942594161302,,586523,,1513265940,800063616,'',0.296705972839,0.310035851494,0.0188625180387,0.0133298786548,0.001,-85.6391499176,6000.0,0.0,300.0,0.0
1513265942604093403,,586524,,1513265940,810063616,'',0.296705972839,0.310256035757,0.0278379774204,0.0135500629175,0.001,-89.6706843387,6000.0,0.0,300.0,0.0
1513265942614053616,,586525,,1513265940,820063616,'',0.296705972839,0.31053045628,0.0357135870012,0.013824483441,0.001,-93.5002017183,6000.0,0.0,300.0,0.0
1513265942624164528,,586526,,1513265940,830063616,'',0.296705972839,0.310817622993,0.0299107031082,0.0141116501543,0.001,-93.8012029423,6000.0,0.0,300.0,0.0
1513265942634288690,,586527,,1513265940,840063616,'',0.296705972839,0.311184036915,0.0359353753728,0.0144780640758,0.001,-97.4658805525,6000.0,0.0,300.0,0.0
1513265942643949717,,586528,,1513265940,850063616,'',0.296705972839,0.311557651162,0.041810794105,0.014851678323,0.001,-101.578915686,6000.0,0.0,300.0,0.0
1513265942654648391,,586529,,1513265940,860063616,'',0.296705972839,0.311957516344,0.0337374030394,0.0152515435049,0.001,-101.681651235,6000.0,0.0,300.0,0.0
1513265942664011422,,586530,,1513265940,870063616,'',0.296705972839,0.312356855802,0.0390964561136,0.0156508829634,0.001,-105.469358753,6000.0,0.0,300.0,0.0
1513265942673887972,,586531,,1513265940,880063616,'',0.296705972839,0.312707794786,0.0320068825001,0.0160018219472,0.001,-105.651418887,6000.0,0.0,300.0,0.0
1513265942683960205,,586532,,1513265940,890063616,'',0.296705972839,0.312972819227,0.0266559751999,0.0162668463881,0.001,-105.677096093,6000.0,0.0,300.0,0.0
1513265942693887938,,586533,,1513265940,900063616,'',0.296705972839,0.31321201585,0.0218232383708,0.016506043011,0.001,-105.61498252,6000.0,0.0,300.0,0.0
1513265942703844612,,586534,,1513265940,910063616,'',0.296705972839,0.313395745693,0.0181096643848,0.0166897728535,0.001,-105.471453421,6000.0,0.0,300.0,0.0
1513265942714306127,,586535,,1513265940,920063616,'',0.296705972839,0.313571039801,0.0279906168542,0.0168650669621,0.001,-109.53643329,6000.0,0.0,300.0,0.0
1513265942724441194,,586536,,1513265940,930063616,'',0.296705972839,0.31374003154,0.0245822668195,0.0170340587009,0.001,-109.42063954,6000.0,0.0,300.0,0.0
1513265942734093268,,586537,,1513265940,940063616,'',0.296705972839,0.313839953389,0.00913905852076,0.0171339805502,0.001,-105.502656388,6000.0,0.0,300.0,0.0
1513265942744201244,,586538,,1513265940,950063616,'',0.296705972839,0.313934414107,0.0072295896744,0.0172284412677,0.001,-105.551616536,6000.0,0.0,300.0,0.0
1513265942754248650,,586539,,1513265940,960063616,'',0.296705972839,0.313999297011,0.00591838297691,0.0172933241724,0.001,-105.527407545,6000.0,0.0,300.0,0.0
1513265942764118985,,586540,,1513265940,970063616,'',0.296705972839,0.314026857956,0.00535771799442,0.0173208851167,0.001,-105.505535379,6000.0,0.0,300.0,0.0
1513265942774056246,,586541,,1513265940,980063616,'',0.296705972839,0.313966933115,-0.00685181075366,0.0172609602759,0.001,-101.489184862,6000.0,0.0,300.0,0.0
1513265942783994701,,586542,,1513265940,990063616,'',0.296705972839,0.313880004052,-0.0185222121088,0.0171740312126,0.001,-97.460461556,6000.0,0.0,300.0,0.0
1513265942793895874,,586543,,1513265941,63616,'',0.296705972839,0.313736735742,-0.01562438123,0.0170307629025,0.001,-97.4734427179,6000.0,0.0,300.0,0.0
1513265942804365482,,586544,,1513265941,10063616,'',0.296705972839,0.313632871216,-0.000107488994751,0.0169268983774,0.001,-101.530426064,6000.0,0.0,300.0,0.0
1513265942814364177,,586545,,1513265941,20063616,'',0.296705972839,0.313620864493,0.000135359945996,0.0169148916535,0.001,-101.530939666,6000.0,0.0,300.0,0.0
1513265942824238055,,586546,,1513265941,30063616,'',0.296705972839,0.313682993643,0.0123025263817,0.0169770208038,0.001,-105.583867242,6000.0,0.0,300.0,0.0
1513265942834159949,,586547,,1513265941,40063616,'',0.296705972839,0.313720537252,-0.00187659754957,0.0170145644132,0.001,-101.524754174,6000.0,0.0,300.0,0.0
1513265942844144836,,586548,,1513265941,50063616,'',0.296705972839,0.313703733198,-0.00153694867524,0.0169977603593,0.001,-101.533639511,6000.0,0.0,300.0,0.0
1513265942854148499,,586549,,1513265941,60063616,'',0.296705972839,0.31370110784,-0.00148481938035,0.0169951350005,0.001,-101.524526236,6000.0,0.0,300.0,0.0
1513265942863986759,,586550,,1513265941,70063616,'',0.296705972839,0.313676065678,-0.00097852064593,0.0169700928391,0.001,-101.526502843,6000.0,0.0,300.0,0.0
1513265942874411374,,586551,,1513265941,80063616,'',0.296705972839,0.313629731782,-0.0134656292951,0.0169237589427,0.001,-97.5113472763,6000.0,0.0,300.0,0.0
1513265942884453352,,586552,,1513265941,90063616,'',0.296705972839,0.313583597691,0.00088981196955,0.0168776248519,0.001,-101.533544021,6000.0,0.0,300.0,0.0
1513265942894207171,,586553,,1513265941,100063616,'',0.296705972839,0.313556164257,0.00144610687561,0.0168501914178,0.001,-101.536384387,6000.0,0.0,300.0,0.0
1513265942904317718,,586554,,1513265941,110063616,'',0.296705972839,0.313545677396,0.00165997029328,0.0168397045569,0.001,-101.535717247,6000.0,0.0,300.0,0.0
1513265942914046336,,586555,,1513265941,120063616,'',0.296705972839,0.313512783325,0.00232719154517,0.0168068104862,0.001,-101.542913001,6000.0,0.0,300.0,0.0
1513265942924071295,,586556,,1513265941,130063616,'',0.296705972839,0.313522071663,0.00213825666464,0.0168160988244,0.001,-101.528947515,6000.0,0.0,300.0,0.0
1513265942934553887,,586557,,1513265941,140063616,'',0.296705972839,0.313469193795,-0.010213850473,0.0167632209558,0.001,-97.4976839848,6000.0,0.0,300.0,0.0
1513265942944644354,,586558,,1513265941,150063616,'',0.296705972839,0.313472439548,-0.0102861964892,0.0167664667092,0.001,-97.4973898957,6000.0,0.0,300.0,0.0
1513265942954209201,,586559,,1513265941,160063616,'',0.296705972839,0.31346294899,0.0033326553163,0.0167569761507,0.001,-101.539237012,6000.0,0.0,300.0,0.0
1513265942964101828,,586560,,1513265941,170063616,'',0.296705972839,0.313456396356,-0.00995348907525,0.0167504235169,0.001,-97.5650511901,6000.0,0.0,300.0,0.0
1513265942974042559,,586561,,1513265941,180063616,'',0.296705972839,0.313416196748,0.00427803602529,0.0167102239093,0.001,-101.559980384,6000.0,0.0,300.0,0.0
1513265942984020488,,586562,,1513265941,190063616,'',0.296705972839,0.313429685551,0.00400830355505,0.0167237127123,0.001,-101.552019033,6000.0,0.0,300.0,0.0
1513265942994203805,,586563,,1513265941,200063616,'',0.296705972839,0.313430338768,0.0039920016596,0.0167243659292,0.001,-101.547050512,6000.0,0.0,300.0,0.0
1513265943004104568,,586564,,1513265941,210063616,'',0.296705972839,0.313440143068,-0.00963088146346,0.0167341702292,0.001,-97.5643418617,6000.0,0.0,300.0,0.0
1513265943014287862,,586565,,1513265941,220063616,'',0.296705972839,0.313462915131,0.00333013104451,0.0167569422916,0.001,-101.541403152,6000.0,0.0,300.0,0.0
1513265943024213815,,586566,,1513265941,230063616,'',0.296705972839,0.313492802919,0.00272610422676,0.0167868300796,0.001,-101.542542986,6000.0,0.0,300.0,0.0
1513265943034138017,,586567,,1513265941,240063616,'',0.296705972839,0.313517227987,0.00223247799969,0.0168112551476,0.001,-101.523405023,6000.0,0.0,300.0,0.0
1513265943044133784,,586568,,1513265941,250063616,'',0.296705972839,0.313524789772,0.00207895990403,0.0168188169331,0.001,-101.539644742,6000.0,0.0,300.0,0.0
1513265943054019426,,586569,,1513265941,260063616,'',0.296705972839,0.313531715518,0.00193869076555,0.0168257426792,0.001,-101.536635882,6000.0,0.0,300.0,0.0
1513265943064035358,,586570,,1513265941,270063616,'',0.296705972839,0.313537855098,0.0018172019021,0.0168318822587,0.001,-101.53793644,6000.0,0.0,300.0,0.0
1513265943073983095,,586571,,1513265941,280063616,'',0.296705972839,0.313543071617,0.00171281170662,0.0168370987777,0.001,-101.52452924,6000.0,0.0,300.0,0.0
1513265943083928863,,586572,,1513265941,290063616,'',0.296705972839,0.313546513688,0.00164304789838,0.0168405408492,0.001,-101.537676396,6000.0,0.0,300.0,0.0
1513265943094325273,,586573,,1513265941,300063616,'',0.296705972839,0.313561234375,0.00134510506202,0.0168552615362,0.001,-101.536342593,6000.0,0.0,300.0,0.0
1513265943104191195,,586574,,1513265941,310063616,'',0.296705972839,0.313560066186,-0.0120555024273,0.0168540933469,0.001,-97.4894502783,6000.0,0.0,300.0,0.0
1513265943114152597,,586575,,1513265941,320063616,'',0.296705972839,0.3135605801,0.00135999508765,0.0168546072608,0.001,-101.524454855,6000.0,0.0,300.0,0.0
1513265943124142581,,586576,,1513265941,330063616,'',0.296705972839,0.313561324174,0.00134756601562,0.0168553513346,0.001,-101.536721936,6000.0,0.0,300.0,0.0
1513265943134257092,,586577,,1513265941,340063616,'',0.296705972839,0.313536723105,0.00184031489376,0.016830750266,0.001,-101.537501311,6000.0,0.0,300.0,0.0
1513265943144045094,,586578,,1513265941,350063616,'',0.296705972839,0.313530044502,0.00197500622423,0.0168240716629,0.001,-101.542161763,6000.0,0.0,300.0,0.0
1513265943153962074,,586579,,1513265941,360063616,'',0.296705972839,0.313535810215,0.00185604511177,0.0168298373764,0.001,-101.534220998,6000.0,0.0,300.0,0.0
1513265943164087923,,586580,,1513265941,370063616,'',0.296705972839,0.313516224865,0.00225056516193,0.0168102520264,0.001,-101.539119261,6000.0,0.0,300.0,0.0
1513265943174517822,,586581,,1513265941,380063616,'',0.296705972839,0.313462186981,-0.0100819804574,0.0167562141423,0.001,-97.4917643901,6000.0,0.0,300.0,0.0
1513265943184434518,,586582,,1513265941,390063616,'',0.296705972839,0.31344294218,-0.00969731029139,0.0167369693413,0.001,-97.4797562609,6000.0,0.0,300.0,0.0
1513265943194115377,,586583,,1513265941,400063616,'',0.296705972839,0.313477350091,0.00302762371133,0.0167713772524,0.001,-101.548551461,6000.0,0.0,300.0,0.0
1513265943204418501,,586584,,1513265941,410063616,'',0.296705972839,0.313455532582,0.00346557838544,0.016749559743,0.001,-101.546171231,6000.0,0.0,300.0,0.0
1513265943214443637,,586585,,1513265941,420063616,'',0.296705972839,0.313450911027,0.00355926120321,0.016744938188,0.001,-101.5496931,6000.0,0.0,300.0,0.0
1513265943224346897,,586586,,1513265941,430063616,'',0.296705972839,0.313409967832,-0.00902936525131,0.0167039949934,0.001,-97.5082665245,6000.0,0.0,300.0,0.0
1513265943234295342,,586587,,1513265941,440063616,'',0.296705972839,0.313388620133,-0.00859583446954,0.0166826472944,0.001,-97.5620932904,6000.0,0.0,300.0,0.0
1513265943244443578,,586588,,1513265941,450063616,'',0.296705972839,0.313397738012,0.00464454691127,0.0166917651729,0.001,-101.547129101,6000.0,0.0,300.0,0.0
1513265943254257986,,586589,,1513265941,460063616,'',0.296705972839,0.313401377475,-0.00884955778295,0.0166954046361,0.001,-97.501270604,6000.0,0.0,300.0,0.0
1513265943264493884,,586590,,1513265941,470063616,'',0.296705972839,0.313405008414,-0.00892474479143,0.016699035575,0.001,-97.5002755991,6000.0,0.0,300.0,0.0
1513265943274384180,,586591,,1513265941,480063616,'',0.296705972839,0.31340977013,0.00440351452043,0.0167037972912,0.001,-101.548794099,6000.0,0.0,300.0,0.0
1513265943284118319,,586592,,1513265941,490063616,'',0.296705972839,0.313401529003,0.00457068921543,0.0166955561644,0.001,-101.553453912,6000.0,0.0,300.0,0.0
1513265943294510612,,586593,,1513265941,500063616,'',0.296705972839,0.31341863317,0.00422260368754,0.0167126603308,0.001,-101.545601807,6000.0,0.0,300.0,0.0
1513265943304164142,,586594,,1513265941,510063616,'',0.296705972839,0.313432252031,0.00394495672547,0.0167262791917,0.001,-101.533768212,6000.0,0.0,300.0,0.0
1513265943313968660,,586595,,1513265941,520063616,'',0.296705972839,0.313430527707,-0.00943786796892,0.0167245548681,0.001,-97.5755115164,6000.0,0.0,300.0,0.0
1513265943324546659,,586596,,1513265941,530063616,'',0.296705972839,0.313417391242,0.00425047490658,0.0167114184028,0.001,-101.551831459,6000.0,0.0,300.0,0.0
1513265943334225466,,586597,,1513265941,540063616,'',0.296705972839,0.313421052309,0.00417668935554,0.0167150794702,0.001,-101.544218652,6000.0,0.0,300.0,0.0
1513265943344375502,,586598,,1513265941,550063616,'',0.296705972839,0.313433389903,-0.00949632216801,0.0167274170641,0.001,-97.5009280806,6000.0,0.0,300.0,0.0
1513265943354318563,,586599,,1513265941,560063616,'',0.296705972839,0.313442627879,0.00373804169089,0.0167366550405,0.001,-101.51900448,6000.0,0.0,300.0,0.0
1513265943364391696,,586600,,1513265941,570063616,'',0.296705972839,0.313430082798,0.00399058499177,0.0167241099594,0.001,-101.54707221,6000.0,0.0,300.0,0.0
1513265943374066079,,586601,,1513265941,580063616,'',0.296705972839,0.313440739191,0.00377239235435,0.0167347663525,0.001,-101.548624705,6000.0,0.0,300.0,0.0
1513265943384488386,,586602,,1513265941,590063616,'',0.296705972839,0.313439379843,0.00380284624436,0.0167334070043,0.001,-101.548482933,6000.0,0.0,300.0,0.0
1513265943394492573,,586603,,1513265941,600063616,'',0.296705972839,0.313447871803,0.00362526923514,0.0167418989638,0.001,-101.522473171,6000.0,0.0,300.0,0.0
1513265943404403883,,586604,,1513265941,610063616,'',0.296705972839,0.31346773348,0.0032213496864,0.0167617606405,0.001,-101.545981823,6000.0,0.0,300.0,0.0
1513265943414533949,,586605,,1513265941,620063616,'',0.296705972839,0.313460875342,0.00336152163052,0.0167549025029,0.001,-101.551523206,6000.0,0.0,300.0,0.0
1513265943424537043,,586606,,1513265941,630063616,'',0.296705972839,0.313431272346,0.00396328213705,0.0167252995073,0.001,-101.546971373,6000.0,0.0,300.0,0.0
1513265943434498233,,586607,,1513265941,640063616,'',0.296705972839,0.313394606874,-0.00871303196229,0.0166886340346,0.001,-97.5655012529,6000.0,0.0,300.0,0.0
1513265943444330384,,586608,,1513265941,650063616,'',0.296705972839,0.313353177808,-0.00787078722381,0.0166472049689,0.001,-97.5724928916,6000.0,0.0,300.0,0.0
1513265943454198128,,586609,,1513265941,660063616,'',0.296705972839,0.313367959103,0.00525292098149,0.0166619862641,0.001,-101.55537115,6000.0,0.0,300.0,0.0
1513265943464118128,,586610,,1513265941,670063616,'',0.296705972839,0.313379974166,0.00501007213973,0.016674001327,0.001,-101.545173743,6000.0,0.0,300.0,0.0
1513265943474399337,,586611,,1513265941,680063616,'',0.296705972839,0.313352508657,-0.00785562708084,0.0166465358177,0.001,-97.5747146494,6000.0,0.0,300.0,0.0
1513265943484268213,,586612,,1513265941,690063616,'',0.296705972839,0.313376538007,-0.00833901944272,0.0166705651678,0.001,-97.5084922526,6000.0,0.0,300.0,0.0
1513265943494007099,,586613,,1513265941,700063616,'',0.296705972839,0.313373490613,0.00514172903865,0.0166675177737,0.001,-101.548901421,6000.0,0.0,300.0,0.0
1513265943504048925,,586614,,1513265941,710063616,'',0.296705972839,0.313371594318,0.00517186911838,0.0166656214788,0.001,-101.549040027,6000.0,0.0,300.0,0.0
1513265943514043026,,586615,,1513265941,720063616,'',0.296705972839,0.31332370387,0.00613941182839,0.0166177310308,0.001,-101.554315163,6000.0,0.0,300.0,0.0
1513265943524107038,,586616,,1513265941,730063616,'',0.296705972839,0.313330085948,-0.00740770561135,0.0166241131088,0.001,-97.5552569338,6000.0,0.0,300.0,0.0
1513265943534094804,,586617,,1513265941,740063616,'',0.296705972839,0.31332404328,0.00613331788245,0.0166180704405,0.001,-101.565368438,6000.0,0.0,300.0,0.0
1513265943543998817,,586618,,1513265941,750063616,'',0.296705972839,0.313307001734,0.00647753669442,0.0166010288951,0.001,-101.553761306,6000.0,0.0,300.0,0.0
1513265943554001207,,586619,,1513265941,760063616,'',0.296705972839,0.313352521748,0.00555929870152,0.0166465489092,0.001,-101.550434103,6000.0,0.0,300.0,0.0
1513265943564116043,,586620,,1513265941,770063616,'',0.296705972839,0.313343242408,0.00574286761516,0.016637269569,0.001,-101.556094268,6000.0,0.0,300.0,0.0
1513265943574168467,,586621,,1513265941,780063616,'',0.296705972839,0.313357252112,-0.00796133165682,0.016651279273,0.001,-97.5026507128,6000.0,0.0,300.0,0.0
1513265943584010126,,586622,,1513265941,790063616,'',0.296705972839,0.313358913573,0.00543125676632,0.0166529407341,0.001,-101.56448238,6000.0,0.0,300.0,0.0
1513265943594315419,,586623,,1513265941,800063616,'',0.296705972839,0.313349026272,0.00563701921839,0.0166430534327,0.001,-101.545402587,6000.0,0.0,300.0,0.0
1513265943604631057,,586624,,1513265941,810063616,'',0.296705972839,0.313388320474,0.00483942094897,0.0166823476352,0.001,-101.553407385,6000.0,0.0,300.0,0.0
1513265943614449584,,586625,,1513265941,820063616,'',0.296705972839,0.313370392131,-0.00821760615239,0.0166644192921,0.001,-97.4941556666,6000.0,0.0,300.0,0.0
1513265943624303143,,586626,,1513265941,830063616,'',0.296705972839,0.313354975532,-0.00790295544078,0.0166490026927,0.001,-97.5028868935,6000.0,0.0,300.0,0.0
1513265943634253553,,586627,,1513265941,840063616,'',0.296705972839,0.313357152478,0.00547710725988,0.0166511796394,0.001,-101.545357613,6000.0,0.0,300.0,0.0
1513265943644250079,,586628,,1513265941,850063616,'',0.296705972839,0.313381301809,-0.00843398795461,0.0166753289703,0.001,-97.5080884289,6000.0,0.0,300.0,0.0
1513265943654087699,,586629,,1513265941,860063616,'',0.296705972839,0.313401779735,-0.0088517586074,0.0166958068957,0.001,-97.5223535348,6000.0,0.0,300.0,0.0
1513265943664344020,,586630,,1513265941,870063616,'',0.296705972839,0.313418056746,0.00424278497267,0.0167120839073,0.001,-101.550845434,6000.0,0.0,300.0,0.0
1513265943674194749,,586631,,1513265941,880063616,'',0.296705972839,0.313418303291,-0.0091824801259,0.0167123304522,0.001,-97.57201937,6000.0,0.0,300.0,0.0
1513265943683995410,,586632,,1513265941,890063616,'',0.296705972839,0.313420882796,0.00418865036629,0.0167149099568,0.001,-101.549059478,6000.0,0.0,300.0,0.0
1513265943694347134,,586633,,1513265941,900063616,'',0.296705972839,0.313408636206,-0.00898809230393,0.0167026633668,0.001,-97.5109718988,6000.0,0.0,300.0,0.0
1513265943704379740,,586634,,1513265941,910063616,'',0.296705972839,0.313375374836,-0.00831373399142,0.0166694019969,0.001,-97.5013721714,6000.0,0.0,300.0,0.0
1513265943714364887,,586635,,1513265941,920063616,'',0.296705972839,0.313360166172,-0.00800871517882,0.0166541933333,0.001,-97.5098800798,6000.0,0.0,300.0,0.0
1513265943724340178,,586636,,1513265941,930063616,'',0.296705972839,0.313373766488,0.00514191335995,0.0166677936489,0.001,-101.556293573,6000.0,0.0,300.0,0.0
1513265943734386247,,586637,,1513265941,940063616,'',0.296705972839,0.313371843346,-0.0082456864788,0.0166658705074,0.001,-97.5136612069,6000.0,0.0,300.0,0.0
1513265943744134870,,586638,,1513265941,950063616,'',0.296705972839,0.313381150329,0.00498903033172,0.01667517749,0.001,-101.554458764,6000.0,0.0,300.0,0.0
1513265943754313418,,586639,,1513265941,960063616,'',0.296705972839,0.313389518411,-0.00860638109944,0.016683545572,0.001,-97.5546692213,6000.0,0.0,300.0,0.0
1513265943764235786,,586640,,1513265941,970063616,'',0.296705972839,0.313397556336,0.00464924225291,0.0166915834965,0.001,-101.548485903,6000.0,0.0,300.0,0.0
1513265943774184122,,586641,,1513265941,980063616,'',0.296705972839,0.313390102534,-0.00862684459131,0.0166841296947,0.001,-97.5048502345,6000.0,0.0,300.0,0.0
1513265943784028273,,586642,,1513265941,990063616,'',0.296705972839,0.313361429981,-0.00804575804679,0.0166554571419,0.001,-97.4998923723,6000.0,0.0,300.0,0.0
1513265943793946861,,586643,,1513265942,63616,'',0.296705972839,0.313374253521,0.00512124513837,0.0166682806816,0.001,-101.548475771,6000.0,0.0,300.0,0.0
1513265943804628252,,586644,,1513265942,10063616,'',0.296705972839,0.313373751763,0.00513427409165,0.0166677789238,0.001,-101.539617393,6000.0,0.0,300.0,0.0
1513265943814409560,,586645,,1513265942,20063616,'',0.296705972839,0.313335953917,-0.00752890018363,0.0166299810784,0.001,-97.5162844803,6000.0,0.0,300.0,0.0
1513265943824245765,,586646,,1513265942,30063616,'',0.296705972839,0.313340563048,0.00580638063033,0.0166345902089,0.001,-101.55801338,6000.0,0.0,300.0,0.0
1513265943834505398,,586647,,1513265942,40063616,'',0.296705972839,0.313319196214,-0.00718753702547,0.0166132233749,0.001,-97.5195874375,6000.0,0.0,300.0,0.0
1513265943844485331,,586648,,1513265942,50063616,'',0.296705972839,0.313351304407,0.00558724387004,0.0166453315675,0.001,-101.558994505,6000.0,0.0,300.0,0.0
1513265943854437476,,586649,,1513265942,60063616,'',0.296705972839,0.313352111703,-0.0078524659821,0.0166461388637,0.001,-97.515103456,6000.0,0.0,300.0,0.0
1513265943864449728,,586650,,1513265942,70063616,'',0.296705972839,0.313367040372,0.00526831742395,0.0166610675327,0.001,-101.558883825,6000.0,0.0,300.0,0.0
1513265943874342810,,586651,,1513265942,80063616,'',0.296705972839,0.313391675944,0.00476743019492,0.0166857031047,0.001,-101.514167316,6000.0,0.0,300.0,0.0
1513265943884177932,,586652,,1513265942,90063616,'',0.296705972839,0.313385964156,0.0048843038527,0.0166799913174,0.001,-101.555398778,6000.0,0.0,300.0,0.0
1513265943894105494,,586653,,1513265942,100063616,'',0.296705972839,0.313372367959,0.00515638203831,0.0166663951199,0.001,-101.555318604,6000.0,0.0,300.0,0.0
1513265943904094189,,586654,,1513265942,110063616,'',0.296705972839,0.313370362708,0.00520003743159,0.0166643898694,0.001,-101.54913005,6000.0,0.0,300.0,0.0
1513265943914556346,,586655,,1513265942,120063616,'',0.296705972839,0.313381597772,0.00497212394426,0.0166756249331,0.001,-101.507733717,6000.0,0.0,300.0,0.0
1513265943924537717,,586656,,1513265942,130063616,'',0.296705972839,0.313401115215,0.00458124365308,0.0166951423759,0.001,-101.552173389,6000.0,0.0,300.0,0.0
1513265943933943671,,586657,,1513265942,140063616,'',0.296705972839,0.313391584363,-0.00865067593584,0.0166856115242,0.001,-97.5097175527,6000.0,0.0,300.0,0.0
1513265943944396001,,586658,,1513265942,150063616,'',0.296705972839,0.313434422271,0.00390784868018,0.0167284494317,0.001,-101.570404128,6000.0,0.0,300.0,0.0
1513265943954272471,,586659,,1513265942,160063616,'',0.296705972839,0.313445492764,0.00368624203788,0.0167395199253,0.001,-101.546829634,6000.0,0.0,300.0,0.0
1513265943964268538,,586660,,1513265942,170063616,'',0.296705972839,0.313442496903,0.00374285400828,0.016736524064,0.001,-101.550615137,6000.0,0.0,300.0,0.0
1513265943974384980,,586661,,1513265942,180063616,'',0.296705972839,0.313426206216,-0.00934868236274,0.0167202333773,0.001,-97.5576544844,6000.0,0.0,300.0,0.0
1513265943984380341,,586662,,1513265942,190063616,'',0.296705972839,0.313426398524,-0.00934807042495,0.0167204256847,0.001,-97.4900686954,6000.0,0.0,300.0,0.0
1513265943994399450,,586663,,1513265942,200063616,'',0.296705972839,0.313379023469,-0.00839383171245,0.01667305063,0.001,-97.4548662432,6000.0,0.0,300.0,0.0
1513265944004263845,,586664,,1513265942,210063616,'',0.296705972839,0.313363892702,0.00533265942731,0.0166579198627,0.001,-101.551143013,6000.0,0.0,300.0,0.0
1513265944014254880,,586665,,1513265942,220063616,'',0.296705972839,0.313350778539,-0.00782993927113,0.0166448056996,0.001,-97.5084132775,6000.0,0.0,300.0,0.0
1513265944024285834,,586666,,1513265942,230063616,'',0.296705972839,0.313329192224,-0.00738747896879,0.016623219385,0.001,-97.5707112953,6000.0,0.0,300.0,0.0
1513265944033974975,,586667,,1513265942,240063616,'',0.296705972839,0.313359162136,0.00542996182562,0.0166531892966,0.001,-101.511941985,6000.0,0.0,300.0,0.0
1513265944044178115,,586668,,1513265942,250063616,'',0.296705972839,0.313372728352,0.00515480753379,0.0166667555127,0.001,-101.558260524,6000.0,0.0,300.0,0.0
1513265944053937086,,586669,,1513265942,260063616,'',0.296705972839,0.313357896076,-0.00797096736173,0.0166519232369,0.001,-97.5509636462,6000.0,0.0,300.0,0.0
1513265944064360223,,586670,,1513265942,270063616,'',0.296705972839,0.313347664153,0.0056592149207,0.0166416913143,0.001,-101.555693625,6000.0,0.0,300.0,0.0
1513265944074325181,,586671,,1513265942,280063616,'',0.296705972839,0.313362581443,0.00536345682775,0.0166566086041,0.001,-101.549698807,6000.0,0.0,300.0,0.0
1513265944084194472,,586672,,1513265942,290063616,'',0.296705972839,0.313373979731,-0.00828749445276,0.0166680068919,0.001,-97.5087091156,6000.0,0.0,300.0,0.0
1513265944094096730,,586673,,1513265942,300063616,'',0.296705972839,0.313349618723,0.00562524931988,0.0166436458839,0.001,-101.514534097,6000.0,0.0,300.0,0.0
1513265944104164497,,586674,,1513265942,310063616,'',0.296705972839,0.313352599741,0.00556534647029,0.0166466269021,0.001,-101.557254016,6000.0,0.0,300.0,0.0
1513265944114030795,,586675,,1513265942,320063616,'',0.296705972839,0.313340702575,-0.00761743621149,0.0166347297362,0.001,-97.5203446101,6000.0,0.0,300.0,0.0
1513265944124036279,,586676,,1513265942,330063616,'',0.296705972839,0.313345987892,-0.00772591492887,0.0166400150527,0.001,-97.5038193038,6000.0,0.0,300.0,0.0
1513265944134466381,,586677,,1513265942,340063616,'',0.296705972839,0.31337210637,0.00516805483511,0.0166661335308,0.001,-101.519166605,6000.0,0.0,300.0,0.0
1513265944143919931,,586678,,1513265942,350063616,'',0.296705972839,0.313371240059,0.00517895420244,0.0166652672199,0.001,-101.558423615,6000.0,0.0,300.0,0.0
1513265944154978360,,586679,,1513265942,360063616,'',0.296705972839,0.313357804102,0.00545063863913,0.0166518312631,0.001,-101.513817624,6000.0,0.0,300.0,0.0
1513265944164713949,,586680,,1513265942,370063616,'',0.296705972839,0.313358839384,0.00543224605192,0.0166528665445,0.001,-101.557820377,6000.0,0.0,300.0,0.0
1513265944174390301,,586681,,1513265942,380063616,'',0.296705972839,0.313334284563,0.00593066769778,0.0166283117237,0.001,-101.55005425,6000.0,0.0,300.0,0.0
1513265944184137028,,586682,,1513265942,390063616,'',0.296705972839,0.313338246043,-0.0075718445948,0.016632273204,0.001,-97.555517817,6000.0,0.0,300.0,0.0
1513265944194065799,,586683,,1513265942,400063616,'',0.296705972839,0.313319548003,-0.00719269293739,0.016613575164,0.001,-97.5070823634,6000.0,0.0,300.0,0.0
1513265944203937290,,586684,,1513265942,410063616,'',0.296705972839,0.313339035204,-0.00758904373418,0.0166330623648,0.001,-97.5116713349,6000.0,0.0,300.0,0.0
1513265944213857559,,586685,,1513265942,420063616,'',0.296705972839,0.313343842283,0.00573150730154,0.0166378694443,0.001,-101.540712338,6000.0,0.0,300.0,0.0
1513265944224398294,,586686,,1513265942,430063616,'',0.296705972839,0.313359572639,0.00541433350994,0.0166535998003,0.001,-101.558136729,6000.0,0.0,300.0,0.0
1513265944234353880,,586687,,1513265942,440063616,'',0.296705972839,0.313345858179,-0.00773122385251,0.0166398853397,0.001,-97.555202934,6000.0,0.0,300.0,0.0
1513265944244292054,,586688,,1513265942,450063616,'',0.296705972839,0.313348904871,0.00563525644675,0.0166429320324,0.001,-101.548664081,6000.0,0.0,300.0,0.0
1513265944254263691,,586689,,1513265942,460063616,'',0.296705972839,0.313364941688,0.00531292497565,0.016658968849,0.001,-101.551060215,6000.0,0.0,300.0,0.0
1513265944264308013,,586690,,1513265942,470063616,'',0.296705972839,0.313376789848,0.00506824497947,0.0166708170095,0.001,-101.554885678,6000.0,0.0,300.0,0.0
1513265944274138657,,586691,,1513265942,480063616,'',0.296705972839,0.313372145934,0.00516209173895,0.0166661730947,0.001,-101.519168332,6000.0,0.0,300.0,0.0
1513265944284104627,,586692,,1513265942,490063616,'',0.296705972839,0.313394546938,0.0047068591483,0.0166885740988,0.001,-101.5514457,6000.0,0.0,300.0,0.0
1513265944293913466,,586693,,1513265942,500063616,'',0.296705972839,0.313376183353,0.00507734635049,0.0166702105136,0.001,-101.550172897,6000.0,0.0,300.0,0.0
1513265944303836095,,586694,,1513265942,510063616,'',0.296705972839,0.313348946302,-0.00779096242002,0.0166429734626,0.001,-97.5012603605,6000.0,0.0,300.0,0.0
1513265944313848114,,586695,,1513265942,520063616,'',0.296705972839,0.313338321332,-0.00757743727537,0.0166323484932,0.001,-97.4958544377,6000.0,0.0,300.0,0.0
1513265944324435618,,586696,,1513265942,530063616,'',0.296705972839,0.313308034578,-0.00696602724149,0.016602061739,0.001,-97.5102731177,6000.0,0.0,300.0,0.0
1513265944334286026,,586697,,1513265942,540063616,'',0.296705972839,0.31327088373,-0.00621326847591,0.016564910891,0.001,-97.5039765516,6000.0,0.0,300.0,0.0
1513265944344375592,,586698,,1513265942,550063616,'',0.296705972839,0.313239288902,-0.00557562759132,0.0165333160633,0.001,-97.518515058,6000.0,0.0,300.0,0.0
1513265944354212702,,586699,,1513265942,560063616,'',0.296705972839,0.313212639931,-0.00503554785674,0.0165066670921,0.001,-97.5238418413,6000.0,0.0,300.0,0.0
1513265944364198076,,586700,,1513265942,570063616,'',0.296705972839,0.313204681603,0.00855105852167,0.0164987087643,0.001,-101.57111855,6000.0,0.0,300.0,0.0
1513265944374264963,,586701,,1513265942,580063616,'',0.296705972839,0.313198690223,-0.00475381248734,0.0164927173837,0.001,-97.5191004966,6000.0,0.0,300.0,0.0
1513265944384054646,,586702,,1513265942,590063616,'',0.296705972839,0.313168662027,-0.00414825416725,0.0164626891882,0.001,-97.524914372,6000.0,0.0,300.0,0.0
1513265944393837234,,586703,,1513265942,600063616,'',0.296705972839,0.313155817462,-0.00389127155424,0.0164498446231,0.001,-97.5319808904,6000.0,0.0,300.0,0.0
1513265944404440816,,586704,,1513265942,610063616,'',0.296705972839,0.313144236415,-0.00365890054813,0.0164382635758,0.001,-97.5535404311,6000.0,0.0,300.0,0.0
1513265944414487283,,586705,,1513265942,620063616,'',0.296705972839,0.31313548319,-0.00346877941605,0.0164295103513,0.001,-97.5276692015,6000.0,0.0,300.0,0.0
1513265944424438834,,586706,,1513265942,630063616,'',0.296705972839,0.313116406336,-0.0030829440715,0.0164104334969,0.001,-97.5249538605,6000.0,0.0,300.0,0.0
1513265944434456476,,586707,,1513265942,640063616,'',0.296705972839,0.313136990283,-0.00350134811878,0.016431017444,0.001,-97.526769591,6000.0,0.0,300.0,0.0
1513265944444554156,,586708,,1513265942,650063616,'',0.296705972839,0.31314048297,-0.00357074774803,0.0164345101311,0.001,-97.5285024471,6000.0,0.0,300.0,0.0
1513265944454354410,,586709,,1513265942,660063616,'',0.296705972839,0.313143957061,-0.00363657948889,0.0164379842221,0.001,-97.5458783486,6000.0,0.0,300.0,0.0
1513265944464352534,,586710,,1513265942,670063616,'',0.296705972839,0.313147877304,0.00970945051657,0.0164419044648,0.001,-101.577297408,6000.0,0.0,300.0,0.0
1513265944474171464,,586711,,1513265942,680063616,'',0.296705972839,0.3131517476,0.00962444198054,0.0164457747611,0.001,-101.567887868,6000.0,0.0,300.0,0.0
1513265944484503897,,586712,,1513265942,690063616,'',0.296705972839,0.313153526993,-0.00383783918235,0.0164475541543,0.001,-97.5226748259,6000.0,0.0,300.0,0.0
1513265944494471333,,586713,,1513265942,700063616,'',0.296705972839,0.313180212342,0.00904289220347,0.0164742395028,0.001,-101.510791938,6000.0,0.0,300.0,0.0
1513265944504423192,,586714,,1513265942,710063616,'',0.296705972839,0.313202711444,0.00858785259227,0.0164967386051,0.001,-101.563865233,6000.0,0.0,300.0,0.0
1513265944514429858,,586715,,1513265942,720063616,'',0.296705972839,0.313197808625,0.00868261609208,0.0164918357864,0.001,-101.503406997,6000.0,0.0,300.0,0.0
1513265944524271518,,586716,,1513265942,730063616,'',0.296705972839,0.313193424372,0.00877194578703,0.0164874515331,0.001,-101.564598273,6000.0,0.0,300.0,0.0
1513265944534314165,,586717,,1513265942,740063616,'',0.296705972839,0.313175653202,-0.0042956002814,0.0164696803631,0.001,-97.547530262,6000.0,0.0,300.0,0.0
1513265944543911826,,586718,,1513265942,750063616,'',0.296705972839,0.313245877156,0.0077122590027,0.016539904317,0.001,-101.515885858,6000.0,0.0,300.0,0.0
1513265944553892766,,586719,,1513265942,760063616,'',0.296705972839,0.313229704561,-0.00538559044002,0.016523731722,0.001,-97.5046025049,6000.0,0.0,300.0,0.0
1513265944564407599,,586720,,1513265942,770063616,'',0.296705972839,0.313219526406,0.00824117619506,0.0165135535674,0.001,-101.572069866,6000.0,0.0,300.0,0.0
1513265944574300110,,586721,,1513265942,780063616,'',0.296705972839,0.313220859807,-0.00521230158923,0.0165148869676,0.001,-97.5213129458,6000.0,0.0,300.0,0.0
1513265944584414641,,586722,,1513265942,790063616,'',0.296705972839,0.313208792062,-0.00496867159938,0.0165028192232,0.001,-97.5227119406,6000.0,0.0,300.0,0.0
1513265944594359145,,586723,,1513265942,800063616,'',0.296705972839,0.313187048727,-0.00452843487584,0.0164810758883,0.001,-97.5297816711,6000.0,0.0,300.0,0.0
1513265944604256264,,586724,,1513265942,810063616,'',0.296705972839,0.31319542735,-0.00469786174263,0.0164894545113,0.001,-97.5238448564,6000.0,0.0,300.0,0.0
1513265944614077097,,586725,,1513265942,820063616,'',0.296705972839,0.313212076481,0.00839004609384,0.0165061036421,0.001,-101.509757187,6000.0,0.0,300.0,0.0
1513265944624127055,,586726,,1513265942,830063616,'',0.296705972839,0.313179133748,-0.00436768811834,0.0164731609087,0.001,-97.5583054427,6000.0,0.0,300.0,0.0
1513265944634177734,,586727,,1513265942,840063616,'',0.296705972839,0.313224929748,0.00813052867426,0.0165189569087,0.001,-101.547416589,6000.0,0.0,300.0,0.0
1513265944644104321,,586728,,1513265942,850063616,'',0.296705972839,0.313188508915,-0.00455598916739,0.0164825360763,0.001,-97.5063447355,6000.0,0.0,300.0,0.0
1513265944654169647,,586729,,1513265942,860063616,'',0.296705972839,0.313170701577,-0.00419529137452,0.0164647287383,0.001,-97.5501613178,6000.0,0.0,300.0,0.0
1513265944664043565,,586730,,1513265942,870063616,'',0.296705972839,0.313158821934,0.00947007237635,0.0164528490948,0.001,-101.581700847,6000.0,0.0,300.0,0.0
1513265944674011340,,586731,,1513265942,880063616,'',0.296705972839,0.31314758923,-0.00372037499583,0.0164416163908,0.001,-97.5367790181,6000.0,0.0,300.0,0.0
1513265944683923218,,586732,,1513265942,890063616,'',0.296705972839,0.313161459813,0.00942301389501,0.0164554869745,0.001,-101.51269434,6000.0,0.0,300.0,0.0
1513265944693923279,,586733,,1513265942,900063616,'',0.296705972839,0.313136527462,-0.00350279331637,0.0164305546229,0.001,-97.5521027346,6000.0,0.0,300.0,0.0
1513265944703871055,,586734,,1513265942,910063616,'',0.296705972839,0.313151095431,-0.00379253420378,0.0164451225923,0.001,-97.5265060347,6000.0,0.0,300.0,0.0
1513265944714311829,,586735,,1513265942,920063616,'',0.296705972839,0.313129016059,-0.0033468560456,0.0164230432202,0.001,-97.5367331475,6000.0,0.0,300.0,0.0
1513265944724368725,,586736,,1513265942,930063616,'',0.296705972839,0.31314678932,0.00971123100482,0.0164408164807,0.001,-101.5121397,6000.0,0.0,300.0,0.0
1513265944734311878,,586737,,1513265942,940063616,'',0.296705972839,0.313137836373,0.00989349646221,0.0164318635337,0.001,-101.586860582,6000.0,0.0,300.0,0.0
1513265944744381344,,586738,,1513265942,950063616,'',0.296705972839,0.313155588261,0.00952437649602,0.0164496154216,0.001,-101.57034089,6000.0,0.0,300.0,0.0
1513265944754560308,,586739,,1513265942,960063616,'',0.296705972839,0.313193915022,-0.00465917261267,0.0164879421831,0.001,-97.5256565069,6000.0,0.0,300.0,0.0
1513265944764523500,,586740,,1513265942,970063616,'',0.296705972839,0.313200734321,0.0086310891796,0.0164947614824,0.001,-101.519162525,6000.0,0.0,300.0,0.0
1513265944774479021,,586741,,1513265942,980063616,'',0.296705972839,0.313206381922,-0.00490714286925,0.0165004090832,0.001,-97.5229162462,6000.0,0.0,300.0,0.0
1513265944784409779,,586742,,1513265942,990063616,'',0.296705972839,0.313198924247,0.00867090581007,0.016492951408,0.001,-101.569170554,6000.0,0.0,300.0,0.0
1513265944794402741,,586743,,1513265943,63616,'',0.296705972839,0.313180310744,-0.00437716672066,0.0164743379046,0.001,-97.5289282327,6000.0,0.0,300.0,0.0
1513265944804419671,,586744,,1513265943,10063616,'',0.296705972839,0.31315209095,-0.00380590623445,0.0164461181108,0.001,-97.5264158334,6000.0,0.0,300.0,0.0
1513265944814053827,,586745,,1513265943,20063616,'',0.296705972839,0.313152899781,-0.0038171736742,0.0164469269417,0.001,-97.5260657099,6000.0,0.0,300.0,0.0
1513265944824271976,,586746,,1513265943,30063616,'',0.296705972839,0.313143120587,-0.0036221888767,0.0164371477484,0.001,-97.5227648528,6000.0,0.0,300.0,0.0
1513265944834326632,,586747,,1513265943,40063616,'',0.296705972839,0.313158167093,0.0094956232907,0.0164521942535,0.001,-101.575604671,6000.0,0.0,300.0,0.0
1513265944844204934,,586748,,1513265943,50063616,'',0.296705972839,0.313170221909,-0.00417272939527,0.0164642490703,0.001,-97.5244709151,6000.0,0.0,300.0,0.0
1513265944854254337,,586749,,1513265943,60063616,'',0.296705972839,0.313182438942,0.00900704677036,0.0164764661029,0.001,-101.565465365,6000.0,0.0,300.0,0.0
1513265944864300005,,586750,,1513265943,70063616,'',0.296705972839,0.313190113496,0.00884651509332,0.0164841406569,0.001,-101.567414214,6000.0,0.0,300.0,0.0
1513265944874079281,,586751,,1513265943,80063616,'',0.296705972839,0.313184520978,0.00895275180896,0.0164785481388,0.001,-101.440524373,6000.0,0.0,300.0,0.0
1513265944883862817,,586752,,1513265943,90063616,'',0.296705972839,0.313217067575,0.00829870438925,0.0165110947361,0.001,-101.583110178,6000.0,0.0,300.0,0.0
1513265944893952005,,586753,,1513265943,100063616,'',0.296705972839,0.313241610909,-0.00562153593288,0.01653563807,0.001,-97.5235866046,6000.0,0.0,300.0,0.0
1513265944904544980,,586754,,1513265943,110063616,'',0.296705972839,0.313226851433,-0.00532649541467,0.0165208785942,0.001,-97.5277218173,6000.0,0.0,300.0,0.0
1513265944914217342,,586755,,1513265943,120063616,'',0.296705972839,0.313191595742,-0.00461358654647,0.0164856229034,0.001,-97.5674864399,6000.0,0.0,300.0,0.0
1513265944924210701,,586756,,1513265943,130063616,'',0.296705972839,0.313197586387,-0.00472889649608,0.016491613548,0.001,-97.5205832954,6000.0,0.0,300.0,0.0
1513265944934116293,,586757,,1513265943,140063616,'',0.296705972839,0.313202549525,0.00859596599614,0.0164965766861,0.001,-101.566360022,6000.0,0.0,300.0,0.0
1513265944944110543,,586758,,1513265943,150063616,'',0.296705972839,0.313206925499,-0.00492962787088,0.01650095266,0.001,-97.5210917291,6000.0,0.0,300.0,0.0
1513265944953987023,,586759,,1513265943,160063616,'',0.296705972839,0.313200176396,-0.00479341866414,0.0164942035569,0.001,-97.5666585256,6000.0,0.0,300.0,0.0
1513265944963998203,,586760,,1513265943,170063616,'',0.296705972839,0.313218963751,0.00825611761169,0.0165129909119,0.001,-101.564968601,6000.0,0.0,300.0,0.0
1513265944974516579,,586761,,1513265943,180063616,'',0.296705972839,0.313245971262,0.00771086097339,0.0165399984227,0.001,-101.564907749,6000.0,0.0,300.0,0.0
1513265944984299092,,586762,,1513265943,190063616,'',0.296705972839,0.313216773999,-0.00512314197645,0.0165108011601,0.001,-97.560881642,6000.0,0.0,300.0,0.0
1513265944994376304,,586763,,1513265943,200063616,'',0.296705972839,0.313193544776,-0.00465158195217,0.016487571937,0.001,-97.5928823324,6000.0,0.0,300.0,0.0
1513265945004313298,,586764,,1513265943,210063616,'',0.296705972839,0.313177985819,0.0090863779741,0.0164720129798,0.001,-101.579600827,6000.0,0.0,300.0,0.0
1513265945014205400,,586765,,1513265943,220063616,'',0.296705972839,0.313151213654,-0.00379504388091,0.0164452408145,0.001,-97.5193611093,6000.0,0.0,300.0,0.0
1513265945024236209,,586766,,1513265943,230063616,'',0.296705972839,0.313178025602,0.00908388787151,0.0164720527629,0.001,-101.510696504,6000.0,0.0,300.0,0.0
1513265945034227269,,586767,,1513265943,240063616,'',0.296705972839,0.313174059063,-0.00426207203061,0.0164680862241,0.001,-97.5527293853,6000.0,0.0,300.0,0.0
1513265945044240954,,586768,,1513265943,250063616,'',0.296705972839,0.313172543068,0.00919856535128,0.0164665702293,0.001,-101.5795329,6000.0,0.0,300.0,0.0
1513265945054090432,,586769,,1513265943,260063616,'',0.296705972839,0.313159211178,-0.00395685970384,0.0164532383385,0.001,-97.5269148721,6000.0,0.0,300.0,0.0
1513265945064437427,,586770,,1513265943,270063616,'',0.296705972839,0.313161337261,0.0094205221557,0.0164553644225,0.001,-101.512689706,6000.0,0.0,300.0,0.0
1513265945074280065,,586771,,1513265943,280063616,'',0.296705972839,0.313136786979,-0.00350338553478,0.01643081414,0.001,-97.5554071168,6000.0,0.0,300.0,0.0
1513265945084325429,,586772,,1513265943,290063616,'',0.296705972839,0.313152257016,-0.00381414025448,0.0164462841768,0.001,-97.5241935552,6000.0,0.0,300.0,0.0
1513265945094415781,,586773,,1513265943,300063616,'',0.296705972839,0.313131203792,0.0100340892882,0.0164252309531,0.001,-101.575306525,6000.0,0.0,300.0,0.0
1513265945104177857,,586774,,1513265943,310063616,'',0.296705972839,0.313111705162,-0.00300038119088,0.0164057323227,0.001,-97.5281246413,6000.0,0.0,300.0,0.0
1513265945114126132,,586775,,1513265943,320063616,'',0.296705972839,0.313073952424,-0.00223567617546,0.0163679795845,0.001,-97.549814328,6000.0,0.0,300.0,0.0
1513265945124003569,,586776,,1513265943,330063616,'',0.296705972839,0.313053872349,-0.00183023391224,0.0163478995098,0.001,-97.5353151606,6000.0,0.0,300.0,0.0
1513265945134141306,,586777,,1513265943,340063616,'',0.296705972839,0.313025257823,-0.0012494573994,0.0163192849839,0.001,-97.5389942542,6000.0,0.0,300.0,0.0
1513265945144438462,,586778,,1513265943,350063616,'',0.296705972839,0.313014024792,-0.00102319380364,0.0163080519532,0.001,-97.554413457,6000.0,0.0,300.0,0.0
1513265945154357368,,586779,,1513265943,360063616,'',0.296705972839,0.312980615573,-0.000346567574605,0.0162746427336,0.001,-97.5445914995,6000.0,0.0,300.0,0.0
1513265945164441433,,586780,,1513265943,370063616,'',0.296705972839,0.312903589287,-0.0122243512204,0.016197616448,0.001,-93.4869259185,6000.0,0.0,300.0,0.0
1513265945174456287,,586781,,1513265943,380063616,'',0.296705972839,0.312804909561,-0.0102328138579,0.0160989367218,0.001,-93.5197395971,6000.0,0.0,300.0,0.0
1513265945184723233,,586782,,1513265943,390063616,'',0.296705972839,0.312726277121,-0.00864159185747,0.0160203042816,0.001,-93.536093737,6000.0,0.0,300.0,0.0
1513265945194412835,,586783,,1513265943,400063616,'',0.296705972839,0.312636807089,-0.00683275931696,0.0159308342497,0.001,-93.5404136381,6000.0,0.0,300.0,0.0
1513265945204083444,,586784,,1513265943,410063616,'',0.296705972839,0.312502278522,-0.017535025638,0.0157963056829,0.001,-89.5976927431,6000.0,0.0,300.0,0.0
1513265945214043661,,586785,,1513265943,420063616,'',0.296705972839,0.312380410774,-0.0150720184507,0.0156744379353,0.001,-89.6025048509,6000.0,0.0,300.0,0.0
1513265945224202912,,586786,,1513265943,430063616,'',0.296705972839,0.312245075967,-0.0123381622925,0.0155391031282,0.001,-89.4994462113,6000.0,0.0,300.0,0.0
1513265945234470693,,586787,,1513265943,440063616,'',0.296705972839,0.312134241346,-0.0100992267318,0.0154282685068,0.001,-89.515157822,6000.0,0.0,300.0,0.0
1513265945244361455,,586788,,1513265943,450063616,'',0.296705972839,0.311969526466,-0.0201949231838,0.0152635536265,0.001,-85.4925703833,6000.0,0.0,300.0,0.0
1513265945254331838,,586789,,1513265943,460063616,'',0.296705972839,0.311812623697,-0.0170227943496,0.0151066508579,0.001,-85.5018664767,6000.0,0.0,300.0,0.0
1513265945264135861,,586790,,1513265943,470063616,'',0.296705972839,0.311659756057,-0.0139351608113,0.0149537832177,0.001,-85.5166098912,6000.0,0.0,300.0,0.0
1513265945274229290,,586791,,1513265943,480063616,'',0.296705972839,0.311484551725,-0.010393744671,0.0147785788864,0.001,-85.5455275489,6000.0,0.0,300.0,0.0
1513265945284282355,,586792,,1513265943,490063616,'',0.296705972839,0.311271013544,-0.0195052966257,0.014565040705,0.001,-81.4905396658,6000.0,0.0,300.0,0.0
1513265945294149481,,586793,,1513265943,500063616,'',0.296705972839,0.311059313969,-0.0286469141546,0.0143533411301,0.001,-77.696298727,6000.0,0.0,300.0,0.0
1513265945304013298,,586794,,1513265943,510063616,'',0.296705972839,0.310846713567,-0.024353303195,0.0141407407284,0.001,-77.3066639613,6000.0,0.0,300.0,0.0
