rosbagTimestamp,header,seq,stamp,secs,nsecs,frame_id,set_point,process_value,process_value_dot,error,time_step,command,p,i,d,i_clamp
1513265940793878596,,586341,,1513265939,63616,'',0.226892802759,0.234190015796,-0.010167424982,0.00729721303672,0.001,40.7912345297,-6000.0,0.0,-300.0,0.0
1513265940804247895,,586342,,1513265939,10063616,'',0.226892802759,0.234181375877,0.00775124885805,0.00728857311824,0.001,46.0676218956,-6000.0,0.0,-300.0,0.0
1513265940814172795,,586343,,1513265939,20063616,'',0.226892802759,0.234202020093,0.00733563577325,0.00730921733422,0.001,46.0679622195,-6000.0,0.0,-300.0,0.0
1513265940824196219,,586344,,1513265939,30063616,'',0.226892802759,0.234222075735,0.00693236278636,0.00732927297591,0.001,46.063611565,-6000.0,0.0,-300.0,0.0
1513265940834178050,,586345,,1513265939,40063616,'',0.226892802759,0.234205172111,0.00728038541195,0.00731236935171,0.001,46.0608405195,-6000.0,0.0,-300.0,0.0
1513265940844018467,,586346,,1513265939,50063616,'',0.226892802759,0.2341923688,-0.0102070132147,0.00729956604112,0.001,40.716839419,-6000.0,0.0,-300.0,0.0
1513265940854058291,,586347,,1513265939,60063616,'',0.226892802759,0.234212631314,0.00712910129348,0.00731982855512,0.001,46.0644121609,-6000.0,0.0,-300.0,0.0
1513265940863895875,,586348,,1513265939,70063616,'',0.226892802759,0.234230017098,0.00677961530279,0.00733721433841,0.001,46.0688094556,-6000.0,0.0,-300.0,0.0
1513265940874015938,,586349,,1513265939,80063616,'',0.226892802759,0.234245218204,0.00647037285041,0.00735241544467,0.001,46.0560452883,-6000.0,0.0,-300.0,0.0
1513265940883946405,,586350,,1513265939,90063616,'',0.226892802759,0.234209729542,0.00719288547454,0.00731692678247,0.001,46.0646581418,-6000.0,0.0,-300.0,0.0
1513265940894030912,,586351,,1513265939,100063616,'',0.226892802759,0.234241252337,0.00655017581203,0.0073484495777,0.001,46.060094622,-6000.0,0.0,-300.0,0.0
1513265940904017013,,586352,,1513265939,110063616,'',0.226892802759,0.234252654281,0.00632006590667,0.00735985152218,0.001,46.0669502636,-6000.0,0.0,-300.0,0.0
1513265940913840970,,586353,,1513265939,120063616,'',0.226892802759,0.23426439884,0.00608508888079,0.00737159608058,0.001,46.0617801307,-6000.0,0.0,-300.0,0.0
1513265940923934283,,586354,,1513265939,130063616,'',0.226892802759,0.234242415192,0.00653146663982,0.00734961243303,0.001,46.0642431677,-6000.0,0.0,-300.0,0.0
1513265940934254669,,586355,,1513265939,140063616,'',0.226892802759,0.234223560315,0.00691349119502,0.00733075755597,0.001,46.0216061648,-6000.0,0.0,-300.0,0.0
1513265940944165257,,586356,,1513265939,150063616,'',0.226892802759,0.234223817105,0.00691047344756,0.00733101434554,0.001,46.1053287931,-6000.0,0.0,-300.0,0.0
1513265940954143282,,586357,,1513265939,160063616,'',0.226892802759,0.234237320925,0.00663985036027,0.00734451816589,0.001,46.0623192425,-6000.0,0.0,-300.0,0.0
1513265940964092263,,586358,,1513265939,170063616,'',0.226892802759,0.23423199452,0.00674534777155,0.00733919176085,0.001,46.060825352,-6000.0,0.0,-300.0,0.0
1513265940973938265,,586359,,1513265939,180063616,'',0.226892802759,0.234245479843,0.00647326218636,0.0073526770838,0.001,46.022434864,-6000.0,0.0,-300.0,0.0
1513265940984075043,,586360,,1513265939,190063616,'',0.226892802759,0.234209400474,-0.0105482309754,0.0073165977151,0.001,40.7160342739,-6000.0,0.0,-300.0,0.0
1513265940993904943,,586361,,1513265939,200063616,'',0.226892802759,0.234196659624,0.00745149497192,0.00730385686456,0.001,46.0657660682,-6000.0,0.0,-300.0,0.0
1513265941003924991,,586362,,1513265939,210063616,'',0.226892802759,0.234182465379,-0.0100103156235,0.00728966262001,0.001,40.71558039,-6000.0,0.0,-300.0,0.0
1513265941013905724,,586363,,1513265939,220063616,'',0.226892802759,0.234219183519,0.00698924128234,0.00732638075994,0.001,46.0214406938,-6000.0,0.0,-300.0,0.0
1513265941023788254,,586364,,1513265939,230063616,'',0.226892802759,0.234202758429,0.00732771623302,0.00730995567001,0.001,46.0715975813,-6000.0,0.0,-300.0,0.0
1513265941033936784,,586365,,1513265939,240063616,'',0.226892802759,0.234234265209,-0.0110566805864,0.00734146244999,0.001,40.7169781082,-6000.0,0.0,-300.0,0.0
1513265941044003240,,586366,,1513265939,250063616,'',0.226892802759,0.234263512404,0.00609922082796,0.00737070964495,0.001,46.060099012,-6000.0,0.0,-300.0,0.0
1513265941053947207,,586367,,1513265939,260063616,'',0.226892802759,0.234219623075,-0.0107630618158,0.0073268203157,0.001,40.783542461,-6000.0,0.0,-300.0,0.0
1513265941063989407,,586368,,1513265939,270063616,'',0.226892802759,0.234219555772,0.00698232931232,0.00732675301317,0.001,46.0597891715,-6000.0,0.0,-300.0,0.0
1513265941073906491,,586369,,1513265939,280063616,'',0.226892802759,0.234199669422,-0.0103666658146,0.00730686666315,0.001,40.641278691,-6000.0,0.0,-300.0,0.0
1513265941083781432,,586370,,1513265939,290063616,'',0.226892802759,0.234250039982,0.00636141968656,0.00735723722253,0.001,46.0653813111,-6000.0,0.0,-300.0,0.0
1513265941093754241,,586371,,1513265939,300063616,'',0.226892802759,0.234260871451,0.00614682521337,0.00736806869214,0.001,46.0247929088,-6000.0,0.0,-300.0,0.0
1513265941103768427,,586372,,1513265939,310063616,'',0.226892802759,0.234189042414,0.007597417167,0.00729623965506,0.001,46.0614704672,-6000.0,0.0,-300.0,0.0
1513265941114231420,,586373,,1513265939,320063616,'',0.226892802759,0.234206187823,-0.0105006142237,0.00731338506392,0.001,40.7223909894,-6000.0,0.0,-300.0,0.0
1513265941124253490,,586374,,1513265939,330063616,'',0.226892802759,0.234255517563,0.00625621048729,0.00736271480363,0.001,46.0630368729,-6000.0,0.0,-300.0,0.0
1513265941134122849,,586375,,1513265939,340063616,'',0.226892802759,0.234280181731,0.00575758525636,0.00738737897179,0.001,46.0586859667,-6000.0,0.0,-300.0,0.0
1513265941144137753,,586376,,1513265939,350063616,'',0.226892802759,0.234283148959,0.00569729976231,0.00739034619928,0.001,46.0600812321,-6000.0,0.0,-300.0,0.0
1513265941153931565,,586377,,1513265939,360063616,'',0.226892802759,0.234269335218,-0.0117710842279,0.00737653245887,0.001,40.7318620957,-6000.0,0.0,-300.0,0.0
1513265941163929371,,586378,,1513265939,370063616,'',0.226892802759,0.234275193452,0.00585926046399,0.00738239069225,0.001,46.0612253747,-6000.0,0.0,-300.0,0.0
1513265941174217599,,586379,,1513265939,380063616,'',0.226892802759,0.234312506055,0.0051056070909,0.00741970329617,0.001,46.0205446169,-6000.0,0.0,-300.0,0.0
1513265941184212223,,586380,,1513265939,390063616,'',0.226892802759,0.234311172404,0.00512857586148,0.00741836964477,0.001,46.0579129038,-6000.0,0.0,-300.0,0.0
1513265941194108878,,586381,,1513265939,400063616,'',0.226892802759,0.234292214338,-0.0122394860368,0.00739941157892,0.001,40.7156008183,-6000.0,0.0,-300.0,0.0
1513265941204187666,,586382,,1513265939,410063616,'',0.226892802759,0.234279096735,0.00577548744588,0.00738629397614,0.001,46.0571075203,-6000.0,0.0,-300.0,0.0
1513265941214081134,,586383,,1513265939,420063616,'',0.226892802759,0.234270089019,0.00595734446265,0.0073772862597,0.001,46.0285324004,-6000.0,0.0,-300.0,0.0
1513265941224053408,,586384,,1513265939,430063616,'',0.226892802759,0.234196289361,-0.0103083211172,0.00730348660198,0.001,40.7135033411,-6000.0,0.0,-300.0,0.0
1513265941234008991,,586385,,1513265939,440063616,'',0.226892802759,0.234218213685,0.00699908140546,0.00732541092621,0.001,46.0148227648,-6000.0,0.0,-300.0,0.0
1513265941243976342,,586386,,1513265939,450063616,'',0.226892802759,0.234232166376,0.00671455219834,0.00733936361669,0.001,46.0729649098,-6000.0,0.0,-300.0,0.0
1513265941253840103,,586387,,1513265939,460063616,'',0.226892802759,0.234262815549,0.00610130538858,0.00737001278926,0.001,46.0619235885,-6000.0,0.0,-300.0,0.0
1513265941263786696,,586388,,1513265939,470063616,'',0.226892802759,0.234257654696,0.00620325495669,0.00736485193705,0.001,46.0193054237,-6000.0,0.0,-300.0,0.0
1513265941274220368,,586389,,1513265939,480063616,'',0.226892802759,0.234282762932,0.00570154393078,0.00738996017295,0.001,46.061765289,-6000.0,0.0,-300.0,0.0
1513265941284101011,,586390,,1513265939,490063616,'',0.226892802759,0.234286548793,0.00562271834701,0.00739374603396,0.001,46.0614001593,-6000.0,0.0,-300.0,0.0
1513265941293950170,,586391,,1513265939,500063616,'',0.226892802759,0.234225481501,0.00685867182027,0.00733267874196,0.001,46.0529102814,-6000.0,0.0,-300.0,0.0
1513265941303913656,,586392,,1513265939,510063616,'',0.226892802759,0.234287094039,0.00561484435722,0.00739429127955,0.001,46.0613475727,-6000.0,0.0,-300.0,0.0
1513265941313783953,,586393,,1513265939,520063616,'',0.226892802759,0.234287977272,-0.0121497141328,0.00739517451258,0.001,40.7791087508,-6000.0,0.0,-300.0,0.0
1513265941324232482,,586394,,1513265939,530063616,'',0.226892802759,0.234306287826,0.00522913806857,0.00741348506683,0.001,46.0598743543,-6000.0,0.0,-300.0,0.0
1513265941334155392,,586395,,1513265939,540063616,'',0.226892802759,0.234308886973,0.00517702238195,0.00741608421367,0.001,46.0562526466,-6000.0,0.0,-300.0,0.0
1513265941344181254,,586396,,1513265939,550063616,'',0.226892802759,0.234274830176,-0.0118769908915,0.00738202741699,0.001,40.710105862,-6000.0,0.0,-300.0,0.0
1513265941354108051,,586397,,1513265939,560063616,'',0.226892802759,0.234249941943,-0.011377253702,0.00735713918342,0.001,40.7230476168,-6000.0,0.0,-300.0,0.0
1513265941364103904,,586398,,1513265939,570063616,'',0.226892802759,0.234242986014,-0.0112364334648,0.00735018325508,0.001,40.7706282094,-6000.0,0.0,-300.0,0.0
1513265941373839893,,586399,,1513265939,580063616,'',0.226892802759,0.234270970397,0.00594176396547,0.00737816763822,0.001,46.0521661146,-6000.0,0.0,-300.0,0.0
1513265941384005922,,586400,,1513265939,590063616,'',0.226892802759,0.234262509185,0.00611032004298,0.00736970642604,0.001,46.0694627194,-6000.0,0.0,-300.0,0.0
1513265941394270456,,586401,,1513265939,600063616,'',0.226892802759,0.23422004863,-0.0107867736264,0.00732724587047,0.001,40.7150694728,-6000.0,0.0,-300.0,0.0
1513265941404275432,,586402,,1513265939,610063616,'',0.226892802759,0.234219859159,0.00696660576516,0.00732705639969,0.001,46.0577508206,-6000.0,0.0,-300.0,0.0
1513265941414208876,,586403,,1513265939,620063616,'',0.226892802759,0.234202884473,0.00731123997854,0.00731008171371,0.001,46.0229390296,-6000.0,0.0,-300.0,0.0
1513265941424078864,,586404,,1513265939,630063616,'',0.226892802759,0.234205289692,0.00726507825095,0.00731248693243,0.001,46.0650345043,-6000.0,0.0,-300.0,0.0
1513265941434141886,,586405,,1513265939,640063616,'',0.226892802759,0.234189819067,0.00758180639475,0.00729701630807,0.001,46.0707293178,-6000.0,0.0,-300.0,0.0
1513265941443818051,,586406,,1513265939,650063616,'',0.226892802759,0.234208906624,-0.0105584730133,0.0073161038647,0.001,40.6520425801,-6000.0,0.0,-300.0,0.0
1513265941454320263,,586407,,1513265939,660063616,'',0.226892802759,0.234241444546,-0.0112129039583,0.00734864178655,0.001,40.7471338642,-6000.0,0.0,-300.0,0.0
1513265941464177727,,586408,,1513265939,670063616,'',0.226892802759,0.234204899347,0.00726696180885,0.00731209658805,0.001,46.0761120913,-6000.0,0.0,-300.0,0.0
1513265941474137506,,586409,,1513265939,680063616,'',0.226892802759,0.234207480079,0.00721291311425,0.00731467731958,0.001,46.0585833803,-6000.0,0.0,-300.0,0.0
1513265941484088715,,586410,,1513265939,690063616,'',0.226892802759,0.234224567957,0.00687032777008,0.00733176519772,0.001,46.0594228149,-6000.0,0.0,-300.0,0.0
1513265941494041871,,586411,,1513265939,700063616,'',0.226892802759,0.234206080182,-0.0104991337041,0.00731327742256,0.001,40.7860613937,-6000.0,0.0,-300.0,0.0
1513265941503945925,,586412,,1513265939,710063616,'',0.226892802759,0.234177252844,0.00782370325527,0.00728445008493,0.001,45.9983483991,-6000.0,0.0,-300.0,0.0
1513265941513821821,,586413,,1513265939,720063616,'',0.226892802759,0.234120392917,0.00897561086699,0.00722759015754,0.001,46.077425166,-6000.0,0.0,-300.0,0.0
1513265941524220588,,586414,,1513265939,730063616,'',0.226892802759,0.234138170314,0.00863134300046,0.00724536755495,0.001,46.0782039123,-6000.0,0.0,-300.0,0.0
1513265941534203552,,586415,,1513265939,740063616,'',0.226892802759,0.234167377302,-0.00970346202258,0.00727457454303,0.001,40.790683557,-6000.0,0.0,-300.0,0.0
1513265941544155541,,586416,,1513265939,750063616,'',0.226892802759,0.234207581665,0.00723886332855,0.00731477890552,0.001,46.073714358,-6000.0,0.0,-300.0,0.0
1513265941554072433,,586417,,1513265939,760063616,'',0.226892802759,0.23420720397,-0.0105102921305,0.00731440121025,0.001,40.7261090976,-6000.0,0.0,-300.0,0.0
1513265941564050357,,586418,,1513265939,770063616,'',0.226892802759,0.234207452592,0.0072302340682,0.00731464983226,0.001,46.0601516774,-6000.0,0.0,-300.0,0.0
1513265941574059138,,586419,,1513265939,780063616,'',0.226892802759,0.234209272072,-0.0105588788962,0.00731646931243,0.001,40.7961113896,-6000.0,0.0,-300.0,0.0
1513265941584012462,,586420,,1513265939,790063616,'',0.226892802759,0.234273831154,0.0058855541939,0.0073810283948,0.001,46.0630520315,-6000.0,0.0,-300.0,0.0
1513265941594114571,,586421,,1513265939,800063616,'',0.226892802759,0.234294968469,0.0054594110558,0.00740216571005,0.001,46.0258830114,-6000.0,0.0,-300.0,0.0
1513265941603996409,,586422,,1513265939,810063616,'',0.226892802759,0.234299271747,0.00536897187939,0.00740646898814,0.001,46.060561265,-6000.0,0.0,-300.0,0.0
1513265941613934997,,586423,,1513265939,820063616,'',0.226892802759,0.234252440764,0.00630751225037,0.00735963800428,0.001,46.0610375461,-6000.0,0.0,-300.0,0.0
1513265941623757399,,586424,,1513265939,830063616,'',0.226892802759,0.234245339252,0.00644075267105,0.00735253649256,0.001,46.0635070695,-6000.0,0.0,-300.0,0.0
1513265941633775814,,586425,,1513265939,840063616,'',0.226892802759,0.234224161642,0.00687207083596,0.00733135888318,0.001,46.0654259165,-6000.0,0.0,-300.0,0.0
1513265941644270525,,586426,,1513265939,850063616,'',0.226892802759,0.234156579918,-0.00950681096724,0.00726377715867,0.001,40.7146477617,-6000.0,0.0,-300.0,0.0
1513265941654134096,,586427,,1513265939,860063616,'',0.226892802759,0.234086968741,-0.00810223711086,0.00719416598177,0.001,40.8293217724,-6000.0,0.0,-300.0,0.0
1513265941664165882,,586428,,1513265939,870063616,'',0.226892802759,0.234044409609,-0.00724316136919,0.00715160684958,0.001,40.7570852313,-6000.0,0.0,-300.0,0.0
1513265941674138772,,586429,,1513265939,880063616,'',0.226892802759,0.233979703743,-0.00593294365321,0.00708690098366,0.001,40.7351358619,-6000.0,0.0,-300.0,0.0
1513265941684106908,,586430,,1513265939,890063616,'',0.226892802759,0.233942346757,-0.00517558407969,0.00704954399777,0.001,40.7730596322,-6000.0,0.0,-300.0,0.0
1513265941694036856,,586431,,1513265939,900063616,'',0.226892802759,0.233913221247,-0.00458157606739,0.00702041848758,0.001,40.7716280212,-6000.0,0.0,-300.0,0.0
1513265941703890390,,586432,,1513265939,910063616,'',0.226892802759,0.233872141714,-0.00375070235219,0.00697933895492,0.001,40.7452390833,-6000.0,0.0,-300.0,0.0
1513265941713982046,,586433,,1513265939,920063616,'',0.226892802759,0.233838506208,-0.00307039134465,0.00694570344841,0.001,40.7514125197,-6000.0,0.0,-300.0,0.0
1513265941723967842,,586434,,1513265939,930063616,'',0.226892802759,0.233810973957,-0.00251352465147,0.00691817119761,0.001,40.7497766085,-6000.0,0.0,-300.0,0.0
1513265941733860409,,586435,,1513265939,940063616,'',0.226892802759,0.233788479778,-0.00205855789429,0.00689567701899,0.001,40.7666485127,-6000.0,0.0,-300.0,0.0
1513265941743914686,,586436,,1513265939,950063616,'',0.226892802759,0.233785256443,-0.00198913346389,0.00689245368349,0.001,40.7550402182,-6000.0,0.0,-300.0,0.0
1513265941754334489,,586437,,1513265939,960063616,'',0.226892802759,0.233767370769,-0.00162814576575,0.00687456801002,0.001,40.7546724866,-6000.0,0.0,-300.0,0.0
1513265941764176794,,586438,,1513265939,970063616,'',0.226892802759,0.23375274925,-0.00133303869259,0.0068599464903,0.001,40.7570246289,-6000.0,0.0,-300.0,0.0
1513265941774103731,,586439,,1513265939,980063616,'',0.226892802759,0.233740796242,-0.00109179036894,0.00684799348259,0.001,40.7657554051,-6000.0,0.0,-300.0,0.0
1513265941784095163,,586440,,1513265939,990063616,'',0.226892802759,0.233713485617,-0.0182886376163,0.0068206828582,0.001,35.4036319056,-6000.0,0.0,-300.0,0.0
1513265941793978971,,586441,,1513265940,63616,'',0.226892802759,0.233708628355,-0.000442437985964,0.00681582559534,0.001,40.7641915833,-6000.0,0.0,-300.0,0.0
1513265941803965165,,586442,,1513265940,10063616,'',0.226892802759,0.233704653074,-0.000362223837603,0.00681185031504,0.001,40.7617680985,-6000.0,0.0,-300.0,0.0
1513265941813840306,,586443,,1513265940,20063616,'',0.226892802759,0.233701397883,-0.000296539813614,0.00680859512362,0.001,40.7621488404,-6000.0,0.0,-300.0,0.0
1513265941823937724,,586444,,1513265940,30063616,'',0.226892802759,0.233698732973,-0.000242766631926,0.00680593021382,0.001,40.7622869431,-6000.0,0.0,-300.0,0.0
1513265941833911415,,586445,,1513265940,40063616,'',0.226892802759,0.233663322999,0.000472918862328,0.00677052023925,0.001,40.76220377,-6000.0,0.0,-300.0,0.0
1513265941844384602,,586446,,1513265940,50063616,'',0.226892802759,0.233667565518,0.000387099142398,0.00677476275861,0.001,40.7665531335,-6000.0,0.0,-300.0,0.0
1513265941854128936,,586447,,1513265940,60063616,'',0.226892802759,0.233671032179,0.00031697386276,0.00677822941938,0.001,40.764745787,-6000.0,0.0,-300.0,0.0
1513265941864077549,,586448,,1513265940,70063616,'',0.226892802759,0.233641585024,0.00090900533479,0.00674878226477,0.001,40.7674825274,-6000.0,0.0,-300.0,0.0
1513265941873854787,,586449,,1513265940,80063616,'',0.226892802759,0.233649764193,0.000744213022841,0.00675696143334,0.001,40.7654476084,-6000.0,0.0,-300.0,0.0
1513265941884248049,,586450,,1513265940,90063616,'',0.226892802759,0.233622571959,0.00129478578681,0.00672976920022,0.001,40.770422102,-6000.0,0.0,-300.0,0.0
1513265941894167280,,586451,,1513265940,100063616,'',0.226892802759,0.233586690235,0.00201348025112,0.00669388747552,0.001,40.7724563988,-6000.0,0.0,-300.0,0.0
1513265941904535001,,586452,,1513265940,110063616,'',0.226892802759,0.233573271423,0.00229038477153,0.00668046866354,0.001,40.7584442628,-6000.0,0.0,-300.0,0.0
1513265941914038657,,586453,,1513265940,120063616,'',0.226892802759,0.233561521966,-0.01522024723,0.00666871920662,0.001,35.4284058439,-6000.0,0.0,-300.0,0.0
1513265941923938046,,586454,,1513265940,130063616,'',0.226892802759,0.233502503958,-0.0140208215255,0.00660970119906,0.001,35.4374622467,-6000.0,0.0,-300.0,0.0
1513265941933955075,,586455,,1513265940,140063616,'',0.226892802759,0.233490668605,0.00397538489553,0.0065978658458,0.001,40.7825872866,-6000.0,0.0,-300.0,0.0
1513265941944328385,,586456,,1513265940,150063616,'',0.226892802759,0.233384003862,-0.0116219516486,0.00649120110265,0.001,35.4291660342,-6000.0,0.0,-300.0,0.0
1513265941954261640,,586457,,1513265940,160063616,'',0.226892802759,0.233363241398,0.00654034611424,0.00647043863891,0.001,40.7908140921,-6000.0,0.0,-300.0,0.0
1513265941964189773,,586458,,1513265940,170063616,'',0.226892802759,0.233294567496,-0.00981404511286,0.00640176473672,0.001,35.5134929714,-6000.0,0.0,-300.0,0.0
1513265941974181211,,586459,,1513265940,180063616,'',0.226892802759,0.233271304399,0.00840634935478,0.00637850164002,0.001,40.7198151053,-6000.0,0.0,-300.0,0.0
1513265941984185087,,586460,,1513265940,190063616,'',0.226892802759,0.233219761045,-0.00830869460759,0.00632695828537,0.001,35.4573766408,-6000.0,0.0,-300.0,0.0
1513265941994120569,,586461,,1513265940,200063616,'',0.226892802759,0.233207531921,-0.00806296594396,0.00631472916127,0.001,35.4636589558,-6000.0,0.0,-300.0,0.0
1513265942004087235,,586462,,1513265940,210063616,'',0.226892802759,0.233230005267,-0.00851817291177,0.00633720250816,0.001,35.4558925805,-6000.0,0.0,-300.0,0.0
1513265942014137029,,586463,,1513265940,220063616,'',0.226892802759,0.233185840819,0.0101181818898,0.00629303805976,0.001,40.7415359607,-6000.0,0.0,-300.0,0.0
1513265942023990271,,586464,,1513265940,230063616,'',0.226892802759,0.233151659435,0.0108047777104,0.00625885667526,0.001,40.8157780493,-6000.0,0.0,-300.0,0.0
1513265942033997196,,586465,,1513265940,240063616,'',0.226892802759,0.23312282361,-0.00635388929953,0.00623002085066,0.001,35.4577867244,-6000.0,0.0,-300.0,0.0
1513265942043823045,,586466,,1513265940,250063616,'',0.226892802759,0.233064310759,-0.00517548632148,0.00617150799947,0.001,35.4686848692,-6000.0,0.0,-300.0,0.0
1513265942054319210,,586467,,1513265940,260063616,'',0.226892802759,0.233067947976,0.0125024247683,0.00617514521639,0.001,40.7589599206,-6000.0,0.0,-300.0,0.0
1513265942064257255,,586468,,1513265940,270063616,'',0.226892802759,0.233034060644,-0.0223130337344,0.00614125788512,0.001,30.1146226801,-6000.0,0.0,-300.0,0.0
1513265942074109665,,586469,,1513265940,280063616,'',0.226892802759,0.233056445761,0.0127331877734,0.00616364300181,0.001,40.8205004456,-6000.0,0.0,-300.0,0.0
1513265942084074337,,586470,,1513265940,290063616,'',0.226892802759,0.233058817717,-0.00506690360715,0.00616601495744,0.001,35.4677273013,-6000.0,0.0,-300.0,0.0
1513265942094086137,,586471,,1513265940,300063616,'',0.226892802759,0.233030126362,-0.00448801134667,0.00613732360254,0.001,35.498066483,-6000.0,0.0,-300.0,0.0
1513265942104015674,,586472,,1513265940,310063616,'',0.226892802759,0.2330372791,-0.00463273525919,0.00614447634113,0.001,35.471507973,-6000.0,0.0,-300.0,0.0
1513265942114104023,,586473,,1513265940,320063616,'',0.226892802759,0.232995716608,-0.00379227634673,0.0061029138489,0.001,35.5072900474,-6000.0,0.0,-300.0,0.0
1513265942123969450,,586474,,1513265940,330063616,'',0.226892802759,0.232993048426,-0.00372988510364,0.00610024566638,0.001,35.4752457718,-6000.0,0.0,-300.0,0.0
1513265942134022776,,586475,,1513265940,340063616,'',0.226892802759,0.23295951087,-0.00305323350262,0.00606670811097,0.001,35.4767873133,-6000.0,0.0,-300.0,0.0
1513265942143965730,,586476,,1513265940,350063616,'',0.226892802759,0.232965207086,0.0145812973554,0.00607240432664,0.001,40.7445385753,-6000.0,0.0,-300.0,0.0
1513265942154326044,,586477,,1513265940,360063616,'',0.226892802759,0.232952214799,-0.00291347394763,0.00605941203924,0.001,35.4993924926,-6000.0,0.0,-300.0,0.0
1513265942163979829,,586478,,1513265940,370063616,'',0.226892802759,0.232941150256,-0.00268043604745,0.00604834749689,0.001,35.4800238758,-6000.0,0.0,-300.0,0.0
1513265942174495488,,586479,,1513265940,380063616,'',0.226892802759,0.232963872476,-0.00313084644854,0.00607106971678,0.001,35.4779319113,-6000.0,0.0,-300.0,0.0
1513265942184348658,,586480,,1513265940,390063616,'',0.226892802759,0.232998967772,-0.00384598001069,0.00610616501258,0.001,35.4760931079,-6000.0,0.0,-300.0,0.0
1513265942194281430,,586481,,1513265940,400063616,'',0.226892802759,0.232964362325,-0.00314838732262,0.00607155956547,0.001,35.5143460163,-6000.0,0.0,-300.0,0.0
1513265942204188751,,586482,,1513265940,410063616,'',0.226892802759,0.232936105042,-0.00257876388834,0.00604330228301,0.001,35.5025143974,-6000.0,0.0,-300.0,0.0
1513265942214243846,,586483,,1513265940,420063616,'',0.226892802759,0.232912899285,-0.00211097144109,0.00602009652546,0.001,35.4820134754,-6000.0,0.0,-300.0,0.0
1513265942224062131,,586484,,1513265940,430063616,'',0.226892802759,0.232893908408,-0.00172814451469,0.00600110564843,0.001,35.4828717414,-6000.0,0.0,-300.0,0.0
1513265942233952748,,586485,,1513265940,440063616,'',0.226892802759,0.232878365897,-0.00141483136146,0.00598556313783,0.001,35.4863164313,-6000.0,0.0,-300.0,0.0
1513265942244399710,,586486,,1513265940,450063616,'',0.226892802759,0.232865637687,-0.00115825018232,0.00597283492755,0.001,35.4899110222,-6000.0,0.0,-300.0,0.0
1513265942254288350,,586487,,1513265940,460063616,'',0.226892802759,0.232855239288,-0.000948634425171,0.00596243652871,0.001,35.4945943632,-6000.0,0.0,-300.0,0.0
1513265942264184375,,586488,,1513265940,470063616,'',0.226892802759,0.232861527993,-0.00107665545799,0.00596872523332,0.001,35.4861085797,-6000.0,0.0,-300.0,0.0
1513265942274104055,,586489,,1513265940,480063616,'',0.226892802759,0.232834080968,-0.000516630399844,0.00594127820851,0.001,35.4907130456,-6000.0,0.0,-300.0,0.0
1513265942284166059,,586490,,1513265940,490063616,'',0.226892802759,0.232797271236,-0.0175262283672,0.00590446847701,0.001,30.1374599816,-6000.0,0.0,-300.0,0.0
1513265942294106654,,586491,,1513265940,500063616,'',0.226892802759,0.232816109567,-0.000158386195361,0.00592330680807,0.001,35.4917790075,-6000.0,0.0,-300.0,0.0
1513265942304236964,,586492,,1513265940,510063616,'',0.226892802759,0.232798224672,0.000203281191753,0.00590542191293,0.001,35.493240717,-6000.0,0.0,-300.0,0.0
1513265942314251240,,586493,,1513265940,520063616,'',0.226892802759,0.232800030314,0.000166412756323,0.00590722755486,0.001,35.4929092945,-6000.0,0.0,-300.0,0.0
1513265942324452765,,586494,,1513265940,530063616,'',0.226892802759,0.232801508059,0.000136239471791,0.00590870529991,0.001,35.4928705624,-6000.0,0.0,-300.0,0.0
1513265942334278940,,586495,,1513265940,540063616,'',0.226892802759,0.232787265897,0.000421318931147,0.00589446313767,0.001,35.4913532421,-6000.0,0.0,-300.0,0.0
1513265942344023703,,586496,,1513265940,550063616,'',0.226892802759,0.23279008847,0.000363827360603,0.00589728571035,0.001,35.4940108868,-6000.0,0.0,-300.0,0.0
1513265942354247835,,586497,,1513265940,560063616,'',0.226892802759,0.232776920157,0.000627319329686,0.00588411739781,0.001,35.4953265399,-6000.0,0.0,-300.0,0.0
1513265942364142609,,586498,,1513265940,570063616,'',0.226892802759,0.232751803364,0.00113114500409,0.00585900060508,0.001,35.4977033176,-6000.0,0.0,-300.0,0.0
1513265942374626139,,586499,,1513265940,580063616,'',0.226892802759,0.232747595384,0.00122203696612,0.0058547926244,0.001,35.4989050353,-6000.0,0.0,-300.0,0.0
1513265942384418901,,586500,,1513265940,590063616,'',0.226892802759,0.232758555814,0.00100095845372,0.00586575305463,0.001,35.4891591274,-6000.0,0.0,-300.0,0.0
1513265942394436020,,586501,,1513265940,600063616,'',0.226892802759,0.232750695111,0.0011517297663,0.0058578923522,0.001,35.4982297313,-6000.0,0.0,-300.0,0.0
1513265942404526621,,586502,,1513265940,610063616,'',0.226892802759,0.232761119013,0.000942884822423,0.00586831625329,0.001,35.4968048641,-6000.0,0.0,-300.0,0.0
1513265942414471078,,586503,,1513265940,620063616,'',0.226892802759,0.232720386079,-0.015981568827,0.00582758331953,0.001,30.1298710544,-6000.0,0.0,-300.0,0.0
1513265942424574245,,586504,,1513265940,630063616,'',0.226892802759,0.232721685441,0.00173795644707,0.0058288826817,0.001,35.4985881927,-6000.0,0.0,-300.0,0.0
1513265942434477397,,586505,,1513265940,640063616,'',0.226892802759,0.232737340329,0.00142340048327,0.00584453756951,0.001,35.4891743833,-6000.0,0.0,-300.0,0.0
1513265942444493485,,586506,,1513265940,650063616,'',0.226892802759,0.232720150147,0.00177580245705,0.00582734738764,0.001,35.5008846195,-6000.0,0.0,-300.0,0.0
1513265942453960850,,586507,,1513265940,660063616,'',0.226892802759,0.232687408041,0.00243906265055,0.00579460528202,0.001,35.4951011578,-6000.0,0.0,-300.0,0.0
1513265942463955892,,586508,,1513265940,670063616,'',0.226892802759,0.232694461377,0.00229183868899,0.00580165861802,0.001,35.5045615843,-6000.0,0.0,-300.0,0.0
1513265942474010796,,586509,,1513265940,680063616,'',0.226892802759,0.232681792503,-0.0151969569637,0.00578898974383,0.001,30.167259247,-6000.0,0.0,-300.0,0.0
1513265942483996294,,586510,,1513265940,690063616,'',0.226892802759,0.232672702753,0.00273261027884,0.00577989999401,0.001,35.5061231956,-6000.0,0.0,-300.0,0.0
1513265942494004699,,586511,,1513265940,700063616,'',0.226892802759,0.232646562392,-0.014482758196,0.00575375963313,0.001,30.1561806657,-6000.0,0.0,-300.0,0.0
1513265942503996068,,586512,,1513265940,710063616,'',0.226892802759,0.232692217398,0.00234568050159,0.00579941463887,0.001,35.502096089,-6000.0,0.0,-300.0,0.0
1513265942514006833,,586513,,1513265940,720063616,'',0.226892802759,0.23267858664,-0.0151282012931,0.00578578388028,0.001,30.1532790336,-6000.0,0.0,-300.0,0.0
1513265942524462346,,586514,,1513265940,730063616,'',0.226892802759,0.232639694978,0.00340888986781,0.00574689221835,0.001,35.5043352397,-6000.0,0.0,-300.0,0.0
1513265942534276851,,586515,,1513265940,740063616,'',0.226892802759,0.232638301677,0.00343723098519,0.00574549891752,0.001,35.5088980108,-6000.0,0.0,-300.0,0.0
1513265942544287653,,586516,,1513265940,750063616,'',0.226892802759,0.232620502037,0.00379416099029,0.0057276992779,0.001,35.5114624938,-6000.0,0.0,-300.0,0.0
1513265942554207901,,586517,,1513265940,760063616,'',0.226892802759,0.232604143888,-0.0136248332554,0.00571134112859,0.001,30.1728215077,-6000.0,0.0,-300.0,0.0
1513265942563957395,,586518,,1513265940,770063616,'',0.226892802759,0.232624343378,0.00371593677878,0.00573154061885,0.001,35.5046300277,-6000.0,0.0,-300.0,0.0
1513265942574008811,,586519,,1513265940,780063616,'',0.226892802759,0.232642927535,0.00333585659781,0.00575012477602,0.001,35.4869827608,-6000.0,0.0,-300.0,0.0
1513265942584368704,,586520,,1513265940,790063616,'',0.226892802759,0.232624883507,0.00370310427652,0.00573208074809,0.001,35.509944182,-6000.0,0.0,-300.0,0.0
1513265942594374543,,586521,,1513265940,800063616,'',0.226892802759,0.232611398068,0.00397598850284,0.00571859530873,0.001,35.504064724,-6000.0,0.0,-300.0,0.0
1513265942604384142,,586522,,1513265940,810063616,'',0.226892802759,0.232601614008,0.00417039687223,0.0057088112488,0.001,35.5073645988,-6000.0,0.0,-300.0,0.0
1513265942614377202,,586523,,1513265940,820063616,'',0.226892802759,0.232609814601,0.00400467030234,0.00571701184178,0.001,35.48592412,-6000.0,0.0,-300.0,0.0
1513265942624351419,,586524,,1513265940,830063616,'',0.226892802759,0.232582726623,-0.0131930973553,0.00568992386396,0.001,30.1133461918,-6000.0,0.0,-300.0,0.0
1513265942634075762,,586525,,1513265940,840063616,'',0.226892802759,0.2325447129,-0.0124147670032,0.00565191014117,0.001,30.2479796548,-6000.0,0.0,-300.0,0.0
1513265942643930395,,586526,,1513265940,850063616,'',0.226892802759,0.232576877033,0.00467961708576,0.00568407427344,0.001,35.4976958999,-6000.0,0.0,-300.0,0.0
1513265942653861136,,586527,,1513265940,860063616,'',0.226892802759,0.232540110927,0.00542879044547,0.00564730816772,0.001,35.5165550639,-6000.0,0.0,-300.0,0.0
1513265942664392936,,586528,,1513265940,870063616,'',0.226892802759,0.232527261453,0.00568540796589,0.00563445869403,0.001,35.4853341304,-6000.0,0.0,-300.0,0.0
1513265942674425606,,586529,,1513265940,880063616,'',0.226892802759,0.232451606563,0.0072152145449,0.00555880380365,0.001,35.5224924748,-6000.0,0.0,-300.0,0.0
1513265942684478395,,586530,,1513265940,890063616,'',0.226892802759,0.232452285681,-0.0105456226906,0.00555948292131,0.001,30.1577639253,-6000.0,0.0,-300.0,0.0
1513265942694246370,,586531,,1513265940,900063616,'',0.226892802759,0.232387590915,-0.00924483164286,0.00549478815534,0.001,30.1796453852,-6000.0,0.0,-300.0,0.0
1513265942704402247,,586532,,1513265940,910063616,'',0.226892802759,0.232304499784,-0.0075673693919,0.00541169702432,0.001,30.2402305084,-6000.0,0.0,-300.0,0.0
1513265942714272796,,586533,,1513265940,920063616,'',0.226892802759,0.232299253643,-0.00747200262594,0.00540645088391,0.001,30.2124610598,-6000.0,0.0,-300.0,0.0
1513265942724447390,,586534,,1513265940,930063616,'',0.226892802759,0.232263274353,-0.00674342899188,0.00537047159413,0.001,30.2439709096,-6000.0,0.0,-300.0,0.0
1513265942734346547,,586535,,1513265940,940063616,'',0.226892802759,0.232217509316,-0.00581551797865,0.0053247065567,0.001,30.2303401348,-6000.0,0.0,-300.0,0.0
1513265942744098323,,586536,,1513265940,950063616,'',0.226892802759,0.232196986613,-0.005398001885,0.00530418385356,0.001,30.1953548049,-6000.0,0.0,-300.0,0.0
1513265942754386237,,586537,,1513265940,960063616,'',0.226892802759,0.232179271313,-0.00503670229188,0.00528646855387,0.001,30.2123636768,-6000.0,0.0,-300.0,0.0
1513265942764396857,,586538,,1513265940,970063616,'',0.226892802759,0.232116952966,-0.00378265040747,0.00522415020685,0.001,30.2293112942,-6000.0,0.0,-300.0,0.0
1513265942774316848,,586539,,1513265940,980063616,'',0.226892802759,0.23210053581,0.0142978726462,0.00520773305049,0.001,35.5780746387,-6000.0,0.0,-300.0,0.0
1513265942784318671,,586540,,1513265940,990063616,'',0.226892802759,0.232069558456,-0.00282527835932,0.00517675569674,0.001,30.2084614636,-6000.0,0.0,-300.0,0.0
1513265942794098586,,586541,,1513265941,63616,'',0.226892802759,0.231945789016,-0.0180710416331,0.00505298625698,0.001,24.8689467716,-6000.0,0.0,-300.0,0.0
1513265942804230049,,586542,,1513265941,10063616,'',0.226892802759,0.231817791803,-0.0154824202684,0.00492498904348,0.001,24.9655708057,-6000.0,0.0,-300.0,0.0
1513265942814045438,,586543,,1513265941,20063616,'',0.226892802759,0.23172736114,0.00408774289549,0.00483455838056,0.001,30.2394670557,-6000.0,0.0,-300.0,0.0
1513265942823988396,,586544,,1513265941,30063616,'',0.226892802759,0.231686376187,-0.0128330274249,0.00479357342734,0.001,24.8803979633,-6000.0,0.0,-300.0,0.0
1513265942834067614,,586545,,1513265941,40063616,'',0.226892802759,0.231683589956,-0.0127798591923,0.00479078719676,0.001,24.9120880267,-6000.0,0.0,-300.0,0.0
1513265942843940704,,586546,,1513265941,50063616,'',0.226892802759,0.231663394314,0.00536897593006,0.00477059155431,0.001,30.2095170222,-6000.0,0.0,-300.0,0.0
1513265942853989532,,586547,,1513265941,60063616,'',0.226892802759,0.23169585845,0.00471466908582,0.00480305569066,0.001,30.2395915274,-6000.0,0.0,-300.0,0.0
1513265942864518963,,586548,,1513265941,70063616,'',0.226892802759,0.231688106934,-0.0128759317749,0.00479530417436,0.001,24.8997320488,-6000.0,0.0,-300.0,0.0
1513265942874674291,,586549,,1513265941,80063616,'',0.226892802759,0.231634646233,-0.0117899253618,0.00474184347327,0.001,24.9218350931,-6000.0,0.0,-300.0,0.0
1513265942884472267,,586550,,1513265941,90063616,'',0.226892802759,0.231578422098,0.00709080881049,0.00468561933867,0.001,30.2468104143,-6000.0,0.0,-300.0,0.0
1513265942894491133,,586551,,1513265941,100063616,'',0.226892802759,0.23151423293,-0.00935638089236,0.00462143017057,0.001,24.9107525497,-6000.0,0.0,-300.0,0.0
1513265942904333559,,586552,,1513265941,110063616,'',0.226892802759,0.231462320563,-0.00830592366738,0.00456951780335,0.001,24.9229545965,-6000.0,0.0,-300.0,0.0
1513265942914600284,,586553,,1513265941,120063616,'',0.226892802759,0.231417306824,-0.00739244859776,0.00452450406447,0.001,24.9098831591,-6000.0,0.0,-300.0,0.0
1513265942924470925,,586554,,1513265941,130063616,'',0.226892802759,0.231367154513,-0.00638016138798,0.00447435175417,0.001,24.9541180728,-6000.0,0.0,-300.0,0.0
1513265942934553874,,586555,,1513265941,140063616,'',0.226892802759,0.231309855603,-0.00522333645958,0.0044170528437,0.001,24.9265670132,-6000.0,0.0,-300.0,0.0
1513265942944660102,,586556,,1513265941,150063616,'',0.226892802759,0.231278666813,-0.00459374043346,0.00438586405347,0.001,24.9293929469,-6000.0,0.0,-300.0,0.0
1513265942954425140,,586557,,1513265941,160063616,'',0.226892802759,0.231237396145,-0.00376049931089,0.00434459338581,0.001,24.9399283282,-6000.0,0.0,-300.0,0.0
1513265942964387772,,586558,,1513265941,170063616,'',0.226892802759,0.231203688494,-0.00307995299032,0.00431088573474,0.001,24.9566664202,-6000.0,0.0,-300.0,0.0
1513265942974511256,,586559,,1513265941,180063616,'',0.226892802759,0.231160540704,-0.00221148814727,0.00426773794434,0.001,24.9346664882,-6000.0,0.0,-300.0,0.0
1513265942984186338,,586560,,1513265941,190063616,'',0.226892802759,0.231157561701,-0.00214630926167,0.00426475894181,0.001,24.9383465847,-6000.0,0.0,-300.0,0.0
1513265942994278100,,586561,,1513265941,200063616,'',0.226892802759,0.231138259907,-0.00175704027054,0.00424545714733,0.001,24.9426234788,-6000.0,0.0,-300.0,0.0
1513265943003871670,,586562,,1513265941,210063616,'',0.226892802759,0.231105330792,-0.00109637785867,0.00421252803289,0.001,24.9523738792,-6000.0,0.0,-300.0,0.0
1513265943014343349,,586563,,1513265941,220063616,'',0.226892802759,0.231095501098,-0.000897514324417,0.00420269833893,0.001,24.947025083,-6000.0,0.0,-300.0,0.0
1513265943024425193,,586564,,1513265941,230063616,'',0.226892802759,0.231118276446,-0.00135827084577,0.00422547368657,0.001,24.9439254931,-6000.0,0.0,-300.0,0.0
1513265943034468419,,586565,,1513265941,240063616,'',0.226892802759,0.231090360767,-0.000796512025786,0.0041975580073,0.001,24.9524644347,-6000.0,0.0,-300.0,0.0
1513265943044402360,,586566,,1513265941,250063616,'',0.226892802759,0.231066454643,-0.000309380243402,0.004173651884,0.001,24.9486209293,-6000.0,0.0,-300.0,0.0
1513265943054468421,,586567,,1513265941,260063616,'',0.226892802759,0.231047520339,7.29339184376e-05,0.00415471757947,0.001,24.9502467682,-6000.0,0.0,-300.0,0.0
1513265943064528290,,586568,,1513265941,270063616,'',0.226892802759,0.231017320849,0.000678585975355,0.00412451808973,0.001,24.9528753849,-6000.0,0.0,-300.0,0.0
1513265943074270648,,586569,,1513265941,280063616,'',0.226892802759,0.231007271507,0.000881934837921,0.00411446874789,0.001,24.9470064608,-6000.0,0.0,-300.0,0.0
1513265943084211052,,586570,,1513265941,290063616,'',0.226892802759,0.231015226662,0.000721995012723,0.00412242390241,0.001,24.9532625609,-6000.0,0.0,-300.0,0.0
1513265943094431094,,586571,,1513265941,300063616,'',0.226892802759,0.231005921877,0.000910298809207,0.00411311911766,0.001,24.9541056428,-6000.0,0.0,-300.0,0.0
1513265943104304164,,586572,,1513265941,310063616,'',0.226892802759,0.230996641628,-0.0166498332843,0.00410383886835,0.001,19.6042173887,-6000.0,0.0,-300.0,0.0
1513265943114296726,,586573,,1513265941,320063616,'',0.226892802759,0.230989722415,0.00124074681649,0.00409691965607,0.001,24.9446406926,-6000.0,0.0,-300.0,0.0
1513265943124254241,,586574,,1513265941,330063616,'',0.226892802759,0.230968133497,-0.0160757407568,0.00407533073776,0.001,19.6021559891,-6000.0,0.0,-300.0,0.0
1513265943134267334,,586575,,1513265941,340063616,'',0.226892802759,0.230967369669,0.00168993153069,0.00407456690947,0.001,24.9566206651,-6000.0,0.0,-300.0,0.0
1513265943144131347,,586576,,1513265941,350063616,'',0.226892802759,0.230965174495,0.00173650654273,0.00407237173539,0.001,24.9604326089,-6000.0,0.0,-300.0,0.0
1513265943154131832,,586577,,1513265941,360063616,'',0.226892802759,0.230980761303,0.00142164345612,0.00408795854351,0.001,24.9529959511,-6000.0,0.0,-300.0,0.0
1513265943164142403,,586578,,1513265941,370063616,'',0.226892802759,0.230962482916,0.00179309143764,0.00406968015667,0.001,24.9570063821,-6000.0,0.0,-300.0,0.0
1513265943174196361,,586579,,1513265941,380063616,'',0.226892802759,0.230978564682,0.00146782839731,0.00408576192283,0.001,24.9575377423,-6000.0,0.0,-300.0,0.0
1513265943184456037,,586580,,1513265941,390063616,'',0.226892802759,0.230959156346,0.00186299720705,0.00406635358643,0.001,24.9622365069,-6000.0,0.0,-300.0,0.0
1513265943194480016,,586581,,1513265941,400063616,'',0.226892802759,0.230958990809,0.0018695758462,0.00406618804933,0.001,24.9611824397,-6000.0,0.0,-300.0,0.0
1513265943204432443,,586582,,1513265941,410063616,'',0.226892802759,0.23096050949,0.00184054344474,0.00406770673041,0.001,24.9583526158,-6000.0,0.0,-300.0,0.0
1513265943214398481,,586583,,1513265941,420063616,'',0.226892802759,0.230961462405,0.00181984103726,0.00406865964564,0.001,24.9598355646,-6000.0,0.0,-300.0,0.0
1513265943224354129,,586584,,1513265941,430063616,'',0.226892802759,0.230977720888,0.00148989617077,0.00408491812899,0.001,24.9558036315,-6000.0,0.0,-300.0,0.0
1513265943234320958,,586585,,1513265941,440063616,'',0.226892802759,0.230976305257,0.00151258303537,0.00408350249771,0.001,24.9467429282,-6000.0,0.0,-300.0,0.0
1513265943244148171,,586586,,1513265941,450063616,'',0.226892802759,0.231004549109,0.000943605353872,0.00411174635003,0.001,24.953414069,-6000.0,0.0,-300.0,0.0
1513265943254020791,,586587,,1513265941,460063616,'',0.226892802759,0.230995501411,-0.0166224021019,0.00410269865214,0.001,19.5995164737,-6000.0,0.0,-300.0,0.0
1513265943264145394,,586588,,1513265941,470063616,'',0.226892802759,0.230990929222,0.00121484913815,0.00409812646274,0.001,24.9559034793,-6000.0,0.0,-300.0,0.0
1513265943274398257,,586589,,1513265941,480063616,'',0.226892802759,0.230986320909,0.00131046651078,0.00409351814968,0.001,24.9555032247,-6000.0,0.0,-300.0,0.0
1513265943284235402,,586590,,1513265941,490063616,'',0.226892802759,0.230950869513,0.00202152547454,0.00405806675377,0.001,24.9602645867,-6000.0,0.0,-300.0,0.0
1513265943294367500,,586591,,1513265941,500063616,'',0.226892802759,0.230907623178,0.00288895630677,0.00401482041887,0.001,24.9604986961,-6000.0,0.0,-300.0,0.0
1513265943304090348,,586592,,1513265941,510063616,'',0.226892802759,0.230933649664,0.00236504099371,0.00404084690433,0.001,24.9520810642,-6000.0,0.0,-300.0,0.0
1513265943313955532,,586593,,1513265941,520063616,'',0.226892802759,0.230921776366,-0.0151364277314,0.00402897360677,0.001,19.7301546839,-6000.0,0.0,-300.0,0.0
1513265943324538502,,586594,,1513265941,530063616,'',0.226892802759,0.23091549574,0.0027369184116,0.00402269298027,0.001,24.9638827579,-6000.0,0.0,-300.0,0.0
1513265943334538682,,586595,,1513265941,540063616,'',0.226892802759,0.23094116511,0.00221710825969,0.00404836235044,0.001,24.9574050088,-6000.0,0.0,-300.0,0.0
1513265943344375494,,586596,,1513265941,550063616,'',0.226892802759,0.230946206928,0.00211239508344,0.00405340416882,0.001,24.9595162561,-6000.0,0.0,-300.0,0.0
1513265943354337276,,586597,,1513265941,560063616,'',0.226892802759,0.230949462047,0.00205151888498,0.00405665928808,0.001,24.9437914546,-6000.0,0.0,-300.0,0.0
1513265943364569101,,586598,,1513265941,570063616,'',0.226892802759,0.230935878098,0.00232890935274,0.00404307533908,0.001,24.959779221,-6000.0,0.0,-300.0,0.0
1513265943374106883,,586599,,1513265941,580063616,'',0.226892802759,0.230911312208,0.0028261627682,0.00401850944864,0.001,24.9636983995,-6000.0,0.0,-300.0,0.0
1513265943384236460,,586600,,1513265941,590063616,'',0.226892802759,0.230888266479,0.0032913520451,0.00399546372001,0.001,24.9657169721,-6000.0,0.0,-300.0,0.0
1513265943394032968,,586601,,1513265941,600063616,'',0.226892802759,0.230917747362,0.00269559271335,0.00402494460248,0.001,24.9441873362,-6000.0,0.0,-300.0,0.0
1513265943404065697,,586602,,1513265941,610063616,'',0.226892802759,0.230941935733,0.00220678618527,0.00404913297358,0.001,24.9607001969,-6000.0,0.0,-300.0,0.0
1513265943414551818,,586603,,1513265941,620063616,'',0.226892802759,0.230946218767,0.00211935638867,0.00405341600818,0.001,24.9633437768,-6000.0,0.0,-300.0,0.0
1513265943424573161,,586604,,1513265941,630063616,'',0.226892802759,0.230934475871,0.00235503676497,0.00404167311205,0.001,24.9598980866,-6000.0,0.0,-300.0,0.0
1513265943434028703,,586605,,1513265941,640063616,'',0.226892802759,0.230939109786,0.00226139115518,0.00404630702695,0.001,24.9443024537,-6000.0,0.0,-300.0,0.0
1513265943444097572,,586606,,1513265941,650063616,'',0.226892802759,0.230928162707,0.00247933664612,0.00403535994791,0.001,24.9408744696,-6000.0,0.0,-300.0,0.0
1513265943454483442,,586607,,1513265941,660063616,'',0.226892802759,0.230899383587,-0.014689926402,0.00400658082809,0.001,19.6087866169,-6000.0,0.0,-300.0,0.0
1513265943464616419,,586608,,1513265941,670063616,'',0.226892802759,0.230880676021,0.00343816148007,0.00398787326153,0.001,24.9602293465,-6000.0,0.0,-300.0,0.0
1513265943474654090,,586609,,1513265941,680063616,'',0.226892802759,0.230846545354,-0.0136123714523,0.00395374259471,0.001,19.7328705211,-6000.0,0.0,-300.0,0.0
1513265943484395121,,586610,,1513265941,690063616,'',0.226892802759,0.230834203709,-0.0133622624099,0.00394140094999,0.001,19.6227979118,-6000.0,0.0,-300.0,0.0
1513265943494063850,,586611,,1513265941,700063616,'',0.226892802759,0.230858389428,0.00390085573515,0.00396558666889,0.001,24.9640973487,-6000.0,0.0,-300.0,0.0
1513265943504065188,,586612,,1513265941,710063616,'',0.226892802759,0.230876155171,0.00353966672962,0.00398335241172,0.001,24.9627987936,-6000.0,0.0,-300.0,0.0
1513265943514504673,,586613,,1513265941,720063616,'',0.226892802759,0.230859745117,0.0038703117719,0.00396694235806,0.001,24.965115594,-6000.0,0.0,-300.0,0.0
1513265943524524007,,586614,,1513265941,730063616,'',0.226892802759,0.230876395861,-0.0142102480077,0.00398359310158,0.001,19.7013804262,-6000.0,0.0,-300.0,0.0
1513265943534620830,,586615,,1513265941,740063616,'',0.226892802759,0.230860923009,0.00384615837489,0.0039681202494,0.001,24.9719634794,-6000.0,0.0,-300.0,0.0
1513265943544489661,,586616,,1513265941,750063616,'',0.226892802759,0.23088082489,0.0034433363652,0.00398802213082,0.001,24.9624574689,-6000.0,0.0,-300.0,0.0
1513265943554393929,,586617,,1513265941,760063616,'',0.226892802759,0.230894279678,-0.0145766466002,0.00400147691827,0.001,19.626131453,-6000.0,0.0,-300.0,0.0
1513265943564621068,,586618,,1513265941,770063616,'',0.226892802759,0.230889725548,-0.0144846297937,0.00399692278856,0.001,19.6139047714,-6000.0,0.0,-300.0,0.0
1513265943574495492,,586619,,1513265941,780063616,'',0.226892802759,0.230871338929,0.00362737183502,0.00397853617014,0.001,24.9686617296,-6000.0,0.0,-300.0,0.0
1513265943584314666,,586620,,1513265941,790063616,'',0.226892802759,0.230871086772,0.00363847931694,0.00397828401289,0.001,24.9728929308,-6000.0,0.0,-300.0,0.0
1513265943594294881,,586621,,1513265941,800063616,'',0.226892802759,0.230856288258,0.00393820777388,0.003963485499,0.001,24.9605541469,-6000.0,0.0,-300.0,0.0
1513265943604341525,,586622,,1513265941,810063616,'',0.226892802759,0.230845119219,0.00416309100988,0.00395231645985,0.001,24.9698783364,-6000.0,0.0,-300.0,0.0
1513265943614219175,,586623,,1513265941,820063616,'',0.226892802759,0.230882494535,0.00340783374891,0.00398969177621,0.001,24.9704583405,-6000.0,0.0,-300.0,0.0
1513265943624155542,,586624,,1513265941,830063616,'',0.226892802759,0.230834660186,0.00438190007067,0.00394185742695,0.001,24.972466915,-6000.0,0.0,-300.0,0.0
1513265943634115047,,586625,,1513265941,840063616,'',0.226892802759,0.230825428409,0.00457038004261,0.0039326256502,0.001,24.9625536991,-6000.0,0.0,-300.0,0.0
1513265943644264179,,586626,,1513265941,850063616,'',0.226892802759,0.230784298412,-0.0123525885244,0.00389149565268,0.001,19.6270283435,-6000.0,0.0,-300.0,0.0
1513265943654047915,,586627,,1513265941,860063616,'',0.226892802759,0.230801315717,0.00505384332761,0.00390851295805,0.001,24.9620709725,-6000.0,0.0,-300.0,0.0
1513265943664184281,,586628,,1513265941,870063616,'',0.226892802759,0.230797525786,-0.0126278040601,0.00390472302684,0.001,19.617698247,-6000.0,0.0,-300.0,0.0
1513265943674206348,,586629,,1513265941,880063616,'',0.226892802759,0.230828412362,0.00450070283056,0.00393560960278,0.001,24.9360645177,-6000.0,0.0,-300.0,0.0
1513265943683995418,,586630,,1513265941,890063616,'',0.226892802759,0.230835491463,-0.0133906671491,0.00394268870389,0.001,19.6188187781,-6000.0,0.0,-300.0,0.0
1513265943694060532,,586631,,1513265941,900063616,'',0.226892802759,0.230828764088,0.00449343594234,0.00393596132847,0.001,24.9662627599,-6000.0,0.0,-300.0,0.0
1513265943704470273,,586632,,1513265941,910063616,'',0.226892802759,0.230837470878,0.00432051203157,0.00394466811899,0.001,24.971863453,-6000.0,0.0,-300.0,0.0
1513265943714433349,,586633,,1513265941,920063616,'',0.226892802759,0.230799001377,0.00510369191636,0.00390619861781,0.001,24.9713821499,-6000.0,0.0,-300.0,0.0
1513265943724416857,,586634,,1513265941,930063616,'',0.226892802759,0.230782587435,0.00543147598192,0.00388978467596,0.001,24.9774771513,-6000.0,0.0,-300.0,0.0
1513265943734424023,,586635,,1513265941,940063616,'',0.226892802759,0.230783905944,0.00539723930855,0.00389110318488,0.001,24.9695415854,-6000.0,0.0,-300.0,0.0
1513265943744405172,,586636,,1513265941,950063616,'',0.226892802759,0.230769041703,-0.012054845667,0.0038762389438,0.001,19.620486987,-6000.0,0.0,-300.0,0.0
1513265943754319496,,586637,,1513265941,960063616,'',0.226892802759,0.230804662801,0.0049728382446,0.0039118600414,0.001,24.9435672313,-6000.0,0.0,-300.0,0.0
1513265943764255309,,586638,,1513265941,970063616,'',0.226892802759,0.230801125239,0.00504813478239,0.00390832247999,0.001,24.969742528,-6000.0,0.0,-300.0,0.0
1513265943774426464,,586639,,1513265941,980063616,'',0.226892802759,0.230767142594,0.00574689344545,0.00387433983464,0.001,24.975740801,-6000.0,0.0,-300.0,0.0
1513265943784027371,,586640,,1513265941,990063616,'',0.226892802759,0.230803999989,0.00500057098164,0.0039111972294,0.001,24.9770906327,-6000.0,0.0,-300.0,0.0
1513265943794532768,,586641,,1513265942,63616,'',0.226892802759,0.230801646058,0.0050531743847,0.00390884329866,0.001,24.9678807791,-6000.0,0.0,-300.0,0.0
1513265943804642821,,586642,,1513265942,10063616,'',0.226892802759,0.23083211273,0.00443029326234,0.00393930997116,0.001,24.958026968,-6000.0,0.0,-300.0,0.0
1513265943814440399,,586643,,1513265942,20063616,'',0.226892802759,0.230839213964,0.0042886820964,0.00394641120518,0.001,24.9654989449,-6000.0,0.0,-300.0,0.0
1513265943824194952,,586644,,1513265942,30063616,'',0.226892802759,0.230796016663,0.00516035618038,0.0039032139035,0.001,24.9746140629,-6000.0,0.0,-300.0,0.0
1513265943834162277,,586645,,1513265942,40063616,'',0.226892802759,0.230746291957,-0.0115829785938,0.00385348919797,0.001,19.6402973693,-6000.0,0.0,-300.0,0.0
1513265943843947924,,586646,,1513265942,50063616,'',0.226892802759,0.230736535768,0.00635755683828,0.0038437330088,0.001,24.982646697,-6000.0,0.0,-300.0,0.0
1513265943854053056,,586647,,1513265942,60063616,'',0.226892802759,0.230761319648,-0.0118908495042,0.00386851688839,0.001,19.635849928,-6000.0,0.0,-300.0,0.0
1513265943864698748,,586648,,1513265942,70063616,'',0.226892802759,0.230718654629,-0.0110306731466,0.00382585186961,0.001,19.6190440899,-6000.0,0.0,-300.0,0.0
1513265943874559015,,586649,,1513265942,80063616,'',0.226892802759,0.230778826137,0.00550197868871,0.00388602337764,0.001,24.9313710498,-6000.0,0.0,-300.0,0.0
1513265943884479715,,586650,,1513265942,90063616,'',0.226892802759,0.230734829108,0.00639130089974,0.00384202634827,0.001,24.9828237521,-6000.0,0.0,-300.0,0.0
1513265943894434074,,586651,,1513265942,100063616,'',0.226892802759,0.230761546119,0.00585481369136,0.00386874336002,0.001,24.9783612792,-6000.0,0.0,-300.0,0.0
1513265943904357472,,586652,,1513265942,110063616,'',0.226892802759,0.230750449475,0.00608389437241,0.0038576467155,0.001,24.9719870261,-6000.0,0.0,-300.0,0.0
1513265943914399912,,586653,,1513265942,120063616,'',0.226892802759,0.230819737274,0.00468201112413,0.00392693451463,0.001,24.9287702729,-6000.0,0.0,-300.0,0.0
1513265943924291145,,586654,,1513265942,130063616,'',0.226892802759,0.230845893591,0.00415209786539,0.00395309083132,0.001,24.9698036517,-6000.0,0.0,-300.0,0.0
1513265943934215254,,586655,,1513265942,140063616,'',0.226892802759,0.230803985003,0.00499808262299,0.0039111822442,0.001,24.9695168035,-6000.0,0.0,-300.0,0.0
1513265943944133559,,586656,,1513265942,150063616,'',0.226892802759,0.230801355593,0.00505283692325,0.00390855283378,0.001,25.0018120309,-6000.0,0.0,-300.0,0.0
1513265943954479326,,586657,,1513265942,160063616,'',0.226892802759,0.230748368808,-0.0116266969163,0.00385556604835,0.001,19.6267127311,-6000.0,0.0,-300.0,0.0
1513265943964761020,,586658,,1513265942,170063616,'',0.226892802759,0.230788196758,0.00531528922927,0.00389539399906,0.001,24.9788223845,-6000.0,0.0,-300.0,0.0
1513265943974061525,,586659,,1513265942,180063616,'',0.226892802759,0.230739961894,-0.0114567748758,0.00384715913516,0.001,19.6961908067,-6000.0,0.0,-300.0,0.0
1513265943984433584,,586660,,1513265942,190063616,'',0.226892802759,0.230699889816,-0.0106437350292,0.00380708705677,0.001,19.6180218208,-6000.0,0.0,-300.0,0.0
1513265943994425643,,586661,,1513265942,200063616,'',0.226892802759,0.230715504853,0.00679837459091,0.00382270209336,0.001,25.0215772149,-6000.0,0.0,-300.0,0.0
1513265944004315682,,586662,,1513265942,210063616,'',0.226892802759,0.230713874157,0.0068301414759,0.00382107139797,0.001,24.9766293556,-6000.0,0.0,-300.0,0.0
1513265944014453125,,586663,,1513265942,220063616,'',0.226892802759,0.230712272733,0.00685544126533,0.00381946997416,0.001,24.9807124137,-6000.0,0.0,-300.0,0.0
1513265944024149190,,586664,,1513265942,230063616,'',0.226892802759,0.230725784314,0.00657784965161,0.00383298155489,0.001,24.9258422488,-6000.0,0.0,-300.0,0.0
1513265944034110537,,586665,,1513265942,240063616,'',0.226892802759,0.230719731344,0.0066975618738,0.0038269285843,0.001,24.9273264444,-6000.0,0.0,-300.0,0.0
1513265944044178124,,586666,,1513265942,250063616,'',0.226892802759,0.230732777056,-0.0113198265783,0.00383997429665,0.001,19.6174965241,-6000.0,0.0,-300.0,0.0
1513265944054377434,,586667,,1513265942,260063616,'',0.226892802759,0.23077549511,0.00557057738104,0.00388269235024,0.001,24.9448157746,-6000.0,0.0,-300.0,0.0
1513265944064472495,,586668,,1513265942,270063616,'',0.226892802759,0.230726888225,-0.011202776705,0.00383408546558,0.001,19.6286590298,-6000.0,0.0,-300.0,0.0
1513265944074403909,,586669,,1513265942,280063616,'',0.226892802759,0.230739547778,0.00629495579059,0.0038467450191,0.001,24.972783866,-6000.0,0.0,-300.0,0.0
1513265944084138975,,586670,,1513265942,290063616,'',0.226892802759,0.230701161259,0.00707130348156,0.00380835849954,0.001,24.9796759776,-6000.0,0.0,-300.0,0.0
1513265944094174442,,586671,,1513265942,300063616,'',0.226892802759,0.230703046708,-0.0107116846675,0.00381024394888,0.001,19.7089938068,-6000.0,0.0,-300.0,0.0
1513265944104186135,,586672,,1513265942,310063616,'',0.226892802759,0.230701716511,0.00706490795863,0.00380891375186,0.001,24.9842189093,-6000.0,0.0,-300.0,0.0
1513265944114039728,,586673,,1513265942,320063616,'',0.226892802759,0.230685226133,0.00740288426267,0.00379242337382,0.001,24.9724821962,-6000.0,0.0,-300.0,0.0
1513265944124040432,,586674,,1513265942,330063616,'',0.226892802759,0.230701771806,-0.0106815115965,0.00380896904627,0.001,19.6239836324,-6000.0,0.0,-300.0,0.0
1513265944134574586,,586675,,1513265942,340063616,'',0.226892802759,0.230637619533,-0.00938768403109,0.0037448167733,0.001,19.6991739026,-6000.0,0.0,-300.0,0.0
1513265944144483978,,586676,,1513265942,350063616,'',0.226892802759,0.230664877279,-0.00994531769764,0.00377207451962,0.001,19.6249371268,-6000.0,0.0,-300.0,0.0
1513265944154990495,,586677,,1513265942,360063616,'',0.226892802759,0.230641021749,0.00827308237286,0.00374821898941,0.001,24.9249307604,-6000.0,0.0,-300.0,0.0
1513265944164725915,,586678,,1513265942,370063616,'',0.226892802759,0.230667616753,0.00773876299573,0.00377481399324,0.001,24.9892368129,-6000.0,0.0,-300.0,0.0
1513265944174596516,,586679,,1513265942,380063616,'',0.226892802759,0.230706201505,0.0069653116148,0.00381339874571,0.001,24.9732075757,-6000.0,0.0,-300.0,0.0
1513265944184272574,,586680,,1513265942,390063616,'',0.226892802759,0.230703369335,-0.0107247470022,0.00381056657615,0.001,19.6958486622,-6000.0,0.0,-300.0,0.0
1513265944194359047,,586681,,1513265942,400063616,'',0.226892802759,0.230701527936,0.00706120840719,0.00380872517686,0.001,24.9857682413,-6000.0,0.0,-300.0,0.0
1513265944204337874,,586682,,1513265942,410063616,'',0.226892802759,0.230682906274,-0.0103138081893,0.00379010351439,0.001,19.635623273,-6000.0,0.0,-300.0,0.0
1513265944214413457,,586683,,1513265942,420063616,'',0.226892802759,0.230683603819,-0.0103243223627,0.00379080105953,0.001,19.6601735991,-6000.0,0.0,-300.0,0.0
1513265944224404159,,586684,,1513265942,430063616,'',0.226892802759,0.230687732412,0.00734473863941,0.0037949296531,0.001,24.9877097336,-6000.0,0.0,-300.0,0.0
1513265944234259817,,586685,,1513265942,440063616,'',0.226892802759,0.230706508072,0.00696128923738,0.0038137053131,0.001,24.9394935595,-6000.0,0.0,-300.0,0.0
1513265944244199018,,586686,,1513265942,450063616,'',0.226892802759,0.230658907867,0.00792464908617,0.00376610510745,0.001,24.9758158921,-6000.0,0.0,-300.0,0.0
1513265944254043631,,586687,,1513265942,460063616,'',0.226892802759,0.230633891256,-0.00932459836435,0.003741088497,0.001,19.6424711828,-6000.0,0.0,-300.0,0.0
1513265944263929226,,586688,,1513265942,470063616,'',0.226892802759,0.230663186933,0.00782795708548,0.00377038417362,0.001,24.9879911556,-6000.0,0.0,-300.0,0.0
1513265944273910970,,586689,,1513265942,480063616,'',0.226892802759,0.230667557835,-0.0100056607738,0.00377475507567,0.001,19.7004804743,-6000.0,0.0,-300.0,0.0
1513265944284402074,,586690,,1513265942,490063616,'',0.226892802759,0.230673075671,0.00762739034899,0.00378027291209,0.001,24.9842639556,-6000.0,0.0,-300.0,0.0
1513265944294350230,,586691,,1513265942,500063616,'',0.226892802759,0.230694976195,0.00718896391352,0.00380217343597,0.001,24.9781209934,-6000.0,0.0,-300.0,0.0
1513265944304447920,,586692,,1513265942,510063616,'',0.226892802759,0.230679111209,-0.0102380066487,0.0037863084502,0.001,19.6233773423,-6000.0,0.0,-300.0,0.0
1513265944314269085,,586693,,1513265942,520063616,'',0.226892802759,0.230701322237,0.00706209164405,0.00380851947803,0.001,24.9944697263,-6000.0,0.0,-300.0,0.0
1513265944324171808,,586694,,1513265942,530063616,'',0.226892802759,0.230701277973,-0.0106803862934,0.0038084752142,0.001,19.6278930358,-6000.0,0.0,-300.0,0.0
1513265944334372779,,586695,,1513265942,540063616,'',0.226892802759,0.230731722959,-0.0112715978923,0.00383892019954,0.001,19.6070024437,-6000.0,0.0,-300.0,0.0
1513265944344362418,,586696,,1513265942,550063616,'',0.226892802759,0.23069458565,-0.0105255852597,0.00380178289087,0.001,19.6315858805,-6000.0,0.0,-300.0,0.0
1513265944354311526,,586697,,1513265942,560063616,'',0.226892802759,0.230664927161,-0.0099242736412,0.00377212440169,0.001,19.6400214833,-6000.0,0.0,-300.0,0.0
1513265944364207324,,586698,,1513265942,570063616,'',0.226892802759,0.230625855138,-0.00913915291073,0.00373305237839,0.001,19.6351672381,-6000.0,0.0,-300.0,0.0
1513265944374266904,,586699,,1513265942,580063616,'',0.226892802759,0.230622077386,-0.0090653522587,0.00372927462647,0.001,19.6322514197,-6000.0,0.0,-300.0,0.0
1513265944384138779,,586700,,1513265942,590063616,'',0.226892802759,0.230621139702,-0.00904424028381,0.00372833694319,0.001,19.6382406232,-6000.0,0.0,-300.0,0.0
1513265944394243158,,586701,,1513265942,600063616,'',0.226892802759,0.230606112839,0.0090059759803,0.00371331007958,0.001,24.9766916762,-6000.0,0.0,-300.0,0.0
1513265944404120273,,586702,,1513265942,610063616,'',0.226892802759,0.230593607796,-0.00848260731577,0.0037008050364,0.001,19.7021665661,-6000.0,0.0,-300.0,0.0
1513265944414342293,,586703,,1513265942,620063616,'',0.226892802759,0.230628509219,-0.00919283763192,0.00373570645993,0.001,19.6369074888,-6000.0,0.0,-300.0,0.0
1513265944424373407,,586704,,1513265942,630063616,'',0.226892802759,0.230642749717,0.00827137475273,0.00374994695756,0.001,24.9995296806,-6000.0,0.0,-300.0,0.0
1513265944434249207,,586705,,1513265942,640063616,'',0.226892802759,0.230669367513,0.00772676547283,0.00377656475381,0.001,24.9868288188,-6000.0,0.0,-300.0,0.0
1513265944444394871,,586706,,1513265942,650063616,'',0.226892802759,0.230641476945,0.00828890337877,0.00374867418526,0.001,24.9847353687,-6000.0,0.0,-300.0,0.0
1513265944454509104,,586707,,1513265942,660063616,'',0.226892802759,0.23063862513,-0.00940143780901,0.00374582237063,0.001,19.6849398698,-6000.0,0.0,-300.0,0.0
1513265944464383361,,586708,,1513265942,670063616,'',0.226892802759,0.230619105466,0.008741105846,0.00372630270721,0.001,24.9923069607,-6000.0,0.0,-300.0,0.0
1513265944474209342,,586709,,1513265942,680063616,'',0.226892802759,0.230633258795,-0.00929994863834,0.00374045603561,0.001,19.6425211037,-6000.0,0.0,-300.0,0.0
1513265944484180927,,586710,,1513265942,690063616,'',0.226892802759,0.230645562024,0.0082024042286,0.00375275926466,0.001,24.9944526035,-6000.0,0.0,-300.0,0.0
1513265944494622141,,586711,,1513265942,700063616,'',0.226892802759,0.230608711983,-0.00879307210621,0.00371590922333,0.001,19.6979123151,-6000.0,0.0,-300.0,0.0
1513265944504338053,,586712,,1513265942,710063616,'',0.226892802759,0.23060994609,0.00892231931545,0.00371714333105,0.001,24.9848325168,-6000.0,0.0,-300.0,0.0
1513265944514501260,,586713,,1513265942,720063616,'',0.226892802759,0.230611636544,0.008896521932,0.00371883378438,0.001,24.9224927403,-6000.0,0.0,-300.0,0.0
1513265944524305261,,586714,,1513265942,730063616,'',0.226892802759,0.23067583854,0.00759649271991,0.0037830357811,0.001,24.9796315504,-6000.0,0.0,-300.0,0.0
1513265944534454620,,586715,,1513265942,740063616,'',0.226892802759,0.230665274044,0.00780363666234,0.0037724712843,0.001,24.942739253,-6000.0,0.0,-300.0,0.0
1513265944544069337,,586716,,1513265942,750063616,'',0.226892802759,0.230652599394,-0.0096858354769,0.00375979663458,0.001,19.6970266126,-6000.0,0.0,-300.0,0.0
1513265944554332731,,586717,,1513265942,760063616,'',0.226892802759,0.230694593282,0.00721272627448,0.00380179052276,0.001,25.0020911235,-6000.0,0.0,-300.0,0.0
1513265944564328490,,586718,,1513265942,770063616,'',0.226892802759,0.230663672237,-0.00991846727683,0.00377086947796,0.001,19.6286529712,-6000.0,0.0,-300.0,0.0
1513265944574155495,,586719,,1513265942,780063616,'',0.226892802759,0.230685874093,0.00738585521685,0.00379307133366,0.001,24.981504971,-6000.0,0.0,-300.0,0.0
1513265944584206338,,586720,,1513265942,790063616,'',0.226892802759,0.230672548488,-0.0100906036929,0.00377974572856,0.001,19.6365012942,-6000.0,0.0,-300.0,0.0
1513265944594089159,,586721,,1513265942,800063616,'',0.226892802759,0.230691116164,-0.0104673028885,0.00379831340461,0.001,19.6470350933,-6000.0,0.0,-300.0,0.0
1513265944604062671,,586722,,1513265942,810063616,'',0.226892802759,0.230694495844,0.00721253863014,0.00380169308427,0.001,24.9802409995,-6000.0,0.0,-300.0,0.0
1513265944614089978,,586723,,1513265942,820063616,'',0.226892802759,0.230711586053,0.00686931183992,0.00381878329341,0.001,24.9332085284,-6000.0,0.0,-300.0,0.0
1513265944624523634,,586724,,1513265942,830063616,'',0.226892802759,0.230707423717,-0.0107980013233,0.00381462095776,0.001,19.7154838164,-6000.0,0.0,-300.0,0.0
1513265944634448716,,586725,,1513265942,840063616,'',0.226892802759,0.23070772825,0.00694524457868,0.00381492549117,0.001,24.9645850756,-6000.0,0.0,-300.0,0.0
1513265944644582010,,586726,,1513265942,850063616,'',0.226892802759,0.230738170407,0.00632876220516,0.00384536764732,0.001,25.0016651378,-6000.0,0.0,-300.0,0.0
1513265944654569378,,586727,,1513265942,860063616,'',0.226892802759,0.230716252243,-0.0109767454459,0.00382344948331,0.001,19.6962605366,-6000.0,0.0,-300.0,0.0
1513265944664486776,,586728,,1513265942,870063616,'',0.226892802759,0.230699035146,0.00712455350048,0.00380623238718,0.001,24.9885929044,-6000.0,0.0,-300.0,0.0
1513265944674187070,,586729,,1513265942,880063616,'',0.226892802759,0.230696235572,-0.0105675540058,0.00380343281241,0.001,19.659711168,-6000.0,0.0,-300.0,0.0
1513265944684119749,,586730,,1513265942,890063616,'',0.226892802759,0.230632176857,-0.00927147386806,0.00373937409762,0.001,19.6962545094,-6000.0,0.0,-300.0,0.0
1513265944694078110,,586731,,1513265942,900063616,'',0.226892802759,0.230612025062,-0.00886054926401,0.0037192223023,0.001,19.7006211192,-6000.0,0.0,-300.0,0.0
1513265944704130751,,586732,,1513265942,910063616,'',0.226892802759,0.230612060338,0.00888133052103,0.00371925757873,0.001,24.9897923933,-6000.0,0.0,-300.0,0.0
1513265944713984398,,586733,,1513265942,920063616,'',0.226892802759,0.230564786751,-0.00791156112154,0.00367198399199,0.001,19.662806437,-6000.0,0.0,-300.0,0.0
1513265944724114235,,586734,,1513265942,930063616,'',0.226892802759,0.23054277302,0.0102848061658,0.00364997026109,0.001,24.93078932,-6000.0,0.0,-300.0,0.0
1513265944734509845,,586735,,1513265942,940063616,'',0.226892802759,0.230506939661,-0.00673924720481,0.0036141369016,0.001,19.6402922762,-6000.0,0.0,-300.0,0.0
1513265944744513471,,586736,,1513265942,950063616,'',0.226892802759,0.230527828675,0.0105734361158,0.00363502591576,0.001,24.9943692405,-6000.0,0.0,-300.0,0.0
1513265944754389231,,586737,,1513265942,960063616,'',0.226892802759,0.230527907815,-0.0071540022628,0.00363510505595,0.001,19.6513551232,-6000.0,0.0,-300.0,0.0
1513265944764185075,,586738,,1513265942,970063616,'',0.226892802759,0.230540825023,0.0103224155199,0.00364802226328,0.001,24.9366719154,-6000.0,0.0,-300.0,0.0
1513265944774321888,,586739,,1513265942,980063616,'',0.226892802759,0.230555209569,-0.00771688509153,0.00366240680943,0.001,19.6464480194,-6000.0,0.0,-300.0,0.0
1513265944784380553,,586740,,1513265942,990063616,'',0.226892802759,0.230550621203,0.0101235807967,0.00365781844379,0.001,24.9953592305,-6000.0,0.0,-300.0,0.0
1513265944794421385,,586741,,1513265943,63616,'',0.226892802759,0.230564530056,0.00984365610153,0.00367172729636,0.001,24.9827357431,-6000.0,0.0,-300.0,0.0
1513265944804049897,,586742,,1513265943,10063616,'',0.226892802759,0.230571136862,-0.00804766146118,0.00367833410235,0.001,19.6427712481,-6000.0,0.0,-300.0,0.0
1513265944814470502,,586743,,1513265943,20063616,'',0.226892802759,0.230544684104,-0.00751076600877,0.00365188134471,0.001,19.6446250079,-6000.0,0.0,-300.0,0.0
1513265944824374242,,586744,,1513265943,30063616,'',0.226892802759,0.230523448715,-0.00708012633658,0.00363064595529,0.001,19.6383867885,-6000.0,0.0,-300.0,0.0
1513265944834426525,,586745,,1513265943,40063616,'',0.226892802759,0.230524165581,-0.00710195887053,0.00363136282128,0.001,19.6449747506,-6000.0,0.0,-300.0,0.0
1513265944844387271,,586746,,1513265943,50063616,'',0.226892802759,0.230522403489,-0.00707045196138,0.00362960072934,0.001,19.6466763153,-6000.0,0.0,-300.0,0.0
1513265944854396508,,586747,,1513265943,60063616,'',0.226892802759,0.230554485935,0.0100290837922,0.00366168317531,0.001,24.9892100503,-6000.0,0.0,-300.0,0.0
1513265944864300092,,586748,,1513265943,70063616,'',0.226892802759,0.23054683058,-0.00756219851002,0.00365402782067,0.001,19.6471582995,-6000.0,0.0,-300.0,0.0
1513265944874348691,,586749,,1513265943,80063616,'',0.226892802759,0.230543219598,0.010241840145,0.00365041683847,0.001,24.8470932121,-6000.0,0.0,-300.0,0.0
1513265944884189796,,586750,,1513265943,90063616,'',0.226892802759,0.230521996449,-0.0070759743495,0.00362919369002,0.001,19.6339644853,-6000.0,0.0,-300.0,0.0
1513265944894170377,,586751,,1513265943,100063616,'',0.226892802759,0.230553680127,-0.00771208522694,0.00366087736729,0.001,19.6515831167,-6000.0,0.0,-300.0,0.0
1513265944904249452,,586752,,1513265943,110063616,'',0.226892802759,0.230563852714,-0.00790713554663,0.00367104995464,0.001,19.6554222926,-6000.0,0.0,-300.0,0.0
1513265944914329120,,586753,,1513265943,120063616,'',0.226892802759,0.230571687026,0.00968585596111,0.00367888426722,0.001,24.8997094336,-6000.0,0.0,-300.0,0.0
1513265944924289468,,586754,,1513265943,130063616,'',0.226892802759,0.230564694674,0.009827269538,0.0036718919144,0.001,24.9976340606,-6000.0,0.0,-300.0,0.0
1513265944934001432,,586755,,1513265943,140063616,'',0.226892802759,0.230585696384,-0.00834929094933,0.00369289362452,0.001,19.6438636768,-6000.0,0.0,-300.0,0.0
1513265944944166608,,586756,,1513265943,150063616,'',0.226892802759,0.230605963016,-0.00877375716904,0.0037131602572,0.001,19.6389832479,-6000.0,0.0,-300.0,0.0
1513265944954424624,,586757,,1513265943,160063616,'',0.226892802759,0.230620290194,-0.0090593816031,0.00372748743483,0.001,19.7225808396,-6000.0,0.0,-300.0,0.0
1513265944964717690,,586758,,1513265943,170063616,'',0.226892802759,0.230555864232,-0.00775214539424,0.00366306147248,0.001,19.6463925242,-6000.0,0.0,-300.0,0.0
1513265944974614205,,586759,,1513265943,180063616,'',0.226892802759,0.230597725717,-0.00859714411201,0.00370492295773,0.001,19.6403621024,-6000.0,0.0,-300.0,0.0
1513265944984594900,,586760,,1513265943,190063616,'',0.226892802759,0.230566615661,-0.00797152754122,0.0036738129013,0.001,19.7058465371,-6000.0,0.0,-300.0,0.0
1513265944994499815,,586761,,1513265943,200063616,'',0.226892802759,0.230559664852,0.00990850650729,0.00366686209317,0.001,24.8446923495,-6000.0,0.0,-300.0,0.0
1513265945004376413,,586762,,1513265943,210063616,'',0.226892802759,0.230551222134,-0.00766941614834,0.00365841937496,0.001,19.6373917004,-6000.0,0.0,-300.0,0.0
1513265945014334954,,586763,,1513265943,220063616,'',0.226892802759,0.230530178013,-0.00723940136606,0.00363737525332,0.001,19.632912679,-6000.0,0.0,-300.0,0.0
1513265945024395146,,586764,,1513265943,230063616,'',0.226892802759,0.230514322368,0.0108354808411,0.00362151960881,0.001,24.9265810046,-6000.0,0.0,-300.0,0.0
1513265945034392383,,586765,,1513265943,240063616,'',0.226892802759,0.230530438669,-0.0072342869838,0.00363763590975,0.001,19.6944962999,-6000.0,0.0,-300.0,0.0
1513265945044378139,,586766,,1513265943,250063616,'',0.226892802759,0.230546209219,-0.00755273347879,0.00365340645934,0.001,19.6384863382,-6000.0,0.0,-300.0,0.0
1513265945054312703,,586767,,1513265943,260063616,'',0.226892802759,0.230575116561,-0.00813789264071,0.00368231380201,0.001,19.6447605198,-6000.0,0.0,-300.0,0.0
1513265945064447929,,586768,,1513265943,270063616,'',0.226892802759,0.230612868555,-0.00889143244657,0.00372006579541,0.001,19.6955245313,-6000.0,0.0,-300.0,0.0
1513265945074428409,,586769,,1513265943,280063616,'',0.226892802759,0.23057909147,-0.00819679265205,0.00368628871065,0.001,19.7067004148,-6000.0,0.0,-300.0,0.0
1513265945084678781,,586770,,1513265943,290063616,'',0.226892802759,0.230599057275,-0.00860571133149,0.00370625451539,0.001,19.6352620483,-6000.0,0.0,-300.0,0.0
1513265945094756496,,586771,,1513265943,300063616,'',0.226892802759,0.230651353708,0.00808513468663,0.00375855094832,0.001,24.9862321252,-6000.0,0.0,-300.0,0.0
1513265945104526921,,586772,,1513265943,310063616,'',0.226892802759,0.230612236109,-0.00887291759254,0.00371943335001,0.001,19.6332723893,-6000.0,0.0,-300.0,0.0
1513265945114445464,,586773,,1513265943,320063616,'',0.226892802759,0.23059561313,-0.00853852544796,0.00370281037095,0.001,19.7028945787,-6000.0,0.0,-300.0,0.0
1513265945124548578,,586774,,1513265943,330063616,'',0.226892802759,0.230536071418,-0.00733654665927,0.00364326865825,0.001,19.6459484351,-6000.0,0.0,-300.0,0.0
1513265945134309916,,586775,,1513265943,340063616,'',0.226892802759,0.230518055148,-0.00696875761722,0.00362525238886,0.001,19.6536309103,-6000.0,0.0,-300.0,0.0
1513265945144375697,,586776,,1513265943,350063616,'',0.226892802759,0.230504220232,-0.00670033751328,0.00361141747233,0.001,19.7499387488,-6000.0,0.0,-300.0,0.0
1513265945154199938,,586777,,1513265943,360063616,'',0.226892802759,0.230526032084,0.0106086504037,0.00363322932453,0.001,24.9178993026,-6000.0,0.0,-300.0,0.0
1513265945164456913,,586778,,1513265943,370063616,'',0.226892802759,0.230529883242,0.0105317215029,0.00363708048298,0.001,25.0101723439,-6000.0,0.0,-300.0,0.0
1513265945174554773,,586779,,1513265943,380063616,'',0.226892802759,0.230561305595,0.00989665512262,0.00366850283592,0.001,24.9858121588,-6000.0,0.0,-300.0,0.0
1513265945184367998,,586780,,1513265943,390063616,'',0.226892802759,0.230538824598,-0.0073932986157,0.00364602183842,0.001,19.6611984327,-6000.0,0.0,-300.0,0.0
1513265945195056016,,586781,,1513265943,400063616,'',0.226892802759,0.230550226915,0.0101202578484,0.00365742415618,0.001,24.974194348,-6000.0,0.0,-300.0,0.0
1513265945204333116,,586782,,1513265943,410063616,'',0.226892802759,0.23059074677,-0.00844448043428,0.00369794401057,0.001,19.6922480498,-6000.0,0.0,-300.0,0.0
1513265945214576141,,586783,,1513265943,420063616,'',0.226892802759,0.230624436891,0.00861827192072,0.00373163413223,0.001,24.9313866384,-6000.0,0.0,-300.0,0.0
1513265945224262895,,586784,,1513265943,430063616,'',0.226892802759,0.230608455643,0.00894414664233,0.00371565288394,0.001,25.001103457,-6000.0,0.0,-300.0,0.0
1513265945234492206,,586785,,1513265943,440063616,'',0.226892802759,0.230609862266,-0.00883800541929,0.00371705950649,0.001,19.6309657895,-6000.0,0.0,-300.0,0.0
1513265945244372390,,586786,,1513265943,450063616,'',0.226892802759,0.230545938271,-0.00754560646249,0.00365313551163,0.001,19.6450544257,-6000.0,0.0,-300.0,0.0
1513265945254562925,,586787,,1513265943,460063616,'',0.226892802759,0.230545763533,0.0102067697647,0.00365296077361,0.001,24.9987498815,-6000.0,0.0,-300.0,0.0
1513265945264148457,,586788,,1513265943,470063616,'',0.226892802759,0.230559046174,0.00993548725003,0.00366624341495,0.001,24.9974688289,-6000.0,0.0,-300.0,0.0
1513265945274239594,,586789,,1513265943,480063616,'',0.226892802759,0.230584080629,0.00943481785802,0.00369127787021,0.001,24.9841474585,-6000.0,0.0,-300.0,0.0
1513265945284306598,,586790,,1513265943,490063616,'',0.226892802759,0.230541817931,-0.00746093935314,0.00364901517197,0.001,19.6384222331,-6000.0,0.0,-300.0,0.0
1513265945294148647,,586791,,1513265943,500063616,'',0.226892802759,0.230525245722,0.0106178291804,0.0036324429625,0.001,24.9178512177,-6000.0,0.0,-300.0,0.0
1513265945304496643,,586792,,1513265943,510063616,'',0.226892802759,0.230492451937,-0.00646762724153,0.0035996491773,0.001,19.5985372795,-6000.0,0.0,-300.0,0.0
