rosbagTimestamp,header,seq,stamp,secs,nsecs,frame_id,set_point,process_value,process_value_dot,error,time_step,command,p,i,d,i_clamp
1513266699361998196,,662189,,1513266697,553234221,'',1.4835298642,1.46888266641,0.0298583117234,-0.0146471977862,0.001,62.9829504805,4300.0,0.0,0.0,0.0
1513266699371935061,,662190,,1513266697,563234221,'',1.4835298642,1.46749503715,0.00256503537987,-0.0160348270501,0.001,68.9497563155,4300.0,0.0,0.0,0.0
1513266699381794068,,662191,,1513266697,573234221,'',1.4835298642,1.46749503715,0.00264138310618,-0.0160348270501,0.001,68.9497563155,4300.0,0.0,0.0,0.0
1513266699392181422,,662192,,1513266697,583234221,'',1.4835298642,1.46749503715,0.00165254580052,-0.0160348270501,0.001,68.9497563155,4300.0,0.0,0.0,0.0
1513266699402149474,,662193,,1513266697,593234221,'',1.4835298642,1.46888266641,0.0283485179091,-0.0146471977862,0.001,62.9829504805,4300.0,0.0,0.0,0.0
1513266699412043487,,662194,,1513266697,603234221,'',1.4835298642,1.46749503715,-0.000222367342181,-0.0160348270501,0.001,68.9497563155,4300.0,0.0,0.0,0.0
1513266699421881347,,662195,,1513266697,613234221,'',1.4835298642,1.46749503715,-0.000626188125427,-0.0160348270501,0.001,68.9497563155,4300.0,0.0,0.0,0.0
1513266699432313539,,662196,,1513266697,623234221,'',1.4835298642,1.46888266641,0.0274295498227,-0.0146471977862,0.001,62.9829504805,4300.0,0.0,0.0,0.0
1513266699442314280,,662197,,1513266697,633234221,'',1.4835298642,1.46749503715,0.000540445126705,-0.0160348270501,0.001,68.9497563155,4300.0,0.0,0.0,0.0
1513266699452235082,,662198,,1513266697,643234221,'',1.4835298642,1.46749503715,0.000442426386821,-0.0160348270501,0.001,68.9497563155,4300.0,0.0,0.0,0.0
1513266699462146267,,662199,,1513266697,653234221,'',1.4835298642,1.46749503715,0.000362343902495,-0.0160348270501,0.001,68.9497563155,4300.0,0.0,0.0,0.0
1513266699472269106,,662200,,1513266697,663234221,'',1.4835298642,1.46749503715,0.000826474974028,-0.0160348270501,0.001,68.9497563155,4300.0,0.0,0.0,0.0
1513266699482272252,,662201,,1513266697,673234221,'',1.4835298642,1.46610740788,-0.0247712443748,-0.0174224563141,0.001,74.9165621505,4300.0,0.0,0.0,0.0
1513266699492264169,,662202,,1513266697,683234221,'',1.4835298642,1.46749503715,0.00272482122406,-0.0160348270501,0.001,68.9497563155,4300.0,0.0,0.0,0.0
1513266699502245473,,662203,,1513266697,693234221,'',1.4835298642,1.46749503715,0.00330266844892,-0.0160348270501,0.001,68.9497563155,4300.0,0.0,0.0,0.0
1513266699512153282,,662204,,1513266697,703234221,'',1.4835298642,1.46749503715,0.0027038807097,-0.0160348270501,0.001,68.9497563155,4300.0,0.0,0.0,0.0
1513266699522083619,,662205,,1513266697,713234221,'',1.4835298642,1.46749503715,0.0022134868346,-0.0160348270501,0.001,68.9497563155,4300.0,0.0,0.0,0.0
1513266699533075462,,662206,,1513266697,724279383,'',1.4835298642,1.46749503715,0.00283126038885,-0.0160348270501,0.001,68.9497563155,4300.0,0.0,0.0,0.0
1513266699543076522,,662207,,1513266697,734279383,'',1.4835298642,1.46749503715,0.00280276340172,-0.0160348270501,0.001,68.9497563155,4300.0,0.0,0.0,0.0
1513266699553051521,,662208,,1513266697,744279383,'',1.4835298642,1.46610740788,-0.0246346592561,-0.0174224563141,0.001,74.9165621505,4300.0,0.0,0.0,0.0
1513266699563235690,,662209,,1513266697,754279383,'',1.4835298642,1.46610740788,-0.0251901360145,-0.0174224563141,0.001,74.9165621505,4300.0,0.0,0.0,0.0
1513266699573038618,,662210,,1513266697,764279383,'',1.4835298642,1.46610740788,-0.026123642022,-0.0174224563141,0.001,74.9165621505,4300.0,0.0,0.0,0.0
1513266699583025405,,662211,,1513266697,774279383,'',1.4835298642,1.46749503715,0.000530165104197,-0.0160348270501,0.001,68.9497563155,4300.0,0.0,0.0,0.0
1513266699592985922,,662212,,1513266697,784279383,'',1.4835298642,1.46888266641,0.0274209882664,-0.0146471977862,0.001,62.9829504805,4300.0,0.0,0.0,0.0
1513266699602966052,,662213,,1513266697,794279383,'',1.4835298642,1.46749503715,-0.000961582561679,-0.0160348270501,0.001,68.9497563155,4300.0,0.0,0.0,0.0
1513266699612982393,,662214,,1513266697,804279383,'',1.4835298642,1.46749503715,-0.00130832767618,-0.0160348270501,0.001,68.9497563155,4300.0,0.0,0.0,0.0
1513266699622901763,,662215,,1513266697,814279383,'',1.4835298642,1.46749503715,-0.000546857785191,-0.0160348270501,0.001,68.9497563155,4300.0,0.0,0.0,0.0
1513266699632757417,,662216,,1513266697,824279383,'',1.4835298642,1.46749503715,5.75091989192e-05,-0.0160348270501,0.001,68.9497563155,4300.0,0.0,0.0,0.0
1513266699643264389,,662217,,1513266697,834279383,'',1.4835298642,1.46749503715,4.70843343448e-05,-0.0160348270501,0.001,68.9497563155,4300.0,0.0,0.0,0.0
1513266699653454418,,662218,,1513266697,844279383,'',1.4835298642,1.46888266641,0.0275137663826,-0.0146471977862,0.001,62.9829504805,4300.0,0.0,0.0,0.0
1513266699663346097,,662219,,1513266697,854279383,'',1.4835298642,1.46749503715,7.2069136958e-05,-0.0160348270501,0.001,68.9497563155,4300.0,0.0,0.0,0.0
1513266699673154190,,662220,,1513266697,864279383,'',1.4835298642,1.46749503715,0.000538668524321,-0.0160348270501,0.001,68.9497563155,4300.0,0.0,0.0,0.0
1513266699683087379,,662221,,1513266697,874279383,'',1.4835298642,1.46610740788,-0.0264888923555,-0.0174224563141,0.001,74.9165621505,4300.0,0.0,0.0,0.0
1513266699693052992,,662222,,1513266697,884279383,'',1.4835298642,1.46749503715,0.00126590830959,-0.0160348270501,0.001,68.9497563155,4300.0,0.0,0.0,0.0
1513266699703030281,,662223,,1513266697,894279383,'',1.4835298642,1.46749503715,0.00206649580517,-0.0160348270501,0.001,68.9497563155,4300.0,0.0,0.0,0.0
1513266699712915926,,662224,,1513266697,904279383,'',1.4835298642,1.46749503715,0.00172159580051,-0.0160348270501,0.001,68.9497563155,4300.0,0.0,0.0,0.0
1513266699723031787,,662225,,1513266697,914279383,'',1.4835298642,1.46749503715,0.0014449278542,-0.0160348270501,0.001,68.9497563155,4300.0,0.0,0.0,0.0
1513266699732980071,,662226,,1513266697,924279383,'',1.4835298642,1.46749503715,0.00169232616385,-0.0160348270501,0.001,68.9497563155,4300.0,0.0,0.0,0.0
1513266699742823056,,662227,,1513266697,934279383,'',1.4835298642,1.46749503715,0.00237031530292,-0.0160348270501,0.001,68.9497563155,4300.0,0.0,0.0,0.0
1513266699753322563,,662228,,1513266697,944279383,'',1.4835298642,1.46749503715,0.002465416985,-0.0160348270501,0.001,68.9497563155,4300.0,0.0,0.0,0.0
1513266699763464870,,662229,,1513266697,954279383,'',1.4835298642,1.46749503715,0.00201810888542,-0.0160348270501,0.001,68.9497563155,4300.0,0.0,0.0,0.0
1513266699773275955,,662230,,1513266697,964279383,'',1.4835298642,1.46749503715,0.00159386871485,-0.0160348270501,0.001,68.9497563155,4300.0,0.0,0.0,0.0
1513266699783312145,,662231,,1513266697,974279383,'',1.4835298642,1.46749503715,0.00228551316877,-0.0160348270501,0.001,68.9497563155,4300.0,0.0,0.0,0.0
1513266699793065514,,662232,,1513266697,984279383,'',1.4835298642,1.46749503715,0.00138682039437,-0.0160348270501,0.001,68.9497563155,4300.0,0.0,0.0,0.0
1513266699803133662,,662233,,1513266697,994279383,'',1.4835298642,1.46888266641,0.0286649636256,-0.0146471977862,0.001,62.9829504805,4300.0,0.0,0.0,0.0
1513266699813234402,,662234,,1513266698,4279383,'',1.4835298642,1.46749503715,0.00103461981065,-0.0160348270501,0.001,68.9497563155,4300.0,0.0,0.0,0.0
1513266699823097935,,662235,,1513266698,14279383,'',1.4835298642,1.46749503715,0.000847022713239,-0.0160348270501,0.001,68.9497563155,4300.0,0.0,0.0,0.0
1513266699833219245,,662236,,1513266698,24279383,'',1.4835298642,1.46749503715,-0.000378347797295,-0.0160348270501,0.001,68.9497563155,4300.0,0.0,0.0,0.0
1513266699842797389,,662237,,1513266698,34279383,'',1.4835298642,1.46749503715,-0.000309887658481,-0.0160348270501,0.001,68.9497563155,4300.0,0.0,0.0,0.0
1513266699852914215,,662238,,1513266698,44279383,'',1.4835298642,1.46749503715,-0.000800462264781,-0.0160348270501,0.001,68.9497563155,4300.0,0.0,0.0,0.0
1513266699863273220,,662239,,1513266698,54279383,'',1.4835298642,1.46749503715,0.000378020413649,-0.0160348270501,0.001,68.9497563155,4300.0,0.0,0.0,0.0
1513266699872987653,,662240,,1513266698,64279383,'',1.4835298642,1.46749503715,-0.000192599985365,-0.0160348270501,0.001,68.9497563155,4300.0,0.0,0.0,0.0
1513266699882849784,,662241,,1513266698,74279383,'',1.4835298642,1.46749503715,-0.000157668013084,-0.0160348270501,0.001,68.9497563155,4300.0,0.0,0.0,0.0
1513266699892864172,,662242,,1513266698,84279383,'',1.4835298642,1.46749503715,0.000406272140917,-0.0160348270501,0.001,68.9497563155,4300.0,0.0,0.0,0.0
1513266699903470085,,662243,,1513266698,94279383,'',1.4835298642,1.46749503715,0.00239117435926,-0.0160348270501,0.001,68.9497563155,4300.0,0.0,0.0,0.0
1513266699913279778,,662244,,1513266698,104279383,'',1.4835298642,1.46749503715,0.00195760700961,-0.0160348270501,0.001,68.9497563155,4300.0,0.0,0.0,0.0
1513266699923201929,,662245,,1513266698,114279383,'',1.4835298642,1.46749503715,0.00211401286887,-0.0160348270501,0.001,68.9497563155,4300.0,0.0,0.0,0.0
1513266699933343095,,662246,,1513266698,124279383,'',1.4835298642,1.46610740788,-0.0257436312083,-0.0174224563141,0.001,74.9165621505,4300.0,0.0,0.0,0.0
1513266699943438967,,662247,,1513266698,134279383,'',1.4835298642,1.46888266641,0.0283378234988,-0.0146471977862,0.001,62.9829504805,4300.0,0.0,0.0,0.0
1513266699953265961,,662248,,1513266698,144279383,'',1.4835298642,1.46749503715,-0.000279808353654,-0.0160348270501,0.001,68.9497563155,4300.0,0.0,0.0,0.0
1513266699963149097,,662249,,1513266698,154279383,'',1.4835298642,1.46749503715,0.00126823232428,-0.0160348270501,0.001,68.9497563155,4300.0,0.0,0.0,0.0
1513266699973242464,,662250,,1513266698,164279383,'',1.4835298642,1.46749503715,0.0015641143882,-0.0160348270501,0.001,68.9497563155,4300.0,0.0,0.0,0.0
1513266699983251465,,662251,,1513266698,174279383,'',1.4835298642,1.46749503715,0.00180081401739,-0.0160348270501,0.001,68.9497563155,4300.0,0.0,0.0,0.0
1513266699993143830,,662252,,1513266698,184279383,'',1.4835298642,1.46888266641,0.0289394986848,-0.0146471977862,0.001,62.9829504805,4300.0,0.0,0.0,0.0
1513266700003171951,,662253,,1513266698,194279383,'',1.4835298642,1.46749503715,0.000740286750812,-0.0160348270501,0.001,68.9497563155,4300.0,0.0,0.0,0.0
1513266700013268963,,662254,,1513266698,204279383,'',1.4835298642,1.46749503715,0.000548879920614,-0.0160348270501,0.001,68.9497563155,4300.0,0.0,0.0,0.0
1513266700023206866,,662255,,1513266698,214279383,'',1.4835298642,1.46888266641,0.0279246018493,-0.0146471977862,0.001,62.9829504805,4300.0,0.0,0.0,0.0
1513266700032980082,,662256,,1513266698,224279383,'',1.4835298642,1.46749503715,-0.0021034965044,-0.0160348270501,0.001,68.9497563155,4300.0,0.0,0.0,0.0
1513266700043064536,,662257,,1513266698,234279383,'',1.4835298642,1.46749503715,-0.0027916178017,-0.0160348270501,0.001,68.9497563155,4300.0,0.0,0.0,0.0
1513266700053453497,,662258,,1513266698,244279383,'',1.4835298642,1.46749503715,-0.0032699407094,-0.0160348270501,0.001,68.9497563155,4300.0,0.0,0.0,0.0
1513266700063488879,,662259,,1513266698,254279383,'',1.4835298642,1.46749503715,-0.00514634064576,-0.0160348270501,0.001,68.9497563155,4300.0,0.0,0.0,0.0
1513266700073427106,,662260,,1513266698,264279383,'',1.4835298642,1.46749503715,-0.00628292554771,-0.0160348270501,0.001,68.9497563155,4300.0,0.0,0.0,0.0
1513266700083286658,,662261,,1513266698,274279383,'',1.4835298642,1.46749503715,-0.00761288060428,-0.0160348270501,0.001,68.9497563155,4300.0,0.0,0.0,0.0
1513266700093269695,,662262,,1513266698,284279383,'',1.4835298642,1.46749503715,-0.00825857589198,-0.0160348270501,0.001,68.9497563155,4300.0,0.0,0.0,0.0
1513266700103288447,,662263,,1513266698,294279383,'',1.4835298642,1.46888266641,0.0176123137153,-0.0146471977862,0.001,62.9829504805,4300.0,0.0,0.0,0.0
1513266700113114003,,662264,,1513266698,304279383,'',1.4835298642,1.46888266641,0.0144171330708,-0.0146471977862,0.001,62.9829504805,4300.0,0.0,0.0,0.0
1513266700123107336,,662265,,1513266698,314279383,'',1.4835298642,1.46749503715,-0.0147003112598,-0.0160348270501,0.001,68.9497563155,4300.0,0.0,0.0,0.0
1513266700132927338,,662266,,1513266698,324279383,'',1.4835298642,1.46888266641,0.0123845713828,-0.0146471977862,0.001,62.9829504805,4300.0,0.0,0.0,0.0
1513266700143316774,,662267,,1513266698,334279383,'',1.4835298642,1.46749503715,-0.0147670139595,-0.0160348270501,0.001,68.9497563155,4300.0,0.0,0.0,0.0
1513266700153033298,,662268,,1513266698,344279383,'',1.4835298642,1.46888266641,0.0128566275229,-0.0146471977862,0.001,62.9829504805,4300.0,0.0,0.0,0.0
1513266700163252701,,662269,,1513266698,354279383,'',1.4835298642,1.46749503715,-0.0154959393435,-0.0160348270501,0.001,68.9497563155,4300.0,0.0,0.0,0.0
1513266700172911644,,662270,,1513266698,364279383,'',1.4835298642,1.46888266641,0.012255962886,-0.0146471977862,0.001,62.9829504805,4300.0,0.0,0.0,0.0
1513266700182861155,,662271,,1513266698,374279383,'',1.4835298642,1.46749503715,-0.0158773458481,-0.0160348270501,0.001,68.9497563155,4300.0,0.0,0.0,0.0
1513266700193346263,,662272,,1513266698,384279383,'',1.4835298642,1.46888266641,0.0114589194203,-0.0146471977862,0.001,62.9829504805,4300.0,0.0,0.0,0.0
1513266700202831413,,662273,,1513266698,394279383,'',1.4835298642,1.46888266641,0.00938700708946,-0.0146471977862,0.001,62.9829504805,4300.0,0.0,0.0,0.0
1513266700213298585,,662274,,1513266698,404279383,'',1.4835298642,1.46888266641,0.00824154126377,-0.0146471977862,0.001,62.9829504805,4300.0,0.0,0.0,0.0
1513266700223236862,,662275,,1513266698,414279383,'',1.4835298642,1.46888266641,0.0087823121144,-0.0146471977862,0.001,62.9829504805,4300.0,0.0,0.0,0.0
1513266700233083369,,662276,,1513266698,424279383,'',1.4835298642,1.46888266641,0.00821350469274,-0.0146471977862,0.001,62.9829504805,4300.0,0.0,0.0,0.0
1513266700242980538,,662277,,1513266698,434279383,'',1.4835298642,1.46888266641,0.00766595773654,-0.0146471977862,0.001,62.9829504805,4300.0,0.0,0.0,0.0
1513266700252959278,,662278,,1513266698,444279383,'',1.4835298642,1.46888266641,0.00727817235823,-0.0146471977862,0.001,62.9829504805,4300.0,0.0,0.0,0.0
1513266700262961409,,662279,,1513266698,454279383,'',1.4835298642,1.46749503715,-0.0220214549181,-0.0160348270501,0.001,68.9497563155,4300.0,0.0,0.0,0.0
1513266700272954265,,662280,,1513266698,464279383,'',1.4835298642,1.46749503715,-0.021542761081,-0.0160348270501,0.001,68.9497563155,4300.0,0.0,0.0,0.0
1513266700282906650,,662281,,1513266698,474279383,'',1.4835298642,1.46888266641,0.00532577177808,-0.0146471977862,0.001,62.9829504805,4300.0,0.0,0.0,0.0
1513266700292951998,,662282,,1513266698,484279383,'',1.4835298642,1.46888266641,0.00436168406866,-0.0146471977862,0.001,62.9829504805,4300.0,0.0,0.0,0.0
1513266700303338441,,662283,,1513266698,494279383,'',1.4835298642,1.46888266641,0.00467867590142,-0.0146471977862,0.001,62.9829504805,4300.0,0.0,0.0,0.0
1513266700313176117,,662284,,1513266698,504279383,'',1.4835298642,1.46888266641,0.00384360243247,-0.0146471977862,0.001,62.9829504805,4300.0,0.0,0.0,0.0
1513266700322995497,,662285,,1513266698,514279383,'',1.4835298642,1.46888266641,0.0035783180296,-0.0146471977862,0.001,62.9829504805,4300.0,0.0,0.0,0.0
1513266700333034046,,662286,,1513266698,524279383,'',1.4835298642,1.46888266641,0.00443122699644,-0.0146471977862,0.001,62.9829504805,4300.0,0.0,0.0,0.0
1513266700343122748,,662287,,1513266698,534279383,'',1.4835298642,1.46888266641,0.00411234675906,-0.0146471977862,0.001,62.9829504805,4300.0,0.0,0.0,0.0
1513266700352958458,,662288,,1513266698,544279383,'',1.4835298642,1.46749503715,-0.0241169576059,-0.0160348270501,0.001,68.9497563155,4300.0,0.0,0.0,0.0
1513266700363111172,,662289,,1513266698,554279383,'',1.4835298642,1.46749503715,-0.0232676033265,-0.0160348270501,0.001,68.9497563155,4300.0,0.0,0.0,0.0
1513266700372942496,,662290,,1513266698,564279383,'',1.4835298642,1.46749503715,-0.0226056705625,-0.0160348270501,0.001,68.9497563155,4300.0,0.0,0.0,0.0
1513266700383009808,,662291,,1513266698,574279383,'',1.4835298642,1.47027029567,0.0319311267694,-0.0132595685222,0.001,57.0161446455,4300.0,0.0,0.0,0.0
1513266700393080425,,662292,,1513266698,584279383,'',1.4835298642,1.47027029567,0.0308056333306,-0.0132595685222,0.001,57.0161446455,4300.0,0.0,0.0,0.0
1513266700402988482,,662293,,1513266698,594279383,'',1.4835298642,1.46749503715,-0.0255958080235,-0.0160348270501,0.001,68.9497563155,4300.0,0.0,0.0,0.0
1513266700413653478,,662294,,1513266698,604279383,'',1.4835298642,1.46888266641,0.00147571900243,-0.0146471977862,0.001,62.9829504805,4300.0,0.0,0.0,0.0
1513266700423465708,,662295,,1513266698,614279383,'',1.4835298642,1.46749503715,-0.0268052151763,-0.0160348270501,0.001,68.9497563155,4300.0,0.0,0.0,0.0
1513266700433455404,,662296,,1513266698,624279383,'',1.4835298642,1.46888266641,-0.00053902488268,-0.0146471977862,0.001,62.9829504805,4300.0,0.0,0.0,0.0
1513266700443478977,,662297,,1513266698,634279383,'',1.4835298642,1.46888266641,-0.00146082034366,-0.0146471977862,0.001,62.9829504805,4300.0,0.0,0.0,0.0
1513266700453675300,,662298,,1513266698,644279383,'',1.4835298642,1.46888266641,-0.00170260583722,-0.0146471977862,0.001,62.9829504805,4300.0,0.0,0.0,0.0
1513266700463135889,,662299,,1513266698,654279383,'',1.4835298642,1.46888266641,-0.00188305622608,-0.0146471977862,0.001,62.9829504805,4300.0,0.0,0.0,0.0
1513266700473234992,,662300,,1513266698,664279383,'',1.4835298642,1.46888266641,-0.00255678115877,-0.0146471977862,0.001,62.9829504805,4300.0,0.0,0.0,0.0
1513266700482910762,,662301,,1513266698,674279383,'',1.4835298642,1.46888266641,-0.00408595214122,-0.0146471977862,0.001,62.9829504805,4300.0,0.0,0.0,0.0
1513266700492914330,,662302,,1513266698,684279383,'',1.4835298642,1.47027029567,0.0221384585829,-0.0132595685222,0.001,57.0161446455,4300.0,0.0,0.0,0.0
1513266700503407580,,662303,,1513266698,694279383,'',1.4835298642,1.47027029567,0.0222228146492,-0.0132595685222,0.001,57.0161446455,4300.0,0.0,0.0,0.0
1513266700513374316,,662304,,1513266698,704279383,'',1.4835298642,1.47027029567,0.02116306316,-0.0132595685222,0.001,57.0161446455,4300.0,0.0,0.0,0.0
1513266700523630310,,662305,,1513266698,714279383,'',1.4835298642,1.46888266641,-0.0082130273537,-0.0146471977862,0.001,62.9829504805,4300.0,0.0,0.0,0.0
1513266700533165432,,662306,,1513266698,724279383,'',1.4835298642,1.47027029567,0.0187617029813,-0.0132595685222,0.001,57.0161446455,4300.0,0.0,0.0,0.0
1513266700543126042,,662307,,1513266698,734279383,'',1.4835298642,1.46888266641,-0.00809380310142,-0.0146471977862,0.001,62.9829504805,4300.0,0.0,0.0,0.0
1513266700553089438,,662308,,1513266698,744279383,'',1.4835298642,1.46888266641,-0.00865505842214,-0.0146471977862,0.001,62.9829504805,4300.0,0.0,0.0,0.0
1513266700563046750,,662309,,1513266698,754279383,'',1.4835298642,1.46888266641,-0.00856248533635,-0.0146471977862,0.001,62.9829504805,4300.0,0.0,0.0,0.0
1513266700573311125,,662310,,1513266698,764279383,'',1.4835298642,1.47027029567,0.0184657269753,-0.0132595685222,0.001,57.0161446455,4300.0,0.0,0.0,0.0
1513266700583281405,,662311,,1513266698,774279383,'',1.4835298642,1.47027029567,0.0176164098707,-0.0132595685222,0.001,57.0161446455,4300.0,0.0,0.0,0.0
1513266700593206601,,662312,,1513266698,784279383,'',1.4835298642,1.47027029567,0.0154462409943,-0.0132595685222,0.001,57.0161446455,4300.0,0.0,0.0,0.0
1513266700603195667,,662313,,1513266698,794279383,'',1.4835298642,1.46888266641,-0.0103081187295,-0.0146471977862,0.001,62.9829504805,4300.0,0.0,0.0,0.0
1513266700613362475,,662314,,1513266698,804279383,'',1.4835298642,1.46888266641,-0.00986888044942,-0.0146471977862,0.001,62.9829504805,4300.0,0.0,0.0,0.0
1513266700623267722,,662315,,1513266698,814279383,'',1.4835298642,1.47027029567,0.017344842865,-0.0132595685222,0.001,57.0161446455,4300.0,0.0,0.0,0.0
1513266700633209314,,662316,,1513266698,824279383,'',1.4835298642,1.47027029567,0.0161240990252,-0.0132595685222,0.001,57.0161446455,4300.0,0.0,0.0,0.0
1513266700642996246,,662317,,1513266698,834279383,'',1.4835298642,1.46888266641,-0.0106913951234,-0.0146471977862,0.001,62.9829504805,4300.0,0.0,0.0,0.0
1513266700652974612,,662318,,1513266698,844279383,'',1.4835298642,1.47027029567,0.0172440589946,-0.0132595685222,0.001,57.0161446455,4300.0,0.0,0.0,0.0
1513266700663019668,,662319,,1513266698,854279383,'',1.4835298642,1.47027029567,0.0166575353982,-0.0132595685222,0.001,57.0161446455,4300.0,0.0,0.0,0.0
1513266700672988376,,662320,,1513266698,864279383,'',1.4835298642,1.47027029567,0.0162148109378,-0.0132595685222,0.001,57.0161446455,4300.0,0.0,0.0,0.0
1513266700683469362,,662321,,1513266698,874279383,'',1.4835298642,1.46888266641,-0.0106722783924,-0.0146471977862,0.001,62.9829504805,4300.0,0.0,0.0,0.0
1513266700693365455,,662322,,1513266698,884279383,'',1.4835298642,1.46888266641,-0.00971103160256,-0.0146471977862,0.001,62.9829504805,4300.0,0.0,0.0,0.0
1513266700703209736,,662323,,1513266698,894279383,'',1.4835298642,1.46888266641,-0.00936879906214,-0.0146471977862,0.001,62.9829504805,4300.0,0.0,0.0,0.0
1513266700713468546,,662324,,1513266698,904279383,'',1.4835298642,1.46749503715,-0.0371454282669,-0.0160348270501,0.001,68.9497563155,4300.0,0.0,0.0,0.0
1513266700723506713,,662325,,1513266698,914279383,'',1.4835298642,1.47165792494,0.0449857778827,-0.0118719392583,0.001,51.0493388105,4300.0,0.0,0.0,0.0
1513266700733399284,,662326,,1513266698,924279383,'',1.4835298642,1.47027029567,0.0164159713369,-0.0132595685222,0.001,57.0161446455,4300.0,0.0,0.0,0.0
1513266700743127747,,662327,,1513266698,934279383,'',1.4835298642,1.46888266641,-0.010983221585,-0.0146471977862,0.001,62.9829504805,4300.0,0.0,0.0,0.0
1513266700753035753,,662328,,1513266698,944279383,'',1.4835298642,1.46749503715,-0.0385554887348,-0.0160348270501,0.001,68.9497563155,4300.0,0.0,0.0,0.0
1513266700763150613,,662329,,1513266698,954279383,'',1.4835298642,1.47027029567,0.0169375511231,-0.0132595685222,0.001,57.0161446455,4300.0,0.0,0.0,0.0
1513266700773629128,,662330,,1513266698,964279383,'',1.4835298642,1.46888266641,-0.010564150321,-0.0146471977862,0.001,62.9829504805,4300.0,0.0,0.0,0.0
1513266700783636965,,662331,,1513266698,974279383,'',1.4835298642,1.47027029567,0.0173636708611,-0.0132595685222,0.001,57.0161446455,4300.0,0.0,0.0,0.0
1513266700793058824,,662332,,1513266698,984279383,'',1.4835298642,1.47165792494,0.0436987460648,-0.0118719392583,0.001,51.0493388105,4300.0,0.0,0.0,0.0
1513266700803522785,,662333,,1513266698,994279383,'',1.4835298642,1.46888266641,-0.0126400265383,-0.0146471977862,0.001,62.9829504805,4300.0,0.0,0.0,0.0
1513266700813594245,,662334,,1513266699,4279383,'',1.4835298642,1.46888266641,-0.0129643510786,-0.0146471977862,0.001,62.9829504805,4300.0,0.0,0.0,0.0
1513266700823544259,,662335,,1513266699,14279383,'',1.4835298642,1.46888266641,-0.0120762282178,-0.0146471977862,0.001,62.9829504805,4300.0,0.0,0.0,0.0
1513266700833611032,,662336,,1513266699,24279383,'',1.4835298642,1.46888266641,-0.0118619972632,-0.0146471977862,0.001,62.9829504805,4300.0,0.0,0.0,0.0
1513266700843614114,,662337,,1513266699,34279383,'',1.4835298642,1.47027029567,0.015741704041,-0.0132595685222,0.001,57.0161446455,4300.0,0.0,0.0,0.0
1513266700853250343,,662338,,1513266699,44279383,'',1.4835298642,1.47027029567,0.0149449298497,-0.0132595685222,0.001,57.0161446455,4300.0,0.0,0.0,0.0
1513266700863565906,,662339,,1513266699,54279383,'',1.4835298642,1.47027029567,0.0136841658723,-0.0132595685222,0.001,57.0161446455,4300.0,0.0,0.0,0.0
1513266700873401055,,662340,,1513266699,64279383,'',1.4835298642,1.47027029567,0.01266444892,-0.0132595685222,0.001,57.0161446455,4300.0,0.0,0.0,0.0
1513266700883603787,,662341,,1513266699,74279383,'',1.4835298642,1.47027029567,0.0113653830116,-0.0132595685222,0.001,57.0161446455,4300.0,0.0,0.0,0.0
1513266700893652434,,662342,,1513266699,84279383,'',1.4835298642,1.46888266641,-0.0176508476684,-0.0146471977862,0.001,62.9829504805,4300.0,0.0,0.0,0.0
1513266700903644800,,662343,,1513266699,94279383,'',1.4835298642,1.47027029567,0.0080212832559,-0.0132595685222,0.001,57.0161446455,4300.0,0.0,0.0,0.0
1513266700913551720,,662344,,1513266699,104279383,'',1.4835298642,1.47027029567,0.00706557067359,-0.0132595685222,0.001,57.0161446455,4300.0,0.0,0.0,0.0
1513266700923735318,,662345,,1513266699,114279383,'',1.4835298642,1.46888266641,-0.0222065398042,-0.0146471977862,0.001,62.9829504805,4300.0,0.0,0.0,0.0
1513266700933577659,,662346,,1513266699,124279383,'',1.4835298642,1.47027029567,0.00419427198789,-0.0132595685222,0.001,57.0161446455,4300.0,0.0,0.0,0.0
1513266700943562598,,662347,,1513266699,134279383,'',1.4835298642,1.47027029567,0.00445633836562,-0.0132595685222,0.001,57.0161446455,4300.0,0.0,0.0,0.0
1513266700953832902,,662348,,1513266699,144279383,'',1.4835298642,1.47027029567,0.00364956857585,-0.0132595685222,0.001,57.0161446455,4300.0,0.0,0.0,0.0
1513266700963285727,,662349,,1513266699,154279383,'',1.4835298642,1.47165792494,0.0320280117553,-0.0118719392583,0.001,51.0493388105,4300.0,0.0,0.0,0.0
1513266700973302656,,662350,,1513266699,164279383,'',1.4835298642,1.46888266641,-0.0251894513409,-0.0146471977862,0.001,62.9829504805,4300.0,0.0,0.0,0.0
1513266700983201356,,662351,,1513266699,174279383,'',1.4835298642,1.47027029567,0.00236908761471,-0.0132595685222,0.001,57.0161446455,4300.0,0.0,0.0,0.0
1513266700993435637,,662352,,1513266699,184279383,'',1.4835298642,1.47027029567,0.00347185429213,-0.0132595685222,0.001,57.0161446455,4300.0,0.0,0.0,0.0
1513266701003446396,,662353,,1513266699,194279383,'',1.4835298642,1.47027029567,0.00181490770595,-0.0132595685222,0.001,57.0161446455,4300.0,0.0,0.0,0.0
1513266701013529096,,662354,,1513266699,204279383,'',1.4835298642,1.46888266641,-0.0260334526182,-0.0146471977862,0.001,62.9829504805,4300.0,0.0,0.0,0.0
1513266701023503286,,662355,,1513266699,214279383,'',1.4835298642,1.47027029567,0.0035982623177,-0.0132595685222,0.001,57.0161446455,4300.0,0.0,0.0,0.0
1513266701033343075,,662356,,1513266699,224279383,'',1.4835298642,1.47165792494,0.0303979439655,-0.0118719392583,0.001,51.0493388105,4300.0,0.0,0.0,0.0
1513266701043069648,,662357,,1513266699,234279383,'',1.4835298642,1.46888266641,-0.0265760941173,-0.0146471977862,0.001,62.9829504805,4300.0,0.0,0.0,0.0
1513266701052972909,,662358,,1513266699,244279383,'',1.4835298642,1.47027029567,0.000123247893106,-0.0132595685222,0.001,57.0161446455,4300.0,0.0,0.0,0.0
1513266701063106502,,662359,,1513266699,254279383,'',1.4835298642,1.47027029567,5.87973111902e-05,-0.0132595685222,0.001,57.0161446455,4300.0,0.0,0.0,0.0
1513266701073501689,,662360,,1513266699,264279383,'',1.4835298642,1.47027029567,8.29698556639e-05,-0.0132595685222,0.001,57.0161446455,4300.0,0.0,0.0,0.0
1513266701083072216,,662361,,1513266699,274279383,'',1.4835298642,1.47027029567,-0.00295090138628,-0.0132595685222,0.001,57.0161446455,4300.0,0.0,0.0,0.0
1513266701093120918,,662362,,1513266699,284279383,'',1.4835298642,1.47027029567,-0.00294134924886,-0.0132595685222,0.001,57.0161446455,4300.0,0.0,0.0,0.0
1513266701103351891,,662363,,1513266699,294279383,'',1.4835298642,1.47027029567,-0.00303758726058,-0.0132595685222,0.001,57.0161446455,4300.0,0.0,0.0,0.0
1513266701113269400,,662364,,1513266699,304279383,'',1.4835298642,1.47027029567,-0.00300472894054,-0.0132595685222,0.001,57.0161446455,4300.0,0.0,0.0,0.0
1513266701123296872,,662365,,1513266699,314279383,'',1.4835298642,1.47027029567,-0.00298342100771,-0.0132595685222,0.001,57.0161446455,4300.0,0.0,0.0,0.0
1513266701133345203,,662366,,1513266699,324279383,'',1.4835298642,1.47027029567,-0.00344166440279,-0.0132595685222,0.001,57.0161446455,4300.0,0.0,0.0,0.0
1513266701143234362,,662367,,1513266699,334279383,'',1.4835298642,1.47027029567,-0.00488576955022,-0.0132595685222,0.001,57.0161446455,4300.0,0.0,0.0,0.0
1513266701153143055,,662368,,1513266699,344279383,'',1.4835298642,1.47027029567,-0.00446557859718,-0.0132595685222,0.001,57.0161446455,4300.0,0.0,0.0,0.0
1513266701163008409,,662369,,1513266699,354279383,'',1.4835298642,1.47027029567,-0.00617819228758,-0.0132595685222,0.001,57.0161446455,4300.0,0.0,0.0,0.0
1513266701173631798,,662370,,1513266699,364279383,'',1.4835298642,1.47165792494,0.0224264464421,-0.0118719392583,0.001,51.0493388105,4300.0,0.0,0.0,0.0
1513266701183397681,,662371,,1513266699,374279383,'',1.4835298642,1.47165792494,0.0228367487105,-0.0118719392583,0.001,51.0493388105,4300.0,0.0,0.0,0.0
1513266701193474007,,662372,,1513266699,384279383,'',1.4835298642,1.47165792494,0.0216941315459,-0.0118719392583,0.001,51.0493388105,4300.0,0.0,0.0,0.0
1513266701203539282,,662373,,1513266699,394279383,'',1.4835298642,1.47027029567,-0.00519416662258,-0.0132595685222,0.001,57.0161446455,4300.0,0.0,0.0,0.0
1513266701213540810,,662374,,1513266699,404279383,'',1.4835298642,1.46888266641,-0.0321885404863,-0.0146471977862,0.001,62.9829504805,4300.0,0.0,0.0,0.0
1513266701223519219,,662375,,1513266699,414279383,'',1.4835298642,1.47027029567,-0.00447983978731,-0.0132595685222,0.001,57.0161446455,4300.0,0.0,0.0,0.0
1513266701233487876,,662376,,1513266699,424279383,'',1.4835298642,1.47165792494,0.0232321348136,-0.0118719392583,0.001,51.0493388105,4300.0,0.0,0.0,0.0
1513266701243317643,,662377,,1513266699,434279383,'',1.4835298642,1.47165792494,0.0220145191958,-0.0118719392583,0.001,51.0493388105,4300.0,0.0,0.0,0.0
1513266701253525908,,662378,,1513266699,444279383,'',1.4835298642,1.47027029567,-0.00643420118643,-0.0132595685222,0.001,57.0161446455,4300.0,0.0,0.0,0.0
1513266701263200957,,662379,,1513266699,454279383,'',1.4835298642,1.47027029567,-0.00580317072075,-0.0132595685222,0.001,57.0161446455,4300.0,0.0,0.0,0.0
1513266701273260759,,662380,,1513266699,464279383,'',1.4835298642,1.47027029567,-0.00574425499414,-0.0132595685222,0.001,57.0161446455,4300.0,0.0,0.0,0.0
1513266701283178899,,662381,,1513266699,474279383,'',1.4835298642,1.47027029567,-0.00621388571392,-0.0132595685222,0.001,57.0161446455,4300.0,0.0,0.0,0.0
1513266701293092098,,662382,,1513266699,484279383,'',1.4835298642,1.47027029567,-0.00757878532785,-0.0132595685222,0.001,57.0161446455,4300.0,0.0,0.0,0.0
1513266701303009908,,662383,,1513266699,494279383,'',1.4835298642,1.4730455542,0.0473040854812,-0.0104843099943,0.001,45.0825329755,4300.0,0.0,0.0,0.0
1513266701313599584,,662384,,1513266699,504279383,'',1.4835298642,1.47027029567,-0.00824013427921,-0.0132595685222,0.001,57.0161446455,4300.0,0.0,0.0,0.0
1513266701323492431,,662385,,1513266699,514279383,'',1.4835298642,1.47027029567,-0.00932713216475,-0.0132595685222,0.001,57.0161446455,4300.0,0.0,0.0,0.0
1513266701333581872,,662386,,1513266699,524279383,'',1.4835298642,1.47027029567,-0.00869294903391,-0.0132595685222,0.001,57.0161446455,4300.0,0.0,0.0,0.0
1513266701343752972,,662387,,1513266699,534279383,'',1.4835298642,1.47165792494,0.0184134344168,-0.0118719392583,0.001,51.0493388105,4300.0,0.0,0.0,0.0
1513266701353406907,,662388,,1513266699,544279383,'',1.4835298642,1.47027029567,-0.00837193978622,-0.0132595685222,0.001,57.0161446455,4300.0,0.0,0.0,0.0
1513266701363331376,,662389,,1513266699,554279383,'',1.4835298642,1.47027029567,-0.00845109531476,-0.0132595685222,0.001,57.0161446455,4300.0,0.0,0.0,0.0
1513266701373200965,,662390,,1513266699,564279383,'',1.4835298642,1.47027029567,-0.00984855163605,-0.0132595685222,0.001,57.0161446455,4300.0,0.0,0.0,0.0
1513266701383064293,,662391,,1513266699,574279383,'',1.4835298642,1.47165792494,0.0168993348736,-0.0118719392583,0.001,51.0493388105,4300.0,0.0,0.0,0.0
1513266701392931680,,662392,,1513266699,584279383,'',1.4835298642,1.47165792494,0.016375263033,-0.0118719392583,0.001,51.0493388105,4300.0,0.0,0.0,0.0
1513266701403135558,,662393,,1513266699,594279383,'',1.4835298642,1.47165792494,0.0158448497534,-0.0118719392583,0.001,51.0493388105,4300.0,0.0,0.0,0.0
1513266701413616990,,662394,,1513266699,604279383,'',1.4835298642,1.47165792494,0.0154523918953,-0.0118719392583,0.001,51.0493388105,4300.0,0.0,0.0,0.0
1513266701423397231,,662395,,1513266699,614279383,'',1.4835298642,1.47165792494,0.0131075660523,-0.0118719392583,0.001,51.0493388105,4300.0,0.0,0.0,0.0
1513266701433518170,,662396,,1513266699,624279383,'',1.4835298642,1.47027029567,-0.0152646723062,-0.0132595685222,0.001,57.0161446455,4300.0,0.0,0.0,0.0
1513266701443070292,,662397,,1513266699,634279383,'',1.4835298642,1.47027029567,-0.0145678018277,-0.0132595685222,0.001,57.0161446455,4300.0,0.0,0.0,0.0
1513266701453328250,,662398,,1513266699,644279383,'',1.4835298642,1.47165792494,0.0130543154809,-0.0118719392583,0.001,51.0493388105,4300.0,0.0,0.0,0.0
1513266701463283958,,662399,,1513266699,654279383,'',1.4835298642,1.47165792494,0.0117066491755,-0.0118719392583,0.001,51.0493388105,4300.0,0.0,0.0,0.0
1513266701473279399,,662400,,1513266699,664279383,'',1.4835298642,1.47165792494,0.0126310552754,-0.0118719392583,0.001,51.0493388105,4300.0,0.0,0.0,0.0
1513266701483477809,,662401,,1513266699,674279383,'',1.4835298642,1.47027029567,-0.0150786340762,-0.0132595685222,0.001,57.0161446455,4300.0,0.0,0.0,0.0
1513266701493481929,,662402,,1513266699,684279383,'',1.4835298642,1.47027029567,-0.0163355465843,-0.0132595685222,0.001,57.0161446455,4300.0,0.0,0.0,0.0
1513266701503470674,,662403,,1513266699,694279383,'',1.4835298642,1.47027029567,-0.0149197515326,-0.0132595685222,0.001,57.0161446455,4300.0,0.0,0.0,0.0
1513266701513369473,,662404,,1513266699,704279383,'',1.4835298642,1.47027029567,-0.0137576410577,-0.0132595685222,0.001,57.0161446455,4300.0,0.0,0.0,0.0
1513266701523322119,,662405,,1513266699,714279383,'',1.4835298642,1.47027029567,-0.0133717530358,-0.0132595685222,0.001,57.0161446455,4300.0,0.0,0.0,0.0
1513266701533303724,,662406,,1513266699,724279383,'',1.4835298642,1.47027029567,-0.0114076471099,-0.0132595685222,0.001,57.0161446455,4300.0,0.0,0.0,0.0
1513266701543018372,,662407,,1513266699,734279383,'',1.4835298642,1.47027029567,-0.0113719305559,-0.0132595685222,0.001,57.0161446455,4300.0,0.0,0.0,0.0
1513266701553086136,,662408,,1513266699,744279383,'',1.4835298642,1.47027029567,-0.0113097610287,-0.0132595685222,0.001,57.0161446455,4300.0,0.0,0.0,0.0
1513266701563315967,,662409,,1513266699,754279383,'',1.4835298642,1.47027029567,-0.0103160600224,-0.0132595685222,0.001,57.0161446455,4300.0,0.0,0.0,0.0
1513266701573121281,,662410,,1513266699,764279383,'',1.4835298642,1.47027029567,-0.00844507043621,-0.0132595685222,0.001,57.0161446455,4300.0,0.0,0.0,0.0
1513266701583271262,,662411,,1513266699,774279383,'',1.4835298642,1.47027029567,-0.0103630634728,-0.0132595685222,0.001,57.0161446455,4300.0,0.0,0.0,0.0
1513266701593469309,,662412,,1513266699,784279383,'',1.4835298642,1.47165792494,0.015476444659,-0.0118719392583,0.001,51.0493388105,4300.0,0.0,0.0,0.0
1513266701603439705,,662413,,1513266699,794279383,'',1.4835298642,1.47165792494,0.0157054830997,-0.0118719392583,0.001,51.0493388105,4300.0,0.0,0.0,0.0
1513266701613199970,,662414,,1513266699,804279383,'',1.4835298642,1.47027029567,-0.0131486980093,-0.0132595685222,0.001,57.0161446455,4300.0,0.0,0.0,0.0
1513266701623123493,,662415,,1513266699,814279383,'',1.4835298642,1.47165792494,0.014695354149,-0.0118719392583,0.001,51.0493388105,4300.0,0.0,0.0,0.0
1513266701633123928,,662416,,1513266699,824279383,'',1.4835298642,1.47027029567,-0.013856214053,-0.0132595685222,0.001,57.0161446455,4300.0,0.0,0.0,0.0
1513266701642924497,,662417,,1513266699,834279383,'',1.4835298642,1.47027029567,-0.0143658389569,-0.0132595685222,0.001,57.0161446455,4300.0,0.0,0.0,0.0
1513266701652976477,,662418,,1513266699,844279383,'',1.4835298642,1.47027029567,-0.0147692320257,-0.0132595685222,0.001,57.0161446455,4300.0,0.0,0.0,0.0
1513266701663415190,,662419,,1513266699,854279383,'',1.4835298642,1.47165792494,0.0123916547732,-0.0118719392583,0.001,51.0493388105,4300.0,0.0,0.0,0.0
1513266701673494067,,662420,,1513266699,864279383,'',1.4835298642,1.47165792494,0.0101432057033,-0.0118719392583,0.001,51.0493388105,4300.0,0.0,0.0,0.0
1513266701683409417,,662421,,1513266699,874279383,'',1.4835298642,1.47165792494,0.00977474661682,-0.0118719392583,0.001,51.0493388105,4300.0,0.0,0.0,0.0
1513266701692950598,,662422,,1513266699,884279383,'',1.4835298642,1.47027029567,-0.017962809726,-0.0132595685222,0.001,57.0161446455,4300.0,0.0,0.0,0.0
1513266701703633562,,662423,,1513266699,894279383,'',1.4835298642,1.47027029567,-0.0167018783637,-0.0132595685222,0.001,57.0161446455,4300.0,0.0,0.0,0.0
1513266701713420119,,662424,,1513266699,904279383,'',1.4835298642,1.47027029567,-0.0151596729163,-0.0132595685222,0.001,57.0161446455,4300.0,0.0,0.0,0.0
1513266701723475888,,662425,,1513266699,914279383,'',1.4835298642,1.47027029567,-0.0164371660276,-0.0132595685222,0.001,57.0161446455,4300.0,0.0,0.0,0.0
1513266701733437029,,662426,,1513266699,924279383,'',1.4835298642,1.47165792494,0.0120079953505,-0.0118719392583,0.001,51.0493388105,4300.0,0.0,0.0,0.0
1513266701743427440,,662427,,1513266699,934279383,'',1.4835298642,1.47165792494,0.0102958426296,-0.0118719392583,0.001,51.0493388105,4300.0,0.0,0.0,0.0
1513266701753082514,,662428,,1513266699,944279383,'',1.4835298642,1.47027029567,-0.0170638528446,-0.0132595685222,0.001,57.0161446455,4300.0,0.0,0.0,0.0
1513266701763041348,,662429,,1513266699,954279383,'',1.4835298642,1.47165792494,0.011047141914,-0.0118719392583,0.001,51.0493388105,4300.0,0.0,0.0,0.0
1513266701773054325,,662430,,1513266699,964279383,'',1.4835298642,1.47165792494,0.0105899243938,-0.0118719392583,0.001,51.0493388105,4300.0,0.0,0.0,0.0
1513266701783070980,,662431,,1513266699,974279383,'',1.4835298642,1.47027029567,-0.0172906890106,-0.0132595685222,0.001,57.0161446455,4300.0,0.0,0.0,0.0
1513266701793250055,,662432,,1513266699,984279383,'',1.4835298642,1.47165792494,0.0108246889355,-0.0118719392583,0.001,51.0493388105,4300.0,0.0,0.0,0.0
1513266701803426852,,662433,,1513266699,994279383,'',1.4835298642,1.47165792494,0.0088616200309,-0.0118719392583,0.001,51.0493388105,4300.0,0.0,0.0,0.0
1513266701813390712,,662434,,1513266700,4279383,'',1.4835298642,1.47165792494,0.00826674099214,-0.0118719392583,0.001,51.0493388105,4300.0,0.0,0.0,0.0
1513266701823621413,,662435,,1513266700,14279383,'',1.4835298642,1.47165792494,0.0087802743403,-0.0118719392583,0.001,51.0493388105,4300.0,0.0,0.0,0.0
1513266701833462985,,662436,,1513266700,24279383,'',1.4835298642,1.47165792494,0.00921810389131,-0.0118719392583,0.001,51.0493388105,4300.0,0.0,0.0,0.0
1513266701843000749,,662437,,1513266700,34279383,'',1.4835298642,1.47165792494,0.00794633688795,-0.0118719392583,0.001,51.0493388105,4300.0,0.0,0.0,0.0
1513266701853114248,,662438,,1513266700,44279383,'',1.4835298642,1.47165792494,0.0081151616803,-0.0118719392583,0.001,51.0493388105,4300.0,0.0,0.0,0.0
1513266701863411673,,662439,,1513266700,54279383,'',1.4835298642,1.47165792494,0.00814289615269,-0.0118719392583,0.001,51.0493388105,4300.0,0.0,0.0,0.0
1513266701873585722,,662440,,1513266700,64279383,'',1.4835298642,1.47165792494,0.0076982137224,-0.0118719392583,0.001,51.0493388105,4300.0,0.0,0.0,0.0
1513266701883462752,,662441,,1513266700,74279383,'',1.4835298642,1.47165792494,0.00881410363275,-0.0118719392583,0.001,51.0493388105,4300.0,0.0,0.0,0.0
1513266701893146729,,662442,,1513266700,84279383,'',1.4835298642,1.47027029567,-0.0177598112197,-0.0132595685222,0.001,57.0161446455,4300.0,0.0,0.0,0.0
1513266701903215874,,662443,,1513266700,94279383,'',1.4835298642,1.4730455542,0.0373603870873,-0.0104843099943,0.001,45.0825329755,4300.0,0.0,0.0,0.0
1513266701913767906,,662444,,1513266700,104279383,'',1.4835298642,1.47165792494,0.00905563254542,-0.0118719392583,0.001,51.0493388105,4300.0,0.0,0.0,0.0
1513266701923380652,,662445,,1513266700,114279383,'',1.4835298642,1.47165792494,0.00898506169789,-0.0118719392583,0.001,51.0493388105,4300.0,0.0,0.0,0.0
1513266701933416320,,662446,,1513266700,124279383,'',1.4835298642,1.47165792494,0.00881333062371,-0.0118719392583,0.001,51.0493388105,4300.0,0.0,0.0,0.0
1513266701943185253,,662447,,1513266700,134279383,'',1.4835298642,1.47165792494,0.00926376885361,-0.0118719392583,0.001,51.0493388105,4300.0,0.0,0.0,0.0
1513266701953435367,,662448,,1513266700,144279383,'',1.4835298642,1.47027029567,-0.0183987861128,-0.0132595685222,0.001,57.0161446455,4300.0,0.0,0.0,0.0
1513266701963384650,,662449,,1513266700,154279383,'',1.4835298642,1.47165792494,0.00933864238738,-0.0118719392583,0.001,51.0493388105,4300.0,0.0,0.0,0.0
1513266701973601386,,662450,,1513266700,164279383,'',1.4835298642,1.47165792494,0.010749142614,-0.0118719392583,0.001,51.0493388105,4300.0,0.0,0.0,0.0
1513266701983735058,,662451,,1513266700,174279383,'',1.4835298642,1.47165792494,0.00977856882762,-0.0118719392583,0.001,51.0493388105,4300.0,0.0,0.0,0.0
1513266701993617311,,662452,,1513266700,184279383,'',1.4835298642,1.47165792494,0.0094778713958,-0.0118719392583,0.001,51.0493388105,4300.0,0.0,0.0,0.0
1513266702003344513,,662453,,1513266700,194279383,'',1.4835298642,1.47027029567,-0.0166675090923,-0.0132595685222,0.001,57.0161446455,4300.0,0.0,0.0,0.0
1513266702013315026,,662454,,1513266700,204279383,'',1.4835298642,1.47027029567,-0.0171356790402,-0.0132595685222,0.001,57.0161446455,4300.0,0.0,0.0,0.0
1513266702023203811,,662455,,1513266700,214279383,'',1.4835298642,1.47165792494,0.00990844675236,-0.0118719392583,0.001,51.0493388105,4300.0,0.0,0.0,0.0
1513266702033078970,,662456,,1513266700,224279383,'',1.4835298642,1.47165792494,0.00811184878328,-0.0118719392583,0.001,51.0493388105,4300.0,0.0,0.0,0.0
1513266702042918985,,662457,,1513266700,234279383,'',1.4835298642,1.47165792494,0.00716073308392,-0.0118719392583,0.001,51.0493388105,4300.0,0.0,0.0,0.0
1513266702053132558,,662458,,1513266700,244279383,'',1.4835298642,1.47027029567,-0.0176132865732,-0.0132595685222,0.001,57.0161446455,4300.0,0.0,0.0,0.0
1513266702062910587,,662459,,1513266700,254279383,'',1.4835298642,1.47165792494,0.0100480900817,-0.0118719392583,0.001,51.0493388105,4300.0,0.0,0.0,0.0
1513266702072892145,,662460,,1513266700,264279383,'',1.4835298642,1.47165792494,0.00877427536792,-0.0118719392583,0.001,51.0493388105,4300.0,0.0,0.0,0.0
1513266702083349726,,662461,,1513266700,274279383,'',1.4835298642,1.47165792494,0.00821475086908,-0.0118719392583,0.001,51.0493388105,4300.0,0.0,0.0,0.0
1513266702093508242,,662462,,1513266700,284279383,'',1.4835298642,1.47165792494,0.00770539510734,-0.0118719392583,0.001,51.0493388105,4300.0,0.0,0.0,0.0
1513266702103437951,,662463,,1513266700,294279383,'',1.4835298642,1.47027029567,-0.0216915680331,-0.0132595685222,0.001,57.0161446455,4300.0,0.0,0.0,0.0
1513266702113348693,,662464,,1513266700,304279383,'',1.4835298642,1.47027029567,-0.0207345620205,-0.0132595685222,0.001,57.0161446455,4300.0,0.0,0.0,0.0
1513266702123276616,,662465,,1513266700,314279383,'',1.4835298642,1.47165792494,0.00685095145695,-0.0118719392583,0.001,51.0493388105,4300.0,0.0,0.0,0.0
1513266702133284723,,662466,,1513266700,324279383,'',1.4835298642,1.4730455542,0.0356213012898,-0.0104843099943,0.001,45.0825329755,4300.0,0.0,0.0,0.0
1513266702143063702,,662467,,1513266700,334279383,'',1.4835298642,1.47165792494,0.00668518799422,-0.0118719392583,0.001,51.0493388105,4300.0,0.0,0.0,0.0
1513266702152957457,,662468,,1513266700,344279383,'',1.4835298642,1.4730455542,0.03247078252,-0.0104843099943,0.001,45.0825329755,4300.0,0.0,0.0,0.0
1513266702163046523,,662469,,1513266700,354279383,'',1.4835298642,1.47165792494,0.00520885778805,-0.0118719392583,0.001,51.0493388105,4300.0,0.0,0.0,0.0
1513266702173245428,,662470,,1513266700,364279383,'',1.4835298642,1.47165792494,0.00527937639033,-0.0118719392583,0.001,51.0493388105,4300.0,0.0,0.0,0.0
1513266702183211300,,662471,,1513266700,374279383,'',1.4835298642,1.47165792494,0.00482253071225,-0.0118719392583,0.001,51.0493388105,4300.0,0.0,0.0,0.0
1513266702193042948,,662472,,1513266700,384279383,'',1.4835298642,1.47027029567,-0.0220298331305,-0.0132595685222,0.001,57.0161446455,4300.0,0.0,0.0,0.0
1513266702203716374,,662473,,1513266700,394279383,'',1.4835298642,1.47165792494,0.00593591865778,-0.0118719392583,0.001,51.0493388105,4300.0,0.0,0.0,0.0
1513266702213411258,,662474,,1513266700,404279383,'',1.4835298642,1.47165792494,0.00645646888109,-0.0118719392583,0.001,51.0493388105,4300.0,0.0,0.0,0.0
1513266702223447112,,662475,,1513266700,414279383,'',1.4835298642,1.47027029567,-0.0216186823544,-0.0132595685222,0.001,57.0161446455,4300.0,0.0,0.0,0.0
1513266702233227995,,662476,,1513266700,424279383,'',1.4835298642,1.47027029567,-0.0202937036342,-0.0132595685222,0.001,57.0161446455,4300.0,0.0,0.0,0.0
1513266702243280910,,662477,,1513266700,434279383,'',1.4835298642,1.47165792494,0.00780930758447,-0.0118719392583,0.001,51.0493388105,4300.0,0.0,0.0,0.0
1513266702253225784,,662478,,1513266700,444279383,'',1.4835298642,1.47165792494,0.00694279253506,-0.0118719392583,0.001,51.0493388105,4300.0,0.0,0.0,0.0
1513266702263541648,,662479,,1513266700,454279383,'',1.4835298642,1.47165792494,0.00671264507018,-0.0118719392583,0.001,51.0493388105,4300.0,0.0,0.0,0.0
1513266702273524961,,662480,,1513266700,464279383,'',1.4835298642,1.47165792494,0.00699989448339,-0.0118719392583,0.001,51.0493388105,4300.0,0.0,0.0,0.0
1513266702283537357,,662481,,1513266700,474279383,'',1.4835298642,1.47165792494,0.00627508282882,-0.0118719392583,0.001,51.0493388105,4300.0,0.0,0.0,0.0
1513266702293252732,,662482,,1513266700,484279383,'',1.4835298642,1.47165792494,0.00612057446438,-0.0118719392583,0.001,51.0493388105,4300.0,0.0,0.0,0.0
1513266702303172182,,662483,,1513266700,494279383,'',1.4835298642,1.47165792494,0.00498470003685,-0.0118719392583,0.001,51.0493388105,4300.0,0.0,0.0,0.0
1513266702313168993,,662484,,1513266700,504279383,'',1.4835298642,1.47165792494,0.00564083493097,-0.0118719392583,0.001,51.0493388105,4300.0,0.0,0.0,0.0
1513266702323643936,,662485,,1513266700,514279383,'',1.4835298642,1.47165792494,0.00711504820478,-0.0118719392583,0.001,51.0493388105,4300.0,0.0,0.0,0.0
1513266702333404682,,662486,,1513266700,524279383,'',1.4835298642,1.47165792494,0.00683466949228,-0.0118719392583,0.001,51.0493388105,4300.0,0.0,0.0,0.0
1513266702343412836,,662487,,1513266700,534279383,'',1.4835298642,1.47165792494,0.0070797669769,-0.0118719392583,0.001,51.0493388105,4300.0,0.0,0.0,0.0
1513266702353515106,,662488,,1513266700,544279383,'',1.4835298642,1.47165792494,0.00626255934813,-0.0118719392583,0.001,51.0493388105,4300.0,0.0,0.0,0.0
1513266702363553289,,662489,,1513266700,554279383,'',1.4835298642,1.47165792494,0.00511859203206,-0.0118719392583,0.001,51.0493388105,4300.0,0.0,0.0,0.0
1513266702373354689,,662490,,1513266700,564279383,'',1.4835298642,1.47165792494,0.00618600065809,-0.0118719392583,0.001,51.0493388105,4300.0,0.0,0.0,0.0
1513266702383342731,,662491,,1513266700,574279383,'',1.4835298642,1.47027029567,-0.021478552174,-0.0132595685222,0.001,57.0161446455,4300.0,0.0,0.0,0.0
1513266702393237888,,662492,,1513266700,584279383,'',1.4835298642,1.47027029567,-0.0195821262751,-0.0132595685222,0.001,57.0161446455,4300.0,0.0,0.0,0.0
1513266702403160770,,662493,,1513266700,594279383,'',1.4835298642,1.47165792494,0.00843065145258,-0.0118719392583,0.001,51.0493388105,4300.0,0.0,0.0,0.0
1513266702413280109,,662494,,1513266700,604279383,'',1.4835298642,1.47165792494,0.00742373290145,-0.0118719392583,0.001,51.0493388105,4300.0,0.0,0.0,0.0
1513266702423231226,,662495,,1513266700,614279383,'',1.4835298642,1.47027029567,-0.0213746633159,-0.0132595685222,0.001,57.0161446455,4300.0,0.0,0.0,0.0
1513266702433008436,,662496,,1513266700,624279383,'',1.4835298642,1.47165792494,0.00698571390779,-0.0118719392583,0.001,51.0493388105,4300.0,0.0,0.0,0.0
1513266702443080226,,662497,,1513266700,634279383,'',1.4835298642,1.47165792494,0.00732811825386,-0.0118719392583,0.001,51.0493388105,4300.0,0.0,0.0,0.0
1513266702453135172,,662498,,1513266700,644279383,'',1.4835298642,1.47165792494,0.00553720624584,-0.0118719392583,0.001,51.0493388105,4300.0,0.0,0.0,0.0
1513266702463164013,,662499,,1513266700,654279383,'',1.4835298642,1.4730455542,0.0334735912661,-0.0104843099943,0.001,45.0825329755,4300.0,0.0,0.0,0.0
1513266702473298478,,662500,,1513266700,664279383,'',1.4835298642,1.4730455542,0.0318345908387,-0.0104843099943,0.001,45.0825329755,4300.0,0.0,0.0,0.0
1513266702483664428,,662501,,1513266700,674279383,'',1.4835298642,1.47027029567,-0.0249073248788,-0.0132595685222,0.001,57.0161446455,4300.0,0.0,0.0,0.0
1513266702493583896,,662502,,1513266700,684279383,'',1.4835298642,1.47027029567,-0.0253816398762,-0.0132595685222,0.001,57.0161446455,4300.0,0.0,0.0,0.0
1513266702503615814,,662503,,1513266700,694279383,'',1.4835298642,1.47027029567,-0.0258242765334,-0.0132595685222,0.001,57.0161446455,4300.0,0.0,0.0,0.0
1513266702513609168,,662504,,1513266700,704279383,'',1.4835298642,1.47165792494,0.000781285319309,-0.0118719392583,0.001,51.0493388105,4300.0,0.0,0.0,0.0
1513266702523472436,,662505,,1513266700,714279383,'',1.4835298642,1.47165792494,0.00163667997744,-0.0118719392583,0.001,51.0493388105,4300.0,0.0,0.0,0.0
1513266702533540102,,662506,,1513266700,724279383,'',1.4835298642,1.47165792494,0.00183917944016,-0.0118719392583,0.001,51.0493388105,4300.0,0.0,0.0,0.0
1513266702543260285,,662507,,1513266700,734279383,'',1.4835298642,1.47027029567,-0.0248868070897,-0.0132595685222,0.001,57.0161446455,4300.0,0.0,0.0,0.0
1513266702553471933,,662508,,1513266700,744279383,'',1.4835298642,1.47165792494,0.00360830600342,-0.0118719392583,0.001,51.0493388105,4300.0,0.0,0.0,0.0
1513266702563127382,,662509,,1513266700,754279383,'',1.4835298642,1.47165792494,0.00397884156661,-0.0118719392583,0.001,51.0493388105,4300.0,0.0,0.0,0.0
1513266702573052483,,662510,,1513266700,764279383,'',1.4835298642,1.47165792494,0.00473015264865,-0.0118719392583,0.001,51.0493388105,4300.0,0.0,0.0,0.0
1513266702583090205,,662511,,1513266700,774279383,'',1.4835298642,1.47165792494,0.00438710480599,-0.0118719392583,0.001,51.0493388105,4300.0,0.0,0.0,0.0
1513266702593491706,,662512,,1513266700,784279383,'',1.4835298642,1.47165792494,0.00410227550234,-0.0118719392583,0.001,51.0493388105,4300.0,0.0,0.0,0.0
1513266702603817919,,662513,,1513266700,794279383,'',1.4835298642,1.47165792494,0.00385982825908,-0.0118719392583,0.001,51.0493388105,4300.0,0.0,0.0,0.0
1513266702613432447,,662514,,1513266700,804279383,'',1.4835298642,1.47165792494,0.00210076130598,-0.0118719392583,0.001,51.0493388105,4300.0,0.0,0.0,0.0
1513266702623553116,,662515,,1513266700,814279383,'',1.4835298642,1.47165792494,0.00126990997193,-0.0118719392583,0.001,51.0493388105,4300.0,0.0,0.0,0.0
1513266702633510580,,662516,,1513266700,824279383,'',1.4835298642,1.4730455542,0.0274944606842,-0.0104843099943,0.001,45.0825329755,4300.0,0.0,0.0,0.0
1513266702643607070,,662517,,1513266700,834279383,'',1.4835298642,1.47165792494,-0.00143436829024,-0.0118719392583,0.001,51.0493388105,4300.0,0.0,0.0,0.0
1513266702653521460,,662518,,1513266700,844279383,'',1.4835298642,1.47165792494,-0.00172552403969,-0.0118719392583,0.001,51.0493388105,4300.0,0.0,0.0,0.0
1513266702663570993,,662519,,1513266700,854279383,'',1.4835298642,1.47165792494,-0.000329036562936,-0.0118719392583,0.001,51.0493388105,4300.0,0.0,0.0,0.0
1513266702673192365,,662520,,1513266700,864279383,'',1.4835298642,1.47027029567,-0.0272195026445,-0.0132595685222,0.001,57.0161446455,4300.0,0.0,0.0,0.0
1513266702683297651,,662521,,1513266700,874279383,'',1.4835298642,1.47027029567,-0.0283180691741,-0.0132595685222,0.001,57.0161446455,4300.0,0.0,0.0,0.0
1513266702693360234,,662522,,1513266700,884279383,'',1.4835298642,1.47165792494,-0.000669444314443,-0.0118719392583,0.001,51.0493388105,4300.0,0.0,0.0,0.0
1513266702703387619,,662523,,1513266700,894279383,'',1.4835298642,1.47165792494,-0.000563262789734,-0.0118719392583,0.001,51.0493388105,4300.0,0.0,0.0,0.0
1513266702713318509,,662524,,1513266700,904279383,'',1.4835298642,1.47027029567,-0.0279726768326,-0.0132595685222,0.001,57.0161446455,4300.0,0.0,0.0,0.0
1513266702723199473,,662525,,1513266700,914279383,'',1.4835298642,1.47165792494,3.46738237918e-05,-0.0118719392583,0.001,51.0493388105,4300.0,0.0,0.0,0.0
1513266702733182096,,662526,,1513266700,924279383,'',1.4835298642,1.47165792494,-0.000460524608151,-0.0118719392583,0.001,51.0493388105,4300.0,0.0,0.0,0.0
1513266702743264053,,662527,,1513266700,934279383,'',1.4835298642,1.47027029567,-0.0282913791749,-0.0132595685222,0.001,57.0161446455,4300.0,0.0,0.0,0.0
1513266702753188796,,662528,,1513266700,944279383,'',1.4835298642,1.47165792494,0.00034751056777,-0.0118719392583,0.001,51.0493388105,4300.0,0.0,0.0,0.0
1513266702763249841,,662529,,1513266700,954279383,'',1.4835298642,1.47165792494,0.000284467451021,-0.0118719392583,0.001,51.0493388105,4300.0,0.0,0.0,0.0
1513266702773301724,,662530,,1513266700,964279383,'',1.4835298642,1.47165792494,0.00222143949854,-0.0118719392583,0.001,51.0493388105,4300.0,0.0,0.0,0.0
1513266702783145328,,662531,,1513266700,974279383,'',1.4835298642,1.47165792494,0.00273351170401,-0.0118719392583,0.001,51.0493388105,4300.0,0.0,0.0,0.0
1513266702793121390,,662532,,1513266700,984279383,'',1.4835298642,1.47165792494,0.00275254933206,-0.0118719392583,0.001,51.0493388105,4300.0,0.0,0.0,0.0
1513266702803061427,,662533,,1513266700,994279383,'',1.4835298642,1.47165792494,0.00228553159157,-0.0118719392583,0.001,51.0493388105,4300.0,0.0,0.0,0.0
1513266702813168570,,662534,,1513266701,4279383,'',1.4835298642,1.47165792494,0.00137194289403,-0.0118719392583,0.001,51.0493388105,4300.0,0.0,0.0,0.0
1513266702823081768,,662535,,1513266701,14279383,'',1.4835298642,1.47165792494,0.00164247173849,-0.0118719392583,0.001,51.0493388105,4300.0,0.0,0.0,0.0
1513266702833128167,,662536,,1513266701,24279383,'',1.4835298642,1.47027029567,-0.0261432412043,-0.0132595685222,0.001,57.0161446455,4300.0,0.0,0.0,0.0
1513266702842967936,,662537,,1513266701,34279383,'',1.4835298642,1.47165792494,0.00299365211718,-0.0118719392583,0.001,51.0493388105,4300.0,0.0,0.0,0.0
1513266702853034329,,662538,,1513266701,44279383,'',1.4835298642,1.47165792494,0.00246721485113,-0.0118719392583,0.001,51.0493388105,4300.0,0.0,0.0,0.0
1513266702863421132,,662539,,1513266701,54279383,'',1.4835298642,1.47165792494,0.00262015673324,-0.0118719392583,0.001,51.0493388105,4300.0,0.0,0.0,0.0
1513266702873273877,,662540,,1513266701,64279383,'',1.4835298642,1.47165792494,0.00264105825811,-0.0118719392583,0.001,51.0493388105,4300.0,0.0,0.0,0.0
1513266702883362196,,662541,,1513266701,74279383,'',1.4835298642,1.47165792494,0.00256073485801,-0.0118719392583,0.001,51.0493388105,4300.0,0.0,0.0,0.0
1513266702893280579,,662542,,1513266701,84279383,'',1.4835298642,1.47165792494,0.00209621290957,-0.0118719392583,0.001,51.0493388105,4300.0,0.0,0.0,0.0
1513266702903290934,,662543,,1513266701,94279383,'',1.4835298642,1.47165792494,0.00168358106728,-0.0118719392583,0.001,51.0493388105,4300.0,0.0,0.0,0.0
1513266702913016824,,662544,,1513266701,104279383,'',1.4835298642,1.47165792494,0.000397341823153,-0.0118719392583,0.001,51.0493388105,4300.0,0.0,0.0,0.0
1513266702922909222,,662545,,1513266701,114279383,'',1.4835298642,1.47165792494,0.000294633699378,-0.0118719392583,0.001,51.0493388105,4300.0,0.0,0.0,0.0
1513266702933442929,,662546,,1513266701,124279383,'',1.4835298642,1.47165792494,-0.000263747745327,-0.0118719392583,0.001,51.0493388105,4300.0,0.0,0.0,0.0
1513266702943422198,,662547,,1513266701,134279383,'',1.4835298642,1.47165792494,-0.000169006493666,-0.0118719392583,0.001,51.0493388105,4300.0,0.0,0.0,0.0
1513266702953347653,,662548,,1513266701,144279383,'',1.4835298642,1.47165792494,0.000341025428512,-0.0118719392583,0.001,51.0493388105,4300.0,0.0,0.0,0.0
1513266702963289428,,662549,,1513266701,154279383,'',1.4835298642,1.47165792494,-0.000236075845301,-0.0118719392583,0.001,51.0493388105,4300.0,0.0,0.0,0.0
1513266702973104074,,662550,,1513266701,164279383,'',1.4835298642,1.47165792494,-0.000228793259982,-0.0118719392583,0.001,51.0493388105,4300.0,0.0,0.0,0.0
1513266702982888939,,662551,,1513266701,174279383,'',1.4835298642,1.47165792494,-0.00118182846031,-0.0118719392583,0.001,51.0493388105,4300.0,0.0,0.0,0.0
1513266702992886798,,662552,,1513266701,184279383,'',1.4835298642,1.47027029567,-0.0284460132724,-0.0132595685222,0.001,57.0161446455,4300.0,0.0,0.0,0.0
1513266703002948691,,662553,,1513266701,194279383,'',1.4835298642,1.47165792494,9.72116544405e-05,-0.0118719392583,0.001,51.0493388105,4300.0,0.0,0.0,0.0
1513266703012900436,,662554,,1513266701,204279383,'',1.4835298642,1.47027029567,-0.0279412881262,-0.0132595685222,0.001,57.0161446455,4300.0,0.0,0.0,0.0
1513266703023557105,,662555,,1513266701,214279383,'',1.4835298642,1.47165792494,-0.000417073379766,-0.0118719392583,0.001,51.0493388105,4300.0,0.0,0.0,0.0
1513266703033374009,,662556,,1513266701,224279383,'',1.4835298642,1.47165792494,0.00067733586356,-0.0118719392583,0.001,51.0493388105,4300.0,0.0,0.0,0.0
1513266703043405566,,662557,,1513266701,234279383,'',1.4835298642,1.47165792494,0.00151854107082,-0.0118719392583,0.001,51.0493388105,4300.0,0.0,0.0,0.0
1513266703053404731,,662558,,1513266701,244279383,'',1.4835298642,1.47165792494,0.0017620350565,-0.0118719392583,0.001,51.0493388105,4300.0,0.0,0.0,0.0
1513266703063310264,,662559,,1513266701,254279383,'',1.4835298642,1.4730455542,0.0293910073154,-0.0104843099943,0.001,45.0825329755,4300.0,0.0,0.0,0.0
1513266703073262425,,662560,,1513266701,264279383,'',1.4835298642,1.47165792494,0.00207952057426,-0.0118719392583,0.001,51.0493388105,4300.0,0.0,0.0,0.0
1513266703083276858,,662561,,1513266701,274279383,'',1.4835298642,1.47165792494,0.00217513804455,-0.0118719392583,0.001,51.0493388105,4300.0,0.0,0.0,0.0
1513266703093294829,,662562,,1513266701,284279383,'',1.4835298642,1.47027029567,-0.024721049155,-0.0132595685222,0.001,57.0161446455,4300.0,0.0,0.0,0.0
1513266703103144196,,662563,,1513266701,294279383,'',1.4835298642,1.4730455542,0.0295981157079,-0.0104843099943,0.001,45.0825329755,4300.0,0.0,0.0,0.0
1513266703112937618,,662564,,1513266701,304279383,'',1.4835298642,1.47165792494,-0.000225007484053,-0.0118719392583,0.001,51.0493388105,4300.0,0.0,0.0,0.0
1513266703122990990,,662565,,1513266701,314279383,'',1.4835298642,1.4730455542,0.0273009971029,-0.0104843099943,0.001,45.0825329755,4300.0,0.0,0.0,0.0
1513266703133018032,,662566,,1513266701,324279383,'',1.4835298642,1.47165792494,-7.26858136409e-05,-0.0118719392583,0.001,51.0493388105,4300.0,0.0,0.0,0.0
1513266703143780914,,662567,,1513266701,334279383,'',1.4835298642,1.47165792494,-0.000995112843194,-0.0118719392583,0.001,51.0493388105,4300.0,0.0,0.0,0.0
1513266703153583702,,662568,,1513266701,344279383,'',1.4835298642,1.47165792494,-0.000810475216413,-0.0118719392583,0.001,51.0493388105,4300.0,0.0,0.0,0.0
1513266703163414356,,662569,,1513266701,354279383,'',1.4835298642,1.47165792494,0.000247613281149,-0.0118719392583,0.001,51.0493388105,4300.0,0.0,0.0,0.0
1513266703173668001,,662570,,1513266701,364279383,'',1.4835298642,1.47165792494,0.000669974840009,-0.0118719392583,0.001,51.0493388105,4300.0,0.0,0.0,0.0
1513266703183045963,,662571,,1513266701,374279383,'',1.4835298642,1.47027029567,-0.0279562197436,-0.0132595685222,0.001,57.0161446455,4300.0,0.0,0.0,0.0
1513266703193328169,,662572,,1513266701,384279383,'',1.4835298642,1.47165792494,3.68266773016e-06,-0.0118719392583,0.001,51.0493388105,4300.0,0.0,0.0,0.0
1513266703203021430,,662573,,1513266701,394279383,'',1.4835298642,1.47165792494,3.01522892778e-06,-0.0118719392583,0.001,51.0493388105,4300.0,0.0,0.0,0.0
1513266703213068564,,662574,,1513266701,404279383,'',1.4835298642,1.4730455542,0.0279763083961,-0.0104843099943,0.001,45.0825329755,4300.0,0.0,0.0,0.0
1513266703223336978,,662575,,1513266701,414279383,'',1.4835298642,1.47165792494,-0.000588222134505,-0.0118719392583,0.001,51.0493388105,4300.0,0.0,0.0,0.0
1513266703233548115,,662576,,1513266701,424279383,'',1.4835298642,1.47165792494,-0.000979005930262,-0.0118719392583,0.001,51.0493388105,4300.0,0.0,0.0,0.0
1513266703243417237,,662577,,1513266701,434279383,'',1.4835298642,1.47165792494,-0.00178609421308,-0.0118719392583,0.001,51.0493388105,4300.0,0.0,0.0,0.0
1513266703253264323,,662578,,1513266701,444279383,'',1.4835298642,1.47165792494,-0.00192431293195,-0.0118719392583,0.001,51.0493388105,4300.0,0.0,0.0,0.0
1513266703263454577,,662579,,1513266701,454279383,'',1.4835298642,1.47027029567,-0.0285767883035,-0.0132595685222,0.001,57.0161446455,4300.0,0.0,0.0,0.0
1513266703273576353,,662580,,1513266701,464279383,'',1.4835298642,1.4730455542,0.0275508817201,-0.0104843099943,0.001,45.0825329755,4300.0,0.0,0.0,0.0
1513266703283168966,,662581,,1513266701,474279383,'',1.4835298642,1.47165792494,-0.00132791445537,-0.0118719392583,0.001,51.0493388105,4300.0,0.0,0.0,0.0
1513266703293042754,,662582,,1513266701,484279383,'',1.4835298642,1.4730455542,0.0268528403975,-0.0104843099943,0.001,45.0825329755,4300.0,0.0,0.0,0.0
1513266703302939494,,662583,,1513266701,494279383,'',1.4835298642,1.47027029567,-0.0279219482013,-0.0132595685222,0.001,57.0161446455,4300.0,0.0,0.0,0.0
1513266703313568828,,662584,,1513266701,504279383,'',1.4835298642,1.47165792494,0.000600836827639,-0.0118719392583,0.001,51.0493388105,4300.0,0.0,0.0,0.0
1513266703323566171,,662585,,1513266701,514279383,'',1.4835298642,1.47165792494,0.00102221322395,-0.0118719392583,0.001,51.0493388105,4300.0,0.0,0.0,0.0
1513266703333425270,,662586,,1513266701,524279383,'',1.4835298642,1.4730455542,0.0288318763579,-0.0104843099943,0.001,45.0825329755,4300.0,0.0,0.0,0.0
1513266703343372708,,662587,,1513266701,534279383,'',1.4835298642,1.4730455542,0.0291162280837,-0.0104843099943,0.001,45.0825329755,4300.0,0.0,0.0,0.0
1513266703353493511,,662588,,1513266701,544279383,'',1.4835298642,1.47165792494,0.000349244359794,-0.0118719392583,0.001,51.0493388105,4300.0,0.0,0.0,0.0
1513266703363211965,,662589,,1513266701,554279383,'',1.4835298642,1.47165792494,0.000770232556756,-0.0118719392583,0.001,51.0493388105,4300.0,0.0,0.0,0.0
1513266703373463170,,662590,,1513266701,564279383,'',1.4835298642,1.47165792494,0.000656717526633,-0.0118719392583,0.001,51.0493388105,4300.0,0.0,0.0,0.0
1513266703383457852,,662591,,1513266701,574279383,'',1.4835298642,1.47165792494,0.00152506317799,-0.0118719392583,0.001,51.0493388105,4300.0,0.0,0.0,0.0
1513266703393459851,,662592,,1513266701,584279383,'',1.4835298642,1.47027029567,-0.025701125357,-0.0132595685222,0.001,57.0161446455,4300.0,0.0,0.0,0.0
1513266703403627858,,662593,,1513266701,594279383,'',1.4835298642,1.47165792494,0.000896675983723,-0.0118719392583,0.001,51.0493388105,4300.0,0.0,0.0,0.0
1513266703413298567,,662594,,1513266701,604279383,'',1.4835298642,1.47165792494,0.00128698799393,-0.0118719392583,0.001,51.0493388105,4300.0,0.0,0.0,0.0
1513266703423370462,,662595,,1513266701,614279383,'',1.4835298642,1.47165792494,0.001093324271,-0.0118719392583,0.001,51.0493388105,4300.0,0.0,0.0,0.0
1513266703433308624,,662596,,1513266701,624279383,'',1.4835298642,1.47165792494,0.0019780880041,-0.0118719392583,0.001,51.0493388105,4300.0,0.0,0.0,0.0
1513266703443309570,,662597,,1513266701,634279383,'',1.4835298642,1.47165792494,0.00364237935956,-0.0118719392583,0.001,51.0493388105,4300.0,0.0,0.0,0.0
1513266703453248358,,662598,,1513266701,644279383,'',1.4835298642,1.47165792494,0.0064657741702,-0.0118719392583,0.001,51.0493388105,4300.0,0.0,0.0,0.0
1513266703463106730,,662599,,1513266701,654279383,'',1.4835298642,1.47027029567,-0.021287753748,-0.0132595685222,0.001,57.0161446455,4300.0,0.0,0.0,0.0
1513266703472987519,,662600,,1513266701,664279383,'',1.4835298642,1.47165792494,0.00752324757273,-0.0118719392583,0.001,51.0493388105,4300.0,0.0,0.0,0.0
1513266703483027576,,662601,,1513266701,674279383,'',1.4835298642,1.46888266641,-0.0473423365893,-0.0146471977862,0.001,62.9829504805,4300.0,0.0,0.0,0.0
1513266703493679948,,662602,,1513266701,684279383,'',1.4835298642,1.47027029567,-0.0183713921818,-0.0132595685222,0.001,57.0161446455,4300.0,0.0,0.0,0.0
1513266703503439366,,662603,,1513266701,694279383,'',1.4835298642,1.47165792494,0.0113995271352,-0.0118719392583,0.001,51.0493388105,4300.0,0.0,0.0,0.0
1513266703513664481,,662604,,1513266701,704279383,'',1.4835298642,1.47165792494,0.011837442683,-0.0118719392583,0.001,51.0493388105,4300.0,0.0,0.0,0.0
1513266703523676833,,662605,,1513266701,714279383,'',1.4835298642,1.47027029567,-0.0162434518642,-0.0132595685222,0.001,57.0161446455,4300.0,0.0,0.0,0.0
1513266703533472305,,662606,,1513266701,724279383,'',1.4835298642,1.47165792494,0.0121146276371,-0.0118719392583,0.001,51.0493388105,4300.0,0.0,0.0,0.0
1513266703543150121,,662607,,1513266701,734279383,'',1.4835298642,1.47165792494,0.0129164422755,-0.0118719392583,0.001,51.0493388105,4300.0,0.0,0.0,0.0
1513266703553209277,,662608,,1513266701,744279383,'',1.4835298642,1.47027029567,-0.0144189625845,-0.0132595685222,0.001,57.0161446455,4300.0,0.0,0.0,0.0
1513266703563061705,,662609,,1513266701,754279383,'',1.4835298642,1.47027029567,-0.0128270483081,-0.0132595685222,0.001,57.0161446455,4300.0,0.0,0.0,0.0
1513266703573243447,,662610,,1513266701,764279383,'',1.4835298642,1.47165792494,0.0139782865012,-0.0118719392583,0.001,51.0493388105,4300.0,0.0,0.0,0.0
1513266703583036467,,662611,,1513266701,774279383,'',1.4835298642,1.47165792494,0.0134073834504,-0.0118719392583,0.001,51.0493388105,4300.0,0.0,0.0,0.0
1513266703593324752,,662612,,1513266701,784279383,'',1.4835298642,1.47165792494,0.0124634206146,-0.0118719392583,0.001,51.0493388105,4300.0,0.0,0.0,0.0
1513266703603405448,,662613,,1513266701,794279383,'',1.4835298642,1.47027029567,-0.0147430044925,-0.0132595685222,0.001,57.0161446455,4300.0,0.0,0.0,0.0
1513266703613374303,,662614,,1513266701,804279383,'',1.4835298642,1.47027029567,-0.0160921265428,-0.0132595685222,0.001,57.0161446455,4300.0,0.0,0.0,0.0
1513266703623597549,,662615,,1513266701,814279383,'',1.4835298642,1.47165792494,0.0113909857629,-0.0118719392583,0.001,51.0493388105,4300.0,0.0,0.0,0.0
1513266703633474614,,662616,,1513266701,824279383,'',1.4835298642,1.47165792494,0.0093009097618,-0.0118719392583,0.001,51.0493388105,4300.0,0.0,0.0,0.0
1513266703643526263,,662617,,1513266701,834279383,'',1.4835298642,1.47443318346,0.064085169169,-0.00909668073036,0.001,39.1157271405,4300.0,0.0,0.0,0.0
1513266703653318848,,662618,,1513266701,844279383,'',1.4835298642,1.47165792494,0.0080143548883,-0.0118719392583,0.001,51.0493388105,4300.0,0.0,0.0,0.0
1513266703663488068,,662619,,1513266701,854279383,'',1.4835298642,1.47165792494,0.00745637715732,-0.0118719392583,0.001,51.0493388105,4300.0,0.0,0.0,0.0
1513266703673249482,,662620,,1513266701,864279383,'',1.4835298642,1.47165792494,0.00712795742099,-0.0118719392583,0.001,51.0493388105,4300.0,0.0,0.0,0.0
1513266703683181729,,662621,,1513266701,874279383,'',1.4835298642,1.47027029567,-0.0206376125403,-0.0132595685222,0.001,57.0161446455,4300.0,0.0,0.0,0.0
1513266703693148823,,662622,,1513266701,884279383,'',1.4835298642,1.47027029567,-0.0188763293324,-0.0132595685222,0.001,57.0161446455,4300.0,0.0,0.0,0.0
1513266703703061009,,662623,,1513266701,894279383,'',1.4835298642,1.47027029567,-0.0179456328066,-0.0132595685222,0.001,57.0161446455,4300.0,0.0,0.0,0.0
1513266703712965057,,662624,,1513266701,904279383,'',1.4835298642,1.47027029567,-0.0176581227951,-0.0132595685222,0.001,57.0161446455,4300.0,0.0,0.0,0.0
1513266703723478527,,662625,,1513266701,914279383,'',1.4835298642,1.47165792494,0.0104753869951,-0.0118719392583,0.001,51.0493388105,4300.0,0.0,0.0,0.0
1513266703733552429,,662626,,1513266701,924279383,'',1.4835298642,1.47027029567,-0.0173740520693,-0.0132595685222,0.001,57.0161446455,4300.0,0.0,0.0,0.0
1513266703743523657,,662627,,1513266701,934279383,'',1.4835298642,1.47165792494,0.00969956193247,-0.0118719392583,0.001,51.0493388105,4300.0,0.0,0.0,0.0
1513266703753416499,,662628,,1513266701,944279383,'',1.4835298642,1.47027029567,-0.01802719307,-0.0132595685222,0.001,57.0161446455,4300.0,0.0,0.0,0.0
1513266703763295198,,662629,,1513266701,954279383,'',1.4835298642,1.4730455542,0.0356540955087,-0.0104843099943,0.001,45.0825329755,4300.0,0.0,0.0,0.0
1513266703773206915,,662630,,1513266701,964279383,'',1.4835298642,1.47165792494,0.00827526377776,-0.0118719392583,0.001,51.0493388105,4300.0,0.0,0.0,0.0
1513266703783187664,,662631,,1513266701,974279383,'',1.4835298642,1.47165792494,0.0082613141354,-0.0118719392583,0.001,51.0493388105,4300.0,0.0,0.0,0.0
1513266703793324610,,662632,,1513266701,984279383,'',1.4835298642,1.47027029567,-0.0197311134775,-0.0132595685222,0.001,57.0161446455,4300.0,0.0,0.0,0.0
1513266703803133255,,662633,,1513266701,994279383,'',1.4835298642,1.47027029567,-0.0187022915467,-0.0132595685222,0.001,57.0161446455,4300.0,0.0,0.0,0.0
1513266703813021843,,662634,,1513266702,4279383,'',1.4835298642,1.47165792494,0.00922064092229,-0.0118719392583,0.001,51.0493388105,4300.0,0.0,0.0,0.0
1513266703823032361,,662635,,1513266702,14279383,'',1.4835298642,1.47027029567,-0.0188541647619,-0.0132595685222,0.001,57.0161446455,4300.0,0.0,0.0,0.0
1513266703833145628,,662636,,1513266702,24279383,'',1.4835298642,1.47165792494,0.00907817239562,-0.0118719392583,0.001,51.0493388105,4300.0,0.0,0.0,0.0
1513266703842967736,,662637,,1513266702,34279383,'',1.4835298642,1.47027029567,-0.0185817411428,-0.0132595685222,0.001,57.0161446455,4300.0,0.0,0.0,0.0
1513266703853558001,,662638,,1513266702,44279383,'',1.4835298642,1.47027029567,-0.0178032442878,-0.0132595685222,0.001,57.0161446455,4300.0,0.0,0.0,0.0
1513266703863307508,,662639,,1513266702,54279383,'',1.4835298642,1.47165792494,0.00885267064412,-0.0118719392583,0.001,51.0493388105,4300.0,0.0,0.0,0.0
1513266703873436734,,662640,,1513266702,64279383,'',1.4835298642,1.47165792494,0.00928152562853,-0.0118719392583,0.001,51.0493388105,4300.0,0.0,0.0,0.0
1513266703883424220,,662641,,1513266702,74279383,'',1.4835298642,1.47165792494,0.00907605418237,-0.0118719392583,0.001,51.0493388105,4300.0,0.0,0.0,0.0
1513266703893174695,,662642,,1513266702,84279383,'',1.4835298642,1.47027029567,-0.0184517300317,-0.0132595685222,0.001,57.0161446455,4300.0,0.0,0.0,0.0
1513266703903405977,,662643,,1513266702,94279383,'',1.4835298642,1.47165792494,0.00881051783258,-0.0118719392583,0.001,51.0493388105,4300.0,0.0,0.0,0.0
1513266703913295770,,662644,,1513266702,104279383,'',1.4835298642,1.47027029567,-0.0188082494356,-0.0132595685222,0.001,57.0161446455,4300.0,0.0,0.0,0.0
1513266703923350479,,662645,,1513266702,114279383,'',1.4835298642,1.47165792494,0.00867555355396,-0.0118719392583,0.001,51.0493388105,4300.0,0.0,0.0,0.0
1513266703933037448,,662646,,1513266702,124279383,'',1.4835298642,1.47165792494,0.00915411956711,-0.0118719392583,0.001,51.0493388105,4300.0,0.0,0.0,0.0
1513266703943752882,,662647,,1513266702,134279383,'',1.4835298642,1.47165792494,0.00857002440105,-0.0118719392583,0.001,51.0493388105,4300.0,0.0,0.0,0.0
1513266703953671699,,662648,,1513266702,144279383,'',1.4835298642,1.47165792494,0.00654896602764,-0.0118719392583,0.001,51.0493388105,4300.0,0.0,0.0,0.0
1513266703963520981,,662649,,1513266702,154279383,'',1.4835298642,1.47027029567,-0.0201567818354,-0.0132595685222,0.001,57.0161446455,4300.0,0.0,0.0,0.0
1513266703973265073,,662650,,1513266702,164279383,'',1.4835298642,1.47165792494,0.0079130695468,-0.0118719392583,0.001,51.0493388105,4300.0,0.0,0.0,0.0
1513266703983356876,,662651,,1513266702,174279383,'',1.4835298642,1.47027029567,-0.0200032356374,-0.0132595685222,0.001,57.0161446455,4300.0,0.0,0.0,0.0
1513266703993176633,,662652,,1513266702,184279383,'',1.4835298642,1.47165792494,0.0085989491727,-0.0118719392583,0.001,51.0493388105,4300.0,0.0,0.0,0.0
1513266704003333707,,662653,,1513266702,194279383,'',1.4835298642,1.47027029567,-0.0199123157118,-0.0132595685222,0.001,57.0161446455,4300.0,0.0,0.0,0.0
1513266704013155547,,662654,,1513266702,204279383,'',1.4835298642,1.47165792494,0.00821405049418,-0.0118719392583,0.001,51.0493388105,4300.0,0.0,0.0,0.0
1513266704023196355,,662655,,1513266702,214279383,'',1.4835298642,1.47165792494,0.00870007870111,-0.0118719392583,0.001,51.0493388105,4300.0,0.0,0.0,0.0
1513266704033007348,,662656,,1513266702,224279383,'',1.4835298642,1.47165792494,0.00961682360903,-0.0118719392583,0.001,51.0493388105,4300.0,0.0,0.0,0.0
1513266704043437156,,662657,,1513266702,234279383,'',1.4835298642,1.47165792494,0.00882953861922,-0.0118719392583,0.001,51.0493388105,4300.0,0.0,0.0,0.0
1513266704053461289,,662658,,1513266702,244279383,'',1.4835298642,1.47027029567,-0.0187677298715,-0.0132595685222,0.001,57.0161446455,4300.0,0.0,0.0,0.0
1513266704063593955,,662659,,1513266702,254279383,'',1.4835298642,1.47027029567,-0.0193841875709,-0.0132595685222,0.001,57.0161446455,4300.0,0.0,0.0,0.0
1513266704073432094,,662660,,1513266702,264279383,'',1.4835298642,1.47027029567,-0.0174647620869,-0.0132595685222,0.001,57.0161446455,4300.0,0.0,0.0,0.0
1513266704083602617,,662661,,1513266702,274279383,'',1.4835298642,1.47165792494,0.0106788513278,-0.0118719392583,0.001,51.0493388105,4300.0,0.0,0.0,0.0
1513266704093648696,,662662,,1513266702,284279383,'',1.4835298642,1.47027029567,-0.0183394556368,-0.0132595685222,0.001,57.0161446455,4300.0,0.0,0.0,0.0
1513266704103655040,,662663,,1513266702,294279383,'',1.4835298642,1.47027029567,-0.0179828047001,-0.0132595685222,0.001,57.0161446455,4300.0,0.0,0.0,0.0
1513266704113517126,,662664,,1513266702,304279383,'',1.4835298642,1.47165792494,0.00981738551014,-0.0118719392583,0.001,51.0493388105,4300.0,0.0,0.0,0.0
1513266704123349112,,662665,,1513266702,314279383,'',1.4835298642,1.47165792494,0.00856980349625,-0.0118719392583,0.001,51.0493388105,4300.0,0.0,0.0,0.0
1513266704133410062,,662666,,1513266702,324279383,'',1.4835298642,1.47027029567,-0.0189002944967,-0.0132595685222,0.001,57.0161446455,4300.0,0.0,0.0,0.0
1513266704143435104,,662667,,1513266702,334279383,'',1.4835298642,1.47165792494,0.0094431250368,-0.0118719392583,0.001,51.0493388105,4300.0,0.0,0.0,0.0
1513266704153091761,,662668,,1513266702,344279383,'',1.4835298642,1.47165792494,0.0102515668563,-0.0118719392583,0.001,51.0493388105,4300.0,0.0,0.0,0.0
1513266704163384361,,662669,,1513266702,354279383,'',1.4835298642,1.47027029567,-0.0155457238284,-0.0132595685222,0.001,57.0161446455,4300.0,0.0,0.0,0.0
1513266704173253789,,662670,,1513266702,364279383,'',1.4835298642,1.47165792494,0.0117760531401,-0.0118719392583,0.001,51.0493388105,4300.0,0.0,0.0,0.0
1513266704183167183,,662671,,1513266702,374279383,'',1.4835298642,1.47165792494,0.0105443747691,-0.0118719392583,0.001,51.0493388105,4300.0,0.0,0.0,0.0
1513266704193579981,,662672,,1513266702,384279383,'',1.4835298642,1.47165792494,0.0111170953749,-0.0118719392583,0.001,51.0493388105,4300.0,0.0,0.0,0.0
1513266704203587077,,662673,,1513266702,394279383,'',1.4835298642,1.47165792494,0.0115641772687,-0.0118719392583,0.001,51.0493388105,4300.0,0.0,0.0,0.0
1513266704213311971,,662674,,1513266702,404279383,'',1.4835298642,1.47027029567,-0.0164340758071,-0.0132595685222,0.001,57.0161446455,4300.0,0.0,0.0,0.0
1513266704223299631,,662675,,1513266702,414279383,'',1.4835298642,1.47027029567,-0.0159368911552,-0.0132595685222,0.001,57.0161446455,4300.0,0.0,0.0,0.0
1513266704233273992,,662676,,1513266702,424279383,'',1.4835298642,1.4730455542,0.0389145011314,-0.0104843099943,0.001,45.0825329755,4300.0,0.0,0.0,0.0
1513266704243291927,,662677,,1513266702,434279383,'',1.4835298642,1.47165792494,0.00894741921786,-0.0118719392583,0.001,51.0493388105,4300.0,0.0,0.0,0.0
1513266704253943762,,662678,,1513266702,444279383,'',1.4835298642,1.47165792494,0.0103114287175,-0.0118719392583,0.001,51.0493388105,4300.0,0.0,0.0,0.0
1513266704263455995,,662679,,1513266702,454279383,'',1.4835298642,1.47027029567,-0.0160304931766,-0.0132595685222,0.001,57.0161446455,4300.0,0.0,0.0,0.0
1513266704273308950,,662680,,1513266702,464279383,'',1.4835298642,1.47165792494,0.0123396333691,-0.0118719392583,0.001,51.0493388105,4300.0,0.0,0.0,0.0
1513266704283252754,,662681,,1513266702,474279383,'',1.4835298642,1.47165792494,0.0117063382338,-0.0118719392583,0.001,51.0493388105,4300.0,0.0,0.0,0.0
1513266704293509075,,662682,,1513266702,484279383,'',1.4835298642,1.47027029567,-0.0163615511834,-0.0132595685222,0.001,57.0161446455,4300.0,0.0,0.0,0.0
1513266704303332592,,662683,,1513266702,494279383,'',1.4835298642,1.47027029567,-0.016397486327,-0.0132595685222,0.001,57.0161446455,4300.0,0.0,0.0,0.0
1513266704313460171,,662684,,1513266702,504279383,'',1.4835298642,1.47165792494,0.0105203672623,-0.0118719392583,0.001,51.0493388105,4300.0,0.0,0.0,0.0
1513266704323199965,,662685,,1513266702,514279383,'',1.4835298642,1.4730455542,0.0371150517428,-0.0104843099943,0.001,45.0825329755,4300.0,0.0,0.0,0.0
1513266704333307036,,662686,,1513266702,524279383,'',1.4835298642,1.47165792494,0.00945852503561,-0.0118719392583,0.001,51.0493388105,4300.0,0.0,0.0,0.0
1513266704343172525,,662687,,1513266702,534279383,'',1.4835298642,1.47027029567,-0.0187151707868,-0.0132595685222,0.001,57.0161446455,4300.0,0.0,0.0,0.0
1513266704353532536,,662688,,1513266702,544279383,'',1.4835298642,1.47165792494,0.00912107040311,-0.0118719392583,0.001,51.0493388105,4300.0,0.0,0.0,0.0
1513266704363364472,,662689,,1513266702,554279383,'',1.4835298642,1.47027029567,-0.0195506788712,-0.0132595685222,0.001,57.0161446455,4300.0,0.0,0.0,0.0
1513266704373218574,,662690,,1513266702,564279383,'',1.4835298642,1.47165792494,0.00792725863977,-0.0118719392583,0.001,51.0493388105,4300.0,0.0,0.0,0.0
1513266704383190819,,662691,,1513266702,574279383,'',1.4835298642,1.47165792494,0.00751420526713,-0.0118719392583,0.001,51.0493388105,4300.0,0.0,0.0,0.0
1513266704393145989,,662692,,1513266702,584279383,'',1.4835298642,1.47165792494,0.00718924182772,-0.0118719392583,0.001,51.0493388105,4300.0,0.0,0.0,0.0
1513266704403024216,,662693,,1513266702,594279383,'',1.4835298642,1.47027029567,-0.0205948800483,-0.0132595685222,0.001,57.0161446455,4300.0,0.0,0.0,0.0
1513266704414556493,,662694,,1513266702,604279383,'',1.4835298642,1.47165792494,0.00760253553692,-0.0118719392583,0.001,51.0493388105,4300.0,0.0,0.0,0.0
1513266704422905299,,662695,,1513266702,614279383,'',1.4835298642,1.47165792494,0.00927565812749,-0.0118719392583,0.001,51.0493388105,4300.0,0.0,0.0,0.0
1513266704432991999,,662696,,1513266702,624279383,'',1.4835298642,1.47165792494,0.00866204618113,-0.0118719392583,0.001,51.0493388105,4300.0,0.0,0.0,0.0
1513266704443368224,,662697,,1513266702,634279383,'',1.4835298642,1.47165792494,0.00662640280354,-0.0118719392583,0.001,51.0493388105,4300.0,0.0,0.0,0.0
1513266704453327176,,662698,,1513266702,644279383,'',1.4835298642,1.47165792494,0.00646728633581,-0.0118719392583,0.001,51.0493388105,4300.0,0.0,0.0,0.0
1513266704463302597,,662699,,1513266702,654279383,'',1.4835298642,1.47027029567,-0.0222649818058,-0.0132595685222,0.001,57.0161446455,4300.0,0.0,0.0,0.0
1513266704473291396,,662700,,1513266702,664279383,'',1.4835298642,1.47165792494,0.00725636522017,-0.0118719392583,0.001,51.0493388105,4300.0,0.0,0.0,0.0
1513266704483195071,,662701,,1513266702,674279383,'',1.4835298642,1.47165792494,0.00790425005779,-0.0118719392583,0.001,51.0493388105,4300.0,0.0,0.0,0.0
1513266704493161614,,662702,,1513266702,684279383,'',1.4835298642,1.47027029567,-0.0189647156841,-0.0132595685222,0.001,57.0161446455,4300.0,0.0,0.0,0.0
1513266704503165349,,662703,,1513266702,694279383,'',1.4835298642,1.47027029567,-0.0190576243376,-0.0132595685222,0.001,57.0161446455,4300.0,0.0,0.0,0.0
1513266704512945678,,662704,,1513266702,704279383,'',1.4835298642,1.47027029567,-0.0165708240347,-0.0132595685222,0.001,57.0161446455,4300.0,0.0,0.0,0.0
1513266704522966683,,662705,,1513266702,714279383,'',1.4835298642,1.47165792494,0.010906532762,-0.0118719392583,0.001,51.0493388105,4300.0,0.0,0.0,0.0
1513266704533493044,,662706,,1513266702,724279383,'',1.4835298642,1.47027029567,-0.0166815247876,-0.0132595685222,0.001,57.0161446455,4300.0,0.0,0.0,0.0
1513266704543487186,,662707,,1513266702,734279383,'',1.4835298642,1.47165792494,0.0107821444531,-0.0118719392583,0.001,51.0493388105,4300.0,0.0,0.0,0.0
1513266704553225095,,662708,,1513266702,744279383,'',1.4835298642,1.47027029567,-0.0181398384515,-0.0132595685222,0.001,57.0161446455,4300.0,0.0,0.0,0.0
1513266704563098241,,662709,,1513266702,754279383,'',1.4835298642,1.47027029567,-0.0184097474232,-0.0132595685222,0.001,57.0161446455,4300.0,0.0,0.0,0.0
1513266704573081518,,662710,,1513266702,764279383,'',1.4835298642,1.47165792494,0.0094143735832,-0.0118719392583,0.001,51.0493388105,4300.0,0.0,0.0,0.0
1513266704583016103,,662711,,1513266702,774279383,'',1.4835298642,1.47165792494,0.00674030711452,-0.0118719392583,0.001,51.0493388105,4300.0,0.0,0.0,0.0
1513266704592881456,,662712,,1513266702,784279383,'',1.4835298642,1.47027029567,-0.0204238696771,-0.0132595685222,0.001,57.0161446455,4300.0,0.0,0.0,0.0
1513266704603434177,,662713,,1513266702,794279383,'',1.4835298642,1.47165792494,0.00776471396474,-0.0118719392583,0.001,51.0493388105,4300.0,0.0,0.0,0.0
1513266704613390324,,662714,,1513266702,804279383,'',1.4835298642,1.47027029567,-0.0195505794991,-0.0132595685222,0.001,57.0161446455,4300.0,0.0,0.0,0.0
1513266704623488419,,662715,,1513266702,814279383,'',1.4835298642,1.47165792494,0.0079428844875,-0.0118719392583,0.001,51.0493388105,4300.0,0.0,0.0,0.0
1513266704633298279,,662716,,1513266702,824279383,'',1.4835298642,1.47165792494,0.00851065837992,-0.0118719392583,0.001,51.0493388105,4300.0,0.0,0.0,0.0
1513266704643317778,,662717,,1513266702,834279383,'',1.4835298642,1.47027029567,-0.0179277972559,-0.0132595685222,0.001,57.0161446455,4300.0,0.0,0.0,0.0
1513266704653228015,,662718,,1513266702,844279383,'',1.4835298642,1.47165792494,0.0112288150813,-0.0118719392583,0.001,51.0493388105,4300.0,0.0,0.0,0.0
1513266704663281213,,662719,,1513266702,854279383,'',1.4835298642,1.47027029567,-0.0172732738257,-0.0132595685222,0.001,57.0161446455,4300.0,0.0,0.0,0.0
1513266704673453419,,662720,,1513266702,864279383,'',1.4835298642,1.47027029567,-0.0172516489107,-0.0132595685222,0.001,57.0161446455,4300.0,0.0,0.0,0.0
1513266704683450366,,662721,,1513266702,874279383,'',1.4835298642,1.47165792494,0.0102500056328,-0.0118719392583,0.001,51.0493388105,4300.0,0.0,0.0,0.0
1513266704693364338,,662722,,1513266702,884279383,'',1.4835298642,1.47165792494,0.00886545268571,-0.0118719392583,0.001,51.0493388105,4300.0,0.0,0.0,0.0
1513266704703433653,,662723,,1513266702,894279383,'',1.4835298642,1.4730455542,0.0352839067862,-0.0104843099943,0.001,45.0825329755,4300.0,0.0,0.0,0.0
1513266704713456434,,662724,,1513266702,904279383,'',1.4835298642,1.47165792494,0.00597658253193,-0.0118719392583,0.001,51.0493388105,4300.0,0.0,0.0,0.0
1513266704723281461,,662725,,1513266702,914279383,'',1.4835298642,1.47165792494,0.00540744693429,-0.0118719392583,0.001,51.0493388105,4300.0,0.0,0.0,0.0
1513266704733095552,,662726,,1513266702,924279383,'',1.4835298642,1.47027029567,-0.020556287954,-0.0132595685222,0.001,57.0161446455,4300.0,0.0,0.0,0.0
1513266704742903546,,662727,,1513266702,934279383,'',1.4835298642,1.47165792494,0.0071363320938,-0.0118719392583,0.001,51.0493388105,4300.0,0.0,0.0,0.0
1513266704752921657,,662728,,1513266702,944279383,'',1.4835298642,1.47027029567,-0.0196665490105,-0.0132595685222,0.001,57.0161446455,4300.0,0.0,0.0,0.0
1513266704762976457,,662729,,1513266702,954279383,'',1.4835298642,1.47165792494,0.00941104814686,-0.0118719392583,0.001,51.0493388105,4300.0,0.0,0.0,0.0
1513266704773109442,,662730,,1513266702,964279383,'',1.4835298642,1.47165792494,0.0092136458013,-0.0118719392583,0.001,51.0493388105,4300.0,0.0,0.0,0.0
1513266704783468678,,662731,,1513266702,974279383,'',1.4835298642,1.47027029567,-0.0184247027755,-0.0132595685222,0.001,57.0161446455,4300.0,0.0,0.0,0.0
1513266704793436119,,662732,,1513266702,984279383,'',1.4835298642,1.47165792494,0.0109418950225,-0.0118719392583,0.001,51.0493388105,4300.0,0.0,0.0,0.0
1513266704803328598,,662733,,1513266702,994279383,'',1.4835298642,1.47165792494,0.00942583703977,-0.0118719392583,0.001,51.0493388105,4300.0,0.0,0.0,0.0
1513266704813338427,,662734,,1513266703,4279383,'',1.4835298642,1.47165792494,0.00978302982178,-0.0118719392583,0.001,51.0493388105,4300.0,0.0,0.0,0.0
1513266704823194509,,662735,,1513266703,14279383,'',1.4835298642,1.47165792494,0.00899658481856,-0.0118719392583,0.001,51.0493388105,4300.0,0.0,0.0,0.0
1513266704833190718,,662736,,1513266703,24279383,'',1.4835298642,1.47165792494,0.00882043967214,-0.0118719392583,0.001,51.0493388105,4300.0,0.0,0.0,0.0
1513266704843051629,,662737,,1513266703,34279383,'',1.4835298642,1.47027029567,-0.0177928640815,-0.0132595685222,0.001,57.0161446455,4300.0,0.0,0.0,0.0
1513266704853080474,,662738,,1513266703,44279383,'',1.4835298642,1.47165792494,0.0104800088737,-0.0118719392583,0.001,51.0493388105,4300.0,0.0,0.0,0.0
1513266704863499890,,662739,,1513266703,54279383,'',1.4835298642,1.47165792494,0.00956351664577,-0.0118719392583,0.001,51.0493388105,4300.0,0.0,0.0,0.0
1513266704873324909,,662740,,1513266703,64279383,'',1.4835298642,1.47027029567,-0.0165956925798,-0.0132595685222,0.001,57.0161446455,4300.0,0.0,0.0,0.0
1513266704883287270,,662741,,1513266703,74279383,'',1.4835298642,1.47165792494,0.0118238523652,-0.0118719392583,0.001,51.0493388105,4300.0,0.0,0.0,0.0
1513266704893199467,,662742,,1513266703,84279383,'',1.4835298642,1.47027029567,-0.0142069321529,-0.0132595685222,0.001,57.0161446455,4300.0,0.0,0.0,0.0
