rosbagTimestamp,header,seq,stamp,secs,nsecs,frame_id,set_point,process_value,process_value_dot,error,time_step,command,p,i,d,i_clamp
1513267488242784687,,741067,,1513267486,418669309,'',1.62315620435,1.61842414969,-0.0115370991987,0.0,0.001,0.0,4300.0,0.0,0.0,0.0
1513267488252707019,,741068,,1513267486,428669309,'',1.62315620435,1.61842414969,-0.0104708688828,0.0,0.001,0.0,4300.0,0.0,0.0,0.0
1513267488262841420,,741069,,1513267486,438669309,'',1.62315620435,1.61842414969,-0.00954696864281,0.0,0.001,0.0,4300.0,0.0,0.0,0.0
1513267488272863714,,741070,,1513267486,448669309,'',1.62315620435,1.61980689294,0.0180331854518,0.0,0.001,0.0,4300.0,0.0,0.0,0.0
1513267488282824671,,741071,,1513267486,458669309,'',1.62315620435,1.61842414969,-0.0112288426202,0.0,0.001,0.0,4300.0,0.0,0.0,0.0
1513267488293112159,,741072,,1513267486,468669309,'',1.62315620435,1.61980689294,0.0152032372867,0.0,0.001,0.0,4300.0,0.0,0.0,0.0
1513267488302939502,,741073,,1513267486,478669309,'',1.62315620435,1.61980689294,0.0130566287177,0.0,0.001,0.0,4300.0,0.0,0.0,0.0
1513267488312862441,,741074,,1513267486,488669309,'',1.62315620435,1.61842414969,-0.0145899163228,0.0,0.001,0.0,4300.0,0.0,0.0,0.0
1513267488322836646,,741075,,1513267486,498669309,'',1.62315620435,1.61842414969,-0.0150134643146,0.0,0.001,0.0,4300.0,0.0,0.0,0.0
1513267488332699309,,741076,,1513267486,508669309,'',1.62315620435,1.61842414969,-0.0153791974832,0.0,0.001,0.0,4300.0,0.0,0.0,0.0
1513267488343048624,,741077,,1513267486,518669309,'',1.62315620435,1.61842414969,-0.0141559355768,0.0,0.001,0.0,4300.0,0.0,0.0,0.0
1513267488352915383,,741078,,1513267486,528669309,'',1.62315620435,1.61842414969,-0.0135605819611,0.0,0.001,0.0,4300.0,0.0,0.0,0.0
1513267488362934067,,741079,,1513267486,538669309,'',1.62315620435,1.61980689294,0.0152619139913,0.0,0.001,0.0,4300.0,0.0,0.0,0.0
1513267488373008513,,741080,,1513267486,548669309,'',1.62315620435,1.61842414969,-0.0124532016708,0.0,0.001,0.0,4300.0,0.0,0.0,0.0
1513267488383120205,,741081,,1513267486,558669309,'',1.62315620435,1.61980689294,0.0151846209658,0.0,0.001,0.0,4300.0,0.0,0.0,0.0
1513267488392799222,,741082,,1513267486,568669309,'',1.62315620435,1.61842414969,-0.0114236609342,0.0,0.001,0.0,4300.0,0.0,0.0,0.0
1513267488402685345,,741083,,1513267486,578669309,'',1.62315620435,1.61842414969,-0.0117777240027,0.0,0.001,0.0,4300.0,0.0,0.0,0.0
1513267488412667272,,741084,,1513267486,588669309,'',1.62315620435,1.61980689294,0.0162360772866,0.0,0.001,0.0,4300.0,0.0,0.0,0.0
1513267488422702800,,741085,,1513267486,598669309,'',1.62315620435,1.61980689294,0.0167950888057,0.0,0.001,0.0,4300.0,0.0,0.0,0.0
1513267488432645686,,741086,,1513267486,608669309,'',1.62315620435,1.61842414969,-0.0101884846127,0.0,0.001,0.0,4300.0,0.0,0.0,0.0
1513267488442538356,,741087,,1513267486,618669309,'',1.62315620435,1.61980689294,0.0180102917825,0.0,0.001,0.0,4300.0,0.0,0.0,0.0
1513267488452551207,,741088,,1513267486,628669309,'',1.62315620435,1.61842414969,-0.0101293201512,0.0,0.001,0.0,4300.0,0.0,0.0,0.0
1513267488463065682,,741089,,1513267486,638669309,'',1.62315620435,1.61842414969,-0.0098206152543,0.0,0.001,0.0,4300.0,0.0,0.0,0.0
1513267488473053068,,741090,,1513267486,648669309,'',1.62315620435,1.61842414969,-0.0100250483088,0.0,0.001,0.0,4300.0,0.0,0.0,0.0
1513267488482971260,,741091,,1513267486,658669309,'',1.62315620435,1.61842414969,-0.0102138060856,0.0,0.001,0.0,4300.0,0.0,0.0,0.0
1513267488492905186,,741092,,1513267486,668669309,'',1.62315620435,1.61842414969,-0.00990498605591,0.0,0.001,0.0,4300.0,0.0,0.0,0.0
1513267488502827322,,741093,,1513267486,678669309,'',1.62315620435,1.61842414969,-0.0100592629736,0.0,0.001,0.0,4300.0,0.0,0.0,0.0
1513267488512717015,,741094,,1513267486,688669309,'',1.62315620435,1.61980689294,0.0181069359369,0.0,0.001,0.0,4300.0,0.0,0.0,0.0
1513267488522658169,,741095,,1513267486,698669309,'',1.62315620435,1.61842414969,-0.0105305965191,0.0,0.001,0.0,4300.0,0.0,0.0,0.0
1513267488532642558,,741096,,1513267486,708669309,'',1.62315620435,1.61842414969,-0.0100755166905,0.0,0.001,0.0,4300.0,0.0,0.0,0.0
1513267488543236004,,741097,,1513267486,718669309,'',1.62315620435,1.61980689294,0.0175856332704,0.0,0.001,0.0,4300.0,0.0,0.0,0.0
1513267488552758312,,741098,,1513267486,728669309,'',1.62315620435,1.61980689294,0.0173887343562,0.0,0.001,0.0,4300.0,0.0,0.0,0.0
1513267488562723051,,741099,,1513267486,738669309,'',1.62315620435,1.61842414969,-0.011112219203,0.0,0.001,0.0,4300.0,0.0,0.0,0.0
1513267488573085979,,741100,,1513267486,748669309,'',1.62315620435,1.61842414969,-0.0130543195453,0.0,0.001,0.0,4300.0,0.0,0.0,0.0
1513267488583048249,,741101,,1513267486,758669309,'',1.62315620435,1.61980689294,0.0141930424037,0.0,0.001,0.0,4300.0,0.0,0.0,0.0
1513267488592924116,,741102,,1513267486,768669309,'',1.62315620435,1.61842414969,-0.0142270418859,0.0,0.001,0.0,4300.0,0.0,0.0,0.0
1513267488602945352,,741103,,1513267486,778669309,'',1.62315620435,1.61980689294,0.0132488316456,0.0,0.001,0.0,4300.0,0.0,0.0,0.0
1513267488612977529,,741104,,1513267486,788669309,'',1.62315620435,1.61842414969,-0.015899545501,0.0,0.001,0.0,4300.0,0.0,0.0,0.0
1513267488622992653,,741105,,1513267486,798669309,'',1.62315620435,1.61842414969,-0.0155730458754,0.0,0.001,0.0,4300.0,0.0,0.0,0.0
1513267488632995034,,741106,,1513267486,808669309,'',1.62315620435,1.62118963618,0.0405085367868,0.0,0.001,0.0,4300.0,0.0,0.0,0.0
1513267488642884439,,741107,,1513267486,818669309,'',1.62315620435,1.61842414969,-0.0156225037062,0.0,0.001,0.0,4300.0,0.0,0.0,0.0
1513267488652796396,,741108,,1513267486,828669309,'',1.62315620435,1.61980689294,0.0116512190017,0.0,0.001,0.0,4300.0,0.0,0.0,0.0
1513267488663050966,,741109,,1513267486,838669309,'',1.62315620435,1.61980689294,0.0130573917956,0.0,0.001,0.0,4300.0,0.0,0.0,0.0
1513267488672947737,,741110,,1513267486,848669309,'',1.62315620435,1.61980689294,0.0137407837756,0.0,0.001,0.0,4300.0,0.0,0.0,0.0
1513267488682799526,,741111,,1513267486,858669309,'',1.62315620435,1.61842414969,-0.0130805374885,0.0,0.001,0.0,4300.0,0.0,0.0,0.0
1513267488692816115,,741112,,1513267486,868669309,'',1.62315620435,1.61842414969,-0.013199268814,0.0,0.001,0.0,4300.0,0.0,0.0,0.0
1513267488702823500,,741113,,1513267486,878669309,'',1.62315620435,1.62118963618,0.0428870202847,0.0,0.001,0.0,4300.0,0.0,0.0,0.0
1513267488713047313,,741114,,1513267486,888669309,'',1.62315620435,1.61842414969,-0.0132113508512,0.0,0.001,0.0,4300.0,0.0,0.0,0.0
1513267488722969425,,741115,,1513267486,898669309,'',1.62315620435,1.61842414969,-0.011796594699,0.0,0.001,0.0,4300.0,0.0,0.0,0.0
1513267488732938244,,741116,,1513267486,908669309,'',1.62315620435,1.61842414969,-0.00973409759132,0.0,0.001,0.0,4300.0,0.0,0.0,0.0
1513267488742915607,,741117,,1513267486,918669309,'',1.62315620435,1.61842414969,-0.00996185673868,0.0,0.001,0.0,4300.0,0.0,0.0,0.0
1513267488752756811,,741118,,1513267486,928669309,'',1.62315620435,1.61842414969,-0.0086324071134,0.0,0.001,0.0,4300.0,0.0,0.0,0.0
1513267488762728008,,741119,,1513267486,938669309,'',1.62315620435,1.61842414969,-0.00960748545947,0.0,0.001,0.0,4300.0,0.0,0.0,0.0
1513267488773033448,,741120,,1513267486,948669309,'',1.62315620435,1.61842414969,-0.0102627278807,0.0,0.001,0.0,4300.0,0.0,0.0,0.0
1513267488782855735,,741121,,1513267486,958669309,'',1.62315620435,1.61980689294,0.0169386534779,0.0,0.001,0.0,4300.0,0.0,0.0,0.0
1513267488792681258,,741122,,1513267486,968669309,'',1.62315620435,1.61980689294,0.0169733616864,0.0,0.001,0.0,4300.0,0.0,0.0,0.0
1513267488802933011,,741123,,1513267486,978669309,'',1.62315620435,1.61980689294,0.0154394515368,0.0,0.001,0.0,4300.0,0.0,0.0,0.0
1513267488812841874,,741124,,1513267486,988669309,'',1.62315620435,1.61980689294,0.0161922738816,0.0,0.001,0.0,4300.0,0.0,0.0,0.0
1513267488822839925,,741125,,1513267486,998669309,'',1.62315620435,1.61842414969,-0.011676625455,0.0,0.001,0.0,4300.0,0.0,0.0,0.0
1513267488832713104,,741126,,1513267487,8669309,'',1.62315620435,1.61842414969,-0.0100865307403,0.0,0.001,0.0,4300.0,0.0,0.0,0.0
1513267488842666923,,741127,,1513267487,18669309,'',1.62315620435,1.61842414969,-0.00825697325475,0.0,0.001,0.0,4300.0,0.0,0.0,0.0
1513267488852634027,,741128,,1513267487,28669309,'',1.62315620435,1.61842414969,-0.0077600624838,0.0,0.001,0.0,4300.0,0.0,0.0,0.0
1513267488863065404,,741129,,1513267487,38669309,'',1.62315620435,1.61842414969,-0.00882295849488,0.0,0.001,0.0,4300.0,0.0,0.0,0.0
1513267488873050597,,741130,,1513267487,48669309,'',1.62315620435,1.61842414969,-0.00819699442685,0.0,0.001,0.0,4300.0,0.0,0.0,0.0
1513267488883088275,,741131,,1513267487,58669309,'',1.62315620435,1.61980689294,0.0197443345117,0.0,0.001,0.0,4300.0,0.0,0.0,0.0
1513267488893019553,,741132,,1513267487,68669309,'',1.62315620435,1.61980689294,0.0187200499972,0.0,0.001,0.0,4300.0,0.0,0.0,0.0
1513267488902994732,,741133,,1513267487,78669309,'',1.62315620435,1.61842414969,-0.00955617575128,0.0,0.001,0.0,4300.0,0.0,0.0,0.0
1513267488912943332,,741134,,1513267487,88669309,'',1.62315620435,1.61842414969,-0.0083552425607,0.0,0.001,0.0,4300.0,0.0,0.0,0.0
1513267488922911452,,741135,,1513267487,98669309,'',1.62315620435,1.61980689294,0.0185115421421,0.0,0.001,0.0,4300.0,0.0,0.0,0.0
1513267488932879017,,741136,,1513267487,108669309,'',1.62315620435,1.61842414969,-0.0102418857819,0.0,0.001,0.0,4300.0,0.0,0.0,0.0
1513267488942888288,,741137,,1513267487,118669309,'',1.62315620435,1.61842414969,-0.00992151233835,0.0,0.001,0.0,4300.0,0.0,0.0,0.0
1513267488952823611,,741138,,1513267487,128669309,'',1.62315620435,1.61842414969,-0.0106373141345,0.0,0.001,0.0,4300.0,0.0,0.0,0.0
1513267488962754421,,741139,,1513267487,138669309,'',1.62315620435,1.61842414969,-0.0101430831026,0.0,0.001,0.0,4300.0,0.0,0.0,0.0
1513267488972771465,,741140,,1513267487,148669309,'',1.62315620435,1.61980689294,0.0164994706133,0.0,0.001,0.0,4300.0,0.0,0.0,0.0
1513267488983063465,,741141,,1513267487,158669309,'',1.62315620435,1.61842414969,-0.0108900491382,0.0,0.001,0.0,4300.0,0.0,0.0,0.0
1513267488993090866,,741142,,1513267487,168669309,'',1.62315620435,1.61980689294,0.0139756747451,0.0,0.001,0.0,4300.0,0.0,0.0,0.0
1513267489002902450,,741143,,1513267487,178669309,'',1.62315620435,1.61842414969,-0.0129662198168,0.0,0.001,0.0,4300.0,0.0,0.0,0.0
1513267489012891246,,741144,,1513267487,188669309,'',1.62315620435,1.61842414969,-0.0126646671162,0.0,0.001,0.0,4300.0,0.0,0.0,0.0
1513267489022895398,,741145,,1513267487,198669309,'',1.62315620435,1.61980689294,0.014974007676,0.0,0.001,0.0,4300.0,0.0,0.0,0.0
1513267489032766753,,741146,,1513267487,208669309,'',1.62315620435,1.61842414969,-0.0121501746621,0.0,0.001,0.0,4300.0,0.0,0.0,0.0
1513267489042652315,,741147,,1513267487,218669309,'',1.62315620435,1.61842414969,-0.0109379170407,0.0,0.001,0.0,4300.0,0.0,0.0,0.0
1513267489052639610,,741148,,1513267487,228669309,'',1.62315620435,1.61980689294,0.0178790650837,0.0,0.001,0.0,4300.0,0.0,0.0,0.0
1513267489062624550,,741149,,1513267487,238669309,'',1.62315620435,1.61842414969,-0.0092120192223,0.0,0.001,0.0,4300.0,0.0,0.0,0.0
1513267489072725841,,741150,,1513267487,248669309,'',1.62315620435,1.61980689294,0.0168286518519,0.0,0.001,0.0,4300.0,0.0,0.0,0.0
1513267489083000441,,741151,,1513267487,258669309,'',1.62315620435,1.61980689294,0.0158546779951,0.0,0.001,0.0,4300.0,0.0,0.0,0.0
1513267489093040222,,741152,,1513267487,268669309,'',1.62315620435,1.61842414969,-0.0123282965181,0.0,0.001,0.0,4300.0,0.0,0.0,0.0
1513267489103029268,,741153,,1513267487,278669309,'',1.62315620435,1.61980689294,0.0168071902582,0.0,0.001,0.0,4300.0,0.0,0.0,0.0
1513267489112963104,,741154,,1513267487,288669309,'',1.62315620435,1.61842414969,-0.0111744640783,0.0,0.001,0.0,4300.0,0.0,0.0,0.0
1513267489122961742,,741155,,1513267487,298669309,'',1.62315620435,1.61842414969,-0.0101461368764,0.0,0.001,0.0,4300.0,0.0,0.0,0.0
1513267489132790664,,741156,,1513267487,308669309,'',1.62315620435,1.61842414969,-0.00977456346656,0.0,0.001,0.0,4300.0,0.0,0.0,0.0
1513267489142982627,,741157,,1513267487,318669309,'',1.62315620435,1.61842414969,-0.0119774391146,0.0,0.001,0.0,4300.0,0.0,0.0,0.0
1513267489152857925,,741158,,1513267487,328669309,'',1.62315620435,1.61842414969,-0.0127280181953,0.0,0.001,0.0,4300.0,0.0,0.0,0.0
1513267489162699398,,741159,,1513267487,338669309,'',1.62315620435,1.61842414969,-0.013885095194,0.0,0.001,0.0,4300.0,0.0,0.0,0.0
1513267489172719475,,741160,,1513267487,348669309,'',1.62315620435,1.61842414969,-0.0134404222598,0.0,0.001,0.0,4300.0,0.0,0.0,0.0
1513267489182644694,,741161,,1513267487,358669309,'',1.62315620435,1.61842414969,-0.0145572565481,0.0,0.001,0.0,4300.0,0.0,0.0,0.0
1513267489193105640,,741162,,1513267487,368669309,'',1.62315620435,1.61842414969,-0.0144078015486,0.0,0.001,0.0,4300.0,0.0,0.0,0.0
1513267489203037719,,741163,,1513267487,378669309,'',1.62315620435,1.61842414969,-0.0147945368074,0.0,0.001,0.0,4300.0,0.0,0.0,0.0
1513267489213087281,,741164,,1513267487,388669309,'',1.62315620435,1.62118963618,0.0405151378034,0.0,0.001,0.0,4300.0,0.0,0.0,0.0
1513267489222916572,,741165,,1513267487,398669309,'',1.62315620435,1.61980689294,0.0128521076671,0.0,0.001,0.0,4300.0,0.0,0.0,0.0
1513267489233061439,,741166,,1513267487,408669309,'',1.62315620435,1.62118963618,0.0398271959631,0.0,0.001,0.0,4300.0,0.0,0.0,0.0
1513267489243053953,,741167,,1513267487,418669309,'',1.62315620435,1.62118963618,0.0390636313234,0.0,0.001,0.0,4300.0,0.0,0.0,0.0
1513267489253101735,,741168,,1513267487,428669309,'',1.62315620435,1.61842414969,-0.0172908409291,0.0,0.001,0.0,4300.0,0.0,0.0,0.0
1513267489262951641,,741169,,1513267487,438669309,'',1.62315620435,1.61704140645,-0.0469742546451,0.0,0.001,0.0,4300.0,0.0,0.0,0.0
1513267489272975966,,741170,,1513267487,448669309,'',1.62315620435,1.61980689294,0.00934915664854,0.0,0.001,0.0,4300.0,0.0,0.0,0.0
1513267489282880012,,741171,,1513267487,458669309,'',1.62315620435,1.61980689294,0.00874580118874,0.0,0.001,0.0,4300.0,0.0,0.0,0.0
1513267489292620114,,741172,,1513267487,468669309,'',1.62315620435,1.61980689294,0.00824561638565,0.0,0.001,0.0,4300.0,0.0,0.0,0.0
1513267489303071637,,741173,,1513267487,478669309,'',1.62315620435,1.61842414969,-0.0177163527481,0.0,0.001,0.0,4300.0,0.0,0.0,0.0
1513267489313011951,,741174,,1513267487,488669309,'',1.62315620435,1.61842414969,-0.0170073153642,0.0,0.001,0.0,4300.0,0.0,0.0,0.0
1513267489322974552,,741175,,1513267487,498669309,'',1.62315620435,1.61842414969,-0.016379787029,0.0,0.001,0.0,4300.0,0.0,0.0,0.0
1513267489333014109,,741176,,1513267487,508669309,'',1.62315620435,1.61980689294,0.0125447779983,0.0,0.001,0.0,4300.0,0.0,0.0,0.0
1513267489343183912,,741177,,1513267487,518669309,'',1.62315620435,1.61980689294,0.011324335358,0.0,0.001,0.0,4300.0,0.0,0.0,0.0
1513267489353046870,,741178,,1513267487,528669309,'',1.62315620435,1.61842414969,-0.0151534769883,0.0,0.001,0.0,4300.0,0.0,0.0,0.0
1513267489363005743,,741179,,1513267487,538669309,'',1.62315620435,1.61842414969,-0.0139289702087,0.0,0.001,0.0,4300.0,0.0,0.0,0.0
1513267489373150475,,741180,,1513267487,548669309,'',1.62315620435,1.61842414969,-0.0138285064083,0.0,0.001,0.0,4300.0,0.0,0.0,0.0
1513267489383070309,,741181,,1513267487,558669309,'',1.62315620435,1.61980689294,0.0151082920661,0.0,0.001,0.0,4300.0,0.0,0.0,0.0
1513267489393117554,,741182,,1513267487,568669309,'',1.62315620435,1.61980689294,0.0148814171118,0.0,0.001,0.0,4300.0,0.0,0.0,0.0
1513267489403047049,,741183,,1513267487,578669309,'',1.62315620435,1.61842414969,-0.0122134985779,0.0,0.001,0.0,4300.0,0.0,0.0,0.0
1513267489412958923,,741184,,1513267487,588669309,'',1.62315620435,1.61980689294,0.0153271772577,0.0,0.001,0.0,4300.0,0.0,0.0,0.0
1513267489422909608,,741185,,1513267487,598669309,'',1.62315620435,1.62118963618,0.042468303572,0.0,0.001,0.0,4300.0,0.0,0.0,0.0
1513267489432796421,,741186,,1513267487,608669309,'',1.62315620435,1.61842414969,-0.0119125463628,0.0,0.001,0.0,4300.0,0.0,0.0,0.0
1513267489442822230,,741187,,1513267487,618669309,'',1.62315620435,1.61842414969,-0.0122651432838,0.0,0.001,0.0,4300.0,0.0,0.0,0.0
1513267489452844603,,741188,,1513267487,628669309,'',1.62315620435,1.61980689294,0.0158652634954,0.0,0.001,0.0,4300.0,0.0,0.0,0.0
1513267489463078659,,741189,,1513267487,638669309,'',1.62315620435,1.61842414969,-0.0124520122855,0.0,0.001,0.0,4300.0,0.0,0.0,0.0
1513267489473051594,,741190,,1513267487,648669309,'',1.62315620435,1.61842414969,-0.0122338677329,0.0,0.001,0.0,4300.0,0.0,0.0,0.0
1513267489483077473,,741191,,1513267487,658669309,'',1.62315620435,1.61980689294,0.0144099976093,0.0,0.001,0.0,4300.0,0.0,0.0,0.0
1513267489492885288,,741192,,1513267487,668669309,'',1.62315620435,1.61842414969,-0.0120791794165,0.0,0.001,0.0,4300.0,0.0,0.0,0.0
1513267489502917809,,741193,,1513267487,678669309,'',1.62315620435,1.61842414969,-0.0123656042985,0.0,0.001,0.0,4300.0,0.0,0.0,0.0
1513267489512974287,,741194,,1513267487,688669309,'',1.62315620435,1.61980689294,0.0162349313296,0.0,0.001,0.0,4300.0,0.0,0.0,0.0
1513267489522836076,,741195,,1513267487,698669309,'',1.62315620435,1.61842414969,-0.0115242875049,0.0,0.001,0.0,4300.0,0.0,0.0,0.0
1513267489532647198,,741196,,1513267487,708669309,'',1.62315620435,1.61842414969,-0.0124651665924,0.0,0.001,0.0,4300.0,0.0,0.0,0.0
1513267489542752059,,741197,,1513267487,718669309,'',1.62315620435,1.61842414969,-0.012685240218,0.0,0.001,0.0,4300.0,0.0,0.0,0.0
1513267489552770158,,741198,,1513267487,728669309,'',1.62315620435,1.62118963618,0.0423662616472,0.0,0.001,0.0,4300.0,0.0,0.0,0.0
1513267489562640259,,741199,,1513267487,738669309,'',1.62315620435,1.61980689294,0.014893744302,0.0,0.001,0.0,4300.0,0.0,0.0,0.0
1513267489573092333,,741200,,1513267487,748669309,'',1.62315620435,1.61980689294,0.0137194051814,0.0,0.001,0.0,4300.0,0.0,0.0,0.0
1513267489583061618,,741201,,1513267487,758669309,'',1.62315620435,1.61842414969,-0.0136146919229,0.0,0.001,0.0,4300.0,0.0,0.0,0.0
1513267489592922510,,741202,,1513267487,768669309,'',1.62315620435,1.61980689294,0.0141102642912,0.0,0.001,0.0,4300.0,0.0,0.0,0.0
1513267489602868417,,741203,,1513267487,778669309,'',1.62315620435,1.61980689294,0.013543530965,0.0,0.001,0.0,4300.0,0.0,0.0,0.0
1513267489612887999,,741204,,1513267487,788669309,'',1.62315620435,1.61842414969,-0.0138913442247,0.0,0.001,0.0,4300.0,0.0,0.0,0.0
1513267489623003942,,741205,,1513267487,798669309,'',1.62315620435,1.61980689294,0.0135217793919,0.0,0.001,0.0,4300.0,0.0,0.0,0.0
1513267489632948790,,741206,,1513267487,808669309,'',1.62315620435,1.61842414969,-0.0143256257569,0.0,0.001,0.0,4300.0,0.0,0.0,0.0
1513267489642794738,,741207,,1513267487,818669309,'',1.62315620435,1.61842414969,-0.0137079120733,0.0,0.001,0.0,4300.0,0.0,0.0,0.0
1513267489652601037,,741208,,1513267487,828669309,'',1.62315620435,1.61980689294,0.012648553248,0.0,0.001,0.0,4300.0,0.0,0.0,0.0
1513267489663169133,,741209,,1513267487,838669309,'',1.62315620435,1.61980689294,0.0109189022821,0.0,0.001,0.0,4300.0,0.0,0.0,0.0
1513267489673047704,,741210,,1513267487,848669309,'',1.62315620435,1.61842414969,-0.0179543717736,0.0,0.001,0.0,4300.0,0.0,0.0,0.0
1513267489682908441,,741211,,1513267487,858669309,'',1.62315620435,1.61980689294,0.00873624162804,0.0,0.001,0.0,4300.0,0.0,0.0,0.0
1513267489692871710,,741212,,1513267487,868669309,'',1.62315620435,1.61980689294,0.00919897754875,0.0,0.001,0.0,4300.0,0.0,0.0,0.0
1513267489702934234,,741213,,1513267487,878669309,'',1.62315620435,1.61842414969,-0.0178851298292,0.0,0.001,0.0,4300.0,0.0,0.0,0.0
1513267489712815914,,741214,,1513267487,888669309,'',1.62315620435,1.61842414969,-0.018177885026,0.0,0.001,0.0,4300.0,0.0,0.0,0.0
1513267489722797723,,741215,,1513267487,898669309,'',1.62315620435,1.61980689294,0.00951155696724,0.0,0.001,0.0,4300.0,0.0,0.0,0.0
1513267489732727057,,741216,,1513267487,908669309,'',1.62315620435,1.61842414969,-0.018100618049,0.0,0.001,0.0,4300.0,0.0,0.0,0.0
1513267489743168338,,741217,,1513267487,918669309,'',1.62315620435,1.61842414969,-0.0183057056692,0.0,0.001,0.0,4300.0,0.0,0.0,0.0
1513267489752631803,,741218,,1513267487,928669309,'',1.62315620435,1.61980689294,0.00950431948995,0.0,0.001,0.0,4300.0,0.0,0.0,0.0
1513267489762673767,,741219,,1513267487,938669309,'',1.62315620435,1.61980689294,0.00987962597808,0.0,0.001,0.0,4300.0,0.0,0.0,0.0
1513267489772622339,,741220,,1513267487,948669309,'',1.62315620435,1.61980689294,0.00955354719072,0.0,0.001,0.0,4300.0,0.0,0.0,0.0
1513267489783160525,,741221,,1513267487,958669309,'',1.62315620435,1.61842414969,-0.018571859179,0.0,0.001,0.0,4300.0,0.0,0.0,0.0
1513267489793120548,,741222,,1513267487,968669309,'',1.62315620435,1.61980689294,0.00866574883539,0.0,0.001,0.0,4300.0,0.0,0.0,0.0
1513267489802996262,,741223,,1513267487,978669309,'',1.62315620435,1.62118963618,0.0360031908784,0.0,0.001,0.0,4300.0,0.0,0.0,0.0
1513267489812898891,,741224,,1513267487,988669309,'',1.62315620435,1.61842414969,-0.018287118505,0.0,0.001,0.0,4300.0,0.0,0.0,0.0
1513267489822902661,,741225,,1513267487,998669309,'',1.62315620435,1.61842414969,-0.0189097626433,0.0,0.001,0.0,4300.0,0.0,0.0,0.0
1513267489832854847,,741226,,1513267488,8669309,'',1.62315620435,1.61980689294,0.00885947558694,0.0,0.001,0.0,4300.0,0.0,0.0,0.0
1513267489842757465,,741227,,1513267488,18669309,'',1.62315620435,1.61842414969,-0.0195616153806,0.0,0.001,0.0,4300.0,0.0,0.0,0.0
1513267489852742924,,741228,,1513267488,28669309,'',1.62315620435,1.61980689294,0.00833385572153,0.0,0.001,0.0,4300.0,0.0,0.0,0.0
1513267489863129670,,741229,,1513267488,38669309,'',1.62315620435,1.61980689294,0.00793778267169,0.0,0.001,0.0,4300.0,0.0,0.0,0.0
1513267489872667383,,741230,,1513267488,48669309,'',1.62315620435,1.61980689294,0.00792749589236,0.0,0.001,0.0,4300.0,0.0,0.0,0.0
1513267489883076736,,741231,,1513267488,58669309,'',1.62315620435,1.61980689294,0.00790396389308,0.0,0.001,0.0,4300.0,0.0,0.0,0.0
1513267489892964334,,741232,,1513267488,68669309,'',1.62315620435,1.61980689294,0.0065121261142,0.0,0.001,0.0,4300.0,0.0,0.0,0.0
1513267489902926076,,741233,,1513267488,78669309,'',1.62315620435,1.61842414969,-0.0215233046327,0.0,0.001,0.0,4300.0,0.0,0.0,0.0
1513267489912640695,,741234,,1513267488,88669309,'',1.62315620435,1.61980689294,0.00782545793248,0.0,0.001,0.0,4300.0,0.0,0.0,0.0
1513267489923085283,,741235,,1513267488,98669309,'',1.62315620435,1.61980689294,0.00538068801726,0.0,0.001,0.0,4300.0,0.0,0.0,0.0
1513267489932943092,,741236,,1513267488,108669309,'',1.62315620435,1.61842414969,-0.0214629352588,0.0,0.001,0.0,4300.0,0.0,0.0,0.0
1513267489942939330,,741237,,1513267488,118669309,'',1.62315620435,1.61980689294,0.00728281559263,0.0,0.001,0.0,4300.0,0.0,0.0,0.0
1513267489952934795,,741238,,1513267488,128669309,'',1.62315620435,1.61980689294,0.00795949039601,0.0,0.001,0.0,4300.0,0.0,0.0,0.0
1513267489963262209,,741239,,1513267488,138669309,'',1.62315620435,1.61842414969,-0.0198618558888,0.0,0.001,0.0,4300.0,0.0,0.0,0.0
1513267489973027590,,741240,,1513267488,148669309,'',1.62315620435,1.61980689294,0.00803782469209,0.0,0.001,0.0,4300.0,0.0,0.0,0.0
1513267489983075865,,741241,,1513267488,158669309,'',1.62315620435,1.61980689294,0.00706294874383,0.0,0.001,0.0,4300.0,0.0,0.0,0.0
1513267489992966342,,741242,,1513267488,168669309,'',1.62315620435,1.62118963618,0.0315363682447,0.0,0.001,0.0,4300.0,0.0,0.0,0.0
1513267490003142600,,741243,,1513267488,178669309,'',1.62315620435,1.61980689294,0.0039805339633,0.0,0.001,0.0,4300.0,0.0,0.0,0.0
1513267490012822471,,741244,,1513267488,188669309,'',1.62315620435,1.61980689294,0.00482352176777,0.0,0.001,0.0,4300.0,0.0,0.0,0.0
1513267490022858606,,741245,,1513267488,198669309,'',1.62315620435,1.61980689294,0.00392716323749,0.0,0.001,0.0,4300.0,0.0,0.0,0.0
1513267490032750262,,741246,,1513267488,208669309,'',1.62315620435,1.61980689294,0.00368735359451,0.0,0.001,0.0,4300.0,0.0,0.0,0.0
1513267490042707474,,741247,,1513267488,218669309,'',1.62315620435,1.61980689294,0.00553968519594,0.0,0.001,0.0,4300.0,0.0,0.0,0.0
1513267490052795171,,741248,,1513267488,228669309,'',1.62315620435,1.61980689294,0.00643624750964,0.0,0.001,0.0,4300.0,0.0,0.0,0.0
1513267490062785841,,741249,,1513267488,238669309,'',1.62315620435,1.62118963618,0.0341125713132,0.0,0.001,0.0,4300.0,0.0,0.0,0.0
1513267490072884266,,741250,,1513267488,248669309,'',1.62315620435,1.61842414969,-0.0213497821035,0.0,0.001,0.0,4300.0,0.0,0.0,0.0
1513267490082748785,,741251,,1513267488,258669309,'',1.62315620435,1.61842414969,-0.0209191943871,0.0,0.001,0.0,4300.0,0.0,0.0,0.0
1513267490092720450,,741252,,1513267488,268669309,'',1.62315620435,1.61842414969,-0.0226510917581,0.0,0.001,0.0,4300.0,0.0,0.0,0.0
1513267490102931314,,741253,,1513267488,278669309,'',1.62315620435,1.61980689294,0.00532393592175,0.0,0.001,0.0,4300.0,0.0,0.0,0.0
1513267490112745681,,741254,,1513267488,288669309,'',1.62315620435,1.61980689294,0.00449230968158,0.0,0.001,0.0,4300.0,0.0,0.0,0.0
1513267490122756523,,741255,,1513267488,298669309,'',1.62315620435,1.61980689294,0.00214290495302,0.0,0.001,0.0,4300.0,0.0,0.0,0.0
1513267490132842723,,741256,,1513267488,308669309,'',1.62315620435,1.61980689294,0.00178296738019,0.0,0.001,0.0,4300.0,0.0,0.0,0.0
1513267490143063464,,741257,,1513267488,318669309,'',1.62315620435,1.61980689294,0.00149561289822,0.0,0.001,0.0,4300.0,0.0,0.0,0.0
1513267490152998690,,741258,,1513267488,328669309,'',1.62315620435,1.62118963618,0.0291032270005,0.0,0.001,0.0,4300.0,0.0,0.0,0.0
1513267490163085918,,741259,,1513267488,338669309,'',1.62315620435,1.61980689294,-2.94739478918e-05,0.0,0.001,0.0,4300.0,0.0,0.0,0.0
1513267490173185146,,741260,,1513267488,348669309,'',1.62315620435,1.61980689294,-0.00101555984164,0.0,0.001,0.0,4300.0,0.0,0.0,0.0
1513267490183001071,,741261,,1513267488,358669309,'',1.62315620435,1.61842414969,-0.0297215718283,0.0,0.001,0.0,4300.0,0.0,0.0,0.0
1513267490192965325,,741262,,1513267488,368669309,'',1.62315620435,1.61842414969,-0.0272966947318,0.0,0.001,0.0,4300.0,0.0,0.0,0.0
1513267490202790139,,741263,,1513267488,378669309,'',1.62315620435,1.61980689294,0.000987459084726,0.0,0.001,0.0,4300.0,0.0,0.0,0.0
1513267490212674972,,741264,,1513267488,388669309,'',1.62315620435,1.61842414969,-0.0250340137232,0.0,0.001,0.0,4300.0,0.0,0.0,0.0
1513267490223000416,,741265,,1513267488,398669309,'',1.62315620435,1.61980689294,0.00187727385958,0.0,0.001,0.0,4300.0,0.0,0.0,0.0
1513267490232933035,,741266,,1513267488,408669309,'',1.62315620435,1.61980689294,0.000548670911876,0.0,0.001,0.0,4300.0,0.0,0.0,0.0
1513267490242870993,,741267,,1513267488,418669309,'',1.62315620435,1.62118963618,0.028824427221,0.0,0.001,0.0,4300.0,0.0,0.0,0.0
1513267490252827332,,741268,,1513267488,428669309,'',1.62315620435,1.61980689294,0.00122592991535,0.0,0.001,0.0,4300.0,0.0,0.0,0.0
1513267490262772264,,741269,,1513267488,438669309,'',1.62315620435,1.61842414969,-0.0249481328504,0.0,0.001,0.0,4300.0,0.0,0.0,0.0
1513267490273095622,,741270,,1513267488,448669309,'',1.62315620435,1.61980689294,0.00398070009362,0.0,0.001,0.0,4300.0,0.0,0.0,0.0
1513267490283143910,,741271,,1513267488,458669309,'',1.62315620435,1.61842414969,-0.0215853953249,0.0,0.001,0.0,4300.0,0.0,0.0,0.0
1513267490293014811,,741272,,1513267488,468669309,'',1.62315620435,1.61842414969,-0.0216900218923,0.0,0.001,0.0,4300.0,0.0,0.0,0.0
1513267490302975269,,741273,,1513267488,478669309,'',1.62315620435,1.61980689294,0.00862923594125,0.0,0.001,0.0,4300.0,0.0,0.0,0.0
1513267490312894636,,741274,,1513267488,488669309,'',1.62315620435,1.61980689294,0.00766913741188,0.0,0.001,0.0,4300.0,0.0,0.0,0.0
1513267490322874271,,741275,,1513267488,498669309,'',1.62315620435,1.61842414969,-0.019090973127,0.0,0.001,0.0,4300.0,0.0,0.0,0.0
1513267490332852763,,741276,,1513267488,508669309,'',1.62315620435,1.61980689294,0.0087410612684,0.0,0.001,0.0,4300.0,0.0,0.0,0.0
1513267490342750363,,741277,,1513267488,518669309,'',1.62315620435,1.61842414969,-0.0191950768718,0.0,0.001,0.0,4300.0,0.0,0.0,0.0
1513267490352668026,,741278,,1513267488,528669309,'',1.62315620435,1.62118963618,0.0355013420564,0.0,0.001,0.0,4300.0,0.0,0.0,0.0
1513267490362673414,,741279,,1513267488,538669309,'',1.62315620435,1.61980689294,0.00920094589653,0.0,0.001,0.0,4300.0,0.0,0.0,0.0
1513267490373193989,,741280,,1513267488,548669309,'',1.62315620435,1.61842414969,-0.0183001953572,0.0,0.001,0.0,4300.0,0.0,0.0,0.0
1513267490383059948,,741281,,1513267488,558669309,'',1.62315620435,1.61842414969,-0.0165334804958,0.0,0.001,0.0,4300.0,0.0,0.0,0.0
1513267490393005735,,741282,,1513267488,568669309,'',1.62315620435,1.61842414969,-0.0170820877523,0.0,0.001,0.0,4300.0,0.0,0.0,0.0
1513267490402938794,,741283,,1513267488,578669309,'',1.62315620435,1.61980689294,0.0119732547396,0.0,0.001,0.0,4300.0,0.0,0.0,0.0
1513267490412932177,,741284,,1513267488,588669309,'',1.62315620435,1.61980689294,0.010802102198,0.0,0.001,0.0,4300.0,0.0,0.0,0.0
1513267490422898066,,741285,,1513267488,598669309,'',1.62315620435,1.61980689294,0.0108848094937,0.0,0.001,0.0,4300.0,0.0,0.0,0.0
1513267490432889394,,741286,,1513267488,608669309,'',1.62315620435,1.62118963618,0.0362759917997,0.0,0.001,0.0,4300.0,0.0,0.0,0.0
1513267490443241158,,741287,,1513267488,618669309,'',1.62315620435,1.62118963618,0.036701696308,0.0,0.001,0.0,4300.0,0.0,0.0,0.0
1513267490453117316,,741288,,1513267488,628669309,'',1.62315620435,1.61842414969,-0.0211241723172,0.0,0.001,0.0,4300.0,0.0,0.0,0.0
1513267490463016147,,741289,,1513267488,638669309,'',1.62315620435,1.61842414969,-0.0208650185367,0.0,0.001,0.0,4300.0,0.0,0.0,0.0
1513267490473003743,,741290,,1513267488,648669309,'',1.62315620435,1.61842414969,-0.0215785712021,0.0,0.001,0.0,4300.0,0.0,0.0,0.0
1513267490483007206,,741291,,1513267488,658669309,'',1.62315620435,1.61842414969,-0.0211867354991,0.0,0.001,0.0,4300.0,0.0,0.0,0.0
1513267490492867400,,741292,,1513267488,668669309,'',1.62315620435,1.61980689294,0.00596126387981,0.0,0.001,0.0,4300.0,0.0,0.0,0.0
1513267490502889495,,741293,,1513267488,678669309,'',1.62315620435,1.61842414969,-0.0235824587717,0.0,0.001,0.0,4300.0,0.0,0.0,0.0
1513267490512744568,,741294,,1513267488,688669309,'',1.62315620435,1.61980689294,0.0040512999832,0.0,0.001,0.0,4300.0,0.0,0.0,0.0
1513267490523109202,,741295,,1513267488,698669309,'',1.62315620435,1.61842414969,-0.0234590878811,0.0,0.001,0.0,4300.0,0.0,0.0,0.0
1513267490533075423,,741296,,1513267488,708669309,'',1.62315620435,1.61842414969,-0.0221341198052,0.0,0.001,0.0,4300.0,0.0,0.0,0.0
1513267490542915667,,741297,,1513267488,718669309,'',1.62315620435,1.61842414969,-0.0221902626411,0.0,0.001,0.0,4300.0,0.0,0.0,0.0
1513267490552898906,,741298,,1513267488,728669309,'',1.62315620435,1.61842414969,-0.020653499857,0.0,0.001,0.0,4300.0,0.0,0.0,0.0
1513267490562857038,,741299,,1513267488,738669309,'',1.62315620435,1.61980689294,0.00743984960919,0.0,0.001,0.0,4300.0,0.0,0.0,0.0
1513267490572698448,,741300,,1513267488,748669309,'',1.62315620435,1.61842414969,-0.0192815286254,0.0,0.001,0.0,4300.0,0.0,0.0,0.0
1513267490583180218,,741301,,1513267488,758669309,'',1.62315620435,1.61980689294,0.00902821726774,0.0,0.001,0.0,4300.0,0.0,0.0,0.0
1513267490593015692,,741302,,1513267488,768669309,'',1.62315620435,1.61842414969,-0.0185082489232,0.0,0.001,0.0,4300.0,0.0,0.0,0.0
1513267490602965236,,741303,,1513267488,778669309,'',1.62315620435,1.61842414969,-0.01858372353,0.0,0.001,0.0,4300.0,0.0,0.0,0.0
1513267490613060417,,741304,,1513267488,788669309,'',1.62315620435,1.61842414969,-0.0167015405239,0.0,0.001,0.0,4300.0,0.0,0.0,0.0
1513267490623013218,,741305,,1513267488,798669309,'',1.62315620435,1.61980689294,0.0111965606095,0.0,0.001,0.0,4300.0,0.0,0.0,0.0
1513267490632927129,,741306,,1513267488,808669309,'',1.62315620435,1.61980689294,0.0126786856192,0.0,0.001,0.0,4300.0,0.0,0.0,0.0
1513267490642917369,,741307,,1513267488,818669309,'',1.62315620435,1.61842414969,-0.0159738329814,0.0,0.001,0.0,4300.0,0.0,0.0,0.0
1513267490652767200,,741308,,1513267488,828669309,'',1.62315620435,1.61980689294,0.0122544305064,0.0,0.001,0.0,4300.0,0.0,0.0,0.0
1513267490662739809,,741309,,1513267488,838669309,'',1.62315620435,1.61842414969,-0.0138415611263,0.0,0.001,0.0,4300.0,0.0,0.0,0.0
1513267490672765762,,741310,,1513267488,848669309,'',1.62315620435,1.61842414969,-0.013754262012,0.0,0.001,0.0,4300.0,0.0,0.0,0.0
1513267490682802877,,741311,,1513267488,858669309,'',1.62315620435,1.61842414969,-0.0142727643832,0.0,0.001,0.0,4300.0,0.0,0.0,0.0
1513267490693239307,,741312,,1513267488,868669309,'',1.62315620435,1.61842414969,-0.0142670262955,0.0,0.001,0.0,4300.0,0.0,0.0,0.0
1513267490703154173,,741313,,1513267488,878669309,'',1.62315620435,1.61980689294,0.0131282442024,0.0,0.001,0.0,4300.0,0.0,0.0,0.0
1513267490713019922,,741314,,1513267488,888669309,'',1.62315620435,1.61842414969,-0.0155718399683,0.0,0.001,0.0,4300.0,0.0,0.0,0.0
1513267490723084216,,741315,,1513267488,898669309,'',1.62315620435,1.61842414969,-0.0137454188261,0.0,0.001,0.0,4300.0,0.0,0.0,0.0
1513267490733042735,,741316,,1513267488,908669309,'',1.62315620435,1.61842414969,-0.0141521898942,0.0,0.001,0.0,4300.0,0.0,0.0,0.0
1513267490743026221,,741317,,1513267488,918669309,'',1.62315620435,1.61842414969,-0.0151097670717,0.0,0.001,0.0,4300.0,0.0,0.0,0.0
1513267490752992648,,741318,,1513267488,928669309,'',1.62315620435,1.61980689294,0.0125306554626,0.0,0.001,0.0,4300.0,0.0,0.0,0.0
1513267490762924636,,741319,,1513267488,938669309,'',1.62315620435,1.61980689294,0.0122012738887,0.0,0.001,0.0,4300.0,0.0,0.0,0.0
1513267490772863036,,741320,,1513267488,948669309,'',1.62315620435,1.61842414969,-0.0169896298691,0.0,0.001,0.0,4300.0,0.0,0.0,0.0
1513267490782898266,,741321,,1513267488,958669309,'',1.62315620435,1.61842414969,-0.0163904820407,0.0,0.001,0.0,4300.0,0.0,0.0,0.0
1513267490792893872,,741322,,1513267488,968669309,'',1.62315620435,1.61842414969,-0.0165194735981,0.0,0.001,0.0,4300.0,0.0,0.0,0.0
1513267490802700187,,741323,,1513267488,978669309,'',1.62315620435,1.61980689294,0.0133656843994,0.0,0.001,0.0,4300.0,0.0,0.0,0.0
1513267490813150884,,741324,,1513267488,988669309,'',1.62315620435,1.61980689294,0.015438312539,0.0,0.001,0.0,4300.0,0.0,0.0,0.0
1513267490823109758,,741325,,1513267488,998669309,'',1.62315620435,1.61842414969,-0.010231503884,0.0,0.001,0.0,4300.0,0.0,0.0,0.0
1513267490832839488,,741326,,1513267489,8669309,'',1.62315620435,1.61842414969,-0.00984513394402,0.0,0.001,0.0,4300.0,0.0,0.0,0.0
1513267490842852154,,741327,,1513267489,18669309,'',1.62315620435,1.61842414969,-0.00858004581951,0.0,0.001,0.0,4300.0,0.0,0.0,0.0
1513267490852785648,,741328,,1513267489,28669309,'',1.62315620435,1.61842414969,-0.00804643262158,0.0,0.001,0.0,4300.0,0.0,0.0,0.0
1513267490862837385,,741329,,1513267489,38669309,'',1.62315620435,1.61980689294,0.0192063770896,0.0,0.001,0.0,4300.0,0.0,0.0,0.0
1513267490872687114,,741330,,1513267489,48669309,'',1.62315620435,1.61980689294,0.0171334466062,0.0,0.001,0.0,4300.0,0.0,0.0,0.0
1513267490882823647,,741331,,1513267489,58669309,'',1.62315620435,1.61980689294,0.0155821649011,0.0,0.001,0.0,4300.0,0.0,0.0,0.0
1513267490893008283,,741332,,1513267489,68669309,'',1.62315620435,1.61980689294,0.0152970055542,0.0,0.001,0.0,4300.0,0.0,0.0,0.0
1513267490903070367,,741333,,1513267489,78669309,'',1.62315620435,1.61842414969,-0.0119184602607,0.0,0.001,0.0,4300.0,0.0,0.0,0.0
1513267490913006395,,741334,,1513267489,88669309,'',1.62315620435,1.62118963618,0.0419928371293,0.0,0.001,0.0,4300.0,0.0,0.0,0.0
1513267490922920294,,741335,,1513267489,98669309,'',1.62315620435,1.61980689294,0.0135641368743,0.0,0.001,0.0,4300.0,0.0,0.0,0.0
1513267490932794221,,741336,,1513267489,108669309,'',1.62315620435,1.61980689294,0.0125438971651,0.0,0.001,0.0,4300.0,0.0,0.0,0.0
1513267490942730374,,741337,,1513267489,118669309,'',1.62315620435,1.61980689294,0.0117905487207,0.0,0.001,0.0,4300.0,0.0,0.0,0.0
1513267490952977807,,741338,,1513267489,128669309,'',1.62315620435,1.61842414969,-0.0142258697451,0.0,0.001,0.0,4300.0,0.0,0.0,0.0
1513267490962890167,,741339,,1513267489,138669309,'',1.62315620435,1.61842414969,-0.0136674596977,0.0,0.001,0.0,4300.0,0.0,0.0,0.0
1513267490972884489,,741340,,1513267489,148669309,'',1.62315620435,1.61980689294,0.0141664445507,0.0,0.001,0.0,4300.0,0.0,0.0,0.0
1513267490982905361,,741341,,1513267489,158669309,'',1.62315620435,1.61842414969,-0.0128118435371,0.0,0.001,0.0,4300.0,0.0,0.0,0.0
1513267490992834343,,741342,,1513267489,168669309,'',1.62315620435,1.61842414969,-0.01100180336,0.0,0.001,0.0,4300.0,0.0,0.0,0.0
1513267491002724704,,741343,,1513267489,178669309,'',1.62315620435,1.61980689294,0.0163749784113,0.0,0.001,0.0,4300.0,0.0,0.0,0.0
1513267491012827671,,741344,,1513267489,188669309,'',1.62315620435,1.61842414969,-0.0124762174551,0.0,0.001,0.0,4300.0,0.0,0.0,0.0
1513267491023093852,,741345,,1513267489,198669309,'',1.62315620435,1.61842414969,-0.0126483100765,0.0,0.001,0.0,4300.0,0.0,0.0,0.0
1513267491032991362,,741346,,1513267489,208669309,'',1.62315620435,1.61980689294,0.0160006012409,0.0,0.001,0.0,4300.0,0.0,0.0,0.0
1513267491042966773,,741347,,1513267489,218669309,'',1.62315620435,1.61980689294,0.0155805419462,0.0,0.001,0.0,4300.0,0.0,0.0,0.0
1513267491052829484,,741348,,1513267489,228669309,'',1.62315620435,1.61980689294,0.015242061143,0.0,0.001,0.0,4300.0,0.0,0.0,0.0
1513267491063108930,,741349,,1513267489,238669309,'',1.62315620435,1.61842414969,-0.0134201117598,0.0,0.001,0.0,4300.0,0.0,0.0,0.0
1513267491073122222,,741350,,1513267489,248669309,'',1.62315620435,1.61980689294,0.0143990010603,0.0,0.001,0.0,4300.0,0.0,0.0,0.0
1513267491083047779,,741351,,1513267489,258669309,'',1.62315620435,1.61842414969,-0.0140805827244,0.0,0.001,0.0,4300.0,0.0,0.0,0.0
1513267491092996305,,741352,,1513267489,268669309,'',1.62315620435,1.61842414969,-0.0150544764152,0.0,0.001,0.0,4300.0,0.0,0.0,0.0
1513267491102927759,,741353,,1513267489,278669309,'',1.62315620435,1.61980689294,0.0110049581576,0.0,0.001,0.0,4300.0,0.0,0.0,0.0
1513267491112930860,,741354,,1513267489,288669309,'',1.62315620435,1.61842414969,-0.0178327377457,0.0,0.001,0.0,4300.0,0.0,0.0,0.0
1513267491122961789,,741355,,1513267489,298669309,'',1.62315620435,1.61842414969,-0.0170357705,0.0,0.001,0.0,4300.0,0.0,0.0,0.0
1513267491132736575,,741356,,1513267489,308669309,'',1.62315620435,1.61980689294,0.0104485650301,0.0,0.001,0.0,4300.0,0.0,0.0,0.0
1513267491143163785,,741357,,1513267489,318669309,'',1.62315620435,1.61980689294,0.0125562796147,0.0,0.001,0.0,4300.0,0.0,0.0,0.0
1513267491153085963,,741358,,1513267489,328669309,'',1.62315620435,1.61980689294,0.0137666826573,0.0,0.001,0.0,4300.0,0.0,0.0,0.0
1513267491163048122,,741359,,1513267489,338669309,'',1.62315620435,1.61842414969,-0.0126255505189,0.0,0.001,0.0,4300.0,0.0,0.0,0.0
1513267491173074895,,741360,,1513267489,348669309,'',1.62315620435,1.61842414969,-0.0127766639355,0.0,0.001,0.0,4300.0,0.0,0.0,0.0
1513267491183106307,,741361,,1513267489,358669309,'',1.62315620435,1.61842414969,-0.0114590179553,0.0,0.001,0.0,4300.0,0.0,0.0,0.0
1513267491192928923,,741362,,1513267489,368669309,'',1.62315620435,1.61980689294,0.0159682323625,0.0,0.001,0.0,4300.0,0.0,0.0,0.0
1513267491202992470,,741363,,1513267489,378669309,'',1.62315620435,1.61980689294,0.0160525740956,0.0,0.001,0.0,4300.0,0.0,0.0,0.0
1513267491212918040,,741364,,1513267489,388669309,'',1.62315620435,1.61980689294,0.0140833654985,0.0,0.001,0.0,4300.0,0.0,0.0,0.0
1513267491222952851,,741365,,1513267489,398669309,'',1.62315620435,1.61842414969,-0.0137258218761,0.0,0.001,0.0,4300.0,0.0,0.0,0.0
1513267491232798104,,741366,,1513267489,408669309,'',1.62315620435,1.61980689294,0.0146912693623,0.0,0.001,0.0,4300.0,0.0,0.0,0.0
1513267491242888035,,741367,,1513267489,418669309,'',1.62315620435,1.61980689294,0.0155247352408,0.0,0.001,0.0,4300.0,0.0,0.0,0.0
1513267491252823829,,741368,,1513267489,428669309,'',1.62315620435,1.61842414969,-0.0126562406228,0.0,0.001,0.0,4300.0,0.0,0.0,0.0
1513267491262782539,,741369,,1513267489,438669309,'',1.62315620435,1.61980689294,0.0140945278358,0.0,0.001,0.0,4300.0,0.0,0.0,0.0
1513267491272641290,,741370,,1513267489,448669309,'',1.62315620435,1.61980689294,0.0130432817946,0.0,0.001,0.0,4300.0,0.0,0.0,0.0
1513267491283154013,,741371,,1513267489,458669309,'',1.62315620435,1.61842414969,-0.0157340633971,0.0,0.001,0.0,4300.0,0.0,0.0,0.0
1513267491293161401,,741372,,1513267489,468669309,'',1.62315620435,1.61842414969,-0.0163723195554,0.0,0.001,0.0,4300.0,0.0,0.0,0.0
1513267491303169206,,741373,,1513267489,478669309,'',1.62315620435,1.61842414969,-0.0154060965655,0.0,0.001,0.0,4300.0,0.0,0.0,0.0
1513267491313073684,,741374,,1513267489,488669309,'',1.62315620435,1.61980689294,0.0132616481906,0.0,0.001,0.0,4300.0,0.0,0.0,0.0
1513267491323048460,,741375,,1513267489,498669309,'',1.62315620435,1.61980689294,0.0118711671206,0.0,0.001,0.0,4300.0,0.0,0.0,0.0
1513267491332924164,,741376,,1513267489,508669309,'',1.62315620435,1.62118963618,0.0381904049153,0.0,0.001,0.0,4300.0,0.0,0.0,0.0
1513267491342907933,,741377,,1513267489,518669309,'',1.62315620435,1.61980689294,0.0109071731294,0.0,0.001,0.0,4300.0,0.0,0.0,0.0
1513267491352831424,,741378,,1513267489,528669309,'',1.62315620435,1.61842414969,-0.0178878578348,0.0,0.001,0.0,4300.0,0.0,0.0,0.0
1513267491362704989,,741379,,1513267489,538669309,'',1.62315620435,1.61980689294,0.0102385884034,0.0,0.001,0.0,4300.0,0.0,0.0,0.0
1513267491372710159,,741380,,1513267489,548669309,'',1.62315620435,1.61842414969,-0.0164846870009,0.0,0.001,0.0,4300.0,0.0,0.0,0.0
1513267491383079946,,741381,,1513267489,558669309,'',1.62315620435,1.61842414969,-0.0144979614473,0.0,0.001,0.0,4300.0,0.0,0.0,0.0
1513267491392951430,,741382,,1513267489,568669309,'',1.62315620435,1.61842414969,-0.0128183999242,0.0,0.001,0.0,4300.0,0.0,0.0,0.0
1513267491403131458,,741383,,1513267489,578669309,'',1.62315620435,1.61842414969,-0.0115092862154,0.0,0.001,0.0,4300.0,0.0,0.0,0.0
1513267491413088481,,741384,,1513267489,588669309,'',1.62315620435,1.61980689294,0.016021628142,0.0,0.001,0.0,4300.0,0.0,0.0,0.0
1513267491423091461,,741385,,1513267489,598669309,'',1.62315620435,1.61842414969,-0.0137339769477,0.0,0.001,0.0,4300.0,0.0,0.0,0.0
1513267491433028495,,741386,,1513267489,608669309,'',1.62315620435,1.61980689294,0.0146497295877,0.0,0.001,0.0,4300.0,0.0,0.0,0.0
1513267491443037335,,741387,,1513267489,618669309,'',1.62315620435,1.61842414969,-0.0133400932177,0.0,0.001,0.0,4300.0,0.0,0.0,0.0
1513267491452962772,,741388,,1513267489,628669309,'',1.62315620435,1.62118963618,0.0428675829438,0.0,0.001,0.0,4300.0,0.0,0.0,0.0
1513267491462967430,,741389,,1513267489,638669309,'',1.62315620435,1.61842414969,-0.0116871590366,0.0,0.001,0.0,4300.0,0.0,0.0,0.0
1513267491472855671,,741390,,1513267489,648669309,'',1.62315620435,1.61980689294,0.0152856922417,0.0,0.001,0.0,4300.0,0.0,0.0,0.0
1513267491482901163,,741391,,1513267489,658669309,'',1.62315620435,1.61842414969,-0.0108512158815,0.0,0.001,0.0,4300.0,0.0,0.0,0.0
1513267491492800207,,741392,,1513267489,668669309,'',1.62315620435,1.61842414969,-0.0129574624999,0.0,0.001,0.0,4300.0,0.0,0.0,0.0
1513267491502983403,,741393,,1513267489,678669309,'',1.62315620435,1.61980689294,0.0157815469068,0.0,0.001,0.0,4300.0,0.0,0.0,0.0
1513267491512826021,,741394,,1513267489,688669309,'',1.62315620435,1.61842414969,-0.0129695695526,0.0,0.001,0.0,4300.0,0.0,0.0,0.0
1513267491522680601,,741395,,1513267489,698669309,'',1.62315620435,1.61980689294,0.0141811233467,0.0,0.001,0.0,4300.0,0.0,0.0,0.0
1513267491533153630,,741396,,1513267489,708669309,'',1.62315620435,1.61980689294,0.0130573093552,0.0,0.001,0.0,4300.0,0.0,0.0,0.0
1513267491542995707,,741397,,1513267489,718669309,'',1.62315620435,1.61980689294,0.014150549711,0.0,0.001,0.0,4300.0,0.0,0.0,0.0
1513267491552900826,,741398,,1513267489,728669309,'',1.62315620435,1.61842414969,-0.0142531511723,0.0,0.001,0.0,4300.0,0.0,0.0,0.0
1513267491562891579,,741399,,1513267489,738669309,'',1.62315620435,1.61980689294,0.0126967793105,0.0,0.001,0.0,4300.0,0.0,0.0,0.0
1513267491572853550,,741400,,1513267489,748669309,'',1.62315620435,1.61842414969,-0.0149210388134,0.0,0.001,0.0,4300.0,0.0,0.0,0.0
1513267491582934976,,741401,,1513267489,758669309,'',1.62315620435,1.61842414969,-0.0142439512368,0.0,0.001,0.0,4300.0,0.0,0.0,0.0
1513267491592818393,,741402,,1513267489,768669309,'',1.62315620435,1.61842414969,-0.014184392097,0.0,0.001,0.0,4300.0,0.0,0.0,0.0
1513267491603270722,,741403,,1513267489,778669309,'',1.62315620435,1.61842414969,-0.0150027279151,0.0,0.001,0.0,4300.0,0.0,0.0,0.0
1513267491613041334,,741404,,1513267489,788669309,'',1.62315620435,1.61842414969,-0.0132834667924,0.0,0.001,0.0,4300.0,0.0,0.0,0.0
1513267491622861623,,741405,,1513267489,798669309,'',1.62315620435,1.61842414969,-0.0127836561876,0.0,0.001,0.0,4300.0,0.0,0.0,0.0
1513267491632876042,,741406,,1513267489,808669309,'',1.62315620435,1.61980689294,0.0149572687736,0.0,0.001,0.0,4300.0,0.0,0.0,0.0
1513267491642785245,,741407,,1513267489,818669309,'',1.62315620435,1.61980689294,0.0157423491735,0.0,0.001,0.0,4300.0,0.0,0.0,0.0
1513267491652627163,,741408,,1513267489,828669309,'',1.62315620435,1.61842414969,-0.0125078589082,0.0,0.001,0.0,4300.0,0.0,0.0,0.0
1513267491662792159,,741409,,1513267489,838669309,'',1.62315620435,1.61980689294,0.0155696827242,0.0,0.001,0.0,4300.0,0.0,0.0,0.0
1513267491672653713,,741410,,1513267489,848669309,'',1.62315620435,1.61842414969,-0.0111502305628,0.0,0.001,0.0,4300.0,0.0,0.0,0.0
1513267491683034564,,741411,,1513267489,858669309,'',1.62315620435,1.61842414969,-0.0116132363302,0.0,0.001,0.0,4300.0,0.0,0.0,0.0
1513267491693037474,,741412,,1513267489,868669309,'',1.62315620435,1.61842414969,-0.0135201329482,0.0,0.001,0.0,4300.0,0.0,0.0,0.0
1513267491702948320,,741413,,1513267489,878669309,'',1.62315620435,1.61980689294,0.0148074040478,0.0,0.001,0.0,4300.0,0.0,0.0,0.0
1513267491713002590,,741414,,1513267489,888669309,'',1.62315620435,1.61980689294,0.0145876404785,0.0,0.001,0.0,4300.0,0.0,0.0,0.0
1513267491722863316,,741415,,1513267489,898669309,'',1.62315620435,1.62118963618,0.0419153874017,0.0,0.001,0.0,4300.0,0.0,0.0,0.0
1513267491732861445,,741416,,1513267489,908669309,'',1.62315620435,1.61980689294,0.0144226772727,0.0,0.001,0.0,4300.0,0.0,0.0,0.0
1513267491742784098,,741417,,1513267489,918669309,'',1.62315620435,1.61842414969,-0.0125890960263,0.0,0.001,0.0,4300.0,0.0,0.0,0.0
1513267491753078380,,741418,,1513267489,928669309,'',1.62315620435,1.61842414969,-0.0117401475078,0.0,0.001,0.0,4300.0,0.0,0.0,0.0
1513267491762982328,,741419,,1513267489,938669309,'',1.62315620435,1.61842414969,-0.0106790779426,0.0,0.001,0.0,4300.0,0.0,0.0,0.0
1513267491772983916,,741420,,1513267489,948669309,'',1.62315620435,1.61842414969,-0.00979473108603,0.0,0.001,0.0,4300.0,0.0,0.0,0.0
1513267491782937694,,741421,,1513267489,958669309,'',1.62315620435,1.61980689294,0.0183240876391,0.0,0.001,0.0,4300.0,0.0,0.0,0.0
1513267491792868010,,741422,,1513267489,968669309,'',1.62315620435,1.61980689294,0.0175331428513,0.0,0.001,0.0,4300.0,0.0,0.0,0.0
1513267491802743477,,741423,,1513267489,978669309,'',1.62315620435,1.61842414969,-0.0104477943021,0.0,0.001,0.0,4300.0,0.0,0.0,0.0
1513267491813094607,,741424,,1513267489,988669309,'',1.62315620435,1.61842414969,-0.00846485899862,0.0,0.001,0.0,4300.0,0.0,0.0,0.0
1513267491823113425,,741425,,1513267489,998669309,'',1.62315620435,1.61980689294,0.0178961132156,0.0,0.001,0.0,4300.0,0.0,0.0,0.0
1513267491833059048,,741426,,1513267490,8669309,'',1.62315620435,1.61980689294,0.0181796079961,0.0,0.001,0.0,4300.0,0.0,0.0,0.0
1513267491842932808,,741427,,1513267490,18669309,'',1.62315620435,1.61842414969,-0.00944119903735,0.0,0.001,0.0,4300.0,0.0,0.0,0.0
1513267491852907349,,741428,,1513267490,28669309,'',1.62315620435,1.61842414969,-0.00872394833144,0.0,0.001,0.0,4300.0,0.0,0.0,0.0
1513267491862840463,,741429,,1513267490,38669309,'',1.62315620435,1.61842414969,-0.0102470960515,0.0,0.001,0.0,4300.0,0.0,0.0,0.0
1513267491872897657,,741430,,1513267490,48669309,'',1.62315620435,1.61980689294,0.0170458527845,0.0,0.001,0.0,4300.0,0.0,0.0,0.0
1513267491882852231,,741431,,1513267490,58669309,'',1.62315620435,1.61842414969,-0.00994086259285,0.0,0.001,0.0,4300.0,0.0,0.0,0.0
1513267491893261139,,741432,,1513267490,68669309,'',1.62315620435,1.61980689294,0.0172497943023,0.0,0.001,0.0,4300.0,0.0,0.0,0.0
1513267491903145517,,741433,,1513267490,78669309,'',1.62315620435,1.61980689294,0.0161717816501,0.0,0.001,0.0,4300.0,0.0,0.0,0.0
1513267491913114171,,741434,,1513267490,88669309,'',1.62315620435,1.62118963618,0.0426832858257,0.0,0.001,0.0,4300.0,0.0,0.0,0.0
1513267491923022940,,741435,,1513267490,98669309,'',1.62315620435,1.61980689294,0.0156038627528,0.0,0.001,0.0,4300.0,0.0,0.0,0.0
1513267491932913205,,741436,,1513267490,108669309,'',1.62315620435,1.61980689294,0.0157430874843,0.0,0.001,0.0,4300.0,0.0,0.0,0.0
1513267491942889067,,741437,,1513267490,118669309,'',1.62315620435,1.61980689294,0.0169326694313,0.0,0.001,0.0,4300.0,0.0,0.0,0.0
1513267491952687146,,741438,,1513267490,128669309,'',1.62315620435,1.61842414969,-0.0116158291396,0.0,0.001,0.0,4300.0,0.0,0.0,0.0
1513267491963189532,,741439,,1513267490,138669309,'',1.62315620435,1.61980689294,0.0159271895462,0.0,0.001,0.0,4300.0,0.0,0.0,0.0
1513267491973041251,,741440,,1513267490,148669309,'',1.62315620435,1.61842414969,-0.0128771047335,0.0,0.001,0.0,4300.0,0.0,0.0,0.0
1513267491983073601,,741441,,1513267490,158669309,'',1.62315620435,1.61980689294,0.0132944170526,0.0,0.001,0.0,4300.0,0.0,0.0,0.0
1513267491992930755,,741442,,1513267490,168669309,'',1.62315620435,1.61842414969,-0.0143804032085,0.0,0.001,0.0,4300.0,0.0,0.0,0.0
1513267492002814634,,741443,,1513267490,178669309,'',1.62315620435,1.61980689294,0.0130516286626,0.0,0.001,0.0,4300.0,0.0,0.0,0.0
1513267492012821400,,741444,,1513267490,188669309,'',1.62315620435,1.61842414969,-0.0141391750633,0.0,0.001,0.0,4300.0,0.0,0.0,0.0
1513267492022808371,,741445,,1513267490,198669309,'',1.62315620435,1.61842414969,-0.0125675241182,0.0,0.001,0.0,4300.0,0.0,0.0,0.0
1513267492032897606,,741446,,1513267490,208669309,'',1.62315620435,1.61842414969,-0.0127393233056,0.0,0.001,0.0,4300.0,0.0,0.0,0.0
1513267492043225526,,741447,,1513267490,218669309,'',1.62315620435,1.61980689294,0.016404786615,0.0,0.001,0.0,4300.0,0.0,0.0,0.0
1513267492052886279,,741448,,1513267490,228669309,'',1.62315620435,1.61842414969,-0.0109792325882,0.0,0.001,0.0,4300.0,0.0,0.0,0.0
1513267492062829834,,741449,,1513267490,238669309,'',1.62315620435,1.61842414969,-0.00999798006652,0.0,0.001,0.0,4300.0,0.0,0.0,0.0
1513267492073147616,,741450,,1513267490,248669309,'',1.62315620435,1.61980689294,0.0187159103873,0.0,0.001,0.0,4300.0,0.0,0.0,0.0
1513267492083125506,,741451,,1513267490,258669309,'',1.62315620435,1.61842414969,-0.00859296391935,0.0,0.001,0.0,4300.0,0.0,0.0,0.0
1513267492093085055,,741452,,1513267490,268669309,'',1.62315620435,1.61980689294,0.0183492314956,0.0,0.001,0.0,4300.0,0.0,0.0,0.0
1513267492103026932,,741453,,1513267490,278669309,'',1.62315620435,1.61980689294,0.0180236013542,0.0,0.001,0.0,4300.0,0.0,0.0,0.0
1513267492112895513,,741454,,1513267490,288669309,'',1.62315620435,1.61842414969,-0.00758592396736,0.0,0.001,0.0,4300.0,0.0,0.0,0.0
1513267492122854400,,741455,,1513267490,298669309,'',1.62315620435,1.61842414969,-0.00621020855037,0.0,0.001,0.0,4300.0,0.0,0.0,0.0
1513267492132815275,,741456,,1513267490,308669309,'',1.62315620435,1.61842414969,-0.0036155323657,0.0,0.001,0.0,4300.0,0.0,0.0,0.0
1513267492143115266,,741457,,1513267490,318669309,'',1.62315620435,1.61842414969,-0.00255560772308,0.0,0.001,0.0,4300.0,0.0,0.0,0.0
1513267492153141252,,741458,,1513267490,328669309,'',1.62315620435,1.61842414969,-0.00209302361525,0.0,0.001,0.0,4300.0,0.0,0.0,0.0
1513267492163118845,,741459,,1513267490,338669309,'',1.62315620435,1.61842414969,-0.000177266255773,0.0,0.001,0.0,4300.0,0.0,0.0,0.0
1513267492173101016,,741460,,1513267490,348669309,'',1.62315620435,1.61842414969,0.000410861288638,0.0,0.001,0.0,4300.0,0.0,0.0,0.0
1513267492183009486,,741461,,1513267490,358669309,'',1.62315620435,1.61842414969,0.000323587093001,0.0,0.001,0.0,4300.0,0.0,0.0,0.0
1513267492192916605,,741462,,1513267490,368669309,'',1.62315620435,1.61842414969,-0.00131723798004,0.0,0.001,0.0,4300.0,0.0,0.0,0.0
1513267492202939547,,741463,,1513267490,378669309,'',1.62315620435,1.61842414969,-0.00248854333244,0.0,0.001,0.0,4300.0,0.0,0.0,0.0
1513267492212726347,,741464,,1513267490,388669309,'',1.62315620435,1.61980689294,0.0213220424878,0.0,0.001,0.0,4300.0,0.0,0.0,0.0
1513267492222782313,,741465,,1513267490,398669309,'',1.62315620435,1.61842414969,-0.00792577081955,0.0,0.001,0.0,4300.0,0.0,0.0,0.0
1513267492232800143,,741466,,1513267490,408669309,'',1.62315620435,1.61980689294,0.0192996969627,0.0,0.001,0.0,4300.0,0.0,0.0,0.0
1513267492243180689,,741467,,1513267490,418669309,'',1.62315620435,1.61842414969,-0.00910321708963,0.0,0.001,0.0,4300.0,0.0,0.0,0.0
1513267492253130668,,741468,,1513267490,428669309,'',1.62315620435,1.61842414969,-0.00947413511208,0.0,0.001,0.0,4300.0,0.0,0.0,0.0
1513267492263129762,,741469,,1513267490,438669309,'',1.62315620435,1.61980689294,0.0176637744509,0.0,0.001,0.0,4300.0,0.0,0.0,0.0
1513267492273083978,,741470,,1513267490,448669309,'',1.62315620435,1.61842414969,-0.0108347194912,0.0,0.001,0.0,4300.0,0.0,0.0,0.0
1513267492283037367,,741471,,1513267490,458669309,'',1.62315620435,1.61842414969,-0.0123208786352,0.0,0.001,0.0,4300.0,0.0,0.0,0.0
1513267492292959019,,741472,,1513267490,468669309,'',1.62315620435,1.61980689294,0.014831304018,0.0,0.001,0.0,4300.0,0.0,0.0,0.0
1513267492302955532,,741473,,1513267490,478669309,'',1.62315620435,1.61980689294,0.014682192304,0.0,0.001,0.0,4300.0,0.0,0.0,0.0
1513267492312984498,,741474,,1513267490,488669309,'',1.62315620435,1.61980689294,0.0144494068732,0.0,0.001,0.0,4300.0,0.0,0.0,0.0
1513267492322801169,,741475,,1513267490,498669309,'',1.62315620435,1.61980689294,0.0148725944987,0.0,0.001,0.0,4300.0,0.0,0.0,0.0
1513267492332962852,,741476,,1513267490,508669309,'',1.62315620435,1.61980689294,0.0136788295481,0.0,0.001,0.0,4300.0,0.0,0.0,0.0
1513267492342773892,,741477,,1513267490,518669309,'',1.62315620435,1.62118963618,0.0406244563367,0.0,0.001,0.0,4300.0,0.0,0.0,0.0
1513267492352759135,,741478,,1513267490,528669309,'',1.62315620435,1.61842414969,-0.0139754254377,0.0,0.001,0.0,4300.0,0.0,0.0,0.0
1513267492363109671,,741479,,1513267490,538669309,'',1.62315620435,1.61842414969,-0.0129074289654,0.0,0.001,0.0,4300.0,0.0,0.0,0.0
1513267492373035528,,741480,,1513267490,548669309,'',1.62315620435,1.61842414969,-0.0145847911563,0.0,0.001,0.0,4300.0,0.0,0.0,0.0
1513267492383143843,,741481,,1513267490,558669309,'',1.62315620435,1.61980689294,0.0124382758696,0.0,0.001,0.0,4300.0,0.0,0.0,0.0
1513267492393082682,,741482,,1513267490,568669309,'',1.62315620435,1.61980689294,0.0122426799383,0.0,0.001,0.0,4300.0,0.0,0.0,0.0
1513267492402984321,,741483,,1513267490,578669309,'',1.62315620435,1.61980689294,0.0120809394903,0.0,0.001,0.0,4300.0,0.0,0.0,0.0
1513267492412943790,,741484,,1513267490,588669309,'',1.62315620435,1.61842414969,-0.0150390387751,0.0,0.001,0.0,4300.0,0.0,0.0,0.0
1513267492422876359,,741485,,1513267490,598669309,'',1.62315620435,1.61980689294,0.0131135198277,0.0,0.001,0.0,4300.0,0.0,0.0,0.0
1513267492432887339,,741486,,1513267490,608669309,'',1.62315620435,1.61842414969,-0.0141099677892,0.0,0.001,0.0,4300.0,0.0,0.0,0.0
1513267492442947887,,741487,,1513267490,618669309,'',1.62315620435,1.61842414969,-0.0139684096081,0.0,0.001,0.0,4300.0,0.0,0.0,0.0
1513267492452871937,,741488,,1513267490,628669309,'',1.62315620435,1.61842414969,-0.0133803506657,0.0,0.001,0.0,4300.0,0.0,0.0,0.0
1513267492462860619,,741489,,1513267490,638669309,'',1.62315620435,1.61842414969,-0.0134198406724,0.0,0.001,0.0,4300.0,0.0,0.0,0.0
1513267492472804821,,741490,,1513267490,648669309,'',1.62315620435,1.61842414969,-0.0144742372435,0.0,0.001,0.0,4300.0,0.0,0.0,0.0
1513267492483158360,,741491,,1513267490,658669309,'',1.62315620435,1.61980689294,0.0150619161844,0.0,0.001,0.0,4300.0,0.0,0.0,0.0
1513267492493164285,,741492,,1513267490,668669309,'',1.62315620435,1.61980689294,0.0138259009721,0.0,0.001,0.0,4300.0,0.0,0.0,0.0
1513267492503130334,,741493,,1513267490,678669309,'',1.62315620435,1.61980689294,0.0138548580455,0.0,0.001,0.0,4300.0,0.0,0.0,0.0
1513267492512852086,,741494,,1513267490,688669309,'',1.62315620435,1.61842414969,-0.012988941337,0.0,0.001,0.0,4300.0,0.0,0.0,0.0
1513267492522899498,,741495,,1513267490,698669309,'',1.62315620435,1.61842414969,-0.0116187723294,0.0,0.001,0.0,4300.0,0.0,0.0,0.0
1513267492532857566,,741496,,1513267490,708669309,'',1.62315620435,1.61842414969,-0.0124860354398,0.0,0.001,0.0,4300.0,0.0,0.0,0.0
1513267492542891818,,741497,,1513267490,718669309,'',1.62315620435,1.61980689294,0.0145954485933,0.0,0.001,0.0,4300.0,0.0,0.0,0.0
1513267492553218103,,741498,,1513267490,728669309,'',1.62315620435,1.61980689294,0.0154725384868,0.0,0.001,0.0,4300.0,0.0,0.0,0.0
1513267492563192501,,741499,,1513267490,738669309,'',1.62315620435,1.61842414969,-0.0146876468366,0.0,0.001,0.0,4300.0,0.0,0.0,0.0
1513267492573112050,,741500,,1513267490,748669309,'',1.62315620435,1.61842414969,-0.014036852846,0.0,0.001,0.0,4300.0,0.0,0.0,0.0
1513267492583170649,,741501,,1513267490,758669309,'',1.62315620435,1.61842414969,-0.0150081815629,0.0,0.001,0.0,4300.0,0.0,0.0,0.0
1513267492593073209,,741502,,1513267490,768669309,'',1.62315620435,1.61842414969,-0.015302341303,0.0,0.001,0.0,4300.0,0.0,0.0,0.0
1513267492602686424,,741503,,1513267490,778669309,'',1.62315620435,1.61980689294,0.0143307427954,0.0,0.001,0.0,4300.0,0.0,0.0,0.0
1513267492612876446,,741504,,1513267490,788669309,'',1.62315620435,1.61980689294,0.0141621382138,0.0,0.001,0.0,4300.0,0.0,0.0,0.0
1513267492623294188,,741505,,1513267490,798669309,'',1.62315620435,1.61842414969,-0.013340003488,0.0,0.001,0.0,4300.0,0.0,0.0,0.0
1513267492632660009,,741506,,1513267490,808669309,'',1.62315620435,1.61842414969,-0.0138989985795,0.0,0.001,0.0,4300.0,0.0,0.0,0.0
1513267492643243393,,741507,,1513267490,818669309,'',1.62315620435,1.61980689294,0.0139790023264,0.0,0.001,0.0,4300.0,0.0,0.0,0.0
1513267492653159330,,741508,,1513267490,828669309,'',1.62315620435,1.61842414969,-0.0129217810372,0.0,0.001,0.0,4300.0,0.0,0.0,0.0
1513267492663046538,,741509,,1513267490,838669309,'',1.62315620435,1.61842414969,-0.0130856765213,0.0,0.001,0.0,4300.0,0.0,0.0,0.0
1513267492672977214,,741510,,1513267490,848669309,'',1.62315620435,1.61980689294,0.0151977318445,0.0,0.001,0.0,4300.0,0.0,0.0,0.0
1513267492683161423,,741511,,1513267490,858669309,'',1.62315620435,1.61842414969,-0.0129188878288,0.0,0.001,0.0,4300.0,0.0,0.0,0.0
1513267492693155926,,741512,,1513267490,868669309,'',1.62315620435,1.61980689294,0.0143181909425,0.0,0.001,0.0,4300.0,0.0,0.0,0.0
1513267492703233064,,741513,,1513267490,878669309,'',1.62315620435,1.61980689294,0.0136998954958,0.0,0.001,0.0,4300.0,0.0,0.0,0.0
1513267492712911363,,741514,,1513267490,888669309,'',1.62315620435,1.61980689294,0.0127206738798,0.0,0.001,0.0,4300.0,0.0,0.0,0.0
1513267492723087840,,741515,,1513267490,898669309,'',1.62315620435,1.61842414969,-0.0150703527108,0.0,0.001,0.0,4300.0,0.0,0.0,0.0
1513267492732913593,,741516,,1513267490,908669309,'',1.62315620435,1.61842414969,-0.0153555096378,0.0,0.001,0.0,4300.0,0.0,0.0,0.0
1513267492742807079,,741517,,1513267490,918669309,'',1.62315620435,1.61842414969,-0.0141125237364,0.0,0.001,0.0,4300.0,0.0,0.0,0.0
1513267492753210999,,741518,,1513267490,928669309,'',1.62315620435,1.61842414969,-0.014575830647,0.0,0.001,0.0,4300.0,0.0,0.0,0.0
1513267492763163411,,741519,,1513267490,938669309,'',1.62315620435,1.61980689294,0.0109471938075,0.0,0.001,0.0,4300.0,0.0,0.0,0.0
1513267492773126362,,741520,,1513267490,948669309,'',1.62315620435,1.61980689294,0.0109886883681,0.0,0.001,0.0,4300.0,0.0,0.0,0.0
1513267492783087687,,741521,,1513267490,958669309,'',1.62315620435,1.61980689294,0.0120455336361,0.0,0.001,0.0,4300.0,0.0,0.0,0.0
1513267492792864756,,741522,,1513267490,968669309,'',1.62315620435,1.61980689294,0.00985823644362,0.0,0.001,0.0,4300.0,0.0,0.0,0.0
1513267492802967136,,741523,,1513267490,978669309,'',1.62315620435,1.61842414969,-0.0168275836424,0.0,0.001,0.0,4300.0,0.0,0.0,0.0
1513267492812765812,,741524,,1513267490,988669309,'',1.62315620435,1.61980689294,0.0104814861314,0.0,0.001,0.0,4300.0,0.0,0.0,0.0
1513267492823214564,,741525,,1513267490,998669309,'',1.62315620435,1.61842414969,-0.0168455388855,0.0,0.001,0.0,4300.0,0.0,0.0,0.0
1513267492833416045,,741526,,1513267491,8669309,'',1.62315620435,1.61980689294,0.0106037221578,0.0,0.001,0.0,4300.0,0.0,0.0,0.0
1513267492843031370,,741527,,1513267491,18669309,'',1.62315620435,1.61842414969,-0.0171758126567,0.0,0.001,0.0,4300.0,0.0,0.0,0.0
1513267492853037996,,741528,,1513267491,28669309,'',1.62315620435,1.61842414969,-0.0165581979366,0.0,0.001,0.0,4300.0,0.0,0.0,0.0
1513267492863184602,,741529,,1513267491,38669309,'',1.62315620435,1.61980689294,0.0108100397523,0.0,0.001,0.0,4300.0,0.0,0.0,0.0
1513267492873050398,,741530,,1513267491,48669309,'',1.62315620435,1.61980689294,0.0103887130316,0.0,0.001,0.0,4300.0,0.0,0.0,0.0
1513267492883107359,,741531,,1513267491,58669309,'',1.62315620435,1.61842414969,-0.0168068883957,0.0,0.001,0.0,4300.0,0.0,0.0,0.0
1513267492892975784,,741532,,1513267491,68669309,'',1.62315620435,1.61980689294,0.0116168892057,0.0,0.001,0.0,4300.0,0.0,0.0,0.0
1513267492903016333,,741533,,1513267491,78669309,'',1.62315620435,1.61980689294,0.0110288271954,0.0,0.001,0.0,4300.0,0.0,0.0,0.0
1513267492912915135,,741534,,1513267491,88669309,'',1.62315620435,1.61842414969,-0.0143429192098,0.0,0.001,0.0,4300.0,0.0,0.0,0.0
1513267492923059103,,741535,,1513267491,98669309,'',1.62315620435,1.61980689294,0.0125426351443,0.0,0.001,0.0,4300.0,0.0,0.0,0.0
1513267492932983468,,741536,,1513267491,108669309,'',1.62315620435,1.61842414969,-0.0151464321347,0.0,0.001,0.0,4300.0,0.0,0.0,0.0
1513267492943066420,,741537,,1513267491,118669309,'',1.62315620435,1.61980689294,0.0125472726081,0.0,0.001,0.0,4300.0,0.0,0.0,0.0
1513267492952816318,,741538,,1513267491,128669309,'',1.62315620435,1.61980689294,0.0117244238141,0.0,0.001,0.0,4300.0,0.0,0.0,0.0
1513267492963120673,,741539,,1513267491,138669309,'',1.62315620435,1.61842414969,-0.0147200469263,0.0,0.001,0.0,4300.0,0.0,0.0,0.0
1513267492972939134,,741540,,1513267491,148669309,'',1.62315620435,1.61980689294,0.0118646322408,0.0,0.001,0.0,4300.0,0.0,0.0,0.0
1513267492983099236,,741541,,1513267491,158669309,'',1.62315620435,1.61842414969,-0.0150549033721,0.0,0.001,0.0,4300.0,0.0,0.0,0.0
1513267492992970112,,741542,,1513267491,168669309,'',1.62315620435,1.61980689294,0.0100270516825,0.0,0.001,0.0,4300.0,0.0,0.0,0.0
1513267493002907805,,741543,,1513267491,178669309,'',1.62315620435,1.61842414969,-0.0171660941872,0.0,0.001,0.0,4300.0,0.0,0.0,0.0
1513267493012982402,,741544,,1513267491,188669309,'',1.62315620435,1.61842414969,-0.0176166788579,0.0,0.001,0.0,4300.0,0.0,0.0,0.0
1513267493022820682,,741545,,1513267491,198669309,'',1.62315620435,1.61842414969,-0.0178486899534,0.0,0.001,0.0,4300.0,0.0,0.0,0.0
1513267493032921014,,741546,,1513267491,208669309,'',1.62315620435,1.61842414969,-0.0171416499278,0.0,0.001,0.0,4300.0,0.0,0.0,0.0
1513267493043204793,,741547,,1513267491,218669309,'',1.62315620435,1.61842414969,-0.0180580057138,0.0,0.001,0.0,4300.0,0.0,0.0,0.0
1513267493053175861,,741548,,1513267491,228669309,'',1.62315620435,1.61980689294,0.0101472009193,0.0,0.001,0.0,4300.0,0.0,0.0,0.0
1513267493063175109,,741549,,1513267491,238669309,'',1.62315620435,1.61842414969,-0.016574302567,0.0,0.001,0.0,4300.0,0.0,0.0,0.0
1513267493073049307,,741550,,1513267491,248669309,'',1.62315620435,1.61842414969,-0.0150180052355,0.0,0.001,0.0,4300.0,0.0,0.0,0.0
1513267493083113127,,741551,,1513267491,258669309,'',1.62315620435,1.61842414969,-0.0133364862569,0.0,0.001,0.0,4300.0,0.0,0.0,0.0
1513267493093116666,,741552,,1513267491,268669309,'',1.62315620435,1.61980689294,0.0144286509989,0.0,0.001,0.0,4300.0,0.0,0.0,0.0
1513267493102929499,,741553,,1513267491,278669309,'',1.62315620435,1.61842414969,-0.0120869038757,0.0,0.001,0.0,4300.0,0.0,0.0,0.0
1513267493112834215,,741554,,1513267491,288669309,'',1.62315620435,1.61842414969,-0.0118993229708,0.0,0.001,0.0,4300.0,0.0,0.0,0.0
1513267493122771387,,741555,,1513267491,298669309,'',1.62315620435,1.61842414969,-0.0122235063538,0.0,0.001,0.0,4300.0,0.0,0.0,0.0
1513267493132716279,,741556,,1513267491,308669309,'',1.62315620435,1.61980689294,0.0163525066982,0.0,0.001,0.0,4300.0,0.0,0.0,0.0
1513267493143160953,,741557,,1513267491,318669309,'',1.62315620435,1.61980689294,0.0159574472377,0.0,0.001,0.0,4300.0,0.0,0.0,0.0
1513267493153165820,,741558,,1513267491,328669309,'',1.62315620435,1.61980689294,0.0155864376608,0.0,0.001,0.0,4300.0,0.0,0.0,0.0
1513267493163120105,,741559,,1513267491,338669309,'',1.62315620435,1.61842414969,-0.0110611700464,0.0,0.001,0.0,4300.0,0.0,0.0,0.0
1513267493173038193,,741560,,1513267491,348669309,'',1.62315620435,1.61842414969,-0.0115804565957,0.0,0.001,0.0,4300.0,0.0,0.0,0.0
1513267493183013972,,741561,,1513267491,358669309,'',1.62315620435,1.61980689294,0.0173589835529,0.0,0.001,0.0,4300.0,0.0,0.0,0.0
1513267493192842762,,741562,,1513267491,368669309,'',1.62315620435,1.61842414969,-0.0112758715552,0.0,0.001,0.0,4300.0,0.0,0.0,0.0
1513267493202793476,,741563,,1513267491,378669309,'',1.62315620435,1.61842414969,-0.010243786002,0.0,0.001,0.0,4300.0,0.0,0.0,0.0
1513267493213185902,,741564,,1513267491,388669309,'',1.62315620435,1.61842414969,-0.00941041349137,0.0,0.001,0.0,4300.0,0.0,0.0,0.0
1513267493223152980,,741565,,1513267491,398669309,'',1.62315620435,1.61842414969,-0.00975796308162,0.0,0.001,0.0,4300.0,0.0,0.0,0.0
1513267493232983069,,741566,,1513267491,408669309,'',1.62315620435,1.61842414969,-0.0104960128497,0.0,0.001,0.0,4300.0,0.0,0.0,0.0
1513267493243048005,,741567,,1513267491,418669309,'',1.62315620435,1.61842414969,-0.00959007818359,0.0,0.001,0.0,4300.0,0.0,0.0,0.0
1513267493252902225,,741568,,1513267491,428669309,'',1.62315620435,1.61980689294,0.0180717466289,0.0,0.001,0.0,4300.0,0.0,0.0,0.0
1513267493262847050,,741569,,1513267491,438669309,'',1.62315620435,1.61842414969,-0.00956255371863,0.0,0.001,0.0,4300.0,0.0,0.0,0.0
1513267493272767177,,741570,,1513267491,448669309,'',1.62315620435,1.61980689294,0.017120842867,0.0,0.001,0.0,4300.0,0.0,0.0,0.0
1513267493282854652,,741571,,1513267491,458669309,'',1.62315620435,1.61842414969,-0.013330187875,0.0,0.001,0.0,4300.0,0.0,0.0,0.0
1513267493292896113,,741572,,1513267491,468669309,'',1.62315620435,1.61980689294,0.013900495495,0.0,0.001,0.0,4300.0,0.0,0.0,0.0
1513267493303009710,,741573,,1513267491,478669309,'',1.62315620435,1.61842414969,-0.0144041597789,0.0,0.001,0.0,4300.0,0.0,0.0,0.0
1513267493312899821,,741574,,1513267491,488669309,'',1.62315620435,1.61842414969,-0.0149363634859,0.0,0.001,0.0,4300.0,0.0,0.0,0.0
1513267493323064863,,741575,,1513267491,498669309,'',1.62315620435,1.61980689294,0.0135916824059,0.0,0.001,0.0,4300.0,0.0,0.0,0.0
1513267493332809977,,741576,,1513267491,508669309,'',1.62315620435,1.61842414969,-0.013760970531,0.0,0.001,0.0,4300.0,0.0,0.0,0.0
1513267493343003478,,741577,,1513267491,518669309,'',1.62315620435,1.61842414969,-0.0127001732443,0.0,0.001,0.0,4300.0,0.0,0.0,0.0
1513267493352996341,,741578,,1513267491,528669309,'',1.62315620435,1.61980689294,0.0164898544487,0.0,0.001,0.0,4300.0,0.0,0.0,0.0
1513267493362662364,,741579,,1513267491,538669309,'',1.62315620435,1.61980689294,0.0134718622185,0.0,0.001,0.0,4300.0,0.0,0.0,0.0
1513267493373137269,,741580,,1513267491,548669309,'',1.62315620435,1.61980689294,0.0140421845228,0.0,0.001,0.0,4300.0,0.0,0.0,0.0
1513267493383157722,,741581,,1513267491,558669309,'',1.62315620435,1.61980689294,0.0149811671973,0.0,0.001,0.0,4300.0,0.0,0.0,0.0
1513267493393049849,,741582,,1513267491,568669309,'',1.62315620435,1.61842414969,-0.0141070391155,0.0,0.001,0.0,4300.0,0.0,0.0,0.0
1513267493402839623,,741583,,1513267491,578669309,'',1.62315620435,1.61980689294,0.0133123844338,0.0,0.001,0.0,4300.0,0.0,0.0,0.0
1513267493412862737,,741584,,1513267491,588669309,'',1.62315620435,1.61842414969,-0.0150103098993,0.0,0.001,0.0,4300.0,0.0,0.0,0.0
1513267493422816759,,741585,,1513267491,598669309,'',1.62315620435,1.61842414969,-0.014347508783,0.0,0.001,0.0,4300.0,0.0,0.0,0.0
1513267493432763157,,741586,,1513267491,608669309,'',1.62315620435,1.61842414969,-0.0141862114258,0.0,0.001,0.0,4300.0,0.0,0.0,0.0
1513267493442816751,,741587,,1513267491,618669309,'',1.62315620435,1.61980689294,0.0147481086668,0.0,0.001,0.0,4300.0,0.0,0.0,0.0
1513267493452820500,,741588,,1513267491,628669309,'',1.62315620435,1.61842414969,-0.0127769655754,0.0,0.001,0.0,4300.0,0.0,0.0,0.0
1513267493462859665,,741589,,1513267491,638669309,'',1.62315620435,1.61980689294,0.0148924308354,0.0,0.001,0.0,4300.0,0.0,0.0,0.0
1513267493472736661,,741590,,1513267491,648669309,'',1.62315620435,1.61842414969,-0.0116814062072,0.0,0.001,0.0,4300.0,0.0,0.0,0.0
1513267493483267934,,741591,,1513267491,658669309,'',1.62315620435,1.61704140645,-0.0404480321991,0.0,0.001,0.0,4300.0,0.0,0.0,0.0
1513267493493217826,,741592,,1513267491,668669309,'',1.62315620435,1.61842414969,-0.0127710525837,0.0,0.001,0.0,4300.0,0.0,0.0,0.0
1513267493503067512,,741593,,1513267491,678669309,'',1.62315620435,1.61842414969,-0.0130174211418,0.0,0.001,0.0,4300.0,0.0,0.0,0.0
1513267493512942218,,741594,,1513267491,688669309,'',1.62315620435,1.61842414969,-0.0116087589051,0.0,0.001,0.0,4300.0,0.0,0.0,0.0
1513267493522979571,,741595,,1513267491,698669309,'',1.62315620435,1.61842414969,-0.0130867131911,0.0,0.001,0.0,4300.0,0.0,0.0,0.0
1513267493533003324,,741596,,1513267491,708669309,'',1.62315620435,1.61842414969,-0.0117248809152,0.0,0.001,0.0,4300.0,0.0,0.0,0.0
1513267493543075293,,741597,,1513267491,718669309,'',1.62315620435,1.61842414969,-0.0140674363502,0.0,0.001,0.0,4300.0,0.0,0.0,0.0
1513267493552925938,,741598,,1513267491,728669309,'',1.62315620435,1.61842414969,-0.0140829395345,0.0,0.001,0.0,4300.0,0.0,0.0,0.0
1513267493562889995,,741599,,1513267491,738669309,'',1.62315620435,1.61842414969,-0.0130471990284,0.0,0.001,0.0,4300.0,0.0,0.0,0.0
1513267493572793950,,741600,,1513267491,748669309,'',1.62315620435,1.61842414969,-0.0121908530086,0.0,0.001,0.0,4300.0,0.0,0.0,0.0
1513267493582759552,,741601,,1513267491,758669309,'',1.62315620435,1.61842414969,-0.0109515330454,0.0,0.001,0.0,4300.0,0.0,0.0,0.0
1513267493592875467,,741602,,1513267491,768669309,'',1.62315620435,1.61842414969,-0.0124528951572,0.0,0.001,0.0,4300.0,0.0,0.0,0.0
1513267493603144188,,741603,,1513267491,778669309,'',1.62315620435,1.61980689294,0.0146725787472,0.0,0.001,0.0,4300.0,0.0,0.0,0.0
1513267493613088133,,741604,,1513267491,788669309,'',1.62315620435,1.61980689294,0.0140815866022,0.0,0.001,0.0,4300.0,0.0,0.0,0.0
1513267493623114856,,741605,,1513267491,798669309,'',1.62315620435,1.61842414969,-0.0143304585338,0.0,0.001,0.0,4300.0,0.0,0.0,0.0
1513267493633011158,,741606,,1513267491,808669309,'',1.62315620435,1.61980689294,0.013682027773,0.0,0.001,0.0,4300.0,0.0,0.0,0.0
1513267493642975982,,741607,,1513267491,818669309,'',1.62315620435,1.61842414969,-0.013171848856,0.0,0.001,0.0,4300.0,0.0,0.0,0.0
1513267493652911122,,741608,,1513267491,828669309,'',1.62315620435,1.61842414969,-0.0141935383474,0.0,0.001,0.0,4300.0,0.0,0.0,0.0
1513267493662887539,,741609,,1513267491,838669309,'',1.62315620435,1.61980689294,0.0132183222189,0.0,0.001,0.0,4300.0,0.0,0.0,0.0
1513267493672748522,,741610,,1513267491,848669309,'',1.62315620435,1.61842414969,-0.0130453347032,0.0,0.001,0.0,4300.0,0.0,0.0,0.0
1513267493682923406,,741611,,1513267491,858669309,'',1.62315620435,1.61980689294,0.0136148113693,0.0,0.001,0.0,4300.0,0.0,0.0,0.0
1513267493692642363,,741612,,1513267491,868669309,'',1.62315620435,1.61980689294,0.0126175997843,0.0,0.001,0.0,4300.0,0.0,0.0,0.0
1513267493703183859,,741613,,1513267491,878669309,'',1.62315620435,1.61842414969,-0.016525284095,0.0,0.001,0.0,4300.0,0.0,0.0,0.0
1513267493712999018,,741614,,1513267491,888669309,'',1.62315620435,1.61980689294,0.0099513769979,0.0,0.001,0.0,4300.0,0.0,0.0,0.0
1513267493722955005,,741615,,1513267491,898669309,'',1.62315620435,1.61980689294,0.0101531031387,0.0,0.001,0.0,4300.0,0.0,0.0,0.0
1513267493732855679,,741616,,1513267491,908669309,'',1.62315620435,1.61980689294,0.00932860433485,0.0,0.001,0.0,4300.0,0.0,0.0,0.0
1513267493742864832,,741617,,1513267491,918669309,'',1.62315620435,1.61980689294,0.00911750425203,0.0,0.001,0.0,4300.0,0.0,0.0,0.0
1513267493752808046,,741618,,1513267491,928669309,'',1.62315620435,1.61842414969,-0.0188536687342,0.0,0.001,0.0,4300.0,0.0,0.0,0.0
1513267493762763677,,741619,,1513267491,938669309,'',1.62315620435,1.61842414969,-0.0158629710884,0.0,0.001,0.0,4300.0,0.0,0.0,0.0
1513267493772915362,,741620,,1513267491,948669309,'',1.62315620435,1.61842414969,-0.0150946327933,0.0,0.001,0.0,4300.0,0.0,0.0,0.0
1513267493782962663,,741621,,1513267491,958669309,'',1.62315620435,1.61980689294,0.0115748274269,0.0,0.001,0.0,4300.0,0.0,0.0,0.0
1513267493792868789,,741622,,1513267491,968669309,'',1.62315620435,1.61980689294,0.0125213251693,0.0,0.001,0.0,4300.0,0.0,0.0,0.0
1513267493803202859,,741623,,1513267491,978669309,'',1.62315620435,1.61980689294,0.0107006441173,0.0,0.001,0.0,4300.0,0.0,0.0,0.0
1513267493813161678,,741624,,1513267491,988669309,'',1.62315620435,1.61980689294,0.0102942392097,0.0,0.001,0.0,4300.0,0.0,0.0,0.0
1513267493823129162,,741625,,1513267491,998669309,'',1.62315620435,1.61842414969,-0.0164615536652,0.0,0.001,0.0,4300.0,0.0,0.0,0.0
1513267493833076643,,741626,,1513267492,8669309,'',1.62315620435,1.61842414969,-0.0165234442657,0.0,0.001,0.0,4300.0,0.0,0.0,0.0
1513267493842877002,,741627,,1513267492,18669309,'',1.62315620435,1.61980689294,0.00976490781114,0.0,0.001,0.0,4300.0,0.0,0.0,0.0
1513267493852842583,,741628,,1513267492,28669309,'',1.62315620435,1.61980689294,0.0105450985072,0.0,0.001,0.0,4300.0,0.0,0.0,0.0
1513267493863252171,,741629,,1513267492,38669309,'',1.62315620435,1.61980689294,0.0115707308191,0.0,0.001,0.0,4300.0,0.0,0.0,0.0
1513267493873142339,,741630,,1513267492,48669309,'',1.62315620435,1.61842414969,-0.0153683807331,0.0,0.001,0.0,4300.0,0.0,0.0,0.0
1513267493883097197,,741631,,1513267492,58669309,'',1.62315620435,1.61842414969,-0.0150860555628,0.0,0.001,0.0,4300.0,0.0,0.0,0.0
1513267493893038442,,741632,,1513267492,68669309,'',1.62315620435,1.61842414969,-0.0148173004078,0.0,0.001,0.0,4300.0,0.0,0.0,0.0
1513267493902895983,,741633,,1513267492,78669309,'',1.62315620435,1.61980689294,0.0137215234461,0.0,0.001,0.0,4300.0,0.0,0.0,0.0
1513267493912914346,,741634,,1513267492,88669309,'',1.62315620435,1.61980689294,0.0117750984707,0.0,0.001,0.0,4300.0,0.0,0.0,0.0
1513267493922916866,,741635,,1513267492,98669309,'',1.62315620435,1.61842414969,-0.0137580700168,0.0,0.001,0.0,4300.0,0.0,0.0,0.0
1513267493932849416,,741636,,1513267492,108669309,'',1.62315620435,1.61842414969,-0.0128057217244,0.0,0.001,0.0,4300.0,0.0,0.0,0.0
1513267493943223264,,741637,,1513267492,118669309,'',1.62315620435,1.61980689294,0.0119085858996,0.0,0.001,0.0,4300.0,0.0,0.0,0.0
1513267493953237448,,741638,,1513267492,128669309,'',1.62315620435,1.61842414969,-0.0145742893724,0.0,0.001,0.0,4300.0,0.0,0.0,0.0
1513267493963093731,,741639,,1513267492,138669309,'',1.62315620435,1.61980689294,0.0144523503492,0.0,0.001,0.0,4300.0,0.0,0.0,0.0
1513267493973121978,,741640,,1513267492,148669309,'',1.62315620435,1.61842414969,-0.01309339018,0.0,0.001,0.0,4300.0,0.0,0.0,0.0
1513267493982939040,,741641,,1513267492,158669309,'',1.62315620435,1.62118963618,0.0415540117236,0.0,0.001,0.0,4300.0,0.0,0.0,0.0
1513267493992908932,,741642,,1513267492,168669309,'',1.62315620435,1.62118963618,0.0405758549141,0.0,0.001,0.0,4300.0,0.0,0.0,0.0
1513267494002914438,,741643,,1513267492,178669309,'',1.62315620435,1.61842414969,-0.0179850624778,0.0,0.001,0.0,4300.0,0.0,0.0,0.0
1513267494013182581,,741644,,1513267492,188669309,'',1.62315620435,1.61842414969,-0.0197454214773,0.0,0.001,0.0,4300.0,0.0,0.0,0.0
1513267494023161433,,741645,,1513267492,198669309,'',1.62315620435,1.61842414969,-0.0176451017297,0.0,0.001,0.0,4300.0,0.0,0.0,0.0
1513267494033112125,,741646,,1513267492,208669309,'',1.62315620435,1.61980689294,0.00995138324869,0.0,0.001,0.0,4300.0,0.0,0.0,0.0
1513267494042991195,,741647,,1513267492,218669309,'',1.62315620435,1.61980689294,0.00867578296422,0.0,0.001,0.0,4300.0,0.0,0.0,0.0
1513267494052928683,,741648,,1513267492,228669309,'',1.62315620435,1.61980689294,0.00762013614892,0.0,0.001,0.0,4300.0,0.0,0.0,0.0
1513267494063112113,,741649,,1513267492,238669309,'',1.62315620435,1.61980689294,0.00669347632426,0.0,0.001,0.0,4300.0,0.0,0.0,0.0
1513267494073193009,,741650,,1513267492,248669309,'',1.62315620435,1.61842414969,-0.0199875941431,0.0,0.001,0.0,4300.0,0.0,0.0,0.0
1513267494083319706,,741651,,1513267492,258669309,'',1.62315620435,1.61980689294,0.00858533632544,0.0,0.001,0.0,4300.0,0.0,0.0,0.0
1513267494093259965,,741652,,1513267492,268669309,'',1.62315620435,1.61842414969,-0.0172834387555,0.0,0.001,0.0,4300.0,0.0,0.0,0.0
1513267494103335657,,741653,,1513267492,278669309,'',1.62315620435,1.61842414969,-0.0176005860199,0.0,0.001,0.0,4300.0,0.0,0.0,0.0
1513267494113309442,,741654,,1513267492,288669309,'',1.62315620435,1.61842414969,-0.0173565511354,0.0,0.001,0.0,4300.0,0.0,0.0,0.0
1513267494123076652,,741655,,1513267492,298669309,'',1.62315620435,1.61980689294,0.0102368657033,0.0,0.001,0.0,4300.0,0.0,0.0,0.0
1513267494133144838,,741656,,1513267492,308669309,'',1.62315620435,1.61980689294,0.00983320487976,0.0,0.001,0.0,4300.0,0.0,0.0,0.0
1513267494143023183,,741657,,1513267492,318669309,'',1.62315620435,1.61980689294,0.00903053778623,0.0,0.001,0.0,4300.0,0.0,0.0,0.0
1513267494152937789,,741658,,1513267492,328669309,'',1.62315620435,1.61980689294,0.0093957564513,0.0,0.001,0.0,4300.0,0.0,0.0,0.0
1513267494163223132,,741659,,1513267492,338669309,'',1.62315620435,1.61842414969,-0.0182182304702,0.0,0.001,0.0,4300.0,0.0,0.0,0.0
