rosbagTimestamp,header,seq,stamp,secs,nsecs,frame_id,set_point,process_value,process_value_dot,error,time_step,command,p,i,d,i_clamp
1513266273838004239,,619642,,1513266272,37770185,'',0.471238898038,0.478308586148,-0.0024026180251,0.00706968810934,0.001,35.3484405467,-5000.0,0.0,0.0,0.0
1513266273848366943,,619643,,1513266272,47770185,'',0.471238898038,0.479965544298,0.0278632293348,0.00872664625997,0.001,43.6332312999,-5000.0,0.0,0.0,0.0
1513266273858256654,,619644,,1513266272,57770185,'',0.471238898038,0.479965544298,0.0276900682369,0.00872664625997,0.001,43.6332312999,-5000.0,0.0,0.0,0.0
1513266273868083100,,619645,,1513266272,67770185,'',0.471238898038,0.479965544298,0.0281287306421,0.00872664625997,0.001,43.6332312999,-5000.0,0.0,0.0,0.0
1513266273878340262,,619646,,1513266272,77770185,'',0.471238898038,0.478308586148,-0.00494440659794,0.00706968810934,0.001,35.3484405467,-5000.0,0.0,0.0,0.0
1513266273888434657,,619647,,1513266272,87770185,'',0.471238898038,0.478308586148,-0.00228380194513,0.00706968810934,0.001,35.3484405467,-5000.0,0.0,0.0,0.0
1513266273898396171,,619648,,1513266272,97770185,'',0.471238898038,0.478308586148,-0.0030744852309,0.00706968810934,0.001,35.3484405467,-5000.0,0.0,0.0,0.0
1513266273908397861,,619649,,1513266272,107770185,'',0.471238898038,0.476651627997,-0.0377849511088,0.00541272995872,0.001,27.0636497936,-5000.0,0.0,0.0,0.0
1513266273918321274,,619650,,1513266272,117770185,'',0.471238898038,0.479965544298,0.0267792821377,0.00872664625997,0.001,43.6332312999,-5000.0,0.0,0.0,0.0
1513266273928348486,,619651,,1513266272,127770185,'',0.471238898038,0.478308586148,-0.00604754595494,0.00706968810934,0.001,35.3484405467,-5000.0,0.0,0.0,0.0
1513266273938241230,,619652,,1513266272,137770185,'',0.471238898038,0.478308586148,-0.00495053375434,0.00706968810934,0.001,35.3484405467,-5000.0,0.0,0.0,0.0
1513266273948144027,,619653,,1513266272,147770185,'',0.471238898038,0.478308586148,-0.00705641077442,0.00706968810934,0.001,35.3484405467,-5000.0,0.0,0.0,0.0
1513266273958132240,,619654,,1513266272,157770185,'',0.471238898038,0.478308586148,-0.00639437257014,0.00706968810934,0.001,35.3484405467,-5000.0,0.0,0.0,0.0
1513266273968424223,,619655,,1513266272,167770185,'',0.471238898038,0.479965544298,0.0245100705741,0.00872664625997,0.001,43.6332312999,-5000.0,0.0,0.0,0.0
1513266273978338348,,619656,,1513266272,177770185,'',0.471238898038,0.479965544298,0.0254257767308,0.00872664625997,0.001,43.6332312999,-5000.0,0.0,0.0,0.0
1513266273988274823,,619657,,1513266272,187770185,'',0.471238898038,0.478308586148,-0.00654436870343,0.00706968810934,0.001,35.3484405467,-5000.0,0.0,0.0,0.0
1513266273998254660,,619658,,1513266272,197770185,'',0.471238898038,0.478308586148,-0.00710063952297,0.00706968810934,0.001,35.3484405467,-5000.0,0.0,0.0,0.0
1513266274008487972,,619659,,1513266272,207770185,'',0.471238898038,0.478308586148,-0.00641762501007,0.00706968810934,0.001,35.3484405467,-5000.0,0.0,0.0,0.0
1513266274018462239,,619660,,1513266272,217770185,'',0.471238898038,0.478308586148,-0.00585704802873,0.00706968810934,0.001,35.3484405467,-5000.0,0.0,0.0,0.0
1513266274028410245,,619661,,1513266272,227770185,'',0.471238898038,0.478308586148,-0.00605124433813,0.00706968810934,0.001,35.3484405467,-5000.0,0.0,0.0,0.0
1513266274038321920,,619662,,1513266272,237770185,'',0.471238898038,0.478308586148,-0.00617874544659,0.00706968810934,0.001,35.3484405467,-5000.0,0.0,0.0,0.0
1513266274048311992,,619663,,1513266272,247770185,'',0.471238898038,0.479965544298,0.0271836308226,0.00872664625997,0.001,43.6332312999,-5000.0,0.0,0.0,0.0
1513266274058174524,,619664,,1513266272,257770185,'',0.471238898038,0.478308586148,-0.00331588984416,0.00706968810934,0.001,35.3484405467,-5000.0,0.0,0.0,0.0
1513266274068183121,,619665,,1513266272,267770185,'',0.471238898038,0.479965544298,0.0276339041345,0.00872664625997,0.001,43.6332312999,-5000.0,0.0,0.0,0.0
1513266274078155108,,619666,,1513266272,277770185,'',0.471238898038,0.478308586148,-0.00722575067481,0.00706968810934,0.001,35.3484405467,-5000.0,0.0,0.0,0.0
1513266274088157976,,619667,,1513266272,287770185,'',0.471238898038,0.476651627997,-0.0393297990417,0.00541272995872,0.001,27.0636497936,-5000.0,0.0,0.0,0.0
1513266274098466839,,619668,,1513266272,297770185,'',0.471238898038,0.478308586148,-0.00421756254448,0.00706968810934,0.001,35.3484405467,-5000.0,0.0,0.0,0.0
1513266274108383638,,619669,,1513266272,307770185,'',0.471238898038,0.479965544298,0.0281628803803,0.00872664625997,0.001,43.6332312999,-5000.0,0.0,0.0,0.0
1513266274118280728,,619670,,1513266272,317770185,'',0.471238898038,0.476651627997,-0.0395305348718,0.00541272995872,0.001,27.0636497936,-5000.0,0.0,0.0,0.0
1513266274128232853,,619671,,1513266272,327770185,'',0.471238898038,0.478308586148,-0.00558156988318,0.00706968810934,0.001,35.3484405467,-5000.0,0.0,0.0,0.0
1513266274138217416,,619672,,1513266272,337770185,'',0.471238898038,0.478308586148,-0.00573664783315,0.00706968810934,0.001,35.3484405467,-5000.0,0.0,0.0,0.0
1513266274148114332,,619673,,1513266272,347770185,'',0.471238898038,0.478308586148,-0.00517930761688,0.00706968810934,0.001,35.3484405467,-5000.0,0.0,0.0,0.0
1513266274158251976,,619674,,1513266272,357770185,'',0.471238898038,0.478308586148,-0.00606432822414,0.00706968810934,0.001,35.3484405467,-5000.0,0.0,0.0,0.0
1513266274168082683,,619675,,1513266272,367770185,'',0.471238898038,0.478308586148,-0.00616400892153,0.00706968810934,0.001,35.3484405467,-5000.0,0.0,0.0,0.0
1513266274178460788,,619676,,1513266272,377770185,'',0.471238898038,0.478308586148,-0.00329173986421,0.00706968810934,0.001,35.3484405467,-5000.0,0.0,0.0,0.0
1513266274188423765,,619677,,1513266272,387770185,'',0.471238898038,0.479965544298,0.030114427827,0.00872664625997,0.001,43.6332312999,-5000.0,0.0,0.0,0.0
1513266274198332097,,619678,,1513266272,397770185,'',0.471238898038,0.478308586148,-0.00278084413405,0.00706968810934,0.001,35.3484405467,-5000.0,0.0,0.0,0.0
1513266274208178898,,619679,,1513266272,407770185,'',0.471238898038,0.478308586148,-0.00163688864709,0.00706968810934,0.001,35.3484405467,-5000.0,0.0,0.0,0.0
1513266274218211431,,619680,,1513266272,417770185,'',0.471238898038,0.476651627997,-0.0347270044048,0.00541272995872,0.001,27.0636497936,-5000.0,0.0,0.0,0.0
1513266274228480679,,619681,,1513266272,427770185,'',0.471238898038,0.478308586148,-0.00218263836756,0.00706968810934,0.001,35.3484405467,-5000.0,0.0,0.0,0.0
1513266274238326738,,619682,,1513266272,437770185,'',0.471238898038,0.479965544298,0.0285789090773,0.00872664625997,0.001,43.6332312999,-5000.0,0.0,0.0,0.0
1513266274248490243,,619683,,1513266272,447770185,'',0.471238898038,0.479965544298,0.0282059728758,0.00872664625997,0.001,43.6332312999,-5000.0,0.0,0.0,0.0
1513266274258440952,,619684,,1513266272,457770185,'',0.471238898038,0.479965544298,0.0273626143463,0.00872664625997,0.001,43.6332312999,-5000.0,0.0,0.0,0.0
1513266274268399786,,619685,,1513266272,467770185,'',0.471238898038,0.478308586148,-0.00618663604715,0.00706968810934,0.001,35.3484405467,-5000.0,0.0,0.0,0.0
1513266274278299010,,619686,,1513266272,477770185,'',0.471238898038,0.478308586148,-0.0045357251059,0.00706968810934,0.001,35.3484405467,-5000.0,0.0,0.0,0.0
1513266274288192629,,619687,,1513266272,487770185,'',0.471238898038,0.478308586148,-0.0056343395893,0.00706968810934,0.001,35.3484405467,-5000.0,0.0,0.0,0.0
1513266274298130522,,619688,,1513266272,497770185,'',0.471238898038,0.478308586148,-0.00466230408959,0.00706968810934,0.001,35.3484405467,-5000.0,0.0,0.0,0.0
1513266274308078356,,619689,,1513266272,507770185,'',0.471238898038,0.478308586148,-0.00497502626043,0.00706968810934,0.001,35.3484405467,-5000.0,0.0,0.0,0.0
1513266274318099980,,619690,,1513266272,517770185,'',0.471238898038,0.479965544298,0.0287629981383,0.00872664625997,0.001,43.6332312999,-5000.0,0.0,0.0,0.0
1513266274327993251,,619691,,1513266272,527770185,'',0.471238898038,0.478308586148,-0.0062480985197,0.00706968810934,0.001,35.3484405467,-5000.0,0.0,0.0,0.0
1513266274337971093,,619692,,1513266272,537770185,'',0.471238898038,0.476651627997,-0.04027906295,0.00541272995872,0.001,27.0636497936,-5000.0,0.0,0.0,0.0
1513266274348470468,,619693,,1513266272,547770185,'',0.471238898038,0.478308586148,-0.00546306200372,0.00706968810934,0.001,35.3484405467,-5000.0,0.0,0.0,0.0
1513266274358458172,,619694,,1513266272,557770185,'',0.471238898038,0.478308586148,-0.00436417803772,0.00706968810934,0.001,35.3484405467,-5000.0,0.0,0.0,0.0
1513266274368409052,,619695,,1513266272,567770185,'',0.471238898038,0.478308586148,-0.00359010090446,0.00706968810934,0.001,35.3484405467,-5000.0,0.0,0.0,0.0
1513266274378369670,,619696,,1513266272,577770185,'',0.471238898038,0.478308586148,-0.00300220392326,0.00706968810934,0.001,35.3484405467,-5000.0,0.0,0.0,0.0
1513266274388236033,,619697,,1513266272,587770185,'',0.471238898038,0.479965544298,0.0291218143175,0.00872664625997,0.001,43.6332312999,-5000.0,0.0,0.0,0.0
1513266274398290749,,619698,,1513266272,597770185,'',0.471238898038,0.478308586148,-0.00485243783735,0.00706968810934,0.001,35.3484405467,-5000.0,0.0,0.0,0.0
1513266274408267324,,619699,,1513266272,607770185,'',0.471238898038,0.478308586148,-0.00397037890003,0.00706968810934,0.001,35.3484405467,-5000.0,0.0,0.0,0.0
1513266274418251286,,619700,,1513266272,617770185,'',0.471238898038,0.478308586148,-0.00503189578111,0.00706968810934,0.001,35.3484405467,-5000.0,0.0,0.0,0.0
1513266274428272432,,619701,,1513266272,627770185,'',0.471238898038,0.478308586148,-0.0058871248782,0.00706968810934,0.001,35.3484405467,-5000.0,0.0,0.0,0.0
1513266274438262926,,619702,,1513266272,637770185,'',0.471238898038,0.478308586148,-0.00541054625219,0.00706968810934,0.001,35.3484405467,-5000.0,0.0,0.0,0.0
1513266274448264151,,619703,,1513266272,647770185,'',0.471238898038,0.479965544298,0.0289852579638,0.00872664625997,0.001,43.6332312999,-5000.0,0.0,0.0,0.0
1513266274458065181,,619704,,1513266272,657770185,'',0.471238898038,0.478308586148,-0.00312884551603,0.00706968810934,0.001,35.3484405467,-5000.0,0.0,0.0,0.0
1513266274468049874,,619705,,1513266272,667770185,'',0.471238898038,0.478308586148,-0.00321533871351,0.00706968810934,0.001,35.3484405467,-5000.0,0.0,0.0,0.0
1513266274478454772,,619706,,1513266272,677770185,'',0.471238898038,0.478308586148,-0.00496351288083,0.00706968810934,0.001,35.3484405467,-5000.0,0.0,0.0,0.0
1513266274488424863,,619707,,1513266272,687770185,'',0.471238898038,0.478308586148,-0.00657356940132,0.00706968810934,0.001,35.3484405467,-5000.0,0.0,0.0,0.0
1513266274498424266,,619708,,1513266272,697770185,'',0.471238898038,0.476651627997,-0.0399877234412,0.00541272995872,0.001,27.0636497936,-5000.0,0.0,0.0,0.0
1513266274508431399,,619709,,1513266272,707770185,'',0.471238898038,0.478308586148,-0.00595205521043,0.00706968810934,0.001,35.3484405467,-5000.0,0.0,0.0,0.0
1513266274518387500,,619710,,1513266272,717770185,'',0.471238898038,0.478308586148,-0.00729287225853,0.00706968810934,0.001,35.3484405467,-5000.0,0.0,0.0,0.0
1513266274528350574,,619711,,1513266272,727770185,'',0.471238898038,0.478308586148,-0.00848301311432,0.00706968810934,0.001,35.3484405467,-5000.0,0.0,0.0,0.0
1513266274538216848,,619712,,1513266272,737770185,'',0.471238898038,0.479965544298,0.0258171172457,0.00872664625997,0.001,43.6332312999,-5000.0,0.0,0.0,0.0
1513266274548006854,,619713,,1513266272,747770185,'',0.471238898038,0.478308586148,-0.00861955696879,0.00706968810934,0.001,35.3484405467,-5000.0,0.0,0.0,0.0
1513266274558397496,,619714,,1513266272,757770185,'',0.471238898038,0.478308586148,-0.00767457239231,0.00706968810934,0.001,35.3484405467,-5000.0,0.0,0.0,0.0
1513266274568326676,,619715,,1513266272,767770185,'',0.471238898038,0.478308586148,-0.0062886731556,0.00706968810934,0.001,35.3484405467,-5000.0,0.0,0.0,0.0
1513266274578288722,,619716,,1513266272,777770185,'',0.471238898038,0.478308586148,-0.00755391284544,0.00706968810934,0.001,35.3484405467,-5000.0,0.0,0.0,0.0
1513266274588260152,,619717,,1513266272,787770185,'',0.471238898038,0.478308586148,-0.00801184478923,0.00706968810934,0.001,35.3484405467,-5000.0,0.0,0.0,0.0
1513266274598228882,,619718,,1513266272,797770185,'',0.471238898038,0.478308586148,-0.0071464570482,0.00706968810934,0.001,35.3484405467,-5000.0,0.0,0.0,0.0
1513266274608129320,,619719,,1513266272,807770185,'',0.471238898038,0.478308586148,-0.00470289561299,0.00706968810934,0.001,35.3484405467,-5000.0,0.0,0.0,0.0
1513266274618183202,,619720,,1513266272,817770185,'',0.471238898038,0.478308586148,-0.00567551289701,0.00706968810934,0.001,35.3484405467,-5000.0,0.0,0.0,0.0
1513266274628123392,,619721,,1513266272,827770185,'',0.471238898038,0.479965544298,0.0275726504441,0.00872664625997,0.001,43.6332312999,-5000.0,0.0,0.0,0.0
1513266274638079310,,619722,,1513266272,837770185,'',0.471238898038,0.478308586148,-0.00656233289268,0.00706968810934,0.001,35.3484405467,-5000.0,0.0,0.0,0.0
1513266274648000771,,619723,,1513266272,847770185,'',0.471238898038,0.478308586148,-0.00417534706547,0.00706968810934,0.001,35.3484405467,-5000.0,0.0,0.0,0.0
1513266274658175107,,619724,,1513266272,857770185,'',0.471238898038,0.478308586148,-0.00452936038746,0.00706968810934,0.001,35.3484405467,-5000.0,0.0,0.0,0.0
1513266274668197435,,619725,,1513266272,867770185,'',0.471238898038,0.479965544298,0.0284240711337,0.00872664625997,0.001,43.6332312999,-5000.0,0.0,0.0,0.0
1513266274678035766,,619726,,1513266272,877770185,'',0.471238898038,0.478308586148,-0.0041356523131,0.00706968810934,0.001,35.3484405467,-5000.0,0.0,0.0,0.0
1513266274688487104,,619727,,1513266272,887770185,'',0.471238898038,0.478308586148,-0.00330161247737,0.00706968810934,0.001,35.3484405467,-5000.0,0.0,0.0,0.0
1513266274698486544,,619728,,1513266272,897770185,'',0.471238898038,0.479965544298,0.0300030297863,0.00872664625997,0.001,43.6332312999,-5000.0,0.0,0.0,0.0
1513266274708457082,,619729,,1513266272,907770185,'',0.471238898038,0.478308586148,-0.00527446000229,0.00706968810934,0.001,35.3484405467,-5000.0,0.0,0.0,0.0
1513266274718414857,,619730,,1513266272,917770185,'',0.471238898038,0.478308586148,-0.00314836253537,0.00706968810934,0.001,35.3484405467,-5000.0,0.0,0.0,0.0
1513266274728401195,,619731,,1513266272,927770185,'',0.471238898038,0.478308586148,-0.00314951799905,0.00706968810934,0.001,35.3484405467,-5000.0,0.0,0.0,0.0
1513266274738412479,,619732,,1513266272,937770185,'',0.471238898038,0.479965544298,0.0302346073053,0.00872664625997,0.001,43.6332312999,-5000.0,0.0,0.0,0.0
1513266274748390373,,619733,,1513266272,947770185,'',0.471238898038,0.476651627997,-0.0348956298016,0.00541272995872,0.001,27.0636497936,-5000.0,0.0,0.0,0.0
1513266274758364581,,619734,,1513266272,957770185,'',0.471238898038,0.476651627997,-0.0332404065935,0.00541272995872,0.001,27.0636497936,-5000.0,0.0,0.0,0.0
1513266274768255838,,619735,,1513266272,967770185,'',0.471238898038,0.478308586148,0.00084044881082,0.00706968810934,0.001,35.3484405467,-5000.0,0.0,0.0,0.0
1513266274778156757,,619736,,1513266272,977770185,'',0.471238898038,0.478308586148,0.000644191542683,0.00706968810934,0.001,35.3484405467,-5000.0,0.0,0.0,0.0
1513266274788247673,,619737,,1513266272,987770185,'',0.471238898038,0.478308586148,0.00118170912972,0.00706968810934,0.001,35.3484405467,-5000.0,0.0,0.0,0.0
1513266274798151964,,619738,,1513266272,997770185,'',0.471238898038,0.478308586148,0.000347008662488,0.00706968810934,0.001,35.3484405467,-5000.0,0.0,0.0,0.0
1513266274808367171,,619739,,1513266273,7770185,'',0.471238898038,0.478308586148,-0.00204762074051,0.00706968810934,0.001,35.3484405467,-5000.0,0.0,0.0,0.0
1513266274818464230,,619740,,1513266273,17770185,'',0.471238898038,0.476651627997,-0.0327596541292,0.00541272995872,0.001,27.0636497936,-5000.0,0.0,0.0,0.0
1513266274828338211,,619741,,1513266273,27770185,'',0.471238898038,0.476651627997,-0.0321752401241,0.00541272995872,0.001,27.0636497936,-5000.0,0.0,0.0,0.0
1513266274838287110,,619742,,1513266273,37770185,'',0.471238898038,0.478308586148,0.00291342052548,0.00706968810934,0.001,35.3484405467,-5000.0,0.0,0.0,0.0
1513266274848122380,,619743,,1513266273,47770185,'',0.471238898038,0.478308586148,0.0023650510685,0.00706968810934,0.001,35.3484405467,-5000.0,0.0,0.0,0.0
1513266274858140677,,619744,,1513266273,57770185,'',0.471238898038,0.479965544298,0.0359331567749,0.00872664625997,0.001,43.6332312999,-5000.0,0.0,0.0,0.0
1513266274868068159,,619745,,1513266273,67770185,'',0.471238898038,0.478308586148,0.00314152510987,0.00706968810934,0.001,35.3484405467,-5000.0,0.0,0.0,0.0
1513266274878096148,,619746,,1513266273,77770185,'',0.471238898038,0.476651627997,-0.0296023634601,0.00541272995872,0.001,27.0636497936,-5000.0,0.0,0.0,0.0
1513266274888039844,,619747,,1513266273,87770185,'',0.471238898038,0.478308586148,0.00378440935464,0.00706968810934,0.001,35.3484405467,-5000.0,0.0,0.0,0.0
1513266274898455348,,619748,,1513266273,97770185,'',0.471238898038,0.478308586148,0.0048936340826,0.00706968810934,0.001,35.3484405467,-5000.0,0.0,0.0,0.0
1513266274908531111,,619749,,1513266273,107770185,'',0.471238898038,0.478308586148,0.00628022434477,0.00706968810934,0.001,35.3484405467,-5000.0,0.0,0.0,0.0
1513266274918437085,,619750,,1513266273,117770185,'',0.471238898038,0.478308586148,0.0051506362488,0.00706968810934,0.001,35.3484405467,-5000.0,0.0,0.0,0.0
1513266274928273863,,619751,,1513266273,127770185,'',0.471238898038,0.478308586148,0.00422031578869,0.00706968810934,0.001,35.3484405467,-5000.0,0.0,0.0,0.0
1513266274938318423,,619752,,1513266273,137770185,'',0.471238898038,0.478308586148,0.00286461109973,0.00706968810934,0.001,35.3484405467,-5000.0,0.0,0.0,0.0
1513266274948314693,,619753,,1513266273,147770185,'',0.471238898038,0.478308586148,0.00182409914132,0.00706968810934,0.001,35.3484405467,-5000.0,0.0,0.0,0.0
1513266274958228166,,619754,,1513266273,157770185,'',0.471238898038,0.476651627997,-0.0307648612953,0.00541272995872,0.001,27.0636497936,-5000.0,0.0,0.0,0.0
1513266274968110142,,619755,,1513266273,167770185,'',0.471238898038,0.478308586148,0.00280407004391,0.00706968810934,0.001,35.3484405467,-5000.0,0.0,0.0,0.0
1513266274978087619,,619756,,1513266273,177770185,'',0.471238898038,0.478308586148,0.00292230171706,0.00706968810934,0.001,35.3484405467,-5000.0,0.0,0.0,0.0
1513266274988120556,,619757,,1513266273,187770185,'',0.471238898038,0.478308586148,0.001837117858,0.00706968810934,0.001,35.3484405467,-5000.0,0.0,0.0,0.0
1513266274998384123,,619758,,1513266273,197770185,'',0.471238898038,0.478308586148,0.00215309556566,0.00706968810934,0.001,35.3484405467,-5000.0,0.0,0.0,0.0
1513266275008463498,,619759,,1513266273,207770185,'',0.471238898038,0.476651627997,-0.0310558880557,0.00541272995872,0.001,27.0636497936,-5000.0,0.0,0.0,0.0
1513266275018299933,,619760,,1513266273,217770185,'',0.471238898038,0.478308586148,0.00324485605694,0.00706968810934,0.001,35.3484405467,-5000.0,0.0,0.0,0.0
1513266275028420967,,619761,,1513266273,227770185,'',0.471238898038,0.476651627997,-0.0296073865316,0.00541272995872,0.001,27.0636497936,-5000.0,0.0,0.0,0.0
1513266275038327010,,619762,,1513266273,237770185,'',0.471238898038,0.478308586148,0.00255961465196,0.00706968810934,0.001,35.3484405467,-5000.0,0.0,0.0,0.0
1513266275048505109,,619763,,1513266273,247770185,'',0.471238898038,0.478308586148,0.00332510624707,0.00706968810934,0.001,35.3484405467,-5000.0,0.0,0.0,0.0
1513266275058241030,,619764,,1513266273,257770185,'',0.471238898038,0.478308586148,0.00460410676184,0.00706968810934,0.001,35.3484405467,-5000.0,0.0,0.0,0.0
1513266275068175573,,619765,,1513266273,267770185,'',0.471238898038,0.478308586148,0.00316641324474,0.00706968810934,0.001,35.3484405467,-5000.0,0.0,0.0,0.0
1513266275078235693,,619766,,1513266273,277770185,'',0.471238898038,0.479965544298,0.0354348950461,0.00872664625997,0.001,43.6332312999,-5000.0,0.0,0.0,0.0
1513266275088094359,,619767,,1513266273,287770185,'',0.471238898038,0.476651627997,-0.0305981637525,0.00541272995872,0.001,27.0636497936,-5000.0,0.0,0.0,0.0
1513266275098001685,,619768,,1513266273,297770185,'',0.471238898038,0.478308586148,0.00290774488848,0.00706968810934,0.001,35.3484405467,-5000.0,0.0,0.0,0.0
1513266275108110296,,619769,,1513266273,307770185,'',0.471238898038,0.478308586148,0.000606324498727,0.00706968810934,0.001,35.3484405467,-5000.0,0.0,0.0,0.0
1513266275118456398,,619770,,1513266273,317770185,'',0.471238898038,0.478308586148,0.000505649999232,0.00706968810934,0.001,35.3484405467,-5000.0,0.0,0.0,0.0
1513266275128546630,,619771,,1513266273,327770185,'',0.471238898038,0.478308586148,-9.79245598279e-05,0.00706968810934,0.001,35.3484405467,-5000.0,0.0,0.0,0.0
1513266275138453094,,619772,,1513266273,337770185,'',0.471238898038,0.478308586148,6.92538963787e-07,0.00706968810934,0.001,35.3484405467,-5000.0,0.0,0.0,0.0
1513266275148390730,,619773,,1513266273,347770185,'',0.471238898038,0.478308586148,-0.00115565794907,0.00706968810934,0.001,35.3484405467,-5000.0,0.0,0.0,0.0
1513266275158322062,,619774,,1513266273,357770185,'',0.471238898038,0.478308586148,0.000305968056533,0.00706968810934,0.001,35.3484405467,-5000.0,0.0,0.0,0.0
1513266275168282938,,619775,,1513266273,367770185,'',0.471238898038,0.478308586148,0.000230541638404,0.00706968810934,0.001,35.3484405467,-5000.0,0.0,0.0,0.0
1513266275178352911,,619776,,1513266273,377770185,'',0.471238898038,0.479965544298,0.0324064578011,0.00872664625997,0.001,43.6332312999,-5000.0,0.0,0.0,0.0
1513266275188124539,,619777,,1513266273,387770185,'',0.471238898038,0.478308586148,-0.000875421454944,0.00706968810934,0.001,35.3484405467,-5000.0,0.0,0.0,0.0
1513266275198200998,,619778,,1513266273,397770185,'',0.471238898038,0.478308586148,-0.000795227720216,0.00706968810934,0.001,35.3484405467,-5000.0,0.0,0.0,0.0
1513266275208112714,,619779,,1513266273,407770185,'',0.471238898038,0.476651627997,-0.0346890677247,0.00541272995872,0.001,27.0636497936,-5000.0,0.0,0.0,0.0
1513266275218048038,,619780,,1513266273,417770185,'',0.471238898038,0.478308586148,-0.000340590460023,0.00706968810934,0.001,35.3484405467,-5000.0,0.0,0.0,0.0
1513266275228053720,,619781,,1513266273,427770185,'',0.471238898038,0.478308586148,0.000887189390131,0.00706968810934,0.001,35.3484405467,-5000.0,0.0,0.0,0.0
1513266275238473968,,619782,,1513266273,437770185,'',0.471238898038,0.478308586148,0.00191451310469,0.00706968810934,0.001,35.3484405467,-5000.0,0.0,0.0,0.0
1513266275248423653,,619783,,1513266273,447770185,'',0.471238898038,0.478308586148,0.00218194862698,0.00706968810934,0.001,35.3484405467,-5000.0,0.0,0.0,0.0
1513266275258247751,,619784,,1513266273,457770185,'',0.471238898038,0.478308586148,0.00171735807719,0.00706968810934,0.001,35.3484405467,-5000.0,0.0,0.0,0.0
1513266275268016636,,619785,,1513266273,467770185,'',0.471238898038,0.479965544298,0.0336002892313,0.00872664625997,0.001,43.6332312999,-5000.0,0.0,0.0,0.0
1513266275278091283,,619786,,1513266273,477770185,'',0.471238898038,0.478308586148,-0.00105496529521,0.00706968810934,0.001,35.3484405467,-5000.0,0.0,0.0,0.0
1513266275288443534,,619787,,1513266273,487770185,'',0.471238898038,0.478308586148,-0.00142407980621,0.00706968810934,0.001,35.3484405467,-5000.0,0.0,0.0,0.0
1513266275298376621,,619788,,1513266273,497770185,'',0.471238898038,0.476651627997,-0.0353287265457,0.00541272995872,0.001,27.0636497936,-5000.0,0.0,0.0,0.0
1513266275308231114,,619789,,1513266273,507770185,'',0.471238898038,0.476651627997,-0.0342868555873,0.00541272995872,0.001,27.0636497936,-5000.0,0.0,0.0,0.0
1513266275318275454,,619790,,1513266273,517770185,'',0.471238898038,0.478308586148,0.00107031118991,0.00706968810934,0.001,35.3484405467,-5000.0,0.0,0.0,0.0
1513266275328108492,,619791,,1513266273,527770185,'',0.471238898038,0.478308586148,0.000165709048594,0.00706968810934,0.001,35.3484405467,-5000.0,0.0,0.0,0.0
1513266275338152405,,619792,,1513266273,537770185,'',0.471238898038,0.476651627997,-0.0327127505088,0.00541272995872,0.001,27.0636497936,-5000.0,0.0,0.0,0.0
1513266275348053512,,619793,,1513266273,547770185,'',0.471238898038,0.476651627997,-0.0321228013666,0.00541272995872,0.001,27.0636497936,-5000.0,0.0,0.0,0.0
1513266275358372232,,619794,,1513266273,557770185,'',0.471238898038,0.476651627997,-0.0323098417913,0.00541272995872,0.001,27.0636497936,-5000.0,0.0,0.0,0.0
1513266275368514929,,619795,,1513266273,567770185,'',0.471238898038,0.479965544298,0.0338559476888,0.00872664625997,0.001,43.6332312999,-5000.0,0.0,0.0,0.0
1513266275378366726,,619796,,1513266273,577770185,'',0.471238898038,0.478308586148,-0.000328905085289,0.00706968810934,0.001,35.3484405467,-5000.0,0.0,0.0,0.0
1513266275388190093,,619797,,1513266273,587770185,'',0.471238898038,0.478308586148,0.000301783349968,0.00706968810934,0.001,35.3484405467,-5000.0,0.0,0.0,0.0
1513266275398146297,,619798,,1513266273,597770185,'',0.471238898038,0.478308586148,0.000195165624219,0.00706968810934,0.001,35.3484405467,-5000.0,0.0,0.0,0.0
1513266275408039586,,619799,,1513266273,607770185,'',0.471238898038,0.478308586148,-0.000899544337065,0.00706968810934,0.001,35.3484405467,-5000.0,0.0,0.0,0.0
1513266275418122401,,619800,,1513266273,617770185,'',0.471238898038,0.478308586148,-0.000701502355052,0.00706968810934,0.001,35.3484405467,-5000.0,0.0,0.0,0.0
1513266275428661806,,619801,,1513266273,627770185,'',0.471238898038,0.478308586148,-0.00113382707933,0.00706968810934,0.001,35.3484405467,-5000.0,0.0,0.0,0.0
1513266275438534587,,619802,,1513266273,637770185,'',0.471238898038,0.476651627997,-0.0337630516758,0.00541272995872,0.001,27.0636497936,-5000.0,0.0,0.0,0.0
1513266275448257120,,619803,,1513266273,647770185,'',0.471238898038,0.479965544298,0.033181224183,0.00872664625997,0.001,43.6332312999,-5000.0,0.0,0.0,0.0
1513266275458522021,,619804,,1513266273,657770185,'',0.471238898038,0.476651627997,-0.0311602112066,0.00541272995872,0.001,27.0636497936,-5000.0,0.0,0.0,0.0
1513266275468533042,,619805,,1513266273,667770185,'',0.471238898038,0.478308586148,0.00189662977404,0.00706968810934,0.001,35.3484405467,-5000.0,0.0,0.0,0.0
1513266275478266430,,619806,,1513266273,677770185,'',0.471238898038,0.479965544298,0.0342619433044,0.00872664625997,0.001,43.6332312999,-5000.0,0.0,0.0,0.0
1513266275488284543,,619807,,1513266273,687770185,'',0.471238898038,0.478308586148,0.000639660909716,0.00706968810934,0.001,35.3484405467,-5000.0,0.0,0.0,0.0
1513266275498057544,,619808,,1513266273,697770185,'',0.471238898038,0.476651627997,-0.0311741944456,0.00541272995872,0.001,27.0636497936,-5000.0,0.0,0.0,0.0
1513266275508409889,,619809,,1513266273,707770185,'',0.471238898038,0.478308586148,0.00241578670549,0.00706968810934,0.001,35.3484405467,-5000.0,0.0,0.0,0.0
1513266275518166959,,619810,,1513266273,717770185,'',0.471238898038,0.479965544298,0.0342429524605,0.00872664625997,0.001,43.6332312999,-5000.0,0.0,0.0,0.0
1513266275528714030,,619811,,1513266273,727770185,'',0.471238898038,0.478308586148,0.00231620738774,0.00706968810934,0.001,35.3484405467,-5000.0,0.0,0.0,0.0
1513266275538512941,,619812,,1513266273,737770185,'',0.471238898038,0.476651627997,-0.0308622089182,0.00541272995872,0.001,27.0636497936,-5000.0,0.0,0.0,0.0
1513266275548505844,,619813,,1513266273,747770185,'',0.471238898038,0.478308586148,0.0039541113604,0.00706968810934,0.001,35.3484405467,-5000.0,0.0,0.0,0.0
1513266275558413891,,619814,,1513266273,757770185,'',0.471238898038,0.479965544298,0.0366842894136,0.00872664625997,0.001,43.6332312999,-5000.0,0.0,0.0,0.0
1513266275568463954,,619815,,1513266273,767770185,'',0.471238898038,0.476651627997,-0.0296095867139,0.00541272995872,0.001,27.0636497936,-5000.0,0.0,0.0,0.0
1513266275578205075,,619816,,1513266273,777770185,'',0.471238898038,0.479965544298,0.0359745523191,0.00872664625997,0.001,43.6332312999,-5000.0,0.0,0.0,0.0
1513266275588557391,,619817,,1513266273,787770185,'',0.471238898038,0.476651627997,-0.028937044653,0.00541272995872,0.001,27.0636497936,-5000.0,0.0,0.0,0.0
1513266275598543271,,619818,,1513266273,797770185,'',0.471238898038,0.476651627997,-0.0273865749146,0.00541272995872,0.001,27.0636497936,-5000.0,0.0,0.0,0.0
1513266275608565727,,619819,,1513266273,807770185,'',0.471238898038,0.478308586148,0.00375909509744,0.00706968810934,0.001,35.3484405467,-5000.0,0.0,0.0,0.0
1513266275618575095,,619820,,1513266273,817770185,'',0.471238898038,0.476651627997,-0.0272730308049,0.00541272995872,0.001,27.0636497936,-5000.0,0.0,0.0,0.0
1513266275628395468,,619821,,1513266273,827770185,'',0.471238898038,0.476651627997,-0.0271278342145,0.00541272995872,0.001,27.0636497936,-5000.0,0.0,0.0,0.0
1513266275638181483,,619822,,1513266273,837770185,'',0.471238898038,0.478308586148,0.00582876837871,0.00706968810934,0.001,35.3484405467,-5000.0,0.0,0.0,0.0
1513266275648628175,,619823,,1513266273,847770185,'',0.471238898038,0.478308586148,0.00590691226632,0.00706968810934,0.001,35.3484405467,-5000.0,0.0,0.0,0.0
1513266275658707098,,619824,,1513266273,857770185,'',0.471238898038,0.478308586148,0.00611303531838,0.00706968810934,0.001,35.3484405467,-5000.0,0.0,0.0,0.0
1513266275668650122,,619825,,1513266273,867770185,'',0.471238898038,0.478308586148,0.00685825284992,0.00706968810934,0.001,35.3484405467,-5000.0,0.0,0.0,0.0
1513266275678610000,,619826,,1513266273,877770185,'',0.471238898038,0.476651627997,-0.0260259910309,0.00541272995872,0.001,27.0636497936,-5000.0,0.0,0.0,0.0
1513266275688461819,,619827,,1513266273,887770185,'',0.471238898038,0.478308586148,0.00785135440767,0.00706968810934,0.001,35.3484405467,-5000.0,0.0,0.0,0.0
1513266275698345787,,619828,,1513266273,897770185,'',0.471238898038,0.476651627997,-0.0269713174991,0.00541272995872,0.001,27.0636497936,-5000.0,0.0,0.0,0.0
1513266275708363885,,619829,,1513266273,907770185,'',0.471238898038,0.478308586148,0.00587578565505,0.00706968810934,0.001,35.3484405467,-5000.0,0.0,0.0,0.0
1513266275718264730,,619830,,1513266273,917770185,'',0.471238898038,0.478308586148,0.00545828726219,0.00706968810934,0.001,35.3484405467,-5000.0,0.0,0.0,0.0
1513266275728419878,,619831,,1513266273,927770185,'',0.471238898038,0.478308586148,0.00558794658247,0.00706968810934,0.001,35.3484405467,-5000.0,0.0,0.0,0.0
1513266275738528413,,619832,,1513266273,937770185,'',0.471238898038,0.478308586148,0.00519792287149,0.00706968810934,0.001,35.3484405467,-5000.0,0.0,0.0,0.0
1513266275748650123,,619833,,1513266273,947770185,'',0.471238898038,0.476651627997,-0.0297662879114,0.00541272995872,0.001,27.0636497936,-5000.0,0.0,0.0,0.0
1513266275758311212,,619834,,1513266273,957770185,'',0.471238898038,0.478308586148,0.00308606184559,0.00706968810934,0.001,35.3484405467,-5000.0,0.0,0.0,0.0
1513266275768571880,,619835,,1513266273,967770185,'',0.471238898038,0.478308586148,0.00429950590697,0.00706968810934,0.001,35.3484405467,-5000.0,0.0,0.0,0.0
1513266275778420612,,619836,,1513266273,977770185,'',0.471238898038,0.476651627997,-0.0298597782631,0.00541272995872,0.001,27.0636497936,-5000.0,0.0,0.0,0.0
1513266275788363121,,619837,,1513266273,987770185,'',0.471238898038,0.476651627997,-0.0292184120477,0.00541272995872,0.001,27.0636497936,-5000.0,0.0,0.0,0.0
1513266275798528140,,619838,,1513266273,997770185,'',0.471238898038,0.478308586148,0.00527059372283,0.00706968810934,0.001,35.3484405467,-5000.0,0.0,0.0,0.0
1513266275808547027,,619839,,1513266274,7770185,'',0.471238898038,0.478308586148,0.00676130369485,0.00706968810934,0.001,35.3484405467,-5000.0,0.0,0.0,0.0
1513266275818799860,,619840,,1513266274,17770185,'',0.471238898038,0.476651627997,-0.0254934298066,0.00541272995872,0.001,27.0636497936,-5000.0,0.0,0.0,0.0
1513266275828397976,,619841,,1513266274,27770185,'',0.471238898038,0.476651627997,-0.0232178372143,0.00541272995872,0.001,27.0636497936,-5000.0,0.0,0.0,0.0
1513266275838635083,,619842,,1513266274,37770185,'',0.471238898038,0.478308586148,0.0108304030488,0.00706968810934,0.001,35.3484405467,-5000.0,0.0,0.0,0.0
1513266275848535466,,619843,,1513266274,47770185,'',0.471238898038,0.479965544298,0.0447483102499,0.00872664625997,0.001,43.6332312999,-5000.0,0.0,0.0,0.0
1513266275858590252,,619844,,1513266274,57770185,'',0.471238898038,0.476651627997,-0.0198718764212,0.00541272995872,0.001,27.0636497936,-5000.0,0.0,0.0,0.0
1513266275868299218,,619845,,1513266274,67770185,'',0.471238898038,0.478308586148,0.0129515463291,0.00706968810934,0.001,35.3484405467,-5000.0,0.0,0.0,0.0
1513266275878407602,,619846,,1513266274,77770185,'',0.471238898038,0.476651627997,-0.0191221903625,0.00541272995872,0.001,27.0636497936,-5000.0,0.0,0.0,0.0
1513266275888226745,,619847,,1513266274,87770185,'',0.471238898038,0.476651627997,-0.0180893284279,0.00541272995872,0.001,27.0636497936,-5000.0,0.0,0.0,0.0
1513266275898097628,,619848,,1513266274,97770185,'',0.471238898038,0.476651627997,-0.0177580162328,0.00541272995872,0.001,27.0636497936,-5000.0,0.0,0.0,0.0
1513266275908084193,,619849,,1513266274,107770185,'',0.471238898038,0.479965544298,0.0474984486852,0.00872664625997,0.001,43.6332312999,-5000.0,0.0,0.0,0.0
1513266275918606269,,619850,,1513266274,117770185,'',0.471238898038,0.476651627997,-0.0176671516995,0.00541272995872,0.001,27.0636497936,-5000.0,0.0,0.0,0.0
1513266275928660984,,619851,,1513266274,127770185,'',0.471238898038,0.478308586148,0.0129188399394,0.00706968810934,0.001,35.3484405467,-5000.0,0.0,0.0,0.0
1513266275938553262,,619852,,1513266274,137770185,'',0.471238898038,0.476651627997,-0.0203867893779,0.00541272995872,0.001,27.0636497936,-5000.0,0.0,0.0,0.0
1513266275948586293,,619853,,1513266274,147770185,'',0.471238898038,0.479965544298,0.0459323576284,0.00872664625997,0.001,43.6332312999,-5000.0,0.0,0.0,0.0
1513266275958503247,,619854,,1513266274,157770185,'',0.471238898038,0.478308586148,0.0119997355675,0.00706968810934,0.001,35.3484405467,-5000.0,0.0,0.0,0.0
1513266275968481159,,619855,,1513266274,167770185,'',0.471238898038,0.476651627997,-0.0230357968622,0.00541272995872,0.001,27.0636497936,-5000.0,0.0,0.0,0.0
1513266275978360125,,619856,,1513266274,177770185,'',0.471238898038,0.476651627997,-0.0232161013111,0.00541272995872,0.001,27.0636497936,-5000.0,0.0,0.0,0.0
1513266275988432069,,619857,,1513266274,187770185,'',0.471238898038,0.478308586148,0.00965422906956,0.00706968810934,0.001,35.3484405467,-5000.0,0.0,0.0,0.0
1513266275998515938,,619858,,1513266274,197770185,'',0.471238898038,0.476651627997,-0.021861170318,0.00541272995872,0.001,27.0636497936,-5000.0,0.0,0.0,0.0
1513266276008572719,,619859,,1513266274,207770185,'',0.471238898038,0.476651627997,-0.0228078237638,0.00541272995872,0.001,27.0636497936,-5000.0,0.0,0.0,0.0
1513266276018532758,,619860,,1513266274,217770185,'',0.471238898038,0.478308586148,0.0117804661923,0.00706968810934,0.001,35.3484405467,-5000.0,0.0,0.0,0.0
1513266276028689329,,619861,,1513266274,227770185,'',0.471238898038,0.478308586148,0.0108125760074,0.00706968810934,0.001,35.3484405467,-5000.0,0.0,0.0,0.0
1513266276038406226,,619862,,1513266274,237770185,'',0.471238898038,0.476651627997,-0.0208211785748,0.00541272995872,0.001,27.0636497936,-5000.0,0.0,0.0,0.0
1513266276048245153,,619863,,1513266274,247770185,'',0.471238898038,0.478308586148,0.0129198179915,0.00706968810934,0.001,35.3484405467,-5000.0,0.0,0.0,0.0
1513266276058629460,,619864,,1513266274,257770185,'',0.471238898038,0.478308586148,0.0117903412188,0.00706968810934,0.001,35.3484405467,-5000.0,0.0,0.0,0.0
1513266276068496500,,619865,,1513266274,267770185,'',0.471238898038,0.478308586148,0.0107812171789,0.00706968810934,0.001,35.3484405467,-5000.0,0.0,0.0,0.0
1513266276078428785,,619866,,1513266274,277770185,'',0.471238898038,0.476651627997,-0.0216210301825,0.00541272995872,0.001,27.0636497936,-5000.0,0.0,0.0,0.0
1513266276088456063,,619867,,1513266274,287770185,'',0.471238898038,0.478308586148,0.0121312086356,0.00706968810934,0.001,35.3484405467,-5000.0,0.0,0.0,0.0
1513266276098848885,,619868,,1513266274,297770185,'',0.471238898038,0.476651627997,-0.0199464116835,0.00541272995872,0.001,27.0636497936,-5000.0,0.0,0.0,0.0
1513266276108309476,,619869,,1513266274,307770185,'',0.471238898038,0.476651627997,-0.0204904824627,0.00541272995872,0.001,27.0636497936,-5000.0,0.0,0.0,0.0
1513266276118243187,,619870,,1513266274,317770185,'',0.471238898038,0.476651627997,-0.0202981724725,0.00541272995872,0.001,27.0636497936,-5000.0,0.0,0.0,0.0
1513266276128157300,,619871,,1513266274,327770185,'',0.471238898038,0.478308586148,0.0138362325376,0.00706968810934,0.001,35.3484405467,-5000.0,0.0,0.0,0.0
1513266276138104708,,619872,,1513266274,337770185,'',0.471238898038,0.476651627997,-0.0202570338999,0.00541272995872,0.001,27.0636497936,-5000.0,0.0,0.0,0.0
1513266276148043110,,619873,,1513266274,347770185,'',0.471238898038,0.476651627997,-0.0190071664848,0.00541272995872,0.001,27.0636497936,-5000.0,0.0,0.0,0.0
1513266276158528187,,619874,,1513266274,357770185,'',0.471238898038,0.478308586148,0.0149329350665,0.00706968810934,0.001,35.3484405467,-5000.0,0.0,0.0,0.0
1513266276168517878,,619875,,1513266274,367770185,'',0.471238898038,0.476651627997,-0.0175903915438,0.00541272995872,0.001,27.0636497936,-5000.0,0.0,0.0,0.0
1513266276178365934,,619876,,1513266274,377770185,'',0.471238898038,0.478308586148,0.0177697752824,0.00706968810934,0.001,35.3484405467,-5000.0,0.0,0.0,0.0
1513266276188383238,,619877,,1513266274,387770185,'',0.471238898038,0.478308586148,0.0157639107096,0.00706968810934,0.001,35.3484405467,-5000.0,0.0,0.0,0.0
1513266276198398087,,619878,,1513266274,397770185,'',0.471238898038,0.478308586148,0.0153464351153,0.00706968810934,0.001,35.3484405467,-5000.0,0.0,0.0,0.0
1513266276208391759,,619879,,1513266274,407770185,'',0.471238898038,0.476651627997,-0.0202724321304,0.00541272995872,0.001,27.0636497936,-5000.0,0.0,0.0,0.0
1513266276218299681,,619880,,1513266274,417770185,'',0.471238898038,0.478308586148,0.0125897456402,0.00706968810934,0.001,35.3484405467,-5000.0,0.0,0.0,0.0
1513266276228218342,,619881,,1513266274,427770185,'',0.471238898038,0.476651627997,-0.0195365614563,0.00541272995872,0.001,27.0636497936,-5000.0,0.0,0.0,0.0
1513266276238190783,,619882,,1513266274,437770185,'',0.471238898038,0.478308586148,0.0132946079013,0.00706968810934,0.001,35.3484405467,-5000.0,0.0,0.0,0.0
1513266276248034850,,619883,,1513266274,447770185,'',0.471238898038,0.476651627997,-0.0213295107024,0.00541272995872,0.001,27.0636497936,-5000.0,0.0,0.0,0.0
1513266276258527525,,619884,,1513266274,457770185,'',0.471238898038,0.478308586148,0.0116902111691,0.00706968810934,0.001,35.3484405467,-5000.0,0.0,0.0,0.0
1513266276268549492,,619885,,1513266274,467770185,'',0.471238898038,0.476651627997,-0.0220506086002,0.00541272995872,0.001,27.0636497936,-5000.0,0.0,0.0,0.0
1513266276278435681,,619886,,1513266274,477770185,'',0.471238898038,0.478308586148,0.0099884244956,0.00706968810934,0.001,35.3484405467,-5000.0,0.0,0.0,0.0
1513266276288424765,,619887,,1513266274,487770185,'',0.471238898038,0.478308586148,0.00996107746882,0.00706968810934,0.001,35.3484405467,-5000.0,0.0,0.0,0.0
1513266276298289615,,619888,,1513266274,497770185,'',0.471238898038,0.476651627997,-0.0228560302411,0.00541272995872,0.001,27.0636497936,-5000.0,0.0,0.0,0.0
1513266276308300216,,619889,,1513266274,507770185,'',0.471238898038,0.476651627997,-0.0211726870982,0.00541272995872,0.001,27.0636497936,-5000.0,0.0,0.0,0.0
1513266276318325499,,619890,,1513266274,517770185,'',0.471238898038,0.476651627997,-0.019183010404,0.00541272995872,0.001,27.0636497936,-5000.0,0.0,0.0,0.0
1513266276328078949,,619891,,1513266274,527770185,'',0.471238898038,0.476651627997,-0.0187779553458,0.00541272995872,0.001,27.0636497936,-5000.0,0.0,0.0,0.0
1513266276338043233,,619892,,1513266274,537770185,'',0.471238898038,0.476651627997,-0.0172191853919,0.00541272995872,0.001,27.0636497936,-5000.0,0.0,0.0,0.0
1513266276348126893,,619893,,1513266274,547770185,'',0.471238898038,0.478308586148,0.015664179625,0.00706968810934,0.001,35.3484405467,-5000.0,0.0,0.0,0.0
1513266276358184799,,619894,,1513266274,557770185,'',0.471238898038,0.476651627997,-0.0193488474578,0.00541272995872,0.001,27.0636497936,-5000.0,0.0,0.0,0.0
1513266276368438659,,619895,,1513266274,567770185,'',0.471238898038,0.476651627997,-0.0188229919239,0.00541272995872,0.001,27.0636497936,-5000.0,0.0,0.0,0.0
1513266276378611263,,619896,,1513266274,577770185,'',0.471238898038,0.478308586148,0.0162245760652,0.00706968810934,0.001,35.3484405467,-5000.0,0.0,0.0,0.0
1513266276388259865,,619897,,1513266274,587770185,'',0.471238898038,0.478308586148,0.0162990052319,0.00706968810934,0.001,35.3484405467,-5000.0,0.0,0.0,0.0
1513266276398225433,,619898,,1513266274,597770185,'',0.471238898038,0.478308586148,0.0164253079384,0.00706968810934,0.001,35.3484405467,-5000.0,0.0,0.0,0.0
1513266276408323608,,619899,,1513266274,607770185,'',0.471238898038,0.476651627997,-0.0168907898439,0.00541272995872,0.001,27.0636497936,-5000.0,0.0,0.0,0.0
1513266276418213483,,619900,,1513266274,617770185,'',0.471238898038,0.476651627997,-0.0167909102889,0.00541272995872,0.001,27.0636497936,-5000.0,0.0,0.0,0.0
1513266276428177955,,619901,,1513266274,627770185,'',0.471238898038,0.476651627997,-0.01737117901,0.00541272995872,0.001,27.0636497936,-5000.0,0.0,0.0,0.0
1513266276438174672,,619902,,1513266274,637770185,'',0.471238898038,0.476651627997,-0.0165820444174,0.00541272995872,0.001,27.0636497936,-5000.0,0.0,0.0,0.0
1513266276448193341,,619903,,1513266274,647770185,'',0.471238898038,0.476651627997,-0.0159665466562,0.00541272995872,0.001,27.0636497936,-5000.0,0.0,0.0,0.0
1513266276458101659,,619904,,1513266274,657770185,'',0.471238898038,0.478308586148,0.0179889641983,0.00706968810934,0.001,35.3484405467,-5000.0,0.0,0.0,0.0
1513266276468457548,,619905,,1513266274,667770185,'',0.471238898038,0.476651627997,-0.0138949918351,0.00541272995872,0.001,27.0636497936,-5000.0,0.0,0.0,0.0
1513266276478028266,,619906,,1513266274,677770185,'',0.471238898038,0.476651627997,-0.0138224068105,0.00541272995872,0.001,27.0636497936,-5000.0,0.0,0.0,0.0
1513266276488038047,,619907,,1513266274,687770185,'',0.471238898038,0.476651627997,-0.0143762342403,0.00541272995872,0.001,27.0636497936,-5000.0,0.0,0.0,0.0
1513266276498509836,,619908,,1513266274,697770185,'',0.471238898038,0.478308586148,0.0204489505754,0.00706968810934,0.001,35.3484405467,-5000.0,0.0,0.0,0.0
1513266276508486777,,619909,,1513266274,707770185,'',0.471238898038,0.478308586148,0.019700526921,0.00706968810934,0.001,35.3484405467,-5000.0,0.0,0.0,0.0
1513266276518450591,,619910,,1513266274,717770185,'',0.471238898038,0.476651627997,-0.0142512416765,0.00541272995872,0.001,27.0636497936,-5000.0,0.0,0.0,0.0
1513266276528376220,,619911,,1513266274,727770185,'',0.471238898038,0.476651627997,-0.0134696905163,0.00541272995872,0.001,27.0636497936,-5000.0,0.0,0.0,0.0
1513266276538155815,,619912,,1513266274,737770185,'',0.471238898038,0.478308586148,0.0188116051536,0.00706968810934,0.001,35.3484405467,-5000.0,0.0,0.0,0.0
1513266276548221983,,619913,,1513266274,747770185,'',0.471238898038,0.478308586148,0.0190023607352,0.00706968810934,0.001,35.3484405467,-5000.0,0.0,0.0,0.0
1513266276558543934,,619914,,1513266274,757770185,'',0.471238898038,0.476651627997,-0.0149516065939,0.00541272995872,0.001,27.0636497936,-5000.0,0.0,0.0,0.0
1513266276568378631,,619915,,1513266274,767770185,'',0.471238898038,0.478308586148,0.0194191157093,0.00706968810934,0.001,35.3484405467,-5000.0,0.0,0.0,0.0
1513266276578287077,,619916,,1513266274,777770185,'',0.471238898038,0.476651627997,-0.0151168095473,0.00541272995872,0.001,27.0636497936,-5000.0,0.0,0.0,0.0
1513266276588286781,,619917,,1513266274,787770185,'',0.471238898038,0.478308586148,0.0199249484262,0.00706968810934,0.001,35.3484405467,-5000.0,0.0,0.0,0.0
1513266276598119061,,619918,,1513266274,797770185,'',0.471238898038,0.478308586148,0.0180749302892,0.00706968810934,0.001,35.3484405467,-5000.0,0.0,0.0,0.0
1513266276608586239,,619919,,1513266274,807770185,'',0.471238898038,0.478308586148,0.0178652376094,0.00706968810934,0.001,35.3484405467,-5000.0,0.0,0.0,0.0
1513266276618525263,,619920,,1513266274,817770185,'',0.471238898038,0.478308586148,0.0177594907376,0.00706968810934,0.001,35.3484405467,-5000.0,0.0,0.0,0.0
1513266276628382339,,619921,,1513266274,827770185,'',0.471238898038,0.478308586148,0.0181776542006,0.00706968810934,0.001,35.3484405467,-5000.0,0.0,0.0,0.0
1513266276638152620,,619922,,1513266274,837770185,'',0.471238898038,0.476651627997,-0.0137071713019,0.00541272995872,0.001,27.0636497936,-5000.0,0.0,0.0,0.0
1513266276648209329,,619923,,1513266274,847770185,'',0.471238898038,0.478308586148,0.0185893769954,0.00706968810934,0.001,35.3484405467,-5000.0,0.0,0.0,0.0
1513266276658618934,,619924,,1513266274,857770185,'',0.471238898038,0.478308586148,0.0199347775672,0.00706968810934,0.001,35.3484405467,-5000.0,0.0,0.0,0.0
1513266276668572008,,619925,,1513266274,867770185,'',0.471238898038,0.476651627997,-0.0122679468194,0.00541272995872,0.001,27.0636497936,-5000.0,0.0,0.0,0.0
1513266276678502303,,619926,,1513266274,877770185,'',0.471238898038,0.478308586148,0.0209374983289,0.00706968810934,0.001,35.3484405467,-5000.0,0.0,0.0,0.0
1513266276688433490,,619927,,1513266274,887770185,'',0.471238898038,0.476651627997,-0.0115308213789,0.00541272995872,0.001,27.0636497936,-5000.0,0.0,0.0,0.0
1513266276698342115,,619928,,1513266274,897770185,'',0.471238898038,0.476651627997,-0.011780226421,0.00541272995872,0.001,27.0636497936,-5000.0,0.0,0.0,0.0
1513266276708379090,,619929,,1513266274,907770185,'',0.471238898038,0.476651627997,-0.0108732515069,0.00541272995872,0.001,27.0636497936,-5000.0,0.0,0.0,0.0
1513266276718274945,,619930,,1513266274,917770185,'',0.471238898038,0.476651627997,-0.0112505352002,0.00541272995872,0.001,27.0636497936,-5000.0,0.0,0.0,0.0
1513266276728206677,,619931,,1513266274,927770185,'',0.471238898038,0.478308586148,0.0212444997949,0.00706968810934,0.001,35.3484405467,-5000.0,0.0,0.0,0.0
1513266276738127929,,619932,,1513266274,937770185,'',0.471238898038,0.476651627997,-0.0106746518766,0.00541272995872,0.001,27.0636497936,-5000.0,0.0,0.0,0.0
1513266276748083655,,619933,,1513266274,947770185,'',0.471238898038,0.478308586148,0.020421854063,0.00706968810934,0.001,35.3484405467,-5000.0,0.0,0.0,0.0
1513266276758481276,,619934,,1513266274,957770185,'',0.471238898038,0.478308586148,0.0196446137473,0.00706968810934,0.001,35.3484405467,-5000.0,0.0,0.0,0.0
1513266276768385147,,619935,,1513266274,967770185,'',0.471238898038,0.476651627997,-0.0149078238774,0.00541272995872,0.001,27.0636497936,-5000.0,0.0,0.0,0.0
1513266276778386546,,619936,,1513266274,977770185,'',0.471238898038,0.476651627997,-0.0146376188972,0.00541272995872,0.001,27.0636497936,-5000.0,0.0,0.0,0.0
1513266276788158570,,619937,,1513266274,987770185,'',0.471238898038,0.478308586148,0.0178171852452,0.00706968810934,0.001,35.3484405467,-5000.0,0.0,0.0,0.0
1513266276798093910,,619938,,1513266274,997770185,'',0.471238898038,0.478308586148,0.0175360366385,0.00706968810934,0.001,35.3484405467,-5000.0,0.0,0.0,0.0
1513266276808088248,,619939,,1513266275,7770185,'',0.471238898038,0.478308586148,0.0179365571314,0.00706968810934,0.001,35.3484405467,-5000.0,0.0,0.0,0.0
1513266276818439629,,619940,,1513266275,17770185,'',0.471238898038,0.478308586148,0.0182886501692,0.00706968810934,0.001,35.3484405467,-5000.0,0.0,0.0,0.0
1513266276828286301,,619941,,1513266275,27770185,'',0.471238898038,0.478308586148,0.0192224902039,0.00706968810934,0.001,35.3484405467,-5000.0,0.0,0.0,0.0
1513266276838258952,,619942,,1513266275,37770185,'',0.471238898038,0.479965544298,0.0527533268099,0.00872664625997,0.001,43.6332312999,-5000.0,0.0,0.0,0.0
1513266276848303987,,619943,,1513266275,47770185,'',0.471238898038,0.476651627997,-0.0128570467457,0.00541272995872,0.001,27.0636497936,-5000.0,0.0,0.0,0.0
1513266276858146523,,619944,,1513266275,57770185,'',0.471238898038,0.478308586148,0.0204713866506,0.00706968810934,0.001,35.3484405467,-5000.0,0.0,0.0,0.0
1513266276868035179,,619945,,1513266275,67770185,'',0.471238898038,0.479965544298,0.0543803564898,0.00872664625997,0.001,43.6332312999,-5000.0,0.0,0.0,0.0
1513266276877984914,,619946,,1513266275,77770185,'',0.471238898038,0.476651627997,-0.0115612482507,0.00541272995872,0.001,27.0636497936,-5000.0,0.0,0.0,0.0
1513266276888576701,,619947,,1513266275,87770185,'',0.471238898038,0.476651627997,-0.0111841932015,0.00541272995872,0.001,27.0636497936,-5000.0,0.0,0.0,0.0
1513266276898092078,,619948,,1513266275,97770185,'',0.471238898038,0.478308586148,0.0206584816707,0.00706968810934,0.001,35.3484405467,-5000.0,0.0,0.0,0.0
1513266276908555854,,619949,,1513266275,107770185,'',0.471238898038,0.476651627997,-0.0135039535872,0.00541272995872,0.001,27.0636497936,-5000.0,0.0,0.0,0.0
1513266276918460412,,619950,,1513266275,117770185,'',0.471238898038,0.476651627997,-0.0135143312975,0.00541272995872,0.001,27.0636497936,-5000.0,0.0,0.0,0.0
1513266276928020118,,619951,,1513266275,127770185,'',0.471238898038,0.478308586148,0.0193163453458,0.00706968810934,0.001,35.3484405467,-5000.0,0.0,0.0,0.0
1513266276938421810,,619952,,1513266275,137770185,'',0.471238898038,0.476651627997,-0.014565995575,0.00541272995872,0.001,27.0636497936,-5000.0,0.0,0.0,0.0
1513266276952129958,,619953,,1513266275,147770185,'',0.471238898038,0.476651627997,-0.0125761189311,0.00541272995872,0.001,27.0636497936,-5000.0,0.0,0.0,0.0
1513266276958566621,,619954,,1513266275,157770185,'',0.471238898038,0.478308586148,0.0225134895743,0.00706968810934,0.001,35.3484405467,-5000.0,0.0,0.0,0.0
1513266276968572595,,619955,,1513266275,167770185,'',0.471238898038,0.478308586148,0.0212753934078,0.00706968810934,0.001,35.3484405467,-5000.0,0.0,0.0,0.0
1513266276978522160,,619956,,1513266275,177770185,'',0.471238898038,0.476651627997,-0.0118621607518,0.00541272995872,0.001,27.0636497936,-5000.0,0.0,0.0,0.0
1513266276988294675,,619957,,1513266275,187770185,'',0.471238898038,0.476651627997,-0.0109020089074,0.00541272995872,0.001,27.0636497936,-5000.0,0.0,0.0,0.0
1513266276998247821,,619958,,1513266275,197770185,'',0.471238898038,0.476651627997,-0.0113371110856,0.00541272995872,0.001,27.0636497936,-5000.0,0.0,0.0,0.0
1513266277008605339,,619959,,1513266275,207770185,'',0.471238898038,0.476651627997,-0.010480925725,0.00541272995872,0.001,27.0636497936,-5000.0,0.0,0.0,0.0
1513266277018367843,,619960,,1513266275,217770185,'',0.471238898038,0.476651627997,-0.0097303646827,0.00541272995872,0.001,27.0636497936,-5000.0,0.0,0.0,0.0
1513266277028392796,,619961,,1513266275,227770185,'',0.471238898038,0.476651627997,-0.0090718721467,0.00541272995872,0.001,27.0636497936,-5000.0,0.0,0.0,0.0
1513266277038277447,,619962,,1513266275,237770185,'',0.471238898038,0.478308586148,0.0241344095509,0.00706968810934,0.001,35.3484405467,-5000.0,0.0,0.0,0.0
1513266277048323635,,619963,,1513266275,247770185,'',0.471238898038,0.476651627997,-0.010595315422,0.00541272995872,0.001,27.0636497936,-5000.0,0.0,0.0,0.0
1513266277058309370,,619964,,1513266275,257770185,'',0.471238898038,0.476651627997,-0.00923014541111,0.00541272995872,0.001,27.0636497936,-5000.0,0.0,0.0,0.0
1513266277068295663,,619965,,1513266275,267770185,'',0.471238898038,0.476651627997,-0.00934311956949,0.00541272995872,0.001,27.0636497936,-5000.0,0.0,0.0,0.0
1513266277078334294,,619966,,1513266275,277770185,'',0.471238898038,0.476651627997,-0.0094996145919,0.00541272995872,0.001,27.0636497936,-5000.0,0.0,0.0,0.0
1513266277088296398,,619967,,1513266275,287770185,'',0.471238898038,0.476651627997,-0.0113481590613,0.00541272995872,0.001,27.0636497936,-5000.0,0.0,0.0,0.0
1513266277098169843,,619968,,1513266275,297770185,'',0.471238898038,0.476651627997,-0.0112033842267,0.00541272995872,0.001,27.0636497936,-5000.0,0.0,0.0,0.0
1513266277108126991,,619969,,1513266275,307770185,'',0.471238898038,0.476651627997,-0.00916594722525,0.00541272995872,0.001,27.0636497936,-5000.0,0.0,0.0,0.0
1513266277118529849,,619970,,1513266275,317770185,'',0.471238898038,0.478308586148,0.0247373909043,0.00706968810934,0.001,35.3484405467,-5000.0,0.0,0.0,0.0
1513266277128561337,,619971,,1513266275,327770185,'',0.471238898038,0.476651627997,-0.00837584826383,0.00541272995872,0.001,27.0636497936,-5000.0,0.0,0.0,0.0
1513266277138427966,,619972,,1513266275,337770185,'',0.471238898038,0.478308586148,0.0253737174661,0.00706968810934,0.001,35.3484405467,-5000.0,0.0,0.0,0.0
1513266277148329314,,619973,,1513266275,347770185,'',0.471238898038,0.478308586148,0.0250336044935,0.00706968810934,0.001,35.3484405467,-5000.0,0.0,0.0,0.0
1513266277158258167,,619974,,1513266275,357770185,'',0.471238898038,0.478308586148,0.0234808173313,0.00706968810934,0.001,35.3484405467,-5000.0,0.0,0.0,0.0
1513266277168200110,,619975,,1513266275,367770185,'',0.471238898038,0.476651627997,-0.00946885844192,0.00541272995872,0.001,27.0636497936,-5000.0,0.0,0.0,0.0
1513266277178204455,,619976,,1513266275,377770185,'',0.471238898038,0.476651627997,-0.00957201361223,0.00541272995872,0.001,27.0636497936,-5000.0,0.0,0.0,0.0
1513266277188174407,,619977,,1513266275,387770185,'',0.471238898038,0.476651627997,-0.00783548352784,0.00541272995872,0.001,27.0636497936,-5000.0,0.0,0.0,0.0
1513266277198124975,,619978,,1513266275,397770185,'',0.471238898038,0.476651627997,-0.00820008603741,0.00541272995872,0.001,27.0636497936,-5000.0,0.0,0.0,0.0
1513266277208173235,,619979,,1513266275,407770185,'',0.471238898038,0.476651627997,-0.0079841219489,0.00541272995872,0.001,27.0636497936,-5000.0,0.0,0.0,0.0
1513266277218122612,,619980,,1513266275,417770185,'',0.471238898038,0.474994669847,-0.039335642761,0.00375577180809,0.001,18.7788590404,-5000.0,0.0,0.0,0.0
