rosbagTimestamp,header,seq,stamp,secs,nsecs,frame_id,set_point,process_value,process_value_dot,error,time_step,command,p,i,d,i_clamp
1513265626878079320,,554949,,1513265625,90063616,'',1.2217304764,1.19274444288,0.00821141947565,-0.0289860335137,0.001,124.639944109,4300.0,0.0,0.0,0.0
1513265626887973986,,554950,,1513265625,100063616,'',1.2217304764,1.19274444288,0.00777723940967,-0.0289860335137,0.001,124.639944109,4300.0,0.0,0.0,0.0
1513265626897932135,,554951,,1513265625,110063616,'',1.2217304764,1.19274444288,0.00842123425438,-0.0289860335137,0.001,124.639944109,4300.0,0.0,0.0,0.0
1513265626907652828,,554952,,1513265625,120063616,'',1.2217304764,1.19274444288,0.00840263409667,-0.0289860335137,0.001,124.639944109,4300.0,0.0,0.0,0.0
1513265626918102034,,554953,,1513265625,130063616,'',1.2217304764,1.19135681362,-0.0205995990492,-0.0303736627776,0.001,130.606749944,4300.0,0.0,0.0,0.0
1513265626927967772,,554954,,1513265625,140063616,'',1.2217304764,1.19135681362,-0.020421518419,-0.0303736627776,0.001,130.606749944,4300.0,0.0,0.0,0.0
1513265626937983697,,554955,,1513265625,150063616,'',1.2217304764,1.19274444288,0.00871736880044,-0.0289860335137,0.001,124.639944109,4300.0,0.0,0.0,0.0
1513265626947889917,,554956,,1513265625,160063616,'',1.2217304764,1.19274444288,0.00813656877348,-0.0289860335137,0.001,124.639944109,4300.0,0.0,0.0,0.0
1513265626957969623,,554957,,1513265625,170063616,'',1.2217304764,1.19274444288,0.00821560140861,-0.0289860335137,0.001,124.639944109,4300.0,0.0,0.0,0.0
1513265626967771410,,554958,,1513265625,180063616,'',1.2217304764,1.19274444288,0.0097441529991,-0.0289860335137,0.001,124.639944109,4300.0,0.0,0.0,0.0
1513265626977707667,,554959,,1513265625,190063616,'',1.2217304764,1.19135681362,-0.018992842339,-0.0303736627776,0.001,130.606749944,4300.0,0.0,0.0,0.0
1513265626987843012,,554960,,1513265625,200063616,'',1.2217304764,1.19274444288,0.00941633946336,-0.0289860335137,0.001,124.639944109,4300.0,0.0,0.0,0.0
1513265626997698414,,554961,,1513265625,210063616,'',1.2217304764,1.19274444288,0.00825535515123,-0.0289860335137,0.001,124.639944109,4300.0,0.0,0.0,0.0
1513265627008111038,,554962,,1513265625,220063616,'',1.2217304764,1.19274444288,0.00828683898927,-0.0289860335137,0.001,124.639944109,4300.0,0.0,0.0,0.0
1513265627017994269,,554963,,1513265625,230063616,'',1.2217304764,1.19274444288,0.00837743574061,-0.0289860335137,0.001,124.639944109,4300.0,0.0,0.0,0.0
1513265627027965803,,554964,,1513265625,240063616,'',1.2217304764,1.19274444288,0.00884618683398,-0.0289860335137,0.001,124.639944109,4300.0,0.0,0.0,0.0
1513265627037854355,,554965,,1513265625,250063616,'',1.2217304764,1.19274444288,0.00971536316443,-0.0289860335137,0.001,124.639944109,4300.0,0.0,0.0,0.0
1513265627047923736,,554966,,1513265625,260063616,'',1.2217304764,1.19274444288,0.00891282350803,-0.0289860335137,0.001,124.639944109,4300.0,0.0,0.0,0.0
1513265627057991624,,554967,,1513265625,270063616,'',1.2217304764,1.19274444288,0.00876446066644,-0.0289860335137,0.001,124.639944109,4300.0,0.0,0.0,0.0
1513265627068037802,,554968,,1513265625,280063616,'',1.2217304764,1.19135681362,-0.0177168751838,-0.0303736627776,0.001,130.606749944,4300.0,0.0,0.0,0.0
1513265627077947459,,554969,,1513265625,290063616,'',1.2217304764,1.19135681362,-0.0180747929792,-0.0303736627776,0.001,130.606749944,4300.0,0.0,0.0,0.0
1513265627087874407,,554970,,1513265625,300063616,'',1.2217304764,1.19135681362,-0.0183351089562,-0.0303736627776,0.001,130.606749944,4300.0,0.0,0.0,0.0
1513265627097856810,,554971,,1513265625,310063616,'',1.2217304764,1.19135681362,-0.0180794628262,-0.0303736627776,0.001,130.606749944,4300.0,0.0,0.0,0.0
1513265627107701202,,554972,,1513265625,320063616,'',1.2217304764,1.19274444288,0.00968498161207,-0.0289860335137,0.001,124.639944109,4300.0,0.0,0.0,0.0
1513265627117824308,,554973,,1513265625,330063616,'',1.2217304764,1.19274444288,0.0124237811195,-0.0289860335137,0.001,124.639944109,4300.0,0.0,0.0,0.0
1513265627127833988,,554974,,1513265625,340063616,'',1.2217304764,1.19274444288,0.0121660576047,-0.0289860335137,0.001,124.639944109,4300.0,0.0,0.0,0.0
1513265627137680832,,554975,,1513265625,350063616,'',1.2217304764,1.19274444288,0.010437288598,-0.0289860335137,0.001,124.639944109,4300.0,0.0,0.0,0.0
1513265627148348173,,554976,,1513265625,360063616,'',1.2217304764,1.19274444288,0.010537108122,-0.0289860335137,0.001,124.639944109,4300.0,0.0,0.0,0.0
1513265627158090669,,554977,,1513265625,370063616,'',1.2217304764,1.19274444288,0.0116018597998,-0.0289860335137,0.001,124.639944109,4300.0,0.0,0.0,0.0
1513265627167912804,,554978,,1513265625,380063616,'',1.2217304764,1.19274444288,0.0115479390373,-0.0289860335137,0.001,124.639944109,4300.0,0.0,0.0,0.0
1513265627177987599,,554979,,1513265625,390063616,'',1.2217304764,1.19274444288,0.0109523133017,-0.0289860335137,0.001,124.639944109,4300.0,0.0,0.0,0.0
1513265627187824790,,554980,,1513265625,400063616,'',1.2217304764,1.19135681362,-0.0179682438957,-0.0303736627776,0.001,130.606749944,4300.0,0.0,0.0,0.0
1513265627197893137,,554981,,1513265625,410063616,'',1.2217304764,1.19274444288,0.0107163860081,-0.0289860335137,0.001,124.639944109,4300.0,0.0,0.0,0.0
1513265627207910297,,554982,,1513265625,420063616,'',1.2217304764,1.19274444288,0.0118064470034,-0.0289860335137,0.001,124.639944109,4300.0,0.0,0.0,0.0
1513265627217782751,,554983,,1513265625,430063616,'',1.2217304764,1.19274444288,0.0101687167744,-0.0289860335137,0.001,124.639944109,4300.0,0.0,0.0,0.0
1513265627227741485,,554984,,1513265625,440063616,'',1.2217304764,1.19274444288,0.00931857731118,-0.0289860335137,0.001,124.639944109,4300.0,0.0,0.0,0.0
1513265627237871946,,554985,,1513265625,450063616,'',1.2217304764,1.19413207215,0.0376802075287,-0.0275984042497,0.001,118.673138274,4300.0,0.0,0.0,0.0
1513265627247862781,,554986,,1513265625,460063616,'',1.2217304764,1.19135681362,-0.0185926415165,-0.0303736627776,0.001,130.606749944,4300.0,0.0,0.0,0.0
1513265627257754111,,554987,,1513265625,470063616,'',1.2217304764,1.19135681362,-0.0187584331923,-0.0303736627776,0.001,130.606749944,4300.0,0.0,0.0,0.0
1513265627267637807,,554988,,1513265625,480063616,'',1.2217304764,1.19135681362,-0.0184173804658,-0.0303736627776,0.001,130.606749944,4300.0,0.0,0.0,0.0
1513265627278132638,,554989,,1513265625,490063616,'',1.2217304764,1.19135681362,-0.0186176014179,-0.0303736627776,0.001,130.606749944,4300.0,0.0,0.0,0.0
1513265627288068522,,554990,,1513265625,500063616,'',1.2217304764,1.19274444288,0.0087344343904,-0.0289860335137,0.001,124.639944109,4300.0,0.0,0.0,0.0
1513265627297941500,,554991,,1513265625,510063616,'',1.2217304764,1.19274444288,0.0086961983571,-0.0289860335137,0.001,124.639944109,4300.0,0.0,0.0,0.0
1513265627307953227,,554992,,1513265625,520063616,'',1.2217304764,1.19274444288,0.00863873847112,-0.0289860335137,0.001,124.639944109,4300.0,0.0,0.0,0.0
1513265627317944214,,554993,,1513265625,530063616,'',1.2217304764,1.19274444288,0.00852661548954,-0.0289860335137,0.001,124.639944109,4300.0,0.0,0.0,0.0
1513265627327880856,,554994,,1513265625,540063616,'',1.2217304764,1.19274444288,0.00895834375347,-0.0289860335137,0.001,124.639944109,4300.0,0.0,0.0,0.0
1513265627338071647,,554995,,1513265625,550063616,'',1.2217304764,1.19135681362,-0.0206077482932,-0.0303736627776,0.001,130.606749944,4300.0,0.0,0.0,0.0
1513265627347941767,,554996,,1513265625,560063616,'',1.2217304764,1.19274444288,0.00763281865591,-0.0289860335137,0.001,124.639944109,4300.0,0.0,0.0,0.0
1513265627358089957,,554997,,1513265625,570063616,'',1.2217304764,1.19135681362,-0.0197152002402,-0.0303736627776,0.001,130.606749944,4300.0,0.0,0.0,0.0
1513265627367788332,,554998,,1513265625,580063616,'',1.2217304764,1.19135681362,-0.0201442805687,-0.0303736627776,0.001,130.606749944,4300.0,0.0,0.0,0.0
1513265627377612021,,554999,,1513265625,590063616,'',1.2217304764,1.19274444288,0.00791298535746,-0.0289860335137,0.001,124.639944109,4300.0,0.0,0.0,0.0
1513265627388109200,,555000,,1513265625,600063616,'',1.2217304764,1.19274444288,0.00847946316047,-0.0289860335137,0.001,124.639944109,4300.0,0.0,0.0,0.0
1513265627398128262,,555001,,1513265625,610063616,'',1.2217304764,1.19274444288,0.00798090601656,-0.0289860335137,0.001,124.639944109,4300.0,0.0,0.0,0.0
1513265627408075039,,555002,,1513265625,620063616,'',1.2217304764,1.19135681362,-0.0204529375581,-0.0303736627776,0.001,130.606749944,4300.0,0.0,0.0,0.0
1513265627418004750,,555003,,1513265625,630063616,'',1.2217304764,1.19274444288,0.00620545741103,-0.0289860335137,0.001,124.639944109,4300.0,0.0,0.0,0.0
1513265627427692541,,555004,,1513265625,640063616,'',1.2217304764,1.19274444288,0.00504109258927,-0.0289860335137,0.001,124.639944109,4300.0,0.0,0.0,0.0
1513265627438072326,,555005,,1513265625,650063616,'',1.2217304764,1.19274444288,0.00556855663803,-0.0289860335137,0.001,124.639944109,4300.0,0.0,0.0,0.0
1513265627448094804,,555006,,1513265625,660063616,'',1.2217304764,1.19274444288,0.00504598787233,-0.0289860335137,0.001,124.639944109,4300.0,0.0,0.0,0.0
1513265627458039652,,555007,,1513265625,670063616,'',1.2217304764,1.19274444288,0.00565045181045,-0.0289860335137,0.001,124.639944109,4300.0,0.0,0.0,0.0
1513265627467965049,,555008,,1513265625,680063616,'',1.2217304764,1.19274444288,0.00561136554121,-0.0289860335137,0.001,124.639944109,4300.0,0.0,0.0,0.0
1513265627477996163,,555009,,1513265625,690063616,'',1.2217304764,1.19274444288,0.00566021546028,-0.0289860335137,0.001,124.639944109,4300.0,0.0,0.0,0.0
1513265627488014510,,555010,,1513265625,700063616,'',1.2217304764,1.19274444288,0.0046294649029,-0.0289860335137,0.001,124.639944109,4300.0,0.0,0.0,0.0
1513265627498060062,,555011,,1513265625,710063616,'',1.2217304764,1.19274444288,0.00432571295065,-0.0289860335137,0.001,124.639944109,4300.0,0.0,0.0,0.0
1513265627508005840,,555012,,1513265625,720063616,'',1.2217304764,1.19274444288,0.00451511614577,-0.0289860335137,0.001,124.639944109,4300.0,0.0,0.0,0.0
1513265627517909344,,555013,,1513265625,730063616,'',1.2217304764,1.19274444288,0.00472036922844,-0.0289860335137,0.001,124.639944109,4300.0,0.0,0.0,0.0
1513265627527959799,,555014,,1513265625,740063616,'',1.2217304764,1.19274444288,0.00440598290543,-0.0289860335137,0.001,124.639944109,4300.0,0.0,0.0,0.0
1513265627537981875,,555015,,1513265625,750063616,'',1.2217304764,1.19274444288,0.00456645882506,-0.0289860335137,0.001,124.639944109,4300.0,0.0,0.0,0.0
1513265627547961638,,555016,,1513265625,760063616,'',1.2217304764,1.19274444288,0.00475012959791,-0.0289860335137,0.001,124.639944109,4300.0,0.0,0.0,0.0
1513265627557939483,,555017,,1513265625,770063616,'',1.2217304764,1.19274444288,0.00487049424955,-0.0289860335137,0.001,124.639944109,4300.0,0.0,0.0,0.0
1513265627567804487,,555018,,1513265625,780063616,'',1.2217304764,1.19274444288,0.00398897445344,-0.0289860335137,0.001,124.639944109,4300.0,0.0,0.0,0.0
1513265627577724230,,555019,,1513265625,790063616,'',1.2217304764,1.19274444288,0.00326556967412,-0.0289860335137,0.001,124.639944109,4300.0,0.0,0.0,0.0
1513265627587797860,,555020,,1513265625,800063616,'',1.2217304764,1.19135681362,-0.0253503783593,-0.0303736627776,0.001,130.606749944,4300.0,0.0,0.0,0.0
1513265627597737827,,555021,,1513265625,810063616,'',1.2217304764,1.19274444288,0.00220067922178,-0.0289860335137,0.001,124.639944109,4300.0,0.0,0.0,0.0
1513265627608086804,,555022,,1513265625,820063616,'',1.2217304764,1.19274444288,0.0018015836935,-0.0289860335137,0.001,124.639944109,4300.0,0.0,0.0,0.0
1513265627618112842,,555023,,1513265625,830063616,'',1.2217304764,1.19135681362,-0.0240158397991,-0.0303736627776,0.001,130.606749944,4300.0,0.0,0.0,0.0
1513265627628013132,,555024,,1513265625,840063616,'',1.2217304764,1.19274444288,0.0037633669309,-0.0289860335137,0.001,124.639944109,4300.0,0.0,0.0,0.0
1513265627637964120,,555025,,1513265625,850063616,'',1.2217304764,1.19274444288,0.00415732171751,-0.0289860335137,0.001,124.639944109,4300.0,0.0,0.0,0.0
1513265627647945017,,555026,,1513265625,860063616,'',1.2217304764,1.19274444288,0.00537729405225,-0.0289860335137,0.001,124.639944109,4300.0,0.0,0.0,0.0
1513265627657950703,,555027,,1513265625,870063616,'',1.2217304764,1.19274444288,0.00440211603027,-0.0289860335137,0.001,124.639944109,4300.0,0.0,0.0,0.0
1513265627667893349,,555028,,1513265625,880063616,'',1.2217304764,1.19274444288,0.00520337234783,-0.0289860335137,0.001,124.639944109,4300.0,0.0,0.0,0.0
1513265627677891194,,555029,,1513265625,890063616,'',1.2217304764,1.19135681362,-0.0221733532419,-0.0303736627776,0.001,130.606749944,4300.0,0.0,0.0,0.0
1513265627687641433,,555030,,1513265625,900063616,'',1.2217304764,1.19274444288,0.00639596185774,-0.0289860335137,0.001,124.639944109,4300.0,0.0,0.0,0.0
1513265627697710823,,555031,,1513265625,910063616,'',1.2217304764,1.19274444288,0.00619619701494,-0.0289860335137,0.001,124.639944109,4300.0,0.0,0.0,0.0
1513265627708193419,,555032,,1513265625,920063616,'',1.2217304764,1.19274444288,0.00609682903664,-0.0289860335137,0.001,124.639944109,4300.0,0.0,0.0,0.0
1513265627718076823,,555033,,1513265625,930063616,'',1.2217304764,1.19274444288,0.00592441353333,-0.0289860335137,0.001,124.639944109,4300.0,0.0,0.0,0.0
1513265627728042646,,555034,,1513265625,940063616,'',1.2217304764,1.19135681362,-0.0216773155594,-0.0303736627776,0.001,130.606749944,4300.0,0.0,0.0,0.0
1513265627738118279,,555035,,1513265625,950063616,'',1.2217304764,1.19274444288,0.00616797916108,-0.0289860335137,0.001,124.639944109,4300.0,0.0,0.0,0.0
1513265627747916600,,555036,,1513265625,960063616,'',1.2217304764,1.19274444288,0.00504960217313,-0.0289860335137,0.001,124.639944109,4300.0,0.0,0.0,0.0
1513265627757861196,,555037,,1513265625,970063616,'',1.2217304764,1.19135681362,-0.0228331991026,-0.0303736627776,0.001,130.606749944,4300.0,0.0,0.0,0.0
1513265627767637686,,555038,,1513265625,980063616,'',1.2217304764,1.19274444288,0.0027550546622,-0.0289860335137,0.001,124.639944109,4300.0,0.0,0.0,0.0
1513265627778133970,,555039,,1513265625,990063616,'',1.2217304764,1.19413207215,0.0286866282078,-0.0275984042497,0.001,118.673138274,4300.0,0.0,0.0,0.0
1513265627787991446,,555040,,1513265626,63616,'',1.2217304764,1.19413207215,0.0275304980311,-0.0275984042497,0.001,118.673138274,4300.0,0.0,0.0,0.0
1513265627798033589,,555041,,1513265626,10063616,'',1.2217304764,1.19274444288,-0.00298803635909,-0.0289860335137,0.001,124.639944109,4300.0,0.0,0.0,0.0
1513265627807966076,,555042,,1513265626,20063616,'',1.2217304764,1.19413207215,0.0235877457947,-0.0275984042497,0.001,118.673138274,4300.0,0.0,0.0,0.0
1513265627817816594,,555043,,1513265626,30063616,'',1.2217304764,1.19274444288,-0.00463493767335,-0.0289860335137,0.001,124.639944109,4300.0,0.0,0.0,0.0
1513265627827844715,,555044,,1513265626,40063616,'',1.2217304764,1.19413207215,0.0221146725039,-0.0275984042497,0.001,118.673138274,4300.0,0.0,0.0,0.0
1513265627837753234,,555045,,1513265626,50063616,'',1.2217304764,1.19274444288,-0.0073221195517,-0.0289860335137,0.001,124.639944109,4300.0,0.0,0.0,0.0
1513265627847685858,,555046,,1513265626,60063616,'',1.2217304764,1.19274444288,-0.00754038294145,-0.0289860335137,0.001,124.639944109,4300.0,0.0,0.0,0.0
1513265627857720222,,555047,,1513265626,70063616,'',1.2217304764,1.19274444288,-0.0085966517193,-0.0289860335137,0.001,124.639944109,4300.0,0.0,0.0,0.0
1513265627867608255,,555048,,1513265626,80063616,'',1.2217304764,1.19274444288,-0.0105323899687,-0.0289860335137,0.001,124.639944109,4300.0,0.0,0.0,0.0
1513265627877620405,,555049,,1513265626,90063616,'',1.2217304764,1.19274444288,-0.0110995065391,-0.0289860335137,0.001,124.639944109,4300.0,0.0,0.0,0.0
1513265627888113000,,555050,,1513265626,100063616,'',1.2217304764,1.19413207215,0.0154141406772,-0.0275984042497,0.001,118.673138274,4300.0,0.0,0.0,0.0
1513265627898054557,,555051,,1513265626,110063616,'',1.2217304764,1.19413207215,0.0120562733632,-0.0275984042497,0.001,118.673138274,4300.0,0.0,0.0,0.0
1513265627908210342,,555052,,1513265626,120063616,'',1.2217304764,1.19413207215,0.0103899413532,-0.0275984042497,0.001,118.673138274,4300.0,0.0,0.0,0.0
1513265627918007010,,555053,,1513265626,130063616,'',1.2217304764,1.19551970141,0.0355203122517,-0.0262107749858,0.001,112.706332439,4300.0,0.0,0.0,0.0
1513265627927987318,,555054,,1513265626,140063616,'',1.2217304764,1.19413207215,0.00608737399868,-0.0275984042497,0.001,118.673138274,4300.0,0.0,0.0,0.0
1513265627937936484,,555055,,1513265626,150063616,'',1.2217304764,1.19551970141,0.0294477403618,-0.0262107749858,0.001,112.706332439,4300.0,0.0,0.0,0.0
1513265627947938600,,555056,,1513265626,160063616,'',1.2217304764,1.19551970141,0.0240556728843,-0.0262107749858,0.001,112.706332439,4300.0,0.0,0.0,0.0
1513265627957798704,,555057,,1513265626,170063616,'',1.2217304764,1.19413207215,-0.00727795991976,-0.0275984042497,0.001,118.673138274,4300.0,0.0,0.0,0.0
1513265627967715409,,555058,,1513265626,180063616,'',1.2217304764,1.19551970141,0.0165341283628,-0.0262107749858,0.001,112.706332439,4300.0,0.0,0.0,0.0
1513265627977662308,,555059,,1513265626,190063616,'',1.2217304764,1.19551970141,0.0145121351101,-0.0262107749858,0.001,112.706332439,4300.0,0.0,0.0,0.0
1513265627987757156,,555060,,1513265626,200063616,'',1.2217304764,1.19690733067,0.0393579781061,-0.0248231457218,0.001,106.739526604,4300.0,0.0,0.0,0.0
1513265627997922126,,555061,,1513265626,210063616,'',1.2217304764,1.19551970141,0.00774774485591,-0.0262107749858,0.001,112.706332439,4300.0,0.0,0.0,0.0
1513265628007717688,,555062,,1513265626,220063616,'',1.2217304764,1.19690733067,0.0323226460333,-0.0248231457218,0.001,106.739526604,4300.0,0.0,0.0,0.0
1513265628018116041,,555063,,1513265626,230063616,'',1.2217304764,1.19690733067,0.0288911056595,-0.0248231457218,0.001,106.739526604,4300.0,0.0,0.0,0.0
1513265628028087110,,555064,,1513265626,240063616,'',1.2217304764,1.19551970141,-0.00191166995472,-0.0262107749858,0.001,112.706332439,4300.0,0.0,0.0,0.0
1513265628037960531,,555065,,1513265626,250063616,'',1.2217304764,1.19690733067,0.0208777876034,-0.0248231457218,0.001,106.739526604,4300.0,0.0,0.0,0.0
1513265628047895387,,555066,,1513265626,260063616,'',1.2217304764,1.19690733067,0.0170919045129,-0.0248231457218,0.001,106.739526604,4300.0,0.0,0.0,0.0
1513265628057996033,,555067,,1513265626,270063616,'',1.2217304764,1.19690733067,0.0134662707359,-0.0248231457218,0.001,106.739526604,4300.0,0.0,0.0,0.0
1513265628067873257,,555068,,1513265626,280063616,'',1.2217304764,1.19829495994,0.0360419232361,-0.0234355164579,0.001,100.772720769,4300.0,0.0,0.0,0.0
1513265628077961622,,555069,,1513265626,290063616,'',1.2217304764,1.19829495994,0.028605201519,-0.0234355164579,0.001,100.772720769,4300.0,0.0,0.0,0.0
1513265628087859791,,555070,,1513265626,300063616,'',1.2217304764,1.1996825892,0.048374964277,-0.0220478871939,0.001,94.8059149339,4300.0,0.0,0.0,0.0
1513265628097796305,,555071,,1513265626,310063616,'',1.2217304764,1.20107021847,0.0680626792172,-0.02066025793,0.001,88.8391090989,4300.0,0.0,0.0,0.0
1513265628107614076,,555072,,1513265626,320063616,'',1.2217304764,1.20107021847,0.0597264729672,-0.02066025793,0.001,88.8391090989,4300.0,0.0,0.0,0.0
1513265628118003922,,555073,,1513265626,330063616,'',1.2217304764,1.1996825892,0.0238894627882,-0.0220478871939,0.001,94.8059149339,4300.0,0.0,0.0,0.0
1513265628128103953,,555074,,1513265626,340063616,'',1.2217304764,1.20107021847,0.0435063924206,-0.02066025793,0.001,88.8391090989,4300.0,0.0,0.0,0.0
1513265628138103499,,555075,,1513265626,350063616,'',1.2217304764,1.20107021847,0.0350730062714,-0.02066025793,0.001,88.8391090989,4300.0,0.0,0.0,0.0
1513265628148092921,,555076,,1513265626,360063616,'',1.2217304764,1.20107021847,0.0266801078421,-0.02066025793,0.001,88.8391090989,4300.0,0.0,0.0,0.0
1513265628158061620,,555077,,1513265626,370063616,'',1.2217304764,1.20107021847,0.0223923056083,-0.02066025793,0.001,88.8391090989,4300.0,0.0,0.0,0.0
1513265628167980243,,555078,,1513265626,380063616,'',1.2217304764,1.20245784773,0.0433834505223,-0.019272628666,0.001,82.8723032639,4300.0,0.0,0.0,0.0
1513265628178042244,,555079,,1513265626,390063616,'',1.2217304764,1.20384547699,0.063477179769,-0.0178849994021,0.001,76.9054974289,4300.0,0.0,0.0,0.0
1513265628187868706,,555080,,1513265626,400063616,'',1.2217304764,1.20384547699,0.0564848830127,-0.0178849994021,0.001,76.9054974289,4300.0,0.0,0.0,0.0
1513265628197916424,,555081,,1513265626,410063616,'',1.2217304764,1.20245784773,0.0218137038141,-0.019272628666,0.001,82.8723032639,4300.0,0.0,0.0,0.0
1513265628207822807,,555082,,1513265626,420063616,'',1.2217304764,1.20245784773,0.0153157293697,-0.019272628666,0.001,82.8723032639,4300.0,0.0,0.0,0.0
1513265628217889629,,555083,,1513265626,430063616,'',1.2217304764,1.20384547699,0.036476358916,-0.0178849994021,0.001,76.9054974289,4300.0,0.0,0.0,0.0
1513265628227868127,,555084,,1513265626,440063616,'',1.2217304764,1.20384547699,0.0303226789793,-0.0178849994021,0.001,76.9054974289,4300.0,0.0,0.0,0.0
1513265628237942888,,555085,,1513265626,450063616,'',1.2217304764,1.20384547699,0.0248365342434,-0.0178849994021,0.001,76.9054974289,4300.0,0.0,0.0,0.0
1513265628248068256,,555086,,1513265626,460063616,'',1.2217304764,1.20384547699,0.021342834575,-0.0178849994021,0.001,76.9054974289,4300.0,0.0,0.0,0.0
1513265628257949696,,555087,,1513265626,470063616,'',1.2217304764,1.20384547699,0.0169833061226,-0.0178849994021,0.001,76.9054974289,4300.0,0.0,0.0,0.0
1513265628267633734,,555088,,1513265626,480063616,'',1.2217304764,1.20523310626,0.041387982963,-0.0164973701381,0.001,70.9386915939,4300.0,0.0,0.0,0.0
1513265628277688885,,555089,,1513265626,490063616,'',1.2217304764,1.20384547699,0.00940015871722,-0.0178849994021,0.001,76.9054974289,4300.0,0.0,0.0,0.0
1513265628288177214,,555090,,1513265626,500063616,'',1.2217304764,1.20523310626,0.0346320603812,-0.0164973701381,0.001,70.9386915939,4300.0,0.0,0.0,0.0
1513265628298075071,,555091,,1513265626,510063616,'',1.2217304764,1.20523310626,0.0288228019151,-0.0164973701381,0.001,70.9386915939,4300.0,0.0,0.0,0.0
1513265628307656487,,555092,,1513265626,520063616,'',1.2217304764,1.20523310626,0.024667356232,-0.0164973701381,0.001,70.9386915939,4300.0,0.0,0.0,0.0
1513265628318101684,,555093,,1513265626,530063616,'',1.2217304764,1.20384547699,-0.00575046921189,-0.0178849994021,0.001,76.9054974289,4300.0,0.0,0.0,0.0
1513265628328054778,,555094,,1513265626,540063616,'',1.2217304764,1.20523310626,0.0182512141438,-0.0164973701381,0.001,70.9386915939,4300.0,0.0,0.0,0.0
1513265628338021290,,555095,,1513265626,550063616,'',1.2217304764,1.20523310626,0.0154417140278,-0.0164973701381,0.001,70.9386915939,4300.0,0.0,0.0,0.0
1513265628348088385,,555096,,1513265626,560063616,'',1.2217304764,1.20523310626,0.0126835745916,-0.0164973701381,0.001,70.9386915939,4300.0,0.0,0.0,0.0
1513265628358123070,,555097,,1513265626,570063616,'',1.2217304764,1.20523310626,0.00891458392104,-0.0164973701381,0.001,70.9386915939,4300.0,0.0,0.0,0.0
1513265628367919105,,555098,,1513265626,580063616,'',1.2217304764,1.20662073552,0.03183160652,-0.0151097408742,0.001,64.9718857589,4300.0,0.0,0.0,0.0
1513265628377880744,,555099,,1513265626,590063616,'',1.2217304764,1.20523310626,0.000560383360541,-0.0164973701381,0.001,70.9386915939,4300.0,0.0,0.0,0.0
1513265628387660213,,555100,,1513265626,600063616,'',1.2217304764,1.20523310626,-0.00208711768782,-0.0164973701381,0.001,70.9386915939,4300.0,0.0,0.0,0.0
1513265628397742382,,555101,,1513265626,610063616,'',1.2217304764,1.20662073552,0.0233264840695,-0.0151097408742,0.001,64.9718857589,4300.0,0.0,0.0,0.0
1513265628407739012,,555102,,1513265626,620063616,'',1.2217304764,1.20800836479,0.0475481713852,-0.0137221116102,0.001,59.0050799239,4300.0,0.0,0.0,0.0
1513265628417684181,,555103,,1513265626,630063616,'',1.2217304764,1.20662073552,0.0154477364306,-0.0151097408742,0.001,64.9718857589,4300.0,0.0,0.0,0.0
1513265628427644910,,555104,,1513265626,640063616,'',1.2217304764,1.20662073552,0.0111849669798,-0.0151097408742,0.001,64.9718857589,4300.0,0.0,0.0,0.0
1513265628438093802,,555105,,1513265626,650063616,'',1.2217304764,1.20662073552,0.00509630508081,-0.0151097408742,0.001,64.9718857589,4300.0,0.0,0.0,0.0
1513265628448167295,,555106,,1513265626,660063616,'',1.2217304764,1.20939599405,0.0525655864956,-0.0123344823462,0.001,53.0382740889,4300.0,0.0,0.0,0.0
1513265628458184842,,555107,,1513265626,670063616,'',1.2217304764,1.20939599405,0.0460346707255,-0.0123344823462,0.001,53.0382740889,4300.0,0.0,0.0,0.0
1513265628467991248,,555108,,1513265626,680063616,'',1.2217304764,1.20939599405,0.0381658209457,-0.0123344823462,0.001,53.0382740889,4300.0,0.0,0.0,0.0
1513265628477960906,,555109,,1513265626,690063616,'',1.2217304764,1.21078362331,0.0561847595942,-0.0109468530823,0.001,47.0714682539,4300.0,0.0,0.0,0.0
1513265628487992286,,555110,,1513265626,700063616,'',1.2217304764,1.20939599405,0.0190298139763,-0.0123344823462,0.001,53.0382740889,4300.0,0.0,0.0,0.0
1513265628497889086,,555111,,1513265626,710063616,'',1.2217304764,1.21078362331,0.0380270563817,-0.0109468530823,0.001,47.0714682539,4300.0,0.0,0.0,0.0
1513265628507811659,,555112,,1513265626,720063616,'',1.2217304764,1.21217125258,0.0561150997415,-0.00955922381834,0.001,41.1046624189,4300.0,0.0,0.0,0.0
1513265628517678134,,555113,,1513265626,730063616,'',1.2217304764,1.21217125258,0.0489242862049,-0.00955922381834,0.001,41.1046624189,4300.0,0.0,0.0,0.0
1513265628528178013,,555114,,1513265626,740063616,'',1.2217304764,1.21217125258,0.0415611432598,-0.00955922381834,0.001,41.1046624189,4300.0,0.0,0.0,0.0
1513265628538135560,,555115,,1513265626,750063616,'',1.2217304764,1.21217125258,0.0345302190856,-0.00955922381834,0.001,41.1046624189,4300.0,0.0,0.0,0.0
1513265628547986683,,555116,,1513265626,760063616,'',1.2217304764,1.21217125258,0.0278065321015,-0.00955922381834,0.001,41.1046624189,4300.0,0.0,0.0,0.0
1513265628557895453,,555117,,1513265626,770063616,'',1.2217304764,1.21217125258,0.0222322602342,-0.00955922381834,0.001,41.1046624189,4300.0,0.0,0.0,0.0
1513265628567836233,,555118,,1513265626,780063616,'',1.2217304764,1.21217125258,0.0176947716598,-0.00955922381834,0.001,41.1046624189,4300.0,0.0,0.0,0.0
1513265628577712994,,555119,,1513265626,790063616,'',1.2217304764,1.21217125258,0.0139395889247,-0.00955922381834,0.001,41.1046624189,4300.0,0.0,0.0,0.0
1513265628587983662,,555120,,1513265626,800063616,'',1.2217304764,1.21355888184,0.0378821746866,-0.00817159455439,0.001,35.1378565839,4300.0,0.0,0.0,0.0
1513265628598011912,,555121,,1513265626,810063616,'',1.2217304764,1.21217125258,0.00655325734662,-0.00955922381834,0.001,41.1046624189,4300.0,0.0,0.0,0.0
1513265628607809332,,555122,,1513265626,820063616,'',1.2217304764,1.21217125258,0.00336897286521,-0.00955922381834,0.001,41.1046624189,4300.0,0.0,0.0,0.0
1513265628617947327,,555123,,1513265626,830063616,'',1.2217304764,1.21355888184,0.0277287190177,-0.00817159455439,0.001,35.1378565839,4300.0,0.0,0.0,0.0
1513265628627657515,,555124,,1513265626,840063616,'',1.2217304764,1.21217125258,-0.00270160719977,-0.00955922381834,0.001,41.1046624189,4300.0,0.0,0.0,0.0
1513265628638154452,,555125,,1513265626,850063616,'',1.2217304764,1.21217125258,-0.00515081491345,-0.00955922381834,0.001,41.1046624189,4300.0,0.0,0.0,0.0
1513265628647984175,,555126,,1513265626,860063616,'',1.2217304764,1.21355888184,0.017683612912,-0.00817159455439,0.001,35.1378565839,4300.0,0.0,0.0,0.0
1513265628657974441,,555127,,1513265626,870063616,'',1.2217304764,1.21355888184,0.0149357746575,-0.00817159455439,0.001,35.1378565839,4300.0,0.0,0.0,0.0
1513265628667819863,,555128,,1513265626,880063616,'',1.2217304764,1.21494651111,0.0371841739428,-0.00678396529044,0.001,29.1710507489,4300.0,0.0,0.0,0.0
1513265628677856342,,555129,,1513265626,890063616,'',1.2217304764,1.21494651111,0.0309141180556,-0.00678396529044,0.001,29.1710507489,4300.0,0.0,0.0,0.0
1513265628687823043,,555130,,1513265626,900063616,'',1.2217304764,1.21494651111,0.0258176097082,-0.00678396529044,0.001,29.1710507489,4300.0,0.0,0.0,0.0
1513265628697805890,,555131,,1513265626,910063616,'',1.2217304764,1.21494651111,0.0211129647457,-0.00678396529044,0.001,29.1710507489,4300.0,0.0,0.0,0.0
1513265628707769095,,555132,,1513265626,920063616,'',1.2217304764,1.21494651111,0.0157647436722,-0.00678396529044,0.001,29.1710507489,4300.0,0.0,0.0,0.0
1513265628717830226,,555133,,1513265626,930063616,'',1.2217304764,1.21633414037,0.0373561697171,-0.00539633602648,0.001,23.2042449139,4300.0,0.0,0.0,0.0
1513265628727848226,,555134,,1513265626,940063616,'',1.2217304764,1.21633414037,0.0315850388135,-0.00539633602648,0.001,23.2042449139,4300.0,0.0,0.0,0.0
1513265628737890281,,555135,,1513265626,950063616,'',1.2217304764,1.21633414037,0.0262944727987,-0.00539633602648,0.001,23.2042449139,4300.0,0.0,0.0,0.0
1513265628747711695,,555136,,1513265626,960063616,'',1.2217304764,1.21633414037,0.0190620480849,-0.00539633602648,0.001,23.2042449139,4300.0,0.0,0.0,0.0
1513265628758283793,,555137,,1513265626,970063616,'',1.2217304764,1.21772176963,0.0416210083455,-0.00400870676253,0.001,17.2374390789,4300.0,0.0,0.0,0.0
1513265628767807825,,555138,,1513265626,980063616,'',1.2217304764,1.21772176963,0.0355958900746,-0.00400870676253,0.001,17.2374390789,4300.0,0.0,0.0,0.0
1513265628777704369,,555139,,1513265626,990063616,'',1.2217304764,1.21772176963,0.0300918980175,-0.00400870676253,0.001,17.2374390789,4300.0,0.0,0.0,0.0
1513265628787629251,,555140,,1513265627,63616,'',1.2217304764,1.21772176963,0.0256525735794,-0.00400870676253,0.001,17.2374390789,4300.0,0.0,0.0,0.0
1513265628797790760,,555141,,1513265627,10063616,'',1.2217304764,1.21772176963,0.0225150367931,-0.00400870676253,0.001,17.2374390789,4300.0,0.0,0.0,0.0
1513265628808131861,,555142,,1513265627,20063616,'',1.2217304764,1.21772176963,0.0179240368589,-0.00400870676253,0.001,17.2374390789,4300.0,0.0,0.0,0.0
1513265628818146985,,555143,,1513265627,30063616,'',1.2217304764,1.21772176963,0.0146240290984,-0.00400870676253,0.001,17.2374390789,4300.0,0.0,0.0,0.0
1513265628828097644,,555144,,1513265627,40063616,'',1.2217304764,1.2191093989,0.0378833539935,-0.00262107749858,0.001,11.2706332439,4300.0,0.0,0.0,0.0
1513265628837994162,,555145,,1513265627,50063616,'',1.2217304764,1.2191093989,0.0320294187075,-0.00262107749858,0.001,11.2706332439,4300.0,0.0,0.0,0.0
1513265628847963268,,555146,,1513265627,60063616,'',1.2217304764,1.2191093989,0.0237118125449,-0.00262107749858,0.001,11.2706332439,4300.0,0.0,0.0,0.0
1513265628858057671,,555147,,1513265627,70063616,'',1.2217304764,1.2191093989,0.0179940464974,-0.00262107749858,0.001,11.2706332439,4300.0,0.0,0.0,0.0
1513265628867820988,,555148,,1513265627,80063616,'',1.2217304764,1.2191093989,0.0132699235202,-0.00262107749858,0.001,11.2706332439,4300.0,0.0,0.0,0.0
1513265628878135166,,555149,,1513265627,90063616,'',1.2217304764,1.22049702816,0.0373115190217,-0.00123344823463,0.001,5.30382740889,4300.0,0.0,0.0,0.0
1513265628888098039,,555150,,1513265627,100063616,'',1.2217304764,1.2191093989,0.0065576591253,-0.00262107749858,0.001,11.2706332439,4300.0,0.0,0.0,0.0
1513265628897956967,,555151,,1513265627,110063616,'',1.2217304764,1.2191093989,0.00487128669052,-0.00262107749858,0.001,11.2706332439,4300.0,0.0,0.0,0.0
1513265628907971152,,555152,,1513265627,120063616,'',1.2217304764,1.2191093989,0.0034986439165,-0.00262107749858,0.001,11.2706332439,4300.0,0.0,0.0,0.0
1513265628917766331,,555153,,1513265627,130063616,'',1.2217304764,1.2191093989,0.00184502026638,-0.00262107749858,0.001,11.2706332439,4300.0,0.0,0.0,0.0
1513265628927733377,,555154,,1513265627,140063616,'',1.2217304764,1.22049702816,0.0289868785239,-0.00123344823463,0.001,5.30382740889,4300.0,0.0,0.0,0.0
1513265628937795202,,555155,,1513265627,150063616,'',1.2217304764,1.22049702816,0.0272042853588,-0.00123344823463,0.001,5.30382740889,4300.0,0.0,0.0,0.0
1513265628947821893,,555156,,1513265627,160063616,'',1.2217304764,1.22049702816,0.0222018470892,-0.00123344823463,0.001,5.30382740889,4300.0,0.0,0.0,0.0
1513265628957651553,,555157,,1513265627,170063616,'',1.2217304764,1.22188465743,0.0431202229596,0.0,0.001,0.0,4300.0,0.0,0.0,0.0
1513265628968165116,,555158,,1513265627,180063616,'',1.2217304764,1.22188465743,0.0322793743415,0.0,0.001,0.0,4300.0,0.0,0.0,0.0
1513265628978094638,,555159,,1513265627,190063616,'',1.2217304764,1.22188465743,0.0264360867172,0.0,0.001,0.0,4300.0,0.0,0.0,0.0
1513265628987980067,,555160,,1513265627,200063616,'',1.2217304764,1.22188465743,0.0216806097345,0.0,0.001,0.0,4300.0,0.0,0.0,0.0
1513265628998070650,,555161,,1513265627,210063616,'',1.2217304764,1.22327228669,0.0467341417055,0.0,0.001,0.0,4300.0,0.0,0.0,0.0
1513265629008077389,,555162,,1513265627,220063616,'',1.2217304764,1.22327228669,0.0432456639928,0.0,0.001,0.0,4300.0,0.0,0.0,0.0
1513265629017861649,,555163,,1513265627,230063616,'',1.2217304764,1.22327228669,0.0342360832035,0.0,0.001,0.0,4300.0,0.0,0.0,0.0
1513265629027784665,,555164,,1513265627,240063616,'',1.2217304764,1.22882280375,0.126752607402,0.0,0.001,0.0,4300.0,0.0,0.0,0.0
1513265629037648535,,555165,,1513265627,250063616,'',1.2217304764,1.2343733208,0.209055349706,0.0,0.001,0.0,4300.0,0.0,0.0,0.0
1513265629048156612,,555166,,1513265627,260063616,'',1.2217304764,1.2343733208,0.17809302419,0.0,0.001,0.0,4300.0,0.0,0.0,0.0
1513265629057900140,,555167,,1513265627,270063616,'',1.2217304764,1.2343733208,0.146731098396,0.0,0.001,0.0,4300.0,0.0,0.0,0.0
1513265629067926433,,555168,,1513265627,280063616,'',1.2217304764,1.2343733208,0.120575682652,0.0,0.001,0.0,4300.0,0.0,0.0,0.0
1513265629078069640,,555169,,1513265627,290063616,'',1.2217304764,1.2343733208,0.0981571806534,0.0126428444049,0.001,-54.3642309411,4300.0,0.0,0.0,0.0
1513265629087881317,,555170,,1513265627,300063616,'',1.2217304764,1.2343733208,0.0799175292487,0.0126428444049,0.001,-54.3642309411,4300.0,0.0,0.0,0.0
1513265629097840494,,555171,,1513265627,310063616,'',1.2217304764,1.2343733208,0.0664661323805,0.0126428444049,0.001,-54.3642309411,4300.0,0.0,0.0,0.0
1513265629107693632,,555172,,1513265627,320063616,'',1.2217304764,1.2343733208,0.0544124282547,0.0126428444049,0.001,-54.3642309411,4300.0,0.0,0.0,0.0
1513265629117704592,,555173,,1513265627,330063616,'',1.2217304764,1.2343733208,0.0445652843568,0.0126428444049,0.001,-54.3642309411,4300.0,0.0,0.0,0.0
1513265629128235467,,555174,,1513265627,340063616,'',1.2217304764,1.23714857933,0.0838345763647,0.0154181029328,0.001,-66.2978426111,4300.0,0.0,0.0,0.0
1513265629138035506,,555175,,1513265627,350063616,'',1.2217304764,1.23992383786,0.119474418904,0.0181933614607,0.001,-78.2314542811,4300.0,0.0,0.0,0.0
1513265629148070092,,555176,,1513265627,360063616,'',1.2217304764,1.23992383786,0.0992885542251,0.0181933614607,0.001,-78.2314542811,4300.0,0.0,0.0,0.0
1513265629158001749,,555177,,1513265627,370063616,'',1.2217304764,1.24131146712,0.108704734333,0.0195809907247,0.001,-84.1982601161,4300.0,0.0,0.0,0.0
1513265629167975260,,555178,,1513265627,380063616,'',1.2217304764,1.23992383786,0.0644813003142,0.0181933614607,0.001,-78.2314542811,4300.0,0.0,0.0,0.0
1513265629177955426,,555179,,1513265627,390063616,'',1.2217304764,1.24131146712,0.0767841653133,0.0195809907247,0.001,-84.1982601161,4300.0,0.0,0.0,0.0
1513265629187939953,,555180,,1513265627,400063616,'',1.2217304764,1.24131146712,0.0643123499083,0.0195809907247,0.001,-84.1982601161,4300.0,0.0,0.0,0.0
1513265629197800913,,555181,,1513265627,410063616,'',1.2217304764,1.24269909638,0.0790034805663,0.0209686199886,0.001,-90.1650659511,4300.0,0.0,0.0,0.0
1513265629207672380,,555182,,1513265627,420063616,'',1.2217304764,1.24131146712,0.0397314101149,0.0195809907247,0.001,-84.1982601161,4300.0,0.0,0.0,0.0
1513265629217661317,,555183,,1513265627,430063616,'',1.2217304764,1.24269909638,0.0569472098931,0.0209686199886,0.001,-90.1650659511,4300.0,0.0,0.0,0.0
1513265629228138259,,555184,,1513265627,440063616,'',1.2217304764,1.24131146712,0.0216238941485,0.0195809907247,0.001,-84.1982601161,4300.0,0.0,0.0,0.0
1513265629238041279,,555185,,1513265627,450063616,'',1.2217304764,1.24269909638,0.0441353773466,0.0209686199886,0.001,-90.1650659511,4300.0,0.0,0.0,0.0
1513265629247972128,,555186,,1513265627,460063616,'',1.2217304764,1.24269909638,0.0381910644856,0.0209686199886,0.001,-90.1650659511,4300.0,0.0,0.0,0.0
1513265629258005224,,555187,,1513265627,470063616,'',1.2217304764,1.24269909638,0.0318028838339,0.0209686199886,0.001,-90.1650659511,4300.0,0.0,0.0,0.0
1513265629267938995,,555188,,1513265627,480063616,'',1.2217304764,1.24269909638,0.0270117485339,0.0209686199886,0.001,-90.1650659511,4300.0,0.0,0.0,0.0
1513265629277911644,,555189,,1513265627,490063616,'',1.2217304764,1.24131146712,-0.00431511690728,0.0195809907247,0.001,-84.1982601161,4300.0,0.0,0.0,0.0
1513265629287956834,,555190,,1513265627,500063616,'',1.2217304764,1.24269909638,0.0198624487928,0.0209686199886,0.001,-90.1650659511,4300.0,0.0,0.0,0.0
1513265629297866453,,555191,,1513265627,510063616,'',1.2217304764,1.24408672565,0.044778834659,0.0223562492526,0.001,-96.1318717861,4300.0,0.0,0.0,0.0
1513265629307746163,,555192,,1513265627,520063616,'',1.2217304764,1.24131146712,-0.0158709957555,0.0195809907247,0.001,-84.1982601161,4300.0,0.0,0.0,0.0
1513265629317764859,,555193,,1513265627,530063616,'',1.2217304764,1.24269909638,0.00848848011237,0.0209686199886,0.001,-90.1650659511,4300.0,0.0,0.0,0.0
1513265629327775642,,555194,,1513265627,540063616,'',1.2217304764,1.24131146712,-0.0215524740313,0.0195809907247,0.001,-84.1982601161,4300.0,0.0,0.0,0.0
1513265629337734071,,555195,,1513265627,550063616,'',1.2217304764,1.24408672565,0.0327801565873,0.0223562492526,0.001,-96.1318717861,4300.0,0.0,0.0,0.0
1513265629348138659,,555196,,1513265627,560063616,'',1.2217304764,1.24269909638,0.00284495374502,0.0209686199886,0.001,-90.1650659511,4300.0,0.0,0.0,0.0
1513265629357951505,,555197,,1513265627,570063616,'',1.2217304764,1.24269909638,0.00327431268291,0.0209686199886,0.001,-90.1650659511,4300.0,0.0,0.0,0.0
1513265629368283723,,555198,,1513265627,580063616,'',1.2217304764,1.24269909638,0.00119268158004,0.0209686199886,0.001,-90.1650659511,4300.0,0.0,0.0,0.0
1513265629378164038,,555199,,1513265627,590063616,'',1.2217304764,1.24269909638,0.000939632229617,0.0209686199886,0.001,-90.1650659511,4300.0,0.0,0.0,0.0
1513265629387943622,,555200,,1513265627,600063616,'',1.2217304764,1.24408672565,0.027254252447,0.0223562492526,0.001,-96.1318717861,4300.0,0.0,0.0,0.0
1513265629397854740,,555201,,1513265627,610063616,'',1.2217304764,1.24269909638,-0.000639101265238,0.0209686199886,0.001,-90.1650659511,4300.0,0.0,0.0,0.0
1513265629408066616,,555202,,1513265627,620063616,'',1.2217304764,1.24269909638,-0.00205279216948,0.0209686199886,0.001,-90.1650659511,4300.0,0.0,0.0,0.0
1513265629417924028,,555203,,1513265627,630063616,'',1.2217304764,1.24269909638,-0.0016812535038,0.0209686199886,0.001,-90.1650659511,4300.0,0.0,0.0,0.0
1513265629427849680,,555204,,1513265627,640063616,'',1.2217304764,1.24269909638,-0.00238531182182,0.0209686199886,0.001,-90.1650659511,4300.0,0.0,0.0,0.0
1513265629437782580,,555205,,1513265627,650063616,'',1.2217304764,1.24269909638,-0.00288750176258,0.0209686199886,0.001,-90.1650659511,4300.0,0.0,0.0,0.0
1513265629447930651,,555206,,1513265627,660063616,'',1.2217304764,1.24269909638,-0.0033728955135,0.0209686199886,0.001,-90.1650659511,4300.0,0.0,0.0,0.0
1513265629457934143,,555207,,1513265627,670063616,'',1.2217304764,1.24269909638,-0.00525568140173,0.0209686199886,0.001,-90.1650659511,4300.0,0.0,0.0,0.0
1513265629467811661,,555208,,1513265627,680063616,'',1.2217304764,1.24269909638,-0.00433712483679,0.0209686199886,0.001,-90.1650659511,4300.0,0.0,0.0,0.0
1513265629477919746,,555209,,1513265627,690063616,'',1.2217304764,1.24269909638,-0.00408126344477,0.0209686199886,0.001,-90.1650659511,4300.0,0.0,0.0,0.0
1513265629487814725,,555210,,1513265627,700063616,'',1.2217304764,1.24269909638,-0.00338014362234,0.0209686199886,0.001,-90.1650659511,4300.0,0.0,0.0,0.0
1513265629498226896,,555211,,1513265627,710063616,'',1.2217304764,1.24269909638,-0.00432749522573,0.0209686199886,0.001,-90.1650659511,4300.0,0.0,0.0,0.0
1513265629508109531,,555212,,1513265627,720063616,'',1.2217304764,1.24269909638,-0.00557476543575,0.0209686199886,0.001,-90.1650659511,4300.0,0.0,0.0,0.0
1513265629517942071,,555213,,1513265627,730063616,'',1.2217304764,1.24269909638,-0.00456623551096,0.0209686199886,0.001,-90.1650659511,4300.0,0.0,0.0,0.0
1513265629527861334,,555214,,1513265627,740063616,'',1.2217304764,1.24408672565,0.022799329796,0.0223562492526,0.001,-96.1318717861,4300.0,0.0,0.0,0.0
1513265629537839078,,555215,,1513265627,750063616,'',1.2217304764,1.24408672565,0.0237139589014,0.0223562492526,0.001,-96.1318717861,4300.0,0.0,0.0,0.0
1513265629547724798,,555216,,1513265627,760063616,'',1.2217304764,1.24269909638,-0.0019914809111,0.0209686199886,0.001,-90.1650659511,4300.0,0.0,0.0,0.0
1513265629557656716,,555217,,1513265627,770063616,'',1.2217304764,1.24269909638,-0.00214974031484,0.0209686199886,0.001,-90.1650659511,4300.0,0.0,0.0,0.0
1513265629568134845,,555218,,1513265627,780063616,'',1.2217304764,1.24269909638,-0.00175988261176,0.0209686199886,0.001,-90.1650659511,4300.0,0.0,0.0,0.0
1513265629578132401,,555219,,1513265627,790063616,'',1.2217304764,1.24269909638,-0.000936721107767,0.0209686199886,0.001,-90.1650659511,4300.0,0.0,0.0,0.0
1513265629588124411,,555220,,1513265627,800063616,'',1.2217304764,1.24269909638,0.00133570602249,0.0209686199886,0.001,-90.1650659511,4300.0,0.0,0.0,0.0
1513265629597923412,,555221,,1513265627,810063616,'',1.2217304764,1.24269909638,0.00203344336183,0.0209686199886,0.001,-90.1650659511,4300.0,0.0,0.0,0.0
1513265629608002966,,555222,,1513265627,820063616,'',1.2217304764,1.24269909638,0.00262595967328,0.0209686199886,0.001,-90.1650659511,4300.0,0.0,0.0,0.0
1513265629617929503,,555223,,1513265627,830063616,'',1.2217304764,1.24269909638,0.00320330342983,0.0209686199886,0.001,-90.1650659511,4300.0,0.0,0.0,0.0
1513265629627880662,,555224,,1513265627,840063616,'',1.2217304764,1.24131146712,-0.0238554437317,0.0195809907247,0.001,-84.1982601161,4300.0,0.0,0.0,0.0
1513265629638130267,,555225,,1513265627,850063616,'',1.2217304764,1.24269909638,0.0039317211682,0.0209686199886,0.001,-90.1650659511,4300.0,0.0,0.0,0.0
1513265629648166710,,555226,,1513265627,860063616,'',1.2217304764,1.24269909638,0.00625926573818,0.0209686199886,0.001,-90.1650659511,4300.0,0.0,0.0,0.0
1513265629658197238,,555227,,1513265627,870063616,'',1.2217304764,1.24269909638,0.00613804760228,0.0209686199886,0.001,-90.1650659511,4300.0,0.0,0.0,0.0
1513265629667987360,,555228,,1513265627,880063616,'',1.2217304764,1.24131146712,-0.0209863072148,0.0195809907247,0.001,-84.1982601161,4300.0,0.0,0.0,0.0
1513265629678012198,,555229,,1513265627,890063616,'',1.2217304764,1.24269909638,0.00828083616485,0.0209686199886,0.001,-90.1650659511,4300.0,0.0,0.0,0.0
1513265629687951129,,555230,,1513265627,900063616,'',1.2217304764,1.24269909638,0.00983701878192,0.0209686199886,0.001,-90.1650659511,4300.0,0.0,0.0,0.0
1513265629698210993,,555231,,1513265627,910063616,'',1.2217304764,1.24131146712,-0.0164631474886,0.0195809907247,0.001,-84.1982601161,4300.0,0.0,0.0,0.0
1513265629708111951,,555232,,1513265627,920063616,'',1.2217304764,1.24269909638,0.0125191535506,0.0209686199886,0.001,-90.1650659511,4300.0,0.0,0.0,0.0
1513265629717952210,,555233,,1513265627,930063616,'',1.2217304764,1.24131146712,-0.012702434247,0.0195809907247,0.001,-84.1982601161,4300.0,0.0,0.0,0.0
1513265629727958070,,555234,,1513265627,940063616,'',1.2217304764,1.24131146712,-0.0107756301345,0.0195809907247,0.001,-84.1982601161,4300.0,0.0,0.0,0.0
1513265629737955323,,555235,,1513265627,950063616,'',1.2217304764,1.24131146712,-0.0097512640485,0.0195809907247,0.001,-84.1982601161,4300.0,0.0,0.0,0.0
1513265629747879956,,555236,,1513265627,960063616,'',1.2217304764,1.24269909638,0.0174552451892,0.0209686199886,0.001,-90.1650659511,4300.0,0.0,0.0,0.0
1513265629757731125,,555237,,1513265627,970063616,'',1.2217304764,1.24131146712,-0.00874630738823,0.0195809907247,0.001,-84.1982601161,4300.0,0.0,0.0,0.0
1513265629767672811,,555238,,1513265627,980063616,'',1.2217304764,1.24269909638,0.0212575947657,0.0209686199886,0.001,-90.1650659511,4300.0,0.0,0.0,0.0
1513265629778216983,,555239,,1513265627,990063616,'',1.2217304764,1.24131146712,-0.00501624274376,0.0195809907247,0.001,-84.1982601161,4300.0,0.0,0.0,0.0
1513265629788053681,,555240,,1513265628,63616,'',1.2217304764,1.24269909638,0.0254864833213,0.0209686199886,0.001,-90.1650659511,4300.0,0.0,0.0,0.0
1513265629797972138,,555241,,1513265628,10063616,'',1.2217304764,1.24131146712,-0.00103447870179,0.0195809907247,0.001,-84.1982601161,4300.0,0.0,0.0,0.0
1513265629807938534,,555242,,1513265628,20063616,'',1.2217304764,1.23992383786,-0.0247962540446,0.0181933614607,0.001,-78.2314542811,4300.0,0.0,0.0,0.0
1513265629818023725,,555243,,1513265628,30063616,'',1.2217304764,1.24269909638,0.033672919477,0.0209686199886,0.001,-90.1650659511,4300.0,0.0,0.0,0.0
1513265629827791343,,555244,,1513265628,40063616,'',1.2217304764,1.23992383786,-0.0202412960861,0.0181933614607,0.001,-78.2314542811,4300.0,0.0,0.0,0.0
1513265629837902567,,555245,,1513265628,50063616,'',1.2217304764,1.24269909638,0.0353512481295,0.0209686199886,0.001,-90.1650659511,4300.0,0.0,0.0,0.0
1513265629848067558,,555246,,1513265628,60063616,'',1.2217304764,1.23992383786,-0.0200044914426,0.0181933614607,0.001,-78.2314542811,4300.0,0.0,0.0,0.0
1513265629857950952,,555247,,1513265628,70063616,'',1.2217304764,1.23992383786,-0.0184446012074,0.0181933614607,0.001,-78.2314542811,4300.0,0.0,0.0,0.0
1513265629867881339,,555248,,1513265628,80063616,'',1.2217304764,1.23992383786,-0.0155685152294,0.0181933614607,0.001,-78.2314542811,4300.0,0.0,0.0,0.0
1513265629877833270,,555249,,1513265628,90063616,'',1.2217304764,1.23992383786,-0.015849864936,0.0181933614607,0.001,-78.2314542811,4300.0,0.0,0.0,0.0
1513265629887711611,,555250,,1513265628,100063616,'',1.2217304764,1.24131146712,0.0129281364562,0.0195809907247,0.001,-84.1982601161,4300.0,0.0,0.0,0.0
1513265629898251411,,555251,,1513265628,110063616,'',1.2217304764,1.24131146712,0.0135893243384,0.0195809907247,0.001,-84.1982601161,4300.0,0.0,0.0,0.0
1513265629908197839,,555252,,1513265628,120063616,'',1.2217304764,1.23992383786,-0.0133492053385,0.0181933614607,0.001,-78.2314542811,4300.0,0.0,0.0,0.0
1513265629918077405,,555253,,1513265628,130063616,'',1.2217304764,1.23992383786,-0.0144480559146,0.0181933614607,0.001,-78.2314542811,4300.0,0.0,0.0,0.0
1513265629927967122,,555254,,1513265628,140063616,'',1.2217304764,1.24131146712,0.0145655940599,0.0195809907247,0.001,-84.1982601161,4300.0,0.0,0.0,0.0
1513265629937985073,,555255,,1513265628,150063616,'',1.2217304764,1.23992383786,-0.0124815084205,0.0181933614607,0.001,-78.2314542811,4300.0,0.0,0.0,0.0
1513265629947902025,,555256,,1513265628,160063616,'',1.2217304764,1.23992383786,-0.0117202205813,0.0181933614607,0.001,-78.2314542811,4300.0,0.0,0.0,0.0
1513265629957836900,,555257,,1513265628,170063616,'',1.2217304764,1.24131146712,0.0168720878158,0.0195809907247,0.001,-84.1982601161,4300.0,0.0,0.0,0.0
1513265629967838060,,555258,,1513265628,180063616,'',1.2217304764,1.23992383786,-0.0111447809073,0.0181933614607,0.001,-78.2314542811,4300.0,0.0,0.0,0.0
1513265629977768876,,555259,,1513265628,190063616,'',1.2217304764,1.23992383786,-0.0111746836773,0.0181933614607,0.001,-78.2314542811,4300.0,0.0,0.0,0.0
1513265629987696412,,555260,,1513265628,200063616,'',1.2217304764,1.24131146712,0.0173356479389,0.0195809907247,0.001,-84.1982601161,4300.0,0.0,0.0,0.0
1513265629997676723,,555261,,1513265628,210063616,'',1.2217304764,1.23992383786,-0.0097076074297,0.0181933614607,0.001,-78.2314542811,4300.0,0.0,0.0,0.0
1513265630007657982,,555262,,1513265628,220063616,'',1.2217304764,1.23992383786,-0.00945060726784,0.0181933614607,0.001,-78.2314542811,4300.0,0.0,0.0,0.0
1513265630018174120,,555263,,1513265628,230063616,'',1.2217304764,1.24131146712,0.0187444906663,0.0195809907247,0.001,-84.1982601161,4300.0,0.0,0.0,0.0
1513265630028008852,,555264,,1513265628,240063616,'',1.2217304764,1.23992383786,-0.00913050648685,0.0181933614607,0.001,-78.2314542811,4300.0,0.0,0.0,0.0
1513265630037972017,,555265,,1513265628,250063616,'',1.2217304764,1.24131146712,0.0204805375495,0.0195809907247,0.001,-84.1982601161,4300.0,0.0,0.0,0.0
1513265630047969483,,555266,,1513265628,260063616,'',1.2217304764,1.23992383786,-0.00764960473391,0.0181933614607,0.001,-78.2314542811,4300.0,0.0,0.0,0.0
1513265630057834825,,555267,,1513265628,270063616,'',1.2217304764,1.23992383786,-0.00680604726541,0.0181933614607,0.001,-78.2314542811,4300.0,0.0,0.0,0.0
1513265630067752101,,555268,,1513265628,280063616,'',1.2217304764,1.23992383786,-0.00604088298479,0.0181933614607,0.001,-78.2314542811,4300.0,0.0,0.0,0.0
1513265630077817396,,555269,,1513265628,290063616,'',1.2217304764,1.23992383786,-0.00445519827055,0.0181933614607,0.001,-78.2314542811,4300.0,0.0,0.0,0.0
1513265630087776827,,555270,,1513265628,300063616,'',1.2217304764,1.23992383786,-0.00263790664839,0.0181933614607,0.001,-78.2314542811,4300.0,0.0,0.0,0.0
1513265630097853138,,555271,,1513265628,310063616,'',1.2217304764,1.23992383786,-0.00122038707307,0.0181933614607,0.001,-78.2314542811,4300.0,0.0,0.0,0.0
1513265630107736941,,555272,,1513265628,320063616,'',1.2217304764,1.23992383786,-0.000531230488203,0.0181933614607,0.001,-78.2314542811,4300.0,0.0,0.0,0.0
1513265630117812845,,555273,,1513265628,330063616,'',1.2217304764,1.23992383786,6.00043556702e-05,0.0181933614607,0.001,-78.2314542811,4300.0,0.0,0.0,0.0
1513265630128119935,,555274,,1513265628,340063616,'',1.2217304764,1.23992383786,0.00105384830647,0.0181933614607,0.001,-78.2314542811,4300.0,0.0,0.0,0.0
1513265630138031632,,555275,,1513265628,350063616,'',1.2217304764,1.23853620859,-0.0256396966001,0.0168057321968,0.001,-72.2646484461,4300.0,0.0,0.0,0.0
1513265630147958799,,555276,,1513265628,360063616,'',1.2217304764,1.23992383786,0.00489026365278,0.0181933614607,0.001,-78.2314542811,4300.0,0.0,0.0,0.0
1513265630157823585,,555277,,1513265628,370063616,'',1.2217304764,1.23853620859,-0.0214790948821,0.0168057321968,0.001,-72.2646484461,4300.0,0.0,0.0,0.0
1513265630167827212,,555278,,1513265628,380063616,'',1.2217304764,1.23992383786,0.0053411366944,0.0181933614607,0.001,-78.2314542811,4300.0,0.0,0.0,0.0
1513265630177708387,,555279,,1513265628,390063616,'',1.2217304764,1.23992383786,0.00737975222383,0.0181933614607,0.001,-78.2314542811,4300.0,0.0,0.0,0.0
1513265630188146372,,555280,,1513265628,400063616,'',1.2217304764,1.23992383786,0.00707531962457,0.0181933614607,0.001,-78.2314542811,4300.0,0.0,0.0,0.0
1513265630198003127,,555281,,1513265628,410063616,'',1.2217304764,1.23992383786,0.00681213286205,0.0181933614607,0.001,-78.2314542811,4300.0,0.0,0.0,0.0
1513265630208051052,,555282,,1513265628,420063616,'',1.2217304764,1.23992383786,0.00609741217671,0.0181933614607,0.001,-78.2314542811,4300.0,0.0,0.0,0.0
1513265630218009083,,555283,,1513265628,430063616,'',1.2217304764,1.23992383786,0.0060240509589,0.0181933614607,0.001,-78.2314542811,4300.0,0.0,0.0,0.0
1513265630227974780,,555284,,1513265628,440063616,'',1.2217304764,1.23992383786,0.0070160867683,0.0181933614607,0.001,-78.2314542811,4300.0,0.0,0.0,0.0
1513265630237904809,,555285,,1513265628,450063616,'',1.2217304764,1.23992383786,0.00622340833903,0.0181933614607,0.001,-78.2314542811,4300.0,0.0,0.0,0.0
1513265630247824651,,555286,,1513265628,460063616,'',1.2217304764,1.23992383786,0.00805117820747,0.0181933614607,0.001,-78.2314542811,4300.0,0.0,0.0,0.0
1513265630257807700,,555287,,1513265628,470063616,'',1.2217304764,1.23714857933,-0.0463618049229,0.0154181029328,0.001,-66.2978426111,4300.0,0.0,0.0,0.0
1513265630267715494,,555288,,1513265628,480063616,'',1.2217304764,1.23853620859,-0.01903210377,0.0168057321968,0.001,-72.2646484461,4300.0,0.0,0.0,0.0
1513265630278138620,,555289,,1513265628,490063616,'',1.2217304764,1.23853620859,-0.0180984719315,0.0168057321968,0.001,-72.2646484461,4300.0,0.0,0.0,0.0
1513265630288210460,,555290,,1513265628,500063616,'',1.2217304764,1.23992383786,0.0111686173048,0.0181933614607,0.001,-78.2314542811,4300.0,0.0,0.0,0.0
1513265630298104089,,555291,,1513265628,510063616,'',1.2217304764,1.23853620859,-0.0142917585431,0.0168057321968,0.001,-72.2646484461,4300.0,0.0,0.0,0.0
1513265630308115106,,555292,,1513265628,520063616,'',1.2217304764,1.23853620859,-0.0146606276429,0.0168057321968,0.001,-72.2646484461,4300.0,0.0,0.0,0.0
1513265630318068337,,555293,,1513265628,530063616,'',1.2217304764,1.23714857933,-0.041949002139,0.0154181029328,0.001,-66.2978426111,4300.0,0.0,0.0,0.0
1513265630327901048,,555294,,1513265628,540063616,'',1.2217304764,1.23853620859,-0.0143715310955,0.0168057321968,0.001,-72.2646484461,4300.0,0.0,0.0,0.0
1513265630338079024,,555295,,1513265628,550063616,'',1.2217304764,1.23992383786,0.0136608355266,0.0181933614607,0.001,-78.2314542811,4300.0,0.0,0.0,0.0
1513265630347720796,,555296,,1513265628,560063616,'',1.2217304764,1.23992383786,0.0146833807873,0.0181933614607,0.001,-78.2314542811,4300.0,0.0,0.0,0.0
1513265630357823517,,555297,,1513265628,570063616,'',1.2217304764,1.23992383786,0.0150206498255,0.0181933614607,0.001,-78.2314542811,4300.0,0.0,0.0,0.0
1513265630367714259,,555298,,1513265628,580063616,'',1.2217304764,1.23853620859,-0.0121205261921,0.0168057321968,0.001,-72.2646484461,4300.0,0.0,0.0,0.0
1513265630378237117,,555299,,1513265628,590063616,'',1.2217304764,1.23853620859,-0.0114222498511,0.0168057321968,0.001,-72.2646484461,4300.0,0.0,0.0,0.0
1513265630388204663,,555300,,1513265628,600063616,'',1.2217304764,1.23853620859,-0.011878477403,0.0168057321968,0.001,-72.2646484461,4300.0,0.0,0.0,0.0
1513265630398074016,,555301,,1513265628,610063616,'',1.2217304764,1.23992383786,0.0172796644636,0.0181933614607,0.001,-78.2314542811,4300.0,0.0,0.0,0.0
1513265630408033627,,555302,,1513265628,620063616,'',1.2217304764,1.23853620859,-0.00981140180151,0.0168057321968,0.001,-72.2646484461,4300.0,0.0,0.0,0.0
1513265630417978827,,555303,,1513265628,630063616,'',1.2217304764,1.23853620859,-0.01000594678,0.0168057321968,0.001,-72.2646484461,4300.0,0.0,0.0,0.0
1513265630428179636,,555304,,1513265628,640063616,'',1.2217304764,1.23853620859,-0.0091873136263,0.0168057321968,0.001,-72.2646484461,4300.0,0.0,0.0,0.0
1513265630438079760,,555305,,1513265628,650063616,'',1.2217304764,1.23992383786,0.0183903882485,0.0181933614607,0.001,-78.2314542811,4300.0,0.0,0.0,0.0
1513265630448046877,,555306,,1513265628,660063616,'',1.2217304764,1.23992383786,0.0175246526874,0.0181933614607,0.001,-78.2314542811,4300.0,0.0,0.0,0.0
1513265630457892028,,555307,,1513265628,670063616,'',1.2217304764,1.23992383786,0.0173359486499,0.0181933614607,0.001,-78.2314542811,4300.0,0.0,0.0,0.0
1513265630467806857,,555308,,1513265628,680063616,'',1.2217304764,1.23992383786,0.0172429870461,0.0181933614607,0.001,-78.2314542811,4300.0,0.0,0.0,0.0
1513265630477831306,,555309,,1513265628,690063616,'',1.2217304764,1.23853620859,-0.0108426048655,0.0168057321968,0.001,-72.2646484461,4300.0,0.0,0.0,0.0
1513265630488326465,,555310,,1513265628,700063616,'',1.2217304764,1.23853620859,-0.010362523994,0.0168057321968,0.001,-72.2646484461,4300.0,0.0,0.0,0.0
1513265630498139218,,555311,,1513265628,710063616,'',1.2217304764,1.23992383786,0.0165855724679,0.0181933614607,0.001,-78.2314542811,4300.0,0.0,0.0,0.0
1513265630508141125,,555312,,1513265628,720063616,'',1.2217304764,1.23853620859,-0.0118966414403,0.0168057321968,0.001,-72.2646484461,4300.0,0.0,0.0,0.0
1513265630518003056,,555313,,1513265628,730063616,'',1.2217304764,1.23853620859,-0.0107806322236,0.0168057321968,0.001,-72.2646484461,4300.0,0.0,0.0,0.0
1513265630527819649,,555314,,1513265628,740063616,'',1.2217304764,1.23853620859,-0.0103341520558,0.0168057321968,0.001,-72.2646484461,4300.0,0.0,0.0,0.0
1513265630538112739,,555315,,1513265628,750063616,'',1.2217304764,1.23992383786,0.0164905645677,0.0181933614607,0.001,-78.2314542811,4300.0,0.0,0.0,0.0
1513265630548078817,,555316,,1513265628,760063616,'',1.2217304764,1.23992383786,0.016540385437,0.0181933614607,0.001,-78.2314542811,4300.0,0.0,0.0,0.0
1513265630558024663,,555317,,1513265628,770063616,'',1.2217304764,1.23992383786,0.0180284260978,0.0181933614607,0.001,-78.2314542811,4300.0,0.0,0.0,0.0
1513265630568037512,,555318,,1513265628,780063616,'',1.2217304764,1.23992383786,0.0168459138929,0.0181933614607,0.001,-78.2314542811,4300.0,0.0,0.0,0.0
1513265630577916559,,555319,,1513265628,790063616,'',1.2217304764,1.23992383786,0.0168270490692,0.0181933614607,0.001,-78.2314542811,4300.0,0.0,0.0,0.0
1513265630587923556,,555320,,1513265628,800063616,'',1.2217304764,1.23853620859,-0.00967755735434,0.0168057321968,0.001,-72.2646484461,4300.0,0.0,0.0,0.0
1513265630597900835,,555321,,1513265628,810063616,'',1.2217304764,1.23992383786,0.018042186202,0.0181933614607,0.001,-78.2314542811,4300.0,0.0,0.0,0.0
1513265630607797053,,555322,,1513265628,820063616,'',1.2217304764,1.23853620859,-0.0101596667378,0.0168057321968,0.001,-72.2646484461,4300.0,0.0,0.0,0.0
1513265630618034652,,555323,,1513265628,830063616,'',1.2217304764,1.23853620859,-0.00827203841023,0.0168057321968,0.001,-72.2646484461,4300.0,0.0,0.0,0.0
1513265630627802835,,555324,,1513265628,840063616,'',1.2217304764,1.23992383786,0.0202351661815,0.0181933614607,0.001,-78.2314542811,4300.0,0.0,0.0,0.0
1513265630637745169,,555325,,1513265628,850063616,'',1.2217304764,1.23992383786,0.0200542430148,0.0181933614607,0.001,-78.2314542811,4300.0,0.0,0.0,0.0
1513265630647815495,,555326,,1513265628,860063616,'',1.2217304764,1.23853620859,-0.0070707224475,0.0168057321968,0.001,-72.2646484461,4300.0,0.0,0.0,0.0
1513265630658324517,,555327,,1513265628,870063616,'',1.2217304764,1.23714857933,-0.0342336102763,0.0154181029328,0.001,-66.2978426111,4300.0,0.0,0.0,0.0
1513265630668078000,,555328,,1513265628,880063616,'',1.2217304764,1.23853620859,-0.00560038003745,0.0168057321968,0.001,-72.2646484461,4300.0,0.0,0.0,0.0
1513265630678031673,,555329,,1513265628,890063616,'',1.2217304764,1.23853620859,-0.00614911193569,0.0168057321968,0.001,-72.2646484461,4300.0,0.0,0.0,0.0
1513265630688028616,,555330,,1513265628,900063616,'',1.2217304764,1.23853620859,-0.0055072680413,0.0168057321968,0.001,-72.2646484461,4300.0,0.0,0.0,0.0
1513265630697922425,,555331,,1513265628,910063616,'',1.2217304764,1.23992383786,0.0233729900593,0.0181933614607,0.001,-78.2314542811,4300.0,0.0,0.0,0.0
1513265630708036654,,555332,,1513265628,920063616,'',1.2217304764,1.23714857933,-0.0297012617765,0.0154181029328,0.001,-66.2978426111,4300.0,0.0,0.0,0.0
1513265630717945754,,555333,,1513265628,930063616,'',1.2217304764,1.23853620859,-0.0019078539953,0.0168057321968,0.001,-72.2646484461,4300.0,0.0,0.0,0.0
1513265630727873455,,555334,,1513265628,940063616,'',1.2217304764,1.23853620859,-0.00261400699721,0.0168057321968,0.001,-72.2646484461,4300.0,0.0,0.0,0.0
1513265630737754656,,555335,,1513265628,950063616,'',1.2217304764,1.23853620859,-0.00513065089824,0.0168057321968,0.001,-72.2646484461,4300.0,0.0,0.0,0.0
1513265630748069374,,555336,,1513265628,960063616,'',1.2217304764,1.23853620859,-0.00574507063557,0.0168057321968,0.001,-72.2646484461,4300.0,0.0,0.0,0.0
1513265630757996034,,555337,,1513265628,970063616,'',1.2217304764,1.23853620859,-0.00724852247657,0.0168057321968,0.001,-72.2646484461,4300.0,0.0,0.0,0.0
