rosbagTimestamp,header,seq,stamp,secs,nsecs,frame_id,set_point,process_value,process_value_dot,error,time_step,command,p,i,d,i_clamp
1513265626878163416,,554960,,1513265625,90063616,'',0.366519142919,0.354427002336,0.0121755777966,-0.0120921405823,0.001,-74.9291730541,-6500.0,0.0,-300.0,0.0
1513265626888091724,,554961,,1513265625,100063616,'',0.366519142919,0.354415692131,-0.00662250202142,-0.0121034507873,0.001,-80.6697779155,-6500.0,0.0,-300.0,0.0
1513265626897932122,,554962,,1513265625,110063616,'',0.366519142919,0.354374708897,-0.00579312510981,-0.0121444340223,0.001,-80.6864955321,-6500.0,0.0,-300.0,0.0
1513265626907942641,,554963,,1513265625,120063616,'',0.366519142919,0.354340088709,-0.00509236277023,-0.0121790542098,0.001,-80.6983770381,-6500.0,0.0,-300.0,0.0
1513265626917989370,,554964,,1513265625,130063616,'',0.366519142919,0.354345894493,-0.00519983882795,-0.0121732484257,0.001,-80.6599595456,-6500.0,0.0,-300.0,0.0
1513265626927856820,,554965,,1513265625,140063616,'',0.366519142919,0.354330815192,-0.00489442124714,-0.0121883277269,0.001,-80.6681572893,-6500.0,0.0,-300.0,0.0
1513265626937778801,,554966,,1513265625,150063616,'',0.366519142919,0.35434158961,0.0139091296466,-0.0121775533088,0.001,-74.9766975777,-6500.0,0.0,-300.0,0.0
1513265626947964954,,554967,,1513265625,160063616,'',0.366519142919,0.354332097855,-0.00492419195529,-0.0121870450636,0.001,-80.6955546991,-6500.0,0.0,-300.0,0.0
1513265626957919530,,554968,,1513265625,170063616,'',0.366519142919,0.354303717219,-0.00435102007498,-0.0122154257001,0.001,-80.6762919126,-6500.0,0.0,-300.0,0.0
1513265626967916504,,554969,,1513265625,180063616,'',0.366519142919,0.354282324494,-0.00391832540511,-0.0122368184251,0.001,-80.69593363,-6500.0,0.0,-300.0,0.0
1513265626977818886,,554970,,1513265625,190063616,'',0.366519142919,0.354263439449,-0.00354024806413,-0.0122557034696,0.001,-80.7282871417,-6500.0,0.0,-300.0,0.0
1513265626987833078,,554971,,1513265625,200063616,'',0.366519142919,0.354317852064,0.0143928847344,-0.0122012908549,0.001,-74.978653777,-6500.0,0.0,-300.0,0.0
1513265626997686121,,554972,,1513265625,210063616,'',0.366519142919,0.35431062456,0.0145381573742,-0.0122085183587,0.001,-74.9900975364,-6500.0,0.0,-300.0,0.0
1513265627008231255,,554973,,1513265625,220063616,'',0.366519142919,0.354337360565,-0.00502767037139,-0.0121817823536,0.001,-80.6587873267,-6500.0,0.0,-300.0,0.0
1513265627018140019,,554974,,1513265625,230063616,'',0.366519142919,0.35434478061,-0.00517865404745,-0.012174362309,0.001,-80.6669244696,-6500.0,0.0,-300.0,0.0
1513265627027976397,,554975,,1513265625,240063616,'',0.366519142919,0.354330544618,-0.0048942170317,-0.0121885983005,0.001,-80.6979872217,-6500.0,0.0,-300.0,0.0
1513265627037917900,,554976,,1513265625,250063616,'',0.366519142919,0.354389759792,0.0129339804024,-0.0121293831267,0.001,-74.9493102525,-6500.0,0.0,-300.0,0.0
1513265627048043853,,554977,,1513265625,260063616,'',0.366519142919,0.354401821215,-0.00634269576016,-0.0121173217042,0.001,-80.675294601,-6500.0,0.0,-300.0,0.0
1513265627057688237,,554978,,1513265625,270063616,'',0.366519142919,0.354398018836,0.0127566269619,-0.0121211240832,0.001,-75.029752062,-6500.0,0.0,-300.0,0.0
1513265627067570142,,554979,,1513265625,280063616,'',0.366519142919,0.354396231734,0.012796823934,-0.0121229111851,0.001,-74.9419499563,-6500.0,0.0,-300.0,0.0
1513265627077671829,,554980,,1513265625,290063616,'',0.366519142919,0.354375010341,0.0132245886923,-0.0121441325778,0.001,-74.9507617324,-6500.0,0.0,-300.0,0.0
1513265627088038649,,554981,,1513265625,300063616,'',0.366519142919,0.354391799027,-0.00613941925823,-0.0121273438922,0.001,-80.672194898,-6500.0,0.0,-300.0,0.0
1513265627098020025,,554982,,1513265625,310063616,'',0.366519142919,0.354369937842,-0.0057037635162,-0.012149205077,0.001,-80.6813999621,-6500.0,0.0,-300.0,0.0
1513265627107947375,,554983,,1513265625,320063616,'',0.366519142919,0.354369823539,0.0133231207114,-0.0121493193801,0.001,-74.9529154525,-6500.0,0.0,-300.0,0.0
1513265627117897411,,554984,,1513265625,330063616,'',0.366519142919,0.354371148559,-0.0057147132575,-0.0121479943595,0.001,-80.6912082631,-6500.0,0.0,-300.0,0.0
1513265627127819909,,554985,,1513265625,340063616,'',0.366519142919,0.35437115268,-0.00571630379802,-0.0121479902386,0.001,-80.6792376262,-6500.0,0.0,-300.0,0.0
1513265627137673343,,554986,,1513265625,350063616,'',0.366519142919,0.354338557333,0.0139673612354,-0.012180585586,0.001,-74.9739726447,-6500.0,0.0,-300.0,0.0
1513265627148335436,,554987,,1513265625,360063616,'',0.366519142919,0.354359655855,-0.00549256832198,-0.0121594870642,0.001,-80.6888968525,-6500.0,0.0,-300.0,0.0
1513265627158090674,,554988,,1513265625,370063616,'',0.366519142919,0.354378002464,-0.00586703459191,-0.0121411404551,0.001,-80.678004201,-6500.0,0.0,-300.0,0.0
1513265627168074092,,554989,,1513265625,380063616,'',0.366519142919,0.354342230414,-0.00513726504137,-0.0121769125044,0.001,-80.6586184606,-6500.0,0.0,-300.0,0.0
1513265627178005168,,554990,,1513265625,390063616,'',0.366519142919,0.354348456735,-0.00525788788919,-0.0121706861835,0.001,-80.657048903,-6500.0,0.0,-300.0,0.0
1513265627187936578,,554991,,1513265625,400063616,'',0.366519142919,0.354350234095,-0.00528921714704,-0.0121689088239,0.001,-80.6912253094,-6500.0,0.0,-300.0,0.0
1513265627197886492,,554992,,1513265625,410063616,'',0.366519142919,0.3543211164,-0.00470112312703,-0.0121980265188,0.001,-80.704674622,-6500.0,0.0,-300.0,0.0
1513265627207784006,,554993,,1513265625,420063616,'',0.366519142919,0.354328544291,-0.0048543453321,-0.012190598628,0.001,-80.6988294974,-6500.0,0.0,-300.0,0.0
1513265627217756519,,554994,,1513265625,430063616,'',0.366519142919,0.35430163133,-0.00431443323893,-0.0122175115884,0.001,-80.7129629179,-6500.0,0.0,-300.0,0.0
1513265627227740099,,554995,,1513265625,440063616,'',0.366519142919,0.354347482697,-0.00524240722392,-0.0121716602214,0.001,-80.6972840873,-6500.0,0.0,-300.0,0.0
1513265627237677346,,554996,,1513265625,450063616,'',0.366519142919,0.354353154608,0.0136720479592,-0.0121659883111,0.001,-75.0507154255,-6500.0,0.0,-300.0,0.0
1513265627247846630,,554997,,1513265625,460063616,'',0.366519142919,0.354357412171,0.01358707988,-0.0121617307481,0.001,-74.9423594331,-6500.0,0.0,-300.0,0.0
1513265627257802344,,554998,,1513265625,470063616,'',0.366519142919,0.354375993631,-0.00581251590351,-0.0121431492882,0.001,-80.6805291566,-6500.0,0.0,-300.0,0.0
1513265627267790975,,554999,,1513265625,480063616,'',0.366519142919,0.354390759988,-0.00611701561476,-0.0121283829305,0.001,-80.6704258205,-6500.0,0.0,-300.0,0.0
1513265627277777432,,555000,,1513265625,490063616,'',0.366519142919,0.354353933051,-0.00537231731439,-0.0121652098677,0.001,-80.6831007849,-6500.0,0.0,-300.0,0.0
1513265627287683808,,555001,,1513265625,500063616,'',0.366519142919,0.354339986766,0.0139310325932,-0.0121791561528,0.001,-74.9693335433,-6500.0,0.0,-300.0,0.0
1513265627298155114,,555002,,1513265625,510063616,'',0.366519142919,0.354312455755,-0.00453325105257,-0.0122066871638,0.001,-80.6781382529,-6500.0,0.0,-300.0,0.0
1513265627308041485,,555003,,1513265625,520063616,'',0.366519142919,0.354319689782,-0.00467411775376,-0.0121994531367,0.001,-80.6742055309,-6500.0,0.0,-300.0,0.0
1513265627317933197,,555004,,1513265625,530063616,'',0.366519142919,0.354309577019,-0.00447539442075,-0.0122095658999,0.001,-80.7097216086,-6500.0,0.0,-300.0,0.0
1513265627327879305,,555005,,1513265625,540063616,'',0.366519142919,0.354303710114,-0.00435597044158,-0.0122154328047,0.001,-80.7121149132,-6500.0,0.0,-300.0,0.0
1513265627337792100,,555006,,1513265625,550063616,'',0.366519142919,0.354312924852,-0.00454294131564,-0.0122062180668,0.001,-80.7106501065,-6500.0,0.0,-300.0,0.0
1513265627347756822,,555007,,1513265625,560063616,'',0.366519142919,0.354322350877,-0.00474426295012,-0.012196792042,0.001,-80.7028032806,-6500.0,0.0,-300.0,0.0
1513265627358185981,,555008,,1513265625,570063616,'',0.366519142919,0.354330700269,-0.00491090590693,-0.0121884426494,0.001,-80.6993363556,-6500.0,0.0,-300.0,0.0
1513265627368075505,,555009,,1513265625,580063616,'',0.366519142919,0.354354269482,0.0136400050196,-0.0121648734365,0.001,-74.9475368434,-6500.0,0.0,-300.0,0.0
1513265627378030494,,555010,,1513265625,590063616,'',0.366519142919,0.354377105609,0.0131855513313,-0.0121420373093,0.001,-74.9336888729,-6500.0,0.0,-300.0,0.0
1513265627387975905,,555011,,1513265625,600063616,'',0.366519142919,0.354392865807,-0.00615725063708,-0.0121262771116,0.001,-80.6735233091,-6500.0,0.0,-300.0,0.0
1513265627397971547,,555012,,1513265625,610063616,'',0.366519142919,0.354390376095,-0.00611260448185,-0.0121287668242,0.001,-80.6727940504,-6500.0,0.0,-300.0,0.0
1513265627408031505,,555013,,1513265625,620063616,'',0.366519142919,0.354352222223,-0.00533558797901,-0.012166920696,0.001,-80.6950209135,-6500.0,0.0,-300.0,0.0
1513265627418005744,,555014,,1513265625,630063616,'',0.366519142919,0.35435570879,0.013620916736,-0.0121634341292,0.001,-74.9341673948,-6500.0,0.0,-300.0,0.0
1513265627427836507,,555015,,1513265625,640063616,'',0.366519142919,0.354357794329,-0.0054453659023,-0.0121613485899,0.001,-80.6880860674,-6500.0,0.0,-300.0,0.0
1513265627437935280,,555016,,1513265625,650063616,'',0.366519142919,0.354342720734,-0.00514504465376,-0.012176422185,0.001,-80.7051110962,-6500.0,0.0,-300.0,0.0
1513265627447897437,,555017,,1513265625,660063616,'',0.366519142919,0.354382968571,-0.00594598848415,-0.0121361743481,0.001,-80.6449620025,-6500.0,0.0,-300.0,0.0
1513265627457934682,,555018,,1513265625,670063616,'',0.366519142919,0.354365204428,-0.00559136241869,-0.0121539384909,0.001,-80.685009166,-6500.0,0.0,-300.0,0.0
1513265627467647214,,555019,,1513265625,680063616,'',0.366519142919,0.354315007538,-0.00457747200386,-0.012204135381,0.001,-80.7028756144,-6500.0,0.0,-300.0,0.0
1513265627477663246,,555020,,1513265625,690063616,'',0.366519142919,0.354308889741,-0.00445347469298,-0.0122102531776,0.001,-80.7151517115,-6500.0,0.0,-300.0,0.0
1513265627488138434,,555021,,1513265625,700063616,'',0.366519142919,0.354318225107,-0.00464312083197,-0.0122009178114,0.001,-80.7061937671,-6500.0,0.0,-300.0,0.0
1513265627498053009,,555022,,1513265625,710063616,'',0.366519142919,0.35432843131,-0.00484951110136,-0.0121907116088,0.001,-80.7016799516,-6500.0,0.0,-300.0,0.0
1513265627507853108,,555023,,1513265625,720063616,'',0.366519142919,0.354387474958,-0.0060359178918,-0.0121316679611,0.001,-80.6334275619,-6500.0,0.0,-300.0,0.0
1513265627517903113,,555024,,1513265625,730063616,'',0.366519142919,0.354348959263,-0.00525740320902,-0.012170183656,0.001,-80.6932759586,-6500.0,0.0,-300.0,0.0
1513265627527854495,,555025,,1513265625,740063616,'',0.366519142919,0.354369221819,-0.00566753888039,-0.0121499210993,0.001,-80.6833410212,-6500.0,0.0,-300.0,0.0
1513265627537782034,,555026,,1513265625,750063616,'',0.366519142919,0.354366792514,-0.00561569107848,-0.0121523504048,0.001,-80.6880069665,-6500.0,0.0,-300.0,0.0
1513265627547780132,,555027,,1513265625,760063616,'',0.366519142919,0.354403876142,0.0126614776062,-0.0121152667769,0.001,-74.9342057216,-6500.0,0.0,-300.0,0.0
1513265627557740503,,555028,,1513265625,770063616,'',0.366519142919,0.354419029487,0.0123501182659,-0.0121001134316,0.001,-74.9253484459,-6500.0,0.0,-300.0,0.0
1513265627567992357,,555029,,1513265625,780063616,'',0.366519142919,0.354377668501,-0.00583551652225,-0.0121414744182,0.001,-80.6321353346,-6500.0,0.0,-300.0,0.0
1513265627577946711,,555030,,1513265625,790063616,'',0.366519142919,0.354358575515,-0.00545025338995,-0.0121605674036,0.001,-80.6846069034,-6500.0,0.0,-300.0,0.0
1513265627587785885,,555031,,1513265625,800063616,'',0.366519142919,0.354309579601,-0.00446192921786,-0.0122095633175,0.001,-80.6635682647,-6500.0,0.0,-300.0,0.0
1513265627597737841,,555032,,1513265625,810063616,'',0.366519142919,0.354319638868,-0.00465954311866,-0.0121995040511,0.001,-80.7042669186,-6500.0,0.0,-300.0,0.0
1513265627608092959,,555033,,1513265625,820063616,'',0.366519142919,0.35429341538,-0.00412804027163,-0.0122257275387,0.001,-80.7136211876,-6500.0,0.0,-300.0,0.0
1513265627618108826,,555034,,1513265625,830063616,'',0.366519142919,0.354291566562,-0.00409404996403,-0.0122275763567,0.001,-80.6918659896,-6500.0,0.0,-300.0,0.0
1513265627627919960,,555035,,1513265625,840063616,'',0.366519142919,0.354324004324,0.0142734450065,-0.0121951385948,0.001,-74.9636962666,-6500.0,0.0,-300.0,0.0
1513265627637853948,,555036,,1513265625,850063616,'',0.366519142919,0.354382823118,0.013083535807,-0.0121363198008,0.001,-74.9427939468,-6500.0,0.0,-300.0,0.0
1513265627647862567,,555037,,1513265625,860063616,'',0.366519142919,0.354361966603,-0.0055259522864,-0.012157176316,0.001,-80.683159225,-6500.0,0.0,-300.0,0.0
1513265627657799134,,555038,,1513265625,870063616,'',0.366519142919,0.354346411502,-0.00521034479089,-0.0121727314163,0.001,-80.6913061709,-6500.0,0.0,-300.0,0.0
1513265627667894546,,555039,,1513265625,880063616,'',0.366519142919,0.354352479964,0.0136961166947,-0.0121666629544,0.001,-74.9433031646,-6500.0,0.0,-300.0,0.0
1513265627677878909,,555040,,1513265625,890063616,'',0.366519142919,0.354389489815,0.0129531585703,-0.0121296531039,0.001,-74.9410093951,-6500.0,0.0,-300.0,0.0
1513265627687858582,,555041,,1513265625,900063616,'',0.366519142919,0.354420362205,-0.00669548281934,-0.0120987807133,0.001,-80.6664668724,-6500.0,0.0,-300.0,0.0
1513265627697701863,,555042,,1513265625,910063616,'',0.366519142919,0.354393676325,-0.00615169905325,-0.0121254665935,0.001,-80.6767515209,-6500.0,0.0,-300.0,0.0
1513265627708182477,,555043,,1513265625,920063616,'',0.366519142919,0.354402804548,-0.00633506339825,-0.0121163383712,0.001,-80.6675608159,-6500.0,0.0,-300.0,0.0
1513265627718133118,,555044,,1513265625,930063616,'',0.366519142919,0.354379930759,-0.00586839616275,-0.0121392121602,0.001,-80.6414559973,-6500.0,0.0,-300.0,0.0
1513265627728034334,,555045,,1513265625,940063616,'',0.366519142919,0.35437839419,-0.00583916702902,-0.0121407487291,0.001,-80.631714353,-6500.0,0.0,-300.0,0.0
1513265627738021724,,555046,,1513265625,950063616,'',0.366519142919,0.354496562296,0.0107956433539,-0.0120225806232,0.001,-74.8971747085,-6500.0,0.0,-300.0,0.0
1513265627747912945,,555047,,1513265625,960063616,'',0.366519142919,0.354696808547,0.00674735664209,-0.0118223343723,0.001,-74.8190870041,-6500.0,0.0,-300.0,0.0
1513265627757870229,,555048,,1513265625,970063616,'',0.366519142919,0.354947048403,0.0207285093894,-0.0115720945157,0.001,-69.2073321444,-6500.0,0.0,-300.0,0.0
1513265627767815638,,555049,,1513265625,980063616,'',0.366519142919,0.355132941544,0.0169684010959,-0.0113862013743,0.001,-68.9009720682,-6500.0,0.0,-300.0,0.0
1513265627777766602,,555050,,1513265625,990063616,'',0.366519142919,0.355320464434,0.0321989129076,-0.0111986784849,0.001,-63.3209924571,-6500.0,0.0,-300.0,0.0
1513265627787782342,,555051,,1513265626,63616,'',0.366519142919,0.355509684631,0.0283762120775,-0.0110094582883,0.001,-63.0274544326,-6500.0,0.0,-300.0,0.0
1513265627797659008,,555052,,1513265626,10063616,'',0.366519142919,0.355664193923,0.0252536749405,-0.0108549489957,0.001,-62.9551015582,-6500.0,0.0,-300.0,0.0
1513265627808170402,,555053,,1513265626,20063616,'',0.366519142919,0.355769395876,0.00409880493052,-0.0107497470429,0.001,-68.6389350121,-6500.0,0.0,-300.0,0.0
1513265627818048515,,555054,,1513265626,30063616,'',0.366519142919,0.355960987571,0.019257079403,-0.0105581553473,0.001,-62.8318636915,-6500.0,0.0,-300.0,0.0
1513265627827935380,,555055,,1513265626,40063616,'',0.366519142919,0.356065219185,0.0171530901904,-0.0104539237341,0.001,-62.8083934218,-6500.0,0.0,-300.0,0.0
1513265627837894574,,555056,,1513265626,50063616,'',0.366519142919,0.356218774106,0.0140482526011,-0.0103003688125,0.001,-62.7156961428,-6500.0,0.0,-300.0,0.0
1513265627847808055,,555057,,1513265626,60063616,'',0.366519142919,0.356379408483,0.0108006134048,-0.0101397344363,0.001,-62.651885527,-6500.0,0.0,-300.0,0.0
1513265627857731966,,555058,,1513265626,70063616,'',0.366519142919,0.356631817055,0.0247283149586,-0.00988732586343,0.001,-56.6945483522,-6500.0,0.0,-300.0,0.0
1513265627867775459,,555059,,1513265626,80063616,'',0.366519142919,0.356836652034,0.0205884413153,-0.00968249088451,0.001,-56.7752506815,-6500.0,0.0,-300.0,0.0
1513265627877702793,,555060,,1513265626,90063616,'',0.366519142919,0.3570209952,0.0168625031286,-0.00949814771868,0.001,-56.768671555,-6500.0,0.0,-300.0,0.0
1513265627887764447,,555061,,1513265626,100063616,'',0.366519142919,0.35717289519,0.0137876600234,-0.00934624772857,0.001,-56.6950519682,-6500.0,0.0,-300.0,0.0
1513265627897862956,,555062,,1513265626,110063616,'',0.366519142919,0.35731337465,0.0109471174639,-0.00920576826838,0.001,-56.5464624529,-6500.0,0.0,-300.0,0.0
1513265627908109291,,555063,,1513265626,120063616,'',0.366519142919,0.357446689219,0.00825524745396,-0.00907245369932,0.001,-56.4949163547,-6500.0,0.0,-300.0,0.0
1513265627917950904,,555064,,1513265626,130063616,'',0.366519142919,0.357624002294,0.0237016887078,-0.0088951406246,0.001,-50.6655687595,-6500.0,0.0,-300.0,0.0
1513265627927975128,,555065,,1513265626,140063616,'',0.366519142919,0.357771119837,0.00170589864868,-0.00874802308183,0.001,-56.3515392255,-6500.0,0.0,-300.0,0.0
1513265627937926487,,555066,,1513265626,150063616,'',0.366519142919,0.357973396367,0.0166412358806,-0.00854574655192,0.001,-50.6476662968,-6500.0,0.0,-300.0,0.0
1513265627947865954,,555067,,1513265626,160063616,'',0.366519142919,0.358158754801,0.0128961444872,-0.00836038811796,0.001,-50.4477528026,-6500.0,0.0,-300.0,0.0
1513265627957786359,,555068,,1513265626,170063616,'',0.366519142919,0.358410692877,0.0268277417133,-0.00810845004174,0.001,-44.6163901516,-6500.0,0.0,-300.0,0.0
1513265627967691093,,555069,,1513265626,180063616,'',0.366519142919,0.358634806885,0.0223002533563,-0.00788433603388,0.001,-44.5375291254,-6500.0,0.0,-300.0,0.0
1513265627977633427,,555070,,1513265626,190063616,'',0.366519142919,0.358834969524,0.0182567750099,-0.00768417339473,0.001,-44.4479706917,-6500.0,0.0,-300.0,0.0
1513265627988116191,,555071,,1513265626,200063616,'',0.366519142919,0.358998838706,0.0149464595059,-0.00752030421307,0.001,-44.4026036357,-6500.0,0.0,-300.0,0.0
1513265627998092574,,555072,,1513265626,210063616,'',0.366519142919,0.359132726477,0.0122417974021,-0.00738641644162,0.001,-44.4056865592,-6500.0,0.0,-300.0,0.0
1513265628008028473,,555073,,1513265626,220063616,'',0.366519142919,0.359276125441,0.00934391266594,-0.007243017478,0.001,-44.3214928535,-6500.0,0.0,-300.0,0.0
1513265628017862333,,555074,,1513265626,230063616,'',0.366519142919,0.359464303511,0.0245539975188,-0.00705483940787,0.001,-38.6268370746,-6500.0,0.0,-300.0,0.0
1513265628027876214,,555075,,1513265626,240063616,'',0.366519142919,0.359652322463,0.0207553312951,-0.00686682045591,0.001,-38.5284271829,-6500.0,0.0,-300.0,0.0
1513265628037742098,,555076,,1513265626,250063616,'',0.366519142919,0.359838738647,0.0169920589922,-0.00668040427154,0.001,-38.2960850565,-6500.0,0.0,-300.0,0.0
1513265628047673515,,555077,,1513265626,260063616,'',0.366519142919,0.360041930814,0.0128897064297,-0.0064772121045,0.001,-38.2203551771,-6500.0,0.0,-300.0,0.0
1513265628058267749,,555078,,1513265626,270063616,'',0.366519142919,0.360243820928,0.0278368103354,-0.00627532199031,0.001,-32.3945736947,-6500.0,0.0,-300.0,0.0
1513265628067679656,,555079,,1513265626,280063616,'',0.366519142919,0.360426184799,0.00513470021058,-0.00609295812028,0.001,-38.1423816256,-6500.0,0.0,-300.0,0.0
1513265628078124342,,555080,,1513265626,290063616,'',0.366519142919,0.360610853318,0.0204338265244,-0.00590828960118,0.001,-32.2635017741,-6500.0,0.0,-300.0,0.0
1513265628088081411,,555081,,1513265626,300063616,'',0.366519142919,0.360777129746,0.0170749160354,-0.00574201317261,0.001,-32.1750075914,-6500.0,0.0,-300.0,0.0
1513265628097934803,,555082,,1513265626,310063616,'',0.366519142919,0.360946885478,0.0136442222707,-0.0055722574409,0.001,-32.1146290674,-6500.0,0.0,-300.0,0.0
1513265628107908764,,555083,,1513265626,320063616,'',0.366519142919,0.361122649926,0.0100930127388,-0.00539649299306,0.001,-32.0340584761,-6500.0,0.0,-300.0,0.0
1513265628117882188,,555084,,1513265626,330063616,'',0.366519142919,0.361315573952,0.00619108132944,-0.00520356896683,0.001,-31.9593858331,-6500.0,0.0,-300.0,0.0
1513265628127834742,,555085,,1513265626,340063616,'',0.366519142919,0.361506405063,0.0213670220898,-0.00501273785573,0.001,-26.128115838,-6500.0,0.0,-300.0,0.0
1513265628137698571,,555086,,1513265626,350063616,'',0.366519142919,0.361663464022,0.0181925282723,-0.00485567889635,0.001,-26.0658802226,-6500.0,0.0,-300.0,0.0
1513265628148092159,,555087,,1513265626,360063616,'',0.366519142919,0.361739782749,-0.00237809437497,-0.00477936016955,0.001,-31.7821379212,-6500.0,0.0,-300.0,0.0
1513265628158170270,,555088,,1513265626,370063616,'',0.366519142919,0.361888928453,0.0136348750928,-0.0046302144655,0.001,-26.0966979553,-6500.0,0.0,-300.0,0.0
1513265628168088137,,555089,,1513265626,380063616,'',0.366519142919,0.362011290537,0.0111630807944,-0.00450785238134,0.001,-26.0127233745,-6500.0,0.0,-300.0,0.0
1513265628178039726,,555090,,1513265626,390063616,'',0.366519142919,0.362111569475,0.00913738053499,-0.00440757344398,0.001,-25.8751103551,-6500.0,0.0,-300.0,0.0
1513265628187870450,,555091,,1513265626,400063616,'',0.366519142919,0.362177318156,0.00781275654083,-0.00434182476294,0.001,-25.8650835167,-6500.0,0.0,-300.0,0.0
1513265628197940909,,555092,,1513265626,410063616,'',0.366519142919,0.362247387524,0.00639666729098,-0.00427175539449,0.001,-25.8829933352,-6500.0,0.0,-300.0,0.0
1513265628207914864,,555093,,1513265626,420063616,'',0.366519142919,0.362304771404,0.00523694946527,-0.00421437151446,0.001,-25.8548644533,-6500.0,0.0,-300.0,0.0
1513265628217877817,,555094,,1513265626,430063616,'',0.366519142919,0.362384652382,0.00361712837584,-0.00413449053657,0.001,-25.7801047309,-6500.0,0.0,-300.0,0.0
1513265628227857195,,555095,,1513265626,440063616,'',0.366519142919,0.362417156397,0.00296121476016,-0.00410198652148,0.001,-25.791635821,-6500.0,0.0,-300.0,0.0
1513265628237763391,,555096,,1513265626,450063616,'',0.366519142919,0.362511643066,0.0200692378556,-0.00400749985296,0.001,-20.1833382955,-6500.0,0.0,-300.0,0.0
1513265628248057800,,555097,,1513265626,460063616,'',0.366519142919,0.362591178865,-0.000551914722534,-0.00392796405424,0.001,-25.6937692821,-6500.0,0.0,-300.0,0.0
1513265628257939699,,555098,,1513265626,470063616,'',0.366519142919,0.362653373247,0.0172208740076,-0.00386576967218,0.001,-19.8160865006,-6500.0,0.0,-300.0,0.0
1513265628267847372,,555099,,1513265626,480063616,'',0.366519142919,0.362755162569,0.0151514895077,-0.00376398034984,0.001,-19.9126263499,-6500.0,0.0,-300.0,0.0
1513265628277775373,,555100,,1513265626,490063616,'',0.366519142919,0.362839550142,-0.00557380475844,-0.00367959277636,0.001,-25.5978368986,-6500.0,0.0,-300.0,0.0
1513265628287757878,,555101,,1513265626,500063616,'',0.366519142919,0.362925400024,0.0117238309244,-0.00359374289475,0.001,-19.9143066276,-6500.0,0.0,-300.0,0.0
1513265628297757862,,555102,,1513265626,510063616,'',0.366519142919,0.362996993171,0.0102771937494,-0.00352214974794,0.001,-19.7931283796,-6500.0,0.0,-300.0,0.0
1513265628307817716,,555103,,1513265626,520063616,'',0.366519142919,0.363072594067,0.00874969920668,-0.00344654885147,0.001,-19.7784194564,-6500.0,0.0,-300.0,0.0
1513265628317967246,,555104,,1513265626,530063616,'',0.366519142919,0.363168757366,0.00680654179222,-0.00335038555241,0.001,-19.7193869221,-6500.0,0.0,-300.0,0.0
1513265628328043900,,555105,,1513265626,540063616,'',0.366519142919,0.363229703945,0.00557509165058,-0.00328943897424,0.001,-19.7821383638,-6500.0,0.0,-300.0,0.0
1513265628337920758,,555106,,1513265626,550063616,'',0.366519142919,0.363279733867,0.00456421693053,-0.00323940905174,0.001,-19.6859506176,-6500.0,0.0,-300.0,0.0
1513265628347799494,,555107,,1513265626,560063616,'',0.366519142919,0.363304410927,0.00406883810928,-0.00321473199185,0.001,-19.6749420787,-6500.0,0.0,-300.0,0.0
1513265628357717187,,555108,,1513265626,570063616,'',0.366519142919,0.363340901275,0.00333094997063,-0.00317824164354,0.001,-19.6572278044,-6500.0,0.0,-300.0,0.0
1513265628367970898,,555109,,1513265626,580063616,'',0.366519142919,0.363370763128,0.00272709969042,-0.00314837979065,0.001,-19.6438665793,-6500.0,0.0,-300.0,0.0
1513265628377870887,,555110,,1513265626,590063616,'',0.366519142919,0.363429090315,0.00154382438222,-0.00309005260337,0.001,-19.6200941461,-6500.0,0.0,-300.0,0.0
1513265628388177483,,555111,,1513265626,600063616,'',0.366519142919,0.363442968728,0.0012638742872,-0.00307617419044,0.001,-19.6149819358,-6500.0,0.0,-300.0,0.0
1513265628398109583,,555112,,1513265626,610063616,'',0.366519142919,0.363471263432,0.00068494848195,-0.00304787948679,0.001,-19.6023865103,-6500.0,0.0,-300.0,0.0
1513265628408033275,,555113,,1513265626,620063616,'',0.366519142919,0.363527100526,0.0185804687541,-0.00299204239328,0.001,-13.9723153221,-6500.0,0.0,-300.0,0.0
1513265628418029749,,555114,,1513265626,630063616,'',0.366519142919,0.36354116311,-0.000724792149496,-0.00297797980917,0.001,-19.5722813832,-6500.0,0.0,-300.0,0.0
1513265628427879708,,555115,,1513265626,640063616,'',0.366519142919,0.363568638659,-0.00127898145284,-0.00295050426029,0.001,-19.5617025628,-6500.0,0.0,-300.0,0.0
1513265628437771569,,555116,,1513265626,650063616,'',0.366519142919,0.363575612624,-0.0014182199582,-0.00294353029511,0.001,-19.5588067576,-6500.0,0.0,-300.0,0.0
1513265628447754331,,555117,,1513265626,660063616,'',0.366519142919,0.363616244002,0.0167822172612,-0.0029028989167,0.001,-13.8166116731,-6500.0,0.0,-300.0,0.0
1513265628457839312,,555118,,1513265626,670063616,'',0.366519142919,0.363596175748,-0.00183656627825,-0.00292296717033,0.001,-19.5624298377,-6500.0,0.0,-300.0,0.0
1513265628467791984,,555119,,1513265626,680063616,'',0.366519142919,0.363648621882,-0.00289505415933,-0.00287052103667,0.001,-19.5284910642,-6500.0,0.0,-300.0,0.0
1513265628477731186,,555120,,1513265626,690063616,'',0.366519142919,0.363655753384,-0.00303263999466,-0.00286338953483,0.001,-19.5237769457,-6500.0,0.0,-300.0,0.0
1513265628488173095,,555121,,1513265626,700063616,'',0.366519142919,0.36367976085,-0.003525302788,-0.00283938206902,0.001,-19.517594493,-6500.0,0.0,-300.0,0.0
1513265628498161791,,555122,,1513265626,710063616,'',0.366519142919,0.363717306937,-0.00428409173668,-0.00280183598156,0.001,-19.4971903726,-6500.0,0.0,-300.0,0.0
1513265628508043101,,555123,,1513265626,720063616,'',0.366519142919,0.363783647268,0.0133948705632,-0.00273549565106,0.001,-13.8313485973,-6500.0,0.0,-300.0,0.0
1513265628518007696,,555124,,1513265626,730063616,'',0.366519142919,0.363819070581,0.0126847381664,-0.00270007233791,0.001,-13.7238718061,-6500.0,0.0,-300.0,0.0
1513265628528057989,,555125,,1513265626,740063616,'',0.366519142919,0.363847693035,0.0121066146244,-0.00267144988357,0.001,-13.7191556933,-6500.0,0.0,-300.0,0.0
1513265628537991159,,555126,,1513265626,750063616,'',0.366519142919,0.363904981971,-0.00807584422316,-0.00261416094741,0.001,-19.4243739678,-6500.0,0.0,-300.0,0.0
1513265628547925538,,555127,,1513265626,760063616,'',0.366519142919,0.363920169037,0.0106410358516,-0.00259897388176,0.001,-13.6955629234,-6500.0,0.0,-300.0,0.0
1513265628557882030,,555128,,1513265626,770063616,'',0.366519142919,0.363965100787,0.00973201696545,-0.00255404213187,0.001,-13.6669035562,-6500.0,0.0,-300.0,0.0
1513265628567910333,,555129,,1513265626,780063616,'',0.366519142919,0.36403634934,0.00829132217806,-0.00248279357895,0.001,-13.6325199509,-6500.0,0.0,-300.0,0.0
1513265628577808297,,555130,,1513265626,790063616,'',0.366519142919,0.364062057727,0.00777407153363,-0.00245708519182,0.001,-13.621582853,-6500.0,0.0,-300.0,0.0
1513265628588171517,,555131,,1513265626,800063616,'',0.366519142919,0.364047207925,-0.010955237458,-0.00247193499429,0.001,-19.3732620879,-6500.0,0.0,-300.0,0.0
1513265628598044448,,555132,,1513265626,810063616,'',0.366519142919,0.364067263898,0.00766536359418,-0.00245187902064,0.001,-13.6849337071,-6500.0,0.0,-300.0,0.0
1513265628608016097,,555133,,1513265626,820063616,'',0.366519142919,0.364087925978,0.00724926585454,-0.00243121694044,0.001,-13.666251628,-6500.0,0.0,-300.0,0.0
1513265628617924462,,555134,,1513265626,830063616,'',0.366519142919,0.364102226217,0.00696240006615,-0.00241691670161,0.001,-13.6099648529,-6500.0,0.0,-300.0,0.0
1513265628627848481,,555135,,1513265626,840063616,'',0.366519142919,0.364149233614,0.00601962392741,-0.00236990930439,0.001,-13.6339463032,-6500.0,0.0,-300.0,0.0
1513265628637984512,,555136,,1513265626,850063616,'',0.366519142919,0.364185970131,0.0242947857581,-0.00233317278785,0.001,-7.99950820849,-6500.0,0.0,-300.0,0.0
1513265628647839309,,555137,,1513265626,860063616,'',0.366519142919,0.364233375586,0.00431306066506,-0.0022857673327,0.001,-13.558005947,-6500.0,0.0,-300.0,0.0
1513265628657799251,,555138,,1513265626,870063616,'',0.366519142919,0.364255686635,0.00386456332427,-0.00226345628343,0.001,-13.5216213836,-6500.0,0.0,-300.0,0.0
1513265628667656790,,555139,,1513265626,880063616,'',0.366519142919,0.364290400698,0.00316461082329,-0.00222874222084,0.001,-13.5309127207,-6500.0,0.0,-300.0,0.0
1513265628678099782,,555140,,1513265626,890063616,'',0.366519142919,0.364319643441,0.00257639048406,-0.0021994994781,0.001,-13.5211776138,-6500.0,0.0,-300.0,0.0
1513265628688156085,,555141,,1513265626,900063616,'',0.366519142919,0.364326836164,0.00243190975877,-0.00219230675512,0.001,-13.5349881057,-6500.0,0.0,-300.0,0.0
1513265628697990374,,555142,,1513265626,910063616,'',0.366519142919,0.364348687098,0.00199096576669,-0.00217045582081,0.001,-13.507626702,-6500.0,0.0,-300.0,0.0
1513265628708027166,,555143,,1513265626,920063616,'',0.366519142919,0.364382550004,0.00131114019533,-0.00213659291504,0.001,-13.4939440811,-6500.0,0.0,-300.0,0.0
1513265628718165596,,555144,,1513265626,930063616,'',0.366519142919,0.364410066327,0.00076044036209,-0.00210907659185,0.001,-13.4819224917,-6500.0,0.0,-300.0,0.0
1513265628727971860,,555145,,1513265626,940063616,'',0.366519142919,0.364398423511,0.000989883765605,-0.00212071940734,0.001,-13.4935427348,-6500.0,0.0,-300.0,0.0
1513265628738016867,,555146,,1513265626,950063616,'',0.366519142919,0.36440729471,0.000810398200676,-0.00211184820894,0.001,-13.483524856,-6500.0,0.0,-300.0,0.0
1513265628747888077,,555147,,1513265626,960063616,'',0.366519142919,0.364431632175,0.000322065621305,-0.0020875107436,0.001,-13.473162411,-6500.0,0.0,-300.0,0.0
1513265628757792569,,555148,,1513265626,970063616,'',0.366519142919,0.364417559312,0.000606405342965,-0.0021015836065,0.001,-13.4741143727,-6500.0,0.0,-300.0,0.0
1513265628767783803,,555149,,1513265626,980063616,'',0.366519142919,0.364441353164,0.000125814229911,-0.00207778975497,0.001,-13.4692189062,-6500.0,0.0,-300.0,0.0
1513265628777696019,,555150,,1513265626,990063616,'',0.366519142919,0.364424054249,0.000474582130546,-0.00209508866958,0.001,-13.4759239321,-6500.0,0.0,-300.0,0.0
1513265628788055474,,555151,,1513265627,63616,'',0.366519142919,0.364443502591,8.48104781915e-05,-0.00207564032741,0.001,-13.4688008422,-6500.0,0.0,-300.0,0.0
1513265628797987463,,555152,,1513265627,10063616,'',0.366519142919,0.364462484158,-0.000296227014589,-0.00205665876121,0.001,-13.4581661976,-6500.0,0.0,-300.0,0.0
1513265628807957401,,555153,,1513265627,20063616,'',0.366519142919,0.364477367062,-0.000602572062945,-0.00204177585693,0.001,-13.4544138783,-6500.0,0.0,-300.0,0.0
1513265628817914596,,555154,,1513265627,30063616,'',0.366519142919,0.364522396305,-0.00150982104085,-0.00199674661376,0.001,-13.4354972874,-6500.0,0.0,-300.0,0.0
1513265628827833097,,555155,,1513265627,40063616,'',0.366519142919,0.364526717078,-0.00160318127713,-0.00199242584111,0.001,-13.4235114347,-6500.0,0.0,-300.0,0.0
1513265628837771484,,555156,,1513265627,50063616,'',0.366519142919,0.364544414868,-0.00195477363891,-0.00197472805041,0.001,-13.4144566169,-6500.0,0.0,-300.0,0.0
1513265628847727078,,555157,,1513265627,60063616,'',0.366519142919,0.364509317926,-0.00126784507628,-0.00200982499259,0.001,-13.4412896165,-6500.0,0.0,-300.0,0.0
1513265628858123907,,555158,,1513265627,70063616,'',0.366519142919,0.364514362432,-0.0013633824976,0.0,0.001,0.0,-6500.0,0.0,-300.0,0.0
1513265628868024369,,555159,,1513265627,80063616,'',0.366519142919,0.364501661076,-0.00110019157835,0.0,0.001,0.0,-6500.0,0.0,-300.0,0.0
1513265628877922380,,555160,,1513265627,90063616,'',0.366519142919,0.364386822129,-0.0178017580191,0.0,0.001,0.0,-6500.0,0.0,-300.0,0.0
1513265628887918366,,555161,,1513265627,100063616,'',0.366519142919,0.364277042311,-0.0155828861097,0.0,0.001,0.0,-6500.0,0.0,-300.0,0.0
1513265628897761388,,555162,,1513265627,110063616,'',0.366519142919,0.364015229986,-0.0293145160045,0.0,0.001,0.0,-6500.0,0.0,-300.0,0.0
1513265628907823606,,555163,,1513265627,120063616,'',0.366519142919,0.363662323264,-0.0412108871962,0.0,0.001,0.0,-6500.0,0.0,-300.0,0.0
1513265628918140982,,555164,,1513265627,130063616,'',0.366519142919,0.363220370509,-0.0513038853013,0.0,0.001,0.0,-6500.0,0.0,-300.0,0.0
1513265628927997535,,555165,,1513265627,140063616,'',0.366519142919,0.362704830442,-0.0599153758413,0.0,0.001,0.0,-6500.0,0.0,-300.0,0.0
1513265628938037993,,555166,,1513265627,150063616,'',0.366519142919,0.362114696444,-0.067022348294,0.0,0.001,0.0,-6500.0,0.0,-300.0,0.0
1513265628947955411,,555167,,1513265627,160063616,'',0.366519142919,0.361496588141,-0.0545349008465,0.0,0.001,0.0,-6500.0,0.0,-300.0,0.0
1513265628957933013,,555168,,1513265627,170063616,'',0.366519142919,0.360871065468,-0.0609194692487,0.0,0.001,0.0,-6500.0,0.0,-300.0,0.0
1513265628967894292,,555169,,1513265627,180063616,'',0.366519142919,0.360270659997,-0.0487980557208,0.0,0.001,0.0,-6500.0,0.0,-300.0,0.0
1513265628977806735,,555170,,1513265627,190063616,'',0.366519142919,0.359694199992,-0.056176646441,0.0,0.001,0.0,-6500.0,0.0,-300.0,0.0
1513265628987710778,,555171,,1513265627,200063616,'',0.366519142919,0.359135963328,-0.0639281552364,0.0,0.001,0.0,-6500.0,0.0,-300.0,0.0
1513265628997819255,,555172,,1513265627,210063616,'',0.366519142919,0.358595231013,-0.0529980379529,0.0,0.001,0.0,-6500.0,0.0,-300.0,0.0
1513265629007740261,,555173,,1513265627,220063616,'',0.366519142919,0.35815447409,-0.044089475234,0.0,0.001,0.0,-6500.0,0.0,-300.0,0.0
1513265629017703668,,555174,,1513265627,230063616,'',0.366519142919,0.357913567532,-0.0201995816199,0.0,0.001,0.0,-6500.0,0.0,-300.0,0.0
1513265629028006635,,555175,,1513265627,240063616,'',0.366519142919,0.357821947983,0.000672375835005,0.0,0.001,0.0,-6500.0,0.0,-300.0,0.0
1513265629038069414,,555176,,1513265627,250063616,'',0.366519142919,0.357933911059,0.0174321659976,0.0,0.001,0.0,-6500.0,0.0,-300.0,0.0
1513265629047881068,,555177,,1513265627,260063616,'',0.366519142919,0.358228612177,0.0305045888002,0.0,0.001,0.0,-6500.0,0.0,-300.0,0.0
1513265629057884755,,555178,,1513265627,270063616,'',0.366519142919,0.358592068663,0.0421865169974,0.0,0.001,0.0,-6500.0,0.0,-300.0,0.0
1513265629067920538,,555179,,1513265627,280063616,'',0.366519142919,0.359039950853,0.0331416343312,0.0,0.001,0.0,-6500.0,0.0,-300.0,0.0
1513265629077877320,,555180,,1513265627,290063616,'',0.366519142919,0.35949297171,0.0430140394685,0.0,0.001,0.0,-6500.0,0.0,-300.0,0.0
1513265629087737467,,555181,,1513265627,300063616,'',0.366519142919,0.35994824815,0.033814155091,0.0,0.001,0.0,-6500.0,0.0,-300.0,0.0
1513265629098202182,,555182,,1513265627,310063616,'',0.366519142919,0.360422599474,0.0432573813249,0.0,0.001,0.0,-6500.0,0.0,-300.0,0.0
1513265629108146255,,555183,,1513265627,320063616,'',0.366519142919,0.360864674223,0.0533498300657,0.0,0.001,0.0,-6500.0,0.0,-300.0,0.0
1513265629118096487,,555184,,1513265627,330063616,'',0.366519142919,0.361326019518,0.0440266187785,0.0,0.001,0.0,-6500.0,0.0,-300.0,0.0
1513265629128038014,,555185,,1513265627,340063616,'',0.366519142919,0.361721293262,0.0360423444209,0.0,0.001,0.0,-6500.0,0.0,-300.0,0.0
1513265629137868550,,555186,,1513265627,350063616,'',0.366519142919,0.36206249422,0.0291503778688,0.0,0.001,0.0,-6500.0,0.0,-300.0,0.0
1513265629147865073,,555187,,1513265627,360063616,'',0.366519142919,0.36234080609,0.0235286346153,0.0,0.001,0.0,-6500.0,0.0,-300.0,0.0
1513265629157850278,,555188,,1513265627,370063616,'',0.366519142919,0.362725482861,0.0347793541802,0.0,0.001,0.0,-6500.0,0.0,-300.0,0.0
1513265629167869608,,555189,,1513265627,380063616,'',0.366519142919,0.363106448044,0.0270893740513,0.0,0.001,0.0,-6500.0,0.0,-300.0,0.0
1513265629178143037,,555190,,1513265627,390063616,'',0.366519142919,0.363401304134,0.0211263117324,0.0,0.001,0.0,-6500.0,0.0,-300.0,0.0
1513265629188049591,,555191,,1513265627,400063616,'',0.366519142919,0.363660662627,0.0158894886626,0.0,0.001,0.0,-6500.0,0.0,-300.0,0.0
1513265629198061138,,555192,,1513265627,410063616,'',0.366519142919,0.363907735724,0.0299217859249,0.0,0.001,0.0,-6500.0,0.0,-300.0,0.0
1513265629208081420,,555193,,1513265627,420063616,'',0.366519142919,0.364160338114,0.024823423537,0.0,0.001,0.0,-6500.0,0.0,-300.0,0.0
1513265629217841339,,555194,,1513265627,430063616,'',0.366519142919,0.364367309877,0.0206430404566,0.0,0.001,0.0,-6500.0,0.0,-300.0,0.0
1513265629227728428,,555195,,1513265627,440063616,'',0.366519142919,0.364521006002,0.0175413014466,0.0,0.001,0.0,-6500.0,0.0,-300.0,0.0
1513265629237696376,,555196,,1513265627,450063616,'',0.366519142919,0.364678430992,0.0143601676865,0.0,0.001,0.0,-6500.0,0.0,-300.0,0.0
1513265629248131723,,555197,,1513265627,460063616,'',0.366519142919,0.364825356152,0.0113947029566,0.0,0.001,0.0,-6500.0,0.0,-300.0,0.0
1513265629258128004,,555198,,1513265627,470063616,'',0.366519142919,0.364961552023,0.0086445870062,0.0,0.001,0.0,-6500.0,0.0,-300.0,0.0
1513265629268097258,,555199,,1513265627,480063616,'',0.366519142919,0.365076163446,0.0253592950276,0.0,0.001,0.0,-6500.0,0.0,-300.0,0.0
1513265629278111260,,555200,,1513265627,490063616,'',0.366519142919,0.365150411068,0.00483511668712,0.0,0.001,0.0,-6500.0,0.0,-300.0,0.0
1513265629288134254,,555201,,1513265627,500063616,'',0.366519142919,0.36527520901,0.00231330079075,0.0,0.001,0.0,-6500.0,0.0,-300.0,0.0
1513265629297936785,,555202,,1513265627,510063616,'',0.366519142919,0.365346870206,0.000868879432404,0.0,0.001,0.0,-6500.0,0.0,-300.0,0.0
1513265629307874003,,555203,,1513265627,520063616,'',0.366519142919,0.36540646061,-0.000338105488205,0.0,0.001,0.0,-6500.0,0.0,-300.0,0.0
1513265629317757368,,555204,,1513265627,530063616,'',0.366519142919,0.365506352358,-0.00236644682517,0.0,0.001,0.0,-6500.0,0.0,-300.0,0.0
1513265629327675193,,555205,,1513265627,540063616,'',0.366519142919,0.365571504396,0.0153478587737,0.0,0.001,0.0,-6500.0,0.0,-300.0,0.0
1513265629338055091,,555206,,1513265627,550063616,'',0.366519142919,0.365658020941,0.0135946833909,0.0,0.001,0.0,-6500.0,0.0,-300.0,0.0
1513265629348014860,,555207,,1513265627,560063616,'',0.366519142919,0.36573014974,0.0121299875882,0.0,0.001,0.0,-6500.0,0.0,-300.0,0.0
1513265629357932467,,555208,,1513265627,570063616,'',0.366519142919,0.365768266548,-0.00766808959242,0.0,0.001,0.0,-6500.0,0.0,-300.0,0.0
1513265629367962228,,555209,,1513265627,580063616,'',0.366519142919,0.365870115315,0.00929807662302,0.0,0.001,0.0,-6500.0,0.0,-300.0,0.0
1513265629377974189,,555210,,1513265627,590063616,'',0.366519142919,0.365936689519,0.00795500165682,0.0,0.001,0.0,-6500.0,0.0,-300.0,0.0
1513265629387937497,,555211,,1513265627,600063616,'',0.366519142919,0.365989493457,-0.0121348308641,0.0,0.001,0.0,-6500.0,0.0,-300.0,0.0
1513265629398040694,,555212,,1513265627,610063616,'',0.366519142919,0.366051522608,0.00563905064359,0.0,0.001,0.0,-6500.0,0.0,-300.0,0.0
1513265629408030765,,555213,,1513265627,620063616,'',0.366519142919,0.366118241588,0.00429038253084,0.0,0.001,0.0,-6500.0,0.0,-300.0,0.0
1513265629417906983,,555214,,1513265627,630063616,'',0.366519142919,0.366121054365,0.00423746680809,0.0,0.001,0.0,-6500.0,0.0,-300.0,0.0
1513265629428279968,,555215,,1513265627,640063616,'',0.366519142919,0.366175140179,0.00315249416517,0.0,0.001,0.0,-6500.0,0.0,-300.0,0.0
1513265629438211072,,555216,,1513265627,650063616,'',0.366519142919,0.366203368897,0.0025807859799,0.0,0.001,0.0,-6500.0,0.0,-300.0,0.0
1513265629448197436,,555217,,1513265627,660063616,'',0.366519142919,0.366226486764,0.0021125864268,0.0,0.001,0.0,-6500.0,0.0,-300.0,0.0
1513265629458127951,,555218,,1513265627,670063616,'',0.366519142919,0.366228735123,0.00206621360771,0.0,0.001,0.0,-6500.0,0.0,-300.0,0.0
1513265629468220574,,555219,,1513265627,680063616,'',0.366519142919,0.366247244341,0.00169150356222,0.0,0.001,0.0,-6500.0,0.0,-300.0,0.0
1513265629477938935,,555220,,1513265627,690063616,'',0.366519142919,0.366278669394,0.00105980705941,0.0,0.001,0.0,-6500.0,0.0,-300.0,0.0
1513265629487834858,,555221,,1513265627,700063616,'',0.366519142919,0.366323526481,0.0191785335205,0.0,0.001,0.0,-6500.0,0.0,-300.0,0.0
1513265629497752382,,555222,,1513265627,710063616,'',0.366519142919,0.366324844844,0.000125182785174,0.0,0.001,0.0,-6500.0,0.0,-300.0,0.0
1513265629507753849,,555223,,1513265627,720063616,'',0.366519142919,0.366358290717,-0.000545745744954,0.0,0.001,0.0,-6500.0,0.0,-300.0,0.0
1513265629517669341,,555224,,1513265627,730063616,'',0.366519142919,0.366370971258,-0.000804873095286,0.0,0.001,0.0,-6500.0,0.0,-300.0,0.0
1513265629528170797,,555225,,1513265627,740063616,'',0.366519142919,0.366381605257,-0.00102296076612,0.0,0.001,0.0,-6500.0,0.0,-300.0,0.0
1513265629538150935,,555226,,1513265627,750063616,'',0.366519142919,0.366388639488,-0.0011626804072,0.0,0.001,0.0,-6500.0,0.0,-300.0,0.0
1513265629548050834,,555227,,1513265627,760063616,'',0.366519142919,0.366413592669,-0.00166511903368,0.0,0.001,0.0,-6500.0,0.0,-300.0,0.0
1513265629557995823,,555228,,1513265627,770063616,'',0.366519142919,0.366401018514,0.0176121301067,0.0,0.001,0.0,-6500.0,0.0,-300.0,0.0
1513265629567834837,,555229,,1513265627,780063616,'',0.366519142919,0.366388283955,-0.00115823942552,0.0,0.001,0.0,-6500.0,0.0,-300.0,0.0
1513265629577792440,,555230,,1513265627,790063616,'',0.366519142919,0.366394780358,-0.00128739561003,0.0,0.001,0.0,-6500.0,0.0,-300.0,0.0
1513265629587744251,,555231,,1513265627,800063616,'',0.366519142919,0.366383176096,-0.00105390493874,0.0,0.001,0.0,-6500.0,0.0,-300.0,0.0
1513265629598264424,,555232,,1513265627,810063616,'',0.366519142919,0.366389392722,-0.00117883513554,0.0,0.001,0.0,-6500.0,0.0,-300.0,0.0
1513265629608044761,,555233,,1513265627,820063616,'',0.366519142919,0.366412892465,-0.00165272498631,0.0,0.001,0.0,-6500.0,0.0,-300.0,0.0
1513265629617864829,,555234,,1513265627,830063616,'',0.366519142919,0.366433426544,-0.00206211038041,0.0,0.001,0.0,-6500.0,0.0,-300.0,0.0
1513265629627878328,,555235,,1513265627,840063616,'',0.366519142919,0.366463443952,-0.00267697390868,0.0,0.001,0.0,-6500.0,0.0,-300.0,0.0
1513265629637747532,,555236,,1513265627,850063616,'',0.366519142919,0.36656085754,0.0143899267724,0.0,0.001,0.0,-6500.0,0.0,-300.0,0.0
1513265629647773555,,555237,,1513265627,860063616,'',0.366519142919,0.366568997039,0.0142188935134,0.0,0.001,0.0,-6500.0,0.0,-300.0,0.0
1513265629657926159,,555238,,1513265627,870063616,'',0.366519142919,0.366660874367,-0.00666363798103,0.0,0.001,0.0,-6500.0,0.0,-300.0,0.0
1513265629668118075,,555239,,1513265627,880063616,'',0.366519142919,0.366688681534,0.0117958475411,0.0,0.001,0.0,-6500.0,0.0,-300.0,0.0
1513265629678044068,,555240,,1513265627,890063616,'',0.366519142919,0.366655898152,-0.00656940688776,0.0,0.001,0.0,-6500.0,0.0,-300.0,0.0
1513265629688143911,,555241,,1513265627,900063616,'',0.366519142919,0.366665202955,0.0122602196524,0.0,0.001,0.0,-6500.0,0.0,-300.0,0.0
1513265629698017119,,555242,,1513265627,910063616,'',0.366519142919,0.366705728865,-0.00758089632368,0.0,0.001,0.0,-6500.0,0.0,-300.0,0.0
1513265629708011405,,555243,,1513265627,920063616,'',0.366519142919,0.366775413448,0.0100409807874,0.0,0.001,0.0,-6500.0,0.0,-300.0,0.0
1513265629717818441,,555244,,1513265627,930063616,'',0.366519142919,0.366815452738,0.00922868387912,0.0,0.001,0.0,-6500.0,0.0,-300.0,0.0
1513265629727814216,,555245,,1513265627,940063616,'',0.366519142919,0.366796497595,0.00960302173547,0.0,0.001,0.0,-6500.0,0.0,-300.0,0.0
1513265629737865209,,555246,,1513265627,950063616,'',0.366519142919,0.366831238067,-0.0101173109837,0.0,0.001,0.0,-6500.0,0.0,-300.0,0.0
1513265629747790473,,555247,,1513265627,960063616,'',0.366519142919,0.366860584855,0.0083003121368,0.0,0.001,0.0,-6500.0,0.0,-300.0,0.0
1513265629758203293,,555248,,1513265627,970063616,'',0.366519142919,0.366885020063,0.00780264132166,0.0,0.001,0.0,-6500.0,0.0,-300.0,0.0
1513265629768156819,,555249,,1513265627,980063616,'',0.366519142919,0.366922932232,0.00704488422733,0.0,0.001,0.0,-6500.0,0.0,-300.0,0.0
1513265629778129990,,555250,,1513265627,990063616,'',0.366519142919,0.366900823709,-0.0115258561381,0.0,0.001,0.0,-6500.0,0.0,-300.0,0.0
1513265629788057312,,555251,,1513265628,63616,'',0.366519142919,0.366919372052,0.00712352672927,0.0,0.001,0.0,-6500.0,0.0,-300.0,0.0
1513265629798134277,,555252,,1513265628,10063616,'',0.366519142919,0.366895541466,-0.0114346130482,0.0,0.001,0.0,-6500.0,0.0,-300.0,0.0
1513265629808024588,,555253,,1513265628,20063616,'',0.366519142919,0.366912878332,0.00723770597107,0.0,0.001,0.0,-6500.0,0.0,-300.0,0.0
1513265629818004621,,555254,,1513265628,30063616,'',0.366519142919,0.366943858243,0.00661814718443,0.0,0.001,0.0,-6500.0,0.0,-300.0,0.0
1513265629827868842,,555255,,1513265628,40063616,'',0.366519142919,0.366968972586,0.00611013352551,0.0,0.001,0.0,-6500.0,0.0,-300.0,0.0
1513265629837884085,,555256,,1513265628,50063616,'',0.366519142919,0.367005963748,0.00536206311617,0.0,0.001,0.0,-6500.0,0.0,-300.0,0.0
1513265629847849497,,555257,,1513265628,60063616,'',0.366519142919,0.367054317981,0.00438937514006,0.0,0.001,0.0,-6500.0,0.0,-300.0,0.0
1513265629857761393,,555258,,1513265628,70063616,'',0.366519142919,0.36707787085,0.00391908927748,0.0,0.001,0.0,-6500.0,0.0,-300.0,0.0
1513265629868159584,,555259,,1513265628,80063616,'',0.366519142919,0.367113174165,0.0032082970555,0.0,0.001,0.0,-6500.0,0.0,-300.0,0.0
1513265629878190748,,555260,,1513265628,90063616,'',0.366519142919,0.367142006817,0.00262778430357,0.0,0.001,0.0,-6500.0,0.0,-300.0,0.0
1513265629888100302,,555261,,1513265628,100063616,'',0.366519142919,0.367165671891,0.00215131487693,0.0,0.001,0.0,-6500.0,0.0,-300.0,0.0
1513265629898058296,,555262,,1513265628,110063616,'',0.366519142919,0.367167429174,0.0021171334677,0.0,0.001,0.0,-6500.0,0.0,-300.0,0.0
1513265629908181662,,555263,,1513265628,120063616,'',0.366519142919,0.36718648426,0.00173326343319,0.0,0.001,0.0,-6500.0,0.0,-300.0,0.0
1513265629918049945,,555264,,1513265628,130063616,'',0.366519142919,0.367202083347,0.00141901545199,0.0,0.001,0.0,-6500.0,0.0,-300.0,0.0
1513265629927884105,,555265,,1513265628,140063616,'',0.366519142919,0.367196490205,0.00153256040457,0.0,0.001,0.0,-6500.0,0.0,-300.0,0.0
1513265629937877490,,555266,,1513265628,150063616,'',0.366519142919,0.36721027636,0.00125467679888,0.0,0.001,0.0,-6500.0,0.0,-300.0,0.0
1513265629947878407,,555267,,1513265628,160063616,'',0.366519142919,0.367221564755,0.00102713982079,0.0,0.001,0.0,-6500.0,0.0,-300.0,0.0
1513265629957808579,,555268,,1513265628,170063616,'',0.366519142919,0.367230785892,0.000841271980482,0.0,0.001,0.0,-6500.0,0.0,-300.0,0.0
1513265629968247325,,555269,,1513265628,180063616,'',0.366519142919,0.367256708082,0.0193390388717,0.0,0.001,0.0,-6500.0,0.0,-300.0,0.0
1513265629978234016,,555270,,1513265628,190063616,'',0.366519142919,0.367259574738,0.000256151686299,0.0,0.001,0.0,-6500.0,0.0,-300.0,0.0
1513265629988125240,,555271,,1513265628,200063616,'',0.366519142919,0.367277651017,-0.00010665602804,0.0,0.001,0.0,-6500.0,0.0,-300.0,0.0
1513265629998060392,,555272,,1513265628,210063616,'',0.366519142919,0.36725867814,0.000276805070926,0.0,0.001,0.0,-6500.0,0.0,-300.0,0.0
1513265630008048437,,555273,,1513265628,220063616,'',0.366519142919,0.367261188604,0.00022661049776,0.0,0.001,0.0,-6500.0,0.0,-300.0,0.0
1513265630017954999,,555274,,1513265628,230063616,'',0.366519142919,0.367263243612,0.000185522403446,0.0,0.001,0.0,-6500.0,0.0,-300.0,0.0
1513265630028006154,,555275,,1513265628,240063616,'',0.366519142919,0.367264926339,0.000151877717352,0.0,0.001,0.0,-6500.0,0.0,-300.0,0.0
1513265630037895585,,555276,,1513265628,250063616,'',0.366519142919,0.367266303784,0.000124336902546,0.0,0.001,0.0,-6500.0,0.0,-300.0,0.0
1513265630047878167,,555277,,1513265628,260063616,'',0.366519142919,0.367267431546,0.000101788272416,0.0,0.001,0.0,-6500.0,0.0,-300.0,0.0
1513265630057688164,,555278,,1513265628,270063616,'',0.366519142919,0.367284600531,-0.000241698826174,0.0,0.001,0.0,-6500.0,0.0,-300.0,0.0
1513265630068128836,,555279,,1513265628,280063616,'',0.366519142919,0.36728240997,-0.000197862711826,0.0,0.001,0.0,-6500.0,0.0,-300.0,0.0
1513265630078199144,,555280,,1513265628,290063616,'',0.366519142919,0.367280616047,-0.000161963878426,0.0,0.001,0.0,-6500.0,0.0,-300.0,0.0
1513265630087996682,,555281,,1513265628,300063616,'',0.366519142919,0.367279151046,-0.000132647205322,0.0,0.001,0.0,-6500.0,0.0,-300.0,0.0
1513265630097943368,,555282,,1513265628,310063616,'',0.366519142919,0.367311976086,0.018225968212,0.0,0.001,0.0,-6500.0,0.0,-300.0,0.0
1513265630107880566,,555283,,1513265628,320063616,'',0.366519142919,0.367341946802,0.0176203961231,0.0,0.001,0.0,-6500.0,0.0,-300.0,0.0
1513265630117967620,,555284,,1513265628,330063616,'',0.366519142919,0.367346241709,-0.00149255115051,0.0,0.001,0.0,-6500.0,0.0,-300.0,0.0
1513265630127996469,,555285,,1513265628,340063616,'',0.366519142919,0.367332875233,-0.00122192784291,0.0,0.001,0.0,-6500.0,0.0,-300.0,0.0
1513265630137841416,,555286,,1513265628,350063616,'',0.366519142919,0.367357259066,0.0173040840575,0.0,0.001,0.0,-6500.0,0.0,-300.0,0.0
1513265630147890632,,555287,,1513265628,360063616,'',0.366519142919,0.367360350043,-0.00178038138414,0.0,0.001,0.0,-6500.0,0.0,-300.0,0.0
1513265630157783979,,555288,,1513265628,370063616,'',0.366519142919,0.367344415216,-0.00145736137644,0.0,0.001,0.0,-6500.0,0.0,-300.0,0.0
1513265630168220437,,555289,,1513265628,380063616,'',0.366519142919,0.367346933008,-0.00151147051086,0.0,0.001,0.0,-6500.0,0.0,-300.0,0.0
1513265630177701913,,555290,,1513265628,390063616,'',0.366519142919,0.367352200299,0.0174086397032,0.0,0.001,0.0,-6500.0,0.0,-300.0,0.0
1513265630187704418,,555291,,1513265628,400063616,'',0.366519142919,0.367374115871,0.0169626447934,0.0,0.001,0.0,-6500.0,0.0,-300.0,0.0
1513265630198001299,,555292,,1513265628,410063616,'',0.366519142919,0.367407950366,0.0162762633133,0.0,0.001,0.0,-6500.0,0.0,-300.0,0.0
1513265630207965481,,555293,,1513265628,420063616,'',0.366519142919,0.367401409577,-0.00261512298864,0.0,0.001,0.0,-6500.0,0.0,-300.0,0.0
1513265630217878151,,555294,,1513265628,430063616,'',0.366519142919,0.367411294736,-0.0028130910215,0.0,0.001,0.0,-6500.0,0.0,-300.0,0.0
1513265630227792570,,555295,,1513265628,440063616,'',0.366519142919,0.367403722949,-0.00265512052934,0.0,0.001,0.0,-6500.0,0.0,-300.0,0.0
1513265630237728698,,555296,,1513265628,450063616,'',0.366519142919,0.36742923089,-0.00316791145323,0.0,0.001,0.0,-6500.0,0.0,-300.0,0.0
1513265630247675120,,555297,,1513265628,460063616,'',0.366519142919,0.367416420499,-0.00291257783116,0.0,0.001,0.0,-6500.0,0.0,-300.0,0.0
1513265630258033749,,555298,,1513265628,470063616,'',0.366519142919,0.367425617125,-0.00309411097806,0.0,0.001,0.0,-6500.0,0.0,-300.0,0.0
1513265630267925070,,555299,,1513265628,480063616,'',0.366519142919,0.367447583087,-0.00355023974814,0.0,0.001,0.0,-6500.0,0.0,-300.0,0.0
1513265630277786637,,555300,,1513265628,490063616,'',0.366519142919,0.367451845026,-0.00363763774167,0.0,0.001,0.0,-6500.0,0.0,-300.0,0.0
1513265630287700225,,555301,,1513265628,500063616,'',0.366519142919,0.367436067099,-0.00331624009332,0.0,0.001,0.0,-6500.0,0.0,-300.0,0.0
1513265630298109532,,555302,,1513265628,510063616,'',0.366519142919,0.367424109869,-0.00307156419926,0.0,0.001,0.0,-6500.0,0.0,-300.0,0.0
1513265630308105890,,555303,,1513265628,520063616,'',0.366519142919,0.367448887103,-0.00357857462809,0.0,0.001,0.0,-6500.0,0.0,-300.0,0.0
1513265630318064202,,555304,,1513265628,530063616,'',0.366519142919,0.367449441006,-0.00358318512362,0.0,0.001,0.0,-6500.0,0.0,-300.0,0.0
1513265630327925612,,555305,,1513265628,540063616,'',0.366519142919,0.367417365615,-0.00293355251469,0.0,0.001,0.0,-6500.0,0.0,-300.0,0.0
1513265630338051091,,555306,,1513265628,550063616,'',0.366519142919,0.367391090803,-0.00240140076704,0.0,0.001,0.0,-6500.0,0.0,-300.0,0.0
1513265630347775231,,555307,,1513265628,560063616,'',0.366519142919,0.367405647254,-0.0026906236596,0.0,0.001,0.0,-6500.0,0.0,-300.0,0.0
1513265630357823522,,555308,,1513265628,570063616,'',0.366519142919,0.367467819801,0.0150739134087,0.0,0.001,0.0,-6500.0,0.0,-300.0,0.0
1513265630367703953,,555309,,1513265628,580063616,'',0.366519142919,0.367482810745,-0.00425064772017,0.0,0.001,0.0,-6500.0,0.0,-300.0,0.0
1513265630378226129,,555310,,1513265628,590063616,'',0.366519142919,0.367460370921,-0.00379594433663,0.0,0.001,0.0,-6500.0,0.0,-300.0,0.0
1513265630388204660,,555311,,1513265628,600063616,'',0.366519142919,0.367511440681,-0.00483130275628,0.0,0.001,0.0,-6500.0,0.0,-300.0,0.0
1513265630398064126,,555312,,1513265628,610063616,'',0.366519142919,0.367551303845,-0.00563983646544,0.0,0.001,0.0,-6500.0,0.0,-300.0,0.0
1513265630408017011,,555313,,1513265628,620063616,'',0.366519142919,0.367566891418,-0.0059635305494,0.0,0.001,0.0,-6500.0,0.0,-300.0,0.0
1513265630417883484,,555314,,1513265628,630063616,'',0.366519142919,0.367564926012,-0.00592717197115,0.0,0.001,0.0,-6500.0,0.0,-300.0,0.0
1513265630427834698,,555315,,1513265628,640063616,'',0.366519142919,0.36759406953,-0.00650763322401,0.0,0.001,0.0,-6500.0,0.0,-300.0,0.0
1513265630437876076,,555316,,1513265628,650063616,'',0.366519142919,0.367639574602,0.0115994091181,0.0,0.001,0.0,-6500.0,0.0,-300.0,0.0
1513265630447894679,,555317,,1513265628,660063616,'',0.366519142919,0.36769523862,0.0104798493125,0.0,0.001,0.0,-6500.0,0.0,-300.0,0.0
1513265630457873817,,555318,,1513265628,670063616,'',0.366519142919,0.367703911393,0.0103138813092,0.0,0.001,0.0,-6500.0,0.0,-300.0,0.0
1513265630467714973,,555319,,1513265628,680063616,'',0.366519142919,0.367709769885,0.010187009015,0.0,0.001,0.0,-6500.0,0.0,-300.0,0.0
1513265630478033683,,555320,,1513265628,690063616,'',0.366519142919,0.367717504853,0.0100366947886,0.0,0.001,0.0,-6500.0,0.0,-300.0,0.0
1513265630487979484,,555321,,1513265628,700063616,'',0.366519142919,0.367724703485,0.00988724343848,0.0,0.001,0.0,-6500.0,0.0,-300.0,0.0
1513265630497933030,,555322,,1513265628,710063616,'',0.366519142919,0.367743223512,-0.0095109262397,0.0,0.001,0.0,-6500.0,0.0,-300.0,0.0
1513265630507988781,,555323,,1513265628,720063616,'',0.366519142919,0.36776190719,0.00913911422718,0.0,0.001,0.0,-6500.0,0.0,-300.0,0.0
1513265630517857645,,555324,,1513265628,730063616,'',0.366519142919,0.367741398233,-0.00947300778183,0.0,0.001,0.0,-6500.0,0.0,-300.0,0.0
1513265630527831703,,555325,,1513265628,740063616,'',0.366519142919,0.367724897729,-0.00914294668556,0.0,0.001,0.0,-6500.0,0.0,-300.0,0.0
1513265630537960254,,555326,,1513265628,750063616,'',0.366519142919,0.367694091316,-0.00852383005057,0.0,0.001,0.0,-6500.0,0.0,-300.0,0.0
1513265630547734378,,555327,,1513265628,760063616,'',0.366519142919,0.367735260454,0.00966745659325,0.0,0.001,0.0,-6500.0,0.0,-300.0,0.0
1513265630557711160,,555328,,1513265628,770063616,'',0.366519142919,0.367787756907,0.00861249053647,0.0,0.001,0.0,-6500.0,0.0,-300.0,0.0
1513265630567681047,,555329,,1513265628,780063616,'',0.366519142919,0.367780001143,0.00875999973045,0.0,0.001,0.0,-6500.0,0.0,-300.0,0.0
1513265630578258692,,555330,,1513265628,790063616,'',0.366519142919,0.367776954224,0.00882695797417,0.0,0.001,0.0,-6500.0,0.0,-300.0,0.0
1513265630588284875,,555331,,1513265628,800063616,'',0.366519142919,0.367770223448,-0.0100529131761,0.0,0.001,0.0,-6500.0,0.0,-300.0,0.0
1513265630598240167,,555332,,1513265628,810063616,'',0.366519142919,0.367733067067,0.00972654517206,0.0,0.001,0.0,-6500.0,0.0,-300.0,0.0
1513265630608002299,,555333,,1513265628,820063616,'',0.366519142919,0.367786254732,0.00865983016252,0.0,0.001,0.0,-6500.0,0.0,-300.0,0.0
1513265630617992659,,555334,,1513265628,830063616,'',0.366519142919,0.36776255341,0.00913580107176,0.0,0.001,0.0,-6500.0,0.0,-300.0,0.0
1513265630627920064,,555335,,1513265628,840063616,'',0.366519142919,0.367794750174,0.00848836897975,0.0,0.001,0.0,-6500.0,0.0,-300.0,0.0
1513265630637735363,,555336,,1513265628,850063616,'',0.366519142919,0.367855191881,0.00726479826641,0.0,0.001,0.0,-6500.0,0.0,-300.0,0.0
1513265630647815499,,555337,,1513265628,860063616,'',0.366519142919,0.367818298149,0.00800404610209,0.0,0.001,0.0,-6500.0,0.0,-300.0,0.0
1513265630658167959,,555338,,1513265628,870063616,'',0.366519142919,0.367871427847,-0.0120944750285,0.0,0.001,0.0,-6500.0,0.0,-300.0,0.0
1513265630667902302,,555339,,1513265628,880063616,'',0.366519142919,0.367847087228,0.0074149887258,0.0,0.001,0.0,-6500.0,0.0,-300.0,0.0
1513265630677873267,,555340,,1513265628,890063616,'',0.366519142919,0.36786484333,-0.0118778484665,0.0,0.001,0.0,-6500.0,0.0,-300.0,0.0
1513265630687742636,,555341,,1513265628,900063616,'',0.366519142919,0.367840353069,-0.0113853162424,0.0,0.001,0.0,-6500.0,0.0,-300.0,0.0
1513265630698195617,,555342,,1513265628,910063616,'',0.366519142919,0.367823632508,0.00796215007733,0.0,0.001,0.0,-6500.0,0.0,-300.0,0.0
1513265630708051101,,555343,,1513265628,920063616,'',0.366519142919,0.367810415642,0.00821969989334,0.0,0.001,0.0,-6500.0,0.0,-300.0,0.0
1513265630717929460,,555344,,1513265628,930063616,'',0.366519142919,0.367832857636,0.0077588423444,0.0,0.001,0.0,-6500.0,0.0,-300.0,0.0
1513265630727931362,,555345,,1513265628,940063616,'',0.366519142919,0.367884883452,0.00670134638994,0.0,0.001,0.0,-6500.0,0.0,-300.0,0.0
1513265630737866319,,555346,,1513265628,950063616,'',0.366519142919,0.367874542496,0.00689872451688,0.0,0.001,0.0,-6500.0,0.0,-300.0,0.0
1513265630747771774,,555347,,1513265628,960063616,'',0.366519142919,0.367919884548,0.00598032340942,0.0,0.001,0.0,-6500.0,0.0,-300.0,0.0
1513265630757877770,,555348,,1513265628,970063616,'',0.366519142919,0.367920542096,0.00595862584716,0.0,0.001,0.0,-6500.0,0.0,-300.0,0.0
