rosbagTimestamp,header,seq,stamp,secs,nsecs,frame_id,set_point,process_value,process_value_dot,error,time_step,command,p,i,d,i_clamp
1513265626877736757,,554951,,1513265625,90063616,'',0.767944870878,0.815321952074,0.00108160216338,0.0473770811965,0.001,-341.557724366,7200.0,0.0,410.0,0.0
1513265626888104233,,554952,,1513265625,100063616,'',0.767944870878,0.815331609782,0.000885401790821,0.0473867389048,0.001,-341.547991036,7200.0,0.0,410.0,0.0
1513265626898049053,,554953,,1513265625,110063616,'',0.767944870878,0.8153395122,0.000724860880731,0.0473946413225,0.001,-341.53905513,7200.0,0.0,410.0,0.0
1513265626907961036,,554954,,1513265625,120063616,'',0.767944870878,0.815345981056,0.000593443371221,0.0474011101786,0.001,-341.531377747,7200.0,0.0,410.0,0.0
1513265626917923154,,554955,,1513265625,130063616,'',0.767944870878,0.815377871009,-6.26082089841e-05,0.0474330001316,0.001,-341.495797214,7200.0,0.0,410.0,0.0
1513265626927805338,,554956,,1513265625,140063616,'',0.767944870878,0.815377385265,-5.12541433884e-05,0.0474325143874,0.001,-341.496253986,7200.0,0.0,410.0,0.0
1513265626937783621,,554957,,1513265625,150063616,'',0.767944870878,0.815376987645,-4.19599500351e-05,0.0474321167677,0.001,-341.496355823,7200.0,0.0,410.0,0.0
1513265626948232000,,554958,,1513265625,160063616,'',0.767944870878,0.815376662135,-3.43512872511e-05,0.0474317912575,0.001,-341.496702459,7200.0,0.0,410.0,0.0
1513265626958181882,,554959,,1513265625,170063616,'',0.767944870878,0.815376396172,-2.81345206179e-05,0.0474315252948,0.001,-341.49723448,7200.0,0.0,410.0,0.0
1513265626968145408,,554960,,1513265625,180063616,'',0.767944870878,0.81537617783,-2.30308675416e-05,0.0474313069528,0.001,-341.497379581,7200.0,0.0,410.0,0.0
1513265626978143613,,554961,,1513265625,190063616,'',0.767944870878,0.815375999211,-1.88557235312e-05,0.0474311283338,0.001,-341.497409365,7200.0,0.0,410.0,0.0
1513265626988070660,,554962,,1513265625,200063616,'',0.767944870878,0.815375852932,-1.54365123469e-05,0.0474309820547,0.001,-341.497584296,7200.0,0.0,410.0,0.0
1513265626997988791,,554963,,1513265625,210063616,'',0.767944870878,0.815375726783,-2.31952497359e-05,0.0474308559052,0.001,-341.497732579,7200.0,0.0,410.0,0.0
1513265627007931743,,554964,,1513265625,220063616,'',0.767944870878,0.815375630071,-1.89963737571e-05,0.047430759194,0.001,-341.49791845,7200.0,0.0,410.0,0.0
1513265627017880508,,554965,,1513265625,230063616,'',0.767944870878,0.815375550703,-1.55504712482e-05,0.0474306798257,0.001,-341.497966986,7200.0,0.0,410.0,0.0
1513265627027867729,,554966,,1513265625,240063616,'',0.767944870878,0.815375485778,-1.27316515021e-05,0.0474306149009,0.001,-341.497991056,7200.0,0.0,410.0,0.0
1513265627037860730,,554967,,1513265625,250063616,'',0.767944870878,0.815375432594,-1.04225541022e-05,0.0474305617162,0.001,-341.498050456,7200.0,0.0,410.0,0.0
1513265627047948320,,554968,,1513265625,260063616,'',0.767944870878,0.815375389039,-8.5315584221e-06,0.0474305181616,0.001,-341.498091959,7200.0,0.0,410.0,0.0
1513265627058069437,,554969,,1513265625,270063616,'',0.767944870878,0.815346229923,-0.0296918289224,0.0474013590452,0.001,-329.347812474,7200.0,0.0,410.0,0.0
1513265627068045952,,554970,,1513265625,280063616,'',0.767944870878,0.815351481871,0.000484493798097,0.0474066109936,0.001,-341.524773505,7200.0,0.0,410.0,0.0
1513265627077913373,,554971,,1513265625,290063616,'',0.767944870878,0.815329741696,0.000920329785009,0.047384870819,0.001,-341.549032306,7200.0,0.0,410.0,0.0
1513265627087831275,,554972,,1513265625,300063616,'',0.767944870878,0.815337983545,0.000753441365748,0.0473931126674,0.001,-341.539538751,7200.0,0.0,410.0,0.0
1513265627097782898,,554973,,1513265625,310063616,'',0.767944870878,0.815344731435,0.000616803969023,0.0473998605574,0.001,-341.532062949,7200.0,0.0,410.0,0.0
1513265627107710623,,554974,,1513265625,320063616,'',0.767944870878,0.815350257134,0.000504914610154,0.0474053862562,0.001,-341.52614013,7200.0,0.0,410.0,0.0
1513265627117674400,,554975,,1513265625,330063616,'',0.767944870878,0.815328362845,0.000941356252622,0.0473834919673,0.001,-341.552532618,7200.0,0.0,410.0,0.0
1513265627128112882,,554976,,1513265625,340063616,'',0.767944870878,0.81533685162,0.000770717462924,0.0473919807425,0.001,-341.540486876,7200.0,0.0,410.0,0.0
1513265627137892920,,554977,,1513265625,350063616,'',0.767944870878,0.815373126495,4.03364377713e-05,0.0474282556174,0.001,-341.500588357,7200.0,0.0,410.0,0.0
1513265627148003353,,554978,,1513265625,360063616,'',0.767944870878,0.81537350127,3.30194922377e-05,0.0474286303927,0.001,-341.500216626,7200.0,0.0,410.0,0.0
1513265627158085086,,554979,,1513265625,370063616,'',0.767944870878,0.815373807765,2.70356259296e-05,0.0474289368875,0.001,-341.499850081,7200.0,0.0,410.0,0.0
1513265627167902796,,554980,,1513265625,380063616,'',0.767944870878,0.81537405837,2.21429257242e-05,0.0474291874925,0.001,-341.499362099,7200.0,0.0,410.0,0.0
1513265627177825610,,554981,,1513265625,390063616,'',0.767944870878,0.81539937968,-0.000485253867376,0.0474545088029,0.001,-341.475764311,7200.0,0.0,410.0,0.0
1513265627187913271,,554982,,1513265625,400063616,'',0.767944870878,0.815394994165,-0.000397269608633,0.0474501232879,0.001,-341.476220258,7200.0,0.0,410.0,0.0
1513265627197784334,,554983,,1513265625,410063616,'',0.767944870878,0.815363871118,0.000231053408359,0.0474190002403,0.001,-341.511039281,7200.0,0.0,410.0,0.0
1513265627207789063,,554984,,1513265625,420063616,'',0.767944870878,0.815337275805,0.000768822192601,0.0473924049273,0.001,-341.540322837,7200.0,0.0,410.0,0.0
1513265627218169569,,554985,,1513265625,430063616,'',0.767944870878,0.815368907078,0.000122876571206,0.0474240362003,0.001,-341.505392255,7200.0,0.0,410.0,0.0
1513265627228143796,,554986,,1513265625,440063616,'',0.767944870878,0.815398125466,-0.000466931618895,0.0474532545881,0.001,-341.472131503,7200.0,0.0,410.0,0.0
1513265627237929554,,554987,,1513265625,450063616,'',0.767944870878,0.815423247955,-0.000966711447103,0.0474783770779,0.001,-341.453509999,7200.0,0.0,410.0,0.0
1513265627247986259,,554988,,1513265625,460063616,'',0.767944870878,0.815414515049,-0.000791035103226,0.0474696441714,0.001,-341.453182832,7200.0,0.0,410.0,0.0
1513265627257763254,,554989,,1513265625,470063616,'',0.767944870878,0.815407401834,-0.000647941427399,0.047462530956,0.001,-341.462375147,7200.0,0.0,410.0,0.0
1513265627268116802,,554990,,1513265625,480063616,'',0.767944870878,0.81540156014,-0.000530426440042,0.0474566892623,0.001,-341.469366953,7200.0,0.0,410.0,0.0
1513265627278141822,,554991,,1513265625,490063616,'',0.767944870878,0.815371741587,6.93546143175e-05,0.0474268707097,0.001,-341.502049661,7200.0,0.0,410.0,0.0
1513265627288075190,,554992,,1513265625,500063616,'',0.767944870878,0.81537236742,5.67770809061e-05,0.0474274965427,0.001,-341.501445799,7200.0,0.0,410.0,0.0
1513265627297948318,,554993,,1513265625,510063616,'',0.767944870878,0.815398707723,-0.000476354412628,0.0474538368453,0.001,-341.47620329,7200.0,0.0,410.0,0.0
1513265627307986248,,554994,,1513265625,520063616,'',0.767944870878,0.815394442117,-0.000389944717463,0.0474495712393,0.001,-341.480214477,7200.0,0.0,410.0,0.0
1513265627317890878,,554995,,1513265625,530063616,'',0.767944870878,0.815418841597,-0.000889832098729,0.047473970719,0.001,-341.449174737,7200.0,0.0,410.0,0.0
1513265627327889585,,554996,,1513265625,540063616,'',0.767944870878,0.815359020066,0.000318977888462,0.0474141491886,0.001,-341.516523298,7200.0,0.0,410.0,0.0
1513265627337802087,,554997,,1513265625,550063616,'',0.767944870878,0.815391834235,0.0299383342174,0.0474469633578,0.001,-353.979451519,7200.0,0.0,410.0,0.0
1513265627347770208,,554998,,1513265625,560063616,'',0.767944870878,0.815388823588,-0.000274648488713,0.0474439527104,0.001,-341.483105705,7200.0,0.0,410.0,0.0
1513265627358190653,,554999,,1513265625,570063616,'',0.767944870878,0.815389132782,-0.000285473720744,0.0474442619046,0.001,-341.48276069,7200.0,0.0,410.0,0.0
1513265627368050912,,555000,,1513265625,580063616,'',0.767944870878,0.815386604268,-0.000233693841578,0.0474417333905,0.001,-341.485308974,7200.0,0.0,410.0,0.0
1513265627378051995,,555001,,1513265625,590063616,'',0.767944870878,0.815389508622,0.029982783526,0.0474446377443,0.001,-353.996909154,7200.0,0.0,410.0,0.0
1513265627387882874,,555002,,1513265625,600063616,'',0.767944870878,0.815386912831,-0.000244109923241,0.0474420419537,0.001,-341.485237825,7200.0,0.0,410.0,0.0
1513265627397874746,,555003,,1513265625,610063616,'',0.767944870878,0.815384792331,-0.000199944222338,0.0474399214536,0.001,-341.487680581,7200.0,0.0,410.0,0.0
1513265627407897724,,555004,,1513265625,620063616,'',0.767944870878,0.815383050948,-0.000163674758166,0.0474381800706,0.001,-341.489359006,7200.0,0.0,410.0,0.0
1513265627417810729,,555005,,1513265625,630063616,'',0.767944870878,0.81538162505,-0.000133976193728,0.0474367541721,0.001,-341.490817412,7200.0,0.0,410.0,0.0
1513265627428155353,,555006,,1513265625,640063616,'',0.767944870878,0.815380459762,-0.000109705620583,0.0474355888843,0.001,-341.49243849,7200.0,0.0,410.0,0.0
1513265627437997547,,555007,,1513265625,650063616,'',0.767944870878,0.815379504031,-8.97996834762e-05,0.0474346331531,0.001,-341.493255525,7200.0,0.0,410.0,0.0
1513265627448699489,,555008,,1513265625,660063616,'',0.767944870878,0.815378723904,-7.35512312676e-05,0.0474338530263,0.001,-341.494910694,7200.0,0.0,410.0,0.0
1513265627458045709,,555009,,1513265625,670063616,'',0.767944870878,0.815351603839,0.000479092096519,0.0474067329614,0.001,-341.524637407,7200.0,0.0,410.0,0.0
1513265627467881291,,555010,,1513265625,680063616,'',0.767944870878,0.815355881214,0.000392217583993,0.0474110103362,0.001,-341.519517821,7200.0,0.0,410.0,0.0
1513265627477945545,,555011,,1513265625,690063616,'',0.767944870878,0.815359384322,0.00032106860277,0.0474145134449,0.001,-341.516617759,7200.0,0.0,410.0,0.0
1513265627487826411,,555012,,1513265625,700063616,'',0.767944870878,0.815390756595,-0.000315370664318,0.047445885718,0.001,-341.480793527,7200.0,0.0,410.0,0.0
1513265627497712055,,555013,,1513265625,710063616,'',0.767944870878,0.815387935616,-0.000258209867643,0.0474430647387,0.001,-341.483994874,7200.0,0.0,410.0,0.0
1513265627508084679,,555014,,1513265625,720063616,'',0.767944870878,0.815385629222,-0.000211475984342,0.0474407583447,0.001,-341.488689012,7200.0,0.0,410.0,0.0
1513265627518214447,,555015,,1513265625,730063616,'',0.767944870878,0.815383736844,-0.000173131192926,0.0474388659662,0.001,-341.488713581,7200.0,0.0,410.0,0.0
1513265627527872832,,555016,,1513265625,740063616,'',0.767944870878,0.815382187324,-0.000141733666099,0.0474373164467,0.001,-341.490510788,7200.0,0.0,410.0,0.0
1513265627538012221,,555017,,1513265625,750063616,'',0.767944870878,0.815380918921,-0.000116032327431,0.0474360480434,0.001,-341.491823334,7200.0,0.0,410.0,0.0
1513265627547975604,,555018,,1513265625,760063616,'',0.767944870878,0.815409255245,-0.000687039531338,0.0474643843678,0.001,-341.459967289,7200.0,0.0,410.0,0.0
1513265627557943855,,555019,,1513265625,770063616,'',0.767944870878,0.815403081926,-0.000562524642272,0.0474582110481,0.001,-341.466750468,7200.0,0.0,410.0,0.0
1513265627567816233,,555020,,1513265625,780063616,'',0.767944870878,0.815398034173,-0.000460712262962,0.0474531632955,0.001,-341.477975168,7200.0,0.0,410.0,0.0
1513265627577946693,,555021,,1513265625,790063616,'',0.767944870878,0.815444250535,-0.0013932704877,0.0474993796579,0.001,-341.422359448,7200.0,0.0,410.0,0.0
1513265627587803507,,555022,,1513265625,800063616,'',0.767944870878,0.815456900694,-0.00165140516347,0.0475120298169,0.001,-341.429625909,7200.0,0.0,410.0,0.0
1513265627597755652,,555023,,1513265625,810063616,'',0.767944870878,0.815471888596,0.0283260263041,0.0475270177186,0.001,-353.857440107,7200.0,0.0,410.0,0.0
1513265627607912949,,555024,,1513265625,820063616,'',0.767944870878,0.815454352662,-0.00160087755578,0.0475094817846,0.001,-341.410616599,7200.0,0.0,410.0,0.0
1513265627617958869,,555025,,1513265625,830063616,'',0.767944870878,0.815468606021,-0.00188906902922,0.0475237351439,0.001,-341.408983977,7200.0,0.0,410.0,0.0
1513265627627856159,,555026,,1513265625,840063616,'',0.767944870878,0.815451666844,-0.00154651383944,0.0475067959669,0.001,-341.411761619,7200.0,0.0,410.0,0.0
1513265627637657949,,555027,,1513265625,850063616,'',0.767944870878,0.815463099226,-0.00177815621583,0.0475182283485,0.001,-341.399348401,7200.0,0.0,410.0,0.0
1513265627648141112,,555028,,1513265625,860063616,'',0.767944870878,0.815451561751,0.0287407131665,0.0475066908733,0.001,-353.854626173,7200.0,0.0,410.0,0.0
1513265627658199118,,555029,,1513265625,870063616,'',0.767944870878,0.815437712112,-0.00126186902605,0.0474928412343,0.001,-341.429052208,7200.0,0.0,410.0,0.0
1513265627668118695,,555030,,1513265625,880063616,'',0.767944870878,0.815400040188,-0.000486278838028,0.0474551693108,0.001,-341.469747038,7200.0,0.0,410.0,0.0
1513265627678070786,,555031,,1513265625,890063616,'',0.767944870878,0.81536572,-0.0300760784045,0.0474208491226,0.001,-329.032776661,7200.0,0.0,410.0,0.0
1513265627687867343,,555032,,1513265625,900063616,'',0.767944870878,0.815367438187,0.000168725763879,0.0474225673096,0.001,-341.507107841,7200.0,0.0,410.0,0.0
1513265627697943641,,555033,,1513265625,910063616,'',0.767944870878,0.815368844174,0.00013813309422,0.0474239732964,0.001,-341.505501064,7200.0,0.0,410.0,0.0
1513265627707794420,,555034,,1513265625,920063616,'',0.767944870878,0.815398048364,-0.000453987122658,0.0474531774861,0.001,-341.472994587,7200.0,0.0,410.0,0.0
1513265627717750747,,555035,,1513265625,930063616,'',0.767944870878,0.815422738363,-0.00094034353016,0.0474778674858,0.001,-341.45360594,7200.0,0.0,410.0,0.0
1513265627727653738,,555036,,1513265625,940063616,'',0.767944870878,0.815439307742,-0.00127365908173,0.0474944368649,0.001,-341.441220539,7200.0,0.0,410.0,0.0
1513265627738091353,,555037,,1513265625,950063616,'',0.767944870878,0.815172186601,-0.0564279498695,0.0472273157233,0.001,-316.774090519,7200.0,0.0,410.0,0.0
1513265627748008024,,555038,,1513265625,960063616,'',0.767944870878,0.814467062155,-0.102743567123,0.0465221912773,0.001,-292.695341089,7200.0,0.0,410.0,0.0
1513265627757992912,,555039,,1513265625,970063616,'',0.767944870878,0.813401815772,-0.11151019482,0.045456944895,0.001,-283.03045452,7200.0,0.0,410.0,0.0
1513265627767826412,,555040,,1513265625,980063616,'',0.767944870878,0.81201257549,-0.144010661717,0.0440677046128,0.001,-257.944032465,7200.0,0.0,410.0,0.0
1513265627777758996,,555041,,1513265625,990063616,'',0.767944870878,0.810500819395,-0.143753351441,0.0425559485172,0.001,-248.585998874,7200.0,0.0,410.0,0.0
1513265627788236565,,555042,,1513265626,63616,'',0.767944870878,0.809095755983,-0.145650279997,0.0411508851052,0.001,-236.384729353,7200.0,0.0,410.0,0.0
1513265627798113481,,555043,,1513265626,10063616,'',0.767944870878,0.807926463626,-0.0917468239954,0.0399815927482,0.001,-250.096183408,7200.0,0.0,410.0,0.0
1513265627807973581,,555044,,1513265626,20063616,'',0.767944870878,0.806859308216,-0.100472605908,0.0389144373386,0.001,-238.733452323,7200.0,0.0,410.0,0.0
1513265627817899840,,555045,,1513265626,30063616,'',0.767944870878,0.806013349147,-0.0833841338595,0.0380684782695,0.001,-239.76670882,7200.0,0.0,410.0,0.0
1513265627827943483,,555046,,1513265626,40063616,'',0.767944870878,0.805178295497,-0.0967958034048,0.0372334246198,0.001,-228.38719721,7200.0,0.0,410.0,0.0
1513265627837903959,,555047,,1513265626,50063616,'',0.767944870878,0.804278832256,-0.0786216343621,0.0363339613787,0.001,-229.168071785,7200.0,0.0,410.0,0.0
1513265627847817862,,555048,,1513265626,60063616,'',0.767944870878,0.803159804796,-0.116577654835,0.0352149339184,0.001,-205.466072929,7200.0,0.0,410.0,0.0
1513265627858168232,,555049,,1513265626,70063616,'',0.767944870878,0.801779077567,-0.149255879111,0.0338342066896,0.001,-181.109198142,7200.0,0.0,410.0,0.0
1513265627868161235,,555050,,1513265626,80063616,'',0.767944870878,0.800521179481,-0.123837508359,0.0325763086035,0.001,-183.879687141,7200.0,0.0,410.0,0.0
1513265627878128227,,555051,,1513265626,90063616,'',0.767944870878,0.799328972138,-0.130033963148,0.0313841012608,0.001,-173.569710503,7200.0,0.0,410.0,0.0
1513265627888080410,,555052,,1513265626,100063616,'',0.767944870878,0.798212873792,-0.107488384572,0.030268002915,0.001,-174.714711537,7200.0,0.0,410.0,0.0
1513265627898062535,,555053,,1513265626,110063616,'',0.767944870878,0.797221444832,-0.0874552259256,0.0292765739549,0.001,-174.860890689,7200.0,0.0,410.0,0.0
1513265627907946717,,555054,,1513265626,120063616,'',0.767944870878,0.79632466445,-0.099605336175,0.0283797935725,0.001,-163.495464383,7200.0,0.0,410.0,0.0
1513265627917931574,,555055,,1513265626,130063616,'',0.767944870878,0.79539841745,-0.111189653583,0.0274535465724,0.001,-151.7987821,7200.0,0.0,410.0,0.0
1513265627927820576,,555056,,1513265626,140063616,'',0.767944870878,0.794339418744,-0.0897895632362,0.0263945478668,0.001,-153.185658887,7200.0,0.0,410.0,0.0
1513265627937849748,,555057,,1513265626,150063616,'',0.767944870878,0.793121017956,-0.125739635689,0.0251761470784,0.001,-130.664707469,7200.0,0.0,410.0,0.0
1513265627947832194,,555058,,1513265626,160063616,'',0.767944870878,0.791641215951,-0.153857585453,0.0236963450737,0.001,-107.096805045,7200.0,0.0,410.0,0.0
1513265627958241856,,555059,,1513265626,170063616,'',0.767944870878,0.79012921306,-0.151052216648,0.0221843421822,0.001,-97.4883459449,7200.0,0.0,410.0,0.0
1513265627968219784,,555060,,1513265626,180063616,'',0.767944870878,0.788698214815,-0.122131828407,0.0207533439373,0.001,-99.1930268835,7200.0,0.0,410.0,0.0
1513265627977984003,,555061,,1513265626,190063616,'',0.767944870878,0.787323385136,-0.122093473029,0.0193785142583,0.001,-89.2606149552,7200.0,0.0,410.0,0.0
1513265627987939078,,555062,,1513265626,200063616,'',0.767944870878,0.78607355734,-0.124585726131,0.0181286864627,0.001,-79.4953017578,7200.0,0.0,410.0,0.0
1513265627997985353,,555063,,1513265626,210063616,'',0.767944870878,0.784755661541,-0.125697267215,0.0168107906639,0.001,-70.4309734397,7200.0,0.0,410.0,0.0
1513265628008030528,,555064,,1513265626,220063616,'',0.767944870878,0.783372404975,-0.125494339074,0.0154275340971,0.001,-60.4552397998,7200.0,0.0,410.0,0.0
1513265628017884883,,555065,,1513265626,230063616,'',0.767944870878,0.781891784471,-0.151065839441,0.0139469135937,0.001,-39.6617630021,7200.0,0.0,410.0,0.0
1513265628027896267,,555066,,1513265626,240063616,'',0.767944870878,0.780175423128,-0.199599109772,0.01223055225,0.001,-7.86095627969,7200.0,0.0,410.0,0.0
1513265628037878764,,555067,,1513265626,250063616,'',0.767944870878,0.778301252994,-0.189471795905,0.0103563821167,0.001,3.51135936228,7200.0,0.0,410.0,0.0
1513265628047854232,,555068,,1513265626,260063616,'',0.767944870878,0.776322173516,-0.20496827472,0.00837730263894,0.001,23.9837535712,7200.0,0.0,410.0,0.0
1513265628057999014,,555069,,1513265626,270063616,'',0.767944870878,0.774403220713,-0.166207132833,0.00645834983567,0.001,21.9890980076,7200.0,0.0,410.0,0.0
1513265628067879936,,555070,,1513265626,280063616,'',0.767944870878,0.772537509936,-0.156277773607,0.0045926390586,0.001,27.712961477,7200.0,0.0,410.0,0.0
1513265628078030311,,555071,,1513265626,290063616,'',0.767944870878,0.770909024588,-0.15111605531,0.00296415371075,0.001,40.7267179114,7200.0,0.0,410.0,0.0
1513265628087867398,,555072,,1513265626,300063616,'',0.767944870878,0.769299037316,-0.174065956012,0.00135416643886,0.001,61.9869792093,7200.0,0.0,410.0,0.0
1513265628097816231,,555073,,1513265626,310063616,'',0.767944870878,0.767758372283,-0.142935643245,-0.000186498594921,0.001,60.1254388344,7200.0,0.0,410.0,0.0
1513265628107766642,,555074,,1513265626,320063616,'',0.767944870878,0.766272533816,-0.140653550362,0.0,0.001,0.0,7200.0,0.0,410.0,0.0
1513265628117800063,,555075,,1513265626,330063616,'',0.767944870878,0.765058399093,-0.116122879287,0.0,0.001,0.0,7200.0,0.0,410.0,0.0
1513265628127663800,,555076,,1513265626,340063616,'',0.767944870878,0.763914924968,-0.09302461895,0.0,0.001,0.0,7200.0,0.0,410.0,0.0
1513265628138181849,,555077,,1513265626,350063616,'',0.767944870878,0.762878512855,-0.0998197519834,0.0,0.001,0.0,7200.0,0.0,410.0,0.0
1513265628148105016,,555078,,1513265626,360063616,'',0.767944870878,0.762007302241,-0.0822281064932,0.0,0.001,0.0,7200.0,0.0,410.0,0.0
1513265628157978635,,555079,,1513265626,370063616,'',0.767944870878,0.76127061801,-0.0673467733712,0.0,0.001,0.0,7200.0,0.0,410.0,0.0
1513265628168023553,,555080,,1513265626,380063616,'',0.767944870878,0.7605139248,-0.0797942790775,0.0,0.001,0.0,7200.0,0.0,410.0,0.0
1513265628178048168,,555081,,1513265626,390063616,'',0.767944870878,0.759844712288,-0.0662757865943,0.0,0.001,0.0,7200.0,0.0,410.0,0.0
1513265628187970906,,555082,,1513265626,400063616,'',0.767944870878,0.759250002092,-0.0542630701566,0.0,0.001,0.0,7200.0,0.0,410.0,0.0
1513265628197918550,,555083,,1513265626,410063616,'',0.767944870878,0.758763085184,-0.0444277002828,0.0,0.001,0.0,7200.0,0.0,410.0,0.0
1513265628207831298,,555084,,1513265626,420063616,'',0.767944870878,0.758364320616,-0.0363729440122,0.0,0.001,0.0,7200.0,0.0,410.0,0.0
1513265628217889271,,555085,,1513265626,430063616,'',0.767944870878,0.757913904202,-0.0272788357198,0.0,0.001,0.0,7200.0,0.0,410.0,0.0
1513265628227869064,,555086,,1513265626,440063616,'',0.767944870878,0.757543224617,-0.0197905733813,0.0,0.001,0.0,7200.0,0.0,410.0,0.0
1513265628237779185,,555087,,1513265626,450063616,'',0.767944870878,0.75723689832,-0.0413392844498,0.0,0.001,0.0,7200.0,0.0,410.0,0.0
1513265628247964910,,555088,,1513265626,460063616,'',0.767944870878,0.756911690631,-0.00704385857253,0.0,0.001,0.0,7200.0,0.0,410.0,0.0
1513265628258217851,,555089,,1513265626,470063616,'',0.767944870878,0.756623426091,-0.0289657940763,0.0,0.001,0.0,7200.0,0.0,410.0,0.0
1513265628268194242,,555090,,1513265626,480063616,'',0.767944870878,0.756364247982,-0.0237265019723,0.0,0.001,0.0,7200.0,0.0,410.0,0.0
1513265628278044947,,555091,,1513265626,490063616,'',0.767944870878,0.756175600641,-0.0199131457765,0.0,0.001,0.0,7200.0,0.0,410.0,0.0
1513265628288179902,,555092,,1513265626,500063616,'',0.767944870878,0.755970392374,-0.0434976360843,0.0,0.001,0.0,7200.0,0.0,410.0,0.0
1513265628298017419,,555093,,1513265626,510063616,'',0.767944870878,0.755756772402,-0.0114376771774,0.0,0.001,0.0,7200.0,0.0,410.0,0.0
1513265628308032137,,555094,,1513265626,520063616,'',0.767944870878,0.755580022499,-0.0355993582654,0.0,0.001,0.0,7200.0,0.0,410.0,0.0
1513265628317811458,,555095,,1513265626,530063616,'',0.767944870878,0.755436358748,-0.0326993772056,0.0,0.001,0.0,7200.0,0.0,410.0,0.0
1513265628328055105,,555096,,1513265626,540063616,'',0.767944870878,0.755288117699,-0.0296993494631,0.0,0.001,0.0,7200.0,0.0,410.0,0.0
1513265628337946559,,555097,,1513265626,550063616,'',0.767944870878,0.755094454561,-0.0257876230917,0.0,0.001,0.0,7200.0,0.0,410.0,0.0
1513265628347854675,,555098,,1513265626,560063616,'',0.767944870878,0.754984271825,-0.0235557486867,0.0,0.001,0.0,7200.0,0.0,410.0,0.0
1513265628357851523,,555099,,1513265626,570063616,'',0.767944870878,0.75481877562,-0.0202156251057,0.0,0.001,0.0,7200.0,0.0,410.0,0.0
1513265628367851711,,555100,,1513265626,580063616,'',0.767944870878,0.754686177511,-0.0175448483561,0.0,0.001,0.0,7200.0,0.0,410.0,0.0
1513265628377734692,,555101,,1513265626,590063616,'',0.767944870878,0.754577887337,-0.0153556389579,0.0,0.001,0.0,7200.0,0.0,410.0,0.0
1513265628388085246,,555102,,1513265626,600063616,'',0.767944870878,0.754413750956,-0.0120400700579,0.0,0.001,0.0,7200.0,0.0,410.0,0.0
1513265628398129523,,555103,,1513265626,610063616,'',0.767944870878,0.754279371024,-0.00933259643311,0.0,0.001,0.0,7200.0,0.0,410.0,0.0
1513265628408056894,,555104,,1513265626,620063616,'',0.767944870878,0.754122459302,-0.0339018268591,0.0,0.001,0.0,7200.0,0.0,410.0,0.0
1513265628417956961,,555105,,1513265626,630063616,'',0.767944870878,0.75391436583,-0.0296946302101,0.0,0.001,0.0,7200.0,0.0,410.0,0.0
1513265628428122371,,555106,,1513265626,640063616,'',0.767944870878,0.753672300233,-0.0248024259449,0.0,0.001,0.0,7200.0,0.0,410.0,0.0
1513265628437955949,,555107,,1513265626,650063616,'',0.767944870878,0.75344955587,-0.0203032208866,0.0,0.001,0.0,7200.0,0.0,410.0,0.0
1513265628447953405,,555108,,1513265626,660063616,'',0.767944870878,0.753244627647,-0.0161588871543,0.0,0.001,0.0,7200.0,0.0,410.0,0.0
1513265628457930311,,555109,,1513265626,670063616,'',0.767944870878,0.753099451372,-0.0132273834174,0.0,0.001,0.0,7200.0,0.0,410.0,0.0
1513265628467804599,,555110,,1513265626,680063616,'',0.767944870878,0.752980924635,-0.0108340063031,0.0,0.001,0.0,7200.0,0.0,410.0,0.0
1513265628477731269,,555111,,1513265626,690063616,'',0.767944870878,0.752884593876,-0.00888344092718,0.0,0.001,0.0,7200.0,0.0,410.0,0.0
1513265628488177170,,555112,,1513265626,700063616,'',0.767944870878,0.752781566054,-0.0068088326811,0.0,0.001,0.0,7200.0,0.0,410.0,0.0
1513265628498175058,,555113,,1513265626,710063616,'',0.767944870878,0.752720441973,-0.00557449546239,-0.0152244289048,0.001,550.0,7200.0,0.0,410.0,0.0
1513265628508044182,,555114,,1513265626,720063616,'',0.767944870878,0.752667773241,-0.00451425165549,-0.0152770976361,0.001,111.811705478,7200.0,0.0,410.0,0.0
1513265628517962784,,555115,,1513265626,730063616,'',0.767944870878,0.752548912674,-0.0298525245649,-0.0153959582039,0.001,123.150124435,7200.0,0.0,410.0,0.0
1513265628527960683,,555116,,1513265626,740063616,'',0.767944870878,0.752483341172,-0.000783514275342,-0.0154615297059,0.001,111.646579497,7200.0,0.0,410.0,0.0
1513265628537894236,,555117,,1513265626,750063616,'',0.767944870878,0.752425977596,-0.0273672208231,-0.0155188932817,0.001,123.011966301,7200.0,0.0,410.0,0.0
1513265628547777081,,555118,,1513265626,760063616,'',0.767944870878,0.752306849423,0.00276484312161,-0.0156380214543,0.001,111.45351826,7200.0,0.0,410.0,0.0
1513265628557979661,,555119,,1513265626,770063616,'',0.767944870878,0.75223657644,0.00418049887587,-0.0157082944371,0.001,111.371537512,7200.0,0.0,410.0,0.0
1513265628567909693,,555120,,1513265626,780063616,'',0.767944870878,0.752250810133,0.0038846816067,-0.0156940607444,0.001,111.384331021,7200.0,0.0,410.0,0.0
1513265628577813753,,555121,,1513265626,790063616,'',0.767944870878,0.752363229874,0.0293618135395,-0.0155816410032,0.001,100.068479898,7200.0,0.0,410.0,0.0
1513265628587738135,,555122,,1513265626,800063616,'',0.767944870878,0.752627002929,0.0240361003593,-0.0153178679489,0.001,100.358047873,7200.0,0.0,410.0,0.0
1513265628597692729,,555123,,1513265626,810063616,'',0.767944870878,0.753042969802,0.0433697687901,-0.0149019010756,0.001,89.9016043881,7200.0,0.0,410.0,0.0
1513265628608136443,,555124,,1513265626,820063616,'',0.767944870878,0.753534399204,0.0611877423955,-0.0144104716732,0.001,79.1448157462,7200.0,0.0,410.0,0.0
1513265628618117931,,555125,,1513265626,830063616,'',0.767944870878,0.754210305136,0.075275451177,-0.013734565742,0.001,67.9008182368,7200.0,0.0,410.0,0.0
1513265628628033410,,555126,,1513265626,840063616,'',0.767944870878,0.754912836011,0.0888165383289,-0.0130320348662,0.001,58.1433009644,7200.0,0.0,410.0,0.0
1513265628638138871,,555127,,1513265626,850063616,'',0.767944870878,0.755737019286,0.0721742733953,-0.0122078515914,0.001,58.8131277695,7200.0,0.0,410.0,0.0
1513265628647920030,,555128,,1513265626,860063616,'',0.767944870878,0.756562701681,0.0832345878943,-0.011382169197,0.001,47.7549351072,7200.0,0.0,410.0,0.0
1513265628657813910,,555129,,1513265626,870063616,'',0.767944870878,0.757311243286,0.0681126189327,-0.0106336275918,0.001,47.9325026879,7200.0,0.0,410.0,0.0
1513265628668141512,,555130,,1513265626,880063616,'',0.767944870878,0.757869832841,0.0568320899725,-0.010075038037,0.001,49.1253088443,7200.0,0.0,410.0,0.0
1513265628678101453,,555131,,1513265626,890063616,'',0.767944870878,0.758180971148,0.0227994504944,-0.00976389972909,0.001,60.9312263981,7200.0,0.0,410.0,0.0
1513265628687942328,,555132,,1513265626,900063616,'',0.767944870878,0.758586863227,0.0423368126694,-0.00935800765053,0.001,50.3825487023,7200.0,0.0,410.0,0.0
1513265628697999642,,555133,,1513265626,910063616,'',0.767944870878,0.759044705853,0.0608331588428,-0.00890016502443,0.001,39.040460066,7200.0,0.0,410.0,0.0
1513265628708042312,,555134,,1513265626,920063616,'',0.767944870878,0.759567505441,0.0502657685691,-0.00837736543613,0.001,39.6436807783,7200.0,0.0,410.0,0.0
1513265628717921208,,555135,,1513265626,930063616,'',0.767944870878,0.760097492344,0.0395591159424,-0.00784737853333,0.001,40.1995873051,7200.0,0.0,410.0,0.0
1513265628727862242,,555136,,1513265626,940063616,'',0.767944870878,0.760653724757,0.0560665102703,-0.00729114612035,0.001,29.9267881295,7200.0,0.0,410.0,0.0
1513265628737890284,,555137,,1513265626,950063616,'',0.767944870878,0.761235550257,0.07205472801,-0.0067093206207,0.001,18.6770190221,7200.0,0.0,410.0,0.0
1513265628747806774,,555138,,1513265626,960063616,'',0.767944870878,0.76185905867,0.0594585791065,-0.0060858122071,0.001,19.33843531,7200.0,0.0,410.0,0.0
1513265628757681776,,555139,,1513265626,970063616,'',0.767944870878,0.762545153011,0.0455937948773,-0.0053997178661,0.001,19.6010427417,7200.0,0.0,410.0,0.0
1513265628767881736,,555140,,1513265626,980063616,'',0.767944870878,0.76317938039,0.0605192293483,-0.00476549048746,0.001,9.44711531213,7200.0,0.0,410.0,0.0
1513265628777792478,,555141,,1513265626,990063616,'',0.767944870878,0.763798978016,0.0480025894453,-0.00414589286198,0.001,10.0338125794,7200.0,0.0,410.0,0.0
1513265628787721687,,555142,,1513265627,63616,'',0.767944870878,0.764427911092,0.0630376002066,-0.00351695978515,0.001,-0.02220174256,7200.0,0.0,410.0,0.0
1513265628797791984,,555143,,1513265627,10063616,'',0.767944870878,0.764992179647,0.0239049787023,-0.00295269123045,0.001,11.6580312684,7200.0,0.0,410.0,0.0
1513265628808149739,,555144,,1513265627,20063616,'',0.767944870878,0.765455717601,0.0422796758845,-0.0024891532765,0.001,0.500219013108,7200.0,0.0,410.0,0.0
1513265628817857759,,555145,,1513265627,30063616,'',0.767944870878,0.765757402688,0.00844415520525,-0.00218746818992,0.001,12.2760009236,7200.0,0.0,410.0,0.0
1513265628827786399,,555146,,1513265627,40063616,'',0.767944870878,0.765753516896,-0.0192226630316,0.0,0.001,0.0,7200.0,0.0,410.0,0.0
1513265628838122021,,555147,,1513265627,50063616,'',0.767944870878,0.765573928672,-0.0433261989747,0.0,0.001,0.0,7200.0,0.0,410.0,0.0
1513265628848060966,,555148,,1513265627,60063616,'',0.767944870878,0.765238540706,-0.00880606252637,0.0,0.001,0.0,7200.0,0.0,410.0,0.0
1513265628858116838,,555149,,1513265627,70063616,'',0.767944870878,0.765159411312,-0.00720962370765,0.0,0.001,0.0,7200.0,0.0,410.0,0.0
1513265628868106235,,555150,,1513265627,80063616,'',0.767944870878,0.76509461183,-0.00590229146475,0.0,0.001,0.0,7200.0,0.0,410.0,0.0
1513265628878080418,,555151,,1513265627,90063616,'',0.767944870878,0.765039992876,-0.00480009186044,0.0,0.001,0.0,7200.0,0.0,410.0,0.0
1513265628888007499,,555152,,1513265627,100063616,'',0.767944870878,0.765149173133,0.020725896585,0.0,0.001,0.0,7200.0,0.0,410.0,0.0
1513265628897962766,,555153,,1513265627,110063616,'',0.767944870878,0.765388431313,0.0436318430508,0.0,0.001,0.0,7200.0,0.0,410.0,0.0
1513265628907907354,,555154,,1513265627,120063616,'',0.767944870878,0.765805850641,0.0351983048038,0.0,0.001,0.0,7200.0,0.0,410.0,0.0
1513265628917846229,,555155,,1513265627,130063616,'',0.767944870878,0.766168252057,0.0278767554936,0.0,0.001,0.0,7200.0,0.0,410.0,0.0
1513265628927814953,,555156,,1513265627,140063616,'',0.767944870878,0.766391586745,0.0233638583881,0.0,0.001,0.0,7200.0,0.0,410.0,0.0
1513265628937795205,,555157,,1513265627,150063616,'',0.767944870878,0.766423175143,-0.00501719283046,0.0,0.001,0.0,7200.0,0.0,410.0,0.0
1513265628947836915,,555158,,1513265627,160063616,'',0.767944870878,0.766427768852,0.0226200296387,0.0,0.001,0.0,7200.0,0.0,410.0,0.0
1513265628957822547,,555159,,1513265627,170063616,'',0.767944870878,0.766454881825,-0.005658077445,0.0,0.001,0.0,7200.0,0.0,410.0,0.0
1513265628967797087,,555160,,1513265627,180063616,'',0.767944870878,0.767149643726,0.146730975057,0.0,0.001,0.0,7200.0,0.0,410.0,0.0
1513265628977815092,,555161,,1513265627,190063616,'',0.767944870878,0.768904946625,0.194485921667,0.0,0.001,0.0,7200.0,0.0,410.0,0.0
1513265628988174644,,555162,,1513265627,200063616,'',0.767944870878,0.770926964854,0.209118717662,0.0,0.001,0.0,7200.0,0.0,410.0,0.0
1513265628998169329,,555163,,1513265627,210063616,'',0.767944870878,0.772600799833,0.147570110223,0.0,0.001,0.0,7200.0,0.0,410.0,0.0
1513265629008066474,,555164,,1513265627,220063616,'',0.767944870878,0.77368776258,0.0423949011593,0.0,0.001,0.0,7200.0,0.0,410.0,0.0
1513265629017876839,,555165,,1513265627,230063616,'',0.767944870878,0.772773972375,-0.133314738801,0.0,0.001,0.0,7200.0,0.0,410.0,0.0
1513265629027859454,,555166,,1513265627,240063616,'',0.767944870878,0.771551531896,-0.108617339539,0.0,0.001,0.0,7200.0,0.0,410.0,0.0
1513265629037725136,,555167,,1513265627,250063616,'',0.767944870878,0.770552072021,-0.0884310113835,0.0,0.001,0.0,7200.0,0.0,410.0,0.0
1513265629047822762,,555168,,1513265627,260063616,'',0.767944870878,0.769734482718,-0.0719095072243,0.0,0.001,0.0,7200.0,0.0,410.0,0.0
1513265629058226331,,555169,,1513265627,270063616,'',0.767944870878,0.769062725004,-0.0583371970275,0.0,0.001,0.0,7200.0,0.0,410.0,0.0
1513265629068261689,,555170,,1513265627,280063616,'',0.767944870878,0.768438328367,-0.0734582855072,0.0,0.001,0.0,7200.0,0.0,410.0,0.0
1513265629078135419,,555171,,1513265627,290063616,'',0.767944870878,0.767519115656,-0.110362589006,0.0,0.001,0.0,7200.0,0.0,410.0,0.0
1513265629088125488,,555172,,1513265627,300063616,'',0.767944870878,0.766051939871,-0.163915117845,0.0,0.001,0.0,7200.0,0.0,410.0,0.0
1513265629098202801,,555173,,1513265627,310063616,'',0.767944870878,0.764501380641,-0.160335281819,0.0,0.001,0.0,7200.0,0.0,410.0,0.0
1513265629107999919,,555174,,1513265627,320063616,'',0.767944870878,0.763135990121,-0.132755893474,0.0,0.001,0.0,7200.0,0.0,410.0,0.0
1513265629117882019,,555175,,1513265627,330063616,'',0.767944870878,0.761946572164,-0.10873075017,0.0,0.001,0.0,7200.0,0.0,410.0,0.0
1513265629127889498,,555176,,1513265627,340063616,'',0.767944870878,0.760839681357,-0.114111214051,0.0,0.001,0.0,7200.0,0.0,410.0,0.0
1513265629137878605,,555177,,1513265627,350063616,'',0.767944870878,0.759636262087,-0.117535744081,0.0,0.001,0.0,7200.0,0.0,410.0,0.0
1513265629147874890,,555178,,1513265627,360063616,'',0.767944870878,0.758555941211,-0.0957077127135,0.0,0.001,0.0,7200.0,0.0,410.0,0.0
1513265629157863100,,555179,,1513265627,370063616,'',0.767944870878,0.757592601783,-0.103989113049,0.0,0.001,0.0,7200.0,0.0,410.0,0.0
1513265629168150914,,555180,,1513265627,380063616,'',0.767944870878,0.756755947449,-0.0870832492175,0.0,0.001,0.0,7200.0,0.0,410.0,0.0
1513265629177998529,,555181,,1513265627,390063616,'',0.767944870878,0.756021329999,-0.0722504711089,0.0,0.001,0.0,7200.0,0.0,410.0,0.0
1513265629187998154,,555182,,1513265627,400063616,'',0.767944870878,0.755295541944,-0.0853328296693,0.0,0.001,0.0,7200.0,0.0,410.0,0.0
1513265629197913533,,555183,,1513265627,410063616,'',0.767944870878,0.754578608403,-0.0708453312885,0.0,0.001,0.0,7200.0,0.0,410.0,0.0
1513265629207859305,,555184,,1513265627,420063616,'',0.767944870878,0.75401582456,-0.0594846954398,0.0,0.001,0.0,7200.0,0.0,410.0,0.0
1513265629217762941,,555185,,1513265627,430063616,'',0.767944870878,0.75345486156,-0.0481486363722,0.0,0.001,0.0,7200.0,0.0,410.0,0.0
1513265629227734532,,555186,,1513265627,440063616,'',0.767944870878,0.753022641077,-0.0394175815431,0.0,0.001,0.0,7200.0,0.0,410.0,0.0
1513265629238174016,,555187,,1513265627,450063616,'',0.767944870878,0.752643999118,-0.0317699826599,0.0,0.001,0.0,7200.0,0.0,410.0,0.0
1513265629248139908,,555188,,1513265627,460063616,'',0.767944870878,0.752285157828,-0.0522546284695,0.0,0.001,0.0,7200.0,0.0,410.0,0.0
1513265629258143102,,555189,,1513265627,470063616,'',0.767944870878,0.751867638079,-0.0160822243548,-0.0160772327981,0.001,122.244734783,7200.0,0.0,410.0,0.0
1513265629268102374,,555190,,1513265627,480063616,'',0.767944870878,0.751522237484,-0.0368403411909,-0.0164226333937,0.001,133.822232202,7200.0,0.0,410.0,0.0
1513265629277999846,,555191,,1513265627,490063616,'',0.767944870878,0.751239129214,-0.0311299318266,-0.016705741663,0.001,133.095088232,7200.0,0.0,410.0,0.0
1513265629288083479,,555192,,1513265627,500063616,'',0.767944870878,0.750932927485,-0.0526771658301,-0.0170119433924,0.001,143.714040248,7200.0,0.0,410.0,0.0
1513265629297801911,,555193,,1513265627,510063616,'',0.767944870878,0.750605971895,-0.0460812607258,-0.0173388989825,0.001,143.806855576,7200.0,0.0,410.0,0.0
1513265629308222414,,555194,,1513265627,520063616,'',0.767944870878,0.750165885566,-0.0649249481573,-0.0177789853119,0.001,154.785346336,7200.0,0.0,410.0,0.0
1513265629318189129,,555195,,1513265627,530063616,'',0.767944870878,0.749678936135,-0.0550818342453,-0.0182659347426,0.001,154.212455233,7200.0,0.0,410.0,0.0
1513265629328139083,,555196,,1513265627,540063616,'',0.767944870878,0.749184463968,-0.0450935448332,-0.0187604069095,0.001,153.621129636,7200.0,0.0,410.0,0.0
1513265629338045349,,555197,,1513265627,550063616,'',0.767944870878,0.74877951771,-0.0369136700181,-0.0191653531679,0.001,153.27821469,7200.0,0.0,410.0,0.0
1513265629347958989,,555198,,1513265627,560063616,'',0.767944870878,0.748448263269,-0.0302223627073,-0.0194966076089,0.001,152.841325935,7200.0,0.0,410.0,0.0
1513265629357858743,,555199,,1513265627,570063616,'',0.767944870878,0.74822680584,-0.0257515909836,-0.0197180650372,0.001,152.560166472,7200.0,0.0,410.0,0.0
1513265629367968299,,555200,,1513265627,580063616,'',0.767944870878,0.748149983637,0.00353925434908,-0.0197948872407,0.001,141.097083035,7200.0,0.0,410.0,0.0
1513265629377853275,,555201,,1513265627,590063616,'',0.767944870878,0.748236584861,0.0295161373462,-0.0197082860166,0.001,129.718454862,7200.0,0.0,410.0,0.0
1513265629387832454,,555202,,1513265627,600063616,'',0.767944870878,0.748478794277,0.0246243937576,-0.0194660766007,0.001,130.044153359,7200.0,0.0,410.0,0.0
1513265629397959044,,555203,,1513265627,610063616,'',0.767944870878,0.748781386027,0.0462524566577,-0.0191634848505,0.001,118.436327161,7200.0,0.0,410.0,0.0
1513265629407915667,,555204,,1513265627,620063616,'',0.767944870878,0.749218022886,0.0374327041771,-0.0187268479918,0.001,119.532451981,7200.0,0.0,410.0,0.0
1513265629417988096,,555205,,1513265627,630063616,'',0.767944870878,0.749680559328,0.0558018553406,-0.0182643115494,0.001,109.004443255,7200.0,0.0,410.0,0.0
1513265629428258907,,555206,,1513265627,640063616,'',0.767944870878,0.750234524159,0.0446130997817,-0.0177103467189,0.001,109.247738339,7200.0,0.0,410.0,0.0
1513265629438019962,,555207,,1513265627,650063616,'',0.767944870878,0.750787241854,0.0611970194954,-0.0171576290237,0.001,98.3118413963,7200.0,0.0,410.0,0.0
1513265629448798967,,555208,,1513265627,660063616,'',0.767944870878,0.751414734764,0.0485250606309,-0.0165301361139,0.001,98.9739007612,7200.0,0.0,410.0,0.0
1513265629457967760,,555209,,1513265627,670063616,'',0.767944870878,0.752097874387,0.0624664691084,-0.0158469964903,0.001,88.922962398,7200.0,0.0,410.0,0.0
1513265629467829721,,555210,,1513265627,680063616,'',0.767944870878,0.752837947877,0.0752517718542,-0.0151069230006,0.001,78.3821578106,7200.0,0.0,410.0,0.0
1513265629478159193,,555211,,1513265627,690063616,'',0.767944870878,0.753616809352,0.087259340234,-0.014328061526,0.001,67.2385652374,7200.0,0.0,410.0,0.0
1513265629488177196,,555212,,1513265627,700063616,'',0.767944870878,0.754454323514,0.0980811341116,-0.0134905473638,0.001,56.7160890626,7200.0,0.0,410.0,0.0
1513265629498070104,,555213,,1513265627,710063616,'',0.767944870878,0.755334635176,0.0802986102333,-0.0126102357016,0.001,57.8639878034,7200.0,0.0,410.0,0.0
1513265629508054536,,555214,,1513265627,720063616,'',0.767944870878,0.756106865446,0.0924391109737,-0.0118380054314,0.001,47.0253680802,7200.0,0.0,410.0,0.0
1513265629518040461,,555215,,1513265627,730063616,'',0.767944870878,0.756861078558,0.0772038882182,-0.0110837923196,0.001,48.8833236976,7200.0,0.0,410.0,0.0
1513265629527873843,,555216,,1513265627,740063616,'',0.767944870878,0.757579865054,0.0626851660429,-0.0103650058235,0.001,49.4986673455,7200.0,0.0,410.0,0.0
1513265629537837614,,555217,,1513265627,750063616,'',0.767944870878,0.758119617369,0.0517794247574,-0.00982525350823,0.001,49.452039436,7200.0,0.0,410.0,0.0
1513265629547805153,,555218,,1513265627,760063616,'',0.767944870878,0.758760102789,0.066581644263,-0.00918476808872,0.001,38.7491815327,7200.0,0.0,410.0,0.0
1513265629557791595,,555219,,1513265627,770063616,'',0.767944870878,0.759285002665,0.0559829919792,-0.00865986821287,0.001,39.3030684561,7200.0,0.0,410.0,0.0
1513265629567834832,,555220,,1513265627,780063616,'',0.767944870878,0.759812737072,0.0453264599098,-0.00813213380538,0.001,39.8929942093,7200.0,0.0,410.0,0.0
1513265629577859495,,555221,,1513265627,790063616,'',0.767944870878,0.760265135495,0.036188914228,-0.00767973538276,0.001,40.730832881,7200.0,0.0,410.0,0.0
1513265629587883831,,555222,,1513265627,800063616,'',0.767944870878,0.760740647793,0.0543107655573,-0.00720422308416,0.001,30.0292733941,7200.0,0.0,410.0,0.0
1513265629597804359,,555223,,1513265627,810063616,'',0.767944870878,0.761128662929,0.0187372242939,-0.00681620794856,0.001,41.3418010148,7200.0,0.0,410.0,0.0
1513265629607725592,,555224,,1513265627,820063616,'',0.767944870878,0.761470067537,0.0395852554837,-0.00647480334013,0.001,30.3285261636,7200.0,0.0,410.0,0.0
1513265629618110076,,555225,,1513265627,830063616,'',0.767944870878,0.761774407683,0.0334374546428,-0.00617046319414,0.001,30.6681244892,7200.0,0.0,410.0,0.0
1513265629628235051,,555226,,1513265627,840063616,'',0.767944870878,0.762025591462,0.0283723283448,-0.00591927941558,0.001,30.9708024025,7200.0,0.0,410.0,0.0
1513265629638128439,,555227,,1513265627,850063616,'',0.767944870878,0.762156513914,0.0257210523479,-0.00578835696362,0.001,31.2645289253,7200.0,0.0,410.0,0.0
1513265629648119077,,555228,,1513265627,860063616,'',0.767944870878,0.762286841614,-0.00464193097421,-0.00565802926354,0.001,42.6139903631,7200.0,0.0,410.0,0.0
1513265629658156341,,555229,,1513265627,870063616,'',0.767944870878,0.762440389713,-0.00774786649904,-0.00550448116438,0.001,42.8364404582,7200.0,0.0,410.0,0.0
1513265629668056257,,555230,,1513265627,880063616,'',0.767944870878,0.76261978425,0.0163646275727,-0.00532508662772,0.001,31.5985259312,7200.0,0.0,410.0,0.0
1513265629678051576,,555231,,1513265627,890063616,'',0.767944870878,0.762766163806,0.0134043610771,-0.00517870707198,0.001,31.8963849337,7200.0,0.0,410.0,0.0
1513265629687999016,,555232,,1513265627,900063616,'',0.767944870878,0.762886366956,0.0109734658733,-0.00505850392118,0.001,32.0171148373,7200.0,0.0,410.0,0.0
1513265629697913705,,555233,,1513265627,910063616,'',0.767944870878,0.762890060421,0.0108876483102,-0.00505481045619,0.001,31.9087269938,7200.0,0.0,410.0,0.0
1513265629707845755,,555234,,1513265627,920063616,'',0.767944870878,0.76301269214,0.0084089213765,-0.00493217873722,0.001,31.9626549047,7200.0,0.0,410.0,0.0
1513265629717841616,,555235,,1513265627,930063616,'',0.767944870878,0.763088016442,0.00688740201449,-0.00485685443592,0.001,32.1393573154,7200.0,0.0,410.0,0.0
1513265629728087934,,555236,,1513265627,940063616,'',0.767944870878,0.763149739446,0.00564062316089,-0.00479513143168,0.001,32.2540233498,7200.0,0.0,410.0,0.0
1513265629738147087,,555237,,1513265627,950063616,'',0.767944870878,0.763200380744,0.0046176901237,-0.0047444901331,0.001,32.2592982803,7200.0,0.0,410.0,0.0
1513265629748043330,,555238,,1513265627,960063616,'',0.767944870878,0.763192757857,0.00475845741046,-0.00475211302093,0.001,32.2489074663,7200.0,0.0,410.0,0.0
1513265629757966753,,555239,,1513265627,970063616,'',0.767944870878,0.763211867897,0.00437421290841,-0.00473300298084,0.001,32.2612886298,7200.0,0.0,410.0,0.0
1513265629767953087,,555240,,1513265627,980063616,'',0.767944870878,0.763251160752,0.00358258432528,-0.00469371012559,0.001,32.3471683926,7200.0,0.0,410.0,0.0
1513265629778131465,,555241,,1513265627,990063616,'',0.767944870878,0.763230366973,0.0039979072213,-0.00471450390482,0.001,32.327614843,7200.0,0.0,410.0,0.0
1513265629788117417,,555242,,1513265628,63616,'',0.767944870878,0.7632180283,0.00425005037118,-0.00472684257756,0.001,32.2768863504,7200.0,0.0,410.0,0.0
1513265629798052071,,555243,,1513265628,10063616,'',0.767944870878,0.763229504326,0.0040204032407,-0.00471536655188,0.001,32.2898063445,7200.0,0.0,410.0,0.0
1513265629808081703,,555244,,1513265628,20063616,'',0.767944870878,0.763265676285,0.00329137728884,-0.00467919459299,0.001,32.3350900537,7200.0,0.0,410.0,0.0
1513265629818040613,,555245,,1513265628,30063616,'',0.767944870878,0.763319520472,0.00220401662327,-0.0046253504052,0.001,32.3931138649,7200.0,0.0,410.0,0.0
1513265629827952230,,555246,,1513265628,40063616,'',0.767944870878,0.763335525854,0.00186823098105,-0.00460934502325,0.001,32.4255698825,7200.0,0.0,410.0,0.0
1513265629837951294,,555247,,1513265628,50063616,'',0.767944870878,0.763377221909,0.00103000523295,-0.00456764896833,0.001,32.4566267112,7200.0,0.0,410.0,0.0
1513265629847867732,,555248,,1513265628,60063616,'',0.767944870878,0.763386328722,0.000851573243884,-0.00455854215558,0.001,32.4660227882,7200.0,0.0,410.0,0.0
1513265629857791549,,555249,,1513265628,70063616,'',0.767944870878,0.763418780845,0.000198046853485,-0.00452609003244,0.001,32.5029188917,7200.0,0.0,410.0,0.0
1513265629867766821,,555250,,1513265628,80063616,'',0.767944870878,0.763420631358,0.000162127752623,-0.00452423951976,0.001,32.504931908,7200.0,0.0,410.0,0.0
1513265629878208378,,555251,,1513265628,90063616,'',0.767944870878,0.763470044023,-0.000835652699432,-0.00447482685405,0.001,32.5536514849,7200.0,0.0,410.0,0.0
1513265629888158242,,555252,,1513265628,100063616,'',0.767944870878,0.763464927817,0.0269953009882,-0.00447994306029,0.001,21.448186664,7200.0,0.0,410.0,0.0
1513265629898075763,,555253,,1513265628,110063616,'',0.767944870878,0.76345841049,-0.000610022266481,-0.00448646038712,0.001,32.5475145756,7200.0,0.0,410.0,0.0
1513265629907959186,,555254,,1513265628,120063616,'',0.767944870878,0.763453074999,-0.000499415508778,-0.00449179587843,0.001,32.5410752607,7200.0,0.0,410.0,0.0
1513265629917958202,,555255,,1513265628,130063616,'',0.767944870878,0.763498523343,-0.00142211289788,-0.00444634753443,0.001,32.5926746189,7200.0,0.0,410.0,0.0
1513265629927719005,,555256,,1513265628,140063616,'',0.767944870878,0.763485913667,-0.00116423896162,-0.004458957211,0.001,32.577910542,7200.0,0.0,410.0,0.0
1513265629937890581,,555257,,1513265628,150063616,'',0.767944870878,0.763501780608,-0.00148285290618,-0.00444309026981,0.001,32.5961965187,7200.0,0.0,410.0,0.0
1513265629948254964,,555258,,1513265628,160063616,'',0.767944870878,0.763538677488,-0.00222453721496,-0.00440619338918,0.001,32.6359119098,7200.0,0.0,410.0,0.0
1513265629958254533,,555259,,1513265628,170063616,'',0.767944870878,0.763571882786,0.0248457078693,-0.00437298809131,0.001,21.2555625739,7200.0,0.0,410.0,0.0
1513265629968059801,,555260,,1513265628,180063616,'',0.767944870878,0.763569716606,-0.00284493819343,-0.00437515427139,0.001,32.6478466263,7200.0,0.0,410.0,0.0
1513265629978169329,,555261,,1513265628,190063616,'',0.767944870878,0.763519976128,-0.00183897094849,-0.00442489474961,0.001,32.609022781,7200.0,0.0,410.0,0.0
1513265629988133246,,555262,,1513265628,200063616,'',0.767944870878,0.763578278135,-0.00301479603868,-0.00436659274202,0.001,32.6997394405,7200.0,0.0,410.0,0.0
1513265629997984166,,555263,,1513265628,210063616,'',0.767944870878,0.763552330964,0.0252432726023,-0.00439253991346,0.001,21.4630340274,7200.0,0.0,410.0,0.0
1513265630007943747,,555264,,1513265628,220063616,'',0.767944870878,0.763529963787,-0.00204868088569,-0.00441490709085,0.001,32.6077317493,7200.0,0.0,410.0,0.0
1513265630017917184,,555265,,1513265628,230063616,'',0.767944870878,0.763535366841,-0.00215141113593,-0.00440950403635,0.001,32.633941737,7200.0,0.0,410.0,0.0
1513265630028256695,,555266,,1513265628,240063616,'',0.767944870878,0.7635160742,-0.00176125042766,-0.00442879667795,0.001,32.6100017855,7200.0,0.0,410.0,0.0
1513265630037878035,,555267,,1513265628,250063616,'',0.767944870878,0.763500281659,-0.00144187328201,-0.0044445892185,0.001,32.595080837,7200.0,0.0,410.0,0.0
1513265630048223236,,555268,,1513265628,260063616,'',0.767944870878,0.763487351753,-0.00118038802169,-0.00445751912483,0.001,32.5785838476,7200.0,0.0,410.0,0.0
1513265630058017570,,555269,,1513265628,270063616,'',0.767944870878,0.763522470109,-0.00189260180936,-0.00442240076831,0.001,32.6194480021,7200.0,0.0,410.0,0.0
1513265630068040306,,555270,,1513265628,280063616,'',0.767944870878,0.763482318569,-0.00108504291252,-0.00446255230818,0.001,32.5743244953,7200.0,0.0,410.0,0.0
1513265630078057668,,555271,,1513265628,290063616,'',0.767944870878,0.763498424458,-0.00139243639371,-0.00444644641952,0.001,32.5953337271,7200.0,0.0,410.0,0.0
1513265630087981259,,555272,,1513265628,300063616,'',0.767944870878,0.763485855216,-0.0011403949943,-0.00445901566135,0.001,32.5697924306,7200.0,0.0,410.0,0.0
1513265630097930670,,555273,,1513265628,310063616,'',0.767944870878,0.763502282849,-0.00146866974048,-0.00444258802847,0.001,32.58404324,7200.0,0.0,410.0,0.0
1513265630107895291,,555274,,1513265628,320063616,'',0.767944870878,0.763488990025,-0.00120232491378,-0.00445588085275,0.001,32.581941773,7200.0,0.0,410.0,0.0
1513265630117891135,,555275,,1513265628,330063616,'',0.767944870878,0.763502727677,-0.0014829604789,-0.0044421432003,0.001,32.5991732002,7200.0,0.0,410.0,0.0
1513265630127762788,,555276,,1513265628,340063616,'',0.767944870878,0.763489356774,-0.00121407611289,-0.00445551410378,0.001,32.5827159533,7200.0,0.0,410.0,0.0
1513265630138163239,,555277,,1513265628,350063616,'',0.767944870878,0.763480412415,0.0267029941809,-0.00446445846209,0.001,21.3854380391,7200.0,0.0,410.0,0.0
1513265630148139616,,555278,,1513265628,360063616,'',0.767944870878,0.763496386301,-0.00135893669844,-0.00444848457678,0.001,32.5873109479,7200.0,0.0,410.0,0.0
1513265630158029762,,555279,,1513265628,370063616,'',0.767944870878,0.763483758347,-0.00110237783441,-0.00446111253077,0.001,32.57736298,7200.0,0.0,410.0,0.0
1513265630167977649,,555280,,1513265628,380063616,'',0.767944870878,0.763553091062,0.0252351568986,-0.00439177981592,0.001,21.234593805,7200.0,0.0,410.0,0.0
1513265630177933475,,555281,,1513265628,390063616,'',0.767944870878,0.763579275348,-0.00303837483651,-0.00436559552963,0.001,32.6832874361,7200.0,0.0,410.0,0.0
1513265630187928279,,555282,,1513265628,400063616,'',0.767944870878,0.763577191059,-0.00299635986572,-0.00436767981876,0.001,32.682127589,7200.0,0.0,410.0,0.0
1513265630198001302,,555283,,1513265628,410063616,'',0.767944870878,0.763574592923,-0.00294271251232,-0.00437027795464,0.001,32.6791869954,7200.0,0.0,410.0,0.0
1513265630207975529,,555284,,1513265628,420063616,'',0.767944870878,0.763627981679,0.0237182222532,-0.00431688919842,0.001,21.3298700145,7200.0,0.0,410.0,0.0
1513265630217889847,,555285,,1513265628,430063616,'',0.767944870878,0.763645542753,0.0233739795223,-0.00429932812419,0.001,21.3285285167,7200.0,0.0,410.0,0.0
1513265630227983341,,555286,,1513265628,440063616,'',0.767944870878,0.763606261984,-0.00357443654369,-0.00433860889329,0.001,32.7139694502,7200.0,0.0,410.0,0.0
1513265630237879278,,555287,,1513265628,450063616,'',0.767944870878,0.763600918961,-0.00346744465311,-0.00434395191656,0.001,32.7076111788,7200.0,0.0,410.0,0.0
1513265630247839370,,555288,,1513265628,460063616,'',0.767944870878,0.763596072155,-0.00337043576492,-0.00434879872297,0.001,32.6741730473,7200.0,0.0,410.0,0.0
1513265630257810987,,555289,,1513265628,470063616,'',0.767944870878,0.763565775758,-0.00275930889494,-0.00437909511992,0.001,32.6659333388,7200.0,0.0,410.0,0.0
1513265630268195241,,555290,,1513265628,480063616,'',0.767944870878,0.76361347359,-0.00374203559616,-0.00433139728745,0.001,32.7184084679,7200.0,0.0,410.0,0.0
1513265630278102875,,555291,,1513265628,490063616,'',0.767944870878,0.763606844689,-0.0036045772276,-0.0043380261881,0.001,32.7128515724,7200.0,0.0,410.0,0.0
1513265630287914847,,555292,,1513265628,500063616,'',0.767944870878,0.763621037079,-0.00389597435669,-0.00432383379865,0.001,32.690005851,7200.0,0.0,410.0,0.0
1513265630298014218,,555293,,1513265628,510063616,'',0.767944870878,0.763586205049,-0.00318937441121,-0.00435866582818,0.001,32.6898208047,7200.0,0.0,410.0,0.0
1513265630307775597,,555294,,1513265628,520063616,'',0.767944870878,0.763580606619,-0.00307230114626,-0.00436426425832,0.001,32.6823640434,7200.0,0.0,410.0,0.0
1513265630317693255,,555295,,1513265628,530063616,'',0.767944870878,0.763553106736,-0.00251507608585,-0.00439176414136,0.001,32.6561067265,7200.0,0.0,410.0,0.0
1513265630328177471,,555296,,1513265628,540063616,'',0.767944870878,0.763530603245,-0.00205909198709,-0.00441426763281,0.001,32.6261559063,7200.0,0.0,410.0,0.0
1513265630338242787,,555297,,1513265628,550063616,'',0.767944870878,0.763536841391,-0.00218573384108,-0.004408029487,0.001,32.6375352323,7200.0,0.0,410.0,0.0
1513265630347954499,,555298,,1513265628,560063616,'',0.767944870878,0.763616726325,0.023934062873,-0.00432814455246,0.001,21.5041680308,7200.0,0.0,410.0,0.0
1513265630357984573,,555299,,1513265628,570063616,'',0.767944870878,0.763608115274,-0.00362495643122,-0.00433675560356,0.001,32.7156986115,7200.0,0.0,410.0,0.0
1513265630367958365,,555300,,1513265628,580063616,'',0.767944870878,0.76357563592,-0.00296769406605,-0.0043692349577,0.001,32.6496589192,7200.0,0.0,410.0,0.0
1513265630377808484,,555301,,1513265628,590063616,'',0.767944870878,0.763600695399,-0.00346228646851,-0.0043441754787,0.001,32.7090725371,7200.0,0.0,410.0,0.0
1513265630388206235,,555302,,1513265628,600063616,'',0.767944870878,0.763542755667,-0.00229291041306,-0.00440211521093,0.001,32.6433802496,7200.0,0.0,410.0,0.0
1513265630398216378,,555303,,1513265628,610063616,'',0.767944870878,0.76357069848,-0.00285581249915,-0.00437417239788,0.001,32.6770407652,7200.0,0.0,410.0,0.0
1513265630408269187,,555304,,1513265628,620063616,'',0.767944870878,0.763545005046,-0.002338041631,-0.00439986583128,0.001,32.6429220376,7200.0,0.0,410.0,0.0
1513265630418222834,,555305,,1513265628,630063616,'',0.767944870878,0.763550298456,-0.00243220793322,-0.00439457242159,0.001,32.6274967273,7200.0,0.0,410.0,0.0
1513265630428105218,,555306,,1513265628,640063616,'',0.767944870878,0.763552006998,-0.00247078614046,-0.00439286387988,0.001,32.6526424448,7200.0,0.0,410.0,0.0
1513265630437941504,,555307,,1513265628,650063616,'',0.767944870878,0.763502410905,-0.0292105110917,-0.00444245997226,0.001,44.014595722,7200.0,0.0,410.0,0.0
1513265630447916023,,555308,,1513265628,660063616,'',0.767944870878,0.76354046903,-0.00224267183216,-0.00440440184719,0.001,32.6416772096,7200.0,0.0,410.0,0.0
1513265630458274102,,555309,,1513265628,670063616,'',0.767944870878,0.763566778925,-0.00278106761092,-0.00437809195246,0.001,32.6681441401,7200.0,0.0,410.0,0.0
1513265630468201507,,555310,,1513265628,680063616,'',0.767944870878,0.763564721812,-0.00273396632445,-0.00438014906553,0.001,32.6420273342,7200.0,0.0,410.0,0.0
1513265630478152308,,555311,,1513265628,690063616,'',0.767944870878,0.763564730001,-0.00274071480066,-0.0043801408761,0.001,32.633104058,7200.0,0.0,410.0,0.0
1513265630488238809,,555312,,1513265628,700063616,'',0.767944870878,0.76361727962,0.0239412589053,-0.0043275912575,0.001,21.5330396845,7200.0,0.0,410.0,0.0
1513265630498100474,,555313,,1513265628,710063616,'',0.767944870878,0.763635611119,0.0235695682369,-0.00430925975828,0.001,21.3359805998,7200.0,0.0,410.0,0.0
1513265630507995176,,555314,,1513265628,720063616,'',0.767944870878,0.76364474138,-0.00435023389821,-0.00430012949788,0.001,32.7512654111,7200.0,0.0,410.0,0.0
1513265630517864780,,555315,,1513265628,730063616,'',0.767944870878,0.763655556137,-0.00456923994415,-0.00428931474091,0.001,32.7748895941,7200.0,0.0,410.0,0.0
1513265630527838597,,555316,,1513265628,740063616,'',0.767944870878,0.763614485612,-0.00374097798515,-0.00433038526524,0.001,32.7139777114,7200.0,0.0,410.0,0.0
1513265630538015863,,555317,,1513265628,750063616,'',0.767944870878,0.763605524334,-0.00355656207306,-0.00433934654356,0.001,32.7113782522,7200.0,0.0,410.0,0.0
1513265630547695943,,555318,,1513265628,760063616,'',0.767944870878,0.763573520272,-0.00291181176959,-0.00437135060547,0.001,32.6742249756,7200.0,0.0,410.0,0.0
1513265630558214082,,555319,,1513265628,770063616,'',0.767944870878,0.763547358126,-0.00238475206578,-0.00439751275119,0.001,32.6285316148,7200.0,0.0,410.0,0.0
1513265630568228980,,555320,,1513265628,780063616,'',0.767944870878,0.763552085438,-0.00248623410232,-0.00439278543923,0.001,32.6137024177,7200.0,0.0,410.0,0.0
1513265630578356037,,555321,,1513265628,790063616,'',0.767944870878,0.763529754614,-0.00203522672611,-0.00441511626313,0.001,32.6260265025,7200.0,0.0,410.0,0.0
1513265630588203356,,555322,,1513265628,800063616,'',0.767944870878,0.763534726227,-0.00213004939979,-0.00441014465082,0.001,32.6332217952,7200.0,0.0,410.0,0.0
1513265630598140006,,555323,,1513265628,810063616,'',0.767944870878,0.763563046332,-0.00270848782142,-0.00438182454501,0.001,32.6639791221,7200.0,0.0,410.0,0.0
1513265630608067157,,555324,,1513265628,820063616,'',0.767944870878,0.763588672371,0.0245059821536,-0.00435619850679,0.001,21.3033402857,7200.0,0.0,410.0,0.0
1513265630617831504,,555325,,1513265628,830063616,'',0.767944870878,0.763562798199,0.0250247300214,-0.0043820726783,0.001,21.4530263061,7200.0,0.0,410.0,0.0
1513265630628209421,,555326,,1513265628,840063616,'',0.767944870878,0.763538521972,-0.0022225900334,-0.00440634890576,0.001,32.6211031508,7200.0,0.0,410.0,0.0
1513265630638215936,,555327,,1513265628,850063616,'',0.767944870878,0.76354247499,-0.00229459315876,-0.00440239588758,0.001,32.6362708471,7200.0,0.0,410.0,0.0
1513265630648116411,,555328,,1513265628,860063616,'',0.767944870878,0.763521897265,-0.00187854685441,-0.00442297361224,0.001,32.6188042229,7200.0,0.0,410.0,0.0
1513265630658212447,,555329,,1513265628,870063616,'',0.767944870878,0.763505050247,-0.00153792904137,-0.00443982063022,0.001,32.5972917134,7200.0,0.0,410.0,0.0
1513265630668076816,,555330,,1513265628,880063616,'',0.767944870878,0.763491282876,-0.00125957640907,-0.00445358800122,0.001,32.5724717564,7200.0,0.0,410.0,0.0
1513265630678004219,,555331,,1513265628,890063616,'',0.767944870878,0.763479981991,-0.00103109188019,-0.0044648888869,0.001,32.4605979414,7200.0,0.0,410.0,0.0
1513265630688029320,,555332,,1513265628,900063616,'',0.767944870878,0.763521590937,0.0258606616019,-0.00442327994074,0.001,21.1892277411,7200.0,0.0,410.0,0.0
1513265630697930251,,555333,,1513265628,910063616,'',0.767944870878,0.763555018193,0.0251881674732,-0.00438985268462,0.001,21.2068939247,7200.0,0.0,410.0,0.0
1513265630708043457,,555334,,1513265628,920063616,'',0.767944870878,0.763532165694,-0.00208948662368,-0.00441270518386,0.001,32.6303441912,7200.0,0.0,410.0,0.0
1513265630717944858,,555335,,1513265628,930063616,'',0.767944870878,0.763513455195,-0.00171058861845,-0.0044314156828,0.001,32.6086427901,7200.0,0.0,410.0,0.0
1513265630727880008,,555336,,1513265628,940063616,'',0.767944870878,0.763524958357,-0.00193599689454,-0.00441991252071,0.001,32.603870115,7200.0,0.0,410.0,0.0
1513265630737844017,,555337,,1513265628,950063616,'',0.767944870878,0.763507557801,-0.00158499248052,-0.00443731307665,0.001,32.6014352619,7200.0,0.0,410.0,0.0
1513265630747706518,,555338,,1513265628,960063616,'',0.767944870878,0.763493309585,-0.00129757714971,-0.00445156129218,0.001,32.5706423396,7200.0,0.0,410.0,0.0
1513265630758177298,,555339,,1513265628,970063616,'',0.767944870878,0.763504507184,-0.00152443452949,-0.00444036369312,0.001,32.5962479139,7200.0,0.0,410.0,0.0
