rosbagTimestamp,header,seq,stamp,secs,nsecs,frame_id,set_point,process_value,process_value_dot,error,time_step,command,p,i,d,i_clamp
1513267196856004822,,711937,,1513267195,37628615,'',0.471238898038,0.476651627997,-0.00480683663904,0.0,0.001,0.0,-5000.0,0.0,0.0,0.0
1513267196865900507,,711938,,1513267195,47628615,'',0.471238898038,0.476651627997,-0.00398325767256,0.0,0.001,0.0,-5000.0,0.0,0.0,0.0
1513267196875978906,,711939,,1513267195,57628615,'',0.471238898038,0.476651627997,-0.00269592154943,0.0,0.001,0.0,-5000.0,0.0,0.0,0.0
1513267196885999373,,711940,,1513267195,67628615,'',0.471238898038,0.474994669847,-0.036245826014,0.0,0.001,0.0,-5000.0,0.0,0.0,0.0
1513267196896241248,,711941,,1513267195,77628615,'',0.471238898038,0.478308586148,0.0316553473739,0.0,0.001,0.0,-5000.0,0.0,0.0,0.0
1513267196906320703,,711942,,1513267195,87628615,'',0.471238898038,0.476651627997,-0.003252347548,0.0,0.001,0.0,-5000.0,0.0,0.0,0.0
1513267196916266878,,711943,,1513267195,97628615,'',0.471238898038,0.476651627997,-0.00510558441029,0.0,0.001,0.0,-5000.0,0.0,0.0,0.0
1513267196926142741,,711944,,1513267195,107628615,'',0.471238898038,0.476651627997,-0.00473534254949,0.0,0.001,0.0,-5000.0,0.0,0.0,0.0
1513267196936028892,,711945,,1513267195,117628615,'',0.471238898038,0.476651627997,-0.00454845805094,0.0,0.001,0.0,-5000.0,0.0,0.0,0.0
1513267196946064630,,711946,,1513267195,127628615,'',0.471238898038,0.478308586148,0.0290076196807,0.0,0.001,0.0,-5000.0,0.0,0.0,0.0
1513267196956030359,,711947,,1513267195,137628615,'',0.471238898038,0.476651627997,-0.0030880000358,0.0,0.001,0.0,-5000.0,0.0,0.0,0.0
1513267196965935567,,711948,,1513267195,147628615,'',0.471238898038,0.478308586148,0.0291530693835,0.0,0.001,0.0,-5000.0,0.0,0.0,0.0
1513267196975905524,,711949,,1513267195,157628615,'',0.471238898038,0.478308586148,0.0274951796809,0.0,0.001,0.0,-5000.0,0.0,0.0,0.0
1513267196986062219,,711950,,1513267195,167628615,'',0.471238898038,0.478308586148,0.0266774618405,0.0,0.001,0.0,-5000.0,0.0,0.0,0.0
1513267196995858499,,711951,,1513267195,177628615,'',0.471238898038,0.476651627997,-0.0055603961435,0.0,0.001,0.0,-5000.0,0.0,0.0,0.0
1513267197006395062,,711952,,1513267195,187628615,'',0.471238898038,0.476651627997,-0.00402619910907,0.0,0.001,0.0,-5000.0,0.0,0.0,0.0
1513267197016214800,,711953,,1513267195,197628615,'',0.471238898038,0.476651627997,-0.00211868533387,0.0,0.001,0.0,-5000.0,0.0,0.0,0.0
1513267197026240172,,711954,,1513267195,207628615,'',0.471238898038,0.476651627997,-0.00292057773579,0.0,0.001,0.0,-5000.0,0.0,0.0,0.0
1513267197036091607,,711955,,1513267195,217628615,'',0.471238898038,0.478308586148,0.0298080117905,0.0,0.001,0.0,-5000.0,0.0,0.0,0.0
1513267197045963351,,711956,,1513267195,227628615,'',0.471238898038,0.476651627997,-0.00247439072291,0.0,0.001,0.0,-5000.0,0.0,0.0,0.0
1513267197055868484,,711957,,1513267195,237628615,'',0.471238898038,0.476651627997,-0.00217560223245,0.0,0.001,0.0,-5000.0,0.0,0.0,0.0
1513267197065899227,,711958,,1513267195,247628615,'',0.471238898038,0.478308586148,0.0309786466202,0.0,0.001,0.0,-5000.0,0.0,0.0,0.0
1513267197076296933,,711959,,1513267195,257628615,'',0.471238898038,0.476651627997,-0.00258531051317,0.0,0.001,0.0,-5000.0,0.0,0.0,0.0
1513267197086259454,,711960,,1513267195,267628615,'',0.471238898038,0.476651627997,-0.00212626985793,0.0,0.001,0.0,-5000.0,0.0,0.0,0.0
1513267197096063707,,711961,,1513267195,277628615,'',0.471238898038,0.474994669847,-0.0340306009711,0.0,0.001,0.0,-5000.0,0.0,0.0,0.0
1513267197106154198,,711962,,1513267195,287628615,'',0.471238898038,0.478308586148,0.0323425734512,0.0,0.001,0.0,-5000.0,0.0,0.0,0.0
1513267197116213753,,711963,,1513267195,297628615,'',0.471238898038,0.476651627997,-0.000377058307009,0.0,0.001,0.0,-5000.0,0.0,0.0,0.0
1513267197126207425,,711964,,1513267195,307628615,'',0.471238898038,0.478308586148,0.0311964913011,0.0,0.001,0.0,-5000.0,0.0,0.0,0.0
1513267197136122220,,711965,,1513267195,317628615,'',0.471238898038,0.476651627997,-0.00256133582207,0.0,0.001,0.0,-5000.0,0.0,0.0,0.0
1513267197146286779,,711966,,1513267195,327628615,'',0.471238898038,0.476651627997,-0.00139406413481,0.0,0.001,0.0,-5000.0,0.0,0.0,0.0
1513267197156159490,,711967,,1513267195,337628615,'',0.471238898038,0.478308586148,0.0322141221098,0.0,0.001,0.0,-5000.0,0.0,0.0,0.0
1513267197166104041,,711968,,1513267195,347628615,'',0.471238898038,0.476651627997,-0.00164651472171,0.0,0.001,0.0,-5000.0,0.0,0.0,0.0
1513267197176213627,,711969,,1513267195,357628615,'',0.471238898038,0.476651627997,-0.00311097849379,0.0,0.001,0.0,-5000.0,0.0,0.0,0.0
1513267197186145363,,711970,,1513267195,367628615,'',0.471238898038,0.478308586148,0.0302558871667,0.0,0.001,0.0,-5000.0,0.0,0.0,0.0
1513267197196056272,,711971,,1513267195,377628615,'',0.471238898038,0.476651627997,-0.000790251153783,0.0,0.001,0.0,-5000.0,0.0,0.0,0.0
1513267197206149748,,711972,,1513267195,387628615,'',0.471238898038,0.476651627997,-0.000555695030766,0.0,0.001,0.0,-5000.0,0.0,0.0,0.0
1513267197215983895,,711973,,1513267195,397628615,'',0.471238898038,0.478308586148,0.0336470305508,0.0,0.001,0.0,-5000.0,0.0,0.0,0.0
1513267197225881521,,711974,,1513267195,407628615,'',0.471238898038,0.478308586148,0.0323083469973,0.0,0.001,0.0,-5000.0,0.0,0.0,0.0
1513267197236012586,,711975,,1513267195,417628615,'',0.471238898038,0.478308586148,0.0312063919103,0.0,0.001,0.0,-5000.0,0.0,0.0,0.0
1513267197245920626,,711976,,1513267195,427628615,'',0.471238898038,0.476651627997,-0.00184219408509,0.0,0.001,0.0,-5000.0,0.0,0.0,0.0
1513267197256050386,,711977,,1513267195,437628615,'',0.471238898038,0.476651627997,-0.00150528029192,0.0,0.001,0.0,-5000.0,0.0,0.0,0.0
1513267197266326106,,711978,,1513267195,447628615,'',0.471238898038,0.474994669847,-0.0335036772304,0.0,0.001,0.0,-5000.0,0.0,0.0,0.0
1513267197276232220,,711979,,1513267195,457628615,'',0.471238898038,0.476651627997,-0.00188632004005,0.0,0.001,0.0,-5000.0,0.0,0.0,0.0
1513267197286239657,,711980,,1513267195,467628615,'',0.471238898038,0.476651627997,-0.00102934381993,0.0,0.001,0.0,-5000.0,0.0,0.0,0.0
1513267197296173764,,711981,,1513267195,477628615,'',0.471238898038,0.476651627997,-0.00139342831331,0.0,0.001,0.0,-5000.0,0.0,0.0,0.0
1513267197306090197,,711982,,1513267195,487628615,'',0.471238898038,0.478308586148,0.0311789992609,0.0,0.001,0.0,-5000.0,0.0,0.0,0.0
1513267197315970191,,711983,,1513267195,497628615,'',0.471238898038,0.474994669847,-0.0359022497384,0.0,0.001,0.0,-5000.0,0.0,0.0,0.0
1513267197325979347,,711984,,1513267195,507628615,'',0.471238898038,0.476651627997,-0.00145839779501,0.0,0.001,0.0,-5000.0,0.0,0.0,0.0
1513267197335820052,,711985,,1513267195,517628615,'',0.471238898038,0.476651627997,-0.00183950282849,0.0,0.001,0.0,-5000.0,0.0,0.0,0.0
1513267197346268831,,711986,,1513267195,527628615,'',0.471238898038,0.478308586148,0.0312742391493,0.0,0.001,0.0,-5000.0,0.0,0.0,0.0
1513267197356253690,,711987,,1513267195,537628615,'',0.471238898038,0.476651627997,-0.0017459604663,0.0,0.001,0.0,-5000.0,0.0,0.0,0.0
1513267197366298936,,711988,,1513267195,547628615,'',0.471238898038,0.476651627997,0.0015614650526,0.0,0.001,0.0,-5000.0,0.0,0.0,0.0
1513267197376052203,,711989,,1513267195,557628615,'',0.471238898038,0.476651627997,0.000634111191801,0.0,0.001,0.0,-5000.0,0.0,0.0,0.0
1513267197385989961,,711990,,1513267195,567628615,'',0.471238898038,0.476651627997,0.000545118494761,0.0,0.001,0.0,-5000.0,0.0,0.0,0.0
1513267197395955360,,711991,,1513267195,577628615,'',0.471238898038,0.476651627997,-0.000653817357053,0.0,0.001,0.0,-5000.0,0.0,0.0,0.0
1513267197405876046,,711992,,1513267195,587628615,'',0.471238898038,0.476651627997,-0.00176441514271,0.0,0.001,0.0,-5000.0,0.0,0.0,0.0
1513267197415882434,,711993,,1513267195,597628615,'',0.471238898038,0.476651627997,-0.000872363459847,0.0,0.001,0.0,-5000.0,0.0,0.0,0.0
1513267197426437545,,711994,,1513267195,607628615,'',0.471238898038,0.476651627997,-0.00125760007379,0.0,0.001,0.0,-5000.0,0.0,0.0,0.0
1513267197436373536,,711995,,1513267195,617628615,'',0.471238898038,0.476651627997,-0.00102963605494,0.0,0.001,0.0,-5000.0,0.0,0.0,0.0
1513267197446340364,,711996,,1513267195,627628615,'',0.471238898038,0.476651627997,0.000893336765328,0.0,0.001,0.0,-5000.0,0.0,0.0,0.0
1513267197456174056,,711997,,1513267195,637628615,'',0.471238898038,0.476651627997,-0.000486849545962,0.0,0.001,0.0,-5000.0,0.0,0.0,0.0
1513267197466328866,,711998,,1513267195,647628615,'',0.471238898038,0.476651627997,-0.000463976580773,0.0,0.001,0.0,-5000.0,0.0,0.0,0.0
1513267197476440435,,711999,,1513267195,657628615,'',0.471238898038,0.476651627997,0.000864198816829,0.0,0.001,0.0,-5000.0,0.0,0.0,0.0
1513267197486464118,,712000,,1513267195,667628615,'',0.471238898038,0.476651627997,-0.000539331675219,0.0,0.001,0.0,-5000.0,0.0,0.0,0.0
1513267197496544385,,712001,,1513267195,677628615,'',0.471238898038,0.476651627997,-0.000389768549709,0.0,0.001,0.0,-5000.0,0.0,0.0,0.0
1513267197505920315,,712002,,1513267195,687628615,'',0.471238898038,0.476651627997,0.00140981582161,0.0,0.001,0.0,-5000.0,0.0,0.0,0.0
1513267197516402401,,712003,,1513267195,697628615,'',0.471238898038,0.478308586148,0.0339635014638,0.0,0.001,0.0,-5000.0,0.0,0.0,0.0
1513267197526474487,,712004,,1513267195,707628615,'',0.471238898038,0.476651627997,-0.000829771827961,0.0,0.001,0.0,-5000.0,0.0,0.0,0.0
1513267197536329168,,712005,,1513267195,717628615,'',0.471238898038,0.476651627997,-0.000689876201403,0.0,0.001,0.0,-5000.0,0.0,0.0,0.0
1513267197546262854,,712006,,1513267195,727628615,'',0.471238898038,0.476651627997,0.000552707446469,0.0,0.001,0.0,-5000.0,0.0,0.0,0.0
1513267197556136060,,712007,,1513267195,737628615,'',0.471238898038,0.474994669847,-0.0323185492282,0.0,0.001,0.0,-5000.0,0.0,0.0,0.0
1513267197566129995,,712008,,1513267195,747628615,'',0.471238898038,0.478308586148,0.033077512915,0.0,0.001,0.0,-5000.0,0.0,0.0,0.0
1513267197576019420,,712009,,1513267195,757628615,'',0.471238898038,0.474994669847,-0.0337368844614,0.0,0.001,0.0,-5000.0,0.0,0.0,0.0
1513267197586062948,,712010,,1513267195,767628615,'',0.471238898038,0.474994669847,-0.0329372148575,0.0,0.001,0.0,-5000.0,0.0,0.0,0.0
1513267197595981623,,712011,,1513267195,777628615,'',0.471238898038,0.474994669847,-0.0329400721318,0.0,0.001,0.0,-5000.0,0.0,0.0,0.0
1513267197606041615,,712012,,1513267195,787628615,'',0.471238898038,0.476651627997,-0.000140911003208,0.0,0.001,0.0,-5000.0,0.0,0.0,0.0
1513267197615948176,,712013,,1513267195,797628615,'',0.471238898038,0.478308586148,0.032748675414,0.0,0.001,0.0,-5000.0,0.0,0.0,0.0
1513267197626429142,,712014,,1513267195,807628615,'',0.471238898038,0.478308586148,0.031702073587,0.0,0.001,0.0,-5000.0,0.0,0.0,0.0
1513267197636438059,,712015,,1513267195,817628615,'',0.471238898038,0.476651627997,-0.00208849457838,0.0,0.001,0.0,-5000.0,0.0,0.0,0.0
1513267197646371888,,712016,,1513267195,827628615,'',0.471238898038,0.474994669847,-0.0339613054682,0.0,0.001,0.0,-5000.0,0.0,0.0,0.0
1513267197656164811,,712017,,1513267195,837628615,'',0.471238898038,0.478308586148,0.0330493270692,0.0,0.001,0.0,-5000.0,0.0,0.0,0.0
1513267197666080200,,712018,,1513267195,847628615,'',0.471238898038,0.474994669847,-0.0344172542943,0.0,0.001,0.0,-5000.0,0.0,0.0,0.0
1513267197676117895,,712019,,1513267195,857628615,'',0.471238898038,0.474994669847,-0.0329669425548,0.0,0.001,0.0,-5000.0,0.0,0.0,0.0
1513267197685967303,,712020,,1513267195,867628615,'',0.471238898038,0.476651627997,0.000497013424671,0.0,0.001,0.0,-5000.0,0.0,0.0,0.0
1513267197696010593,,712021,,1513267195,877628615,'',0.471238898038,0.476651627997,-0.000799633364336,0.0,0.001,0.0,-5000.0,0.0,0.0,0.0
1513267197706353382,,712022,,1513267195,887628615,'',0.471238898038,0.478308586148,0.0315143910739,0.0,0.001,0.0,-5000.0,0.0,0.0,0.0
1513267197716247412,,712023,,1513267195,897628615,'',0.471238898038,0.476651627997,-0.00102707226593,0.0,0.001,0.0,-5000.0,0.0,0.0,0.0
1513267197726106735,,712024,,1513267195,907628615,'',0.471238898038,0.476651627997,-0.00078362876361,0.0,0.001,0.0,-5000.0,0.0,0.0,0.0
1513267197735970794,,712025,,1513267195,917628615,'',0.471238898038,0.476651627997,-0.00123744575124,0.0,0.001,0.0,-5000.0,0.0,0.0,0.0
1513267197746375390,,712026,,1513267195,927628615,'',0.471238898038,0.478308586148,0.032929767739,0.0,0.001,0.0,-5000.0,0.0,0.0,0.0
1513267197756408813,,712027,,1513267195,937628615,'',0.471238898038,0.476651627997,-0.000535916405076,0.0,0.001,0.0,-5000.0,0.0,0.0,0.0
1513267197766491088,,712028,,1513267195,947628615,'',0.471238898038,0.476651627997,0.00246798989917,0.0,0.001,0.0,-5000.0,0.0,0.0,0.0
1513267197776375800,,712029,,1513267195,957628615,'',0.471238898038,0.476651627997,0.0013819602259,0.0,0.001,0.0,-5000.0,0.0,0.0,0.0
1513267197785959548,,712030,,1513267195,967628615,'',0.471238898038,0.476651627997,0.00177767980928,0.0,0.001,0.0,-5000.0,0.0,0.0,0.0
1513267197795880960,,712031,,1513267195,977628615,'',0.471238898038,0.474994669847,-0.0312723630534,0.0,0.001,0.0,-5000.0,0.0,0.0,0.0
1513267197806404478,,712032,,1513267195,987628615,'',0.471238898038,0.476651627997,0.00243341642828,0.0,0.001,0.0,-5000.0,0.0,0.0,0.0
1513267197816123019,,712033,,1513267195,997628615,'',0.471238898038,0.476651627997,0.000749266931398,0.0,0.001,0.0,-5000.0,0.0,0.0,0.0
1513267197826175730,,712034,,1513267196,7628615,'',0.471238898038,0.478308586148,0.0328251582184,0.0,0.001,0.0,-5000.0,0.0,0.0,0.0
1513267197836022385,,712035,,1513267196,17628615,'',0.471238898038,0.474994669847,-0.0304169249294,0.0,0.001,0.0,-5000.0,0.0,0.0,0.0
1513267197845984915,,712036,,1513267196,27628615,'',0.471238898038,0.474994669847,-0.027267919728,0.0,0.001,0.0,-5000.0,0.0,0.0,0.0
1513267197855881514,,712037,,1513267196,37628615,'',0.471238898038,0.476651627997,0.00566551833359,0.0,0.001,0.0,-5000.0,0.0,0.0,0.0
1513267197865855838,,712038,,1513267196,47628615,'',0.471238898038,0.476651627997,0.00465495391642,0.0,0.001,0.0,-5000.0,0.0,0.0,0.0
1513267197876351475,,712039,,1513267196,57628615,'',0.471238898038,0.478308586148,0.0372002145169,0.0,0.001,0.0,-5000.0,0.0,0.0,0.0
1513267197886276396,,712040,,1513267196,67628615,'',0.471238898038,0.476651627997,0.00244698752344,0.0,0.001,0.0,-5000.0,0.0,0.0,0.0
1513267197896217862,,712041,,1513267196,77628615,'',0.471238898038,0.476651627997,0.00145172152235,0.0,0.001,0.0,-5000.0,0.0,0.0,0.0
1513267197906139827,,712042,,1513267196,87628615,'',0.471238898038,0.476651627997,0.00052451483494,0.0,0.001,0.0,-5000.0,0.0,0.0,0.0
1513267197916024381,,712043,,1513267196,97628615,'',0.471238898038,0.474994669847,-0.0342082053381,0.0,0.001,0.0,-5000.0,0.0,0.0,0.0
1513267197925925238,,712044,,1513267196,107628615,'',0.471238898038,0.478308586148,0.0327512018879,0.0,0.001,0.0,-5000.0,0.0,0.0,0.0
1513267197935985370,,712045,,1513267196,117628615,'',0.471238898038,0.478308586148,0.0314925283166,0.0,0.001,0.0,-5000.0,0.0,0.0,0.0
1513267197946398057,,712046,,1513267196,127628615,'',0.471238898038,0.476651627997,-0.00157185851664,0.0,0.001,0.0,-5000.0,0.0,0.0,0.0
1513267197956345912,,712047,,1513267196,137628615,'',0.471238898038,0.476651627997,0.000497525194433,0.0,0.001,0.0,-5000.0,0.0,0.0,0.0
1513267197966291059,,712048,,1513267196,147628615,'',0.471238898038,0.474994669847,-0.0330285599316,0.0,0.001,0.0,-5000.0,0.0,0.0,0.0
1513267197976209156,,712049,,1513267196,157628615,'',0.471238898038,0.476651627997,0.00109997496791,0.0,0.001,0.0,-5000.0,0.0,0.0,0.0
1513267197986148518,,712050,,1513267196,167628615,'',0.471238898038,0.476651627997,0.00152095693577,0.0,0.001,0.0,-5000.0,0.0,0.0,0.0
1513267197996282204,,712051,,1513267196,177628615,'',0.471238898038,0.478308586148,0.0357979366445,0.0,0.001,0.0,-5000.0,0.0,0.0,0.0
1513267198006145414,,712052,,1513267196,187628615,'',0.471238898038,0.478308586148,0.03528551707,0.0,0.001,0.0,-5000.0,0.0,0.0,0.0
1513267198016040036,,712053,,1513267196,197628615,'',0.471238898038,0.476651627997,0.0038744983763,0.0,0.001,0.0,-5000.0,0.0,0.0,0.0
1513267198026026372,,712054,,1513267196,207628615,'',0.471238898038,0.476651627997,0.0043254821915,0.0,0.001,0.0,-5000.0,0.0,0.0,0.0
1513267198036038808,,712055,,1513267196,217628615,'',0.471238898038,0.474994669847,-0.0275379736393,0.0,0.001,0.0,-5000.0,0.0,0.0,0.0
1513267198046361946,,712056,,1513267196,227628615,'',0.471238898038,0.476651627997,0.00663917541294,0.0,0.001,0.0,-5000.0,0.0,0.0,0.0
1513267198056234362,,712057,,1513267196,237628615,'',0.471238898038,0.476651627997,0.00783093007915,0.0,0.001,0.0,-5000.0,0.0,0.0,0.0
1513267198066321047,,712058,,1513267196,247628615,'',0.471238898038,0.474994669847,-0.0252675058686,0.0,0.001,0.0,-5000.0,0.0,0.0,0.0
1513267198076300331,,712059,,1513267196,257628615,'',0.471238898038,0.474994669847,-0.0242703102435,0.0,0.001,0.0,-5000.0,0.0,0.0,0.0
1513267198086112210,,712060,,1513267196,267628615,'',0.471238898038,0.476651627997,0.00869573896653,0.0,0.001,0.0,-5000.0,0.0,0.0,0.0
1513267198096207693,,712061,,1513267196,277628615,'',0.471238898038,0.476651627997,0.00652313959475,0.0,0.001,0.0,-5000.0,0.0,0.0,0.0
1513267198106224666,,712062,,1513267196,287628615,'',0.471238898038,0.476651627997,0.00665496840669,0.0,0.001,0.0,-5000.0,0.0,0.0,0.0
1513267198116100466,,712063,,1513267196,297628615,'',0.471238898038,0.476651627997,0.00425572598561,0.0,0.001,0.0,-5000.0,0.0,0.0,0.0
1513267198125922356,,712064,,1513267196,307628615,'',0.471238898038,0.476651627997,0.00412225187565,0.0,0.001,0.0,-5000.0,0.0,0.0,0.0
1513267198136460136,,712065,,1513267196,317628615,'',0.471238898038,0.476651627997,0.00273734324029,0.0,0.001,0.0,-5000.0,0.0,0.0,0.0
1513267198146380684,,712066,,1513267196,327628615,'',0.471238898038,0.476651627997,0.0039509961549,0.0,0.001,0.0,-5000.0,0.0,0.0,0.0
1513267198156105655,,712067,,1513267196,337628615,'',0.471238898038,0.476651627997,0.00447748086152,0.0,0.001,0.0,-5000.0,0.0,0.0,0.0
1513267198166023351,,712068,,1513267196,347628615,'',0.471238898038,0.476651627997,0.00482376967636,0.0,0.001,0.0,-5000.0,0.0,0.0,0.0
1513267198175965636,,712069,,1513267196,357628615,'',0.471238898038,0.476651627997,0.00459840442371,0.0,0.001,0.0,-5000.0,0.0,0.0,0.0
1513267198185921587,,712070,,1513267196,367628615,'',0.471238898038,0.476651627997,0.00441889053967,0.0,0.001,0.0,-5000.0,0.0,0.0,0.0
1513267198196202463,,712071,,1513267196,377628615,'',0.471238898038,0.476651627997,0.00234818550704,0.0,0.001,0.0,-5000.0,0.0,0.0,0.0
1513267198206205487,,712072,,1513267196,387628615,'',0.471238898038,0.476651627997,0.00254657016538,0.0,0.001,0.0,-5000.0,0.0,0.0,0.0
1513267198216114239,,712073,,1513267196,397628615,'',0.471238898038,0.476651627997,0.00211988972183,0.0,0.001,0.0,-5000.0,0.0,0.0,0.0
1513267198226135039,,712074,,1513267196,407628615,'',0.471238898038,0.476651627997,0.00232680322249,0.0,0.001,0.0,-5000.0,0.0,0.0,0.0
1513267198236105802,,712075,,1513267196,417628615,'',0.471238898038,0.474994669847,-0.0321946648111,0.0,0.001,0.0,-5000.0,0.0,0.0,0.0
1513267198246093989,,712076,,1513267196,427628615,'',0.471238898038,0.476651627997,0.00167132586134,0.0,0.001,0.0,-5000.0,0.0,0.0,0.0
1513267198256033118,,712077,,1513267196,437628615,'',0.471238898038,0.476651627997,0.00252568349589,0.0,0.001,0.0,-5000.0,0.0,0.0,0.0
1513267198266446184,,712078,,1513267196,447628615,'',0.471238898038,0.476651627997,0.00335437182319,0.0,0.001,0.0,-5000.0,0.0,0.0,0.0
1513267198276352007,,712079,,1513267196,457628615,'',0.471238898038,0.478308586148,0.0373388581854,0.0,0.001,0.0,-5000.0,0.0,0.0,0.0
1513267198286242148,,712080,,1513267196,467628615,'',0.471238898038,0.476651627997,0.00254950640474,0.0,0.001,0.0,-5000.0,0.0,0.0,0.0
1513267198296142847,,712081,,1513267196,477628615,'',0.471238898038,0.476651627997,0.000855225151178,0.0,0.001,0.0,-5000.0,0.0,0.0,0.0
1513267198306122383,,712082,,1513267196,487628615,'',0.471238898038,0.476651627997,0.00126092610013,0.0,0.001,0.0,-5000.0,0.0,0.0,0.0
1513267198316145596,,712083,,1513267196,497628615,'',0.471238898038,0.478308586148,0.0344891905709,0.0,0.001,0.0,-5000.0,0.0,0.0,0.0
1513267198326031423,,712084,,1513267196,507628615,'',0.471238898038,0.476651627997,0.00325092058373,0.0,0.001,0.0,-5000.0,0.0,0.0,0.0
1513267198336050876,,712085,,1513267196,517628615,'',0.471238898038,0.476651627997,0.0050876798017,0.0,0.001,0.0,-5000.0,0.0,0.0,0.0
1513267198346054430,,712086,,1513267196,527628615,'',0.471238898038,0.476651627997,0.00357511939628,0.0,0.001,0.0,-5000.0,0.0,0.0,0.0
1513267198356028029,,712087,,1513267196,537628615,'',0.471238898038,0.478308586148,0.0375609983673,0.0,0.001,0.0,-5000.0,0.0,0.0,0.0
1513267198365962345,,712088,,1513267196,547628615,'',0.471238898038,0.478308586148,0.0379312281438,0.0,0.001,0.0,-5000.0,0.0,0.0,0.0
1513267198375886785,,712089,,1513267196,557628615,'',0.471238898038,0.476651627997,0.0030411196463,0.0,0.001,0.0,-5000.0,0.0,0.0,0.0
1513267198386129218,,712090,,1513267196,567628615,'',0.471238898038,0.476651627997,0.00361397427667,0.0,0.001,0.0,-5000.0,0.0,0.0,0.0
1513267198396103199,,712091,,1513267196,577628615,'',0.471238898038,0.474994669847,-0.030482339914,0.0,0.001,0.0,-5000.0,0.0,0.0,0.0
1513267198406364436,,712092,,1513267196,587628615,'',0.471238898038,0.474994669847,-0.0303052993167,0.0,0.001,0.0,-5000.0,0.0,0.0,0.0
1513267198416388471,,712093,,1513267196,597628615,'',0.471238898038,0.476651627997,0.00383403963991,0.0,0.001,0.0,-5000.0,0.0,0.0,0.0
1513267198426212471,,712094,,1513267196,607628615,'',0.471238898038,0.476651627997,0.00432223286648,0.0,0.001,0.0,-5000.0,0.0,0.0,0.0
1513267198436286712,,712095,,1513267196,617628615,'',0.471238898038,0.476651627997,0.00358230597182,0.0,0.001,0.0,-5000.0,0.0,0.0,0.0
1513267198446377734,,712096,,1513267196,627628615,'',0.471238898038,0.474994669847,-0.0297993610897,0.0,0.001,0.0,-5000.0,0.0,0.0,0.0
1513267198456294060,,712097,,1513267196,637628615,'',0.471238898038,0.478308586148,0.0351536592446,0.0,0.001,0.0,-5000.0,0.0,0.0,0.0
1513267198466265441,,712098,,1513267196,647628615,'',0.471238898038,0.474994669847,-0.0297001419572,0.0,0.001,0.0,-5000.0,0.0,0.0,0.0
1513267198476151995,,712099,,1513267196,657628615,'',0.471238898038,0.476651627997,0.00543190359033,0.0,0.001,0.0,-5000.0,0.0,0.0,0.0
1513267198486386554,,712100,,1513267196,667628615,'',0.471238898038,0.476651627997,0.00485463802693,0.0,0.001,0.0,-5000.0,0.0,0.0,0.0
1513267198496275114,,712101,,1513267196,677628615,'',0.471238898038,0.474994669847,-0.0282083103487,0.0,0.001,0.0,-5000.0,0.0,0.0,0.0
1513267198506125235,,712102,,1513267196,687628615,'',0.471238898038,0.476651627997,0.00426557692088,0.0,0.001,0.0,-5000.0,0.0,0.0,0.0
1513267198516028435,,712103,,1513267196,697628615,'',0.471238898038,0.476651627997,0.00535699421611,0.0,0.001,0.0,-5000.0,0.0,0.0,0.0
1513267198526085769,,712104,,1513267196,707628615,'',0.471238898038,0.476651627997,0.00380912709482,0.0,0.001,0.0,-5000.0,0.0,0.0,0.0
1513267198536353254,,712105,,1513267196,717628615,'',0.471238898038,0.474994669847,-0.0284150865692,0.0,0.001,0.0,-5000.0,0.0,0.0,0.0
1513267198546144311,,712106,,1513267196,727628615,'',0.471238898038,0.474994669847,-0.0280344967447,0.0,0.001,0.0,-5000.0,0.0,0.0,0.0
1513267198556420884,,712107,,1513267196,737628615,'',0.471238898038,0.478308586148,0.037896634355,0.0,0.001,0.0,-5000.0,0.0,0.0,0.0
1513267198566317602,,712108,,1513267196,747628615,'',0.471238898038,0.476651627997,0.00419189399179,0.0,0.001,0.0,-5000.0,0.0,0.0,0.0
1513267198576158441,,712109,,1513267196,757628615,'',0.471238898038,0.476651627997,0.00575866338038,0.0,0.001,0.0,-5000.0,0.0,0.0,0.0
1513267198586181379,,712110,,1513267196,767628615,'',0.471238898038,0.474994669847,-0.0287339723064,0.0,0.001,0.0,-5000.0,0.0,0.0,0.0
1513267198596203279,,712111,,1513267196,777628615,'',0.471238898038,0.476651627997,0.00396649878707,0.0,0.001,0.0,-5000.0,0.0,0.0,0.0
1513267198606371409,,712112,,1513267196,787628615,'',0.471238898038,0.476651627997,0.00389780720539,0.0,0.001,0.0,-5000.0,0.0,0.0,0.0
1513267198616297946,,712113,,1513267196,797628615,'',0.471238898038,0.476651627997,0.0025229726718,0.0,0.001,0.0,-5000.0,0.0,0.0,0.0
1513267198626229660,,712114,,1513267196,807628615,'',0.471238898038,0.474994669847,-0.0294494790521,0.0,0.001,0.0,-5000.0,0.0,0.0,0.0
1513267198636291096,,712115,,1513267196,817628615,'',0.471238898038,0.478308586148,0.0367777792408,0.0,0.001,0.0,-5000.0,0.0,0.0,0.0
1513267198646377019,,712116,,1513267196,827628615,'',0.471238898038,0.476651627997,0.00344203254322,0.0,0.001,0.0,-5000.0,0.0,0.0,0.0
1513267198656198354,,712117,,1513267196,837628615,'',0.471238898038,0.476651627997,0.0027255430962,0.0,0.001,0.0,-5000.0,0.0,0.0,0.0
1513267198666203850,,712118,,1513267196,847628615,'',0.471238898038,0.476651627997,0.00168217347554,0.0,0.001,0.0,-5000.0,0.0,0.0,0.0
1513267198676121765,,712119,,1513267196,857628615,'',0.471238898038,0.474994669847,-0.0326440531017,0.0,0.001,0.0,-5000.0,0.0,0.0,0.0
1513267198686179924,,712120,,1513267196,867628615,'',0.471238898038,0.476651627997,0.0019267088491,0.0,0.001,0.0,-5000.0,0.0,0.0,0.0
1513267198696036109,,712121,,1513267196,877628615,'',0.471238898038,0.476651627997,0.00337659277568,0.0,0.001,0.0,-5000.0,0.0,0.0,0.0
1513267198706042084,,712122,,1513267196,887628615,'',0.471238898038,0.476651627997,0.00394043403454,0.0,0.001,0.0,-5000.0,0.0,0.0,0.0
1513267198715947941,,712123,,1513267196,897628615,'',0.471238898038,0.476651627997,0.00332828988306,0.0,0.001,0.0,-5000.0,0.0,0.0,0.0
1513267198725956242,,712124,,1513267196,907628615,'',0.471238898038,0.476651627997,0.00215588410079,0.0,0.001,0.0,-5000.0,0.0,0.0,0.0
1513267198736503989,,712125,,1513267196,917628615,'',0.471238898038,0.476651627997,0.00355976972748,0.0,0.001,0.0,-5000.0,0.0,0.0,0.0
1513267198746365907,,712126,,1513267196,927628615,'',0.471238898038,0.478308586148,0.0363964446159,0.0,0.001,0.0,-5000.0,0.0,0.0,0.0
1513267198756279752,,712127,,1513267196,937628615,'',0.471238898038,0.476651627997,0.00244076063498,0.0,0.001,0.0,-5000.0,0.0,0.0,0.0
1513267198766327785,,712128,,1513267196,947628615,'',0.471238898038,0.474994669847,-0.0309259640721,0.0,0.001,0.0,-5000.0,0.0,0.0,0.0
1513267198776231830,,712129,,1513267196,957628615,'',0.471238898038,0.476651627997,0.00270170799497,0.0,0.001,0.0,-5000.0,0.0,0.0,0.0
1513267198786346367,,712130,,1513267196,967628615,'',0.471238898038,0.474994669847,-0.0306312789922,0.0,0.001,0.0,-5000.0,0.0,0.0,0.0
1513267198796131735,,712131,,1513267196,977628615,'',0.471238898038,0.476651627997,0.00532299272631,0.0,0.001,0.0,-5000.0,0.0,0.0,0.0
1513267198805965932,,712132,,1513267196,987628615,'',0.471238898038,0.476651627997,0.00610727181449,0.0,0.001,0.0,-5000.0,0.0,0.0,0.0
1513267198816342681,,712133,,1513267196,997628615,'',0.471238898038,0.476651627997,0.00747314220411,0.0,0.001,0.0,-5000.0,0.0,0.0,0.0
1513267198826083209,,712134,,1513267197,7628615,'',0.471238898038,0.476651627997,0.00676263265245,0.0,0.001,0.0,-5000.0,0.0,0.0,0.0
1513267198836281125,,712135,,1513267197,17628615,'',0.471238898038,0.476651627997,0.00619088815343,0.0,0.001,0.0,-5000.0,0.0,0.0,0.0
1513267198846448730,,712136,,1513267197,27628615,'',0.471238898038,0.476651627997,0.00748705228571,0.0,0.001,0.0,-5000.0,0.0,0.0,0.0
1513267198856361570,,712137,,1513267197,37628615,'',0.471238898038,0.476651627997,0.00731734286741,0.0,0.001,0.0,-5000.0,0.0,0.0,0.0
1513267198866246564,,712138,,1513267197,47628615,'',0.471238898038,0.476651627997,0.00839513232397,0.0,0.001,0.0,-5000.0,0.0,0.0,0.0
1513267198876377277,,712139,,1513267197,57628615,'',0.471238898038,0.474994669847,-0.0247379598177,0.0,0.001,0.0,-5000.0,0.0,0.0,0.0
1513267198886225055,,712140,,1513267197,67628615,'',0.471238898038,0.476651627997,0.0101603970173,0.0,0.001,0.0,-5000.0,0.0,0.0,0.0
1513267198896159485,,712141,,1513267197,77628615,'',0.471238898038,0.474994669847,-0.02513302581,0.0,0.001,0.0,-5000.0,0.0,0.0,0.0
1513267198906201199,,712142,,1513267197,87628615,'',0.471238898038,0.476651627997,0.00865107703258,0.0,0.001,0.0,-5000.0,0.0,0.0,0.0
1513267198916160664,,712143,,1513267197,97628615,'',0.471238898038,0.478308586148,0.0416538837113,0.0,0.001,0.0,-5000.0,0.0,0.0,0.0
1513267198926097686,,712144,,1513267197,107628615,'',0.471238898038,0.476651627997,0.00791175420435,0.0,0.001,0.0,-5000.0,0.0,0.0,0.0
1513267198936207762,,712145,,1513267197,117628615,'',0.471238898038,0.476651627997,0.00840235588413,0.0,0.001,0.0,-5000.0,0.0,0.0,0.0
1513267198946101989,,712146,,1513267197,127628615,'',0.471238898038,0.476651627997,0.0074656291445,0.0,0.001,0.0,-5000.0,0.0,0.0,0.0
1513267198956058601,,712147,,1513267197,137628615,'',0.471238898038,0.476651627997,0.00731069769403,0.0,0.001,0.0,-5000.0,0.0,0.0,0.0
1513267198966044433,,712148,,1513267197,147628615,'',0.471238898038,0.476651627997,0.00655113035572,0.0,0.001,0.0,-5000.0,0.0,0.0,0.0
1513267198976420040,,712149,,1513267197,157628615,'',0.471238898038,0.476651627997,0.00535204308985,0.0,0.001,0.0,-5000.0,0.0,0.0,0.0
1513267198986158380,,712150,,1513267197,167628615,'',0.471238898038,0.476651627997,0.00616058582549,0.0,0.001,0.0,-5000.0,0.0,0.0,0.0
1513267198996498479,,712151,,1513267197,177628615,'',0.471238898038,0.476651627997,0.00749344423925,0.0,0.001,0.0,-5000.0,0.0,0.0,0.0
1513267199006395476,,712152,,1513267197,187628615,'',0.471238898038,0.474994669847,-0.0260970934448,0.0,0.001,0.0,-5000.0,0.0,0.0,0.0
1513267199016359384,,712153,,1513267197,197628615,'',0.471238898038,0.474994669847,-0.0260629911714,0.0,0.001,0.0,-5000.0,0.0,0.0,0.0
1513267199026238928,,712154,,1513267197,207628615,'',0.471238898038,0.476651627997,0.00734715573409,0.0,0.001,0.0,-5000.0,0.0,0.0,0.0
1513267199036329802,,712155,,1513267197,217628615,'',0.471238898038,0.474994669847,-0.0220418466033,0.0,0.001,0.0,-5000.0,0.0,0.0,0.0
1513267199046220875,,712156,,1513267197,227628615,'',0.471238898038,0.478308586148,0.0439617761622,0.0,0.001,0.0,-5000.0,0.0,0.0,0.0
1513267199056061013,,712157,,1513267197,237628615,'',0.471238898038,0.476651627997,0.0109275072864,0.0,0.001,0.0,-5000.0,0.0,0.0,0.0
1513267199066135775,,712158,,1513267197,247628615,'',0.471238898038,0.476651627997,0.00901286892699,0.0,0.001,0.0,-5000.0,0.0,0.0,0.0
1513267199076103742,,712159,,1513267197,257628615,'',0.471238898038,0.476651627997,0.00863039323928,0.0,0.001,0.0,-5000.0,0.0,0.0,0.0
1513267199086165695,,712160,,1513267197,267628615,'',0.471238898038,0.478308586148,0.039944400921,0.0,0.001,0.0,-5000.0,0.0,0.0,0.0
1513267199096384567,,712161,,1513267197,277628615,'',0.471238898038,0.476651627997,0.00648943821834,0.0,0.001,0.0,-5000.0,0.0,0.0,0.0
1513267199106262059,,712162,,1513267197,287628615,'',0.471238898038,0.476651627997,0.00770746936658,0.0,0.001,0.0,-5000.0,0.0,0.0,0.0
1513267199116308262,,712163,,1513267197,297628615,'',0.471238898038,0.478308586148,0.0409736085469,0.0,0.001,0.0,-5000.0,0.0,0.0,0.0
1513267199125969522,,712164,,1513267197,307628615,'',0.471238898038,0.474994669847,-0.025434182135,0.0,0.001,0.0,-5000.0,0.0,0.0,0.0
1513267199136463760,,712165,,1513267197,317628615,'',0.471238898038,0.476651627997,0.00662684239097,0.0,0.001,0.0,-5000.0,0.0,0.0,0.0
1513267199146462627,,712166,,1513267197,327628615,'',0.471238898038,0.478308586148,0.0400875807401,0.0,0.001,0.0,-5000.0,0.0,0.0,0.0
1513267199156445970,,712167,,1513267197,337628615,'',0.471238898038,0.478308586148,0.0393733545692,0.0,0.001,0.0,-5000.0,0.0,0.0,0.0
1513267199166369729,,712168,,1513267197,347628615,'',0.471238898038,0.478308586148,0.0375887411841,0.0,0.001,0.0,-5000.0,0.0,0.0,0.0
1513267199176272661,,712169,,1513267197,357628615,'',0.471238898038,0.476651627997,0.00277732283036,0.0,0.001,0.0,-5000.0,0.0,0.0,0.0
1513267199186345025,,712170,,1513267197,367628615,'',0.471238898038,0.474994669847,-0.0292786824941,0.0,0.001,0.0,-5000.0,0.0,0.0,0.0
1513267199196053661,,712171,,1513267197,377628615,'',0.471238898038,0.474994669847,-0.0276051726007,0.0,0.001,0.0,-5000.0,0.0,0.0,0.0
1513267199206385457,,712172,,1513267197,387628615,'',0.471238898038,0.476651627997,0.00606093391124,0.0,0.001,0.0,-5000.0,0.0,0.0,0.0
1513267199216461552,,712173,,1513267197,397628615,'',0.471238898038,0.476651627997,0.00670878444515,0.0,0.001,0.0,-5000.0,0.0,0.0,0.0
1513267199226181923,,712174,,1513267197,407628615,'',0.471238898038,0.474994669847,-0.0267531936792,0.0,0.001,0.0,-5000.0,0.0,0.0,0.0
1513267199236212586,,712175,,1513267197,417628615,'',0.471238898038,0.476651627997,0.00792818300777,0.0,0.001,0.0,-5000.0,0.0,0.0,0.0
1513267199246086622,,712176,,1513267197,427628615,'',0.471238898038,0.476651627997,0.00764333297087,0.0,0.001,0.0,-5000.0,0.0,0.0,0.0
1513267199256193593,,712177,,1513267197,437628615,'',0.471238898038,0.476651627997,0.00808988167979,0.0,0.001,0.0,-5000.0,0.0,0.0,0.0
1513267199266092852,,712178,,1513267197,447628615,'',0.471238898038,0.476651627997,0.00774489177262,0.0,0.001,0.0,-5000.0,0.0,0.0,0.0
1513267199276022883,,712179,,1513267197,457628615,'',0.471238898038,0.474994669847,-0.026944356541,0.0,0.001,0.0,-5000.0,0.0,0.0,0.0
1513267199286032404,,712180,,1513267197,467628615,'',0.471238898038,0.476651627997,0.00658241948294,0.0,0.001,0.0,-5000.0,0.0,0.0,0.0
1513267199295987304,,712181,,1513267197,477628615,'',0.471238898038,0.474994669847,-0.0244490162117,0.0,0.001,0.0,-5000.0,0.0,0.0,0.0
1513267199306494452,,712182,,1513267197,487628615,'',0.471238898038,0.476651627997,0.008449728807,0.0,0.001,0.0,-5000.0,0.0,0.0,0.0
1513267199317009053,,712183,,1513267197,497628615,'',0.471238898038,0.474994669847,-0.0235582697474,0.0,0.001,0.0,-5000.0,0.0,0.0,0.0
1513267199326255717,,712184,,1513267197,507628615,'',0.471238898038,0.476651627997,0.0104856445674,0.0,0.001,0.0,-5000.0,0.0,0.0,0.0
1513267199336382958,,712185,,1513267197,517628615,'',0.471238898038,0.478308586148,0.0419727168922,0.0,0.001,0.0,-5000.0,0.0,0.0,0.0
1513267199346107100,,712186,,1513267197,527628615,'',0.471238898038,0.474994669847,-0.0240126822555,0.0,0.001,0.0,-5000.0,0.0,0.0,0.0
1513267199356046510,,712187,,1513267197,537628615,'',0.471238898038,0.476651627997,0.0101743739981,0.0,0.001,0.0,-5000.0,0.0,0.0,0.0
1513267199366027628,,712188,,1513267197,547628615,'',0.471238898038,0.474994669847,-0.0239435530009,0.0,0.001,0.0,-5000.0,0.0,0.0,0.0
1513267199376009800,,712189,,1513267197,557628615,'',0.471238898038,0.474994669847,-0.021970778726,0.0,0.001,0.0,-5000.0,0.0,0.0,0.0
1513267199386099620,,712190,,1513267197,567628615,'',0.471238898038,0.476651627997,0.00941205845074,0.0,0.001,0.0,-5000.0,0.0,0.0,0.0
1513267199396415411,,712191,,1513267197,577628615,'',0.471238898038,0.478308586148,0.0422935191712,0.0,0.001,0.0,-5000.0,0.0,0.0,0.0
1513267199406330238,,712192,,1513267197,587628615,'',0.471238898038,0.474994669847,-0.0256437109217,0.0,0.001,0.0,-5000.0,0.0,0.0,0.0
1513267199416379445,,712193,,1513267197,597628615,'',0.471238898038,0.476651627997,0.0100780256381,0.0,0.001,0.0,-5000.0,0.0,0.0,0.0
1513267199425924384,,712194,,1513267197,607628615,'',0.471238898038,0.476651627997,0.00938880964831,0.0,0.001,0.0,-5000.0,0.0,0.0,0.0
1513267199436294426,,712195,,1513267197,617628615,'',0.471238898038,0.474994669847,-0.0227918349606,0.0,0.001,0.0,-5000.0,0.0,0.0,0.0
1513267199446303234,,712196,,1513267197,627628615,'',0.471238898038,0.476651627997,0.010028444559,0.0,0.001,0.0,-5000.0,0.0,0.0,0.0
1513267199456257751,,712197,,1513267197,637628615,'',0.471238898038,0.474994669847,-0.0235858804654,0.0,0.001,0.0,-5000.0,0.0,0.0,0.0
1513267199466245353,,712198,,1513267197,647628615,'',0.471238898038,0.476651627997,0.0105137648391,0.0,0.001,0.0,-5000.0,0.0,0.0,0.0
1513267199476116841,,712199,,1513267197,657628615,'',0.471238898038,0.476651627997,0.00981291289646,0.0,0.001,0.0,-5000.0,0.0,0.0,0.0
1513267199486038126,,712200,,1513267197,667628615,'',0.471238898038,0.474994669847,-0.0223752053654,0.0,0.001,0.0,-5000.0,0.0,0.0,0.0
1513267199496016814,,712201,,1513267197,677628615,'',0.471238898038,0.474994669847,-0.0218794526855,0.0,0.001,0.0,-5000.0,0.0,0.0,0.0
1513267199505909203,,712202,,1513267197,687628615,'',0.471238898038,0.476651627997,0.00822078753907,0.0,0.001,0.0,-5000.0,0.0,0.0,0.0
1513267199516362164,,712203,,1513267197,697628615,'',0.471238898038,0.476651627997,0.00795359144861,0.0,0.001,0.0,-5000.0,0.0,0.0,0.0
1513267199526286961,,712204,,1513267197,707628615,'',0.471238898038,0.476651627997,0.00781781694948,0.0,0.001,0.0,-5000.0,0.0,0.0,0.0
1513267199536305896,,712205,,1513267197,717628615,'',0.471238898038,0.476651627997,0.00640078135574,0.0,0.001,0.0,-5000.0,0.0,0.0,0.0
1513267199546184488,,712206,,1513267197,727628615,'',0.471238898038,0.476651627997,0.00523256958749,0.0,0.001,0.0,-5000.0,0.0,0.0,0.0
1513267199556032663,,712207,,1513267197,737628615,'',0.471238898038,0.476651627997,0.00427384614264,0.0,0.001,0.0,-5000.0,0.0,0.0,0.0
1513267199566015418,,712208,,1513267197,747628615,'',0.471238898038,0.476651627997,0.0058187886203,0.0,0.001,0.0,-5000.0,0.0,0.0,0.0
1513267199576307534,,712209,,1513267197,757628615,'',0.471238898038,0.476651627997,0.00537355335826,0.0,0.001,0.0,-5000.0,0.0,0.0,0.0
1513267199586311746,,712210,,1513267197,767628615,'',0.471238898038,0.476651627997,0.00623195543301,0.0,0.001,0.0,-5000.0,0.0,0.0,0.0
1513267199596270320,,712211,,1513267197,777628615,'',0.471238898038,0.476651627997,0.00750280403965,0.0,0.001,0.0,-5000.0,0.0,0.0,0.0
1513267199606144295,,712212,,1513267197,787628615,'',0.471238898038,0.476651627997,0.00784825827038,0.0,0.001,0.0,-5000.0,0.0,0.0,0.0
1513267199616087768,,712213,,1513267197,797628615,'',0.471238898038,0.476651627997,0.00633341557658,0.0,0.001,0.0,-5000.0,0.0,0.0,0.0
1513267199626062459,,712214,,1513267197,807628615,'',0.471238898038,0.474994669847,-0.0264259026198,0.0,0.001,0.0,-5000.0,0.0,0.0,0.0
1513267199635947644,,712215,,1513267197,817628615,'',0.471238898038,0.474994669847,-0.0252780169066,0.0,0.001,0.0,-5000.0,0.0,0.0,0.0
1513267199646003937,,712216,,1513267197,827628615,'',0.471238898038,0.474994669847,-0.0236169234012,0.0,0.001,0.0,-5000.0,0.0,0.0,0.0
1513267199655925339,,712217,,1513267197,837628615,'',0.471238898038,0.476651627997,0.00985081743158,0.0,0.001,0.0,-5000.0,0.0,0.0,0.0
1513267199666429132,,712218,,1513267197,847628615,'',0.471238898038,0.476651627997,0.00926315375213,0.0,0.001,0.0,-5000.0,0.0,0.0,0.0
1513267199676387107,,712219,,1513267197,857628615,'',0.471238898038,0.474994669847,-0.024010468392,0.0,0.001,0.0,-5000.0,0.0,0.0,0.0
1513267199686373367,,712220,,1513267197,867628615,'',0.471238898038,0.476651627997,0.00831019526544,0.0,0.001,0.0,-5000.0,0.0,0.0,0.0
1513267199696411680,,712221,,1513267197,877628615,'',0.471238898038,0.476651627997,0.00382587669241,0.0,0.001,0.0,-5000.0,0.0,0.0,0.0
1513267199706209435,,712222,,1513267197,887628615,'',0.471238898038,0.476651627997,0.00312080669377,0.0,0.001,0.0,-5000.0,0.0,0.0,0.0
1513267199716208186,,712223,,1513267197,897628615,'',0.471238898038,0.476651627997,0.00315986924725,0.0,0.001,0.0,-5000.0,0.0,0.0,0.0
1513267199726048634,,712224,,1513267197,907628615,'',0.471238898038,0.476651627997,0.00378123708214,0.0,0.001,0.0,-5000.0,0.0,0.0,0.0
1513267199736046093,,712225,,1513267197,917628615,'',0.471238898038,0.476651627997,0.00498008556871,0.0,0.001,0.0,-5000.0,0.0,0.0,0.0
1513267199746325970,,712226,,1513267197,927628615,'',0.471238898038,0.478308586148,0.0381750710549,0.0,0.001,0.0,-5000.0,0.0,0.0,0.0
1513267199756310457,,712227,,1513267197,937628615,'',0.471238898038,0.474994669847,-0.0276992246579,0.0,0.001,0.0,-5000.0,0.0,0.0,0.0
1513267199766121463,,712228,,1513267197,947628615,'',0.471238898038,0.478308586148,0.0381330966288,0.0,0.001,0.0,-5000.0,0.0,0.0,0.0
1513267199776144590,,712229,,1513267197,957628615,'',0.471238898038,0.478308586148,0.0359508943282,0.0,0.001,0.0,-5000.0,0.0,0.0,0.0
1513267199786031939,,712230,,1513267197,967628615,'',0.471238898038,0.476651627997,0.00321680749982,0.0,0.001,0.0,-5000.0,0.0,0.0,0.0
1513267199796160152,,712231,,1513267197,977628615,'',0.471238898038,0.474994669847,-0.0307305709285,0.0,0.001,0.0,-5000.0,0.0,0.0,0.0
1513267199806132083,,712232,,1513267197,987628615,'',0.471238898038,0.474994669847,-0.029460860914,0.0,0.001,0.0,-5000.0,0.0,0.0,0.0
1513267199816039069,,712233,,1513267197,997628615,'',0.471238898038,0.474994669847,-0.0295129759387,0.0,0.001,0.0,-5000.0,0.0,0.0,0.0
1513267199825974786,,712234,,1513267198,7628615,'',0.471238898038,0.474994669847,-0.0277845747359,0.0,0.001,0.0,-5000.0,0.0,0.0,0.0
