rosbagTimestamp,header,seq,stamp,secs,nsecs,frame_id,set_point,process_value,process_value_dot,error,time_step,command,p,i,d,i_clamp
1513267517173434121,,743962,,1513267515,348669309,'',0.820304748437,0.824264859857,0.00208247380155,0.0,0.001,0.0,7200.0,0.0,410.0,0.0
1513267517183538649,,743963,,1513267515,358669309,'',0.820304748437,0.824283615435,0.00170488811682,0.0,0.001,0.0,7200.0,0.0,410.0,0.0
1513267517193449608,,743964,,1513267515,368669309,'',0.820304748437,0.824298945859,0.00139625732935,0.0,0.001,0.0,7200.0,0.0,410.0,0.0
1513267517203340269,,743965,,1513267515,378669309,'',0.820304748437,0.824284065309,0.00169888563336,0.0,0.001,0.0,7200.0,0.0,410.0,0.0
1513267517213398419,,743966,,1513267515,388669309,'',0.820304748437,0.824270061457,0.00198233126062,0.0,0.001,0.0,7200.0,0.0,410.0,0.0
1513267517223815685,,743967,,1513267515,398669309,'',0.820304748437,0.824287864313,0.00162309649099,0.0,0.001,0.0,7200.0,0.0,410.0,0.0
1513267517233315338,,743968,,1513267515,408669309,'',0.820304748437,0.824273212181,0.00191909816087,0.0,0.001,0.0,7200.0,0.0,410.0,0.0
1513267517243652200,,743969,,1513267515,418669309,'',0.820304748437,0.824290424018,0.0015717270434,0.0,0.001,0.0,7200.0,0.0,410.0,0.0
1513267517253632085,,743970,,1513267515,428669309,'',0.820304748437,0.824304548358,0.00128666812322,0.0,0.001,0.0,7200.0,0.0,410.0,0.0
1513267517263341322,,743971,,1513267515,438669309,'',0.820304748437,0.824288083257,0.00162588096044,0.0,0.001,0.0,7200.0,0.0,410.0,0.0
1513267517273370779,,743972,,1513267515,448669309,'',0.820304748437,0.82425030653,0.00238805963709,0.0,0.001,0.0,7200.0,0.0,410.0,0.0
1513267517283316324,,743973,,1513267515,458669309,'',0.820304748437,0.824296165312,0.00145758501752,0.0,0.001,0.0,7200.0,0.0,410.0,0.0
1513267517293334102,,743974,,1513267515,468669309,'',0.820304748437,0.824335156537,0.00067562070324,0.0,0.001,0.0,7200.0,0.0,410.0,0.0
1513267517303718228,,743975,,1513267515,478669309,'',0.820304748437,0.824311336139,-0.0291246207003,0.0,0.001,0.0,7200.0,0.0,410.0,0.0
1513267517313696997,,743976,,1513267515,488669309,'',0.820304748437,0.824292257362,0.00153223859332,0.0,0.001,0.0,7200.0,0.0,410.0,0.0
1513267517323567850,,743977,,1513267515,498669309,'',0.820304748437,0.824278492206,0.00181059451659,0.0,0.001,0.0,7200.0,0.0,410.0,0.0
1513267517335418009,,743978,,1513267515,508669309,'',0.820304748437,0.824269344993,0.00200000184991,0.0,0.001,0.0,7200.0,0.0,410.0,0.0
1513267517343519590,,743979,,1513267515,518669309,'',0.820304748437,0.824260845756,0.00217078069937,0.0,0.001,0.0,7200.0,0.0,410.0,0.0
1513267517353442949,,743980,,1513267515,528669309,'',0.820304748437,0.824280296009,0.00177785316044,0.0,0.001,0.0,7200.0,0.0,410.0,0.0
1513267517363323356,,743981,,1513267515,538669309,'',0.820304748437,0.824269302404,0.00200021735485,0.0,0.001,0.0,7200.0,0.0,410.0,0.0
1513267517373258005,,743982,,1513267515,548669309,'',0.820304748437,0.824287254409,0.001637507033,0.0,0.001,0.0,7200.0,0.0,410.0,0.0
1513267517383342648,,743983,,1513267515,558669309,'',0.820304748437,0.824273326745,0.00192525094046,0.0,0.001,0.0,7200.0,0.0,410.0,0.0
1513267517393633627,,743984,,1513267515,568669309,'',0.820304748437,0.82421016785,0.00319448425851,0.0,0.001,0.0,7200.0,0.0,410.0,0.0
1513267517403589098,,743985,,1513267515,578669309,'',0.820304748437,0.824183132955,-0.0265441901535,0.0,0.001,0.0,7200.0,0.0,410.0,0.0
1513267517413414155,,743986,,1513267515,588669309,'',0.820304748437,0.824190744904,0.00358521779108,0.0,0.001,0.0,7200.0,0.0,410.0,0.0
1513267517423440725,,743987,,1513267515,598669309,'',0.820304748437,0.824222947715,0.00293497873308,0.0,0.001,0.0,7200.0,0.0,410.0,0.0
1513267517433456116,,743988,,1513267515,608669309,'',0.820304748437,0.824197057043,0.00345379678087,0.0,0.001,0.0,7200.0,0.0,410.0,0.0
1513267517443686666,,743989,,1513267515,618669309,'',0.820304748437,0.824201742556,0.00336067759312,0.0,0.001,0.0,7200.0,0.0,410.0,0.0
1513267517453691648,,743990,,1513267515,628669309,'',0.820304748437,0.824231893531,0.002752317322,0.0,0.001,0.0,7200.0,0.0,410.0,0.0
1513267517463414680,,743991,,1513267515,638669309,'',0.820304748437,0.824256633884,0.00225312791543,0.0,0.001,0.0,7200.0,0.0,410.0,0.0
1513267517473498988,,743992,,1513267515,648669309,'',0.820304748437,0.824251930308,0.00234770327991,0.0,0.001,0.0,7200.0,0.0,410.0,0.0
1513267517483570568,,743993,,1513267515,658669309,'',0.820304748437,0.824272992506,0.00192278810486,0.0,0.001,0.0,7200.0,0.0,410.0,0.0
1513267517493427255,,743994,,1513267515,668669309,'',0.820304748437,0.824290278341,0.00157405840449,0.0,0.001,0.0,7200.0,0.0,410.0,0.0
1513267517503884585,,743995,,1513267515,678669309,'',0.820304748437,0.824279090189,0.00179559018661,0.0,0.001,0.0,7200.0,0.0,410.0,0.0
1513267517513406971,,743996,,1513267515,688669309,'',0.820304748437,0.824242554137,0.00254148858719,0.0,0.001,0.0,7200.0,0.0,410.0,0.0
1513267517523388498,,743997,,1513267515,698669309,'',0.820304748437,0.824265319729,0.00208137082388,0.0,0.001,0.0,7200.0,0.0,410.0,0.0
1513267517533779403,,743998,,1513267515,708669309,'',0.820304748437,0.82428399715,0.00170387950181,0.0,0.001,0.0,7200.0,0.0,410.0,0.0
1513267517543720650,,743999,,1513267515,718669309,'',0.820304748437,0.824299288426,0.00139482592417,0.0,0.001,0.0,7200.0,0.0,410.0,0.0
1513267517553696364,,744000,,1513267515,728669309,'',0.820304748437,0.824285928299,0.00166511572035,0.0,0.001,0.0,7200.0,0.0,410.0,0.0
1513267517563481516,,744001,,1513267515,738669309,'',0.820304748437,0.824300847752,0.00136352875823,0.0,0.001,0.0,7200.0,0.0,410.0,0.0
1513267517573477546,,744002,,1513267515,748669309,'',0.820304748437,0.824313072884,0.00111640573001,0.0,0.001,0.0,7200.0,0.0,410.0,0.0
1513267517583564876,,744003,,1513267515,758669309,'',0.820304748437,0.824323089475,0.000913926926064,0.0,0.001,0.0,7200.0,0.0,410.0,0.0
1513267517593531935,,744004,,1513267515,768669309,'',0.820304748437,0.824331290801,0.000748142491217,0.0,0.001,0.0,7200.0,0.0,410.0,0.0
1513267517603521750,,744005,,1513267515,778669309,'',0.820304748437,0.824337989395,0.000612734792834,0.0,0.001,0.0,7200.0,0.0,410.0,0.0
1513267517613450964,,744006,,1513267515,788669309,'',0.820304748437,0.824343486961,0.000501605116001,0.0,0.001,0.0,7200.0,0.0,410.0,0.0
1513267517623603985,,744007,,1513267515,798669309,'',0.820304748437,0.824321066518,0.000961057868609,0.0,0.001,0.0,7200.0,0.0,410.0,0.0
1513267517633528515,,744008,,1513267515,808669309,'',0.820304748437,0.824301090223,0.00135877432486,0.0,0.001,0.0,7200.0,0.0,410.0,0.0
1513267517643465992,,744009,,1513267515,818669309,'',0.820304748437,0.82431327902,0.00111235914921,0.0,0.001,0.0,7200.0,0.0,410.0,0.0
1513267517653641378,,744010,,1513267515,828669309,'',0.820304748437,0.824323261016,0.000910557814035,0.0,0.001,0.0,7200.0,0.0,410.0,0.0
1513267517663513585,,744011,,1513267515,838669309,'',0.820304748437,0.824331412936,0.000745754264857,0.0,0.001,0.0,7200.0,0.0,410.0,0.0
1513267517673458053,,744012,,1513267515,848669309,'',0.820304748437,0.824312812099,0.00112869916268,0.0,0.001,0.0,7200.0,0.0,410.0,0.0
1513267517683361054,,744013,,1513267515,858669309,'',0.820304748437,0.824294765661,0.00149093690825,0.0,0.001,0.0,7200.0,0.0,410.0,0.0
1513267517693303927,,744014,,1513267515,868669309,'',0.820304748437,0.824256675274,0.00224786139382,0.0,0.001,0.0,7200.0,0.0,410.0,0.0
1513267517703695223,,744015,,1513267515,878669309,'',0.820304748437,0.824249002182,0.00241190379687,0.0,0.001,0.0,7200.0,0.0,410.0,0.0
1513267517713614587,,744016,,1513267515,888669309,'',0.820304748437,0.824270642788,0.00197438948751,0.0,0.001,0.0,7200.0,0.0,410.0,0.0
1513267517723634586,,744017,,1513267515,898669309,'',0.820304748437,0.824288326188,0.00161687915319,0.0,0.001,0.0,7200.0,0.0,410.0,0.0
1513267517733520318,,744018,,1513267515,908669309,'',0.820304748437,0.824302828507,0.00132368163812,0.0,0.001,0.0,7200.0,0.0,410.0,0.0
1513267517743578130,,744019,,1513267515,918669309,'',0.820304748437,0.824289468674,0.00158954104776,0.0,0.001,0.0,7200.0,0.0,410.0,0.0
1513267517753525141,,744020,,1513267515,928669309,'',0.820304748437,0.824303741966,0.00130174153614,0.0,0.001,0.0,7200.0,0.0,410.0,0.0
1513267517763525389,,744021,,1513267515,938669309,'',0.820304748437,0.824315448858,0.00106568964388,0.0,0.001,0.0,7200.0,0.0,410.0,0.0
1513267517773577109,,744022,,1513267515,948669309,'',0.820304748437,0.824244288949,0.00250125348687,0.0,0.001,0.0,7200.0,0.0,410.0,0.0
1513267517783532223,,744023,,1513267515,958669309,'',0.820304748437,0.824266782589,0.00204757038435,0.0,0.001,0.0,7200.0,0.0,410.0,0.0
1513267517793387448,,744024,,1513267515,968669309,'',0.820304748437,0.824285160213,0.00167690485276,0.0,0.001,0.0,7200.0,0.0,410.0,0.0
1513267517803220673,,744025,,1513267515,978669309,'',0.820304748437,0.824245005379,-0.0277928435284,0.0,0.001,0.0,7200.0,0.0,410.0,0.0
1513267517813250672,,744026,,1513267515,988669309,'',0.820304748437,0.824267367628,0.00203761499984,0.0,0.001,0.0,7200.0,0.0,410.0,0.0
1513267517823277366,,744027,,1513267515,998669309,'',0.820304748437,0.824285159632,0.00168028607101,0.0,0.001,0.0,7200.0,0.0,410.0,0.0
1513267517833630484,,744028,,1513267516,8669309,'',0.820304748437,0.824273241662,0.00191550137297,0.0,0.001,0.0,7200.0,0.0,410.0,0.0
1513267517843596711,,744029,,1513267516,18669309,'',0.820304748437,0.82426294904,0.00212406215626,0.0,0.001,0.0,7200.0,0.0,410.0,0.0
1513267517853553095,,744030,,1513267516,28669309,'',0.820304748437,0.824256731528,0.00224573969583,0.0,0.001,0.0,7200.0,0.0,410.0,0.0
1513267517863515514,,744031,,1513267516,38669309,'',0.820304748437,0.824251069075,0.00236181257794,0.0,0.001,0.0,7200.0,0.0,410.0,0.0
1513267517873205155,,744032,,1513267516,48669309,'',0.820304748437,0.824217812999,0.00303563580136,0.0,0.001,0.0,7200.0,0.0,410.0,0.0
1513267517883775699,,744033,,1513267516,58669309,'',0.820304748437,0.824185992698,-0.0266009955588,0.0,0.001,0.0,7200.0,0.0,410.0,0.0
1513267517893673393,,744034,,1513267516,68669309,'',0.820304748437,0.824193800508,0.00353032024709,0.0,0.001,0.0,7200.0,0.0,410.0,0.0
1513267517903690815,,744035,,1513267516,78669309,'',0.820304748437,0.824225446409,0.00289009289816,0.0,0.001,0.0,7200.0,0.0,410.0,0.0
1513267517913518180,,744036,,1513267516,88669309,'',0.820304748437,0.824224933783,0.00290587679051,0.0,0.001,0.0,7200.0,0.0,410.0,0.0
1513267517923568256,,744037,,1513267516,98669309,'',0.820304748437,0.824250931393,0.00237893830385,0.0,0.001,0.0,7200.0,0.0,410.0,0.0
1513267517933485963,,744038,,1513267516,108669309,'',0.820304748437,0.824247244057,0.00245045604833,0.0,0.001,0.0,7200.0,0.0,410.0,0.0
1513267517943473433,,744039,,1513267516,118669309,'',0.820304748437,0.824242244436,0.00254475059749,0.0,0.001,0.0,7200.0,0.0,410.0,0.0
1513267517953314557,,744040,,1513267516,128669309,'',0.820304748437,0.824265051329,0.00208434041724,0.0,0.001,0.0,7200.0,0.0,410.0,0.0
1513267517963308004,,744041,,1513267516,138669309,'',0.820304748437,0.824283781056,0.00170623728454,0.0,0.001,0.0,7200.0,0.0,410.0,0.0
1513267517973154655,,744042,,1513267516,148669309,'',0.820304748437,0.824274243594,0.0019001653553,0.0,0.001,0.0,7200.0,0.0,410.0,0.0
1513267517983809639,,744043,,1513267516,158669309,'',0.820304748437,0.824291296282,0.00155566476865,0.0,0.001,0.0,7200.0,0.0,410.0,0.0
1513267517993502133,,744044,,1513267516,168669309,'',0.820304748437,0.824255358464,0.00227970936016,0.0,0.001,0.0,7200.0,0.0,410.0,0.0
1513267518003499019,,744045,,1513267516,178669309,'',0.820304748437,0.824275836795,0.00186636172568,0.0,0.001,0.0,7200.0,0.0,410.0,0.0
1513267518013423433,,744046,,1513267516,188669309,'',0.820304748437,0.824239212667,0.0026007063091,0.0,0.001,0.0,7200.0,0.0,410.0,0.0
1513267518023326118,,744047,,1513267516,198669309,'',0.820304748437,0.824262572117,0.00213009105773,0.0,0.001,0.0,7200.0,0.0,410.0,0.0
1513267518033283108,,744048,,1513267516,208669309,'',0.820304748437,0.824255682075,-0.0280120793454,0.0,0.001,0.0,7200.0,0.0,410.0,0.0
1513267518043240191,,744049,,1513267516,218669309,'',0.820304748437,0.82427607271,0.00185831715627,0.0,0.001,0.0,7200.0,0.0,410.0,0.0
1513267518053181372,,744050,,1513267516,228669309,'',0.820304748437,0.824292798459,0.00152130935438,0.0,0.001,0.0,7200.0,0.0,410.0,0.0
1513267518063378685,,744051,,1513267516,238669309,'',0.820304748437,0.824278467677,0.00181324867011,0.0,0.001,0.0,7200.0,0.0,410.0,0.0
1513267518073195448,,744052,,1513267516,248669309,'',0.820304748437,0.824294734194,0.00148491672631,0.0,0.001,0.0,7200.0,0.0,410.0,0.0
1513267518083757525,,744053,,1513267516,258669309,'',0.820304748437,0.824308074514,0.00121564867781,0.0,0.001,0.0,7200.0,0.0,410.0,0.0
1513267518093595815,,744054,,1513267516,268669309,'',0.820304748437,0.824289734031,0.00158630002318,0.0,0.001,0.0,7200.0,0.0,410.0,0.0
1513267518103642682,,744055,,1513267516,278669309,'',0.820304748437,0.824303952835,0.00129921741745,0.0,0.001,0.0,7200.0,0.0,410.0,0.0
1513267518113561756,,744056,,1513267516,288669309,'',0.820304748437,0.824341503891,0.000545660975882,0.0,0.001,0.0,7200.0,0.0,410.0,0.0
1513267518123603286,,744057,,1513267516,298669309,'',0.820304748437,0.824346363626,0.000446704774871,0.0,0.001,0.0,7200.0,0.0,410.0,0.0
1513267518133489562,,744058,,1513267516,308669309,'',0.820304748437,0.824293481517,-0.0287729902775,0.0,0.001,0.0,7200.0,0.0,410.0,0.0
1513267518143475232,,744059,,1513267516,318669309,'',0.820304748437,0.824223292341,-0.0273531663759,0.0,0.001,0.0,7200.0,0.0,410.0,0.0
1513267518153405055,,744060,,1513267516,328669309,'',0.820304748437,0.82422196023,0.00295928624395,0.0,0.001,0.0,7200.0,0.0,410.0,0.0
1513267518163345737,,744061,,1513267516,338669309,'',0.820304748437,0.824112795112,0.00515693653177,0.0,0.001,0.0,7200.0,0.0,410.0,0.0
1513267518173265518,,744062,,1513267516,348669309,'',0.820304748437,0.823994064759,-0.0227204045542,0.0,0.001,0.0,7200.0,0.0,410.0,0.0
1513267518183292627,,744063,,1513267516,358669309,'',0.820304748437,0.823924833685,-0.0213084820711,0.0,0.001,0.0,7200.0,0.0,410.0,0.0
1513267518193688739,,744064,,1513267516,368669309,'',0.820304748437,0.823841668963,0.0106524775427,0.0,0.001,0.0,7200.0,0.0,410.0,0.0
1513267518203648988,,744065,,1513267516,378669309,'',0.820304748437,0.823695529442,0.0136019016505,0.0,0.001,0.0,7200.0,0.0,410.0,0.0
1513267518213553234,,744066,,1513267516,388669309,'',0.820304748437,0.823571538028,-0.0141826587742,0.0,0.001,0.0,7200.0,0.0,410.0,0.0
1513267518223558388,,744067,,1513267516,398669309,'',0.820304748437,0.823388642775,-0.010481685556,0.0,0.001,0.0,7200.0,0.0,410.0,0.0
1513267518233495708,,744068,,1513267516,408669309,'',0.820304748437,0.823104231707,-0.0350334558971,0.0,0.001,0.0,7200.0,0.0,410.0,0.0
1513267518243411126,,744069,,1513267516,418669309,'',0.820304748437,0.822895904494,-0.0308519624938,0.0,0.001,0.0,7200.0,0.0,410.0,0.0
1513267518253274152,,744070,,1513267516,428669309,'',0.820304748437,0.82267457793,-0.0263648573077,0.0,0.001,0.0,7200.0,0.0,410.0,0.0
1513267518263373478,,744071,,1513267516,438669309,'',0.820304748437,0.822465095641,-0.022122590394,0.0,0.001,0.0,7200.0,0.0,410.0,0.0
1513267518273184370,,744072,,1513267516,448669309,'',0.820304748437,0.822263417763,-0.0180440921293,0.0,0.001,0.0,7200.0,0.0,410.0,0.0
1513267518283712686,,744073,,1513267516,458669309,'',0.820304748437,0.822075122306,-0.0142435757711,0.0,0.001,0.0,7200.0,0.0,410.0,0.0
1513267518293654245,,744074,,1513267516,468669309,'',0.820304748437,0.821754697829,-0.0380460766161,0.0,0.001,0.0,7200.0,0.0,410.0,0.0
1513267518303682565,,744075,,1513267516,478669309,'',0.820304748437,0.821439383993,-0.0316735896996,0.0,0.001,0.0,7200.0,0.0,410.0,0.0
1513267518313686584,,744076,,1513267516,488669309,'',0.820304748437,0.82115560547,-0.0259399383501,0.0,0.001,0.0,7200.0,0.0,410.0,0.0
1513267518323549698,,744077,,1513267516,498669309,'',0.820304748437,0.820922711198,-0.0212343864781,0.0,0.001,0.0,7200.0,0.0,410.0,0.0
1513267518333459765,,744078,,1513267516,508669309,'',0.820304748437,0.820732134111,-0.0173838393688,0.0,0.001,0.0,7200.0,0.0,410.0,0.0
1513267518343490720,,744079,,1513267516,518669309,'',0.820304748437,0.820576370713,-0.0142366913557,0.0,0.001,0.0,7200.0,0.0,410.0,0.0
1513267518353429365,,744080,,1513267516,528669309,'',0.820304748437,0.820418819556,-0.0110573476486,0.0,0.001,0.0,7200.0,0.0,410.0,0.0
1513267518363434810,,744081,,1513267516,538669309,'',0.820304748437,0.82031982309,-0.00905644642235,0.0,0.001,0.0,7200.0,0.0,410.0,0.0
1513267518373695258,,744082,,1513267516,548669309,'',0.820304748437,0.820209866426,-0.00683456469078,0.0,0.001,0.0,7200.0,0.0,410.0,0.0
1513267518383552989,,744083,,1513267516,558669309,'',0.820304748437,0.820040262215,-0.00340613874188,0.0,0.001,0.0,7200.0,0.0,410.0,0.0
1513267518393355504,,744084,,1513267516,568669309,'',0.820304748437,0.81989697405,-0.030779871086,0.0,0.001,0.0,7200.0,0.0,410.0,0.0
1513267518403338505,,744085,,1513267516,578669309,'',0.820304748437,0.819700884205,-0.0268288281406,0.0,0.001,0.0,7200.0,0.0,410.0,0.0
1513267518413361881,,744086,,1513267516,588669309,'',0.820304748437,0.819538557431,-0.0235477034938,0.0,0.001,0.0,7200.0,0.0,410.0,0.0
1513267518423749509,,744087,,1513267516,598669309,'',0.820304748437,0.819353829138,-0.0198135937942,0.0,0.001,0.0,7200.0,0.0,410.0,0.0
1513267518433475208,,744088,,1513267516,608669309,'',0.820304748437,0.819205851052,0.0134564932529,0.0,0.001,0.0,7200.0,0.0,410.0,0.0
1513267518443383030,,744089,,1513267516,618669309,'',0.820304748437,0.819083740703,-0.014345935254,0.0,0.001,0.0,7200.0,0.0,410.0,0.0
1513267518453289732,,744090,,1513267516,628669309,'',0.820304748437,0.818984596344,0.0179340669901,0.0,0.001,0.0,7200.0,0.0,410.0,0.0
1513267518463515937,,744091,,1513267516,638669309,'',0.820304748437,0.818873854797,-0.010112634604,0.0,0.001,0.0,7200.0,0.0,410.0,0.0
1513267518473424719,,744092,,1513267516,648669309,'',0.820304748437,0.818782972041,-0.00827802645008,0.0,0.001,0.0,7200.0,0.0,410.0,0.0
1513267518483454017,,744093,,1513267516,658669309,'',0.820304748437,0.81873492991,-0.00730990273238,0.0,0.001,0.0,7200.0,0.0,410.0,0.0
1513267518493764062,,744094,,1513267516,668669309,'',0.820304748437,0.818669363621,-0.00598604204256,0.0,0.001,0.0,7200.0,0.0,410.0,0.0
1513267518504111859,,744095,,1513267516,678669309,'',0.820304748437,0.818615603431,-0.00490056039198,0.0,0.001,0.0,7200.0,0.0,410.0,0.0
1513267518513834222,,744096,,1513267516,688669309,'',0.820304748437,0.818571660097,-0.00401329266733,0.0,0.001,0.0,7200.0,0.0,410.0,0.0
1513267518523641666,,744097,,1513267516,698669309,'',0.820304748437,0.818509175745,-0.0027371242953,0.0,0.001,0.0,7200.0,0.0,410.0,0.0
1513267518533518721,,744098,,1513267516,708669309,'',0.820304748437,0.81848445904,-0.00224070114136,0.0,0.001,0.0,7200.0,0.0,410.0,0.0
1513267518543402970,,744099,,1513267516,718669309,'',0.820304748437,0.81843738098,-0.00128538542089,0.0,0.001,0.0,7200.0,0.0,410.0,0.0
1513267518553394626,,744100,,1513267516,728669309,'',0.820304748437,0.818399720653,-0.000528825802921,0.0,0.001,0.0,7200.0,0.0,410.0,0.0
1513267518563399724,,744101,,1513267516,738669309,'',0.820304748437,0.81834144257,0.000642300840156,0.0,0.001,0.0,7200.0,0.0,410.0,0.0
1513267518573409454,,744102,,1513267516,748669309,'',0.820304748437,0.818262808085,-0.0280456699793,0.0,0.001,0.0,7200.0,0.0,410.0,0.0
1513267518583442394,,744103,,1513267516,758669309,'',0.820304748437,0.818200676482,0.00349571331782,0.0,0.001,0.0,7200.0,0.0,410.0,0.0
1513267518593467844,,744104,,1513267516,768669309,'',0.820304748437,0.8181481504,-0.0257326152476,0.0,0.001,0.0,7200.0,0.0,410.0,0.0
1513267518603582987,,744105,,1513267516,778669309,'',0.820304748437,0.818106069778,0.00539533243549,0.0,0.001,0.0,7200.0,0.0,410.0,0.0
1513267518613620208,,744106,,1513267516,788669309,'',0.820304748437,0.818154458898,0.00441688313344,0.0,0.001,0.0,7200.0,0.0,410.0,0.0
1513267518623905143,,744107,,1513267516,798669309,'',0.820304748437,0.818030695841,-0.0233656636069,0.0,0.001,0.0,7200.0,0.0,410.0,0.0
1513267518633218365,,744108,,1513267516,808669309,'',0.820304748437,0.818008855792,0.00735063476629,0.0,0.001,0.0,7200.0,0.0,410.0,0.0
1513267518643802258,,744109,,1513267516,818669309,'',0.820304748437,0.817940066029,0.00873252434316,0.0,0.001,0.0,7200.0,0.0,410.0,0.0
1513267518653717370,,744110,,1513267516,828669309,'',0.820304748437,0.817856856793,-0.0198715497207,0.0,0.001,0.0,7200.0,0.0,410.0,0.0
1513267518663568138,,744111,,1513267516,838669309,'',0.820304748437,0.817758742985,-0.0178947366887,0.0,0.001,0.0,7200.0,0.0,410.0,0.0
1513267518673363528,,744112,,1513267516,848669309,'',0.820304748437,0.817679803842,-0.0162961705066,0.0,0.001,0.0,7200.0,0.0,410.0,0.0
1513267518683748835,,744113,,1513267516,858669309,'',0.820304748437,0.817590885988,-0.0145028556164,0.0,0.001,0.0,7200.0,0.0,410.0,0.0
1513267518693685301,,744114,,1513267516,868669309,'',0.820304748437,0.817511808336,-0.012888573654,0.0,0.001,0.0,7200.0,0.0,410.0,0.0
1513267518703912544,,744115,,1513267516,878669309,'',0.820304748437,0.817421313768,-0.0110534272802,0.0,0.001,0.0,7200.0,0.0,410.0,0.0
1513267518714015119,,744116,,1513267516,888669309,'',0.820304748437,0.817347955714,-0.00957713496155,0.0,0.001,0.0,7200.0,0.0,410.0,0.0
1513267518723755697,,744117,,1513267516,898669309,'',0.820304748437,0.81734541651,0.020751863741,0.0,0.001,0.0,7200.0,0.0,410.0,0.0
1513267518733736749,,744118,,1513267516,908669309,'',0.820304748437,0.81733989555,-0.00942527328887,0.0,0.001,0.0,7200.0,0.0,410.0,0.0
1513267518743772355,,744119,,1513267516,918669309,'',0.820304748437,0.817313323829,0.0213888071607,0.0,0.001,0.0,7200.0,0.0,410.0,0.0
1513267518754048788,,744120,,1513267516,928669309,'',0.820304748437,0.817292125235,0.0218185506016,0.0,0.001,0.0,7200.0,0.0,410.0,0.0
1513267518763592277,,744121,,1513267516,938669309,'',0.820304748437,0.81729549161,-0.00851429576215,0.0,0.001,0.0,7200.0,0.0,410.0,0.0
1513267518774245039,,744122,,1513267516,948669309,'',0.820304748437,0.817219040248,-0.00696978706588,0.0,0.001,0.0,7200.0,0.0,410.0,0.0
1513267518783809716,,744123,,1513267516,958669309,'',0.820304748437,0.817184515535,-0.00627310994498,0.0,0.001,0.0,7200.0,0.0,410.0,0.0
1513267518793609120,,744124,,1513267516,968669309,'',0.820304748437,0.81720921686,-0.00678406949639,0.0,0.001,0.0,7200.0,0.0,410.0,0.0
1513267518803361111,,744125,,1513267516,978669309,'',0.820304748437,0.817200733454,-0.00661049692774,0.0,0.001,0.0,7200.0,0.0,410.0,0.0
1513267518813801527,,744126,,1513267516,988669309,'',0.820304748437,0.817141472668,-0.00541136659689,0.0,0.001,0.0,7200.0,0.0,410.0,0.0
1513267518823701447,,744127,,1513267516,998669309,'',0.820304748437,0.817117823192,-0.00493830929267,0.0,0.001,0.0,7200.0,0.0,410.0,0.0
1513267518833570788,,744128,,1513267517,8669309,'',0.820304748437,0.817185981868,0.0239702014863,0.0,0.001,0.0,7200.0,0.0,410.0,0.0
1513267518843738112,,744129,,1513267517,18669309,'',0.820304748437,0.817238163846,-0.00736290529823,0.0,0.001,0.0,7200.0,0.0,410.0,0.0
1513267518853686227,,744130,,1513267517,28669309,'',0.820304748437,0.817280932665,0.022066674004,0.0,0.001,0.0,7200.0,0.0,410.0,0.0
1513267518863411342,,744131,,1513267517,38669309,'',0.820304748437,0.817428625078,0.019075318709,0.0,0.001,0.0,7200.0,0.0,410.0,0.0
1513267518873384942,,744132,,1513267517,48669309,'',0.820304748437,0.817487180759,-0.0123877404576,0.0,0.001,0.0,7200.0,0.0,410.0,0.0
1513267518883487089,,744133,,1513267517,58669309,'',0.820304748437,0.817648051505,0.0146440168108,0.0,0.001,0.0,7200.0,0.0,410.0,0.0
1513267518893440897,,744134,,1513267517,68669309,'',0.820304748437,0.817808052127,0.0114116123291,0.0,0.001,0.0,7200.0,0.0,410.0,0.0
1513267518903910859,,744135,,1513267517,78669309,'',0.820304748437,0.817937873703,0.00878802116673,0.0,0.001,0.0,7200.0,0.0,410.0,0.0
1513267518913259874,,744136,,1513267517,88669309,'',0.820304748437,0.818016772154,0.00719416691905,0.0,0.001,0.0,7200.0,0.0,410.0,0.0
1513267518923325503,,744137,,1513267517,98669309,'',0.820304748437,0.818081397196,0.00588865462232,0.0,0.001,0.0,7200.0,0.0,410.0,0.0
1513267518933206194,,744138,,1513267517,108669309,'',0.820304748437,0.818134150314,0.00482297107739,0.0,0.001,0.0,7200.0,0.0,410.0,0.0
1513267518943734374,,744139,,1513267517,118669309,'',0.820304748437,0.818177482411,0.00394760475583,0.0,0.001,0.0,7200.0,0.0,410.0,0.0
1513267518953682843,,744140,,1513267517,128669309,'',0.820304748437,0.818212907806,0.00323196439527,0.0,0.001,0.0,7200.0,0.0,410.0,0.0
1513267518963662906,,744141,,1513267517,138669309,'',0.820304748437,0.818241942968,0.00264541527711,0.0,0.001,0.0,7200.0,0.0,410.0,0.0
1513267518973588172,,744142,,1513267517,148669309,'',0.820304748437,0.818265639698,0.00216670963809,0.0,0.001,0.0,7200.0,0.0,410.0,0.0
1513267518983455851,,744143,,1513267517,158669309,'',0.820304748437,0.818285060911,0.00177437515091,0.0,0.001,0.0,7200.0,0.0,410.0,0.0
1513267518993512533,,744144,,1513267517,168669309,'',0.820304748437,0.818300989798,0.00145259032138,0.0,0.001,0.0,7200.0,0.0,410.0,0.0
1513267519003422482,,744145,,1513267517,178669309,'',0.820304748437,0.818284095459,0.00177999124521,0.0,0.001,0.0,7200.0,0.0,410.0,0.0
1513267519013367909,,744146,,1513267517,188669309,'',0.820304748437,0.818249569374,0.00248662630024,0.0,0.001,0.0,7200.0,0.0,410.0,0.0
1513267519023721110,,744147,,1513267517,198669309,'',0.820304748437,0.818219936001,0.00308450089171,0.0,0.001,0.0,7200.0,0.0,410.0,0.0
1513267519033494562,,744148,,1513267517,208669309,'',0.820304748437,0.81824773804,0.00252385939942,0.0,0.001,0.0,7200.0,0.0,410.0,0.0
1513267519043401193,,744149,,1513267517,218669309,'',0.820304748437,0.818270388556,0.00206710082771,0.0,0.001,0.0,7200.0,0.0,410.0,0.0
1513267519053426478,,744150,,1513267517,228669309,'',0.820304748437,0.81828894307,0.00169294012083,0.0,0.001,0.0,7200.0,0.0,410.0,0.0
1513267519063436074,,744151,,1513267517,238669309,'',0.820304748437,0.818278292124,0.00191427627622,0.0,0.001,0.0,7200.0,0.0,410.0,0.0
1513267519073394410,,744152,,1513267517,248669309,'',0.820304748437,0.818265572705,-0.0281101926724,0.0,0.001,0.0,7200.0,0.0,410.0,0.0
1513267519083627359,,744153,,1513267517,258669309,'',0.820304748437,0.818232080634,0.00284864355172,0.0,0.001,0.0,7200.0,0.0,410.0,0.0
1513267519093632263,,744154,,1513267517,268669309,'',0.820304748437,0.818257569169,0.00233301776769,0.0,0.001,0.0,7200.0,0.0,410.0,0.0
1513267519103697316,,744155,,1513267517,278669309,'',0.820304748437,0.818250452682,0.00247074692547,0.0,0.001,0.0,7200.0,0.0,410.0,0.0
1513267519113603488,,744156,,1513267517,288669309,'',0.820304748437,0.818272657808,0.00202267433056,0.0,0.001,0.0,7200.0,0.0,410.0,0.0
1513267519123497563,,744157,,1513267517,298669309,'',0.820304748437,0.818290836011,0.0016558601795,0.0,0.001,0.0,7200.0,0.0,410.0,0.0
1513267519133666385,,744158,,1513267517,308669309,'',0.820304748437,0.818305691947,0.00135608537352,0.0,0.001,0.0,7200.0,0.0,410.0,0.0
1513267519143514220,,744159,,1513267517,318669309,'',0.820304748437,0.818317879374,0.00111015784207,0.0,0.001,0.0,7200.0,0.0,410.0,0.0
1513267519153451162,,744160,,1513267517,328669309,'',0.820304748437,0.818298709972,0.00149884955684,0.0,0.001,0.0,7200.0,0.0,410.0,0.0
1513267519163365729,,744161,,1513267517,338669309,'',0.820304748437,0.818312141574,0.00122747634041,0.0,0.001,0.0,7200.0,0.0,410.0,0.0
1513267519173324723,,744162,,1513267517,348669309,'',0.820304748437,0.818323158406,0.00100489136112,0.0,0.001,0.0,7200.0,0.0,410.0,0.0
1513267519183799608,,744163,,1513267517,358669309,'',0.820304748437,0.818302410085,-0.0288556983181,0.0,0.001,0.0,7200.0,0.0,410.0,0.0
1513267519193721163,,744164,,1513267517,368669309,'',0.820304748437,0.818288179019,0.00170855983576,0.0,0.001,0.0,7200.0,0.0,410.0,0.0
1513267519203757185,,744165,,1513267517,378669309,'',0.820304748437,0.818303542434,0.00139871068396,0.0,0.001,0.0,7200.0,0.0,410.0,0.0
1513267519213764670,,744166,,1513267517,388669309,'',0.820304748437,0.818316129693,0.00114485100332,0.0,0.001,0.0,7200.0,0.0,410.0,0.0
1513267519223690392,,744167,,1513267517,398669309,'',0.820304748437,0.818299436215,0.00147175562214,0.0,0.001,0.0,7200.0,0.0,410.0,0.0
1513267519233502805,,744168,,1513267517,408669309,'',0.820304748437,0.818342670996,0.0308817004076,0.0,0.001,0.0,7200.0,0.0,410.0,0.0
1513267519243695212,,744169,,1513267517,418669309,'',0.820304748437,0.818373117187,-5.97020911217e-06,0.0,0.001,0.0,7200.0,0.0,410.0,0.0
1513267519253269539,,744170,,1513267517,428669309,'',0.820304748437,0.818484898516,-0.00225914341666,0.0,0.001,0.0,7200.0,0.0,410.0,0.0
1513267519263631043,,744171,,1513267517,438669309,'',0.820304748437,0.818546766126,-0.00351312560158,0.0,0.001,0.0,7200.0,0.0,410.0,0.0
1513267519273700698,,744172,,1513267517,448669309,'',0.820304748437,0.818622711342,-0.005041873472,0.0,0.001,0.0,7200.0,0.0,410.0,0.0
1513267519283621758,,744173,,1513267517,458669309,'',0.820304748437,0.818849288659,0.0206665998955,0.0,0.001,0.0,7200.0,0.0,410.0,0.0
1513267519293515512,,744174,,1513267517,468669309,'',0.820304748437,0.819034812331,0.0169166731776,0.0,0.001,0.0,7200.0,0.0,410.0,0.0
1513267519303543570,,744175,,1513267517,478669309,'',0.820304748437,0.819212749179,0.0133206264044,0.0,0.001,0.0,7200.0,0.0,410.0,0.0
1513267519313582481,,744176,,1513267517,488669309,'',0.820304748437,0.81933228999,0.0109042926065,0.0,0.001,0.0,7200.0,0.0,410.0,0.0
1513267519323804785,,744177,,1513267517,498669309,'',0.820304748437,0.819430165298,0.00892589364485,0.0,0.001,0.0,7200.0,0.0,410.0,0.0
1513267519333782514,,744178,,1513267517,508669309,'',0.820304748437,0.819428584077,-0.0213148703007,0.0,0.001,0.0,7200.0,0.0,410.0,0.0
1513267519343394038,,744179,,1513267517,518669309,'',0.820304748437,0.819422876556,-0.0212009457577,0.0,0.001,0.0,7200.0,0.0,410.0,0.0
1513267519353452265,,744180,,1513267517,528669309,'',0.820304748437,0.819338457265,-0.0195018686624,0.0,0.001,0.0,7200.0,0.0,410.0,0.0
1513267519363624561,,744181,,1513267517,538669309,'',0.820304748437,0.819192910981,0.0137120613766,0.0,0.001,0.0,7200.0,0.0,410.0,0.0
1513267519373433125,,744182,,1513267517,548669309,'',0.820304748437,0.819044229098,-0.0135649292509,0.0,0.001,0.0,7200.0,0.0,410.0,0.0
1513267519383989445,,744183,,1513267517,558669309,'',0.820304748437,0.818949458293,-0.0116496415472,0.0,0.001,0.0,7200.0,0.0,410.0,0.0
1513267519393785578,,744184,,1513267517,568669309,'',0.820304748437,0.81890149402,0.0195921802888,0.0,0.001,0.0,7200.0,0.0,410.0,0.0
1513267519403639019,,744185,,1513267517,578669309,'',0.820304748437,0.818859797823,-0.00984624968532,0.0,0.001,0.0,7200.0,0.0,410.0,0.0
1513267519413664350,,744186,,1513267517,588669309,'',0.820304748437,0.818825521361,-0.00915740219976,0.0,0.001,0.0,7200.0,0.0,410.0,0.0
1513267519423429899,,744187,,1513267517,598669309,'',0.820304748437,0.818770464162,-0.00803802925791,0.0,0.001,0.0,7200.0,0.0,410.0,0.0
1513267519433379694,,744188,,1513267517,608669309,'',0.820304748437,0.818698358443,-0.00658019855489,0.0,0.001,0.0,7200.0,0.0,410.0,0.0
1513267519443437262,,744189,,1513267517,618669309,'',0.820304748437,0.818667361366,-0.00594820870814,0.0,0.001,0.0,7200.0,0.0,410.0,0.0
1513267519453705845,,744190,,1513267517,628669309,'',0.820304748437,0.818613959657,-0.0048694947033,0.0,0.001,0.0,7200.0,0.0,410.0,0.0
1513267519463697964,,744191,,1513267517,638669309,'',0.820304748437,0.818570317701,-0.00398792761935,0.0,0.001,0.0,7200.0,0.0,410.0,0.0
1513267519473505452,,744192,,1513267517,648669309,'',0.820304748437,0.818534508029,-0.00326457258124,0.0,0.001,0.0,7200.0,0.0,410.0,0.0
1513267519483369437,,744193,,1513267517,658669309,'',0.820304748437,0.818475268357,-0.0323490909249,0.0,0.001,0.0,7200.0,0.0,410.0,0.0
1513267519493540864,,744194,,1513267517,668669309,'',0.820304748437,0.81837414958,-2.50542839179e-05,0.0,0.001,0.0,7200.0,0.0,410.0,0.0
1513267519503446741,,744195,,1513267517,678669309,'',0.820304748437,0.818267942987,0.00210406783489,0.0,0.001,0.0,7200.0,0.0,410.0,0.0
1513267519513669937,,744196,,1513267517,688669309,'',0.820304748437,0.818230836347,0.00285622241363,0.0,0.001,0.0,7200.0,0.0,410.0,0.0
1513267519523547828,,744197,,1513267517,698669309,'',0.820304748437,0.818228546271,0.00290836347903,0.0,0.001,0.0,7200.0,0.0,410.0,0.0
1513267519533533040,,744198,,1513267517,708669309,'',0.820304748437,0.818117351945,0.00515189887647,0.0,0.001,0.0,7200.0,0.0,410.0,0.0
1513267519543369085,,744199,,1513267517,718669309,'',0.820304748437,0.818111881587,0.00526519907047,0.0,0.001,0.0,7200.0,0.0,410.0,0.0
1513267519553361960,,744200,,1513267517,728669309,'',0.820304748437,0.818104652581,0.00541774700871,0.0,0.001,0.0,7200.0,0.0,410.0,0.0
1513267519563234718,,744201,,1513267517,738669309,'',0.820304748437,0.818049487014,0.00652575041168,0.0,0.001,0.0,7200.0,0.0,410.0,0.0
1513267519573434751,,744202,,1513267517,748669309,'',0.820304748437,0.817997175943,-0.0226966277788,0.0,0.001,0.0,7200.0,0.0,410.0,0.0
1513267519583376028,,744203,,1513267517,758669309,'',0.820304748437,0.817898882809,-0.0207266879133,0.0,0.001,0.0,7200.0,0.0,410.0,0.0
1513267519593774402,,744204,,1513267517,768669309,'',0.820304748437,0.817926900465,-0.0213055873134,0.0,0.001,0.0,7200.0,0.0,410.0,0.0
1513267519603811632,,744205,,1513267517,778669309,'',0.820304748437,0.817900148693,0.00950931497413,0.0,0.001,0.0,7200.0,0.0,410.0,0.0
1513267519613743372,,744206,,1513267517,788669309,'',0.820304748437,0.81784888384,0.0105508959401,0.0,0.001,0.0,7200.0,0.0,410.0,0.0
1513267519623720195,,744207,,1513267517,798669309,'',0.820304748437,0.817781126367,-0.0183504883529,0.0,0.001,0.0,7200.0,0.0,410.0,0.0
1513267519633654179,,744208,,1513267517,808669309,'',0.820304748437,0.817753912435,0.0124669691165,0.0,0.001,0.0,7200.0,0.0,410.0,0.0
1513267519643586257,,744209,,1513267517,818669309,'',0.820304748437,0.817757993741,0.0123918436209,0.0,0.001,0.0,7200.0,0.0,410.0,0.0
1513267519653692039,,744210,,1513267517,828669309,'',0.820304748437,0.817760411715,0.0123556323959,0.0,0.001,0.0,7200.0,0.0,410.0,0.0
1513267519663368344,,744211,,1513267517,838669309,'',0.820304748437,0.817709142734,0.0134001549241,0.0,0.001,0.0,7200.0,0.0,410.0,0.0
1513267519673411330,,744212,,1513267517,848669309,'',0.820304748437,0.817668518766,-0.016042591649,0.0,0.001,0.0,7200.0,0.0,410.0,0.0
1513267519683370462,,744213,,1513267517,858669309,'',0.820304748437,0.817631776959,-0.0153068466176,0.0,0.001,0.0,7200.0,0.0,410.0,0.0
1513267519693414549,,744214,,1513267517,868669309,'',0.820304748437,0.817654414846,-0.0157558306345,0.0,0.001,0.0,7200.0,0.0,410.0,0.0
1513267519703361351,,744215,,1513267517,878669309,'',0.820304748437,0.817729399876,0.0130161126732,0.0,0.001,0.0,7200.0,0.0,410.0,0.0
1513267519713322514,,744216,,1513267517,888669309,'',0.820304748437,0.817652762859,-0.0157133919029,0.0,0.001,0.0,7200.0,0.0,410.0,0.0
1513267519723629481,,744217,,1513267517,898669309,'',0.820304748437,0.817670900742,-0.0160846832355,0.0,0.001,0.0,7200.0,0.0,410.0,0.0
1513267519733708496,,744218,,1513267517,908669309,'',0.820304748437,0.817664690796,0.0143269421852,0.0,0.001,0.0,7200.0,0.0,410.0,0.0
1513267519743570070,,744219,,1513267517,918669309,'',0.820304748437,0.817628355987,-0.0151993022849,0.0,0.001,0.0,7200.0,0.0,410.0,0.0
1513267519753616925,,744220,,1513267517,928669309,'',0.820304748437,0.817600390563,-0.0146362827202,0.0,0.001,0.0,7200.0,0.0,410.0,0.0
1513267519763593251,,744221,,1513267517,938669309,'',0.820304748437,0.817551373619,-0.0136437970265,0.0,0.001,0.0,7200.0,0.0,410.0,0.0
1513267519773641107,,744222,,1513267517,948669309,'',0.820304748437,0.817563015222,0.0163997146998,0.0,0.001,0.0,7200.0,0.0,410.0,0.0
1513267519783659294,,744223,,1513267517,958669309,'',0.820304748437,0.817493785481,-0.0124851817197,0.0,0.001,0.0,7200.0,0.0,410.0,0.0
1513267519793333523,,744224,,1513267517,968669309,'',0.820304748437,0.817518057036,-0.0129665313326,0.0,0.001,0.0,7200.0,0.0,410.0,0.0
1513267519803899527,,744225,,1513267517,978669309,'',0.820304748437,0.817539748415,0.0168693644141,0.0,0.001,0.0,7200.0,0.0,410.0,0.0
1513267519813486240,,744226,,1513267517,988669309,'',0.820304748437,0.817447523871,-0.0115564426854,0.0,0.001,0.0,7200.0,0.0,410.0,0.0
1513267519823718775,,744227,,1513267517,998669309,'',0.820304748437,0.81742663498,-0.0111288103801,0.0,0.001,0.0,7200.0,0.0,410.0,0.0
1513267519833631468,,744228,,1513267518,8669309,'',0.820304748437,0.817434600433,-0.0113007160514,0.0,0.001,0.0,7200.0,0.0,410.0,0.0
1513267519843549208,,744229,,1513267518,18669309,'',0.820304748437,0.817390106129,-0.0104024828407,0.0,0.001,0.0,7200.0,0.0,410.0,0.0
1513267519853490260,,744230,,1513267518,28669309,'',0.820304748437,0.817352725462,-0.00965122597058,0.0,0.001,0.0,7200.0,0.0,410.0,0.0
1513267519863546506,,744231,,1513267518,38669309,'',0.820304748437,0.817320707818,-0.00900770684076,0.0,0.001,0.0,7200.0,0.0,410.0,0.0
1513267519873519653,,744232,,1513267518,48669309,'',0.820304748437,0.817267364244,-0.00793405992037,0.0,0.001,0.0,7200.0,0.0,410.0,0.0
1513267519883744067,,744233,,1513267518,58669309,'',0.820304748437,0.81725234543,0.022648425599,0.0,0.001,0.0,7200.0,0.0,410.0,0.0
1513267519893242297,,744234,,1513267518,68669309,'',0.820304748437,0.817264992271,0.0223979501648,0.0,0.001,0.0,7200.0,0.0,410.0,0.0
1513267519903762878,,744235,,1513267518,78669309,'',0.820304748437,0.817297595975,-0.00853699356386,0.0,0.001,0.0,7200.0,0.0,410.0,0.0
1513267519913634835,,744236,,1513267518,88669309,'',0.820304748437,0.817357131693,-0.00973416180155,0.0,0.001,0.0,7200.0,0.0,410.0,0.0
1513267519923549028,,744237,,1513267518,98669309,'',0.820304748437,0.817351088952,-0.00961013348543,0.0,0.001,0.0,7200.0,0.0,410.0,0.0
1513267519933541186,,744238,,1513267518,108669309,'',0.820304748437,0.817290045381,-0.00838386868715,0.0,0.001,0.0,7200.0,0.0,410.0,0.0
1513267519943562847,,744239,,1513267518,118669309,'',0.820304748437,0.817240957683,-0.00739721027569,0.0,0.001,0.0,7200.0,0.0,410.0,0.0
1513267519953445808,,744240,,1513267518,128669309,'',0.820304748437,0.817203892733,-0.00663823200184,0.0,0.001,0.0,7200.0,0.0,410.0,0.0
1513267519963323359,,744241,,1513267518,138669309,'',0.820304748437,0.817222616239,-0.00701698492617,0.0,0.001,0.0,7200.0,0.0,410.0,0.0
1513267519973788015,,744242,,1513267518,148669309,'',0.820304748437,0.817185638408,-0.00626983566048,0.0,0.001,0.0,7200.0,0.0,410.0,0.0
1513267519983668109,,744243,,1513267518,158669309,'',0.820304748437,0.817210270485,-0.00677635373562,0.0,0.001,0.0,7200.0,0.0,410.0,0.0
1513267519993543286,,744244,,1513267518,168669309,'',0.820304748437,0.817310301542,-0.00879219191252,0.0,0.001,0.0,7200.0,0.0,410.0,0.0
1513267520003625819,,744245,,1513267518,178669309,'',0.820304748437,0.817368046183,-0.00996195105453,0.0,0.001,0.0,7200.0,0.0,410.0,0.0
1513267520013396868,,744246,,1513267518,188669309,'',0.820304748437,0.817360373227,-0.00980606372069,0.0,0.001,0.0,7200.0,0.0,410.0,0.0
1513267520023381632,,744247,,1513267518,198669309,'',0.820304748437,0.817409725523,0.0194566333279,0.0,0.001,0.0,7200.0,0.0,410.0,0.0
1513267520033316622,,744248,,1513267518,208669309,'',0.820304748437,0.817371174448,0.0202332730939,0.0,0.001,0.0,7200.0,0.0,410.0,0.0
1513267520043705023,,744249,,1513267518,218669309,'',0.820304748437,0.817335414492,-0.00933765651547,0.0,0.001,0.0,7200.0,0.0,410.0,0.0
1513267520053604838,,744250,,1513267518,228669309,'',0.820304748437,0.817328536306,-0.00918848204931,0.0,0.001,0.0,7200.0,0.0,410.0,0.0
1513267520063498307,,744251,,1513267518,238669309,'',0.820304748437,0.817358932188,0.020488247493,0.0,0.001,0.0,7200.0,0.0,410.0,0.0
1513267520073618902,,744252,,1513267518,248669309,'',0.820304748437,0.817326415199,-0.00913824237398,0.0,0.001,0.0,7200.0,0.0,410.0,0.0
1513267520083559690,,744253,,1513267518,258669309,'',0.820304748437,0.817354601231,0.0205660071414,0.0,0.001,0.0,7200.0,0.0,410.0,0.0
1513267520093355151,,744254,,1513267518,268669309,'',0.820304748437,0.817347878828,-0.0095789328806,0.0,0.001,0.0,7200.0,0.0,410.0,0.0
1513267520103399937,,744255,,1513267518,278669309,'',0.820304748437,0.817315626492,-0.00892744599229,0.0,0.001,0.0,7200.0,0.0,410.0,0.0
1513267520113430386,,744256,,1513267518,288669309,'',0.820304748437,0.81728861986,-0.00838415550617,0.0,0.001,0.0,7200.0,0.0,410.0,0.0
1513267520123461492,,744257,,1513267518,298669309,'',0.820304748437,0.817266955207,-0.00794863053998,0.0,0.001,0.0,7200.0,0.0,410.0,0.0
1513267520133274497,,744258,,1513267518,308669309,'',0.820304748437,0.817250739177,-0.00761116398199,0.0,0.001,0.0,7200.0,0.0,410.0,0.0
1513267520143419979,,744259,,1513267518,318669309,'',0.820304748437,0.81729588102,0.0217573660106,0.0,0.001,0.0,7200.0,0.0,410.0,0.0
1513267520153284401,,744260,,1513267518,328669309,'',0.820304748437,0.817298331947,-0.008576933985,0.0,0.001,0.0,7200.0,0.0,410.0,0.0
1513267520163662431,,744261,,1513267518,338669309,'',0.820304748437,0.817333933292,-0.009283317008,0.0,0.001,0.0,7200.0,0.0,410.0,0.0
1513267520173880115,,744262,,1513267518,348669309,'',0.820304748437,0.817301644502,-0.00864048642534,0.0,0.001,0.0,7200.0,0.0,410.0,0.0
1513267520183495091,,744263,,1513267518,358669309,'',0.820304748437,0.817224105369,-0.00707365989787,0.0,0.001,0.0,7200.0,0.0,410.0,0.0
1513267520193714375,,744264,,1513267518,368669309,'',0.820304748437,0.817273779473,0.0222042493472,0.0,0.001,0.0,7200.0,0.0,410.0,0.0
1513267520203637360,,744265,,1513267518,378669309,'',0.820304748437,0.81722718639,-0.00714142438719,0.0,0.001,0.0,7200.0,0.0,410.0,0.0
1513267520213602976,,744266,,1513267518,388669309,'',0.820304748437,0.81719062249,-0.00640679877338,0.0,0.001,0.0,7200.0,0.0,410.0,0.0
1513267520223477034,,744267,,1513267518,398669309,'',0.820304748437,0.81721318768,-0.00686165741577,0.0,0.001,0.0,7200.0,0.0,410.0,0.0
1513267520233826374,,744268,,1513267518,408669309,'',0.820304748437,0.817179785499,-0.00617840143925,0.0,0.001,0.0,7200.0,0.0,410.0,0.0
1513267520243728338,,744269,,1513267518,418669309,'',0.820304748437,0.817124428478,-0.00505975092105,0.0,0.001,0.0,7200.0,0.0,410.0,0.0
1513267520253719727,,744270,,1513267518,428669309,'',0.820304748437,0.817161719583,-0.00581227854424,0.0,0.001,0.0,7200.0,0.0,410.0,0.0
1513267520263624136,,744271,,1513267518,438669309,'',0.820304748437,0.817164265204,-0.00586665883754,0.0,0.001,0.0,7200.0,0.0,410.0,0.0
1513267520273542899,,744272,,1513267518,448669309,'',0.820304748437,0.817250843893,0.0226662478878,0.0,0.001,0.0,7200.0,0.0,410.0,0.0
1513267520283585728,,744273,,1513267518,458669309,'',0.820304748437,0.81723652089,-0.00731689535579,0.0,0.001,0.0,7200.0,0.0,410.0,0.0
1513267520293547063,,744274,,1513267518,468669309,'',0.820304748437,0.817254680462,0.0226016082128,0.0,0.001,0.0,7200.0,0.0,410.0,0.0
1513267520303780410,,744275,,1513267518,478669309,'',0.820304748437,0.817270591114,0.0222700702048,0.0,0.001,0.0,7200.0,0.0,410.0,0.0
1513267520313735145,,744276,,1513267518,488669309,'',0.820304748437,0.817226801874,-0.00712016083717,0.0,0.001,0.0,7200.0,0.0,410.0,0.0
1513267520323687292,,744277,,1513267518,498669309,'',0.820304748437,0.817246230367,-0.00752237407177,0.0,0.001,0.0,7200.0,0.0,410.0,0.0
1513267520333741514,,744278,,1513267518,508669309,'',0.820304748437,0.817314929587,0.0213628778057,0.0,0.001,0.0,7200.0,0.0,410.0,0.0
1513267520343732371,,744279,,1513267518,518669309,'',0.820304748437,0.817337863564,-0.00938120794469,0.0,0.001,0.0,7200.0,0.0,410.0,0.0
1513267520353542686,,744280,,1513267518,528669309,'',0.820304748437,0.817332659963,-0.00927465282039,0.0,0.001,0.0,7200.0,0.0,410.0,0.0
1513267520363522240,,744281,,1513267518,538669309,'',0.820304748437,0.817300675455,-0.00861723366616,0.0,0.001,0.0,7200.0,0.0,410.0,0.0
1513267520373555455,,744282,,1513267518,548669309,'',0.820304748437,0.817276204506,-0.00812804115571,0.0,0.001,0.0,7200.0,0.0,410.0,0.0
1513267520383339566,,744283,,1513267518,558669309,'',0.820304748437,0.817314120987,-0.00888794385669,0.0,0.001,0.0,7200.0,0.0,410.0,0.0
1513267520393298365,,744284,,1513267518,568669309,'',0.820304748437,0.817290569221,0.0218626472291,0.0,0.001,0.0,7200.0,0.0,410.0,0.0
1513267520403349112,,744285,,1513267518,578669309,'',0.820304748437,0.817271202485,-0.00802671433917,0.0,0.001,0.0,7200.0,0.0,410.0,0.0
1513267520413827874,,744286,,1513267518,588669309,'',0.820304748437,0.817250355262,-0.0076112704192,0.0,0.001,0.0,7200.0,0.0,410.0,0.0
1513267520423507197,,744287,,1513267518,598669309,'',0.820304748437,0.817235958182,-0.00730524107425,0.0,0.001,0.0,7200.0,0.0,410.0,0.0
1513267520433476868,,744288,,1513267518,608669309,'',0.820304748437,0.817200115213,0.0236977557372,0.0,0.001,0.0,7200.0,0.0,410.0,0.0
1513267520443366210,,744289,,1513267518,618669309,'',0.820304748437,0.817167313954,-0.00592285223207,0.0,0.001,0.0,7200.0,0.0,410.0,0.0
1513267520453383652,,744290,,1513267518,628669309,'',0.820304748437,0.817114220736,-0.00485058665031,0.0,0.001,0.0,7200.0,0.0,410.0,0.0
1513267520463619691,,744291,,1513267518,638669309,'',0.820304748437,0.817070660677,-0.00397085183975,0.0,0.001,0.0,7200.0,0.0,410.0,0.0
1513267520473390902,,744292,,1513267518,648669309,'',0.820304748437,0.817092265413,0.0258663239494,0.0,0.001,0.0,7200.0,0.0,410.0,0.0
1513267520483774238,,744293,,1513267518,658669309,'',0.820304748437,0.817077841186,-0.00411476294352,0.0,0.001,0.0,7200.0,0.0,410.0,0.0
1513267520493652378,,744294,,1513267518,668669309,'',0.820304748437,0.81707008529,-0.00395857942091,0.0,0.001,0.0,7200.0,0.0,410.0,0.0
1513267520503698123,,744295,,1513267518,678669309,'',0.820304748437,0.817086259291,-0.00429185163464,0.0,0.001,0.0,7200.0,0.0,410.0,0.0
1513267520513580356,,744296,,1513267518,688669309,'',0.820304748437,0.817126627128,-0.00510765660376,0.0,0.001,0.0,7200.0,0.0,410.0,0.0
1513267520523606696,,744297,,1513267518,698669309,'',0.820304748437,0.817136875982,-0.00530975748516,0.0,0.001,0.0,7200.0,0.0,410.0,0.0
1513267520533555588,,744298,,1513267518,708669309,'',0.820304748437,0.817089288083,-0.00434838211635,0.0,0.001,0.0,7200.0,0.0,410.0,0.0
1513267520543438366,,744299,,1513267518,718669309,'',0.820304748437,0.817100672182,-0.0045761537711,0.0,0.001,0.0,7200.0,0.0,410.0,0.0
1513267520553292282,,744300,,1513267518,728669309,'',0.820304748437,0.81708873318,-0.00433620971168,0.0,0.001,0.0,7200.0,0.0,410.0,0.0
1513267520563709597,,744301,,1513267518,738669309,'',0.820304748437,0.817102192051,-0.00461444895123,0.0,0.001,0.0,7200.0,0.0,410.0,0.0
1513267520573777972,,744302,,1513267518,748669309,'',0.820304748437,0.817085967959,-0.00428086928913,0.0,0.001,0.0,7200.0,0.0,410.0,0.0
1513267520583764238,,744303,,1513267518,758669309,'',0.820304748437,0.817042490606,-0.0336895392473,0.0,0.001,0.0,7200.0,0.0,410.0,0.0
1513267520593696729,,744304,,1513267518,768669309,'',0.820304748437,0.817011991958,-0.00279119182273,0.0,0.001,0.0,7200.0,0.0,410.0,0.0
1513267520603534608,,744305,,1513267518,778669309,'',0.820304748437,0.817016883234,0.027392006079,0.0,0.001,0.0,7200.0,0.0,410.0,0.0
1513267520613583492,,744306,,1513267518,788669309,'',0.820304748437,0.817018567988,-0.00291506101162,0.0,0.001,0.0,7200.0,0.0,410.0,0.0
1513267520623543920,,744307,,1513267518,798669309,'',0.820304748437,0.817021031071,-0.0029724285367,0.0,0.001,0.0,7200.0,0.0,410.0,0.0
1513267520633737223,,744308,,1513267518,808669309,'',0.820304748437,0.817048372212,-0.00352271304878,0.0,0.001,0.0,7200.0,0.0,410.0,0.0
1513267520643630200,,744309,,1513267518,818669309,'',0.820304748437,0.817072888849,-0.00401287408649,0.0,0.001,0.0,7200.0,0.0,410.0,0.0
1513267520653563441,,744310,,1513267518,828669309,'',0.820304748437,0.817063931318,-0.00382665515327,0.0,0.001,0.0,7200.0,0.0,410.0,0.0
1513267520663513928,,744311,,1513267518,838669309,'',0.820304748437,0.817029495048,-0.00313268715247,0.0,0.001,0.0,7200.0,0.0,410.0,0.0
1513267520673504964,,744312,,1513267518,848669309,'',0.820304748437,0.817027190266,-0.00309282259132,0.0,0.001,0.0,7200.0,0.0,410.0,0.0
1513267520683509905,,744313,,1513267518,858669309,'',0.820304748437,0.817052265004,-0.0036056172776,0.0,0.001,0.0,7200.0,0.0,410.0,0.0
1513267520693494005,,744314,,1513267518,868669309,'',0.820304748437,0.817074087427,-0.00404445067342,0.0,0.001,0.0,7200.0,0.0,410.0,0.0
1513267520703483411,,744315,,1513267518,878669309,'',0.820304748437,0.817146789577,0.0247534059212,0.0,0.001,0.0,7200.0,0.0,410.0,0.0
1513267520713346978,,744316,,1513267518,888669309,'',0.820304748437,0.817126523855,-0.00511693550593,0.0,0.001,0.0,7200.0,0.0,410.0,0.0
1513267520723466710,,744317,,1513267518,898669309,'',0.820304748437,0.817080823112,-0.00419073191669,0.0,0.001,0.0,7200.0,0.0,410.0,0.0
1513267520733435711,,744318,,1513267518,908669309,'',0.820304748437,0.817071575271,-0.0039923817186,0.0,0.001,0.0,7200.0,0.0,410.0,0.0
1513267520743376898,,744319,,1513267518,918669309,'',0.820304748437,0.817060554651,-0.00377546453424,0.0,0.001,0.0,7200.0,0.0,410.0,0.0
1513267520753420266,,744320,,1513267518,928669309,'',0.820304748437,0.817027249257,0.0271710773361,0.0,0.001,0.0,7200.0,0.0,410.0,0.0
1513267520763792991,,744321,,1513267518,938669309,'',0.820304748437,0.817050578695,-0.00358737790784,0.0,0.001,0.0,7200.0,0.0,410.0,0.0
1513267520773288901,,744322,,1513267518,948669309,'',0.820304748437,0.817044985083,-0.00347024877094,0.0,0.001,0.0,7200.0,0.0,410.0,0.0
1513267520783364391,,744323,,1513267518,958669309,'',0.820304748437,0.817040496479,-0.00338198313531,0.0,0.001,0.0,7200.0,0.0,410.0,0.0
1513267520793289340,,744324,,1513267518,968669309,'',0.820304748437,0.817009745436,-0.00275154846531,0.0,0.001,0.0,7200.0,0.0,410.0,0.0
1513267520803699456,,744325,,1513267518,978669309,'',0.820304748437,0.817009994514,-0.00276130451876,0.0,0.001,0.0,7200.0,0.0,410.0,0.0
1513267520813491377,,744326,,1513267518,988669309,'',0.820304748437,0.817042667764,0.0268610779628,0.0,0.001,0.0,7200.0,0.0,410.0,0.0
