rosbagTimestamp,header,seq,stamp,secs,nsecs,frame_id,set_point,process_value,process_value_dot,error,time_step,command,p,i,d,i_clamp
1513267517173430414,,743944,,1513267515,348669309,'',0.994837673637,0.925344855245,-0.000559560670557,-0.0694928183914,0.001,217.125296619,3100.0,0.0,3000.0,0.0
1513267517183535999,,743945,,1513267515,358669309,'',0.994837673637,0.925339807699,-0.000458103404308,-0.069497865938,0.001,216.830155595,3100.0,0.0,3000.0,0.0
1513267517193437093,,743946,,1513267515,368669309,'',0.994837673637,0.925344314744,-0.000547199994317,-0.0694933588931,0.001,217.058957781,3100.0,0.0,3000.0,0.0
1513267517203266989,,743947,,1513267515,378669309,'',0.994837673637,0.925339365625,-0.000447992460336,-0.0694983080119,0.001,216.804626846,3100.0,0.0,3000.0,0.0
1513267517213734589,,743948,,1513267515,388669309,'',0.994837673637,0.925344388808,-0.000552730828851,-0.0694932848284,0.001,217.099897774,3100.0,0.0,3000.0,0.0
1513267517223800342,,743949,,1513267515,398669309,'',0.994837673637,0.925358055808,0.00901811387345,-0.069479617829,0.001,188.219344954,3100.0,0.0,3000.0,0.0
1513267517233455870,,743950,,1513267515,408669309,'',0.994837673637,0.925359427322,-0.000855748585223,-0.0694782463147,0.001,217.963143556,3100.0,0.0,3000.0,0.0
1513267517243470897,,743951,,1513267515,418669309,'',0.994837673637,0.925378587277,-0.00124571452775,-0.0694590863596,0.001,218.98333738,3100.0,0.0,3000.0,0.0
1513267517253462054,,743952,,1513267515,428669309,'',0.994837673637,0.925403496029,-0.0017441901335,-0.0694341776078,0.001,220.519369583,3100.0,0.0,3000.0,0.0
1513267517263524524,,743953,,1513267515,438669309,'',0.994837673637,0.925422558001,-0.00212962846284,-0.0694151156359,0.001,221.627279878,3100.0,0.0,3000.0,0.0
1513267517273368370,,743954,,1513267515,448669309,'',0.994837673637,0.925403419646,-0.00174345131899,-0.0694342539903,0.001,220.508643083,3100.0,0.0,3000.0,0.0
1513267517283357783,,743955,,1513267515,458669309,'',0.994837673637,0.925412552263,-0.00192838593405,-0.0694251213736,0.001,221.049113585,3100.0,0.0,3000.0,0.0
1513267517293429577,,743956,,1513267515,468669309,'',0.994837673637,0.925411795662,-0.00191077495926,-0.0694258779745,0.001,220.999744489,3100.0,0.0,3000.0,0.0
1513267517303734994,,743957,,1513267515,478669309,'',0.994837673637,0.925429227738,-0.00226492377813,-0.0694084458985,0.001,222.00214532,3100.0,0.0,3000.0,0.0
1513267517313738207,,743958,,1513267515,488669309,'',0.994837673637,0.925416970501,-0.0020197262617,-0.0694207031354,0.001,221.127156056,3100.0,0.0,3000.0,0.0
1513267517323350091,,743959,,1513267515,498669309,'',0.994837673637,0.925406983875,-0.00181725412325,-0.0694306897619,0.001,220.714677133,3100.0,0.0,3000.0,0.0
1513267517335399309,,743960,,1513267515,508669309,'',0.994837673637,0.92542679909,0.0076321814908,-0.0694108745463,0.001,192.216676592,3100.0,0.0,3000.0,0.0
1513267517343659740,,743961,,1513267515,518669309,'',0.994837673637,0.925424101788,-0.00216471640576,-0.0694135718489,0.001,221.712011378,3100.0,0.0,3000.0,0.0
1513267517353645896,,743962,,1513267515,528669309,'',0.994837673637,0.925412849997,-0.00193509757693,-0.0694248236402,0.001,221.053774598,3100.0,0.0,3000.0,0.0
1513267517363651473,,743963,,1513267515,538669309,'',0.994837673637,0.925438830228,-0.00245814469224,-0.0693988434083,0.001,222.569813518,3100.0,0.0,3000.0,0.0
1513267517373506839,,743964,,1513267515,548669309,'',0.994837673637,0.925451046288,0.00714388333291,-0.0693866273486,0.001,193.589330566,3100.0,0.0,3000.0,0.0
1513267517383437693,,743965,,1513267515,558669309,'',0.994837673637,0.92544398828,-0.00256364514231,-0.0693936853566,0.001,222.853756508,3100.0,0.0,3000.0,0.0
1513267517393422730,,743966,,1513267515,568669309,'',0.994837673637,0.925429906388,-0.00227925160426,-0.0694077672487,0.001,222.06115817,3100.0,0.0,3000.0,0.0
1513267517403381663,,743967,,1513267515,578669309,'',0.994837673637,0.925437225902,-0.00242919471024,-0.069400447735,0.001,222.455831967,3100.0,0.0,3000.0,0.0
1513267517413358815,,743968,,1513267515,588669309,'',0.994837673637,0.925458802195,-0.00286739847831,-0.0693788714421,0.001,223.536293136,3100.0,0.0,3000.0,0.0
1513267517423369670,,743969,,1513267515,598669309,'',0.994837673637,0.925442215414,-0.00253184914396,-0.0693954582224,0.001,222.743964802,3100.0,0.0,3000.0,0.0
1513267517433415486,,743970,,1513267515,608669309,'',0.994837673637,0.925438196814,-0.0024473932357,-0.0693994768225,0.001,222.526049419,3100.0,0.0,3000.0,0.0
1513267517443246518,,743971,,1513267515,618669309,'',0.994837673637,0.925433104973,-0.00234437241363,-0.0694045686633,0.001,222.238190488,3100.0,0.0,3000.0,0.0
1513267517453297678,,743972,,1513267515,628669309,'',0.994837673637,0.925466226306,0.00683544420929,-0.0693714473304,0.001,194.446190348,3100.0,0.0,3000.0,0.0
1513267517463694330,,743973,,1513267515,638669309,'',0.994837673637,0.925482754546,-0.00334799097871,-0.0693549190903,0.001,225.097101183,3100.0,0.0,3000.0,0.0
1513267517473672583,,743974,,1513267515,648669309,'',0.994837673637,0.925523358469,0.0056802136112,-0.0693143151677,0.001,197.732360265,3100.0,0.0,3000.0,0.0
1513267517483651918,,743975,,1513267515,658669309,'',0.994837673637,0.925521302474,-0.00412754294565,-0.0693163711624,0.001,227.33789497,3100.0,0.0,3000.0,0.0
1513267517493669251,,743976,,1513267515,668669309,'',0.994837673637,0.925503462557,0.00608195231474,-0.0693342110798,0.001,196.576699665,3100.0,0.0,3000.0,0.0
1513267517503569925,,743977,,1513267515,678669309,'',0.994837673637,0.925486518531,-0.00342279580998,-0.0693511551054,0.001,225.322159302,3100.0,0.0,3000.0,0.0
1513267517513654127,,743978,,1513267515,688669309,'',0.994837673637,0.925499545042,-0.00368474821173,-0.069338128595,0.001,226.065274752,3100.0,0.0,3000.0,0.0
1513267517523639636,,743979,,1513267515,698669309,'',0.994837673637,0.925501453564,-0.00372344296672,-0.0693362200723,0.001,226.18905888,3100.0,0.0,3000.0,0.0
1513267517533639045,,743980,,1513267515,708669309,'',0.994837673637,0.92550459569,0.00606343330897,-0.0693330779471,0.001,196.664173739,3100.0,0.0,3000.0,0.0
1513267517543499220,,743981,,1513267515,718669309,'',0.994837673637,0.925515406452,-0.0040048180111,-0.0693222671849,0.001,227.019804596,3100.0,0.0,3000.0,0.0
1513267517553423647,,743982,,1513267515,728669309,'',0.994837673637,0.925533732137,0.0153200495357,-0.0693039414995,0.001,168.699650684,3100.0,0.0,3000.0,0.0
1513267517563416658,,743983,,1513267515,738669309,'',0.994837673637,0.92554671724,-0.00463765422603,-0.0692909563964,0.001,228.597690371,3100.0,0.0,3000.0,0.0
1513267517573326636,,743984,,1513267515,748669309,'',0.994837673637,0.92554091738,-0.0045214327363,-0.0692967562571,0.001,228.460115113,3100.0,0.0,3000.0,0.0
1513267517583648116,,743985,,1513267515,758669309,'',0.994837673637,0.925553849066,0.00507253223096,-0.0692838245704,0.001,199.493023066,3100.0,0.0,3000.0,0.0
1513267517593618976,,743986,,1513267515,768669309,'',0.994837673637,0.925572796131,0.00468862920553,-0.0692648775055,0.001,200.565983379,3100.0,0.0,3000.0,0.0
1513267517603578288,,743987,,1513267515,778669309,'',0.994837673637,0.925606495886,0.00400672565373,-0.0692311777504,0.001,202.543061706,3100.0,0.0,3000.0,0.0
1513267517613445286,,743988,,1513267515,788669309,'',0.994837673637,0.925598181763,0.00417211271734,-0.0692394918742,0.001,202.074017149,3100.0,0.0,3000.0,0.0
1513267517623596008,,743989,,1513267515,798669309,'',0.994837673637,0.925583253642,0.00447037880626,-0.0692544199944,0.001,201.508155575,3100.0,0.0,3000.0,0.0
1513267517633492933,,743990,,1513267515,808669309,'',0.994837673637,0.925605806801,0.00401240917203,-0.0692318668354,0.001,202.503188179,3100.0,0.0,3000.0,0.0
1513267517643460028,,743991,,1513267515,818669309,'',0.994837673637,0.925598104405,-0.00568038605719,-0.0692395692319,0.001,231.762604537,3100.0,0.0,3000.0,0.0
1513267517653558758,,743992,,1513267515,828669309,'',0.994837673637,0.92559978457,-0.00571698821648,-0.0692378890672,0.001,231.913382834,3100.0,0.0,3000.0,0.0
1513267517663513581,,743993,,1513267515,838669309,'',0.994837673637,0.925620193136,0.00372470295809,-0.0692174805004,0.001,203.343717606,3100.0,0.0,3000.0,0.0
1513267517673468826,,743994,,1513267515,848669309,'',0.994837673637,0.925644498666,0.00323145445307,-0.0691931749707,0.001,204.770102112,3100.0,0.0,3000.0,0.0
1513267517683357426,,743995,,1513267515,858669309,'',0.994837673637,0.925630332821,0.00351865432241,-0.0692073408162,0.001,204.17912189,3100.0,0.0,3000.0,0.0
1513267517693303288,,743996,,1513267515,868669309,'',0.994837673637,0.925643936498,0.00324240858253,-0.0691937371388,0.001,204.894693271,3100.0,0.0,3000.0,0.0
1513267517703691966,,743997,,1513267515,878669309,'',0.994837673637,0.925646797831,0.00318794141976,-0.0691908758062,0.001,204.882018823,3100.0,0.0,3000.0,0.0
1513267517713637907,,743998,,1513267515,888669309,'',0.994837673637,0.925630241879,-0.00632497367231,-0.0692074317579,0.001,233.638632648,3100.0,0.0,3000.0,0.0
1513267517723638158,,743999,,1513267515,898669309,'',0.994837673637,0.925616914104,-0.00605828205454,-0.069220759533,0.001,232.504188724,3100.0,0.0,3000.0,0.0
1513267517733567712,,744000,,1513267515,908669309,'',0.994837673637,0.925641771605,0.00328846616996,-0.0691959020313,0.001,204.603277426,3100.0,0.0,3000.0,0.0
1513267517743568237,,744001,,1513267515,918669309,'',0.994837673637,0.925653060883,0.00306045341472,-0.0691846127534,0.001,205.237519938,3100.0,0.0,3000.0,0.0
1513267517753516316,,744002,,1513267515,928669309,'',0.994837673637,0.925643273016,-0.00659431147854,-0.0691944006212,0.001,233.997506565,3100.0,0.0,3000.0,0.0
1513267517763454595,,744003,,1513267515,938669309,'',0.994837673637,0.925645053213,-0.00662975952559,-0.0691926204233,0.001,234.476530822,3100.0,0.0,3000.0,0.0
1513267517773313345,,744004,,1513267515,948669309,'',0.994837673637,0.925665843031,0.00279988607924,-0.0691718306055,0.001,206.009540825,3100.0,0.0,3000.0,0.0
1513267517783531070,,744005,,1513267515,958669309,'',0.994837673637,0.925673712812,0.00263861939878,-0.0691639608246,0.001,206.432532567,3100.0,0.0,3000.0,0.0
1513267517793370283,,744006,,1513267515,968669309,'',0.994837673637,0.925661925594,0.00287737967437,-0.0691757480428,0.001,205.923206777,3100.0,0.0,3000.0,0.0
1513267517803215538,,744007,,1513267515,978669309,'',0.994837673637,0.925669329293,-0.00712044864404,-0.0691683443434,0.001,235.812989287,3100.0,0.0,3000.0,0.0
1513267517813246514,,744008,,1513267515,988669309,'',0.994837673637,0.925676004076,-0.00725520297695,-0.0691616695606,0.001,236.270918289,3100.0,0.0,3000.0,0.0
1513267517823698356,,744009,,1513267515,998669309,'',0.994837673637,0.925681145077,0.00248866560241,-0.06915652856,0.001,207.051657819,3100.0,0.0,3000.0,0.0
1513267517833617919,,744010,,1513267516,8669309,'',0.994837673637,0.925675778427,0.00259810888569,-0.0691618952098,0.001,206.552058244,3100.0,0.0,3000.0,0.0
1513267517843589677,,744011,,1513267516,18669309,'',0.994837673637,0.925664095777,0.00283238691515,-0.0691735778595,0.001,205.884247526,3100.0,0.0,3000.0,0.0
1513267517853513983,,744012,,1513267516,28669309,'',0.994837673637,0.9256724883,0.00266133175708,-0.0691651853369,0.001,206.369386302,3100.0,0.0,3000.0,0.0
1513267517863452592,,744013,,1513267516,38669309,'',0.994837673637,0.925678739297,0.00253839972894,-0.0691589343398,0.001,206.706861682,3100.0,0.0,3000.0,0.0
1513267517873393445,,744014,,1513267516,48669309,'',0.994837673637,0.925692724803,0.00225464157543,-0.0691449488342,0.001,207.682763881,3100.0,0.0,3000.0,0.0
1513267517883322664,,744015,,1513267516,58669309,'',0.994837673637,0.925676731864,0.00257758998949,-0.0691609417724,0.001,206.597901023,3100.0,0.0,3000.0,0.0
1513267517893313790,,744016,,1513267516,68669309,'',0.994837673637,0.925690602262,0.0022982645464,-0.0691470713745,0.001,207.408168412,3100.0,0.0,3000.0,0.0
1513267517903682149,,744017,,1513267516,78669309,'',0.994837673637,0.925703021532,0.00204972045974,-0.0691346521045,0.001,208.14031933,3100.0,0.0,3000.0,0.0
1513267517913514615,,744018,,1513267516,88669309,'',0.994837673637,0.925694617079,0.00221947007521,-0.069143056558,0.001,207.642146583,3100.0,0.0,3000.0,0.0
1513267517923534018,,744019,,1513267516,98669309,'',0.994837673637,0.925705412916,0.00199963565741,-0.0691322607205,0.001,208.26684185,3100.0,0.0,3000.0,0.0
1513267517933484532,,744020,,1513267516,108669309,'',0.994837673637,0.925714065616,0.00182527384781,-0.0691236080203,0.001,208.778089703,3100.0,0.0,3000.0,0.0
1513267517943337829,,744021,,1513267516,118669309,'',0.994837673637,0.925714258715,0.00182139889722,-0.0691234149216,0.001,208.768157285,3100.0,0.0,3000.0,0.0
1513267517953648435,,744022,,1513267516,128669309,'',0.994837673637,0.92572217377,0.00166210444067,-0.0691154998666,0.001,209.236699551,3100.0,0.0,3000.0,0.0
1513267517963579809,,744023,,1513267516,138669309,'',0.994837673637,0.925728680538,0.00153090896631,-0.0691089930989,0.001,209.607673978,3100.0,0.0,3000.0,0.0
1513267517973551472,,744024,,1513267516,148669309,'',0.994837673637,0.925733498096,0.0014339583344,-0.069104175541,0.001,209.89093859,3100.0,0.0,3000.0,0.0
1513267517983766990,,744025,,1513267516,158669309,'',0.994837673637,0.925737611002,0.00135288045284,-0.0691000626349,0.001,210.137781366,3100.0,0.0,3000.0,0.0
1513267517993502676,,744026,,1513267516,168669309,'',0.994837673637,0.925741653179,0.00127272670252,-0.0690960204579,0.001,210.424434796,3100.0,0.0,3000.0,0.0
1513267518003497695,,744027,,1513267516,178669309,'',0.994837673637,0.925725380465,-0.00825250161864,-0.0691122931713,0.001,239.221262833,3100.0,0.0,3000.0,0.0
1513267518013248747,,744028,,1513267516,188669309,'',0.994837673637,0.925739761897,0.00130644312417,-0.0690979117394,0.001,210.162694741,3100.0,0.0,3000.0,0.0
1513267518023739519,,744029,,1513267516,198669309,'',0.4,0.925743247699,0.00123496906416,0.525743247699,0.001,-550.0,3100.0,0.0,3000.0,0.0
1513267518033651070,,744030,,1513267516,208669309,'',0.4,0.925745791884,0.00118467708555,0.525745791884,0.001,-550.0,3100.0,0.0,3000.0,0.0
1513267518043543661,,744031,,1513267516,218669309,'',0.4,0.925720157311,-0.00814663372878,0.525720157311,0.001,-550.0,3100.0,0.0,3000.0,0.0
1513267518053652291,,744032,,1513267516,228669309,'',0.4,0.925735460016,0.00139386660773,0.525735460016,0.001,-550.0,3100.0,0.0,3000.0,0.0
1513267518063344087,,744033,,1513267516,238669309,'',0.4,0.925719826086,-0.00813898755733,0.525719826086,0.001,-550.0,3100.0,0.0,3000.0,0.0
1513267518073312031,,744034,,1513267516,248669309,'',0.4,0.92559875657,-0.0352327234778,0.52559875657,0.001,-550.0,3100.0,0.0,3000.0,0.0
1513267518083741365,,744035,,1513267516,258669309,'',0.4,0.924867236495,-0.118938549115,0.524867236495,0.001,-550.0,3100.0,0.0,3000.0,0.0
1513267518093702570,,744036,,1513267516,268669309,'',0.4,0.923077807138,-0.230523061533,0.523077807138,0.001,-550.0,3100.0,0.0,3000.0,0.0
1513267518103658199,,744037,,1513267516,278669309,'',0.4,0.920058806823,-0.356658927575,0.520058806823,0.001,-550.0,3100.0,0.0,3000.0,0.0
1513267518113668376,,744038,,1513267516,288669309,'',0.4,0.915792872815,-0.467455853251,0.515792872815,0.001,-183.859374262,3100.0,0.0,3000.0,0.0
1513267518123717610,,744039,,1513267516,298669309,'',0.4,0.910823108206,-0.514790324321,0.510823108206,0.001,-32.9755834512,3100.0,0.0,3000.0,0.0
1513267518133598852,,744040,,1513267516,308669309,'',0.4,0.905553705408,-0.536373117339,0.505553705408,0.001,51.468568785,3100.0,0.0,3000.0,0.0
1513267518143560855,,744041,,1513267516,318669309,'',0.4,0.900348000208,-0.509995733168,0.500348000208,0.001,-14.9323596948,3100.0,0.0,3000.0,0.0
1513267518153390353,,744042,,1513267516,328669309,'',0.4,0.89550375895,-0.461377727231,0.49550375895,0.001,-143.352975421,3100.0,0.0,3000.0,0.0
1513267518163238855,,744043,,1513267516,338669309,'',0.4,0.89119707901,-0.403923553682,0.49119707901,0.001,-307.227482002,3100.0,0.0,3000.0,0.0
1513267518173754262,,744044,,1513267516,348669309,'',0.4,0.887349478932,-0.37544146384,0.487349478932,0.001,-377.757134996,3100.0,0.0,3000.0,0.0
1513267518183811667,,744045,,1513267516,358669309,'',0.4,0.883774701037,-0.362321076348,0.483774701037,0.001,-406.280581962,3100.0,0.0,3000.0,0.0
1513267518193279859,,744046,,1513267516,368669309,'',0.4,0.880127126971,-0.377271942606,0.480127126971,0.001,-348.761426188,3100.0,0.0,3000.0,0.0
1513267518203741636,,744047,,1513267516,378669309,'',0.4,0.876244722506,-0.407175090192,0.476244722506,0.001,-248.745007965,3100.0,0.0,3000.0,0.0
1513267518213597672,,744048,,1513267516,388669309,'',0.4,0.871949554673,-0.448441217497,0.471949554673,0.001,-113.6139659,3100.0,0.0,3000.0,0.0
1513267518223494255,,744049,,1513267516,398669309,'',0.4,0.867197694268,-0.480478392325,0.467197694268,0.001,0.301350244742,3100.0,0.0,3000.0,0.0
1513267518233406545,,744050,,1513267516,408669309,'',0.4,0.862317051332,-0.480376234645,0.462317051332,0.001,58.8447083397,3100.0,0.0,3000.0,0.0
1513267518243412045,,744051,,1513267516,418669309,'',0.4,0.857724209397,-0.446683046955,0.457724209397,0.001,-70.9437508126,3100.0,0.0,3000.0,0.0
1513267518253299838,,744052,,1513267516,428669309,'',0.4,0.853515330301,-0.401051381881,0.453515330301,0.001,-197.630470614,3100.0,0.0,3000.0,0.0
1513267518263407948,,744053,,1513267516,438669309,'',0.4,0.84980424736,-0.345776978633,0.44980424736,0.001,-350.649086325,3100.0,0.0,3000.0,0.0
1513267518273332006,,744054,,1513267516,448669309,'',0.4,0.846571907949,-0.300175616597,0.446571907949,0.001,-500.393170065,3100.0,0.0,3000.0,0.0
1513267518283310731,,744055,,1513267516,458669309,'',0.4,0.843777116178,-0.26341361664,0.443777116178,0.001,-550.0,3100.0,0.0,3000.0,0.0
1513267518293234119,,744056,,1513267516,468669309,'',0.4,0.841364254847,-0.224519225455,0.441364254847,0.001,-550.0,3100.0,0.0,3000.0,0.0
1513267518303726846,,744057,,1513267516,478669309,'',0.4,0.839242818757,-0.201359027302,0.439242818757,0.001,-550.0,3100.0,0.0,3000.0,0.0
1513267518313686581,,744058,,1513267516,488669309,'',0.4,0.837382512791,-0.183474644303,0.437382512791,0.001,-550.0,3100.0,0.0,3000.0,0.0
1513267518323610817,,744059,,1513267516,498669309,'',0.4,0.835668274035,-0.168540941498,0.435668274035,0.001,-550.0,3100.0,0.0,3000.0,0.0
1513267518333562124,,744060,,1513267516,508669309,'',0.4,0.834054808399,-0.155643973582,0.434054808399,0.001,-550.0,3100.0,0.0,3000.0,0.0
1513267518343624518,,744061,,1513267516,518669309,'',0.4,0.832559921421,-0.145141899313,0.432559921421,0.001,-550.0,3100.0,0.0,3000.0,0.0
1513267518353421085,,744062,,1513267516,528669309,'',0.4,0.831172296787,-0.136804903519,0.431172296787,0.001,-550.0,3100.0,0.0,3000.0,0.0
1513267518363429283,,744063,,1513267516,538669309,'',0.4,0.829873467861,-0.120417000548,0.429873467861,0.001,-550.0,3100.0,0.0,3000.0,0.0
1513267518373290783,,744064,,1513267516,548669309,'',0.4,0.828657441512,-0.115548542788,0.428657441512,0.001,-550.0,3100.0,0.0,3000.0,0.0
1513267518383417605,,744065,,1513267516,558669309,'',0.4,0.827469559864,-0.11125128673,0.427469559864,0.001,-550.0,3100.0,0.0,3000.0,0.0
1513267518393319537,,744066,,1513267516,568669309,'',0.4,0.826358852571,-0.108511221435,0.426358852571,0.001,-550.0,3100.0,0.0,3000.0,0.0
1513267518403756683,,744067,,1513267516,578669309,'',0.4,0.825321819786,-0.107260134111,0.425321819786,0.001,-550.0,3100.0,0.0,3000.0,0.0
1513267518413338883,,744068,,1513267516,588669309,'',0.4,0.824304101791,-0.0965501944248,0.424304101791,0.001,-550.0,3100.0,0.0,3000.0,0.0
1513267518423820768,,744069,,1513267516,598669309,'',0.4,0.823266537798,-0.105136911672,0.423266537798,0.001,-550.0,3100.0,0.0,3000.0,0.0
1513267518433745349,,744070,,1513267516,608669309,'',0.4,0.822240062749,-0.0942488594778,0.422240062749,0.001,-550.0,3100.0,0.0,3000.0,0.0
1513267518443806629,,744071,,1513267516,618669309,'',0.4,0.821189377679,-0.102568424825,0.421189377679,0.001,-550.0,3100.0,0.0,3000.0,0.0
1513267518453666877,,744072,,1513267516,628669309,'',0.4,0.82015098894,-0.101287574725,0.42015098894,0.001,-550.0,3100.0,0.0,3000.0,0.0
1513267518463569541,,744073,,1513267516,638669309,'',0.4,0.819134725983,-0.100458804946,0.419134725983,0.001,-550.0,3100.0,0.0,3000.0,0.0
1513267518473517523,,744074,,1513267516,648669309,'',0.4,0.818168610963,-0.0907866999522,0.418168610963,0.001,-550.0,3100.0,0.0,3000.0,0.0
1513267518483520878,,744075,,1513267516,658669309,'',0.4,0.817245010642,-0.0918238031723,0.417245010642,0.001,-550.0,3100.0,0.0,3000.0,0.0
1513267518493507307,,744076,,1513267516,668669309,'',0.4,0.816339955332,-0.0932395322433,0.416339955332,0.001,-550.0,3100.0,0.0,3000.0,0.0
1513267518503652720,,744077,,1513267516,678669309,'',0.4,0.815448304091,-0.0850745854973,0.415448304091,0.001,-550.0,3100.0,0.0,3000.0,0.0
1513267518513606288,,744078,,1513267516,688669309,'',0.4,0.814568120385,-0.0869953179342,0.414568120385,0.001,-550.0,3100.0,0.0,3000.0,0.0
1513267518523274221,,744079,,1513267516,698669309,'',0.4,0.813705452755,-0.0892641804478,0.413705452755,0.001,-550.0,3100.0,0.0,3000.0,0.0
1513267518533272358,,744080,,1513267516,708669309,'',0.4,0.812874716873,-0.0823302981239,0.412874716873,0.001,-550.0,3100.0,0.0,3000.0,0.0
1513267518543312288,,744081,,1513267516,718669309,'',0.4,0.812053770493,-0.0854466480296,0.412053770493,0.001,-550.0,3100.0,0.0,3000.0,0.0
1513267518553769623,,744082,,1513267516,728669309,'',0.4,0.811251397054,-0.079086781797,0.411251397054,0.001,-550.0,3100.0,0.0,3000.0,0.0
1513267518563807523,,744083,,1513267516,738669309,'',0.4,0.810423077112,-0.0820480535422,0.410423077112,0.001,-550.0,3100.0,0.0,3000.0,0.0
1513267518573640294,,744084,,1513267516,748669309,'',0.4,0.809596047876,-0.0850387767181,0.409596047876,0.001,-550.0,3100.0,0.0,3000.0,0.0
1513267518583794954,,744085,,1513267516,758669309,'',0.4,0.808768811404,-0.0781764511734,0.408768811404,0.001,-550.0,3100.0,0.0,3000.0,0.0
1513267518593710173,,744086,,1513267516,768669309,'',0.4,0.807922399009,-0.0906221102854,0.407922399009,0.001,-550.0,3100.0,0.0,3000.0,0.0
1513267518603583979,,744087,,1513267516,778669309,'',0.4,0.807045580652,-0.0926045512091,0.407045580652,0.001,-550.0,3100.0,0.0,3000.0,0.0
1513267518613605403,,744088,,1513267516,788669309,'',0.4,0.806139504233,-0.093998661815,0.406139504233,0.001,-550.0,3100.0,0.0,3000.0,0.0
1513267518623898816,,744089,,1513267516,798669309,'',0.4,0.805221288381,-0.0951426980523,0.405221288381,0.001,-550.0,3100.0,0.0,3000.0,0.0
1513267518633669383,,744090,,1513267516,808669309,'',0.4,0.804294657737,-0.0961203790301,0.404294657737,0.001,-550.0,3100.0,0.0,3000.0,0.0
1513267518643805832,,744091,,1513267516,818669309,'',0.4,0.803313223517,-0.09599261469,0.403313223517,0.001,-550.0,3100.0,0.0,3000.0,0.0
1513267518653701056,,744092,,1513267516,828669309,'',0.4,0.802307005705,-0.105215923823,0.402307005705,0.001,-550.0,3100.0,0.0,3000.0,0.0
1513267518663486805,,744093,,1513267516,838669309,'',0.4,0.801272220777,-0.104012370059,0.401272220777,0.001,-550.0,3100.0,0.0,3000.0,0.0
1513267518673410623,,744094,,1513267516,848669309,'',0.4,0.800219322865,-0.112288713145,0.400219322865,0.001,-550.0,3100.0,0.0,3000.0,0.0
1513267518683390422,,744095,,1513267516,858669309,'',0.4,0.79909983201,-0.119217638607,0.39909983201,0.001,-550.0,3100.0,0.0,3000.0,0.0
1513267518693469406,,744096,,1513267516,868669309,'',0.4,0.797891480419,-0.124347849052,0.397891480419,0.001,-550.0,3100.0,0.0,3000.0,0.0
1513267518703731730,,744097,,1513267516,878669309,'',0.4,0.796596694789,-0.137583009187,0.396596694789,0.001,-550.0,3100.0,0.0,3000.0,0.0
1513267518713915451,,744098,,1513267516,888669309,'',0.4,0.795214524628,-0.139207197177,0.395214524628,0.001,-550.0,3100.0,0.0,3000.0,0.0
1513267518723723429,,744099,,1513267516,898669309,'',0.4,0.793718470471,-0.158231672097,0.393718470471,0.001,-550.0,3100.0,0.0,3000.0,0.0
1513267518733694115,,744100,,1513267516,908669309,'',0.4,0.79212656389,-0.165467951614,0.39212656389,0.001,-550.0,3100.0,0.0,3000.0,0.0
1513267518743758483,,744101,,1513267516,918669309,'',0.4,0.790359068243,-0.179003574082,0.390359068243,0.001,-550.0,3100.0,0.0,3000.0,0.0
1513267518753731991,,744102,,1513267516,928669309,'',0.4,0.78840616859,-0.208492127908,0.38840616859,0.001,-550.0,3100.0,0.0,3000.0,0.0
1513267518763459185,,744103,,1513267516,938669309,'',0.4,0.786226259101,-0.233390356353,0.386226259101,0.001,-492.943514961,3100.0,0.0,3000.0,0.0
1513267518774143494,,744104,,1513267516,948669309,'',0.4,0.783798897565,-0.263144467979,0.383798897565,0.001,-395.43916296,3100.0,0.0,3000.0,0.0
1513267518783788987,,744105,,1513267516,958669309,'',0.4,0.780619984152,-0.376205771667,0.380619984152,0.001,-45.6752486294,3100.0,0.0,3000.0,0.0
1513267518793826144,,744106,,1513267516,968669309,'',0.4,0.775670921503,-0.611078631918,0.375670921503,0.001,550.0,3100.0,0.0,3000.0,0.0
1513267518803390164,,744107,,1513267516,978669309,'',0.4,0.768237738691,-0.835168943985,0.368237738691,0.001,550.0,3100.0,0.0,3000.0,0.0
1513267518813405005,,744108,,1513267516,988669309,'',0.4,0.759666836388,-0.849151453636,0.359666836388,0.001,550.0,3100.0,0.0,3000.0,0.0
1513267518823442373,,744109,,1513267516,998669309,'',0.4,0.751903895203,-0.712029680098,0.351903895203,0.001,550.0,3100.0,0.0,3000.0,0.0
1513267518833739242,,744110,,1513267517,8669309,'',0.4,0.745573093917,-0.574287553864,0.345573093917,0.001,550.0,3100.0,0.0,3000.0,0.0
1513267518843730498,,744111,,1513267517,18669309,'',0.4,0.740372206427,-0.479073836639,0.340372206427,0.001,355.992543889,3100.0,0.0,3000.0,0.0
1513267518853595169,,744112,,1513267517,28669309,'',0.4,0.736069492716,-0.402001358505,0.336069492716,0.001,169.021564723,3100.0,0.0,3000.0,0.0
1513267518863608644,,744113,,1513267517,38669309,'',0.4,0.732367191622,-0.346904620235,0.332367191622,0.001,13.5488932474,3100.0,0.0,3000.0,0.0
1513267518873632991,,744114,,1513267517,48669309,'',0.4,0.72934761591,-0.276053239471,0.32934761591,0.001,-206.236813264,3100.0,0.0,3000.0,0.0
1513267518883547714,,744115,,1513267517,58669309,'',0.4,0.726864641038,-0.225895243194,0.326864641038,0.001,-322.589237249,3100.0,0.0,3000.0,0.0
1513267518893440649,,744116,,1513267517,68669309,'',0.4,0.724767357306,-0.193376121397,0.324767357306,0.001,-421.946285326,3100.0,0.0,3000.0,0.0
1513267518903846260,,744117,,1513267517,78669309,'',0.4,0.723025798907,-0.158192055936,0.323025798907,0.001,-522.949395147,3100.0,0.0,3000.0,0.0
1513267518913719255,,744118,,1513267517,88669309,'',0.4,0.721587214244,-0.138981395844,0.321587214244,0.001,-550.0,3100.0,0.0,3000.0,0.0
1513267518923833044,,744119,,1513267517,98669309,'',0.4,0.720292290268,-0.122669370954,0.320292290268,0.001,-550.0,3100.0,0.0,3000.0,0.0
1513267518933667713,,744120,,1513267517,108669309,'',0.4,0.719156070264,-0.109565429918,0.319156070264,0.001,-550.0,3100.0,0.0,3000.0,0.0
1513267518943710706,,744121,,1513267517,118669309,'',0.4,0.718152403628,-0.0991390497426,0.318152403628,0.001,-550.0,3100.0,0.0,3000.0,0.0
1513267518953518458,,744122,,1513267517,128669309,'',0.4,0.717279464814,-0.081506161611,0.317279464814,0.001,-550.0,3100.0,0.0,3000.0,0.0
1513267518963445441,,744123,,1513267517,138669309,'',0.4,0.716463153094,-0.0945628282965,0.316463153094,0.001,-550.0,3100.0,0.0,3000.0,0.0
1513267518973309228,,744124,,1513267517,148669309,'',0.4,0.714981777985,-0.212367676913,0.314981777985,0.001,-349.680469467,3100.0,0.0,3000.0,0.0
1513267518983450484,,744125,,1513267517,158669309,'',0.4,0.711375771025,-0.494063611941,0.311375771025,0.001,497.55225528,3100.0,0.0,3000.0,0.0
1513267518993246924,,744126,,1513267517,168669309,'',0.4,0.704485216511,-0.837455899966,0.304485216511,0.001,550.0,3100.0,0.0,3000.0,0.0
1513267519003419029,,744127,,1513267517,178669309,'',0.4,0.695187237219,-0.954934690323,0.295187237219,0.001,550.0,3100.0,0.0,3000.0,0.0
1513267519013369177,,744128,,1513267517,188669309,'',0.4,0.686274669499,-0.814284340391,0.286274669499,0.001,550.0,3100.0,0.0,3000.0,0.0
1513267519023492421,,744129,,1513267517,198669309,'',0.4,0.679106781595,-0.649783391296,0.279106781595,0.001,550.0,3100.0,0.0,3000.0,0.0
1513267519033471772,,744130,,1513267517,208669309,'',0.4,0.673180104648,-0.539904074515,0.273180104648,0.001,550.0,3100.0,0.0,3000.0,0.0
1513267519043282176,,744131,,1513267517,218669309,'',0.4,0.668324748834,-0.441819757474,0.268324748834,0.001,498.956311417,3100.0,0.0,3000.0,0.0
1513267519053331257,,744132,,1513267517,228669309,'',0.4,0.664268843455,-0.369732730705,0.264268843455,0.001,273.303023209,3100.0,0.0,3000.0,0.0
1513267519063435816,,744133,,1513267517,238669309,'',0.4,0.66098505083,-0.303394046292,0.26098505083,0.001,105.647076717,3100.0,0.0,3000.0,0.0
1513267519073770010,,744134,,1513267517,248669309,'',0.4,0.658279996311,-0.238887643097,0.258279996311,0.001,-79.0337236111,3100.0,0.0,3000.0,0.0
1513267519083732703,,744135,,1513267517,258669309,'',0.4,0.656064994181,-0.194140154227,0.256064994181,0.001,-207.894043524,3100.0,0.0,3000.0,0.0
1513267519093463679,,744136,,1513267517,268669309,'',0.4,0.654219884642,-0.166725191979,0.254219884642,0.001,-287.950102999,3100.0,0.0,3000.0,0.0
1513267519103632277,,744137,,1513267517,278669309,'',0.4,0.652722759826,-0.13647708524,0.252722759826,0.001,-371.076047779,3100.0,0.0,3000.0,0.0
1513267519113603034,,744138,,1513267517,288669309,'',0.4,0.651479637669,-0.121211638226,0.251479637669,0.001,-413.692580731,3100.0,0.0,3000.0,0.0
1513267519123447602,,744139,,1513267517,298669309,'',0.4,0.650409586106,-0.0995936025866,0.250409586106,0.001,-475.985955313,3100.0,0.0,3000.0,0.0
1513267519133651582,,744140,,1513267517,308669309,'',0.4,0.649536105388,-0.0720966546758,0.249536105388,0.001,-550.0,3100.0,0.0,3000.0,0.0
1513267519143670486,,744141,,1513267517,318669309,'',0.4,0.648809161782,-0.0672619490275,0.248809161782,0.001,-550.0,3100.0,0.0,3000.0,0.0
1513267519153542584,,744142,,1513267517,328669309,'',0.4,0.648205224603,-0.0550626098919,0.248205224603,0.001,-550.0,3100.0,0.0,3000.0,0.0
1513267519163448984,,744143,,1513267517,338669309,'',0.4,0.647702176612,-0.0547483226914,0.247702176612,0.001,-550.0,3100.0,0.0,3000.0,0.0
1513267519173385310,,744144,,1513267517,348669309,'',0.4,0.647236750914,-0.0354976351745,0.247236750914,0.001,-550.0,3100.0,0.0,3000.0,0.0
1513267519183361809,,744145,,1513267517,358669309,'',0.4,0.646828186071,-0.0469415074644,0.246828186071,0.001,-550.0,3100.0,0.0,3000.0,0.0
1513267519193362775,,744146,,1513267517,368669309,'',0.4,0.646111096775,-0.121092103504,0.246111096775,0.001,-405.451441399,3100.0,0.0,3000.0,0.0
1513267519203762901,,744147,,1513267517,378669309,'',0.4,0.64373473828,-0.358698931908,0.24373473828,0.001,325.112182829,3100.0,0.0,3000.0,0.0
1513267519213745346,,744148,,1513267517,388669309,'',0.4,0.638313329295,-0.692369949073,0.238313329295,0.001,550.0,3100.0,0.0,3000.0,0.0
1513267519223682060,,744149,,1513267517,398669309,'',0.4,0.630202103698,-0.863358265501,0.230202103698,0.001,550.0,3100.0,0.0,3000.0,0.0
1513267519233491740,,744150,,1513267517,408669309,'',0.4,0.622095549814,-0.719296157504,0.222095549814,0.001,550.0,3100.0,0.0,3000.0,0.0
1513267519243785940,,744151,,1513267517,418669309,'',0.4,0.615811714524,-0.572656318615,0.215811714524,0.001,550.0,3100.0,0.0,3000.0,0.0
1513267519253584025,,744152,,1513267517,428669309,'',0.4,0.610682512177,-0.459198922099,0.210682512177,0.001,550.0,3100.0,0.0,3000.0,0.0
1513267519263600933,,744153,,1513267517,438669309,'',0.4,0.606461942155,-0.383786574172,0.206461942155,0.001,513.442783227,3100.0,0.0,3000.0,0.0
1513267519273289545,,744154,,1513267517,448669309,'',0.4,0.6029835731,-0.323367423821,0.2029835731,0.001,326.048591262,3100.0,0.0,3000.0,0.0
1513267519283746974,,744155,,1513267517,458669309,'',0.4,0.600016265046,-0.273269840505,0.200016265046,0.001,204.031615225,3100.0,0.0,3000.0,0.0
1513267519293659283,,744156,,1513267517,468669309,'',0.4,0.597544217353,-0.223332601996,0.197544217353,0.001,62.3870337488,3100.0,0.0,3000.0,0.0
1513267519303577846,,744157,,1513267517,478669309,'',0.4,0.59548796299,-0.191639681381,0.19548796299,0.001,-28.0976646161,3100.0,0.0,3000.0,0.0
1513267519313571978,,744158,,1513267517,488669309,'',0.4,0.593760039218,-0.146883249773,0.193760039218,0.001,-157.813671112,3100.0,0.0,3000.0,0.0
1513267519323623880,,744159,,1513267517,498669309,'',0.4,0.592371105263,-0.128671316036,0.192371105263,0.001,-208.781291612,3100.0,0.0,3000.0,0.0
1513267519333760244,,744160,,1513267517,508669309,'',0.4,0.591243908336,-0.105902679809,0.191243908336,0.001,-280.988417299,3100.0,0.0,3000.0,0.0
1513267519343758404,,744161,,1513267517,518669309,'',0.4,0.590356488487,-0.0781246376555,0.190356488487,0.001,-354.333788028,3100.0,0.0,3000.0,0.0
1513267519353627553,,744162,,1513267517,528669309,'',0.4,0.589810995976,-0.0277105725697,0.189810995976,0.001,-504.684391445,3100.0,0.0,3000.0,0.0
1513267519363794235,,744163,,1513267517,538669309,'',0.4,0.589331871107,-0.0475764589668,0.189331871107,0.001,-446.33435735,3100.0,0.0,3000.0,0.0
1513267519373702623,,744164,,1513267517,548669309,'',0.4,0.588931322798,-0.039489264792,0.188931322798,0.001,-466.74998325,3100.0,0.0,3000.0,0.0
1513267519383725280,,744165,,1513267517,558669309,'',0.4,0.588567252384,-0.0321339422714,0.188567252384,0.001,-487.681347636,3100.0,0.0,3000.0,0.0
1513267519393434245,,744166,,1513267517,568669309,'',0.4,0.588226813499,-0.0252589133385,0.188226813499,0.001,-507.50675415,3100.0,0.0,3000.0,0.0
1513267519403385983,,744167,,1513267517,578669309,'',0.4,0.588008902468,-0.0208579862388,0.188008902468,0.001,-519.897098433,3100.0,0.0,3000.0,0.0
1513267519413671066,,744168,,1513267517,588669309,'',0.4,0.587829915222,-0.0172432231748,0.187829915222,0.001,-530.142009221,3100.0,0.0,3000.0,0.0
1513267519423607209,,744169,,1513267517,598669309,'',0.4,0.587675485125,-0.0141224075418,0.187675485125,0.001,-539.23091138,3100.0,0.0,3000.0,0.0
1513267519433526129,,744170,,1513267517,608669309,'',0.4,0.587428411905,-0.0485281336254,0.187428411905,0.001,-434.881231181,3100.0,0.0,3000.0,0.0
1513267519443532283,,744171,,1513267517,618669309,'',0.4,0.58597433668,-0.255521360819,0.18597433668,0.001,193.09960435,3100.0,0.0,3000.0,0.0
1513267519453387661,,744172,,1513267517,628669309,'',0.4,0.581362866326,-0.635097298758,0.181362866326,0.001,550.0,3100.0,0.0,3000.0,0.0
1513267519463801173,,744173,,1513267517,638669309,'',0.4,0.573472022076,-0.859780954988,0.173472022076,0.001,550.0,3100.0,0.0,3000.0,0.0
1513267519473840937,,744174,,1513267517,648669309,'',0.4,0.565553056272,-0.689960721133,0.165553056272,0.001,550.0,3100.0,0.0,3000.0,0.0
1513267519483723763,,744175,,1513267517,658669309,'',0.4,0.559417895084,-0.556173616709,0.159417895084,0.001,550.0,3100.0,0.0,3000.0,0.0
1513267519493634584,,744176,,1513267517,668669309,'',0.4,0.554355153178,-0.45389633828,0.154355153178,0.001,550.0,3100.0,0.0,3000.0,0.0
1513267519503633650,,744177,,1513267517,678669309,'',0.4,0.550272495126,-0.371422334891,0.150272495126,0.001,550.0,3100.0,0.0,3000.0,0.0
1513267519513511580,,744178,,1513267517,688669309,'',0.4,0.546875451057,-0.312646707114,0.146875451057,0.001,465.608042942,3100.0,0.0,3000.0,0.0
1513267519523510889,,744179,,1513267517,698669309,'',0.4,0.544090076377,-0.256377673374,0.144090076377,0.001,324.053777851,3100.0,0.0,3000.0,0.0
1513267519533402245,,744180,,1513267517,708669309,'',0.4,0.541843376576,-0.201137375169,0.141843376576,0.001,163.65888958,3100.0,0.0,3000.0,0.0
1513267519543839045,,744181,,1513267517,718669309,'',0.4,0.539961147287,-0.172963229255,0.139961147287,0.001,76.7294144124,3100.0,0.0,3000.0,0.0
1513267519553770210,,744182,,1513267517,728669309,'',0.4,0.538461594346,-0.132823668891,0.138461594346,0.001,-29.1608722611,3100.0,0.0,3000.0,0.0
1513267519563681781,,744183,,1513267517,738669309,'',0.4,0.537240380435,-0.118007048759,0.137240380435,0.001,-71.041585679,3100.0,0.0,3000.0,0.0
1513267519573584534,,744184,,1513267517,748669309,'',0.4,0.53619174113,-0.0968204780544,0.13619174113,0.001,-136.100021832,3100.0,0.0,3000.0,0.0
1513267519583590860,,744185,,1513267517,758669309,'',0.4,0.535346645752,-0.0797437798729,0.135346645752,0.001,-173.556848954,3100.0,0.0,3000.0,0.0
1513267519593430189,,744186,,1513267517,768669309,'',0.4,0.534673521037,-0.0661479014908,0.134673521037,0.001,-213.038237772,3100.0,0.0,3000.0,0.0
1513267519603452873,,744187,,1513267517,778669309,'',0.4,0.534141844561,-0.0455560989294,0.134141844561,0.001,-278.484790261,3100.0,0.0,3000.0,0.0
1513267519613552997,,744188,,1513267517,788669309,'',0.4,0.53371589748,-0.0369540373771,0.13371589748,0.001,-303.080419643,3100.0,0.0,3000.0,0.0
1513267519623697696,,744189,,1513267517,798669309,'',0.4,0.533375350962,-0.0300756507775,0.133375350962,0.001,-322.70586134,3100.0,0.0,3000.0,0.0
1513267519633415076,,744190,,1513267517,808669309,'',0.4,0.533088093854,-0.0242682103343,0.133088093854,0.001,-337.696625692,3100.0,0.0,3000.0,0.0
1513267519643740529,,744191,,1513267517,818669309,'',0.4,0.532843482937,-0.0291743637917,0.132843482937,0.001,-323.844918578,3100.0,0.0,3000.0,0.0
1513267519653785252,,744192,,1513267517,828669309,'',0.4,0.532607282017,-0.0244046885295,0.132607282017,0.001,-337.128441581,3100.0,0.0,3000.0,0.0
1513267519663717339,,744193,,1513267517,838669309,'',0.4,0.532424771491,-0.0108712789339,0.132424771491,0.001,-376.327689568,3100.0,0.0,3000.0,0.0
1513267519673547607,,744194,,1513267517,848669309,'',0.4,0.532310310191,-0.00856140491924,0.132310310191,0.001,-384.414251187,3100.0,0.0,3000.0,0.0
1513267519683544447,,744195,,1513267517,858669309,'',0.4,0.532197552913,-0.00628160679908,0.132197552913,0.001,-390.835815399,3100.0,0.0,3000.0,0.0
1513267519693408322,,744196,,1513267517,868669309,'',0.4,0.532096563982,-0.0140917241416,0.132096563982,0.001,-367.743987603,3100.0,0.0,3000.0,0.0
1513267519703360310,,744197,,1513267517,878669309,'',0.4,0.532058867394,-0.00347824491107,0.132058867394,0.001,-398.891007911,3100.0,0.0,3000.0,0.0
1513267519713793469,,744198,,1513267517,888669309,'',0.4,0.532019611087,-0.00268814251582,0.132019611087,0.001,-400.918184076,3100.0,0.0,3000.0,0.0
1513267519723614655,,744199,,1513267517,898669309,'',0.4,0.531932373449,-0.0107719632667,0.131932373449,0.001,-377.228457569,3100.0,0.0,3000.0,0.0
1513267519733260540,,744200,,1513267517,908669309,'',0.4,0.5314513545,-0.0896865930741,0.1314513545,0.001,-137.080865153,3100.0,0.0,3000.0,0.0
1513267519743835052,,744201,,1513267517,918669309,'',0.4,0.529689809373,-0.242159230185,0.129689809373,0.001,329.642753108,3100.0,0.0,3000.0,0.0
1513267519753706129,,744202,,1513267517,928669309,'',0.4,0.526389396782,-0.389890633795,0.126389396782,0.001,550.0,3100.0,0.0,3000.0,0.0
1513267519763688195,,744203,,1513267517,938669309,'',0.4,0.522322325879,-0.391113301309,0.122322325879,0.001,550.0,3100.0,0.0,3000.0,0.0
1513267519773489734,,744204,,1513267517,948669309,'',0.4,0.518962763975,-0.299424183715,0.118962763975,0.001,536.564462199,3100.0,0.0,3000.0,0.0
1513267519783524124,,744205,,1513267517,958669309,'',0.4,0.516226202273,-0.250098165437,0.116226202273,0.001,378.739842521,3100.0,0.0,3000.0,0.0
1513267519793314239,,744206,,1513267517,968669309,'',0.4,0.513976188461,-0.204644990304,0.113976188461,0.001,262.487449112,3100.0,0.0,3000.0,0.0
1513267519803891656,,744207,,1513267517,978669309,'',0.4,0.512163265446,-0.168020869021,0.112163265446,0.001,157.901168669,3100.0,0.0,3000.0,0.0
1513267519813614625,,744208,,1513267517,988669309,'',0.4,0.510680654756,-0.132118916524,0.110680654756,0.001,56.8349272439,3100.0,0.0,3000.0,0.0
1513267519823571141,,744209,,1513267517,998669309,'',0.4,0.509443725462,-0.113085699269,0.109443725462,0.001,-0.702839588167,3100.0,0.0,3000.0,0.0
1513267519833517347,,744210,,1513267518,8669309,'',0.4,0.50843333393,-0.0926730400817,0.10843333393,0.001,-55.6020724101,3100.0,0.0,3000.0,0.0
1513267519843412884,,744211,,1513267518,18669309,'',0.4,0.507618995199,-0.0702689149592,0.107618995199,0.001,-121.770373337,3100.0,0.0,3000.0,0.0
1513267519853465770,,744212,,1513267518,28669309,'',0.4,0.50694573779,-0.0626238137623,0.10694573779,0.001,-142.913438824,3100.0,0.0,3000.0,0.0
1513267519863766316,,744213,,1513267518,38669309,'',0.4,0.506405120051,-0.0457442885212,0.106405120051,0.001,-191.807527159,3100.0,0.0,3000.0,0.0
1513267519873693535,,744214,,1513267518,48669309,'',0.4,0.50595185295,-0.0425449912203,0.10595185295,0.001,-200.430941235,3100.0,0.0,3000.0,0.0
1513267519883566766,,744215,,1513267518,58669309,'',0.4,0.505585096705,-0.0351358013128,0.105585096705,0.001,-221.055773528,3100.0,0.0,3000.0,0.0
1513267519893446262,,744216,,1513267518,68669309,'',0.4,0.505290978902,-0.0291915627006,0.105290978902,0.001,-238.282118667,3100.0,0.0,3000.0,0.0
1513267519903453477,,744217,,1513267518,78669309,'',0.4,0.505066987165,-0.0246669508327,0.105066987165,0.001,-251.335661702,3100.0,0.0,3000.0,0.0
1513267519913487666,,744218,,1513267518,88669309,'',0.4,0.504871954556,-0.0207219547465,0.104871954556,0.001,-262.609731031,3100.0,0.0,3000.0,0.0
1513267519923512115,,744219,,1513267518,98669309,'',0.4,0.50471844537,-0.0116672837266,0.10471844537,0.001,-289.363877508,3100.0,0.0,3000.0,0.0
1513267519933442266,,744220,,1513267518,108669309,'',0.4,0.504592231695,-0.0150701990129,0.104592231695,0.001,-278.866555247,3100.0,0.0,3000.0,0.0
1513267519943547214,,744221,,1513267518,118669309,'',0.4,0.504488909171,-0.0129830296448,0.104488909171,0.001,-284.667612497,3100.0,0.0,3000.0,0.0
1513267519953438413,,744222,,1513267518,128669309,'',0.4,0.504398783673,-0.0111643773721,0.104398783673,0.001,-290.776727735,3100.0,0.0,3000.0,0.0
1513267519963267030,,744223,,1513267518,138669309,'',0.4,0.504308859862,-0.00934859590121,0.104308859862,0.001,-295.214081169,3100.0,0.0,3000.0,0.0
1513267519973782689,,744224,,1513267518,148669309,'',0.4,0.504251090776,-0.00818263492377,0.104251090776,0.001,-298.221436032,3100.0,0.0,3000.0,0.0
1513267519983592406,,744225,,1513267518,158669309,'',0.4,0.504077750046,-0.0285065618799,0.104077750046,0.001,-236.591490357,3100.0,0.0,3000.0,0.0
1513267519993546100,,744226,,1513267518,168669309,'',0.4,0.503412309195,-0.104400527675,0.103412309195,0.001,-5.51514053482,3100.0,0.0,3000.0,0.0
1513267520003620469,,744227,,1513267518,178669309,'',0.4,0.501624116347,-0.235036870971,0.101624116347,0.001,380.17758962,3100.0,0.0,3000.0,0.0
1513267520013478782,,744228,,1513267518,188669309,'',0.4,0.49876492928,-0.296393986225,0.0987649292799,0.001,550.0,3100.0,0.0,3000.0,0.0
1513267520023469583,,744229,,1513267518,198669309,'',0.4,0.495971373818,-0.245918168041,0.0959713738182,0.001,420.108660511,3100.0,0.0,3000.0,0.0
1513267520033310254,,744230,,1513267518,208669309,'',0.4,0.493771263795,-0.207426458154,0.0937712637951,0.001,320.901350854,3100.0,0.0,3000.0,0.0
1513267520043805270,,744231,,1513267518,218669309,'',0.4,0.491940727533,-0.164489753469,0.0919407275331,0.001,211.507782228,3100.0,0.0,3000.0,0.0
1513267520053731036,,744232,,1513267518,228669309,'',0.4,0.490468852316,-0.134755782589,0.0904688523161,0.001,126.706500348,3100.0,0.0,3000.0,0.0
1513267520063721150,,744233,,1513267518,238669309,'',0.4,0.489260747813,-0.104396076453,0.0892607478125,0.001,32.0052519021,3100.0,0.0,3000.0,0.0
1513267520073710517,,744234,,1513267518,248669309,'',0.4,0.488264586024,-0.096184977465,0.0882645860238,0.001,16.6444935901,3100.0,0.0,3000.0,0.0
1513267520083611983,,744235,,1513267518,258669309,'',0.4,0.487439124847,-0.0735541500287,0.0874391248475,0.001,-49.7315466647,3100.0,0.0,3000.0,0.0
1513267520093578129,,744236,,1513267518,268669309,'',0.4,0.486778482666,-0.0602078485663,0.0867784826661,0.001,-86.9735523317,3100.0,0.0,3000.0,0.0
1513267520103389898,,744237,,1513267518,278669309,'',0.4,0.486250270535,-0.0495377439349,0.0862502705354,0.001,-117.850474589,3100.0,0.0,3000.0,0.0
1513267520113422624,,744238,,1513267518,288669309,'',0.4,0.485804606746,-0.040533357901,0.0858046067462,0.001,-143.908635052,3100.0,0.0,3000.0,0.0
1513267520123918614,,744239,,1513267518,298669309,'',0.4,0.485429890772,-0.0329617506344,0.0854298907724,0.001,-165.333277598,3100.0,0.0,3000.0,0.0
1513267520133712519,,744240,,1513267518,308669309,'',0.4,0.485129614366,-0.0268943388026,0.0851296143662,0.001,-183.29594786,3100.0,0.0,3000.0,0.0
1513267520143571714,,744241,,1513267518,318669309,'',0.4,0.484893074905,-0.0221161691833,0.0848930749051,0.001,-196.611414714,3100.0,0.0,3000.0,0.0
1513267520153600621,,744242,,1513267518,328669309,'',0.4,0.484694392963,-0.0181028747821,0.084694392963,0.001,-207.693892307,3100.0,0.0,3000.0,0.0
1513267520163508211,,744243,,1513267518,338669309,'',0.4,0.484511300407,-0.0203590213321,0.0845113004072,0.001,-201.816973542,3100.0,0.0,3000.0,0.0
1513267520173816032,,744244,,1513267518,348669309,'',0.4,0.484387073436,-0.011892397269,0.0843870734356,0.001,-225.767911947,3100.0,0.0,3000.0,0.0
1513267520183486626,,744245,,1513267518,358669309,'',0.4,0.484280288533,-0.00973588401283,0.0842802885334,0.001,-231.899311614,3100.0,0.0,3000.0,0.0
1513267520193293657,,744246,,1513267518,368669309,'',0.4,0.484188340669,-0.00787666143402,0.0841883406686,0.001,-237.745264386,3100.0,0.0,3000.0,0.0
1513267520203731364,,744247,,1513267518,378669309,'',0.4,0.484111711651,-0.0122855756043,0.0841117116513,0.001,-223.685961048,3100.0,0.0,3000.0,0.0
1513267520213669814,,744248,,1513267518,388669309,'',0.4,0.484064843608,-0.00538159333802,0.0840648436085,0.001,-244.360373243,3100.0,0.0,3000.0,0.0
1513267520223719016,,744249,,1513267518,398669309,'',0.4,0.484011158887,-0.0102517763468,0.0840111588873,0.001,-230.159466518,3100.0,0.0,3000.0,0.0
1513267520233568715,,744250,,1513267518,408669309,'',0.4,0.483906941962,-0.0140998420664,0.083906941962,0.001,-217.575496172,3100.0,0.0,3000.0,0.0
1513267520243409404,,744251,,1513267518,418669309,'',0.4,0.483560925201,-0.0488017258185,0.0835609252014,0.001,-115.127044991,3100.0,0.0,3000.0,0.0
1513267520253451075,,744252,,1513267518,428669309,'',0.4,0.482277855247,-0.207511466711,0.0822778552469,0.001,358.150010823,3100.0,0.0,3000.0,0.0
1513267520263385626,,744253,,1513267518,438669309,'',0.4,0.479574192014,-0.301787958484,0.079574192014,0.001,550.0,3100.0,0.0,3000.0,0.0
1513267520273415143,,744254,,1513267518,448669309,'',0.4,0.476629915095,-0.278044706559,0.0766299150949,0.001,550.0,3100.0,0.0,3000.0,0.0
1513267520283737375,,744255,,1513267518,458669309,'',0.4,0.474171142083,-0.222419386483,0.0741711420835,0.001,439.377298991,3100.0,0.0,3000.0,0.0
1513267520293666531,,744256,,1513267518,468669309,'',0.4,0.472179741068,-0.182191599318,0.0721797410676,0.001,325.547809552,3100.0,0.0,3000.0,0.0
1513267520303444863,,744257,,1513267518,478669309,'',0.4,0.470563739997,-0.143594690547,0.0705637399974,0.001,204.634313284,3100.0,0.0,3000.0,0.0
1513267520313409333,,744258,,1513267518,488669309,'',0.4,0.469242837137,-0.116911706514,0.0692428371372,0.001,137.144928178,3100.0,0.0,3000.0,0.0
1513267520323360999,,744259,,1513267518,498669309,'',0.4,0.468150179418,-0.100795227407,0.0681501794183,0.001,92.3233878928,3100.0,0.0,3000.0,0.0
1513267520333332919,,744260,,1513267518,508669309,'',0.4,0.467264006199,-0.076937117852,0.0672640061989,0.001,19.0418408795,3100.0,0.0,3000.0,0.0
1513267520343701517,,744261,,1513267518,518669309,'',0.4,0.466540773796,-0.0623254422953,0.0665407737965,0.001,-13.8260282217,3100.0,0.0,3000.0,0.0
1513267520353636204,,744262,,1513267518,528669309,'',0.4,0.465951371958,-0.0563720114064,0.065951371958,0.001,-34.8155796824,3100.0,0.0,3000.0,0.0
1513267520363596467,,744263,,1513267518,538669309,'',0.4,0.465467619094,-0.0465983442053,0.0654676190942,0.001,-62.2852622103,3100.0,0.0,3000.0,0.0
1513267520373485260,,744264,,1513267518,548669309,'',0.4,0.465065174799,-0.0325121236392,0.0650651747988,0.001,-103.579639689,3100.0,0.0,3000.0,0.0
1513267520383592004,,744265,,1513267518,558669309,'',0.4,0.464752169879,-0.0321462441535,0.0647521698786,0.001,-105.947250257,3100.0,0.0,3000.0,0.0
1513267520393295873,,744266,,1513267518,568669309,'',0.4,0.464480081888,-0.0206950347004,0.0644800818877,0.001,-137.4207707,3100.0,0.0,3000.0,0.0
1513267520403344569,,744267,,1513267518,578669309,'',0.4,0.464261846312,-0.0222401033927,0.0642618463117,0.001,-132.154596701,3100.0,0.0,3000.0,0.0
1513267520413827870,,744268,,1513267518,588669309,'',0.4,0.464094238389,-0.0128993434607,0.064094238389,0.001,-159.799628229,3100.0,0.0,3000.0,0.0
1513267520423659678,,744269,,1513267518,598669309,'',0.4,0.463946428151,-0.0099105092897,0.0639464281508,0.001,-168.315306111,3100.0,0.0,3000.0,0.0
1513267520433592401,,744270,,1513267518,608669309,'',0.4,0.463846565753,-0.0138464554808,0.0638465657526,0.001,-156.200368182,3100.0,0.0,3000.0,0.0
1513267520443534262,,744271,,1513267518,618669309,'',0.4,0.463733352221,-0.0115607742457,0.0637333522213,0.001,-162.662984837,3100.0,0.0,3000.0,0.0
1513267520453502867,,744272,,1513267518,628669309,'',0.4,0.463651660854,-0.00395347237453,0.0636516608544,0.001,-185.6578475,3100.0,0.0,3000.0,0.0
1513267520463614347,,744273,,1513267518,638669309,'',0.4,0.463588395024,-0.00267728474554,0.0635883950244,0.001,-189.040446948,3100.0,0.0,3000.0,0.0
1513267520473309818,,744274,,1513267518,648669309,'',0.4,0.463515784635,-0.0071667560031,0.063515784635,0.001,-175.302214251,3100.0,0.0,3000.0,0.0
1513267520483730581,,744275,,1513267518,658669309,'',0.4,0.463500181988,-0.000897367937596,0.0635001819877,0.001,-194.191656931,3100.0,0.0,3000.0,0.0
1513267520493589242,,744276,,1513267518,668669309,'',0.4,0.463481835064,-0.000526798408613,0.0634818350641,0.001,-195.201405383,3100.0,0.0,3000.0,0.0
1513267520503645195,,744277,,1513267518,678669309,'',0.4,0.463466681576,-0.000222941309445,0.0634666815762,0.001,-196.093732628,3100.0,0.0,3000.0,0.0
1513267520513478932,,744278,,1513267518,688669309,'',0.4,0.463442956955,-0.00570115475799,0.0634429569548,0.001,-179.487257605,3100.0,0.0,3000.0,0.0
1513267520523428699,,744279,,1513267518,698669309,'',0.4,0.463418855493,-0.00521196426801,0.0634188554932,0.001,-180.86952309,3100.0,0.0,3000.0,0.0
1513267520533474579,,744280,,1513267518,708669309,'',0.4,0.463412822528,-0.00509225763307,0.0634128225282,0.001,-181.248038274,3100.0,0.0,3000.0,0.0
1513267520543437893,,744281,,1513267518,718669309,'',0.4,0.463424456018,-0.00532616626507,0.063424456018,0.001,-180.591620306,3100.0,0.0,3000.0,0.0
1513267520553286603,,744282,,1513267518,728669309,'',0.4,0.463429457533,0.000530374673143,0.0634294575326,0.001,-198.229529808,3100.0,0.0,3000.0,0.0
1513267520563625156,,744283,,1513267518,738669309,'',0.4,0.46334536523,-0.0215964817524,0.0633453652303,0.001,-131.404359127,3100.0,0.0,3000.0,0.0
1513267520573631177,,744284,,1513267518,748669309,'',0.4,0.462957969008,-0.0554581303501,0.0629579690083,0.001,-27.8035892595,3100.0,0.0,3000.0,0.0
1513267520583561341,,744285,,1513267518,758669309,'',0.4,0.462028662144,-0.131979128372,0.0620286621441,0.001,205.235548337,3100.0,0.0,3000.0,0.0
1513267520593629087,,744286,,1513267518,768669309,'',0.4,0.460423616629,-0.171023223725,0.060423616629,0.001,328.928718363,3100.0,0.0,3000.0,0.0
1513267520603528631,,744287,,1513267518,778669309,'',0.4,0.458709698532,-0.160222634049,0.0587096985323,0.001,302.56605439,3100.0,0.0,3000.0,0.0
1513267520613557341,,744288,,1513267518,788669309,'',0.4,0.4572658073,-0.131055378111,0.0572658073004,0.001,218.447630725,3100.0,0.0,3000.0,0.0
1513267520623513562,,744289,,1513267518,798669309,'',0.4,0.456080379171,-0.113062754899,0.0560803791715,0.001,167.761968032,3100.0,0.0,3000.0,0.0
1513267520633479929,,744290,,1513267518,808669309,'',0.4,0.455097627876,-0.0872522642405,0.0550976278757,0.001,92.3245359691,3100.0,0.0,3000.0,0.0
1513267520643860698,,744291,,1513267518,818669309,'',0.4,0.454314879141,-0.0654839790781,0.0543148791408,0.001,29.6726770807,3100.0,0.0,3000.0,0.0
1513267520653191443,,744292,,1513267518,828669309,'',0.4,0.453686096457,-0.0527795548859,0.0536860964573,0.001,-10.4926194824,3100.0,0.0,3000.0,0.0
1513267520663730145,,744293,,1513267518,838669309,'',0.4,0.453146905349,-0.0537997626126,0.0531469053488,0.001,-2.5458390442,3100.0,0.0,3000.0,0.0
1513267520673577334,,744294,,1513267518,848669309,'',0.4,0.452728483167,-0.0334349561408,0.0527284831668,0.001,-62.4283004515,3100.0,0.0,3000.0,0.0
1513267520683585208,,744295,,1513267518,858669309,'',0.4,0.452369564186,-0.0321419551247,0.0523695641863,0.001,-65.3210378637,3100.0,0.0,3000.0,0.0
1513267520693520948,,744296,,1513267518,868669309,'',0.4,0.452086748742,-0.0264299934132,0.0520867487423,0.001,-81.7665100331,3100.0,0.0,3000.0,0.0
1513267520703579739,,744297,,1513267518,878669309,'',0.4,0.451866030662,-0.0219723837821,0.0518660306619,0.001,-94.6079456417,3100.0,0.0,3000.0,0.0
1513267520713423907,,744298,,1513267518,888669309,'',0.4,0.45167947091,-0.0182019986481,0.0516794709098,0.001,-105.052555437,3100.0,0.0,3000.0,0.0
1513267520723460765,,744299,,1513267518,898669309,'',0.4,0.451527661894,-0.009180249987,0.0515276618935,0.001,-132.617481413,3100.0,0.0,3000.0,0.0
1513267520733435772,,744300,,1513267518,908669309,'',0.4,0.451403117048,-0.00666570629139,0.0514031170478,0.001,-139.279202025,3100.0,0.0,3000.0,0.0
1513267520743379635,,744301,,1513267518,918669309,'',0.4,0.451289409572,-0.0162773560645,0.0512894095717,0.001,-109.873332949,3100.0,0.0,3000.0,0.0
1513267520753399301,,744302,,1513267518,928669309,'',0.4,0.451185433306,-0.0141767493823,0.0511854333059,0.001,-116.832046704,3100.0,0.0,3000.0,0.0
1513267520763666834,,744303,,1513267518,938669309,'',0.4,0.45113306857,-0.00120736051873,0.0511330685696,0.001,-154.892205866,3100.0,0.0,3000.0,0.0
1513267520773692631,,744304,,1513267518,948669309,'',0.4,0.45107347012,-0.00596196789121,0.0510734701204,0.001,-140.251608188,3100.0,0.0,3000.0,0.0
1513267520783681627,,744305,,1513267518,958669309,'',0.4,0.45102495087,-0.00498261486335,0.0510249508705,0.001,-143.163971219,3100.0,0.0,3000.0,0.0
1513267520793518602,,744306,,1513267518,968669309,'',0.4,0.450986127038,-0.00419874927349,0.050986127038,0.001,-145.408224533,3100.0,0.0,3000.0,0.0
1513267520803525001,,744307,,1513267518,978669309,'',0.4,0.45097453375,-0.00396174844495,0.0509745337503,0.001,-146.341627896,3100.0,0.0,3000.0,0.0
1513267520813491263,,744308,,1513267518,988669309,'',0.4,0.450944837088,0.00259430347309,0.0509448370883,0.001,-165.751310028,3100.0,0.0,3000.0,0.0
