rosbagTimestamp,header,seq,stamp,secs,nsecs,frame_id,set_point,process_value,process_value_dot,error,time_step,command,p,i,d,i_clamp
1513264825679436865,,474841,,1513264823,906820663,'',1.0471975512,1.08811358869,0.0010661636585,0.040916037491,0.001,-295.029060987,7200.0,0.0,410.0,0.0
1513264825689291631,,474842,,1513264823,916820663,'',1.0471975512,1.08809817222,0.00138059168928,0.0409006210217,0.001,-295.049828377,7200.0,0.0,410.0,0.0
1513264825699213178,,474843,,1513264823,926820663,'',1.0471975512,1.08811048261,0.00113060261695,0.0409129314127,0.001,-295.036980263,7200.0,0.0,410.0,0.0
1513264825709140851,,474844,,1513264823,936820663,'',1.0471975512,1.08809132054,0.00151610058672,0.0408937693446,0.001,-295.057473829,7200.0,0.0,410.0,0.0
1513264825719140701,,474845,,1513264823,946820663,'',1.0471975512,1.0881048973,0.00124105351862,0.0409073461065,0.001,-295.042812968,7200.0,0.0,410.0,0.0
1513264825729110100,,474846,,1513264823,956820663,'',1.0471975512,1.0881159878,0.00101637477923,0.0409184366075,0.001,-295.030749434,7200.0,0.0,410.0,0.0
1513264825739081027,,474847,,1513264823,966820663,'',1.0471975512,1.08812508871,0.000832002550561,0.0409275375147,0.001,-295.021186266,7200.0,0.0,410.0,0.0
1513264825749101560,,474848,,1513264823,976820663,'',1.0471975512,1.08813252186,0.000681416864355,0.0409349706644,0.001,-295.005931678,7200.0,0.0,410.0,0.0
1513264825759021613,,474849,,1513264823,986820663,'',1.0471975512,1.08811274095,0.00107489041386,0.0409151897526,0.001,-295.034424253,7200.0,0.0,410.0,0.0
1513264825768931852,,474850,,1513264823,996820663,'',1.0471975512,1.08812243168,0.000879886560263,0.0409248804792,0.001,-295.021973471,7200.0,0.0,410.0,0.0
1513264825779135479,,474851,,1513264824,6820663,'',1.0471975512,1.0881019227,0.00130299036037,0.0409043715026,0.001,-295.046155917,7200.0,0.0,410.0,0.0
1513264825789325317,,474852,,1513264824,16820663,'',1.0471975512,1.08808825352,0.00157346945354,0.0408907023219,0.001,-295.06089617,7200.0,0.0,410.0,0.0
1513264825799271966,,474853,,1513264824,26820663,'',1.0471975512,1.08810236358,0.00128848152947,0.0409048123807,0.001,-295.037644799,7200.0,0.0,410.0,0.0
1513264825809051607,,474854,,1513264824,36820663,'',1.0471975512,1.08808906404,0.00156229334633,0.0408915128443,0.001,-295.059991748,7200.0,0.0,410.0,0.0
1513264825819080214,,474855,,1513264824,46820663,'',1.0471975512,1.08810308537,0.00127815282689,0.0409055341726,0.001,-295.060202782,7200.0,0.0,410.0,0.0
1513264825828918974,,474856,,1513264824,56820663,'',1.0471975512,1.08806534615,0.00204409250275,0.0408677949523,0.001,-295.069569436,7200.0,0.0,410.0,0.0
1513264825838923065,,474857,,1513264824,66820663,'',1.0471975512,1.08808359222,0.0016741284059,0.0408860410192,0.001,-295.065438728,7200.0,0.0,410.0,0.0
1513264825849369378,,474858,,1513264824,76820663,'',1.0471975512,1.08809856555,0.0013705234307,0.0409010143552,0.001,-295.049389475,7200.0,0.0,410.0,0.0
1513264825859280761,,474859,,1513264824,86820663,'',1.0471975512,1.08811080234,0.00112240562425,0.0409132511483,0.001,-295.016751185,7200.0,0.0,410.0,0.0
1513264825869334623,,474860,,1513264824,96820663,'',1.0471975512,1.08806738112,0.00200051659815,0.0408698299242,0.001,-295.083398556,7200.0,0.0,410.0,0.0
1513264825879153881,,474861,,1513264824,106820663,'',1.0471975512,1.08808530053,0.00163759583213,0.0408877493286,0.001,-295.062739741,7200.0,0.0,410.0,0.0
1513264825889032790,,474862,,1513264824,116820663,'',1.0471975512,1.08804191876,-0.027763788515,0.0408443675652,0.001,-282.843016474,7200.0,0.0,410.0,0.0
1513264825899449651,,474863,,1513264824,126820663,'',1.0471975512,1.08806445544,0.00206056059653,0.0408669042461,0.001,-295.089074225,7200.0,0.0,410.0,0.0
1513264825909304780,,474864,,1513264824,136820663,'',1.0471975512,1.08803208663,0.00271283309465,0.0408345354355,0.001,-295.124639788,7200.0,0.0,410.0,0.0
1513264825919303650,,474865,,1513264824,146820663,'',1.0471975512,1.08802767575,0.00279393411648,0.0408301245538,0.001,-295.129596869,7200.0,0.0,410.0,0.0
1513264825929348030,,474866,,1513264824,156820663,'',1.0471975512,1.08802688963,0.00281571310928,0.0408293384324,0.001,-295.129369141,7200.0,0.0,410.0,0.0
1513264825939320690,,474867,,1513264824,166820663,'',1.0471975512,1.0880785207,0.00177098128049,0.0408809695033,0.001,-295.057075598,7200.0,0.0,410.0,0.0
1513264825949307482,,474868,,1513264824,176820663,'',1.0471975512,1.08806961741,0.001957786493,0.0408720662109,0.001,-295.028577632,7200.0,0.0,410.0,0.0
1513264825959630902,,474869,,1513264824,186820663,'',1.0471975512,1.0880871281,0.00160267868211,0.040889576908,0.001,-295.033001582,7200.0,0.0,410.0,0.0
1513264825969269634,,474870,,1513264824,196820663,'',1.0471975512,1.08810144848,0.00131226894978,0.0409038972826,0.001,-295.030430047,7200.0,0.0,410.0,0.0
1513264825979056628,,474871,,1513264824,206820663,'',1.0471975512,1.08808823033,0.00158238030459,0.0408906791375,0.001,-295.061543809,7200.0,0.0,410.0,0.0
1513264825988985215,,474872,,1513264824,216820663,'',1.0471975512,1.0881023665,0.00129533364688,0.0409048153002,0.001,-295.046802401,7200.0,0.0,410.0,0.0
1513264825998972017,,474873,,1513264824,226820663,'',1.0471975512,1.08811393808,0.00106036282978,0.0409163868883,0.001,-295.030465339,7200.0,0.0,410.0,0.0
1513264826009014556,,474874,,1513264824,236820663,'',1.0471975512,1.08812339022,0.000868429228568,0.0409258390263,0.001,-295.018788611,7200.0,0.0,410.0,0.0
1513264826018983370,,474875,,1513264824,246820663,'',1.0471975512,1.08807469864,0.00183445855815,0.040877147439,0.001,-295.076933574,7200.0,0.0,410.0,0.0
1513264826029099203,,474876,,1513264824,256820663,'',1.0471975512,1.08809131303,0.00150121192344,0.0408937618346,0.001,-295.051809645,7200.0,0.0,410.0,0.0
1513264826039023079,,474877,,1513264824,266820663,'',1.0471975512,1.08810484352,0.00122982141896,0.0409072923214,0.001,-295.041405798,7200.0,0.0,410.0,0.0
1513264826049400243,,474878,,1513264824,276820663,'',1.0471975512,1.08811154359,-0.0291952950379,0.0409139923965,0.001,-282.533230634,7200.0,0.0,410.0,0.0
1513264826059307266,,474879,,1513264824,286820663,'',1.0471975512,1.08812143448,0.00088951881361,0.0409238832871,0.001,-295.017538403,7200.0,0.0,410.0,0.0
1513264826069190363,,474880,,1513264824,296820663,'',1.0471975512,1.08810364723,0.00125604546814,0.0409060960308,0.001,-295.04833297,7200.0,0.0,410.0,0.0
1513264826079083374,,474881,,1513264824,306820663,'',1.0471975512,1.08805874287,0.0021695015597,0.0408611916759,0.001,-295.096396839,7200.0,0.0,410.0,0.0
1513264826088945024,,474882,,1513264824,316820663,'',1.0471975512,1.08807818743,0.00177677166507,0.0408806362379,0.001,-295.058794893,7200.0,0.0,410.0,0.0
1513264826099006840,,474883,,1513264824,326820663,'',1.0471975512,1.08809414677,0.00145443432055,0.0408965955743,0.001,-295.056043896,7200.0,0.0,410.0,0.0
1513264826109277214,,474884,,1513264824,336820663,'',1.0471975512,1.08810722851,0.00119021698411,0.0409096773144,0.001,-295.050539429,7200.0,0.0,410.0,0.0
1513264826119181018,,474885,,1513264824,346820663,'',1.0471975512,1.08811789697,0.000974741625806,0.0409203457764,0.001,-295.027818485,7200.0,0.0,410.0,0.0
1513264826129164784,,474886,,1513264824,356820663,'',1.0471975512,1.08810080769,0.00132026502566,0.0409032564952,0.001,-295.028774562,7200.0,0.0,410.0,0.0
1513264826139153177,,474887,,1513264824,366820663,'',1.0471975512,1.0880867735,0.0016021913975,0.0408892223062,0.001,-295.063339389,7200.0,0.0,410.0,0.0
1513264826149058303,,474888,,1513264824,376820663,'',1.0471975512,1.08807625865,0.00180933246564,0.0408787074554,0.001,-295.075177269,7200.0,0.0,410.0,0.0
1513264826159223356,,474889,,1513264824,386820663,'',1.0471975512,1.088064265,0.00205093222846,0.0408667138071,0.001,-295.091932118,7200.0,0.0,410.0,0.0
1513264826169161027,,474890,,1513264824,396820663,'',1.0471975512,1.08808273022,0.00167925769835,0.0408851790268,0.001,-295.068557082,7200.0,0.0,410.0,0.0
1513264826179014114,,474891,,1513264824,406820663,'',1.0471975512,1.08807038662,0.00193562521421,0.0408728354247,0.001,-295.080832969,7200.0,0.0,410.0,0.0
1513264826189091483,,474892,,1513264824,416820663,'',1.0471975512,1.08808772826,0.00158513407666,0.0408901770612,0.001,-295.047718272,7200.0,0.0,410.0,0.0
1513264826198940237,,474893,,1513264824,426820663,'',1.0471975512,1.08807442166,0.00185330095304,0.0408768704608,0.001,-295.077062414,7200.0,0.0,410.0,0.0
1513264826208873661,,474894,,1513264824,436820663,'',1.0471975512,1.08809106274,0.00151710879826,0.0408935115425,0.001,-295.058510461,7200.0,0.0,410.0,0.0
1513264826219322842,,474895,,1513264824,446820663,'',1.0471975512,1.08810465666,0.00124247706276,0.0409071054621,0.001,-295.031309063,7200.0,0.0,410.0,0.0
1513264826229241727,,474896,,1513264824,456820663,'',1.0471975512,1.08811581282,0.00101709431959,0.0409182616197,0.001,-295.030144094,7200.0,0.0,410.0,0.0
1513264826239191680,,474897,,1513264824,466820663,'',1.0471975512,1.08809574215,0.00142284530269,0.0408981909495,0.001,-295.053101809,7200.0,0.0,410.0,0.0
1513264826249131922,,474898,,1513264824,476820663,'',1.0471975512,1.08807976778,0.00174406358247,0.0408822165853,0.001,-295.057270991,7200.0,0.0,410.0,0.0
1513264826258814248,,474899,,1513264824,486820663,'',1.0471975512,1.08806795532,0.00198371495351,0.0408704041278,0.001,-295.084329474,7200.0,0.0,410.0,0.0
1513264826268825731,,474900,,1513264824,496820663,'',1.0471975512,1.08806044298,0.00214131669292,0.0408628917795,0.001,-295.095302608,7200.0,0.0,410.0,0.0
1513264826279332618,,474901,,1513264824,506820663,'',1.0471975512,1.08805148892,0.00232118996372,0.0408539377248,0.001,-295.082939315,7200.0,0.0,410.0,0.0
1513264826289235320,,474902,,1513264824,516820663,'',1.0471975512,1.08807229139,0.00190009471238,0.0408747401891,0.001,-295.078707535,7200.0,0.0,410.0,0.0
1513264826299282964,,474903,,1513264824,526820663,'',1.0471975512,1.0880893189,0.00155541408476,0.040891767706,0.001,-295.062926174,7200.0,0.0,410.0,0.0
1513264826308937952,,474904,,1513264824,536820663,'',1.0471975512,1.0880234713,0.00289202131154,0.0408259201007,0.001,-295.16421453,7200.0,0.0,410.0,0.0
1513264826319081451,,474905,,1513264824,546820663,'',1.0471975512,1.08804930306,0.00236845347757,0.0408517518614,0.001,-295.10738933,7200.0,0.0,410.0,0.0
1513264826328999539,,474906,,1513264824,556820663,'',1.0471975512,1.08807045097,0.00193981968449,0.0408728997717,0.001,-295.063201779,7200.0,0.0,410.0,0.0
1513264826338838965,,474907,,1513264824,566820663,'',1.0471975512,1.08808781533,0.0015878723012,0.0408902641322,0.001,-295.06279157,7200.0,0.0,410.0,0.0
1513264826349351678,,474908,,1513264824,576820663,'',1.0471975512,1.08810309568,0.0012848196565,0.040905544487,0.001,-295.045340852,7200.0,0.0,410.0,0.0
1513264826359537381,,474909,,1513264824,586820663,'',1.0471975512,1.08809044929,0.00155313699932,0.0408928980903,0.001,-295.044555738,7200.0,0.0,410.0,0.0
1513264826368800726,,474910,,1513264824,596820663,'',1.0471975512,1.08810418293,0.00127139513024,0.0409066317309,0.001,-295.029156006,7200.0,0.0,410.0,0.0
1513264826379230039,,474911,,1513264824,606820663,'',1.0471975512,1.08808739302,0.00160222404262,0.0408898418215,0.001,-295.064527351,7200.0,0.0,410.0,0.0
1513264826389235718,,474912,,1513264824,616820663,'',1.0471975512,1.0880449194,0.00246264323477,0.0408473682014,0.001,-295.076855432,7200.0,0.0,410.0,0.0
1513264826399231389,,474913,,1513264824,626820663,'',1.0471975512,1.08801142049,0.0031303259031,0.0408138692945,0.001,-295.179046974,7200.0,0.0,410.0,0.0
1513264826409232693,,474914,,1513264824,636820663,'',1.0471975512,1.08803943633,0.00256356681448,0.0408418851348,0.001,-295.120677308,7200.0,0.0,410.0,0.0
1513264826419144924,,474915,,1513264824,646820663,'',1.0471975512,1.08803543343,0.00263750965345,0.0408378822317,0.001,-295.121921603,7200.0,0.0,410.0,0.0
1513264826429160930,,474916,,1513264824,656820663,'',1.0471975512,1.08805910009,0.00216000798432,0.040861548894,0.001,-295.094281251,7200.0,0.0,410.0,0.0
1513264826439230183,,474917,,1513264824,666820663,'',1.0471975512,1.08799687642,0.00340962516444,0.040799325224,0.001,-295.162859417,7200.0,0.0,410.0,0.0
1513264826449075922,,474918,,1513264824,676820663,'',1.0471975512,1.08802752619,0.00279228441788,0.0408299749924,0.001,-295.104329633,7200.0,0.0,410.0,0.0
1513264826458900605,,474919,,1513264824,686820663,'',1.0471975512,1.08802472201,0.00285193098012,0.0408271708124,0.001,-295.125863666,7200.0,0.0,410.0,0.0
1513264826469295540,,474920,,1513264824,696820663,'',1.0471975512,1.0880503787,0.0023345855269,0.0408528275005,0.001,-295.102235074,7200.0,0.0,410.0,0.0
1513264826479310035,,474921,,1513264824,706820663,'',1.0471975512,1.08801290763,-0.0271937641111,0.0408153564364,0.001,-282.680745241,7200.0,0.0,410.0,0.0
1513264826489259753,,474922,,1513264824,716820663,'',1.0471975512,1.08804070986,0.00252736069929,0.0408431586665,0.001,-295.031187367,7200.0,0.0,410.0,0.0
1513264826499170846,,474923,,1513264824,726820663,'',1.0471975512,1.08806342078,0.00206981055548,0.0408658695793,0.001,-295.070575952,7200.0,0.0,410.0,0.0
1513264826509134638,,474924,,1513264824,736820663,'',1.0471975512,1.08808205904,0.00169431084934,0.0408845078449,0.001,-295.069989107,7200.0,0.0,410.0,0.0
1513264826519036972,,474925,,1513264824,746820663,'',1.0471975512,1.08807240095,0.00189106193586,0.040874849755,0.001,-295.078585276,7200.0,0.0,410.0,0.0
1513264826528946633,,474926,,1513264824,756820663,'',1.0471975512,1.08806139332,0.00211547089239,0.0408638421185,0.001,-295.073318032,7200.0,0.0,410.0,0.0
1513264826538873800,,474927,,1513264824,766820663,'',1.0471975512,1.08805495719,0.00224513026243,0.0408574059976,0.001,-295.096275468,7200.0,0.0,410.0,0.0
1513264826549259541,,474928,,1513264824,776820663,'',1.0471975512,1.08804527475,-0.0278396019291,0.0408477235519,0.001,-282.622639027,7200.0,0.0,410.0,0.0
1513264826559241662,,474929,,1513264824,786820663,'',1.0471975512,1.08806716349,0.00199976526531,0.0408696122922,0.001,-295.069622483,7200.0,0.0,410.0,0.0
1513264826569145141,,474930,,1513264824,796820663,'',1.0471975512,1.08803379417,0.00266496035502,0.0408362429735,0.001,-295.121928725,7200.0,0.0,410.0,0.0
1513264826579056078,,474931,,1513264824,806820663,'',1.0471975512,1.08808305994,0.0016645347216,0.0408855087454,0.001,-295.068183246,7200.0,0.0,410.0,0.0
1513264826588999024,,474932,,1513264824,816820663,'',1.0471975512,1.08807164131,0.00189856732338,0.0408740901151,0.001,-295.065861061,7200.0,0.0,410.0,0.0
1513264826599018417,,474933,,1513264824,826820663,'',1.0471975512,1.08806019553,0.00213973842203,0.0408626443329,0.001,-295.097700443,7200.0,0.0,410.0,0.0
1513264826609031782,,474934,,1513264824,836820663,'',1.0471975512,1.08805037404,-0.0279339544528,0.040852822842,0.001,-282.939567755,7200.0,0.0,410.0,0.0
1513264826618928103,,474935,,1513264824,846820663,'',1.0471975512,1.08804213357,-0.0277615331944,0.0408445823735,0.001,-282.878444548,7200.0,0.0,410.0,0.0
1513264826628909820,,474936,,1513264824,856820663,'',1.0471975512,1.08803659435,0.00262681101788,0.0408390431546,0.001,-295.118798554,7200.0,0.0,410.0,0.0
1513264826638762395,,474937,,1513264824,866820663,'',1.0471975512,1.08806005235,0.00215121548421,0.0408625011582,0.001,-295.075435962,7200.0,0.0,410.0,0.0
1513264826649240703,,474938,,1513264824,876820663,'',1.0471975512,1.08807930171,0.00176094750532,0.0408817505141,0.001,-295.07313738,7200.0,0.0,410.0,0.0
1513264826659157685,,474939,,1513264824,886820663,'',1.0471975512,1.08806464379,-0.0282306169465,0.0408670925979,0.001,-282.366532235,7200.0,0.0,410.0,0.0
1513264826669041899,,474940,,1513264824,896820663,'',1.0471975512,1.08805379771,0.00226110903175,0.0408562465172,0.001,-295.081417318,7200.0,0.0,410.0,0.0
1513264826679120235,,474941,,1513264824,906820663,'',1.0471975512,1.08807418352,0.00185086914531,0.0408766323283,0.001,-295.063572769,7200.0,0.0,410.0,0.0
1513264826689035072,,474942,,1513264824,916820663,'',1.0471975512,1.08803851481,0.00257839274543,0.0408409636158,0.001,-295.114360346,7200.0,0.0,410.0,0.0
1513264826699239242,,474943,,1513264824,926820663,'',1.0471975512,1.08803663027,0.0026112075183,0.0408390790764,0.001,-295.097834659,7200.0,0.0,410.0,0.0
1513264826709189246,,474944,,1513264824,936820663,'',1.0471975512,1.08800478164,-0.0270372627603,0.0408072304385,0.001,-282.679141173,7200.0,0.0,410.0,0.0
1513264826719084896,,474945,,1513264824,946820663,'',1.0471975512,1.08803404987,0.00265539739077,0.0408364986772,0.001,-295.12032533,7200.0,0.0,410.0,0.0
1513264826728950373,,474946,,1513264824,956820663,'',1.0471975512,1.08802742009,-0.0274968935525,0.0408298688981,0.001,-282.333469291,7200.0,0.0,410.0,0.0
1513264826738945593,,474947,,1513264824,966820663,'',1.0471975512,1.08805248928,0.00227571704668,0.0408549380865,0.001,-295.105565361,7200.0,0.0,410.0,0.0
1513264826749385799,,474948,,1513264824,976820663,'',1.0471975512,1.08807310139,0.00186304886318,0.0408755501976,0.001,-295.077061222,7200.0,0.0,410.0,0.0
1513264826759284152,,474949,,1513264824,986820663,'',1.0471975512,1.08808994673,0.00152579398522,0.0408923955355,0.001,-295.046239935,7200.0,0.0,410.0,0.0
1513264826769155756,,474950,,1513264824,996820663,'',1.0471975512,1.08810377154,0.0012490121885,0.0409062203405,0.001,-295.043082612,7200.0,0.0,410.0,0.0
1513264826779233937,,474951,,1513264825,6820663,'',1.0471975512,1.08809334702,0.031750927685,0.0408957958211,0.001,-307.560194203,7200.0,0.0,410.0,0.0
1513264826789243503,,474952,,1513264825,16820663,'',1.0471975512,1.08807673122,-0.0284741393248,0.0408791800265,0.001,-282.60952761,7200.0,0.0,410.0,0.0
1513264826798949512,,474953,,1513264825,26820663,'',1.0471975512,1.0880929516,0.00147956854749,0.0408954004034,0.001,-295.056237908,7200.0,0.0,410.0,0.0
1513264826809055107,,474954,,1513264825,36820663,'',1.0471975512,1.08808150677,0.00171854997624,0.0408839555763,0.001,-295.072646084,7200.0,0.0,410.0,0.0
1513264826818961330,,474955,,1513264825,46820663,'',1.0471975512,1.08809682922,0.00140747957982,0.0408992780243,0.001,-295.042063114,7200.0,0.0,410.0,0.0
1513264826829463662,,474956,,1513264825,56820663,'',1.0471975512,1.08788787041,-0.0246526182567,0.0406903192115,0.001,-282.800790678,7200.0,0.0,410.0,0.0
1513264826839289793,,474957,,1513264825,66820663,'',1.0471975512,1.08735714469,-0.0744926279266,0.0401595934973,0.001,-258.425182664,7200.0,0.0,410.0,0.0
1513264826849217770,,474958,,1513264825,76820663,'',1.0471975512,1.08636004794,-0.114916093471,0.0391624967453,0.001,-234.804336727,7200.0,0.0,410.0,0.0
1513264826859295929,,474959,,1513264825,86820663,'',1.0471975512,1.08496613261,-0.147317791311,0.0377685814133,0.001,-211.106046149,7200.0,0.0,410.0,0.0
1513264826868857459,,474960,,1513264825,96820663,'',1.0471975512,1.08328456701,-0.173914103369,0.0360870158126,0.001,-189.976856599,7200.0,0.0,410.0,0.0
1513264826878904621,,474961,,1513264825,106820663,'',1.0471975512,1.08138545276,-0.196105713805,0.034187901562,0.001,-165.182031263,7200.0,0.0,410.0,0.0
1513264826889404991,,474962,,1513264825,116820663,'',1.0471975512,1.07959683018,-0.159970099371,0.0323992789876,0.001,-167.429578316,7200.0,0.0,410.0,0.0
1513264826899359868,,474963,,1513264825,126820663,'',1.0471975512,1.07797151827,-0.15741607881,0.0307739670709,0.001,-156.778958886,7200.0,0.0,410.0,0.0
1513264826909446816,,474964,,1513264825,136820663,'',1.0471975512,1.07655786857,-0.128855601014,0.0293603173725,0.001,-158.241881536,7200.0,0.0,410.0,0.0
1513264826919322735,,474965,,1513264825,146820663,'',1.0471975512,1.07529038922,-0.133528219216,0.0280928380237,0.001,-147.201004485,7200.0,0.0,410.0,0.0
1513264826929451185,,474966,,1513264825,156820663,'',1.0471975512,1.07406094908,-0.138968915942,0.0268633978858,0.001,-136.337606,7200.0,0.0,410.0,0.0
1513264826939232623,,474967,,1513264825,166820663,'',1.0471975512,1.07275361997,-0.142837321405,0.0255560687779,0.001,-125.081751161,7200.0,0.0,410.0,0.0
1513264826949292611,,474968,,1513264825,176820663,'',1.0471975512,1.07125296249,-0.142794784029,0.024055411292,0.001,-115.659441953,7200.0,0.0,410.0,0.0
1513264826959009260,,474969,,1513264825,186820663,'',1.0471975512,1.06955638385,-0.169080714224,0.0223588326523,0.001,-91.183301374,7200.0,0.0,410.0,0.0
1513264826969523240,,474970,,1513264825,196820663,'',1.0471975512,1.06781677124,-0.164198819286,0.0206192200481,0.001,-82.2223010023,7200.0,0.0,410.0,0.0
1513264826979618223,,474971,,1513264825,206820663,'',1.0471975512,1.0661236549,-0.160275812175,0.0189261037001,0.001,-71.6780795508,7200.0,0.0,410.0,0.0
1513264826989300338,,474972,,1513264825,216820663,'',1.0471975512,1.06454383216,-0.15864522487,0.0173462809602,0.001,-59.9131837003,7200.0,0.0,410.0,0.0
1513264826999453617,,474973,,1513264825,226820663,'',1.0471975512,1.06303851846,-0.128247839904,0.0158409672668,0.001,-62.0615665794,7200.0,0.0,410.0,0.0
1513264827009447849,,474974,,1513264825,236820663,'',1.0471975512,1.06164092428,-0.130288720484,0.0144433730803,0.001,-50.3592149628,7200.0,0.0,410.0,0.0
1513264827019427246,,474975,,1513264825,246820663,'',1.0471975512,1.06027521637,-0.132974878388,0.0130776651709,0.001,-39.3532637988,7200.0,0.0,410.0,0.0
1513264827029191226,,474976,,1513264825,256820663,'',1.0471975512,1.05880778615,-0.133613466547,0.0116102349489,0.001,-28.3678344925,7200.0,0.0,410.0,0.0
1513264827038991574,,474977,,1513264825,266820663,'',1.0471975512,1.05727495036,-0.163214982288,0.0100773991596,0.001,-4.97119227921,7200.0,0.0,410.0,0.0
1513264827049074268,,474978,,1513264825,276820663,'',1.0471975512,1.05559101601,-0.159475323658,0.00839346481691,0.001,3.88873858778,7200.0,0.0,410.0,0.0
1513264827058928913,,474979,,1513264825,286820663,'',1.0471975512,1.05396445262,-0.156893773574,0.00676690142225,0.001,16.1856663144,7200.0,0.0,410.0,0.0
1513264827069623023,,474980,,1513264825,296820663,'',1.0471975512,1.05238833614,-0.155332875995,0.00519078494232,0.001,26.4431606142,7200.0,0.0,410.0,0.0
1513264827079443696,,474981,,1513264825,306820663,'',1.0471975512,1.05082810221,-0.154100944183,0.00363055101739,0.001,35.9505002914,7200.0,0.0,410.0,0.0
1513264827089422023,,474982,,1513264825,316820663,'',1.0471975512,1.04933294952,-0.154176375317,0.00213539831949,0.001,46.1675749245,7200.0,0.0,410.0,0.0
1513264827099364850,,474983,,1513264825,326820663,'',1.0471975512,1.04797811143,-0.126798417144,0.000780560234089,0.001,45.4716791641,7200.0,0.0,410.0,0.0
1513264827109384485,,474984,,1513264825,336820663,'',1.0471975512,1.04686274562,-0.10426521625,0.0,0.001,-93.3535163748,7200.0,0.0,410.0,0.0
1513264827119636115,,474985,,1513264825,346820663,'',1.0471975512,1.04590232116,-0.0848564754054,0.0,0.001,0.0,7200.0,0.0,410.0,0.0
1513264827129365349,,474986,,1513264825,356820663,'',1.0471975512,1.04502821129,-0.097475959852,0.0,0.001,0.0,7200.0,0.0,410.0,0.0
1513264827139665347,,474987,,1513264825,366820663,'',1.0471975512,1.04423737708,-0.0815028439248,0.0,0.001,0.0,7200.0,0.0,410.0,0.0
1513264827149679013,,474988,,1513264825,376820663,'',1.0471975512,1.04350559636,-0.0667196708919,0.0,0.001,0.0,7200.0,0.0,410.0,0.0
1513264827159676616,,474989,,1513264825,386820663,'',1.0471975512,1.04287861096,-0.0540526159425,0.0,0.001,0.0,7200.0,0.0,410.0,0.0
1513264827169533625,,474990,,1513264825,396820663,'',1.0471975512,1.04231001467,-0.042574308997,0.0,0.001,0.0,7200.0,0.0,410.0,0.0
1513264827179599001,,474991,,1513264825,406820663,'',1.0471975512,1.04186961853,-0.0639556131932,0.0,0.001,0.0,7200.0,0.0,410.0,0.0
1513264827189330881,,474992,,1513264825,416820663,'',1.0471975512,1.04142962112,-0.0550460558691,0.0,0.001,0.0,7200.0,0.0,410.0,0.0
1513264827199134657,,474993,,1513264825,426820663,'',1.0471975512,1.04104224951,-0.0472177708578,0.0,0.001,0.0,7200.0,0.0,410.0,0.0
1513264827209396536,,474994,,1513264825,436820663,'',1.0471975512,1.04064391186,-0.0391680231794,0.0,0.001,0.0,7200.0,0.0,410.0,0.0
1513264827219401161,,474995,,1513264825,446820663,'',1.0471975512,1.04034514883,-0.0331275148608,0.0,0.001,0.0,7200.0,0.0,410.0,0.0
1513264827229632275,,474996,,1513264825,456820663,'',1.0471975512,1.04004745227,-0.0271181235715,0.0,0.001,0.0,7200.0,0.0,410.0,0.0
1513264827239446269,,474997,,1513264825,466820663,'',1.0471975512,1.03980417798,-0.0222073165663,0.0,0.001,0.0,7200.0,0.0,410.0,0.0
1513264827249569232,,474998,,1513264825,476820663,'',1.0471975512,1.03960459734,-0.0181785223258,0.0,0.001,0.0,7200.0,0.0,410.0,0.0
1513264827259458737,,474999,,1513264825,486820663,'',1.0471975512,1.03941232153,-0.0143032499952,0.0,0.001,0.0,7200.0,0.0,410.0,0.0
1513264827269320983,,475000,,1513264825,496820663,'',1.0471975512,1.03925792817,-0.0111902034081,0.0,0.001,0.0,7200.0,0.0,410.0,0.0
1513264827279506210,,475001,,1513264825,506820663,'',1.0471975512,1.03913049577,-0.00861511343505,0.0,0.001,0.0,7200.0,0.0,410.0,0.0
1513264827289418021,,475002,,1513264825,516820663,'',1.0471975512,1.03897297106,-0.00542009795184,0.0,0.001,0.0,7200.0,0.0,410.0,0.0
1513264827299536985,,475003,,1513264825,526820663,'',1.0471975512,1.03878409586,-0.0318754152681,0.0,0.001,0.0,7200.0,0.0,410.0,0.0
1513264827309542462,,475004,,1513264825,536820663,'',1.0471975512,1.03873993461,-0.0309846633869,0.0,0.001,0.0,7200.0,0.0,410.0,0.0
1513264827319561926,,475005,,1513264825,546820663,'',1.0471975512,1.03865020444,0.00111195488087,0.0,0.001,0.0,7200.0,0.0,410.0,0.0
1513264827329596926,,475006,,1513264825,556820663,'',1.0471975512,1.03849506827,0.00423367436847,0.0,0.001,0.0,7200.0,0.0,410.0,0.0
1513264827339442424,,475007,,1513264825,566820663,'',1.0471975512,1.03836735885,-0.0234809047914,0.0,0.001,0.0,7200.0,0.0,410.0,0.0
1513264827349396808,,475008,,1513264825,576820663,'',1.0471975512,1.03821430696,-0.0203832117008,0.0,0.001,0.0,7200.0,0.0,410.0,0.0
1513264827359392347,,475009,,1513264825,586820663,'',1.0471975512,1.03811476815,0.0119118955649,0.0,0.001,0.0,7200.0,0.0,410.0,0.0
1513264827369573434,,475010,,1513264825,596820663,'',1.0471975512,1.03805359085,-0.0171267189632,0.0,0.001,0.0,7200.0,0.0,410.0,0.0
1513264827378996446,,475011,,1513264825,606820663,'',1.0471975512,1.03792528547,-0.0145380212327,0.0,0.001,0.0,7200.0,0.0,410.0,0.0
1513264827389496826,,475012,,1513264825,616820663,'',1.0471975512,1.03785205533,0.0172260249862,0.0,0.001,0.0,7200.0,0.0,410.0,0.0
1513264827399339517,,475013,,1513264825,626820663,'',1.0471975512,1.03787320018,0.0167933533798,0.0,0.001,0.0,7200.0,0.0,410.0,0.0
1513264827409231433,,475014,,1513264825,636820663,'',1.0471975512,1.0378088707,-0.0121824501065,0.0,0.001,0.0,7200.0,0.0,410.0,0.0
1513264827419154490,,475015,,1513264825,646820663,'',1.0471975512,1.03772425513,-0.0104766369155,0.0,0.001,0.0,7200.0,0.0,410.0,0.0
1513264827429447495,,475016,,1513264825,656820663,'',1.0471975512,1.03765784046,-0.00913650552383,0.0,0.001,0.0,7200.0,0.0,410.0,0.0
1513264827439210751,,475017,,1513264825,666820663,'',1.0471975512,1.03757567384,-0.00747795005326,0.0,0.001,0.0,7200.0,0.0,410.0,0.0
1513264827449375318,,475018,,1513264825,676820663,'',1.0471975512,1.03736981878,-0.0336011979206,0.0,0.001,0.0,7200.0,0.0,410.0,0.0
1513264827459466066,,475019,,1513264825,686820663,'',1.0471975512,1.03709671299,-0.0280832813294,0.0,0.001,0.0,7200.0,0.0,410.0,0.0
1513264827469576064,,475020,,1513264825,696820663,'',1.0471975512,1.03698055339,0.00452178827182,0.0,0.001,0.0,7200.0,0.0,410.0,0.0
1513264827479398411,,475021,,1513264825,706820663,'',1.0471975512,1.03685846943,-0.023284498602,0.0,0.001,0.0,7200.0,0.0,410.0,0.0
1513264827489103034,,475022,,1513264825,716820663,'',1.0471975512,1.03686918623,0.00678515521028,0.0,0.001,0.0,7200.0,0.0,410.0,0.0
1513264827499009452,,475023,,1513264825,726820663,'',1.0471975512,1.03690264198,0.00611157421602,0.0,0.001,0.0,7200.0,0.0,410.0,0.0
1513264827509048613,,475024,,1513264825,736820663,'',1.0471975512,1.0369575174,0.00500313827357,0.0,0.001,0.0,7200.0,0.0,410.0,0.0
1513264827518999068,,475025,,1513264825,746820663,'',1.0471975512,1.036977128,0.00460220558152,0.0,0.001,0.0,7200.0,0.0,410.0,0.0
1513264827529001445,,475026,,1513264825,756820663,'',1.0471975512,1.03698920555,-0.0259149132981,0.0,0.001,0.0,7200.0,0.0,410.0,0.0
1513264827538862465,,475027,,1513264825,766820663,'',1.0471975512,1.03697532101,0.00463684254555,0.0,0.001,0.0,7200.0,0.0,410.0,0.0
1513264827549317393,,475028,,1513264825,776820663,'',1.0471975512,1.03701701487,0.00379587379424,0.0,0.001,0.0,7200.0,0.0,410.0,0.0
1513264827559297653,,475029,,1513264825,786820663,'',1.0471975512,1.03705108514,0.00310867366451,0.0,0.001,0.0,7200.0,0.0,410.0,0.0
1513264827569160562,,475030,,1513264825,796820663,'',1.0471975512,1.03699613336,-0.0260484223338,0.0,0.001,0.0,7200.0,0.0,410.0,0.0
1513264827579057900,,475031,,1513264825,806820663,'',1.0471975512,1.03694967327,0.0051757176827,0.0,0.001,0.0,7200.0,0.0,410.0,0.0
1513264827588912203,,475032,,1513264825,816820663,'',1.0471975512,1.03685974011,0.00698414863113,0.0,0.001,0.0,7200.0,0.0,410.0,0.0
1513264827599373143,,475033,,1513264825,826820663,'',1.0471975512,1.03667856435,-0.0196307348065,0.0,0.001,0.0,7200.0,0.0,410.0,0.0
1513264827609361228,,475034,,1513264825,836820663,'',1.0471975512,1.03644327524,-0.0451589316303,0.0,0.001,0.0,7200.0,0.0,410.0,0.0
1513264827619303893,,475035,,1513264825,846820663,'',1.0471975512,1.03595138695,-0.0655038195644,0.0,0.001,0.0,7200.0,0.0,410.0,0.0
1513264827629309456,,475036,,1513264825,856820663,'',1.0471975512,1.03508321583,-0.1085210883,0.0,0.001,0.0,7200.0,0.0,410.0,0.0
1513264827639237376,,475037,,1513264825,866820663,'',1.0471975512,1.03399646797,-0.116859396413,0.0,0.001,0.0,7200.0,0.0,410.0,0.0
1513264827649204704,,475038,,1513264825,876820663,'',1.0471975512,1.0333054531,-0.0423375492219,0.0,0.001,0.0,7200.0,0.0,410.0,0.0
1513264827659192967,,475039,,1513264825,886820663,'',1.0471975512,1.0329545408,-0.0352493391641,0.0,0.001,0.0,7200.0,0.0,410.0,0.0
1513264827668952514,,475040,,1513264825,896820663,'',1.0471975512,1.03286171078,-0.00309429533076,0.0,0.001,0.0,7200.0,0.0,410.0,0.0
1513264827679418460,,475041,,1513264825,906820663,'',1.0471975512,1.03283393641,-0.00253279130067,0.0,0.001,0.0,7200.0,0.0,410.0,0.0
1513264827689364417,,475042,,1513264825,916820663,'',1.0471975512,1.03281121627,-0.00207346689202,0.0,0.001,0.0,7200.0,0.0,410.0,0.0
1513264827699358735,,475043,,1513264825,926820663,'',1.0471975512,1.03279264849,-0.00169808910171,0.0,0.001,0.0,7200.0,0.0,410.0,0.0
1513264827709354504,,475044,,1513264825,936820663,'',1.0471975512,1.03280245095,-0.00189357113274,0.0,0.001,0.0,7200.0,0.0,410.0,0.0
1513264827719069628,,475045,,1513264825,946820663,'',1.0471975512,1.0328135495,-0.00211810082775,0.0,0.001,0.0,7200.0,0.0,410.0,0.0
1513264827728889407,,475046,,1513264825,956820663,'',1.0471975512,1.03290530119,0.026296822156,0.0,0.001,0.0,7200.0,0.0,410.0,0.0
1513264827738939392,,475047,,1513264825,966820663,'',1.0471975512,1.03294781227,-0.0048485788969,0.0,0.001,0.0,7200.0,0.0,410.0,0.0
1513264827749401364,,475048,,1513264825,976820663,'',1.0471975512,1.03259644425,-0.0583015714669,0.0,0.001,0.0,7200.0,0.0,410.0,0.0
1513264827759389201,,475049,,1513264825,986820663,'',1.0471975512,1.03153703502,-0.158011991223,0.0,0.001,0.0,7200.0,0.0,410.0,0.0
1513264827769326197,,475050,,1513264825,996820663,'',1.0471975512,1.02943123448,-0.206308285823,0.0,0.001,0.0,7200.0,0.0,410.0,0.0
1513264827779333938,,475051,,1513264826,6820663,'',1.0471975512,1.02766418992,-0.17059730122,-0.0195333612785,0.001,208.040308398,7200.0,0.0,410.0,0.0
1513264827789217533,,475052,,1513264826,16820663,'',1.0471975512,1.02595821919,-0.196689414746,-0.0212393320068,0.001,233.816375961,7200.0,0.0,410.0,0.0
1513264827799244466,,475053,,1513264826,26820663,'',1.0471975512,1.02405050597,-0.188435956462,-0.0231470452316,0.001,243.13193238,7200.0,0.0,410.0,0.0
1513264827809249952,,475054,,1513264826,36820663,'',1.0471975512,1.02199484262,-0.207467346435,-0.0252027085728,0.001,267.130523789,7200.0,0.0,410.0,0.0
1513264827819275515,,475055,,1513264826,46820663,'',1.0471975512,1.01995752276,-0.226869810225,-0.0272400284395,0.001,289.228099977,7200.0,0.0,410.0,0.0
1513264827829297942,,475056,,1513264826,56820663,'',1.0471975512,1.01789524198,-0.185214509976,-0.029302309218,0.001,285.609129516,7200.0,0.0,410.0,0.0
1513264827839027031,,475057,,1513264826,66820663,'',1.0471975512,1.01614894369,-0.180215203921,-0.0310486075088,0.001,298.552345182,7200.0,0.0,410.0,0.0
1513264827848958286,,475058,,1513264826,76820663,'',1.0471975512,1.01478299545,-0.0920621467825,-0.0324145557487,0.001,271.281079457,7200.0,0.0,410.0,0.0
1513264827858996217,,475059,,1513264826,86820663,'',1.0471975512,1.01404464748,-0.046866429656,-0.0331529037165,0.001,258.127173985,7200.0,0.0,410.0,0.0
1513264827868905623,,475060,,1513264826,96820663,'',1.0471975512,1.01382237696,-0.0121012891083,-0.0333751742352,0.001,245.275943121,7200.0,0.0,410.0,0.0
1513264827879280933,,475061,,1513264826,106820663,'',1.0471975512,1.01407279685,0.0434022785988,-0.0331247543436,0.001,220.845953199,7200.0,0.0,410.0,0.0
1513264827889221040,,475062,,1513264826,116820663,'',1.0471975512,1.01460512083,0.0932000125248,-0.0325924303617,0.001,196.260430258,7200.0,0.0,410.0,0.0
1513264827899145886,,475063,,1513264826,126820663,'',1.0471975512,1.0154233035,0.106951537067,-0.0317742477004,0.001,185.548473817,7200.0,0.0,410.0,0.0
1513264827909083692,,475064,,1513264826,136820663,'',1.0471975512,1.01665971109,0.112260520775,-0.0305378401028,0.001,173.572731945,7200.0,0.0,410.0,0.0
1513264827919012358,,475065,,1513264826,146820663,'',1.0471975512,1.01799570486,0.115548009465,-0.0292018463411,0.001,162.4027046,7200.0,0.0,410.0,0.0
1513264827928906002,,475066,,1513264826,156820663,'',1.0471975512,1.01941746501,0.147386378558,-0.0277800861904,0.001,140.568164707,7200.0,0.0,410.0,0.0
1513264827939441418,,475067,,1513264826,166820663,'',1.0471975512,1.02093914149,0.146920217207,-0.0262584097081,0.001,127.607571944,7200.0,0.0,410.0,0.0
1513264827949372480,,475068,,1513264826,176820663,'',1.0471975512,1.02245082085,0.146653196783,-0.0247467303418,0.001,119.018514519,7200.0,0.0,410.0,0.0
1513264827959350651,,475069,,1513264826,186820663,'',1.0471975512,1.02396280929,0.146381376605,-0.0232347419052,0.001,106.360201211,7200.0,0.0,410.0,0.0
1513264827969445566,,475070,,1513264826,196820663,'',1.0471975512,1.02569005471,0.172043904548,-0.0215074964838,0.001,84.0241232823,7200.0,0.0,410.0,0.0
1513264827979383652,,475071,,1513264826,206820663,'',1.0471975512,1.02750339319,0.165697178183,-0.0196941580026,0.001,74.8266254144,7200.0,0.0,410.0,0.0
1513264827989338768,,475072,,1513264826,216820663,'',1.0471975512,1.02899129757,0.135641996625,-0.0182062536218,0.001,75.2971706657,7200.0,0.0,410.0,0.0
1513264827999445129,,475073,,1513264826,226820663,'',1.0471975512,1.03042650476,0.13692444296,-0.0167710464349,0.001,65.5164139621,7200.0,0.0,410.0,0.0
1513264828009366204,,475074,,1513264826,236820663,'',1.0471975512,1.03165572402,0.112095186952,-0.0155418271793,0.001,66.5825334277,7200.0,0.0,410.0,0.0
1513264828019213344,,475075,,1513264826,246820663,'',1.0471975512,1.03266221555,0.0917648547328,-0.0145353356505,0.001,66.8393183436,7200.0,0.0,410.0,0.0
1513264828029165405,,475076,,1513264826,256820663,'',1.0471975512,1.03354142058,0.104274175998,-0.0136561306143,0.001,56.1748964369,7200.0,0.0,410.0,0.0
1513264828039187593,,475077,,1513264826,266820663,'',1.0471975512,1.03442455844,0.0864427580662,-0.0127729927604,0.001,56.1985824,7200.0,0.0,410.0,0.0
1513264828049078982,,475078,,1513264826,276820663,'',1.0471975512,1.03512132095,0.0723759001911,-0.0120762302511,0.001,57.2410908886,7200.0,0.0,410.0,0.0
1513264828059064658,,475079,,1513264826,286820663,'',1.0471975512,1.03576999133,0.0592719293907,-0.0114275598692,0.001,58.3706709261,7200.0,0.0,410.0,0.0
1513264828068942792,,475080,,1513264826,296820663,'',1.0471975512,1.03630228245,0.0485189684447,-0.01089526875,0.001,58.4539501037,7200.0,0.0,410.0,0.0
1513264828079495137,,475081,,1513264826,306820663,'',1.0471975512,1.0368205748,0.068329306228,-0.0103769763916,0.001,46.4185474106,7200.0,0.0,410.0,0.0
1513264828089340343,,475082,,1513264826,316820663,'',1.0471975512,1.03727589799,0.0591312433157,-0.00992165321007,0.001,46.4353729027,7200.0,0.0,410.0,0.0
1513264828099297074,,475083,,1513264826,326820663,'',1.0471975512,1.03777961437,0.0489599415809,-0.00941793682811,0.001,47.6573703568,7200.0,0.0,410.0,0.0
1513264828109195663,,475084,,1513264826,336820663,'',1.0471975512,1.03821844792,0.0400938110224,-0.00897910327979,0.001,48.4953076453,7200.0,0.0,410.0,0.0
1513264828119101884,,475085,,1513264826,346820663,'',1.0471975512,1.03855191032,0.0333495517641,-0.00864564087734,0.001,48.4927914228,7200.0,0.0,410.0,0.0
1513264828129092139,,475086,,1513264826,356820663,'',1.0471975512,1.03890498709,0.0262200246629,-0.00829256410595,0.001,48.9027629919,7200.0,0.0,410.0,0.0
1513264828138929448,,475087,,1513264826,366820663,'',1.0471975512,1.03919453752,0.0203716623136,-0.00800301367614,0.001,49.4312736126,7200.0,0.0,410.0,0.0
1513264828148876674,,475088,,1513264826,376820663,'',1.0471975512,1.03943384315,0.0155451628624,-0.00776370804699,0.001,49.4771636913,7200.0,0.0,410.0,0.0
1513264828159627913,,475089,,1513264826,386820663,'',1.0471975512,1.03971574196,0.040134973079,-0.00748180923456,0.001,37.3694207751,7200.0,0.0,410.0,0.0
1513264828169437502,,475090,,1513264826,396820663,'',1.0471975512,1.04007506365,0.0328735344892,-0.00712248754518,0.001,37.7415453961,7200.0,0.0,410.0,0.0
1513264828179199818,,475091,,1513264826,406820663,'',1.0471975512,1.04040000641,0.0565874193004,-0.00679754478939,0.001,25.6249545868,7200.0,0.0,410.0,0.0
1513264828189309343,,475092,,1513264826,416820663,'',1.0471975512,1.04066107669,0.0210271888831,-0.00653647450166,0.001,38.4001244615,7200.0,0.0,410.0,0.0
1513264828199214162,,475093,,1513264826,426820663,'',1.0471975512,1.04087666595,0.0166896913308,-0.00632088524862,0.001,38.806954855,7200.0,0.0,410.0,0.0
1513264828209104607,,475094,,1513264826,436820663,'',1.0471975512,1.0410765508,0.0126475295367,-0.00612100039771,0.001,38.872035193,7200.0,0.0,410.0,0.0
1513264828219079364,,475095,,1513264826,446820663,'',1.0471975512,1.04127044878,0.00872184745726,-0.00592710241487,0.001,39.0883964952,7200.0,0.0,410.0,0.0
1513264828228953831,,475096,,1513264826,456820663,'',1.0471975512,1.04137502487,0.00660311149449,-0.00582252632848,0.001,39.1998738397,7200.0,0.0,410.0,0.0
1513264828239018299,,475097,,1513264826,466820663,'',1.0471975512,1.04154409921,0.0334681796313,-0.00565345198833,0.001,26.8865676648,7200.0,0.0,410.0,0.0
1513264828249436815,,475098,,1513264826,476820663,'',1.0471975512,1.04165457123,0.0312216837679,-0.00554297997087,0.001,27.3487779307,7200.0,0.0,410.0,0.0
1513264828259487035,,475099,,1513264826,486820663,'',1.0471975512,1.04171878814,-0.000355782547465,-0.00547876305822,0.001,39.5888123611,7200.0,0.0,410.0,0.0
1513264828269349047,,475100,,1513264826,496820663,'',1.0471975512,1.04182598065,0.0277656046692,-0.00537157054719,0.001,27.2440616839,7200.0,0.0,410.0,0.0
1513264828279332953,,475101,,1513264826,506820663,'',1.0471975512,1.04182932512,-0.00258308452942,-0.00536822607672,0.001,39.6288799269,7200.0,0.0,410.0,0.0
1513264828289198805,,475102,,1513264826,516820663,'',1.0471975512,1.04185745752,-0.00315191938163,-0.00534009367766,0.001,39.7421686771,7200.0,0.0,410.0,0.0
1513264828299171726,,475103,,1513264826,526820663,'',1.0471975512,1.04185820215,-0.0031821462164,-0.0053393490504,0.001,39.813865486,7200.0,0.0,410.0,0.0
1513264828309042996,,475104,,1513264826,536820663,'',1.0471975512,1.04199200601,-0.00590386520811,-0.00520554518576,0.001,39.9033894699,7200.0,0.0,410.0,0.0
1513264828319064182,,475105,,1513264826,546820663,'',1.0471975512,1.04207195583,-0.00748451363047,-0.00512559537147,0.001,39.9886665798,7200.0,0.0,410.0,0.0
1513264828329299104,,475106,,1513264826,556820663,'',1.0471975512,1.04217025979,-0.00946021404453,-0.00502729140173,0.001,39.9084407406,7200.0,0.0,410.0,0.0
1513264828339415821,,475107,,1513264826,566820663,'',1.0471975512,1.04222389135,0.0197333249043,-0.00497365984197,0.001,27.6646911118,7200.0,0.0,410.0,0.0
1513264828349367749,,475108,,1513264826,576820663,'',1.0471975512,1.04234416034,-0.0129630925375,-0.00485339085443,0.001,40.1737609373,7200.0,0.0,410.0,0.0
1513264828359337936,,475109,,1513264826,586820663,'',1.0471975512,1.04247412038,0.0146897315029,-0.00472343081263,0.001,27.9904743365,7200.0,0.0,410.0,0.0
1513264828369304414,,475110,,1513264826,596820663,'',1.0471975512,1.04255182048,0.0131254346072,-0.00464573071383,0.001,27.9012395923,7200.0,0.0,410.0,0.0
1513264828379454674,,475111,,1513264826,606820663,'',1.0471975512,1.04266898071,0.0107552213966,-0.00452857048561,0.001,28.2727235348,7200.0,0.0,410.0,0.0
1513264828389528755,,475112,,1513264826,616820663,'',1.0471975512,1.04279374587,0.00823915368116,-0.00440380532566,0.001,28.456178839,7200.0,0.0,410.0,0.0
1513264828399274097,,475113,,1513264826,626820663,'',1.0471975512,1.04286761124,0.00674336642211,-0.00432993995616,0.001,28.3837806134,7200.0,0.0,410.0,0.0
1513264828409337939,,475114,,1513264826,636820663,'',1.0471975512,1.04292796394,0.0055212131521,-0.00426958725403,0.001,28.47806182,7200.0,0.0,410.0,0.0
1513264828419259384,,475115,,1513264826,646820663,'',1.0471975512,1.04297734226,0.00452129327358,-0.00422020894113,0.001,28.5902489733,7200.0,0.0,410.0,0.0
1513264828429117814,,475116,,1513264826,656820663,'',1.0471975512,1.04299081514,0.00425267582094,-0.00420673605637,0.001,28.5718775417,7200.0,0.0,410.0,0.0
1513264828439306219,,475117,,1513264826,666820663,'',1.0471975512,1.04302885501,0.00348159792763,-0.00416869618385,0.001,28.5849200857,7200.0,0.0,410.0,0.0
1513264828449297618,,475118,,1513264826,676820663,'',1.0471975512,1.04308905148,0.00226392143047,-0.00410849971293,0.001,28.6861615785,7200.0,0.0,410.0,0.0
1513264828459059750,,475119,,1513264826,686820663,'',1.0471975512,1.04316482525,0.00073075092886,-0.00403272595142,0.001,28.7376561294,7200.0,0.0,410.0,0.0
1513264828469267062,,475120,,1513264826,696820663,'',1.0471975512,1.04322430913,-0.00049538290963,-0.00397324206515,0.001,28.7998518958,7200.0,0.0,410.0,0.0
1513264828479221430,,475121,,1513264826,706820663,'',1.0471975512,1.04327098203,-0.00145476590564,-0.00392656916246,0.001,28.8564682534,7200.0,0.0,410.0,0.0
1513264828489152367,,475122,,1513264826,716820663,'',1.0471975512,1.043343257,0.0273658957785,-0.00385429420038,0.001,16.7325312779,7200.0,0.0,410.0,0.0
1513264828499146433,,475123,,1513264826,726820663,'',1.0471975512,1.04339860231,-0.00403555877316,-0.00379894889126,0.001,29.0020329453,7200.0,0.0,410.0,0.0
1513264828509071577,,475124,,1513264826,736820663,'',1.0471975512,1.04341366026,-0.00433833688165,-0.00378389093651,0.001,28.9748890737,7200.0,0.0,410.0,0.0
1513264828519346562,,475125,,1513264826,746820663,'',1.0471975512,1.04343049027,-0.0046898343302,-0.00376706092711,0.001,28.9537881331,7200.0,0.0,410.0,0.0
1513264828529424621,,475126,,1513264826,756820663,'',1.0471975512,1.04344434505,-0.00496709247092,-0.00375320614986,0.001,29.0640153959,7200.0,0.0,410.0,0.0
1513264828539501604,,475127,,1513264826,766820663,'',1.0471975512,1.04340023552,-0.00406816677678,-0.00379731568097,0.001,29.0038814275,7200.0,0.0,410.0,0.0
1513264828549437788,,475128,,1513264826,776820663,'',1.0471975512,1.04341916682,-0.00443675373191,-0.00377838437822,0.001,29.0270519064,7200.0,0.0,410.0,0.0
1513264828559366214,,475129,,1513264826,786820663,'',1.0471975512,1.0433795892,-0.00363330428788,-0.00381796199926,0.001,28.9805137383,7200.0,0.0,410.0,0.0
1513264828569336048,,475130,,1513264826,796820663,'',1.0471975512,1.04337638117,-0.00356552403572,-0.00382117002401,0.001,28.9782853348,7200.0,0.0,410.0,0.0
1513264828579311498,,475131,,1513264826,806820663,'',1.0471975512,1.04345112561,-0.00507132793792,-0.00374642558396,0.001,29.0155159724,7200.0,0.0,410.0,0.0
1513264828589520292,,475132,,1513264826,816820663,'',1.0471975512,1.04351688947,-0.00639211354804,-0.00368066172411,0.001,29.1384350282,7200.0,0.0,410.0,0.0
1513264828599218300,,475133,,1513264826,826820663,'',1.0471975512,1.04353772694,-0.00681813287697,-0.00365982425619,0.001,29.1628578013,7200.0,0.0,410.0,0.0
1513264828609353361,,475134,,1513264826,836820663,'',1.0471975512,1.0435039319,-0.00614244690764,-0.00369361929993,0.001,29.1236661371,7200.0,0.0,410.0,0.0
1513264828619445074,,475135,,1513264826,846820663,'',1.0471975512,1.04352910244,-0.00664230679612,-0.00366844875448,0.001,29.0947036832,7200.0,0.0,410.0,0.0
1513264828629451595,,475136,,1513264826,856820663,'',1.0471975512,1.04360923698,0.0220316630847,-0.00358831421905,0.001,16.7892562643,7200.0,0.0,410.0,0.0
1513264828638976256,,475137,,1513264826,866820663,'',1.0471975512,1.04364535982,-0.00897304874047,-0.00355219137874,0.001,29.274218163,7200.0,0.0,410.0,0.0
1513264828648920619,,475138,,1513264826,876820663,'',1.0471975512,1.04375419122,0.0191098714349,-0.00344335998043,0.001,17.1218242256,7200.0,0.0,410.0,0.0
1513264828659418835,,475139,,1513264826,886820663,'',1.0471975512,1.04381827334,0.017814718953,-0.00337927785612,0.001,16.9800873804,7200.0,0.0,410.0,0.0
1513264828669385565,,475140,,1513264826,896820663,'',1.0471975512,1.04392124769,0.0157240533606,-0.00327630351066,0.001,17.130260411,7200.0,0.0,410.0,0.0
1513264828679182225,,475141,,1513264826,906820663,'',1.0471975512,1.04386825609,-0.0134844396238,-0.00332929510361,0.001,29.5895319823,7200.0,0.0,410.0,0.0
1513264828689209830,,475142,,1513264826,916820663,'',1.0471975512,1.04385394685,-0.0131949005678,-0.00334360434446,0.001,29.5017575369,7200.0,0.0,410.0,0.0
1513264828699343951,,475143,,1513264826,926820663,'',1.0471975512,1.04384391481,-0.0130025448211,-0.00335363638821,0.001,29.5060416509,7200.0,0.0,410.0,0.0
1513264828709058982,,475144,,1513264826,936820663,'',1.0471975512,1.04383444518,-0.0128058259296,-0.00336310601328,0.001,29.3739747816,7200.0,0.0,410.0,0.0
1513264828719023448,,475145,,1513264826,946820663,'',1.0471975512,1.04386051525,0.0169406545653,-0.0033370359448,0.001,17.0366861014,7200.0,0.0,410.0,0.0
1513264828729062908,,475146,,1513264826,956820663,'',1.0471975512,1.04387429312,-0.0136178317108,-0.0033232580777,0.001,29.5310174492,7200.0,0.0,410.0,0.0
1513264828739426341,,475147,,1513264826,966820663,'',1.0471975512,1.0438057611,-0.0122269741023,-0.00339179009279,0.001,29.4483738684,7200.0,0.0,410.0,0.0
1513264828749490593,,475148,,1513264826,976820663,'',1.0471975512,1.04374921837,-0.0110956833253,-0.00344833282534,0.001,29.4032407511,7200.0,0.0,410.0,0.0
1513264828759503394,,475149,,1513264826,986820663,'',1.0471975512,1.04373342767,0.0195063906466,-0.00346412352862,0.001,17.062388968,7200.0,0.0,410.0,0.0
1513264828769395315,,475150,,1513264826,996820663,'',1.0471975512,1.04374603392,0.0192396531395,-0.00345151727751,0.001,16.9394455504,7200.0,0.0,410.0,0.0
1513264828779439784,,475151,,1513264827,6820663,'',1.0471975512,1.04372722207,-0.0106701180364,-0.0034703291285,0.001,29.3613626257,7200.0,0.0,410.0,0.0
1513264828789006833,,475152,,1513264827,16820663,'',1.0471975512,1.04368581441,-0.00982912288156,-0.00351173678331,0.001,29.3241986417,7200.0,0.0,410.0,0.0
1513264828799138661,,475153,,1513264827,26820663,'',1.0471975512,1.04373593205,0.0194374998702,-0.00346161914316,0.001,16.8706946893,7200.0,0.0,410.0,0.0
1513264828809298271,,475154,,1513264827,36820663,'',1.0471975512,1.04382793254,-0.0126835195051,-0.00336961866048,0.001,29.4841987452,7200.0,0.0,410.0,0.0
1513264828819245103,,475155,,1513264827,46820663,'',1.0471975512,1.0438164923,-0.0124405570793,-0.00338105889229,0.001,29.537667281,7200.0,0.0,410.0,0.0
1513264828829148560,,475156,,1513264827,56820663,'',1.0471975512,1.04378522679,0.0184657668103,-0.00341232440462,0.001,17.1957700836,7200.0,0.0,410.0,0.0
1513264828839479622,,475157,,1513264827,66820663,'',1.0471975512,1.04378807402,0.0184152725434,-0.00340947717163,0.001,16.9765119454,7200.0,0.0,410.0,0.0
1513264828849395972,,475158,,1513264827,76820663,'',1.0471975512,1.04381388076,-0.0123921563609,-0.00338367043609,0.001,29.4769421752,7200.0,0.0,410.0,0.0
1513264828859474859,,475159,,1513264827,86820663,'',1.0471975512,1.04381288182,0.017889523673,-0.00338466937249,0.001,16.9527080517,7200.0,0.0,410.0,0.0
1513264828869153390,,475160,,1513264827,96820663,'',1.0471975512,1.04375632109,-0.0112384424296,-0.00344123010346,0.001,29.3093744809,7200.0,0.0,410.0,0.0
1513264828879101085,,475161,,1513264827,106820663,'',1.0471975512,1.04381901797,0.0177898271134,-0.00337853322749,0.001,16.9528353196,7200.0,0.0,410.0,0.0
1513264828888976424,,475162,,1513264827,116820663,'',1.0471975512,1.04381352959,-0.0123895605473,-0.00338402160214,0.001,29.3689718383,7200.0,0.0,410.0,0.0
1513264828899746741,,475163,,1513264827,126820663,'',1.0471975512,1.04383701788,0.0174086848779,-0.00336053331924,0.001,17.1459757618,7200.0,0.0,410.0,0.0
1513264828909506698,,475164,,1513264827,136820663,'',1.0471975512,1.04382971687,-0.0127217244347,-0.00336783432533,0.001,29.4899722977,7200.0,0.0,410.0,0.0
1513264828919586654,,475165,,1513264827,146820663,'',1.0471975512,1.04385629613,0.0170267569525,-0.00334125506882,0.001,17.0167732391,7200.0,0.0,410.0,0.0
1513264828929440684,,475166,,1513264827,156820663,'',1.0471975512,1.04384527578,0.0172567452,-0.00335227541868,0.001,17.0484031321,7200.0,0.0,410.0,0.0
1513264828939417181,,475167,,1513264827,166820663,'',1.0471975512,1.04380979057,-0.0123127482494,-0.00338776063043,0.001,29.4576984154,7200.0,0.0,410.0,0.0
1513264828949481012,,475168,,1513264827,176820663,'',1.0471975512,1.04375320121,-0.0111571247661,-0.00344434998637,0.001,29.2006406622,7200.0,0.0,410.0,0.0
1513264828959201477,,475169,,1513264827,186820663,'',1.0471975512,1.04370941756,-0.0102637142415,-0.00348813363165,0.001,29.2310439226,7200.0,0.0,410.0,0.0
1513264828969498779,,475170,,1513264827,196820663,'',1.0471975512,1.04364428293,-0.00894298993006,-0.00355326826631,0.001,29.2774414693,7200.0,0.0,410.0,0.0
1513264828979491362,,475171,,1513264827,206820663,'',1.0471975512,1.04366809822,-0.00943114175077,-0.00352945297798,0.001,29.2296670408,7200.0,0.0,410.0,0.0
1513264828989452928,,475172,,1513264827,216820663,'',1.0471975512,1.04366479253,0.0208804276861,-0.00353275866434,0.001,17.1514545377,7200.0,0.0,410.0,0.0
1513264828999329146,,475173,,1513264827,226820663,'',1.0471975512,1.04376517523,-0.0114257377451,-0.0034323759712,0.001,29.3043338237,7200.0,0.0,410.0,0.0
1513264829009663720,,475174,,1513264827,236820663,'',1.0471975512,1.04382632621,0.017616961048,-0.003371224986,0.001,17.3409453155,7200.0,0.0,410.0,0.0
1513264829019362024,,475175,,1513264827,246820663,'',1.0471975512,1.04387978463,0.0165514235171,-0.00331776656308,0.001,17.0928300638,7200.0,0.0,410.0,0.0
1513264829029341815,,475176,,1513264827,256820663,'',1.0471975512,1.04389298412,0.0162893862454,-0.0033045670784,0.001,17.0589557057,7200.0,0.0,410.0,0.0
1513264829039541898,,475177,,1513264827,266820663,'',1.0471975512,1.04382286892,-0.0125778061455,-0.00337468227782,0.001,29.6187950584,7200.0,0.0,410.0,0.0
1513264829049600399,,475178,,1513264827,276820663,'',1.0471975512,1.04379564319,-0.0120232221771,-0.00340190800559,0.001,29.1726324035,7200.0,0.0,410.0,0.0
1513264829059722502,,475179,,1513264827,286820663,'',1.0471975512,1.04382399898,0.0176845306122,-0.00337355221612,0.001,16.6214477076,7200.0,0.0,410.0,0.0
1513264829069289133,,475180,,1513264827,296820663,'',1.0471975512,1.04376484346,-0.0114086662341,-0.00343270773955,0.001,29.298399723,7200.0,0.0,410.0,0.0
1513264829079572621,,475181,,1513264827,306820663,'',1.0471975512,1.04374071233,-0.0109227744535,-0.00345683886577,0.001,29.3903135264,7200.0,0.0,410.0,0.0
1513264829089726260,,475182,,1513264827,316820663,'',1.0471975512,1.04380768152,0.0180185444705,-0.00338986967431,0.001,16.9911193082,7200.0,0.0,410.0,0.0
1513264829099572023,,475183,,1513264827,326820663,'',1.0471975512,1.04383228431,-0.0127528536539,-0.00336526688217,0.001,29.3669050242,7200.0,0.0,410.0,0.0
1513264829109626122,,475184,,1513264827,336820663,'',1.0471975512,1.04379909209,-0.0120859559498,-0.00339845910433,0.001,29.4553108967,7200.0,0.0,410.0,0.0
1513264829119597601,,475185,,1513264827,346820663,'',1.0471975512,1.04374402947,-0.0109676661216,-0.00345352172382,0.001,29.4016625673,7200.0,0.0,410.0,0.0
1513264829129564529,,475186,,1513264827,356820663,'',1.0471975512,1.04372815918,-0.0106476390176,-0.00346939201492,0.001,29.3929186707,7200.0,0.0,410.0,0.0
1513264829139305515,,475187,,1513264827,366820663,'',1.0471975512,1.04379320735,0.0183099857165,-0.00340434384579,0.001,16.9677374182,7200.0,0.0,410.0,0.0
1513264829149219365,,475188,,1513264827,376820663,'',1.0471975512,1.0438511123,0.0171408110949,-0.00334643890042,0.001,16.8618563536,7200.0,0.0,410.0,0.0
1513264829159108654,,475189,,1513264827,386820663,'',1.0471975512,1.04373333675,-0.0107555504983,-0.00346421444367,0.001,29.3904525099,7200.0,0.0,410.0,0.0
1513264829169090647,,475190,,1513264827,396820663,'',1.0471975512,1.04374980519,0.019178176935,-0.00344774600696,0.001,16.9416918297,7200.0,0.0,410.0,0.0
1513264829179197563,,475191,,1513264827,406820663,'',1.0471975512,1.04378328755,-0.0117826514918,-0.00341426364564,0.001,29.4420723979,7200.0,0.0,410.0,0.0
1513264829189387496,,475192,,1513264827,416820663,'',1.0471975512,1.04381377291,-0.0123961530044,-0.00338377828655,0.001,29.4572499287,7200.0,0.0,410.0,0.0
1513264829199695106,,475193,,1513264827,426820663,'',1.0471975512,1.04375852599,-0.0112699512027,-0.00343902520236,0.001,29.3025837366,7200.0,0.0,410.0,0.0
1513264829209637738,,475194,,1513264827,436820663,'',1.0471975512,1.04373769785,-0.0108581357016,-0.00345985334704,0.001,29.2562278693,7200.0,0.0,410.0,0.0
1513264829219831254,,475195,,1513264827,446820663,'',1.0471975512,1.04372251642,0.0197315086106,-0.00347503478103,0.001,16.870753757,7200.0,0.0,410.0,0.0
1513264829229721059,,475196,,1513264827,456820663,'',1.0471975512,1.04368657415,0.0204722334785,-0.00351097705145,0.001,16.8478998178,7200.0,0.0,410.0,0.0
1513264829239847415,,475197,,1513264827,466820663,'',1.0471975512,1.04373795531,0.0194227866004,-0.0034595958906,0.001,17.1069775166,7200.0,0.0,410.0,0.0
1513264829249734980,,475198,,1513264827,476820663,'',1.0471975512,1.04366920761,-0.00946988140985,-0.00352834358539,0.001,29.2933513201,7200.0,0.0,410.0,0.0
1513264829259739625,,475199,,1513264827,486820663,'',1.0471975512,1.04369694671,0.020251617062,-0.0035006044852,0.001,17.0694777605,7200.0,0.0,410.0,0.0
1513264829269819549,,475200,,1513264827,496820663,'',1.0471975512,1.04371639303,0.0198572380622,-0.00348115817111,0.001,16.9382750093,7200.0,0.0,410.0,0.0
1513264829279385300,,475201,,1513264827,506820663,'',1.0471975512,1.04364822519,-0.00904013829371,-0.00354932600533,0.001,29.2970590818,7200.0,0.0,410.0,0.0
1513264829289461395,,475202,,1513264827,516820663,'',1.0471975512,1.04367641175,-0.0096162562743,-0.00352113944216,0.001,29.2974790279,7200.0,0.0,410.0,0.0
1513264829299501262,,475203,,1513264827,526820663,'',1.0471975512,1.04367196459,-0.00954865465158,-0.0035255866045,0.001,29.3114268459,7200.0,0.0,410.0,0.0
1513264829309385002,,475204,,1513264827,536820663,'',1.0471975512,1.04377659568,0.0186214590897,-0.00342095551792,0.001,16.9472278476,7200.0,0.0,410.0,0.0
1513264829319829428,,475205,,1513264827,546820663,'',1.0471975512,1.04377812995,-0.0117060915036,-0.00341942125054,0.001,29.5433562382,7200.0,0.0,410.0,0.0
1513264829329684157,,475206,,1513264827,556820663,'',1.0471975512,1.04377754996,-0.0116914280654,-0.00342000123287,0.001,29.4366836384,7200.0,0.0,410.0,0.0
1513264829339611639,,475207,,1513264827,566820663,'',1.0471975512,1.04375878699,0.0189873341936,-0.00343876420502,0.001,16.72447475,7200.0,0.0,410.0,0.0
1513264829349406936,,475208,,1513264827,576820663,'',1.0471975512,1.04379267786,-0.0119623323873,-0.00340487333458,0.001,29.3346986414,7200.0,0.0,410.0,0.0
1513264829359516503,,475209,,1513264827,586820663,'',1.0471975512,1.0437896463,-0.0118926097005,-0.00340790490083,0.001,29.4551950968,7200.0,0.0,410.0,0.0
1513264829369639897,,475210,,1513264827,596820663,'',1.0471975512,1.04368285225,-0.00973642933117,-0.00351469894788,0.001,29.300664107,7200.0,0.0,410.0,0.0
1513264829379515690,,475211,,1513264827,606820663,'',1.0471975512,1.04372520378,-0.0105948563665,-0.00347234741403,0.001,29.2754328542,7200.0,0.0,410.0,0.0
1513264829389681237,,475212,,1513264827,616820663,'',1.0471975512,1.04370987708,-0.0103061025823,-0.00348767411549,0.001,29.3756706377,7200.0,0.0,410.0,0.0
1513264829399684438,,475213,,1513264827,626820663,'',1.0471975512,1.04367384236,-0.00956672102729,-0.00352370883479,0.001,29.3144961026,7200.0,0.0,410.0,0.0
1513264829409822456,,475214,,1513264827,636820663,'',1.0471975512,1.04369724588,-0.0100385303028,-0.00350030531583,0.001,29.35391017,7200.0,0.0,410.0,0.0
1513264829419729210,,475215,,1513264827,646820663,'',1.0471975512,1.04379464779,-0.0119991226352,-0.0034029034104,0.001,29.4419862392,7200.0,0.0,410.0,0.0
1513264829429694024,,475216,,1513264827,656820663,'',1.0471975512,1.04381913154,-0.0124964391737,-0.00337841965803,0.001,29.468121551,7200.0,0.0,410.0,0.0
1513264829439610825,,475217,,1513264827,666820663,'',1.0471975512,1.04381452359,-0.0124215584325,-0.0033830276085,0.001,29.478899492,7200.0,0.0,410.0,0.0
1513264829449326343,,475218,,1513264827,676820663,'',1.0471975512,1.04375408008,-0.0112063965047,-0.00344347111531,0.001,29.3822862925,7200.0,0.0,410.0,0.0
1513264829459409875,,475219,,1513264827,686820663,'',1.0471975512,1.04378959467,-0.0118864636616,-0.00340795652235,0.001,29.1404565729,7200.0,0.0,410.0,0.0
1513264829469518119,,475220,,1513264827,696820663,'',1.0471975512,1.04384763464,-0.0129979295237,-0.00334991655941,0.001,29.2457974251,7200.0,0.0,410.0,0.0
1513264829479421451,,475221,,1513264827,706820663,'',1.0471975512,1.04383763951,-0.0128158768823,-0.00335991168718,0.001,29.4900443615,7200.0,0.0,410.0,0.0
1513264829489361246,,475222,,1513264827,716820663,'',1.0471975512,1.04380665208,0.018080974727,-0.00339089911524,0.001,16.9757232796,7200.0,0.0,410.0,0.0
1513264829499679475,,475223,,1513264827,726820663,'',1.0471975512,1.04377539098,-0.0115802863606,-0.00342216021472,0.001,29.419313597,7200.0,0.0,410.0,0.0
1513264829509516804,,475224,,1513264827,736820663,'',1.0471975512,1.04380842671,-0.0122573792471,-0.00338912448642,0.001,29.456176555,7200.0,0.0,410.0,0.0
1513264829519914858,,475225,,1513264827,746820663,'',1.0471975512,1.04378020203,0.0185914731692,-0.00341734916451,0.001,16.9219478905,7200.0,0.0,410.0,0.0
1513264829529622366,,475226,,1513264827,756820663,'',1.0471975512,1.04370205506,-0.0101151446879,-0.00349549613272,0.001,29.3294800378,7200.0,0.0,410.0,0.0
1513264829539758806,,475227,,1513264827,766820663,'',1.0471975512,1.04372029772,-0.0104773418388,-0.00347725347813,0.001,29.3578377115,7200.0,0.0,410.0,0.0
1513264829549389903,,475228,,1513264827,776820663,'',1.0471975512,1.04370708727,-0.0102158752381,-0.00349046392981,0.001,29.3430968127,7200.0,0.0,410.0,0.0
1513264829559250521,,475229,,1513264827,786820663,'',1.0471975512,1.04371848988,-0.010441750132,-0.00347906131474,0.001,29.3651176297,7200.0,0.0,410.0,0.0
1513264829569498528,,475230,,1513264827,796820663,'',1.0471975512,1.04375738667,-0.011241518062,-0.00344016452641,0.001,29.3892284011,7200.0,0.0,410.0,0.0
1513264829579509252,,475231,,1513264827,806820663,'',1.0471975512,1.04379398676,0.018308806838,-0.00340356443612,0.001,17.1275237979,7200.0,0.0,410.0,0.0
1513264829589500255,,475232,,1513264827,816820663,'',1.0471975512,1.04374027042,-0.0109037047836,-0.00345728077709,0.001,29.3618254542,7200.0,0.0,410.0,0.0
1513264829599451753,,475233,,1513264827,826820663,'',1.0471975512,1.04380802203,0.0180193290442,-0.00338952917039,0.001,16.9701608597,7200.0,0.0,410.0,0.0
1513264829609573218,,475234,,1513264827,836820663,'',1.0471975512,1.04383563388,0.0174487843501,-0.00336191731742,0.001,17.0429862546,7200.0,0.0,410.0,0.0
1513264829619354582,,475235,,1513264827,846820663,'',1.0471975512,1.04380355997,-0.0121779384524,-0.00339399122358,0.001,29.4603676845,7200.0,0.0,410.0,0.0
1513264829629203367,,475236,,1513264827,856820663,'',1.0471975512,1.04375155071,0.0191582015277,-0.00344600048382,0.001,16.9284856755,7200.0,0.0,410.0,0.0
1513264829639386735,,475237,,1513264827,866820663,'',1.0471975512,1.04373482269,-0.0107732827103,-0.00346272850756,0.001,29.2802941976,7200.0,0.0,410.0,0.0
1513264829649152178,,475238,,1513264827,876820663,'',1.0471975512,1.04377110771,-0.0115182789931,-0.00342644349054,0.001,29.4202239437,7200.0,0.0,410.0,0.0
1513264829659004746,,475239,,1513264827,886820663,'',1.0471975512,1.04380185299,-0.012143407388,-0.00339569820316,0.001,29.4584357096,7200.0,0.0,410.0,0.0
1513264829669378885,,475240,,1513264827,896820663,'',1.0471975512,1.04382797476,-0.0126801360194,-0.00336957643305,0.001,29.3841520005,7200.0,0.0,410.0,0.0
1513264829679494857,,475241,,1513264827,906820663,'',1.0471975512,1.04374058011,-0.0109096737187,-0.00345697108947,0.001,29.3890865045,7200.0,0.0,410.0,0.0
1513264829689472715,,475242,,1513264827,916820663,'',1.0471975512,1.04375384897,0.019105967488,-0.00344370222213,0.001,16.9216190445,7200.0,0.0,410.0,0.0
1513264829699675077,,475243,,1513264827,926820663,'',1.0471975512,1.04373793261,0.0194205040565,-0.00345961858328,0.001,16.9209616512,7200.0,0.0,410.0,0.0
1513264829709326752,,475244,,1513264827,936820663,'',1.0471975512,1.0437527298,-0.0111594716975,-0.00344482139452,0.001,29.4039389807,7200.0,0.0,410.0,0.0
1513264829719382284,,475245,,1513264827,946820663,'',1.0471975512,1.04381379099,-0.0123852453955,-0.00338376020588,0.001,29.4768398567,7200.0,0.0,410.0,0.0
1513264829729416633,,475246,,1513264827,956820663,'',1.0471975512,1.04378376478,-0.0117846716129,-0.00341378641404,0.001,29.4286575128,7200.0,0.0,410.0,0.0
1513264829739509271,,475247,,1513264827,966820663,'',1.0471975512,1.04375790735,-0.0112606247311,-0.00343964384581,0.001,29.4053626568,7200.0,0.0,410.0,0.0
1513264829749408904,,475248,,1513264827,976820663,'',1.0471975512,1.04374200191,0.0193537028996,-0.0034555492823,0.001,16.9407480432,7200.0,0.0,410.0,0.0
1513264829759573734,,475249,,1513264827,986820663,'',1.0471975512,1.04377663751,-0.0116294924169,-0.00342091368857,0.001,29.4207045348,7200.0,0.0,410.0,0.0
1513264829769103021,,475250,,1513264827,996820663,'',1.0471975512,1.04378540511,0.0184694765406,-0.00341214608954,0.001,16.9571457203,7200.0,0.0,410.0,0.0
1513264829779915156,,475251,,1513264828,6820663,'',1.0471975512,1.0438155984,0.0178615695766,-0.00338195279584,0.001,16.9929011528,7200.0,0.0,410.0,0.0
1513264829789462350,,475252,,1513264828,16820663,'',1.0471975512,1.04378417779,-0.011778523241,-0.00341337341007,0.001,29.4291183638,7200.0,0.0,410.0,0.0
1513264829799481310,,475253,,1513264828,26820663,'',1.0471975512,1.04375939416,0.0189868595991,-0.00343815703297,0.001,17.1172106613,7200.0,0.0,410.0,0.0
1513264829809354356,,475254,,1513264828,36820663,'',1.0471975512,1.04368463064,-0.00978533729846,-0.00351292055921,0.001,29.2408164085,7200.0,0.0,410.0,0.0
1513264829819501543,,475255,,1513264828,46820663,'',1.0471975512,1.04370751555,-0.0102472690849,-0.00349003564504,0.001,29.3354859958,7200.0,0.0,410.0,0.0
1513264829829334201,,475256,,1513264828,56820663,'',1.0471975512,1.04375135918,0.0191604542471,-0.00344619201898,0.001,16.9131422726,7200.0,0.0,410.0,0.0
1513264829839331259,,475257,,1513264828,66820663,'',1.0471975512,1.0437342911,0.0195015211022,-0.00346326009483,0.001,17.078610261,7200.0,0.0,410.0,0.0
1513264829849460974,,475258,,1513264828,76820663,'',1.0471975512,1.04374666112,0.0192492547377,-0.00345089007626,0.001,16.9230296178,7200.0,0.0,410.0,0.0
1513264829859606474,,475259,,1513264828,86820663,'',1.0471975512,1.0437524455,-0.0111466252772,-0.0034451056949,0.001,29.3981128178,7200.0,0.0,410.0,0.0
1513264829869407027,,475260,,1513264828,96820663,'',1.0471975512,1.04368022713,-0.00969220948381,-0.00351732406614,0.001,29.2174799673,7200.0,0.0,410.0,0.0
1513264829879489682,,475261,,1513264828,106820663,'',1.0471975512,1.04367270193,-0.00955150433581,-0.00352484926564,0.001,29.3009612616,7200.0,0.0,410.0,0.0
1513264829889460723,,475262,,1513264828,116820663,'',1.0471975512,1.0436425017,-0.00895343962159,-0.00355504949244,0.001,29.267503259,7200.0,0.0,410.0,0.0
1513264829899538330,,475263,,1513264828,126820663,'',1.0471975512,1.04367209026,0.0207306617895,-0.00352546093653,0.001,16.8316223926,7200.0,0.0,410.0,0.0
1513264829909230532,,475264,,1513264828,136820663,'',1.0471975512,1.04369802686,-0.0100670554331,-0.00349952433208,0.001,29.2585863902,7200.0,0.0,410.0,0.0
1513264829919105438,,475265,,1513264828,146820663,'',1.0471975512,1.04374437872,0.0192814730308,-0.00345317247701,0.001,16.8880948276,7200.0,0.0,410.0,0.0
1513264829929632963,,475266,,1513264828,156820663,'',1.0471975512,1.04378313497,0.0185176096965,-0.00341441622354,0.001,16.9564177774,7200.0,0.0,410.0,0.0
1513264829939824126,,475267,,1513264828,166820663,'',1.0471975512,1.04383935057,-0.0129001181548,-0.00335820062627,0.001,29.3518445047,7200.0,0.0,410.0,0.0
1513264829949549165,,475268,,1513264828,176820663,'',1.0471975512,1.04391488442,0.0158596777996,-0.00328266677596,0.001,17.110741794,7200.0,0.0,410.0,0.0
1513264829959488153,,475269,,1513264828,186820663,'',1.0471975512,1.04389521865,0.0162598586043,-0.00330233255076,0.001,17.0823807765,7200.0,0.0,410.0,0.0
1513264829969319779,,475270,,1513264828,196820663,'',1.0471975512,1.04390290719,-0.0141764845583,-0.00329464400899,0.001,29.3025589957,7200.0,0.0,410.0,0.0
1513264829979464208,,475271,,1513264828,206820663,'',1.0471975512,1.0438841967,0.0164943456164,-0.00331335449395,0.001,16.8926882267,7200.0,0.0,410.0,0.0
1513264829989149680,,475272,,1513264828,216820663,'',1.0471975512,1.04389446194,0.0162865533583,-0.00330308925716,0.001,17.0815303671,7200.0,0.0,410.0,0.0
1513264829999652985,,475273,,1513264828,226820663,'',1.0471975512,1.0439059527,-0.0142167496263,-0.00329159849683,0.001,29.4229354498,7200.0,0.0,410.0,0.0
1513264830009588878,,475274,,1513264828,236820663,'',1.0471975512,1.04388373757,-0.0137710670628,-0.00331381362496,0.001,29.5797308874,7200.0,0.0,410.0,0.0
1513264830019708010,,475275,,1513264828,246820663,'',1.0471975512,1.04389073064,-0.0139093815909,-0.00330682055357,0.001,29.5548984097,7200.0,0.0,410.0,0.0
1513264830029702735,,475276,,1513264828,256820663,'',1.0471975512,1.04384703235,0.0172502862963,-0.00335051885119,0.001,17.0350289725,7200.0,0.0,410.0,0.0
1513264830039495252,,475277,,1513264828,266820663,'',1.0471975512,1.04380668065,-0.0122127213883,-0.00339087054296,0.001,29.4288423275,7200.0,0.0,410.0,0.0
1513264830049437304,,475278,,1513264828,276820663,'',1.0471975512,1.04385702886,-0.0132451802684,-0.00334052233172,0.001,29.5038627012,7200.0,0.0,410.0,0.0
1513264830059515993,,475279,,1513264828,286820663,'',1.0471975512,1.04390196553,0.0161424898417,-0.00329558566575,0.001,17.0756456957,7200.0,0.0,410.0,0.0
1513264830069775453,,475280,,1513264828,296820663,'',1.0471975512,1.04383011422,0.0175811798118,-0.00336743698083,0.001,17.1548509741,7200.0,0.0,410.0,0.0
1513264830079802203,,475281,,1513264828,306820663,'',1.0471975512,1.04385117079,-0.0131306271411,-0.00334638040596,0.001,29.6518456077,7200.0,0.0,410.0,0.0
1513264830089558763,,475282,,1513264828,316820663,'',1.0471975512,1.04389441786,0.0162608262362,-0.00330313333233,0.001,17.1007504499,7200.0,0.0,410.0,0.0
1513264830099616202,,475283,,1513264828,326820663,'',1.0471975512,1.04387712482,0.0166160798284,-0.00332042637421,0.001,17.0686077,7200.0,0.0,410.0,0.0
1513264830109558479,,475284,,1513264828,336820663,'',1.0471975512,1.04391827722,0.0157959001928,-0.0032792739764,0.001,17.0818032961,7200.0,0.0,410.0,0.0
1513264830119549355,,475285,,1513264828,346820663,'',1.0471975512,1.04397802241,-0.015681961501,-0.00321952879096,0.001,29.5151886442,7200.0,0.0,410.0,0.0
1513264830129443559,,475286,,1513264828,356820663,'',1.0471975512,1.04405054352,-0.0171441461465,-0.003147007673,0.001,29.705999376,7200.0,0.0,410.0,0.0
1513264830139590474,,475287,,1513264828,366820663,'',1.0471975512,1.04403059051,-0.0167618433608,-0.00316696068831,0.001,29.7520923413,7200.0,0.0,410.0,0.0
1513264830149561414,,475288,,1513264828,376820663,'',1.0471975512,1.04404373949,0.0132459567673,-0.00315381170334,0.001,17.221823762,7200.0,0.0,410.0,0.0
1513264830159170918,,475289,,1513264828,386820663,'',1.0471975512,1.04399882378,0.0141543875125,-0.0031987274152,0.001,17.1932249422,7200.0,0.0,410.0,0.0
1513264830169105572,,475290,,1513264828,396820663,'',1.0471975512,1.04401573742,0.013807875556,-0.00318181377314,0.001,17.223278741,7200.0,0.0,410.0,0.0
1513264830179331509,,475291,,1513264828,406820663,'',1.0471975512,1.04400647485,0.0140008752887,-0.00319107634404,0.001,17.3055422759,7200.0,0.0,410.0,0.0
1513264830189084727,,475292,,1513264828,416820663,'',1.0471975512,1.04396755491,-0.0154978260718,-0.00322999628848,0.001,29.6459786305,7200.0,0.0,410.0,0.0
1513264830199653048,,475293,,1513264828,426820663,'',1.0471975512,1.043938678,0.0153603859448,-0.00325887319392,0.001,17.1175633698,7200.0,0.0,410.0,0.0
1513264830209618137,,475294,,1513264828,436820663,'',1.0471975512,1.04393676131,-0.0148801029324,-0.00326078988403,0.001,29.4951413793,7200.0,0.0,410.0,0.0
1513264830219678282,,475295,,1513264828,446820663,'',1.0471975512,1.04396309351,-0.0154164507823,-0.00323445768214,0.001,29.6485340996,7200.0,0.0,410.0,0.0
1513264830229461942,,475296,,1513264828,456820663,'',1.0471975512,1.04404425452,0.0132344569208,-0.00315329667425,0.001,17.238108839,7200.0,0.0,410.0,0.0
1513264830239429839,,475297,,1513264828,466820663,'',1.0471975512,1.04402655016,-0.016687361856,-0.00317100103453,0.001,29.5826183936,7200.0,0.0,410.0,0.0
1513264830249112953,,475298,,1513264828,476820663,'',1.0471975512,1.04409867993,0.0121414604902,-0.00309887126998,0.001,17.153997112,7200.0,0.0,410.0,0.0
1513264830259328259,,475299,,1513264828,486820663,'',1.0471975512,1.04412503009,-0.0186736119092,-0.00307252110333,0.001,29.8555595595,7200.0,0.0,410.0,0.0
1513264830269310547,,475300,,1513264828,496820663,'',1.0471975512,1.04406671477,-0.0174874966683,-0.00313083642853,0.001,29.7374772731,7200.0,0.0,410.0,0.0
1513264830279442596,,475301,,1513264828,506820663,'',1.0471975512,1.04410175703,0.0120725633741,-0.00309579417101,0.001,17.2989949142,7200.0,0.0,410.0,0.0
1513264830289575271,,475302,,1513264828,516820663,'',1.0471975512,1.04407122045,-0.0175983498184,-0.00312633074217,0.001,29.7494152773,7200.0,0.0,410.0,0.0
1513264830299621082,,475303,,1513264828,526820663,'',1.0471975512,1.04407788977,0.0125472967023,-0.00311966142508,0.001,17.2765129927,7200.0,0.0,410.0,0.0
1513264830309312691,,475304,,1513264828,536820663,'',1.0471975512,1.04408297284,0.0124523975675,-0.00311457835449,0.001,17.4015783175,7200.0,0.0,410.0,0.0
1513264830319391262,,475305,,1513264828,546820663,'',1.0471975512,1.04408515844,-0.0178731699382,-0.00311239275334,0.001,29.7667323913,7200.0,0.0,410.0,0.0
1513264830329472260,,475306,,1513264828,556820663,'',1.0471975512,1.04408528777,0.0124116530958,-0.00311226342874,0.001,17.2861850629,7200.0,0.0,410.0,0.0
1513264830339426589,,475307,,1513264828,566820663,'',1.0471975512,1.04403440506,0.0134407890067,-0.00316314613907,0.001,17.2281895534,7200.0,0.0,410.0,0.0
1513264830349329742,,475308,,1513264828,576820663,'',1.0471975512,1.04401863673,-0.0165046409386,-0.00317891447125,0.001,29.5210851348,7200.0,0.0,410.0,0.0
1513264830359466607,,475309,,1513264828,586820663,'',1.0471975512,1.04408662941,0.0123897759825,-0.0031109217874,0.001,17.4050459541,7200.0,0.0,410.0,0.0
1513264830369476226,,475310,,1513264828,596820663,'',1.0471975512,1.04409411132,0.0122424197989,-0.00310343987412,0.001,17.3010722402,7200.0,0.0,410.0,0.0
