rosbagTimestamp,header,seq,stamp,secs,nsecs,frame_id,set_point,process_value,process_value_dot,error,time_step,command,p,i,d,i_clamp
1513267123182585805,,704556,,1513267121,365445376,'',0.296705972839,0.274682629398,0.00570922862678,-0.0220233434414,0.001,130.409672032,6000.0,0.0,300.0,0.0
1513267123192628225,,704557,,1513267121,375445376,'',0.296705972839,0.274664352181,0.00607591949638,-0.0220416206582,0.001,130.418437956,6000.0,0.0,300.0,0.0
1513267123202541790,,704558,,1513267121,385445376,'',0.296705972839,0.274634291281,-0.00866364446467,-0.0220716815582,0.001,135.045845712,6000.0,0.0,300.0,0.0
1513267123212446559,,704559,,1513267121,395445376,'',0.296705972839,0.274610457994,-0.00818045283198,-0.0220955148454,0.001,134.983723752,6000.0,0.0,300.0,0.0
1513267123222477037,,704560,,1513267121,405445376,'',0.296705972839,0.274592901996,0.00751039070489,-0.0221130708429,0.001,130.410206978,6000.0,0.0,300.0,0.0
1513267123232347441,,704561,,1513267121,415445376,'',0.296705972839,0.274606797623,0.00723128455814,-0.0220991752157,0.001,130.404663244,6000.0,0.0,300.0,0.0
1513267123242797646,,704562,,1513267121,425445376,'',0.296705972839,0.274618082847,0.00701472285882,-0.0220878899923,0.001,130.369908553,6000.0,0.0,300.0,0.0
1513267123252766372,,704563,,1513267121,435445376,'',0.296705972839,0.274612447439,-0.00821641807896,-0.0220935253998,0.001,135.035862547,6000.0,0.0,300.0,0.0
1513267123262692550,,704564,,1513267121,445445376,'',0.296705972839,0.274606110271,-0.00809016099745,-0.0220998625682,0.001,135.030650654,6000.0,0.0,300.0,0.0
1513267123272723811,,704565,,1513267121,455445376,'',0.296705972839,0.27461486651,0.0070720127671,-0.0220911063286,0.001,130.474070484,6000.0,0.0,300.0,0.0
1513267123282841326,,704566,,1513267121,465445376,'',0.296705972839,0.274649634246,0.00637317462217,-0.022056338593,0.001,130.41350431,6000.0,0.0,300.0,0.0
1513267123292823313,,704567,,1513267121,475445376,'',0.296705972839,0.274636622734,-0.00871106021154,-0.0220693501048,0.001,134.890207385,6000.0,0.0,300.0,0.0
1513267123302583156,,704568,,1513267121,485445376,'',0.296705972839,0.274667521971,0.00600409433247,-0.022038450868,0.001,130.416533451,6000.0,0.0,300.0,0.0
1513267123312663709,,704569,,1513267121,495445376,'',0.296705972839,0.274651428135,0.00632100845799,-0.0220545447043,0.001,130.490156698,6000.0,0.0,300.0,0.0
1513267123322428125,,704570,,1513267121,505445376,'',0.296705972839,0.274641335761,0.00652569962684,-0.0220646370779,0.001,130.459980019,6000.0,0.0,300.0,0.0
1513267123332390746,,704571,,1513267121,515445376,'',0.296705972839,0.274618626118,0.00699085813959,-0.0220873467212,0.001,130.454528314,6000.0,0.0,300.0,0.0
1513267123342423014,,704572,,1513267121,525445376,'',0.296705972839,0.274598496267,-0.00795439462447,-0.0221074765716,0.001,134.986537789,6000.0,0.0,300.0,0.0
1513267123352707278,,704573,,1513267121,535445376,'',0.296705972839,0.274623840214,0.00687510453354,-0.0220821326254,0.001,130.379612073,6000.0,0.0,300.0,0.0
1513267123362759760,,704574,,1513267121,545445376,'',0.296705972839,0.27465691884,0.00621078976326,-0.0220490539986,0.001,130.419608266,6000.0,0.0,300.0,0.0
1513267123372323525,,704575,,1513267121,555445376,'',0.296705972839,0.274685784919,0.00562237593743,-0.0220201879203,0.001,130.4512557,6000.0,0.0,300.0,0.0
1513267123382433645,,704576,,1513267121,565445376,'',0.296705972839,0.274667588851,-0.00935239488462,-0.0220383839877,0.001,135.045929565,6000.0,0.0,300.0,0.0
1513267123392648272,,704577,,1513267121,575445376,'',0.296705972839,0.274680096595,0.00574559614424,-0.0220258762437,0.001,130.456397803,6000.0,0.0,300.0,0.0
1513267123402689943,,704578,,1513267121,585445376,'',0.296705972839,0.274650456444,0.00634390360404,-0.0220555163948,0.001,130.423233905,6000.0,0.0,300.0,0.0
1513267123412721800,,704579,,1513267121,595445376,'',0.296705972839,0.27462476429,-0.0084744401453,-0.0220812085495,0.001,135.041799323,6000.0,0.0,300.0,0.0
1513267123422615234,,704580,,1513267121,605445376,'',0.296705972839,0.274646724786,0.00643148063701,-0.0220592480532,0.001,130.418803637,6000.0,0.0,300.0,0.0
1513267123432636751,,704581,,1513267121,615445376,'',0.296705972839,0.274677990481,0.0058005687823,-0.0220279823584,0.001,130.419594063,6000.0,0.0,300.0,0.0
1513267123442581202,,704582,,1513267121,625445376,'',0.296705972839,0.274676739676,0.00582399620569,-0.0220292331633,0.001,130.417803288,6000.0,0.0,300.0,0.0
1513267123452379693,,704583,,1513267121,635445376,'',0.296705972839,0.274674409633,-0.00946459757323,-0.0220315632065,0.001,134.983667775,6000.0,0.0,300.0,0.0
1513267123462379670,,704584,,1513267121,645445376,'',0.296705972839,0.274712649813,0.00510473932273,-0.0219933230264,0.001,130.4192131,6000.0,0.0,300.0,0.0
1513267123472346921,,704585,,1513267121,655445376,'',0.296705972839,0.27474329409,-0.0108603064085,-0.021962678749,0.001,135.066569769,6000.0,0.0,300.0,0.0
1513267123482407430,,704586,,1513267121,665445376,'',0.296705972839,0.274741086084,-0.0108209777414,-0.0219648867553,0.001,135.042860443,6000.0,0.0,300.0,0.0
1513267123492785559,,704587,,1513267121,675445376,'',0.296705972839,0.27474189515,0.00450415240854,-0.0219640776893,0.001,130.419467519,6000.0,0.0,300.0,0.0
1513267123502722888,,704588,,1513267121,685445376,'',0.296705972839,0.274728714628,0.00477337559987,-0.0219772582111,0.001,130.45565671,6000.0,0.0,300.0,0.0
1513267123512653877,,704589,,1513267121,695445376,'',0.296705972839,0.27472982084,0.00475530528827,-0.0219761519986,0.001,130.42845576,6000.0,0.0,300.0,0.0
1513267123522710135,,704590,,1513267121,705445376,'',0.296705972839,0.274743363718,0.00447513535598,-0.0219626091208,0.001,130.428051123,6000.0,0.0,300.0,0.0
1513267123532397417,,704591,,1513267121,715445376,'',0.296705972839,0.274745237544,0.00443863447223,-0.0219607352947,0.001,130.426579362,6000.0,0.0,300.0,0.0
1513267123542460804,,704592,,1513267121,725445376,'',0.296705972839,0.274741292217,-0.0108227104918,-0.0219646806216,0.001,135.042876412,6000.0,0.0,300.0,0.0
1513267123552273797,,704593,,1513267121,735445376,'',0.296705972839,0.274727155904,0.00480987775279,-0.0219788169355,0.001,130.449827009,6000.0,0.0,300.0,0.0
1513267123562195754,,704594,,1513267121,745445376,'',0.296705972839,0.274712256389,-0.0102345763615,-0.0219937164505,0.001,134.982236924,6000.0,0.0,300.0,0.0
1513267123572736835,,704595,,1513267121,755445376,'',0.296705972839,0.274717692528,0.00499178613341,-0.0219882803114,0.001,130.422959574,6000.0,0.0,300.0,0.0
1513267123582561887,,704596,,1513267121,765445376,'',0.296705972839,0.274749768296,0.00434597754335,-0.0219562045433,0.001,130.42190336,6000.0,0.0,300.0,0.0
1513267123592661733,,704597,,1513267121,775445376,'',0.296705972839,0.274720417293,0.00493191057518,-0.0219855555456,0.001,130.430696283,6000.0,0.0,300.0,0.0
1513267123602477289,,704598,,1513267121,785445376,'',0.296705972839,0.27468140293,-0.00962002514552,-0.022024569909,0.001,134.977851795,6000.0,0.0,300.0,0.0
1513267123612403737,,704599,,1513267121,795445376,'',0.296705972839,0.274690877237,0.00553207933455,-0.0220150956022,0.001,130.420686463,6000.0,0.0,300.0,0.0
1513267123622384650,,704600,,1513267121,805445376,'',0.296705972839,0.274698491095,0.00538060199609,-0.0220074817438,0.001,130.421331884,6000.0,0.0,300.0,0.0
1513267123632325943,,704601,,1513267121,815445376,'',0.296705972839,0.274679529935,0.00576539779162,-0.0220264429045,0.001,130.423061377,6000.0,0.0,300.0,0.0
1513267123642256132,,704602,,1513267121,825445376,'',0.296705972839,0.274688583319,-0.00975556916834,-0.0220173895196,0.001,135.050773403,6000.0,0.0,300.0,0.0
1513267123652702871,,704603,,1513267121,835445376,'',0.296705972839,0.274710956149,0.00512965134593,-0.0219950166896,0.001,130.420532302,6000.0,0.0,300.0,0.0
1513267123662592112,,704604,,1513267121,845445376,'',0.296705972839,0.274686315162,-0.00972235155171,-0.0220196576774,0.001,135.048437073,6000.0,0.0,300.0,0.0
1513267123672505724,,704605,,1513267121,855445376,'',0.296705972839,0.274709959574,0.00514443454018,-0.0219960132652,0.001,130.452114137,6000.0,0.0,300.0,0.0
1513267123682948507,,704606,,1513267121,865445376,'',0.296705972839,0.274715778726,0.0050322134289,-0.0219901941132,0.001,130.459573076,6000.0,0.0,300.0,0.0
1513267123692307405,,704607,,1513267121,875445376,'',0.296705972839,0.274693909315,-0.00987278962562,-0.0220120635241,0.001,135.027806396,6000.0,0.0,300.0,0.0
1513267123702255312,,704608,,1513267121,885445376,'',0.296705972839,0.274715166964,0.00504744021848,-0.021990805875,0.001,130.424205857,6000.0,0.0,300.0,0.0
1513267123712674034,,704609,,1513267121,895445376,'',0.296705972839,0.274733053041,0.00469104184243,-0.0219729197977,0.001,130.418498582,6000.0,0.0,300.0,0.0
1513267123722560588,,704610,,1513267121,905445376,'',0.296705972839,0.274733936965,0.00466096606899,-0.0219720358739,0.001,130.454048094,6000.0,0.0,300.0,0.0
1513267123732542033,,704611,,1513267121,915445376,'',0.296705972839,0.274722226574,0.00489218301575,-0.0219837462652,0.001,130.427601316,6000.0,0.0,300.0,0.0
1513267123742658864,,704612,,1513267121,925445376,'',0.296705972839,0.274739331026,0.00455279097765,-0.021966641813,0.001,130.453812686,6000.0,0.0,300.0,0.0
1513267123752862565,,704613,,1513267121,935445376,'',0.296705972839,0.274699613459,0.00535473650007,-0.0220063593804,0.001,130.416385502,6000.0,0.0,300.0,0.0
1513267123762257227,,704614,,1513267121,945445376,'',0.296705972839,0.274707477,0.0051947187038,-0.0219984958385,0.001,130.422093612,6000.0,0.0,300.0,0.0
1513267123772742045,,704615,,1513267121,955445376,'',0.296705972839,0.274712733852,-0.0102537789495,-0.0219932389875,0.001,135.041403901,6000.0,0.0,300.0,0.0
1513267123782897976,,704616,,1513267121,965445376,'',0.296705972839,0.274703345113,-0.0100619040559,-0.0220026277259,0.001,135.058820197,6000.0,0.0,300.0,0.0
1513267123792659302,,704617,,1513267121,975445376,'',0.296705972839,0.2747222868,0.00490198490904,-0.0219836860394,0.001,130.45278373,6000.0,0.0,300.0,0.0
1513267123802431091,,704618,,1513267121,985445376,'',0.296705972839,0.274739218536,0.00456396784657,-0.0219667543034,0.001,130.423464332,6000.0,0.0,300.0,0.0
1513267123812278500,,704619,,1513267121,995445376,'',0.296705972839,0.274767708697,0.00398930974808,-0.0219382641423,0.001,130.39460021,6000.0,0.0,300.0,0.0
1513267123822705665,,704620,,1513267122,5445376,'',0.296705972839,0.274775828179,0.00382276124779,-0.0219301446601,0.001,130.42927047,6000.0,0.0,300.0,0.0
1513267123832668968,,704621,,1513267122,15445376,'',0.296705972839,0.274738479351,-0.0107632192501,-0.0219674934878,0.001,135.049656377,6000.0,0.0,300.0,0.0
1513267123842577016,,704622,,1513267122,25445376,'',0.296705972839,0.274751433012,0.00432101789589,-0.0219545398272,0.001,130.424571053,6000.0,0.0,300.0,0.0
1513267123852605714,,704623,,1513267122,35445376,'',0.296705972839,0.27474907857,0.00437512835092,-0.0219568942687,0.001,130.388368642,6000.0,0.0,300.0,0.0
1513267123862494729,,704624,,1513267122,45445376,'',0.296705972839,0.274760812845,0.00414003190988,-0.0219451599941,0.001,130.483001287,6000.0,0.0,300.0,0.0
1513267123872353919,,704625,,1513267122,55445376,'',0.296705972839,0.274782803791,-0.0116506213411,-0.0219231690485,0.001,135.046092382,6000.0,0.0,300.0,0.0
1513267123882763902,,704626,,1513267122,65445376,'',0.296705972839,0.274761325784,0.00412641748915,-0.0219446470553,0.001,130.430230948,6000.0,0.0,300.0,0.0
1513267123892621312,,704627,,1513267122,75445376,'',0.296705972839,0.274771976936,0.00392613955107,-0.021933995903,0.001,130.465643412,6000.0,0.0,300.0,0.0
1513267123902753203,,704628,,1513267122,85445376,'',0.296705972839,0.274793266729,0.00349127944725,-0.0219127061101,0.001,130.434638944,6000.0,0.0,300.0,0.0
1513267123912677251,,704629,,1513267122,95445376,'',0.296705972839,0.275023704157,0.0448659183146,-0.0216822686818,0.001,116.580185756,6000.0,0.0,300.0,0.0
1513267123922547434,,704630,,1513267122,105445376,'',0.296705972839,0.27557064624,0.0645023507523,-0.021135326599,0.001,107.838016206,6000.0,0.0,300.0,0.0
1513267123932501250,,704631,,1513267122,115445376,'',0.296705972839,0.276390328384,0.0939759942736,-0.0203156444548,0.001,93.6173075252,6000.0,0.0,300.0,0.0
1513267123942513951,,704632,,1513267122,125445376,'',0.296705972839,0.277484891417,0.117901896289,-0.019221081422,0.001,80.566836068,6000.0,0.0,300.0,0.0
1513267123952401710,,704633,,1513267122,135445376,'',0.296705972839,0.278787159675,0.137615891239,-0.0179188131645,0.001,66.9768950823,6000.0,0.0,300.0,0.0
1513267123962292614,,704634,,1513267122,145445376,'',0.296705972839,0.280148295883,0.140808326656,-0.016557676956,0.001,57.8291655344,6000.0,0.0,300.0,0.0
1513267123972929116,,704635,,1513267122,155445376,'',0.296705972839,0.281426357971,0.130328172556,-0.0152796148681,0.001,54.0772242417,6000.0,0.0,300.0,0.0
1513267123982382616,,704636,,1513267122,165445376,'',0.296705972839,0.282500542399,0.108628314136,-0.0142054304403,0.001,52.5430828732,6000.0,0.0,300.0,0.0
1513267123992668333,,704637,,1513267122,175445376,'',0.296705972839,0.283450117412,0.0894461114613,-0.0132558554274,0.001,52.5340180393,6000.0,0.0,300.0,0.0
1513267124002489581,,704638,,1513267122,185445376,'',0.296705972839,0.284310674602,0.08740395683,-0.0123952982373,0.001,47.9359433195,6000.0,0.0,300.0,0.0
1513267124012736543,,704639,,1513267122,195445376,'',0.296705972839,0.285099513739,0.0868111884612,-0.0116064591003,0.001,43.4632618442,6000.0,0.0,300.0,0.0
1513267124022585716,,704640,,1513267122,205445376,'',0.296705972839,0.285980375324,0.0843629251408,-0.010725597515,0.001,38.9411978055,6000.0,0.0,300.0,0.0
1513267124032426564,,704641,,1513267122,215445376,'',0.296705972839,0.287085395969,0.123420092176,-0.00962057686969,0.001,21.2251567443,6000.0,0.0,300.0,0.0
1513267124042439539,,704642,,1513267122,225445376,'',0.296705972839,0.288336033487,0.128843279037,-0.00836993935218,0.001,12.3034075885,6000.0,0.0,300.0,0.0
1513267124052440816,,704643,,1513267122,235445376,'',0.296705972839,0.289633662358,0.133318102926,-0.00707231048116,0.001,3.07562011721,6000.0,0.0,300.0,0.0
1513267124062234532,,704644,,1513267122,245445376,'',0.296705972839,0.290942479775,0.122223541734,-0.00576349306413,0.001,-2.1992664648,6000.0,0.0,300.0,0.0
1513267124072858690,,704645,,1513267122,255445376,'',0.296705972839,0.292192115835,0.112326595506,-0.0045138570043,0.001,-6.71802135414,6000.0,0.0,300.0,0.0
1513267124082753968,,704646,,1513267122,265445376,'',0.296705972839,0.293284181167,0.105610192308,-0.00342179167158,0.001,-11.2797341343,6000.0,0.0,300.0,0.0
1513267124092629893,,704647,,1513267122,275445376,'',0.296705972839,0.294327312932,0.0845391407261,-0.00237865990668,0.001,-11.2401716963,6000.0,0.0,300.0,0.0
1513267124102704108,,704648,,1513267122,285445376,'',0.296705972839,0.295252495827,0.0811904416881,-0.00145347701245,0.001,-15.7347062067,6000.0,0.0,300.0,0.0
1513267124112732776,,704649,,1513267122,295445376,'',0.296705972839,0.296163672471,0.0934743751073,-0.000542300368445,0.001,-24.9821585499,6000.0,0.0,300.0,0.0
1513267124122596617,,704650,,1513267122,305445376,'',0.296705972839,0.297127699024,0.0893463892422,0.0,0.001,100.091029854,6000.0,0.0,300.0,0.0
1513267124132474422,,704651,,1513267122,315445376,'',0.296705972839,0.298140040457,0.0995854532356,0.0,0.001,0.0,6000.0,0.0,300.0,0.0
1513267124142382313,,704652,,1513267122,325445376,'',0.296705972839,0.299256770578,0.107712843863,0.0,0.001,0.0,6000.0,0.0,300.0,0.0
1513267124152276185,,704653,,1513267122,335445376,'',0.296705972839,0.300392667757,0.115455878293,0.0,0.001,0.0,6000.0,0.0,300.0,0.0
1513267124162247895,,704654,,1513267122,345445376,'',0.296705972839,0.30154111397,0.107601972879,0.0,0.001,0.0,6000.0,0.0,300.0,0.0
1513267124172198039,,704655,,1513267122,355445376,'',0.296705972839,0.302592629589,0.101703799109,0.0,0.001,0.0,6000.0,0.0,300.0,0.0
1513267124182235986,,704656,,1513267122,365445376,'',0.296705972839,0.303563719624,0.097427998984,0.0,0.001,0.0,6000.0,0.0,300.0,0.0
1513267124192667038,,704657,,1513267122,375445376,'',0.296705972839,0.304452687569,0.0794692013149,0.0,0.001,0.0,6000.0,0.0,300.0,0.0
1513267124202641480,,704658,,1513267122,385445376,'',0.296705972839,0.305250239316,0.0786919874332,0.0,0.001,0.0,6000.0,0.0,300.0,0.0
1513267124212513349,,704659,,1513267122,395445376,'',0.296705972839,0.305945263734,0.0646526592549,0.0,0.001,0.0,6000.0,0.0,300.0,0.0
1513267124222489015,,704660,,1513267122,405445376,'',0.296705972839,0.3065243872,0.0682973271171,0.0,0.001,0.0,6000.0,0.0,300.0,0.0
1513267124232431822,,704661,,1513267122,415445376,'',0.296705972839,0.307053617413,0.0422629734559,0.0,0.001,0.0,6000.0,0.0,300.0,0.0
1513267124242402687,,704662,,1513267122,425445376,'',0.296705972839,0.307557892084,0.0474227547779,0.0,0.001,0.0,6000.0,0.0,300.0,0.0
1513267124252471153,,704663,,1513267122,435445376,'',0.296705972839,0.307996369294,0.0385671654461,0.0112903964551,0.001,-500.0,6000.0,0.0,300.0,0.0
1513267124262308908,,704664,,1513267122,445445376,'',0.296705972839,0.308369065933,0.0310357133668,0.0116630930942,0.001,-79.3283683634,6000.0,0.0,300.0,0.0
1513267124272685982,,704665,,1513267122,455445376,'',0.296705972839,0.308716227025,0.0393671717356,0.0120102541863,0.001,-83.9463664574,6000.0,0.0,300.0,0.0
1513267124282604621,,704666,,1513267122,465445376,'',0.296705972839,0.309028918352,0.0330522059276,0.0123229455129,0.001,-83.9348594582,6000.0,0.0,300.0,0.0
1513267124292542060,,704667,,1513267122,475445376,'',0.296705972839,0.309296522333,0.0276398954752,0.012590549494,0.001,-83.8895525257,6000.0,0.0,300.0,0.0
1513267124302549421,,704668,,1513267122,485445376,'',0.296705972839,0.309516795085,0.0231890901759,0.0128108222462,0.001,-83.7054286196,6000.0,0.0,300.0,0.0
1513267124312508782,,704669,,1513267122,495445376,'',0.296705972839,0.30971021952,0.00394180522516,0.0130042466807,0.001,-79.189583306,6000.0,0.0,300.0,0.0
1513267124322453287,,704670,,1513267122,505445376,'',0.296705972839,0.309870494824,0.0160499324677,0.0131645219847,0.001,-84.1548865412,6000.0,0.0,300.0,0.0
1513267124332336560,,704671,,1513267122,515445376,'',0.296705972839,0.310000735041,0.0134215256035,0.0132947622015,0.001,-83.937997066,6000.0,0.0,300.0,0.0
1513267124342397346,,704672,,1513267122,525445376,'',0.296705972839,0.310120839879,0.010995641444,0.01341486704,0.001,-83.8080529614,6000.0,0.0,300.0,0.0
1513267124352354798,,704673,,1513267122,535445376,'',0.296705972839,0.310206497781,0.00926876574208,0.0135005249419,0.001,-83.8118442024,6000.0,0.0,300.0,0.0
1513267124362292589,,704674,,1513267122,545445376,'',0.296705972839,0.310275692386,0.00787348406467,0.0135697195471,0.001,-83.7908438835,6000.0,0.0,300.0,0.0
1513267124372744357,,704675,,1513267122,555445376,'',0.296705972839,0.310346341708,0.00644549637752,0.0136403688691,0.001,-83.7863042975,6000.0,0.0,300.0,0.0
1513267124382667919,,704676,,1513267122,565445376,'',0.296705972839,0.310375731417,0.00584839614191,0.0136697585784,0.001,-83.7783993551,6000.0,0.0,300.0,0.0
1513267124392802034,,704677,,1513267122,575445376,'',0.296705972839,0.310400121893,0.0053430625011,0.0136941490542,0.001,-83.7408847843,6000.0,0.0,300.0,0.0
1513267124402566636,,704678,,1513267122,585445376,'',0.296705972839,0.310448186255,0.00437436356078,0.0137422134158,0.001,-83.7739475294,6000.0,0.0,300.0,0.0
1513267124412395720,,704679,,1513267122,595445376,'',0.296705972839,0.310487540769,0.00358120466456,0.0137815679297,0.001,-83.7719082119,6000.0,0.0,300.0,0.0
1513267124422369512,,704680,,1513267122,605445376,'',0.296705972839,0.310507118902,0.00318738703779,0.0138011460633,0.001,-83.7707980411,6000.0,0.0,300.0,0.0
1513267124432258020,,704681,,1513267122,615445376,'',0.296705972839,0.310510286466,0.00312707137243,0.0138043136265,0.001,-83.7677787713,6000.0,0.0,300.0,0.0
1513267124442307637,,704682,,1513267122,625445376,'',0.296705972839,0.310468182606,-0.0113732079952,0.0137622097666,0.001,-79.1537119849,6000.0,0.0,300.0,0.0
1513267124452719340,,704683,,1513267122,635445376,'',0.296705972839,0.310478142066,0.00377009761576,0.013772169227,0.001,-83.7714081995,6000.0,0.0,300.0,0.0
1513267124462644902,,704684,,1513267122,645445376,'',0.296705972839,0.310442889208,0.00448684293887,0.0137369163687,0.001,-83.7769927139,6000.0,0.0,300.0,0.0
1513267124472590993,,704685,,1513267122,655445376,'',0.296705972839,0.310468332609,-0.0113681067784,0.0137623597698,0.001,-79.2226689865,6000.0,0.0,300.0,0.0
1513267124482340690,,704686,,1513267122,665445376,'',0.296705972839,0.310476694302,0.00381135604696,0.0137707214635,0.001,-83.7682289299,6000.0,0.0,300.0,0.0
1513267124492460629,,704687,,1513267122,675445376,'',0.296705972839,0.310430483766,-0.0105541065992,0.0137245109269,0.001,-79.2340331297,6000.0,0.0,300.0,0.0
1513267124502334589,,704688,,1513267122,685445376,'',0.296705972839,0.31041783522,0.00503823076852,0.0137118623806,0.001,-83.7783257862,6000.0,0.0,300.0,0.0
1513267124512236254,,704689,,1513267122,695445376,'',0.296705972839,0.310353444334,-0.00901346031483,0.0136474714946,0.001,-79.1601542115,6000.0,0.0,300.0,0.0
1513267124522685890,,704690,,1513267122,705445376,'',0.296705972839,0.310356573426,0.00625923222305,0.0136506005875,0.001,-83.7817134748,6000.0,0.0,300.0,0.0
1513267124532633482,,704691,,1513267122,715445376,'',0.296705972839,0.310329432738,-0.00853404126135,0.013623459899,0.001,-79.1572414824,6000.0,0.0,300.0,0.0
1513267124542548016,,704692,,1513267122,725445376,'',0.296705972839,0.310266545298,-0.00727161430618,0.0135605724588,0.001,-79.1675205725,6000.0,0.0,300.0,0.0
1513267124552576997,,704693,,1513267122,735445376,'',0.296705972839,0.310201233325,-0.00595562492688,0.0134952604859,0.001,-79.2127370584,6000.0,0.0,300.0,0.0
1513267124562613809,,704694,,1513267122,745445376,'',0.296705972839,0.310147636245,-0.00487568222678,0.0134416634056,0.001,-79.2072609964,6000.0,0.0,300.0,0.0
1513267124572642379,,704695,,1513267122,755445376,'',0.296705972839,0.310103768397,-0.00399177658208,0.013397795558,0.001,-79.182475615,6000.0,0.0,300.0,0.0
1513267124582582592,,704696,,1513267122,765445376,'',0.296705972839,0.310054695177,-0.00300244466999,0.0133487223378,0.001,-79.1854789359,6000.0,0.0,300.0,0.0
1513267124592617980,,704697,,1513267122,775445376,'',0.296705972839,0.31001456705,-0.00219598290013,0.0133085942106,0.001,-79.1868140836,6000.0,0.0,300.0,0.0
1513267124602566857,,704698,,1513267122,785445376,'',0.296705972839,0.309979698761,-0.0168375104652,0.0132737259216,0.001,-74.5639283349,6000.0,0.0,300.0,0.0
1513267124612733948,,704699,,1513267122,795445376,'',0.296705972839,0.309952094545,-0.000932579150483,0.0132461217055,0.001,-79.1939052062,6000.0,0.0,300.0,0.0
1513267124622696979,,704700,,1513267122,805445376,'',0.296705972839,0.309929779306,-0.00047937556649,0.0132238064672,0.001,-79.195645478,6000.0,0.0,300.0,0.0
1513267124632587282,,704701,,1513267122,815445376,'',0.296705972839,0.30988239973,-0.0148690926045,0.0131764268905,0.001,-74.5685875342,6000.0,0.0,300.0,0.0
1513267124642647939,,704702,,1513267122,825445376,'',0.296705972839,0.309803962312,-0.0132853527074,0.013097989473,0.001,-74.5935503516,6000.0,0.0,300.0,0.0
1513267124652529177,,704703,,1513267122,835445376,'',0.296705972839,0.309712041257,-0.0114259786353,0.0130060684184,0.001,-74.6695043928,6000.0,0.0,300.0,0.0
1513267124662416249,,704704,,1513267122,845445376,'',0.296705972839,0.309623938544,0.00569377106527,0.012917965705,0.001,-79.179241994,6000.0,0.0,300.0,0.0
1513267124672347449,,704705,,1513267122,855445376,'',0.296705972839,0.309552283076,-0.00820176913605,0.0128463102371,0.001,-74.6536629038,6000.0,0.0,300.0,0.0
1513267124682418711,,704706,,1513267122,865445376,'',0.296705972839,0.309491290734,-0.00697025055522,0.0127853178954,0.001,-74.6114137608,6000.0,0.0,300.0,0.0
1513267124692398004,,704707,,1513267122,875445376,'',0.296705972839,0.30944356693,-0.00600259058786,0.0127375940905,0.001,-74.657131175,6000.0,0.0,300.0,0.0
1513267124702396925,,704708,,1513267122,885445376,'',0.296705972839,0.309402841849,-0.00518222295432,0.0126968690101,0.001,-74.6155387473,6000.0,0.0,300.0,0.0
1513267124712653963,,704709,,1513267122,895445376,'',0.296705972839,0.309398469759,0.0102494287208,0.0126924969197,0.001,-79.2499899454,6000.0,0.0,300.0,0.0
1513267124722465204,,704710,,1513267122,905445376,'',0.296705972839,0.309395540805,0.0103058389707,0.0126895679659,0.001,-79.2480558296,6000.0,0.0,300.0,0.0
1513267124732569530,,704711,,1513267122,915445376,'',0.296705972839,0.309376603521,-0.00465345950184,0.0126706306816,0.001,-74.6197899028,6000.0,0.0,300.0,0.0
1513267124742530112,,704712,,1513267122,925445376,'',0.296705972839,0.309334809647,-0.0038097676394,0.0126288368076,0.001,-74.6210976057,6000.0,0.0,300.0,0.0
1513267124752455153,,704713,,1513267122,935445376,'',0.296705972839,0.309300593915,-0.0031190555479,0.0125946210763,0.001,-74.6257748703,6000.0,0.0,300.0,0.0
1513267124762362034,,704714,,1513267122,945445376,'',0.296705972839,0.309272593571,-0.00255381331849,0.0125666207321,0.001,-74.6306911021,6000.0,0.0,300.0,0.0
1513267124772368215,,704715,,1513267122,955445376,'',0.296705972839,0.309249049335,-0.0174237953375,0.0125430764957,0.001,-70.0101238544,6000.0,0.0,300.0,0.0
1513267124782804346,,704716,,1513267122,965445376,'',0.296705972839,0.309230383583,-0.00170155178199,0.0125244107442,0.001,-74.6346379411,6000.0,0.0,300.0,0.0
1513267124792777442,,704717,,1513267122,975445376,'',0.296705972839,0.309215097369,-0.00139300011734,0.0125091245298,0.001,-74.634826449,6000.0,0.0,300.0,0.0
1513267124802648704,,704718,,1513267122,985445376,'',0.296705972839,0.309188654818,-0.000862270011956,0.0124826819791,0.001,-74.6425343337,6000.0,0.0,300.0,0.0
1513267124812670669,,704719,,1513267122,995445376,'',0.296705972839,0.309180920888,-0.000705613738559,0.0124749480487,0.001,-74.6374693436,6000.0,0.0,300.0,0.0
1513267124822562851,,704720,,1513267123,5445376,'',0.296705972839,0.309174618976,-0.000577964025731,0.0124686461371,0.001,-74.6420882889,6000.0,0.0,300.0,0.0
1513267124832522045,,704721,,1513267123,15445376,'',0.296705972839,0.309156052328,-0.000199865462788,0.012450079489,0.001,-74.6411114912,6000.0,0.0,300.0,0.0
1513267124842557620,,704722,,1513267123,25445376,'',0.296705972839,0.309141140167,0.000101501136561,0.012435167328,0.001,-74.6405184132,6000.0,0.0,300.0,0.0
1513267124852472668,,704723,,1513267123,35445376,'',0.296705972839,0.309142036697,8.31005330408e-05,0.012436063858,0.001,-74.6410197431,6000.0,0.0,300.0,0.0
1513267124862433760,,704724,,1513267123,45445376,'',0.296705972839,0.309142770779,6.803405541e-05,0.0124367979399,0.001,-74.6409575155,6000.0,0.0,300.0,0.0
1513267124872374123,,704725,,1513267123,55445376,'',0.296705972839,0.309143372079,5.56928199076e-05,0.0124373992402,0.001,-74.6409897173,6000.0,0.0,300.0,0.0
1513267124882365885,,704726,,1513267123,65445376,'',0.296705972839,0.309143864718,4.55817812678e-05,0.0124378918789,0.001,-74.6411241466,6000.0,0.0,300.0,0.0
1513267124892474405,,704727,,1513267123,75445376,'',0.296705972839,0.309116362144,0.000588565767032,0.012410389305,0.001,-74.6434130675,6000.0,0.0,300.0,0.0
1513267124902339942,,704728,,1513267123,85445376,'',0.296705972839,0.309121750086,0.000481876987025,0.0124157772474,0.001,-74.6425973508,6000.0,0.0,300.0,0.0
1513267124912434917,,704729,,1513267123,95445376,'',0.296705972839,0.309126163357,0.000394488080546,0.0124201905175,0.001,-74.6425107001,6000.0,0.0,300.0,0.0
1513267124922468558,,704730,,1513267123,105445376,'',0.296705972839,0.309074374586,0.00143456962592,0.012368401747,0.001,-74.6375468994,6000.0,0.0,300.0,0.0
1513267124932676913,,704731,,1513267123,115445376,'',0.296705972839,0.309087377214,0.00117445369243,0.0123814043752,0.001,-74.638114362,6000.0,0.0,300.0,0.0
1513267124942713145,,704732,,1513267123,125445376,'',0.296705972839,0.309084056378,0.00124693504345,0.0123780835387,0.001,-74.6466589676,6000.0,0.0,300.0,0.0
1513267124952657154,,704733,,1513267123,135445376,'',0.296705972839,0.309080850911,0.00131634171535,0.0123748780716,0.001,-74.6462064127,6000.0,0.0,300.0,0.0
1513267124962701566,,704734,,1513267123,145445376,'',0.296705972839,0.309078444734,0.00136668568639,0.012372471895,0.001,-74.6476938287,6000.0,0.0,300.0,0.0
1513267124972494047,,704735,,1513267123,155445376,'',0.296705972839,0.309076781451,0.00139726786146,0.0123708086117,0.001,-74.6473606024,6000.0,0.0,300.0,0.0
1513267124982444388,,704736,,1513267123,165445376,'',0.296705972839,0.309089346314,0.00114394275128,0.0123833734748,0.001,-74.6454862642,6000.0,0.0,300.0,0.0
1513267124992770014,,704737,,1513267123,175445376,'',0.296705972839,0.309086286239,0.00120988536457,0.0123803134003,0.001,-74.6442619864,6000.0,0.0,300.0,0.0
1513267125002809842,,704738,,1513267123,185445376,'',0.296705972839,0.309071057412,0.00152209196404,0.0123650845728,0.001,-74.6374021308,6000.0,0.0,300.0,0.0
1513267125012611709,,704739,,1513267123,195445376,'',0.296705972839,0.309069870291,0.00154241181096,0.0123638974524,0.001,-74.6466922823,6000.0,0.0,300.0,0.0
1513267125022620126,,704740,,1513267123,205445376,'',0.296705972839,0.309070289779,0.00153071255161,0.01236431694,0.001,-74.6465485481,6000.0,0.0,300.0,0.0
1513267125032512464,,704741,,1513267123,215445376,'',0.296705972839,0.30908403691,0.00125308631856,0.0123780640711,0.001,-74.6440346385,6000.0,0.0,300.0,0.0
1513267125042523494,,704742,,1513267123,225445376,'',0.296705972839,0.309095285387,0.00102592093593,0.0123893125482,0.001,-74.6449828138,6000.0,0.0,300.0,0.0
1513267125052660602,,704743,,1513267123,235445376,'',0.296705972839,0.309091834455,0.00109249222445,0.0123858616165,0.001,-74.6452753465,6000.0,0.0,300.0,0.0
1513267125062665375,,704744,,1513267123,245445376,'',0.296705972839,0.309088307579,0.00116818590711,0.0123823347402,0.001,-74.6455743169,6000.0,0.0,300.0,0.0
1513267125072390443,,704745,,1513267123,255445376,'',0.296705972839,0.309086187414,0.00121757249633,0.0123802145748,0.001,-74.6391984932,6000.0,0.0,300.0,0.0
1513267125082457978,,704746,,1513267123,265445376,'',0.296705972839,0.309082507498,0.00128717440032,0.0123765346588,0.001,-74.6464371642,6000.0,0.0,300.0,0.0
1513267125092764005,,704747,,1513267123,275445376,'',0.296705972839,0.309065043393,0.00164659980191,0.0123590705539,0.001,-74.6470732749,6000.0,0.0,300.0,0.0
1513267125102658515,,704748,,1513267123,285445376,'',0.296705972839,0.309093654284,0.00106730709064,0.0123876814453,0.001,-74.6448149846,6000.0,0.0,300.0,0.0
1513267125112508550,,704749,,1513267123,295445376,'',0.296705972839,0.309090295581,0.00113632221204,0.0123843227424,0.001,-74.6454057956,6000.0,0.0,300.0,0.0
1513267125122511611,,704750,,1513267123,305445376,'',0.296705972839,0.309100407715,0.000930359865662,0.0123944348757,0.001,-74.6442819286,6000.0,0.0,300.0,0.0
1513267125132404245,,704751,,1513267123,315445376,'',0.296705972839,0.309095862062,0.00101834013759,0.0123898892231,0.001,-74.6455936665,6000.0,0.0,300.0,0.0
1513267125142390060,,704752,,1513267123,325445376,'',0.296705972839,0.309104967604,0.000833714744952,0.0123989947653,0.001,-74.6444021134,6000.0,0.0,300.0,0.0
1513267125152725134,,704753,,1513267123,335445376,'',0.296705972839,0.309112421667,0.000682575014005,0.0124064488276,0.001,-74.6435301852,6000.0,0.0,300.0,0.0
1513267125162696204,,704754,,1513267123,345445376,'',0.296705972839,0.309118524553,0.000558831939755,0.0124125517139,0.001,-74.6428519458,6000.0,0.0,300.0,0.0
1513267125172656809,,704755,,1513267123,355445376,'',0.296705972839,0.309123511908,0.000457707551784,0.0124175390689,0.001,-74.6396913575,6000.0,0.0,300.0,0.0
1513267125182489441,,704756,,1513267123,365445376,'',0.296705972839,0.309140167901,0.000117663492355,0.0124341950618,0.001,-74.6404182607,6000.0,0.0,300.0,0.0
1513267125192375724,,704757,,1513267123,375445376,'',0.296705972839,0.309141240896,9.63287668746e-05,0.0124352680567,0.001,-74.6404368168,6000.0,0.0,300.0,0.0
1513267125202564817,,704758,,1513267123,385445376,'',0.296705972839,0.309156107904,-0.000199745515347,0.0124501350655,0.001,-74.6398123103,6000.0,0.0,300.0,0.0
1513267125212450406,,704759,,1513267123,395445376,'',0.296705972839,0.309167145666,-0.000425308961823,0.0124611728273,0.001,-74.6386453696,6000.0,0.0,300.0,0.0
1513267125222639790,,704760,,1513267123,405445376,'',0.296705972839,0.309163327057,-0.000348192009374,0.0124573542182,0.001,-74.6392149764,6000.0,0.0,300.0,0.0
1513267125232656300,,704761,,1513267123,415445376,'',0.296705972839,0.309160200636,-0.000285053812565,0.0124542277967,0.001,-74.6393975948,6000.0,0.0,300.0,0.0
1513267125242543806,,704762,,1513267123,425445376,'',0.296705972839,0.309144949981,1.89006340091e-05,0.0124389771422,0.001,-74.6407727863,6000.0,0.0,300.0,0.0
1513267125252477708,,704763,,1513267123,435445376,'',0.296705972839,0.309116647919,0.000590687468718,0.0124106750802,0.001,-74.639563588,6000.0,0.0,300.0,0.0
1513267125262379154,,704764,,1513267123,445445376,'',0.296705972839,0.309121986013,0.000483574888491,0.012416013174,0.001,-74.6398005623,6000.0,0.0,300.0,0.0
1513267125272385482,,704765,,1513267123,455445376,'',0.296705972839,0.309126356027,0.000395887504348,0.0124203831881,0.001,-74.6423489808,6000.0,0.0,300.0,0.0
1513267125282261493,,704766,,1513267123,465445376,'',0.296705972839,0.309129933389,0.000324105245829,0.0124239605498,0.001,-74.6422343308,6000.0,0.0,300.0,0.0
1513267125292713979,,704767,,1513267123,475445376,'',0.296705972839,0.30912027702,0.000521998375205,0.0124143041807,0.001,-74.6433539961,6000.0,0.0,300.0,0.0
1513267125302429847,,704768,,1513267123,485445376,'',0.296705972839,0.309110507023,0.000722537716323,0.0124045341844,0.001,-74.6432770732,6000.0,0.0,300.0,0.0
1513267125312253630,,704769,,1513267123,495445376,'',0.296705972839,0.30910279324,0.000878499472843,0.0123968204006,0.001,-74.6438408984,6000.0,0.0,300.0,0.0
1513267125322665328,,704770,,1513267123,505445376,'',0.296705972839,0.309097713531,0.000974558050268,0.0123917406921,0.001,-74.6451299876,6000.0,0.0,300.0,0.0
1513267125332550001,,704771,,1513267123,515445376,'',0.296705972839,0.309106484912,0.000797839928303,0.012400512073,0.001,-74.6449582459,6000.0,0.0,300.0,0.0
1513267125342454270,,704772,,1513267123,525445376,'',0.296705972839,0.309113662054,0.000653241130569,0.0124076892154,0.001,-74.6432357484,6000.0,0.0,300.0,0.0
1513267125352427810,,704773,,1513267123,535445376,'',0.296705972839,0.309009458649,-0.0125842610467,0.0123034858099,0.001,-70.0258876816,6000.0,0.0,300.0,0.0
1513267125362327543,,704774,,1513267123,545445376,'',0.296705972839,0.308896528113,-0.0103029270049,0.0121905552741,0.001,-70.0370292431,6000.0,0.0,300.0,0.0
1513267125372427355,,704775,,1513267123,555445376,'',0.296705972839,0.308856615168,-0.00949943813256,0.0121506423286,0.001,-70.0461346608,6000.0,0.0,300.0,0.0
1513267125382365663,,704776,,1513267123,565445376,'',0.296705972839,0.308880498573,0.00535738705733,0.0121745257337,0.001,-74.6271484151,6000.0,0.0,300.0,0.0
1513267125392426614,,704777,,1513267123,575445376,'',0.296705972839,0.308832027187,-0.00900421653838,0.0121260543484,0.001,-70.1052834114,6000.0,0.0,300.0,0.0
1513267125402711044,,704778,,1513267123,585445376,'',0.296705972839,0.3088061143,-0.00848670790995,0.0121001414613,0.001,-70.050120752,6000.0,0.0,300.0,0.0
1513267125412661339,,704779,,1513267123,595445376,'',0.296705972839,0.308825410896,0.00647491752902,0.0121194380567,0.001,-74.6697320061,6000.0,0.0,300.0,0.0
1513267125422570459,,704780,,1513267123,605445376,'',0.296705972839,0.308815750872,0.0066717595749,0.0121097780325,0.001,-74.6686787286,6000.0,0.0,300.0,0.0
1513267125432616932,,704781,,1513267123,615445376,'',0.296705972839,0.308779124977,0.00741033164983,0.0120731521381,0.001,-74.6182373914,6000.0,0.0,300.0,0.0
1513267125442369999,,704782,,1513267123,625445376,'',0.296705972839,0.308818394184,0.00661716951783,0.0121124213452,0.001,-74.6684546571,6000.0,0.0,300.0,0.0
1513267125452397239,,704783,,1513267123,635445376,'',0.296705972839,0.308796594739,-0.00828034804779,0.0120906218997,0.001,-70.0460839414,6000.0,0.0,300.0,0.0
1513267125462800894,,704784,,1513267123,645445376,'',0.296705972839,0.308789560314,-0.00814069451981,0.0120835874755,0.001,-70.046721312,6000.0,0.0,300.0,0.0
1513267125472765258,,704785,,1513267123,655445376,'',0.296705972839,0.3088144297,0.00670869702479,0.0121084568613,0.001,-74.5836318385,6000.0,0.0,300.0,0.0
1513267125482697784,,704786,,1513267123,665445376,'',0.296705972839,0.308804980207,-0.0084506575534,0.0120990073678,0.001,-70.0447133794,6000.0,0.0,300.0,0.0
1513267125492588073,,704787,,1513267123,675445376,'',0.296705972839,0.308813634305,0.00671541644428,0.0121076614656,0.001,-74.6688581482,6000.0,0.0,300.0,0.0
1513267125502502664,,704788,,1513267123,685445376,'',0.296705972839,0.308804762453,0.00689728283831,0.0120987896138,0.001,-74.6676175471,6000.0,0.0,300.0,0.0
1513267125512541783,,704789,,1513267123,695445376,'',0.296705972839,0.308823029927,-0.00882036986614,0.0121170570876,0.001,-70.0118289185,6000.0,0.0,300.0,0.0
1513267125522510671,,704790,,1513267123,705445376,'',0.296705972839,0.308824921865,0.00648216867187,0.0121189490255,0.001,-74.6697763159,6000.0,0.0,300.0,0.0
1513267125532271571,,704791,,1513267123,715445376,'',0.296705972839,0.308787312666,-0.00810045680303,0.0120813398273,0.001,-70.1621136469,6000.0,0.0,300.0,0.0
1513267125542685068,,704792,,1513267123,725445376,'',0.296705972839,0.308799112195,0.00700526198764,0.012093139356,0.001,-74.6316084828,6000.0,0.0,300.0,0.0
1513267125552722735,,704793,,1513267123,735445376,'',0.296705972839,0.308751115152,-0.00736943791279,0.0120451423128,0.001,-70.0480760797,6000.0,0.0,300.0,0.0
1513267125562366694,,704794,,1513267123,745445376,'',0.296705972839,0.308740004234,-0.00714379488743,0.0120340313945,0.001,-70.0506955163,6000.0,0.0,300.0,0.0
1513267125572580505,,704795,,1513267123,755445376,'',0.296705972839,0.308744047221,-0.00722485926755,0.0120380743816,0.001,-70.0508451328,6000.0,0.0,300.0,0.0
1513267125582812282,,704796,,1513267123,765445376,'',0.296705972839,0.308734424274,-0.00703316673594,0.0120284514346,0.001,-70.0471467864,6000.0,0.0,300.0,0.0
1513267125592755139,,704797,,1513267123,775445376,'',0.296705972839,0.308724981252,-0.00683940364297,0.0120190084134,0.001,-70.0525726497,6000.0,0.0,300.0,0.0
1513267125602395745,,704798,,1513267123,785445376,'',0.296705972839,0.308745868542,-0.00725986322902,0.0120398957029,0.001,-70.0989234208,6000.0,0.0,300.0,0.0
1513267125612785712,,704799,,1513267123,795445376,'',0.296705972839,0.308748085731,0.00804093833956,0.0120421128918,0.001,-74.6697676076,6000.0,0.0,300.0,0.0
1513267125622516864,,704800,,1513267123,805445376,'',0.296705972839,0.308750757109,-0.00736030271494,0.0120447842697,0.001,-70.0502371676,6000.0,0.0,300.0,0.0
1513267125632701389,,704801,,1513267123,815445376,'',0.296705972839,0.308766733458,0.00765056444743,0.0120607606187,0.001,-74.6008785453,6000.0,0.0,300.0,0.0
1513267125642569372,,704802,,1513267123,825445376,'',0.296705972839,0.308753916724,0.00791323859949,0.0120479438854,0.001,-74.6739203592,6000.0,0.0,300.0,0.0
1513267125652469430,,704803,,1513267123,835445376,'',0.296705972839,0.308772868144,0.00753438069664,0.0120668953048,0.001,-74.6271110044,6000.0,0.0,300.0,0.0
1513267125662567309,,704804,,1513267123,845445376,'',0.296705972839,0.30877328053,0.00752050223408,0.0120673076911,0.001,-74.672278905,6000.0,0.0,300.0,0.0
1513267125672436821,,704805,,1513267123,855445376,'',0.296705972839,0.308784870846,-0.00805668340452,0.0120788980065,0.001,-70.0983008635,6000.0,0.0,300.0,0.0
1513267125682708756,,704806,,1513267123,865445376,'',0.296705972839,0.30875259038,-0.00740045446397,0.0120466175413,0.001,-70.0522082784,6000.0,0.0,300.0,0.0
1513267125692617763,,704807,,1513267123,875445376,'',0.296705972839,0.308740594009,0.00818149907209,0.0120346211703,0.001,-74.6851111557,6000.0,0.0,300.0,0.0
1513267125702795147,,704808,,1513267123,885445376,'',0.296705972839,0.308784477346,-0.00804883959717,0.0120785045066,0.001,-70.0466010144,6000.0,0.0,300.0,0.0
1513267125712587727,,704809,,1513267123,895445376,'',0.296705972839,0.30876759787,-0.00769583774927,0.0120616250314,0.001,-70.1020955942,6000.0,0.0,300.0,0.0
1513267125722389076,,704810,,1513267123,905445376,'',0.296705972839,0.308768067227,0.0076405685563,0.0120620943879,0.001,-74.6125981507,6000.0,0.0,300.0,0.0
1513267125732418766,,704811,,1513267123,915445376,'',0.296705972839,0.308753135128,-0.00740631260746,0.0120471622891,0.001,-70.0500217016,6000.0,0.0,300.0,0.0
1513267125742378856,,704812,,1513267123,925445376,'',0.296705972839,0.308713023888,-0.00659468732463,0.0120070510488,0.001,-70.0555622979,6000.0,0.0,300.0,0.0
1513267125752773870,,704813,,1513267123,935445376,'',0.296705972839,0.308737084227,-0.0070879080914,0.0120311113883,0.001,-69.9997841381,6000.0,0.0,300.0,0.0
1513267125762632884,,704814,,1513267123,945445376,'',0.296705972839,0.308756682243,-0.0074794597508,0.0120507094041,0.001,-70.097235153,6000.0,0.0,300.0,0.0
1513267125772563431,,704815,,1513267123,955445376,'',0.296705972839,0.308761344969,0.00777842272,0.0120553721297,0.001,-74.6659908935,6000.0,0.0,300.0,0.0
1513267125782546455,,704816,,1513267123,965445376,'',0.296705972839,0.308748686305,0.00803273116638,0.0120427134656,0.001,-74.6743637377,6000.0,0.0,300.0,0.0
1513267125792549490,,704817,,1513267123,975445376,'',0.296705972839,0.308725229467,-0.00683539462247,0.0120192566278,0.001,-70.0545276409,6000.0,0.0,300.0,0.0
1513267125802454535,,704818,,1513267123,985445376,'',0.296705972839,0.308690353084,-0.0061316893443,0.0119843802449,0.001,-70.0725605904,6000.0,0.0,300.0,0.0
1513267125812379066,,704819,,1513267123,995445376,'',0.296705972839,0.308705628963,0.00891453677201,0.0119996561238,0.001,-74.6837995185,6000.0,0.0,300.0,0.0
1513267125822288314,,704820,,1513267124,5445376,'',0.296705972839,0.30870224416,-0.00636869831259,0.0119962713207,0.001,-70.0564760868,6000.0,0.0,300.0,0.0
1513267125832503007,,704821,,1513267124,15445376,'',0.296705972839,0.308728556686,0.00844360579448,0.0120225838468,0.001,-74.6760701092,6000.0,0.0,300.0,0.0
1513267125842541903,,704822,,1513267124,25445376,'',0.296705972839,0.308734355272,-0.00702121027434,0.0120283824329,0.001,-70.0517232946,6000.0,0.0,300.0,0.0
1513267125852439065,,704823,,1513267124,35445376,'',0.296705972839,0.308769755851,0.00761111978963,0.0120637830116,0.001,-74.6198605079,6000.0,0.0,300.0,0.0
1513267125862260551,,704824,,1513267124,45445376,'',0.296705972839,0.308798116395,0.00703244915632,0.012092143556,0.001,-74.6722050885,6000.0,0.0,300.0,0.0
1513267125872775088,,704825,,1513267124,55445376,'',0.296705972839,0.308779880966,0.00740127409811,0.0120739081267,0.001,-74.674391849,6000.0,0.0,300.0,0.0
1513267125882745388,,704826,,1513267124,65445376,'',0.296705972839,0.308765343837,0.0076913104547,0.0120593709975,0.001,-74.670173213,6000.0,0.0,300.0,0.0
1513267125892667480,,704827,,1513267124,75445376,'',0.296705972839,0.30876784766,0.00763921894408,0.0120618748213,0.001,-74.6611470163,6000.0,0.0,300.0,0.0
1513267125902613209,,704828,,1513267124,85445376,'',0.296705972839,0.308738789769,-0.00712736629456,0.0120328169303,0.001,-70.1052955205,6000.0,0.0,300.0,0.0
1513267125912484390,,704829,,1513267124,95445376,'',0.296705972839,0.308741468692,-0.00718066319503,0.0120354958532,0.001,-70.131351041,6000.0,0.0,300.0,0.0
1513267125922415752,,704830,,1513267124,105445376,'',0.296705972839,0.308748018146,0.00803172835858,0.012042045307,0.001,-74.6912702445,6000.0,0.0,300.0,0.0
1513267125932386054,,704831,,1513267124,115445376,'',0.296705972839,0.308750718109,0.00798373379991,0.0120447452701,0.001,-74.6834246407,6000.0,0.0,300.0,0.0
1513267125942306050,,704832,,1513267124,125445376,'',0.296705972839,0.308768330648,-0.00771381718481,0.0120623578089,0.001,-70.0976755376,6000.0,0.0,300.0,0.0
1513267125952772683,,704833,,1513267124,135445376,'',0.296705972839,0.30872508442,-0.00684354277685,0.0120191115807,0.001,-70.0500924559,6000.0,0.0,300.0,0.0
1513267125962656586,,704834,,1513267124,145445376,'',0.296705972839,0.30870366187,-0.00641373198175,0.0119976890312,0.001,-70.0545043424,6000.0,0.0,300.0,0.0
1513267125972547206,,704835,,1513267124,155445376,'',0.296705972839,0.308700517911,-0.00635414934698,0.0119945450718,0.001,-70.052497645,6000.0,0.0,300.0,0.0
1513267125982501429,,704836,,1513267124,165445376,'',0.296705972839,0.308698488419,0.00903580324236,0.0119925155797,0.001,-74.6760058781,6000.0,0.0,300.0,0.0
1513267125992459330,,704837,,1513267124,175445376,'',0.296705972839,0.308738631083,0.00822339106367,0.012032658244,0.001,-74.6722426941,6000.0,0.0,300.0,0.0
1513267126002423646,,704838,,1513267124,185445376,'',0.296705972839,0.30874349879,-0.00721656949037,0.0120375259506,0.001,-70.1009032261,6000.0,0.0,300.0,0.0
1513267126012243579,,704839,,1513267124,195445376,'',0.296705972839,0.30877693867,0.00746364278697,0.0120709658307,0.001,-74.676817927,6000.0,0.0,300.0,0.0
1513267126022296021,,704840,,1513267124,205445376,'',0.296705972839,0.308762039324,0.0077660629185,0.0120560664851,0.001,-74.673231813,6000.0,0.0,300.0,0.0
1513267126032743861,,704841,,1513267124,215445376,'',0.296705972839,0.308761966506,-0.00758008231601,0.0120559936673,0.001,-70.0464815076,6000.0,0.0,300.0,0.0
1513267126042672024,,704842,,1513267124,225445376,'',0.296705972839,0.308720859616,-0.00675252531321,0.012014886777,0.001,-70.0895393312,6000.0,0.0,300.0,0.0
1513267126052717527,,704843,,1513267124,235445376,'',0.296705972839,0.308730899129,0.00838634161901,0.0120249262895,0.001,-74.6171055205,6000.0,0.0,300.0,0.0
1513267126062557988,,704844,,1513267124,245445376,'',0.296705972839,0.308708917059,-0.00651769931108,0.0120029442201,0.001,-70.0577926414,6000.0,0.0,300.0,0.0
1513267126072591605,,704845,,1513267124,255445376,'',0.296705972839,0.308731853852,0.00836557391946,0.0120258810133,0.001,-74.6806273589,6000.0,0.0,300.0,0.0
1513267126082478462,,704846,,1513267124,265445376,'',0.296705972839,0.308737651164,-0.00709666997506,0.0120316783251,0.001,-70.0534746637,6000.0,0.0,300.0,0.0
1513267126092432377,,704847,,1513267124,275445376,'',0.296705972839,0.308714276664,-0.00662725352666,0.0120083038248,0.001,-70.0975446835,6000.0,0.0,300.0,0.0
1513267126102313829,,704848,,1513267124,285445376,'',0.296705972839,0.308696321046,-0.00626162830979,0.0119903482072,0.001,-70.0985689779,6000.0,0.0,300.0,0.0
1513267126112753132,,704849,,1513267124,295445376,'',0.296705972839,0.3087211967,-0.00675674457361,0.0120152238607,0.001,-70.0485190627,6000.0,0.0,300.0,0.0
1513267126122676508,,704850,,1513267124,305445376,'',0.296705972839,0.3086756616,0.00950794084334,0.0119696887611,0.001,-74.6922265879,6000.0,0.0,300.0,0.0
1513267126132638711,,704851,,1513267124,315445376,'',0.296705972839,0.308664520357,-0.00561892167968,0.0119585475181,0.001,-70.0580508512,6000.0,0.0,300.0,0.0
1513267126142451353,,704852,,1513267124,325445376,'',0.296705972839,0.308682318962,0.00935977272859,0.011976346123,0.001,-74.6204367515,6000.0,0.0,300.0,0.0
1513267126152576859,,704853,,1513267124,335445376,'',0.296705972839,0.308670295385,-0.00574050745293,0.0119643225457,0.001,-70.0939691739,6000.0,0.0,300.0,0.0
1513267126162398686,,704854,,1513267124,345445376,'',0.296705972839,0.308688954732,0.00923246067947,0.011982981893,0.001,-74.6794271347,6000.0,0.0,300.0,0.0
1513267126172440853,,704855,,1513267124,355445376,'',0.296705972839,0.308689614544,-0.00613457363005,0.0119836417049,0.001,-70.0575466891,6000.0,0.0,300.0,0.0
1513267126182525467,,704856,,1513267124,365445376,'',0.296705972839,0.308703740979,-0.00641089457338,0.0119977681398,0.001,-70.058664188,6000.0,0.0,300.0,0.0
1513267126192426611,,704857,,1513267124,375445376,'',0.296705972839,0.308687884725,0.00924846834461,0.0119819118856,0.001,-74.6293701037,6000.0,0.0,300.0,0.0
1513267126202718143,,704858,,1513267124,385445376,'',0.296705972839,0.308687354237,0.00925710227806,0.0119813813982,0.001,-74.6092797229,6000.0,0.0,300.0,0.0
1513267126212592741,,704859,,1513267124,395445376,'',0.296705972839,0.308672839338,-0.00579404080397,0.0119668664989,0.001,-70.0606402972,6000.0,0.0,300.0,0.0
1513267126222506231,,704860,,1513267124,405445376,'',0.296705972839,0.30869155031,0.00917362666254,0.0119855774707,0.001,-74.6818607591,6000.0,0.0,300.0,0.0
1513267126232387419,,704861,,1513267124,415445376,'',0.296705972839,0.308691580927,-0.00616908334996,0.0119856080875,0.001,-70.0573800004,6000.0,0.0,300.0,0.0
1513267126242326886,,704862,,1513267124,425445376,'',0.296705972839,0.308662821953,-0.00558125036707,0.0119568491141,0.001,-70.0952990896,6000.0,0.0,300.0,0.0
1513267126252845006,,704863,,1513267124,435445376,'',0.296705972839,0.30865335446,0.00995266043142,0.0119473816214,0.001,-74.7011441001,6000.0,0.0,300.0,0.0
1513267126262726782,,704864,,1513267124,445445376,'',0.296705972839,0.308660322239,-0.0055270655337,0.0119543493996,0.001,-70.0600297741,6000.0,0.0,300.0,0.0
1513267126272822816,,704865,,1513267124,455445376,'',0.296705972839,0.308695262205,0.00911115434612,0.0119892893665,0.001,-74.6762605268,6000.0,0.0,300.0,0.0
1513267126282750820,,704866,,1513267124,465445376,'',0.296705972839,0.308720288664,-0.00673971186284,0.0120143158251,0.001,-70.0549464687,6000.0,0.0,300.0,0.0
1513267126292623572,,704867,,1513267124,475445376,'',0.296705972839,0.308713676169,-0.00660939327603,0.01200770333,0.001,-70.0574169994,6000.0,0.0,300.0,0.0
1513267126302589155,,704868,,1513267124,485445376,'',0.296705972839,0.308724766664,0.00850928043983,0.0120187938252,0.001,-74.6733167935,6000.0,0.0,300.0,0.0
1513267126312520532,,704869,,1513267124,495445376,'',0.296705972839,0.308744237193,0.00811097761235,0.0120382643535,0.001,-74.6770869403,6000.0,0.0,300.0,0.0
1513267126322489053,,704870,,1513267124,505445376,'',0.296705972839,0.308706578797,-0.00646959102603,0.012000605958,0.001,-70.0972087321,6000.0,0.0,300.0,0.0
1513267126332358626,,704871,,1513267124,515445376,'',0.296705972839,0.308674355597,-0.00582108023585,0.0119683827578,0.001,-70.007991732,6000.0,0.0,300.0,0.0
1513267126342313174,,704872,,1513267124,525445376,'',0.296705972839,0.308622282021,-0.00476798953991,0.0119163091816,0.001,-70.0587808292,6000.0,0.0,300.0,0.0
1513267126352783502,,704873,,1513267124,535445376,'',0.296705972839,0.308631242072,-0.00494838745951,0.0119252692333,0.001,-70.0610661084,6000.0,0.0,300.0,0.0
1513267126362756030,,704874,,1513267124,545445376,'',0.296705972839,0.308641610498,-0.00516115463627,0.0119356376589,0.001,-70.0943733762,6000.0,0.0,300.0,0.0
1513267126372651327,,704875,,1513267124,555445376,'',0.296705972839,0.308651530683,0.00998233380761,0.0119455578435,0.001,-74.6941490329,6000.0,0.0,300.0,0.0
1513267126382549292,,704876,,1513267124,565445376,'',0.296705972839,0.308656027758,-0.00545540974627,0.0119500549189,0.001,-70.0588203431,6000.0,0.0,300.0,0.0
1513267126392580073,,704877,,1513267124,575445376,'',0.296705972839,0.308621107969,-0.00474504823348,0.01191513513,0.001,-70.0602722917,6000.0,0.0,300.0,0.0
1513267126402461040,,704878,,1513267124,585445376,'',0.296705972839,0.308618567253,-0.00469156583437,0.0119125944137,0.001,-70.0591662127,6000.0,0.0,300.0,0.0
1513267126412298109,,704879,,1513267124,595445376,'',0.296705972839,0.308604080659,0.0109446819706,0.0118981078197,0.001,-74.6969060731,6000.0,0.0,300.0,0.0
1513267126422385287,,704880,,1513267124,605445376,'',0.296705972839,0.308632768173,0.0103626741423,0.0119267953342,0.001,-74.6931806819,6000.0,0.0,300.0,0.0
1513267126432346511,,704881,,1513267124,615445376,'',0.296705972839,0.308630057585,0.0104252048153,0.011924084746,0.001,-74.6844197983,6000.0,0.0,300.0,0.0
1513267126442685571,,704882,,1513267124,625445376,'',0.296705972839,0.308656816613,0.00987766573799,0.0119508437739,0.001,-74.6136134739,6000.0,0.0,300.0,0.0
1513267126452634002,,704883,,1513267124,635445376,'',0.296705972839,0.308663384331,0.00974871979835,0.0119574114918,0.001,-74.681594717,6000.0,0.0,300.0,0.0
1513267126462596293,,704884,,1513267124,645445376,'',0.296705972839,0.308642450663,0.0101677651873,0.0119364778237,0.001,-74.6833692471,6000.0,0.0,300.0,0.0
1513267126472588608,,704885,,1513267124,655445376,'',0.296705972839,0.308649254261,-0.00531246036836,0.0119432814223,0.001,-70.0594340717,6000.0,0.0,300.0,0.0
1513267126482532553,,704886,,1513267124,665445376,'',0.296705972839,0.308658348212,0.00984205341196,0.0119523753728,0.001,-74.6435858452,6000.0,0.0,300.0,0.0
1513267126492722838,,704887,,1513267124,675445376,'',0.296705972839,0.30869228934,-0.00618592952486,0.0119863165009,0.001,-70.0591050863,6000.0,0.0,300.0,0.0
1513267126502754087,,704888,,1513267124,685445376,'',0.296705972839,0.308678772773,0.00943164832574,0.0119727999335,0.001,-74.7034820066,6000.0,0.0,300.0,0.0
1513267126512570476,,704889,,1513267124,695445376,'',0.296705972839,0.308680282572,0.00940274258354,0.0119743097333,0.001,-74.6835615651,6000.0,0.0,300.0,0.0
1513267126522699778,,704890,,1513267124,705445376,'',0.296705972839,0.308710514849,0.00878521905283,0.0120045420101,0.001,-74.6273865438,6000.0,0.0,300.0,0.0
1513267126532561182,,704891,,1513267124,715445376,'',0.296705972839,0.30869488507,0.00910792377594,0.0119889122311,0.001,-74.6815586053,6000.0,0.0,300.0,0.0
1513267126542580191,,704892,,1513267124,725445376,'',0.296705972839,0.308693940193,-0.00622095180858,0.0119879673542,0.001,-70.0531416378,6000.0,0.0,300.0,0.0
1513267126552423116,,704893,,1513267124,735445376,'',0.296705972839,0.308665512602,-0.00564287295668,0.0119595397626,0.001,-70.0612186048,6000.0,0.0,300.0,0.0
1513267126562397251,,704894,,1513267124,745445376,'',0.296705972839,0.308614920064,-0.00461962002803,0.0119089472252,0.001,-70.1112004529,6000.0,0.0,300.0,0.0
1513267126572431455,,704895,,1513267124,755445376,'',0.296705972839,0.308656197618,0.00988633672171,0.0119502247786,0.001,-74.6221556041,6000.0,0.0,300.0,0.0
1513267126582289936,,704896,,1513267124,765445376,'',0.296705972839,0.308691352669,0.00917701250671,0.0119853798301,0.001,-74.6241481215,6000.0,0.0,300.0,0.0
1513267126592755052,,704897,,1513267124,775445376,'',0.296705972839,0.308662115537,-0.00558203789767,0.011956142698,0.001,-70.0598777577,6000.0,0.0,300.0,0.0
1513267126602623758,,704898,,1513267124,785445376,'',0.296705972839,0.308664732044,-0.005634735656,0.0119587592053,0.001,-70.1022824311,6000.0,0.0,300.0,0.0
1513267126612515968,,704899,,1513267124,795445376,'',0.296705972839,0.308683049534,-0.00599334547456,0.0119770766945,0.001,-70.0507452523,6000.0,0.0,300.0,0.0
1513267126622534408,,704900,,1513267124,805445376,'',0.296705972839,0.308670313554,-0.00573891445264,0.0119643407151,0.001,-70.0624964704,6000.0,0.0,300.0,0.0
1513267126632423849,,704901,,1513267124,815445376,'',0.296705972839,0.30870326021,0.0089388102525,0.011997287371,0.001,-74.632333865,6000.0,0.0,300.0,0.0
1513267126642538194,,704902,,1513267124,825445376,'',0.296705972839,0.308688180061,0.00923160950412,0.0119822072215,0.001,-74.6741463052,6000.0,0.0,300.0,0.0
1513267126652313038,,704903,,1513267124,835445376,'',0.296705972839,0.308713944057,-0.0066304753739,0.0120079712181,0.001,-70.0554842959,6000.0,0.0,300.0,0.0
1513267126662287721,,704904,,1513267124,845445376,'',0.296705972839,0.308681638932,-0.00597933440978,0.0119756660926,0.001,-70.0543459954,6000.0,0.0,300.0,0.0
