rosbagTimestamp,header,seq,stamp,secs,nsecs,frame_id,set_point,process_value,process_value_dot,error,time_step,command,p,i,d,i_clamp
1513267123182557771,,704575,,1513267121,365445376,'',0.279252680319,0.255283688789,-0.00153823548743,-0.0239689915297,0.001,-156.2659372,-6500.0,0.0,-300.0,0.0
1513267123192528191,,704576,,1513267121,375445376,'',0.279252680319,0.255286819349,-0.00160216239409,-0.0239658609703,0.001,-156.261850459,-6500.0,0.0,-300.0,0.0
1513267123202272550,,704577,,1513267121,385445376,'',0.279252680319,0.255272394975,-0.00131147719962,-0.0239802853443,0.001,-156.269074723,-6500.0,0.0,-300.0,0.0
1513267123212645181,,704578,,1513267121,395445376,'',0.279252680319,0.25531317853,0.0168812322124,-0.0239395017888,0.001,-150.628063853,-6500.0,0.0,-300.0,0.0
1513267123222475342,,704579,,1513267121,405445376,'',0.279252680319,0.255310570533,-0.00209436561238,-0.0239421097858,0.001,-156.252591047,-6500.0,0.0,-300.0,0.0
1513267123232347978,,704580,,1513267121,415445376,'',0.279252680319,0.255309476179,-0.00206678719011,-0.0239432041404,0.001,-156.254977519,-6500.0,0.0,-300.0,0.0
1513267123242816477,,704581,,1513267121,425445376,'',0.279252680319,0.255307725049,-0.00203586278866,-0.02394495527,0.001,-156.266068727,-6500.0,0.0,-300.0,0.0
1513267123252770022,,704582,,1513267121,435445376,'',0.279252680319,0.25530761757,0.0169893254163,-0.0239450627493,0.001,-150.523038681,-6500.0,0.0,-300.0,0.0
1513267123262787692,,704583,,1513267121,445445376,'',0.279252680319,0.255342053081,0.0162942811858,-0.0239106272385,0.001,-150.518162378,-6500.0,0.0,-300.0,0.0
1513267123272728971,,704584,,1513267121,455445376,'',0.279252680319,0.255351381413,-0.00291552438803,-0.0239012989061,0.001,-156.210448051,-6500.0,0.0,-300.0,0.0
1513267123282844710,,704585,,1513267121,465445376,'',0.279252680319,0.255325255157,-0.00238679092505,-0.0239274251625,0.001,-156.247267826,-6500.0,0.0,-300.0,0.0
1513267123292812430,,704586,,1513267121,475445376,'',0.279252680319,0.255303874752,-0.00195410223815,-0.0239488055675,0.001,-156.221668833,-6500.0,0.0,-300.0,0.0
1513267123302703666,,704587,,1513267121,485445376,'',0.279252680319,0.255319998769,-0.00228741193023,-0.0239326815502,0.001,-156.248895662,-6500.0,0.0,-300.0,0.0
1513267123312667054,,704588,,1513267121,495445376,'',0.279252680319,0.25529956027,-0.00187251590042,-0.0239531200494,0.001,-156.235161723,-6500.0,0.0,-300.0,0.0
1513267123322613237,,704589,,1513267121,505445376,'',0.279252680319,0.255317673101,-0.00222991583666,-0.0239350072178,0.001,-156.234224047,-6500.0,0.0,-300.0,0.0
1513267123332551556,,704590,,1513267121,515445376,'',0.279252680319,0.255297701248,-0.00182635406423,-0.0239549790706,0.001,-156.246912375,-6500.0,0.0,-300.0,0.0
1513267123342612413,,704591,,1513267121,525445376,'',0.279252680319,0.255281315946,-0.00149526400789,-0.0239713643735,0.001,-156.255065161,-6500.0,0.0,-300.0,0.0
1513267123352498842,,704592,,1513267121,535445376,'',0.279252680319,0.255318322501,-0.00222664067152,-0.0239343578185,0.001,-156.260274433,-6500.0,0.0,-300.0,0.0
1513267123362449761,,704593,,1513267121,545445376,'',0.279252680319,0.255298233122,-0.00182367162615,-0.0239544471972,0.001,-156.256580336,-6500.0,0.0,-300.0,0.0
1513267123372354072,,704594,,1513267121,555445376,'',0.279252680319,0.255299333524,-0.00185614290199,-0.0239533467947,0.001,-156.246449186,-6500.0,0.0,-300.0,0.0
1513267123382448133,,704595,,1513267121,565445376,'',0.279252680319,0.255282647645,-0.00151955838644,-0.0239700326741,0.001,-156.264462274,-6500.0,0.0,-300.0,0.0
1513267123392358197,,704596,,1513267121,575445376,'',0.279252680319,0.255286915793,-0.00160784133469,-0.0239657645257,0.001,-156.25158901,-6500.0,0.0,-300.0,0.0
1513267123402707937,,704597,,1513267121,585445376,'',0.279252680319,0.255288792589,-0.0016458437589,-0.0239638877304,0.001,-156.259485251,-6500.0,0.0,-300.0,0.0
1513267123412721804,,704598,,1513267121,595445376,'',0.279252680319,0.255274016882,-0.00134736823465,-0.0239786634367,0.001,-156.267945256,-6500.0,0.0,-300.0,0.0
1513267123422624394,,704599,,1513267121,605445376,'',0.279252680319,0.255261923891,-0.00110308468285,-0.0239907564282,0.001,-156.271869022,-6500.0,0.0,-300.0,0.0
1513267123432382513,,704600,,1513267121,615445376,'',0.279252680319,0.255252020852,-0.000903039096974,-0.0240006594674,0.001,-156.276299867,-6500.0,0.0,-300.0,0.0
1513267123442472865,,704601,,1513267121,625445376,'',0.279252680319,0.255278501146,-0.00143820048497,-0.0239741791727,0.001,-156.265720018,-6500.0,0.0,-300.0,0.0
1513267123452359562,,704602,,1513267121,635445376,'',0.279252680319,0.255282208388,-0.00151629531954,-0.0239704719314,0.001,-156.254585199,-6500.0,0.0,-300.0,0.0
1513267123462541817,,704603,,1513267121,645445376,'',0.279252680319,0.255301225338,-0.00189585091278,-0.0239514549806,0.001,-156.257102231,-6500.0,0.0,-300.0,0.0
1513267123472581506,,704604,,1513267121,655445376,'',0.279252680319,0.255300155051,-0.00187792307317,-0.0239525252682,0.001,-156.25970076,-6500.0,0.0,-300.0,0.0
1513267123482407433,,704605,,1513267121,665445376,'',0.279252680319,0.255317932979,0.0167904811636,-0.0239347473405,0.001,-150.524820454,-6500.0,0.0,-300.0,0.0
1513267123492327943,,704606,,1513267121,675445376,'',0.279252680319,0.255350937101,0.0161236030883,-0.0239017432181,0.001,-150.485247761,-6500.0,0.0,-300.0,0.0
1513267123502284215,,704607,,1513267121,685445376,'',0.279252680319,0.25532495479,-0.00237638663631,-0.0239277255287,0.001,-156.230222921,-6500.0,0.0,-300.0,0.0
1513267123512758265,,704608,,1513267121,695445376,'',0.279252680319,0.255285904625,-0.00159625478186,-0.0239667756939,0.001,-156.260739216,-6500.0,0.0,-300.0,0.0
1513267123522709171,,704609,,1513267121,705445376,'',0.279252680319,0.255290335148,0.0173402543447,-0.0239623451713,0.001,-150.541494368,-6500.0,0.0,-300.0,0.0
1513267123532612713,,704610,,1513267121,715445376,'',0.279252680319,0.255275280993,-0.00138024036613,-0.0239773993259,0.001,-156.266244762,-6500.0,0.0,-300.0,0.0
1513267123542456868,,704611,,1513267121,725445376,'',0.279252680319,0.255278563746,-0.00144793320565,-0.0239741165733,0.001,-156.264758513,-6500.0,0.0,-300.0,0.0
1513267123552467965,,704612,,1513267121,735445376,'',0.279252680319,0.255300194923,-0.00188074744259,-0.0239524853965,0.001,-156.246131484,-6500.0,0.0,-300.0,0.0
1513267123562409298,,704613,,1513267121,745445376,'',0.279252680319,0.255283353204,-0.00153970859338,-0.0239693271153,0.001,-156.25396951,-6500.0,0.0,-300.0,0.0
1513267123572393029,,704614,,1513267121,755445376,'',0.279252680319,0.255303765851,-0.00195612999717,-0.0239489144676,0.001,-156.254813749,-6500.0,0.0,-300.0,0.0
1513267123582756122,,704615,,1513267121,765445376,'',0.279252680319,0.255302553317,-0.00193341047132,-0.0239501270026,0.001,-156.256985279,-6500.0,0.0,-300.0,0.0
1513267123592661934,,704616,,1513267121,775445376,'',0.279252680319,0.255285297703,-0.00158310143503,-0.0239673826157,0.001,-156.260092298,-6500.0,0.0,-300.0,0.0
1513267123602568850,,704617,,1513267121,785445376,'',0.279252680319,0.255319522349,-0.00227004218838,-0.0239331579705,0.001,-156.233207927,-6500.0,0.0,-300.0,0.0
1513267123612595386,,704618,,1513267121,795445376,'',0.279252680319,0.255333575845,0.0164755135612,-0.0239191044743,0.001,-150.512260005,-6500.0,0.0,-300.0,0.0
1513267123622476552,,704619,,1513267121,805445376,'',0.279252680319,0.255310678647,-0.00208794685657,-0.0239420016718,0.001,-156.251943344,-6500.0,0.0,-300.0,0.0
1513267123632429314,,704620,,1513267121,815445376,'',0.279252680319,0.255291974239,-0.00171011071311,-0.02396070608,0.001,-156.258721532,-6500.0,0.0,-300.0,0.0
1513267123642227235,,704621,,1513267121,825445376,'',0.279252680319,0.25527661625,-0.0013998735021,-0.0239760640692,0.001,-156.267300866,-6500.0,0.0,-300.0,0.0
1513267123652219638,,704622,,1513267121,835445376,'',0.279252680319,0.255298216408,-0.00182537756878,-0.0239544639116,0.001,-156.257781408,-6500.0,0.0,-300.0,0.0
1513267123662696770,,704623,,1513267121,845445376,'',0.279252680319,0.255313322182,-0.00213370900085,-0.0239393581374,0.001,-156.252238154,-6500.0,0.0,-300.0,0.0
1513267123672644789,,704624,,1513267121,855445376,'',0.279252680319,0.255309734455,-0.00206645103211,-0.023942945864,0.001,-156.240379194,-6500.0,0.0,-300.0,0.0
1513267123682664113,,704625,,1513267121,865445376,'',0.279252680319,0.255323670063,-0.00235269628225,-0.0239290102562,0.001,-156.229401169,-6500.0,0.0,-300.0,0.0
1513267123692501849,,704626,,1513267121,875445376,'',0.279252680319,0.255302572923,-0.00192610577133,-0.0239501073959,0.001,-156.252389634,-6500.0,0.0,-300.0,0.0
1513267123702270412,,704627,,1513267121,885445376,'',0.279252680319,0.255285299626,-0.00157683450711,-0.0239673806932,0.001,-156.262026228,-6500.0,0.0,-300.0,0.0
1513267123712546846,,704628,,1513267121,895445376,'',0.279252680319,0.255271154937,-0.00129082464242,-0.0239815253821,0.001,-156.269938816,-6500.0,0.0,-300.0,0.0
1513267123722542201,,704629,,1513267121,905445376,'',0.279252680319,0.25525960401,-0.00105726143039,-0.0239930763088,0.001,-156.266436847,-6500.0,0.0,-300.0,0.0
1513267123732611598,,704630,,1513267121,915445376,'',0.279252680319,0.255286025624,-0.00159156515929,-0.0239666546948,0.001,-156.260801548,-6500.0,0.0,-300.0,0.0
1513267123742527097,,704631,,1513267121,925445376,'',0.279252680319,0.255307742002,0.0169905706345,-0.0239449383175,0.001,-150.631019379,-6500.0,0.0,-300.0,0.0
1513267123752537739,,704632,,1513267121,935445376,'',0.279252680319,0.255289534896,-0.00166546770422,-0.0239631454235,0.001,-156.26228292,-6500.0,0.0,-300.0,0.0
1513267123762494937,,704633,,1513267121,945445376,'',0.279252680319,0.25529021971,-0.00168213810713,-0.0239624606095,0.001,-156.260438525,-6500.0,0.0,-300.0,0.0
1513267123772274634,,704634,,1513267121,955445376,'',0.279252680319,0.255306819301,-0.00201896736041,-0.0239458610178,0.001,-156.252964963,-6500.0,0.0,-300.0,0.0
1513267123782919538,,704635,,1513267121,965445376,'',0.279252680319,0.255307582682,0.0169929992986,-0.0239450976375,0.001,-150.497261133,-6500.0,0.0,-300.0,0.0
1513267123792660543,,704636,,1513267121,975445376,'',0.279252680319,0.255322356588,-0.00232644748976,-0.0239303237309,0.001,-156.233161076,-6500.0,0.0,-300.0,0.0
1513267123802429148,,704637,,1513267121,985445376,'',0.279252680319,0.255301488626,-0.00190443477595,-0.023951191693,0.001,-156.256309113,-6500.0,0.0,-300.0,0.0
1513267123812283268,,704638,,1513267121,995445376,'',0.279252680319,0.255284381077,-0.00155846887236,-0.0239682992424,0.001,-156.275576252,-6500.0,0.0,-300.0,0.0
1513267123822706962,,704639,,1513267122,5445376,'',0.279252680319,0.255304277437,-0.00196595123361,-0.0239484028823,0.001,-156.25389375,-6500.0,0.0,-300.0,0.0
1513267123832603195,,704640,,1513267122,15445376,'',0.279252680319,0.255302984078,-0.00193805645448,-0.0239496962413,0.001,-156.255696886,-6500.0,0.0,-300.0,0.0
1513267123842506965,,704641,,1513267122,25445376,'',0.279252680319,0.255303624694,-0.0019500240982,-0.0239490556249,0.001,-156.255434623,-6500.0,0.0,-300.0,0.0
1513267123852512689,,704642,,1513267122,35445376,'',0.279252680319,0.255304133509,-0.00195889974505,-0.0239485468097,0.001,-156.27133993,-6500.0,0.0,-300.0,0.0
1513267123862494543,,704643,,1513267122,45445376,'',0.279252680319,0.255318588409,-0.00224673144996,-0.0239340919098,0.001,-156.217978499,-6500.0,0.0,-300.0,0.0
1513267123872374089,,704644,,1513267122,55445376,'',0.279252680319,0.255316373909,-0.00219909810605,-0.0239363064102,0.001,-156.248782647,-6500.0,0.0,-300.0,0.0
1513267123882397345,,704645,,1513267122,65445376,'',0.279252680319,0.255296133103,-0.00178456754166,-0.0239565472158,0.001,-156.256427591,-6500.0,0.0,-300.0,0.0
1513267123892841969,,704646,,1513267122,75445376,'',0.279252680319,0.255298516644,-0.00181304753259,-0.0239541636748,0.001,-156.239029529,-6500.0,0.0,-300.0,0.0
1513267123902754303,,704647,,1513267122,85445376,'',0.279252680319,0.255319083549,0.0167920820062,-0.0239335967696,0.001,-150.543714621,-6500.0,0.0,-300.0,0.0
1513267123912683250,,704648,,1513267122,95445376,'',0.279252680319,0.255646336292,0.0482333591718,-0.0236063440275,0.001,-138.918558138,-6500.0,0.0,-300.0,0.0
1513267123922547430,,704649,,1513267122,105445376,'',0.279252680319,0.256394432184,0.0901914686635,-0.0228582481355,0.001,-122.052612625,-6500.0,0.0,-300.0,0.0
1513267123932509152,,704650,,1513267122,115445376,'',0.279252680319,0.257517937093,0.12456776635,-0.0217347432257,0.001,-103.799831165,-6500.0,0.0,-300.0,0.0
1513267123942523347,,704651,,1513267122,125445376,'',0.279252680319,0.258999988955,0.170719379454,-0.0202526913643,0.001,-81.3127868078,-6500.0,0.0,-300.0,0.0
1513267123952402182,,704652,,1513267122,135445376,'',0.279252680319,0.260782778947,0.191765897468,-0.018469901372,0.001,-63.5712364068,-6500.0,0.0,-300.0,0.0
1513267123962366112,,704653,,1513267122,145445376,'',0.279252680319,0.262708893797,0.190896973471,-0.016543786522,0.001,-51.2502316939,-6500.0,0.0,-300.0,0.0
1513267123972340005,,704654,,1513267122,155445376,'',0.279252680319,0.264439882764,0.174944725299,-0.0148127975546,0.001,-45.8115465601,-6500.0,0.0,-300.0,0.0
1513267123982788417,,704655,,1513267122,165445376,'',0.279252680319,0.265944594845,0.144548087176,-0.0133080854745,0.001,-43.004849179,-6500.0,0.0,-300.0,0.0
1513267123992670487,,704656,,1513267122,175445376,'',0.279252680319,0.267206233537,0.100037675892,-0.0120464467819,0.001,-48.1043284113,-6500.0,0.0,-300.0,0.0
1513267124002607560,,704657,,1513267122,185445376,'',0.279252680319,0.268346862752,0.1150490204,-0.0109058175672,0.001,-36.0940954477,-6500.0,0.0,-300.0,0.0
1513267124012567482,,704658,,1513267122,195445376,'',0.279252680319,0.269416338309,0.112468187136,-0.00983634200981,0.001,-30.0286466801,-6500.0,0.0,-300.0,0.0
1513267124022586722,,704659,,1513267122,205445376,'',0.279252680319,0.270497072317,0.109656603195,-0.00875560800251,0.001,-23.8822190573,-6500.0,0.0,-300.0,0.0
1513267124032418393,,704660,,1513267122,215445376,'',0.279252680319,0.271775229068,0.140911779695,-0.0074774512513,0.001,-6.934538332,-6500.0,0.0,-300.0,0.0
1513267124042359197,,704661,,1513267122,225445376,'',0.279252680319,0.273235025672,0.149470652411,-0.00601765464709,0.001,4.86909322601,-6500.0,0.0,-300.0,0.0
1513267124052348472,,704662,,1513267122,235445376,'',0.279252680319,0.274942336305,0.17205488558,-0.00431034401376,0.001,22.7734812221,-6500.0,0.0,-300.0,0.0
1513267124062722582,,704663,,1513267122,245445376,'',0.279252680319,0.276697993255,0.174636233049,-0.00255468706397,0.001,35.943884489,-6500.0,0.0,-300.0,0.0
1513267124072858695,,704664,,1513267122,255445376,'',0.279252680319,0.278371306038,0.159855954249,-0.000881374281533,0.001,42.3731422734,-6500.0,0.0,-300.0,0.0
1513267124082640614,,704665,,1513267122,265445376,'',0.279252680319,0.27987443195,0.148512944871,0.000621751630913,0.001,48.7736581642,-6500.0,0.0,-300.0,0.0
1513267124092624559,,704666,,1513267122,275445376,'',0.279252680319,0.2812285956,0.140180212059,0.0,0.001,0.0,-6500.0,0.0,-300.0,0.0
1513267124102469316,,704667,,1513267122,285445376,'',0.279252680319,0.282437545438,0.115756839346,0.0,0.001,0.0,-6500.0,0.0,-300.0,0.0
1513267124112419127,,704668,,1513267122,295445376,'',0.279252680319,0.28366865478,0.128933063064,0.0,0.001,0.0,-6500.0,0.0,-300.0,0.0
1513267124122317133,,704669,,1513267122,305445376,'',0.279252680319,0.284946154039,0.122151013979,0.0,0.001,0.0,-6500.0,0.0,-300.0,0.0
1513267124132283697,,704670,,1513267122,315445376,'',0.279252680319,0.286199129297,0.115864297297,0.0,0.001,0.0,-6500.0,0.0,-300.0,0.0
1513267124143815926,,704671,,1513267122,325445376,'',0.279252680319,0.287447294985,0.12869843561,0.0,0.001,0.0,-6500.0,0.0,-300.0,0.0
1513267124152725961,,704672,,1513267122,335445376,'',0.279252680319,0.288725111726,0.121905316139,0.0,0.001,0.0,-6500.0,0.0,-300.0,0.0
1513267124162650922,,704673,,1513267122,345445376,'',0.279252680319,0.289960171239,0.115982985011,0.0,0.001,0.0,-6500.0,0.0,-300.0,0.0
1513267124172707038,,704674,,1513267122,355445376,'',0.279252680319,0.291123185361,0.111514813234,0.0,0.001,0.0,-6500.0,0.0,-300.0,0.0
1513267124182682498,,704675,,1513267122,365445376,'',0.279252680319,0.292246186045,0.107856476975,0.0129935057255,0.001,500.0,-6500.0,0.0,-300.0,0.0
1513267124192608599,,704676,,1513267122,375445376,'',0.279252680319,0.293248104593,0.0876171665558,0.0139954242737,0.001,117.301785983,-6500.0,0.0,-300.0,0.0
1513267124202643560,,704677,,1513267122,385445376,'',0.279252680319,0.294259018054,0.105244724784,0.0150063377349,0.001,128.638328017,-6500.0,0.0,-300.0,0.0
1513267124212523122,,704678,,1513267122,395445376,'',0.279252680319,0.295088345447,0.0694689577593,0.0158356651279,0.001,123.918292029,-6500.0,0.0,-300.0,0.0
1513267124222494269,,704679,,1513267122,405445376,'',0.279252680319,0.295880443154,0.0724870067547,0.0166277628349,0.001,129.430464022,-6500.0,0.0,-300.0,0.0
1513267124232440926,,704680,,1513267122,415445376,'',0.279252680319,0.296599086332,0.057967417341,0.0173464060132,0.001,130.210534244,-6500.0,0.0,-300.0,0.0
1513267124242452466,,704681,,1513267122,425445376,'',0.279252680319,0.297240245169,0.0640391503922,0.0179875648496,0.001,136.225444914,-6500.0,0.0,-300.0,0.0
1513267124252472515,,704682,,1513267122,435445376,'',0.279252680319,0.297814951222,0.0524285819448,0.0185622709024,0.001,136.4645131,-6500.0,0.0,-300.0,0.0
1513267124262338560,,704683,,1513267122,445445376,'',0.279252680319,0.298285450509,0.0429232632699,0.0190327701894,0.001,136.640940321,-6500.0,0.0,-300.0,0.0
1513267124272694443,,704684,,1513267122,455445376,'',0.279252680319,0.298738103431,0.0337809346352,0.0194854231122,0.001,136.850858986,-6500.0,0.0,-300.0,0.0
1513267124282704814,,704685,,1513267122,465445376,'',0.279252680319,0.299146181015,0.0445587193913,0.0198935006957,0.001,142.783246096,-6500.0,0.0,-300.0,0.0
1513267124292574565,,704686,,1513267122,475445376,'',0.279252680319,0.299529865305,0.0368089314133,0.0202771849861,0.001,142.911768536,-6500.0,0.0,-300.0,0.0
1513267124302545918,,704687,,1513267122,485445376,'',0.279252680319,0.299843238667,0.0304782862205,0.0205905583482,0.001,142.824239593,-6500.0,0.0,-300.0,0.0
1513267124312563928,,704688,,1513267122,495445376,'',0.279252680319,0.3000830315,0.0256324855176,0.0208303511813,0.001,142.954601082,-6500.0,0.0,-300.0,0.0
1513267124322862264,,704689,,1513267122,505445376,'',0.279252680319,0.300298846366,0.0212725355107,0.0210461660467,0.001,143.646973966,-6500.0,0.0,-300.0,0.0
1513267124332814709,,704690,,1513267122,515445376,'',0.279252680319,0.300489161585,0.0174276975167,0.0212364812656,0.001,143.449893637,-6500.0,0.0,-300.0,0.0
1513267124342822781,,704691,,1513267122,525445376,'',0.279252680319,0.300577002557,0.0156606321411,0.0213243222383,0.001,143.331686071,-6500.0,0.0,-300.0,0.0
1513267124352719688,,704692,,1513267122,535445376,'',0.279252680319,0.300667358057,0.0138290137995,0.0214146777379,0.001,143.386132529,-6500.0,0.0,-300.0,0.0
1513267124362690065,,704693,,1513267122,545445376,'',0.279252680319,0.300674444174,0.0136859861036,0.0214217638552,0.001,143.367054398,-6500.0,0.0,-300.0,0.0
1513267124372632329,,704694,,1513267122,555445376,'',0.279252680319,0.300642262838,-0.00468839417516,0.0213895825194,0.001,137.616850448,-6500.0,0.0,-300.0,0.0
1513267124382520571,,704695,,1513267122,565445376,'',0.279252680319,0.300600172344,-0.00383844172067,0.0213474920251,0.001,137.603193857,-6500.0,0.0,-300.0,0.0
1513267124392567239,,704696,,1513267122,575445376,'',0.279252680319,0.300565765815,-0.00314365506669,0.0213130854963,0.001,137.609605092,-6500.0,0.0,-300.0,0.0
1513267124402412639,,704697,,1513267122,585445376,'',0.279252680319,0.300537541537,-0.00257370939766,0.0212848612176,0.001,137.5760779,-6500.0,0.0,-300.0,0.0
1513267124412720945,,704698,,1513267122,595445376,'',0.279252680319,0.300480757331,-0.00143070771268,0.0212280770115,0.001,137.55198363,-6500.0,0.0,-300.0,0.0
1513267124422707080,,704699,,1513267122,605445376,'',0.279252680319,0.300381216198,0.000578678683181,0.021128535879,0.001,137.511503933,-6500.0,0.0,-300.0,0.0
1513267124432701698,,704700,,1513267122,615445376,'',0.279252680319,0.300351110734,-0.0178374838862,0.0210984304147,0.001,131.773643886,-6500.0,0.0,-300.0,0.0
1513267124442617901,,704701,,1513267122,625445376,'',0.279252680319,0.300292888572,-0.016656437106,0.021040208253,0.001,131.749128347,-6500.0,0.0,-300.0,0.0
1513267124452711749,,704702,,1513267122,635445376,'',0.279252680319,0.300278493441,0.00265971405835,0.0210258131217,0.001,137.46851315,-6500.0,0.0,-300.0,0.0
1513267124462418980,,704703,,1513267122,645445376,'',0.279252680319,0.300285483147,0.00251638096468,0.0210328028276,0.001,137.472870441,-6500.0,0.0,-300.0,0.0
1513267124472405737,,704704,,1513267122,655445376,'',0.279252680319,0.300224770549,0.00373783856624,0.0209720902304,0.001,137.422408776,-6500.0,0.0,-300.0,0.0
1513267124482323191,,704705,,1513267122,665445376,'',0.279252680319,0.30020705786,0.00409263067573,0.0209543775406,0.001,137.435295049,-6500.0,0.0,-300.0,0.0
1513267124492760449,,704706,,1513267122,675445376,'',0.279252680319,0.300154028916,-0.0138823094657,0.0209013485966,0.001,131.791707855,-6500.0,0.0,-300.0,0.0
1513267124502677365,,704707,,1513267122,685445376,'',0.279252680319,0.300132825343,0.00557954178107,0.020880145024,0.001,137.410050658,-6500.0,0.0,-300.0,0.0
1513267124512522630,,704708,,1513267122,695445376,'',0.279252680319,0.30004397128,-0.011650264679,0.0207912909604,0.001,131.640956607,-6500.0,0.0,-300.0,0.0
1513267124522471920,,704709,,1513267122,705445376,'',0.279252680319,0.300028200739,0.00769763023326,0.0207755204198,0.001,137.364583909,-6500.0,0.0,-300.0,0.0
1513267124532511791,,704710,,1513267122,715445376,'',0.279252680319,0.300043880803,0.00738822373173,0.0207912004839,0.001,137.375370757,-6500.0,0.0,-300.0,0.0
1513267124542441705,,704711,,1513267122,725445376,'',0.279252680319,0.299955268778,-0.00984068008309,0.0207025884589,0.001,131.604124595,-6500.0,0.0,-300.0,0.0
1513267124552357576,,704712,,1513267122,735445376,'',0.279252680319,0.299918512632,-0.00908915449112,0.020665832313,0.001,131.649293323,-6500.0,0.0,-300.0,0.0
1513267124562375798,,704713,,1513267122,745445376,'',0.279252680319,0.299920392307,-0.00912365372704,0.0206677119874,0.001,131.645050405,-6500.0,0.0,-300.0,0.0
1513267124572487321,,704714,,1513267122,755445376,'',0.279252680319,0.299886300752,-0.00843662040164,0.0206336204325,0.001,131.577926878,-6500.0,0.0,-300.0,0.0
1513267124582782730,,704715,,1513267122,765445376,'',0.279252680319,0.299880273562,0.0107140828139,0.0206275932433,0.001,137.303159987,-6500.0,0.0,-300.0,0.0
1513267124592625962,,704716,,1513267122,775445376,'',0.279252680319,0.299824364363,0.0118412812055,0.0205716840438,0.001,137.291058551,-6500.0,0.0,-300.0,0.0
1513267124602568515,,704717,,1513267122,785445376,'',0.279252680319,0.299812136839,0.0120895038656,0.02055945652,0.001,137.279231205,-6500.0,0.0,-300.0,0.0
1513267124612533467,,704718,,1513267122,795445376,'',0.279252680319,0.299797931534,-0.00664748302518,0.020545251215,0.001,131.536869259,-6500.0,0.0,-300.0,0.0
1513267124622382510,,704719,,1513267122,805445376,'',0.279252680319,0.299770522913,-0.00609385941862,0.0205178425939,0.001,131.522120172,-6500.0,0.0,-300.0,0.0
1513267124632447167,,704720,,1513267122,815445376,'',0.279252680319,0.299732341929,-0.0053244053236,0.0204796616101,0.001,131.508090887,-6500.0,0.0,-300.0,0.0
1513267124642450777,,704721,,1513267122,825445376,'',0.279252680319,0.299767554564,-0.00604002047542,0.0205148742449,0.001,131.530109867,-6500.0,0.0,-300.0,0.0
1513267124652378733,,704722,,1513267122,835445376,'',0.279252680319,0.299763962596,-0.00596808733828,0.0205112822766,0.001,131.56480276,-6500.0,0.0,-300.0,0.0
1513267124662320293,,704723,,1513267122,845445376,'',0.279252680319,0.299745132957,0.0134283493157,0.0204924526374,0.001,137.146136347,-6500.0,0.0,-300.0,0.0
1513267124672270247,,704724,,1513267122,855445376,'',0.279252680319,0.29972852336,-0.00526594076898,0.0204758430406,0.001,131.54034381,-6500.0,0.0,-300.0,0.0
1513267124682667244,,704725,,1513267122,865445376,'',0.279252680319,0.299681372719,-0.00431155295619,0.0204286923996,0.001,131.490394513,-6500.0,0.0,-300.0,0.0
1513267124692779060,,704726,,1513267122,875445376,'',0.279252680319,0.299642743444,-0.00352964822072,0.0203900631245,0.001,131.498781878,-6500.0,0.0,-300.0,0.0
1513267124702576159,,704727,,1513267122,885445376,'',0.279252680319,0.299629897136,0.0157563667664,0.0203772168169,0.001,137.209444592,-6500.0,0.0,-300.0,0.0
1513267124712520178,,704728,,1513267122,895445376,'',0.279252680319,0.299600606166,-0.0026764040848,0.0203479258465,0.001,131.454541563,-6500.0,0.0,-300.0,0.0
1513267124722464949,,704729,,1513267122,905445376,'',0.279252680319,0.299595392739,0.0164550514784,0.0203427124204,0.001,137.195570554,-6500.0,0.0,-300.0,0.0
1513267124732573813,,704730,,1513267122,915445376,'',0.279252680319,0.299588324723,-0.00242260705875,0.0203356444037,0.001,131.451057771,-6500.0,0.0,-300.0,0.0
1513267124742530109,,704731,,1513267122,925445376,'',0.279252680319,0.299566575421,-0.00198337816666,0.0203138951016,0.001,131.440863642,-6500.0,0.0,-300.0,0.0
1513267124752443319,,704732,,1513267122,935445376,'',0.279252680319,0.299548769742,-0.0016237910707,0.0202960894232,0.001,131.434394825,-6500.0,0.0,-300.0,0.0
1513267124762374701,,704733,,1513267122,945445376,'',0.279252680319,0.299428385779,-0.0182117289342,0.0201757054596,0.001,125.66043526,-6500.0,0.0,-300.0,0.0
1513267124772798357,,704734,,1513267122,955445376,'',0.279252680319,0.299230009548,-0.0142040520169,0.0199773292287,0.001,125.572798902,-6500.0,0.0,-300.0,0.0
1513267124782808172,,704735,,1513267122,965445376,'',0.279252680319,0.299102499415,-0.0116290746482,0.0198498190963,0.001,125.527416939,-6500.0,0.0,-300.0,0.0
1513267124792831658,,704736,,1513267122,975445376,'',0.279252680319,0.299016351078,-0.00989025634719,0.0197636707587,0.001,125.484081323,-6500.0,0.0,-300.0,0.0
1513267124802748157,,704737,,1513267122,985445376,'',0.279252680319,0.298924875147,-0.0270608407897,0.0196721948278,0.001,119.887987972,-6500.0,0.0,-300.0,0.0
1513267124812717698,,704738,,1513267122,995445376,'',0.279252680319,0.298851831912,-0.00655024664516,0.0195991515926,0.001,125.413394738,-6500.0,0.0,-300.0,0.0
1513267124822579096,,704739,,1513267123,5445376,'',0.279252680319,0.298791884552,-0.00534990862039,0.0195392042331,0.001,125.426484168,-6500.0,0.0,-300.0,0.0
1513267124832445428,,704740,,1513267123,15445376,'',0.279252680319,0.29886433662,-0.00680335498778,0.0196116563013,0.001,125.464324305,-6500.0,0.0,-300.0,0.0
1513267124842402080,,704741,,1513267123,25445376,'',0.279252680319,0.29888864846,-0.00729367093134,0.0196359681409,0.001,125.473316053,-6500.0,0.0,-300.0,0.0
1513267124852410921,,704742,,1513267123,35445376,'',0.279252680319,0.298823021871,-0.00597143995384,0.0195703415523,0.001,125.40380508,-6500.0,0.0,-300.0,0.0
1513267124862416250,,704743,,1513267123,45445376,'',0.279252680319,0.298870499025,-0.00692381986932,0.0196178187056,0.001,125.423519057,-6500.0,0.0,-300.0,0.0
1513267124872777080,,704744,,1513267123,55445376,'',0.279252680319,0.298842671489,-0.00637404270812,0.0195899911699,0.001,125.402277344,-6500.0,0.0,-300.0,0.0
1513267124882759566,,704745,,1513267123,65445376,'',0.279252680319,0.298856484131,0.01236192693,0.0196038038117,0.001,131.219333401,-6500.0,0.0,-300.0,0.0
1513267124892715968,,704746,,1513267123,75445376,'',0.279252680319,0.298812858643,-0.00578451933936,0.0195601783239,0.001,125.397496252,-6500.0,0.0,-300.0,0.0
1513267124902718499,,704747,,1513267123,85445376,'',0.279252680319,0.298776862099,-0.00506097239436,0.0195241817799,0.001,125.386098929,-6500.0,0.0,-300.0,0.0
1513267124912656755,,704748,,1513267123,95445376,'',0.279252680319,0.298767509831,0.0141581530051,0.0195148295122,0.001,131.116045125,-6500.0,0.0,-300.0,0.0
1513267124922538212,,704749,,1513267123,105445376,'',0.279252680319,0.29874226008,0.0146632068708,0.0194895797608,0.001,131.007205979,-6500.0,0.0,-300.0,0.0
1513267124932593205,,704750,,1513267123,115445376,'',0.279252680319,0.298771030478,-0.00493854900385,0.0195183501592,0.001,125.413599154,-6500.0,0.0,-300.0,0.0
1513267124942506428,,704751,,1513267123,125445376,'',0.279252680319,0.298812248334,0.0132504629513,0.0195595680145,0.001,131.137168385,-6500.0,0.0,-300.0,0.0
1513267124952467658,,704752,,1513267123,135445376,'',0.279252680319,0.298831148513,0.0128657474469,0.0195784681944,0.001,131.137355228,-6500.0,0.0,-300.0,0.0
1513267124962445465,,704753,,1513267123,145445376,'',0.279252680319,0.298825444981,-0.00604726951594,0.0195727646619,0.001,125.399141578,-6500.0,0.0,-300.0,0.0
1513267124972456646,,704754,,1513267123,155445376,'',0.279252680319,0.298823525051,-0.00600205378292,0.0195708447317,0.001,125.400547459,-6500.0,0.0,-300.0,0.0
1513267124982405130,,704755,,1513267123,165445376,'',0.279252680319,0.298838731016,0.0127216566909,0.0195860506974,0.001,131.140503717,-6500.0,0.0,-300.0,0.0
1513267124992774297,,704756,,1513267123,175445376,'',0.279252680319,0.298832898637,-0.00618857408552,0.0195802183182,0.001,125.415504779,-6500.0,0.0,-300.0,0.0
1513267125002815395,,704757,,1513267123,185445376,'',0.279252680319,0.298777493444,-0.00506900013591,0.0195248131251,0.001,125.417112694,-6500.0,0.0,-300.0,0.0
1513267125012653045,,704758,,1513267123,195445376,'',0.279252680319,0.298749688651,-0.00450634418203,0.0194970083317,0.001,125.374657036,-6500.0,0.0,-300.0,0.0
1513267125022577202,,704759,,1513267123,205445376,'',0.279252680319,0.298724970067,-0.00400568560471,0.0194722897478,0.001,125.364538272,-6500.0,0.0,-300.0,0.0
1513267125032463904,,704760,,1513267123,215445376,'',0.279252680319,0.298791000331,-0.00534441025571,0.0195383200124,0.001,125.398610999,-6500.0,0.0,-300.0,0.0
1513267125042536249,,704761,,1513267123,225445376,'',0.279252680319,0.298707440778,-0.00365937326188,0.0194547604585,0.001,125.355812249,-6500.0,0.0,-300.0,0.0
1513267125052462652,,704762,,1513267123,235445376,'',0.279252680319,0.298640231055,-0.0213291905349,0.0193875507355,0.001,119.597728985,-6500.0,0.0,-300.0,0.0
1513267125062435200,,704763,,1513267123,245445376,'',0.279252680319,0.298497750969,-0.018452188777,0.0192450706499,0.001,119.538566864,-6500.0,0.0,-300.0,0.0
1513267125072716507,,704764,,1513267123,255445376,'',0.279252680319,0.298332909617,-0.0151200612769,0.019080229298,0.001,119.551983761,-6500.0,0.0,-300.0,0.0
1513267125082673984,,704765,,1513267123,265445376,'',0.279252680319,0.298214909422,-0.0127352556732,0.0189622291026,0.001,119.417444335,-6500.0,0.0,-300.0,0.0
1513267125092655623,,704766,,1513267123,275445376,'',0.279252680319,0.298138006768,0.00785016337988,0.0188853264493,0.001,125.117096845,-6500.0,0.0,-300.0,0.0
1513267125102493027,,704767,,1513267123,285445376,'',0.279252680319,0.298073970284,-0.00988013905885,0.0188212899648,0.001,119.365455192,-6500.0,0.0,-300.0,0.0
1513267125112533600,,704768,,1513267123,295445376,'',0.279252680319,0.298053849226,-0.00947039614242,0.0188011689066,0.001,119.354245184,-6500.0,0.0,-300.0,0.0
1513267125122516918,,704769,,1513267123,305445376,'',0.279252680319,0.298019339995,0.0102497755721,0.0187666596764,0.001,125.067129963,-6500.0,0.0,-300.0,0.0
1513267125132413428,,704770,,1513267123,315445376,'',0.279252680319,0.298061163609,0.00939723351203,0.0188084832898,0.001,125.093572563,-6500.0,0.0,-300.0,0.0
1513267125142402399,,704771,,1513267123,325445376,'',0.279252680319,0.298110712422,0.00839891451053,0.0188580321024,0.001,125.110460503,-6500.0,0.0,-300.0,0.0
1513267125152726126,,704772,,1513267123,335445376,'',0.279252680319,0.298167392859,-0.0117703329832,0.0189147125402,0.001,119.401391999,-6500.0,0.0,-300.0,0.0
1513267125162696241,,704773,,1513267123,345445376,'',0.279252680319,0.298179305992,-0.0120089681574,0.0189266256728,0.001,119.409808778,-6500.0,0.0,-300.0,0.0
1513267125172650656,,704774,,1513267123,355445376,'',0.279252680319,0.298157723283,0.00745235160716,0.0189050429642,0.001,125.080179515,-6500.0,0.0,-300.0,0.0
1513267125182560681,,704775,,1513267123,365445376,'',0.279252680319,0.298139960524,0.0078028122988,0.0188872802053,0.001,125.070522931,-6500.0,0.0,-300.0,0.0
1513267125192481600,,704776,,1513267123,375445376,'',0.279252680319,0.29805524468,-0.00950961211169,0.018802564361,0.001,119.417964853,-6500.0,0.0,-300.0,0.0
1513267125202566492,,704777,,1513267123,385445376,'',0.279252680319,0.297951200857,-0.0264311596767,0.0186985205382,0.001,113.579537624,-6500.0,0.0,-300.0,0.0
1513267125212450402,,704778,,1513267123,395445376,'',0.279252680319,0.297658385347,-0.0395323859222,0.0184057050275,0.001,107.706835143,-6500.0,0.0,-300.0,0.0
1513267125222286240,,704779,,1513267123,405445376,'',0.279252680319,0.297214600569,-0.0495886711898,0.0179619202504,0.001,101.815236136,-6500.0,0.0,-300.0,0.0
1513267125232661328,,704780,,1513267123,415445376,'',0.279252680319,0.29664414871,-0.0761147020542,0.0173914683906,0.001,90.0960181781,-6500.0,0.0,-300.0,0.0
1513267125242549592,,704781,,1513267123,425445376,'',0.279252680319,0.295924379803,-0.0805944739696,0.0166716994844,0.001,84.0889695752,-6500.0,0.0,-300.0,0.0
1513267125252457267,,704782,,1513267123,435445376,'',0.279252680319,0.295217707929,-0.0663252814761,0.0159650276099,0.001,84.1979704316,-6500.0,0.0,-300.0,0.0
1513267125262387287,,704783,,1513267123,445445376,'',0.279252680319,0.294622358465,-0.0542981564576,0.0153696781455,0.001,83.8738663227,-6500.0,0.0,-300.0,0.0
1513267125272385485,,704784,,1513267123,455445376,'',0.279252680319,0.294134977458,-0.0444521875769,0.0148822971387,0.001,83.3459545918,-6500.0,0.0,-300.0,0.0
1513267125282755173,,704785,,1513267123,465445376,'',0.279252680319,0.293735999774,-0.0363921240858,0.0144833194549,0.001,83.1592524869,-6500.0,0.0,-300.0,0.0
1513267125292583192,,704786,,1513267123,475445376,'',0.279252680319,0.29340933653,-0.0297929417479,0.0141566562112,0.001,83.0166632595,-6500.0,0.0,-300.0,0.0
1513267125302594368,,704787,,1513267123,485445376,'',0.279252680319,0.293141983758,-0.0243919371152,0.013889303439,0.001,82.9477307691,-6500.0,0.0,-300.0,0.0
1513267125312603489,,704788,,1513267123,495445376,'',0.279252680319,0.292923451543,-0.019977195134,0.0136707712237,0.001,82.8544378819,-6500.0,0.0,-300.0,0.0
1513267125322531530,,704789,,1513267123,505445376,'',0.279252680319,0.292744132101,-0.0163546213876,0.0134914517823,0.001,82.7625247884,-6500.0,0.0,-300.0,0.0
1513267125332566367,,704790,,1513267123,515445376,'',0.279252680319,0.292528047356,-0.0119945101254,0.0132753670372,0.001,82.6648480278,-6500.0,0.0,-300.0,0.0
1513267125342824986,,704791,,1513267123,525445376,'',0.279252680319,0.292266383453,-0.0257363557957,0.0130137031338,0.001,76.8473160556,-6500.0,0.0,-300.0,0.0
1513267125352708452,,704792,,1513267123,535445376,'',0.279252680319,0.291979045452,-0.03895205991,0.0127263651326,0.001,70.9763243173,-6500.0,0.0,-300.0,0.0
1513267125362779194,,704793,,1513267123,545445376,'',0.279252680319,0.291592489768,-0.0501666153303,0.0123398094484,0.001,65.0852115251,-6500.0,0.0,-300.0,0.0
1513267125372588108,,704794,,1513267123,555445376,'',0.279252680319,0.291245443398,-0.0431573490631,0.0119927630789,0.001,64.9680742257,-6500.0,0.0,-300.0,0.0
1513267125382499305,,704795,,1513267123,565445376,'',0.279252680319,0.29085811001,-0.0353358922656,0.0116054296909,0.001,65.0320817999,-6500.0,0.0,-300.0,0.0
1513267125392442951,,704796,,1513267123,575445376,'',0.279252680319,0.290626489233,-0.0306590056038,0.0113738089142,0.001,64.9022601704,-6500.0,0.0,-300.0,0.0
1513267125402718682,,704797,,1513267123,585445376,'',0.279252680319,0.290435755953,-0.0268042787137,0.0111830756344,0.001,64.6271400591,-6500.0,0.0,-300.0,0.0
1513267125412779985,,704798,,1513267123,595445376,'',0.279252680319,0.290348023423,-0.00600033288536,0.011095343104,0.001,70.3114098045,-6500.0,0.0,-300.0,0.0
1513267125422661831,,704799,,1513267123,605445376,'',0.279252680319,0.29020862388,-0.0222160847857,0.0109559435607,0.001,64.5250844708,-6500.0,0.0,-300.0,0.0
1513267125432548339,,704800,,1513267123,615445376,'',0.279252680319,0.290162726778,-0.0022632526328,0.0109100464589,0.001,70.2524876685,-6500.0,0.0,-300.0,0.0
1513267125442375428,,704801,,1513267123,625445376,'',0.279252680319,0.290126801938,-0.00153958209614,0.010874121619,0.001,70.221285196,-6500.0,0.0,-300.0,0.0
1513267125452332578,,704802,,1513267123,635445376,'',0.279252680319,0.290113108019,-0.0012610084404,0.0108604277004,0.001,70.215237165,-6500.0,0.0,-300.0,0.0
1513267125462800695,,704803,,1513267123,645445376,'',0.279252680319,0.290101868415,-0.00103236259311,0.0108491880963,0.001,70.2106357536,-6500.0,0.0,-300.0,0.0
1513267125472764772,,704804,,1513267123,655445376,'',0.279252680319,0.290092686788,-0.000845581912892,0.0108400064692,0.001,70.2177925132,-6500.0,0.0,-300.0,0.0
1513267125482700969,,704805,,1513267123,665445376,'',0.279252680319,0.290085149309,-0.000692247932946,0.0108324689903,0.001,70.2037414073,-6500.0,0.0,-300.0,0.0
1513267125492599583,,704806,,1513267123,675445376,'',0.279252680319,0.29007898037,-0.000566753971172,0.0108263000506,0.001,70.2014282075,-6500.0,0.0,-300.0,0.0
1513267125502482295,,704807,,1513267123,685445376,'',0.279252680319,0.290056662047,-0.000114832223796,0.0108039817284,0.001,70.1921933056,-6500.0,0.0,-300.0,0.0
1513267125512562845,,704808,,1513267123,695445376,'',0.279252680319,0.290055653974,-9.39436457078e-05,0.0108029736549,0.001,70.1913850042,-6500.0,0.0,-300.0,0.0
1513267125522515484,,704809,,1513267123,705445376,'',0.279252680319,0.289986455519,0.00129375493713,0.0107337751999,0.001,70.1633865622,-6500.0,0.0,-300.0,0.0
1513267125532278274,,704810,,1513267123,715445376,'',0.279252680319,0.289982591163,0.00137760381339,0.0107299108437,0.001,70.1421094507,-6500.0,0.0,-300.0,0.0
1513267125542678867,,704811,,1513267123,725445376,'',0.279252680319,0.289994995448,0.00112824722193,0.0107423151292,0.001,70.1603306179,-6500.0,0.0,-300.0,0.0
1513267125552848873,,704812,,1513267123,735445376,'',0.279252680319,0.290005172873,0.000923655999877,0.0107524925538,0.001,70.1713175628,-6500.0,0.0,-300.0,0.0
1513267125562510637,,704813,,1513267123,745445376,'',0.279252680319,0.289996220779,0.00110500187718,0.0107435404601,0.001,70.167464517,-6500.0,0.0,-300.0,0.0
1513267125572586431,,704814,,1513267123,755445376,'',0.279252680319,0.28997333207,0.00157271830934,0.0107206517505,0.001,70.1580139185,-6500.0,0.0,-300.0,0.0
1513267125582661930,,704815,,1513267123,765445376,'',0.279252680319,0.289920434026,-0.0163883516729,0.0106677537073,0.001,64.3900301826,-6500.0,0.0,-300.0,0.0
1513267125592641330,,704816,,1513267123,775445376,'',0.279252680319,0.289927510574,0.00249471700277,0.010674830255,0.001,70.139254935,-6500.0,0.0,-300.0,0.0
1513267125602788669,,704817,,1513267123,785445376,'',0.279252680319,0.289894866686,0.00310878871004,0.010642186367,0.001,70.1049137992,-6500.0,0.0,-300.0,0.0
1513267125612785983,,704818,,1513267123,795445376,'',0.279252680319,0.289871835674,0.00357783998559,0.0106191553545,0.001,70.1133220234,-6500.0,0.0,-300.0,0.0
1513267125622702520,,704819,,1513267123,805445376,'',0.279252680319,0.289886725569,0.00328142334095,0.0106340452494,0.001,70.1225578535,-6500.0,0.0,-300.0,0.0
1513267125632674143,,704820,,1513267123,815445376,'',0.279252680319,0.289899247723,0.0030399070119,0.010646567404,0.001,70.0979905511,-6500.0,0.0,-300.0,0.0
1513267125642579842,,704821,,1513267123,825445376,'',0.279252680319,0.289909428086,0.00284235137277,0.0106567477668,0.001,70.1310248756,-6500.0,0.0,-300.0,0.0
1513267125652477361,,704822,,1513267123,835445376,'',0.279252680319,0.289901141912,-0.0160037225262,0.010648461593,0.001,64.4933021356,-6500.0,0.0,-300.0,0.0
1513267125662564778,,704823,,1513267123,845445376,'',0.279252680319,0.289877114545,0.00350820927188,0.0106244342256,0.001,70.1176072977,-6500.0,0.0,-300.0,0.0
1513267125672436823,,704824,,1513267123,855445376,'',0.279252680319,0.289842992791,0.00420014391192,0.0105903124722,0.001,70.0779275356,-6500.0,0.0,-300.0,0.0
1513267125682716537,,704825,,1513267123,865445376,'',0.279252680319,0.289831247202,0.00443909711701,0.0105785668833,0.001,70.0985617641,-6500.0,0.0,-300.0,0.0
1513267125692579375,,704826,,1513267123,875445376,'',0.279252680319,0.289871128289,0.00363392348587,0.0106184479699,0.001,70.1195877519,-6500.0,0.0,-300.0,0.0
1513267125702552921,,704827,,1513267123,885445376,'',0.279252680319,0.289903764411,0.00297502106477,0.0106510840915,0.001,70.1297485046,-6500.0,0.0,-300.0,0.0
1513267125712475721,,704828,,1513267123,895445376,'',0.279252680319,0.289930431748,0.00243662457221,0.0106777514293,0.001,70.123544176,-6500.0,0.0,-300.0,0.0
1513267125722585692,,704829,,1513267123,905445376,'',0.279252680319,0.289933885234,0.00236152928706,0.0106812049147,0.001,70.1225343536,-6500.0,0.0,-300.0,0.0
1513267125732498811,,704830,,1513267123,915445376,'',0.279252680319,0.289955145937,0.00193326342757,0.0107024656184,0.001,70.1505686497,-6500.0,0.0,-300.0,0.0
1513267125742489452,,704831,,1513267123,925445376,'',0.279252680319,0.289937248678,0.00229590440852,0.0106845683594,0.001,70.1425768428,-6500.0,0.0,-300.0,0.0
1513267125752683449,,704832,,1513267123,935445376,'',0.279252680319,0.289939950338,0.00224211215556,0.0106872700185,0.001,70.1607397409,-6500.0,0.0,-300.0,0.0
1513267125762438611,,704833,,1513267123,945445376,'',0.279252680319,0.289943031692,0.00217643185237,0.0106903513727,0.001,70.1317290999,-6500.0,0.0,-300.0,0.0
1513267125772477124,,704834,,1513267123,955445376,'',0.279252680319,0.289928436855,0.00246988309571,0.0106757565361,0.001,70.1365901989,-6500.0,0.0,-300.0,0.0
1513267125782483820,,704835,,1513267123,965445376,'',0.279252680319,0.289950688023,0.00202191895037,0.0106980077036,0.001,70.1481572725,-6500.0,0.0,-300.0,0.0
1513267125792558436,,704836,,1513267123,975445376,'',0.279252680319,0.289934913207,0.00233654043842,0.0106822328875,0.001,70.1416070829,-6500.0,0.0,-300.0,0.0
1513267125802459104,,704837,,1513267123,985445376,'',0.279252680319,0.289903844883,0.00296072340092,0.0106511645638,0.001,70.1213987727,-6500.0,0.0,-300.0,0.0
1513267125812822592,,704838,,1513267123,995445376,'',0.279252680319,0.289880820976,0.00343796904171,0.0106281406573,0.001,70.1213833768,-6500.0,0.0,-300.0,0.0
1513267125822298400,,704839,,1513267124,5445376,'',0.279252680319,0.289894062451,0.00317090571201,0.0106413821315,0.001,70.1246445904,-6500.0,0.0,-300.0,0.0
1513267125832738494,,704840,,1513267124,15445376,'',0.279252680319,0.289854894567,0.00396230570727,0.0106022142483,0.001,70.1083808786,-6500.0,0.0,-300.0,0.0
1513267125842681651,,704841,,1513267124,25445376,'',0.279252680319,0.289820909795,-0.0143715196624,0.0105682294764,0.001,64.3599397064,-6500.0,0.0,-300.0,0.0
1513267125852674529,,704842,,1513267124,35445376,'',0.279252680319,0.289810322091,0.00486501121535,0.0105576417719,0.001,70.0561414177,-6500.0,0.0,-300.0,0.0
1513267125862502125,,704843,,1513267124,45445376,'',0.279252680319,0.289733280623,-0.0126036637681,0.0104806003038,0.001,64.3240649672,-6500.0,0.0,-300.0,0.0
1513267125872468861,,704844,,1513267124,55445376,'',0.279252680319,0.289774472002,0.00558821662342,0.0105217916827,0.001,70.0770058524,-6500.0,0.0,-300.0,0.0
1513267125882823028,,704845,,1513267124,65445376,'',0.279252680319,0.289824637066,0.00457489664052,0.0105719567466,0.001,70.0941642607,-6500.0,0.0,-300.0,0.0
1513267125892738393,,704846,,1513267124,75445376,'',0.279252680319,0.289794001796,-0.0138313060327,0.0105413214773,0.001,64.3739027585,-6500.0,0.0,-300.0,0.0
1513267125902726939,,704847,,1513267124,85445376,'',0.279252680319,0.289739260856,-0.01272723504,0.0104865805365,0.001,64.4230178562,-6500.0,0.0,-300.0,0.0
1513267125912580056,,704848,,1513267124,95445376,'',0.279252680319,0.289795674425,0.00515498759922,0.0105429941058,0.001,70.0275138045,-6500.0,0.0,-300.0,0.0
1513267125922638271,,704849,,1513267124,105445376,'',0.279252680319,0.289824008861,0.00458302098821,0.010571328542,0.001,70.105169622,-6500.0,0.0,-300.0,0.0
1513267125932470879,,704850,,1513267124,115445376,'',0.279252680319,0.289793486004,-0.0138464696694,0.0105408056849,0.001,64.3367306694,-6500.0,0.0,-300.0,0.0
1513267125942507901,,704851,,1513267124,125445376,'',0.279252680319,0.289808244308,0.00488844127708,0.0105555639892,0.001,70.0592395779,-6500.0,0.0,-300.0,0.0
1513267125952435378,,704852,,1513267124,135445376,'',0.279252680319,0.289801252231,0.00502750274949,0.0105485719117,0.001,70.0893891984,-6500.0,0.0,-300.0,0.0
1513267125962335915,,704853,,1513267124,145445376,'',0.279252680319,0.289795335105,0.00514344747441,0.0105426547862,0.001,70.0851432696,-6500.0,0.0,-300.0,0.0
1513267125972736404,,704854,,1513267124,155445376,'',0.279252680319,0.289825115776,0.00454648212832,0.0105724354566,0.001,70.0989846056,-6500.0,0.0,-300.0,0.0
1513267125982707183,,704855,,1513267124,165445376,'',0.279252680319,0.28981456756,0.00476746848131,0.0105618872407,0.001,70.0902548564,-6500.0,0.0,-300.0,0.0
1513267125992721912,,704856,,1513267124,175445376,'',0.279252680319,0.289840909718,0.00424161637564,0.010588229399,0.001,70.1010399177,-6500.0,0.0,-300.0,0.0
1513267126002631687,,704857,,1513267124,185445376,'',0.279252680319,0.289845041511,0.00415605643556,0.010592361192,0.001,70.0766241412,-6500.0,0.0,-300.0,0.0
1513267126012504664,,704858,,1513267124,195445376,'',0.279252680319,0.289830852034,0.00444441743509,0.0105781717151,0.001,70.1012911252,-6500.0,0.0,-300.0,0.0
1513267126022553161,,704859,,1513267124,205445376,'',0.279252680319,0.28982028765,0.00466329965643,0.0105676073307,0.001,70.0940110202,-6500.0,0.0,-300.0,0.0
1513267126032513654,,704860,,1513267124,215445376,'',0.279252680319,0.28982755646,0.00451561993812,0.0105748761407,0.001,70.099965992,-6500.0,0.0,-300.0,0.0
1513267126042395377,,704861,,1513267124,225445376,'',0.279252680319,0.289800428516,-0.0139511331742,0.0105477481967,0.001,64.4271862411,-6500.0,0.0,-300.0,0.0
1513267126052361582,,704862,,1513267124,235445376,'',0.279252680319,0.289795552541,0.00517196854351,0.0105428722215,0.001,70.0475668549,-6500.0,0.0,-300.0,0.0
1513267126062358138,,704863,,1513267124,245445376,'',0.279252680319,0.28979001965,0.00528902824832,0.0105373393307,0.001,70.079918496,-6500.0,0.0,-300.0,0.0
1513267126072751722,,704864,,1513267124,255445376,'',0.279252680319,0.289803093391,0.00501953366247,0.010550413072,0.001,70.089767503,-6500.0,0.0,-300.0,0.0
1513267126082706029,,704865,,1513267124,265445376,'',0.279252680319,0.289814097942,0.00479925431905,0.0105614176232,0.001,70.0914408629,-6500.0,0.0,-300.0,0.0
1513267126092634012,,704866,,1513267124,275445376,'',0.279252680319,0.289824124732,0.00459538565161,0.010571444413,0.001,70.0664554917,-6500.0,0.0,-300.0,0.0
1513267126102320836,,704867,,1513267124,285445376,'',0.279252680319,0.28977909663,0.00549951865026,0.0105264163111,0.001,70.0403888969,-6500.0,0.0,-300.0,0.0
1513267126112759613,,704868,,1513267124,295445376,'',0.279252680319,0.289810835529,0.00485852755074,0.0105581552099,0.001,70.0946454737,-6500.0,0.0,-300.0,0.0
1513267126122676504,,704869,,1513267124,305445376,'',0.279252680319,0.289803443894,0.00500745883036,0.0105507635746,0.001,70.0931625549,-6500.0,0.0,-300.0,0.0
1513267126132636476,,704870,,1513267124,315445376,'',0.279252680319,0.289848347705,0.00409960494288,0.0105956673855,0.001,70.1068462381,-6500.0,0.0,-300.0,0.0
1513267126142374835,,704871,,1513267124,325445376,'',0.279252680319,0.289815005823,-0.0142562014949,0.0105623255039,0.001,64.4522504415,-6500.0,0.0,-300.0,0.0
1513267126152558349,,704872,,1513267124,335445376,'',0.279252680319,0.289788167796,-0.0137072988046,0.0105354874766,0.001,64.4336990428,-6500.0,0.0,-300.0,0.0
1513267126162322038,,704873,,1513267124,345445376,'',0.279252680319,0.289785611594,0.00536080990217,0.0105329312748,0.001,70.0796124535,-6500.0,0.0,-300.0,0.0
1513267126172450181,,704874,,1513267124,355445376,'',0.279252680319,0.289799446338,0.00508491279434,0.0105467660186,0.001,70.0853570653,-6500.0,0.0,-300.0,0.0
1513267126182774580,,704875,,1513267124,365445376,'',0.279252680319,0.289774818169,-0.0134423826122,0.0105221378495,0.001,64.3498109219,-6500.0,0.0,-300.0,0.0
1513267126192698339,,704876,,1513267124,375445376,'',0.279252680319,0.289789894418,0.00528018407546,0.0105372140989,0.001,70.0528009816,-6500.0,0.0,-300.0,0.0
1513267126202652196,,704877,,1513267124,385445376,'',0.279252680319,0.289788193111,0.00531518704898,0.0105355127915,0.001,70.0404008155,-6500.0,0.0,-300.0,0.0
1513267126212587049,,704878,,1513267124,395445376,'',0.279252680319,0.289770006921,0.00568757701596,0.0105173266019,0.001,70.0714917592,-6500.0,0.0,-300.0,0.0
1513267126222504282,,704879,,1513267124,405445376,'',0.279252680319,0.289752214149,0.00604254262206,0.01049953383,0.001,70.0674898671,-6500.0,0.0,-300.0,0.0
1513267126232504281,,704880,,1513267124,415445376,'',0.279252680319,0.289719773592,-0.0123311104862,0.010467093273,0.001,64.3220987704,-6500.0,0.0,-300.0,0.0
1513267126242414044,,704881,,1513267124,425445376,'',0.279252680319,0.289710313514,0.00687406168171,0.0104576331944,0.001,70.0045829168,-6500.0,0.0,-300.0,0.0
1513267126252431959,,704882,,1513267124,435445376,'',0.279252680319,0.289723250156,0.00661801741848,0.0104705698369,0.001,70.0661607434,-6500.0,0.0,-300.0,0.0
1513267126262746383,,704883,,1513267124,445445376,'',0.279252680319,0.289733601629,0.00641235935613,0.0104809213101,0.001,70.0580163138,-6500.0,0.0,-300.0,0.0
1513267126272826368,,704884,,1513267124,455445376,'',0.279252680319,0.289706584716,-0.0120670322079,0.0104539043965,0.001,64.3201087596,-6500.0,0.0,-300.0,0.0
1513267126282542744,,704885,,1513267124,465445376,'',0.279252680319,0.289769050471,0.00569667521572,0.0105163701523,0.001,70.0727357652,-6500.0,0.0,-300.0,0.0
1513267126292656145,,704886,,1513267124,475445376,'',0.279252680319,0.289788923768,0.00529488020827,0.0105362434487,0.001,70.0794570542,-6500.0,0.0,-300.0,0.0
1513267126302500043,,704887,,1513267124,485445376,'',0.279252680319,0.28978419134,-0.0136269588425,0.0105315110206,0.001,64.3537713524,-6500.0,0.0,-300.0,0.0
1513267126312524693,,704888,,1513267124,495445376,'',0.279252680319,0.289814225231,0.00478786900645,0.0105615449122,0.001,70.0928767484,-6500.0,0.0,-300.0,0.0
1513267126322414165,,704889,,1513267124,505445376,'',0.279252680319,0.289739005212,-0.0127057634151,0.0104863248933,0.001,64.4109333067,-6500.0,0.0,-300.0,0.0
1513267126332813949,,704890,,1513267124,515445376,'',0.279252680319,0.289778430112,0.00551967420522,0.0105257497928,0.001,70.1248021809,-6500.0,0.0,-300.0,0.0
1513267126342318514,,704891,,1513267124,525445376,'',0.279252680319,0.289740559757,0.00628019956805,0.0104878794378,0.001,70.0667982503,-6500.0,0.0,-300.0,0.0
1513267126352740025,,704892,,1513267124,535445376,'',0.279252680319,0.289778881024,0.00550503692534,0.0105262007047,0.001,70.0784070896,-6500.0,0.0,-300.0,0.0
1513267126362658722,,704893,,1513267124,545445376,'',0.279252680319,0.289776221764,0.0055576409,0.0105235414449,0.001,70.0404134194,-6500.0,0.0,-300.0,0.0
1513267126372654982,,704894,,1513267124,555445376,'',0.279252680319,0.289777606757,0.0055336771953,0.010524926438,0.001,70.0826760437,-6500.0,0.0,-300.0,0.0
1513267126382573285,,704895,,1513267124,565445376,'',0.279252680319,0.289778955544,0.00550758770822,0.0105262752248,0.001,70.0784375976,-6500.0,0.0,-300.0,0.0
1513267126392678065,,704896,,1513267124,575445376,'',0.279252680319,0.289758440057,0.00591773992236,0.0105057597379,0.001,70.0721746462,-6500.0,0.0,-300.0,0.0
1513267126402463990,,704897,,1513267124,585445376,'',0.279252680319,0.289761859806,0.00584702490209,0.0105091794871,0.001,70.0752385308,-6500.0,0.0,-300.0,0.0
1513267126412754783,,704898,,1513267124,595445376,'',0.279252680319,0.289798254342,0.00511152140184,0.0105455740225,0.001,70.0896600979,-6500.0,0.0,-300.0,0.0
1513267126422673899,,704899,,1513267124,605445376,'',0.279252680319,0.289810463779,0.00486457837916,0.0105577834602,0.001,70.0941469001,-6500.0,0.0,-300.0,0.0
1513267126432568433,,704900,,1513267124,615445376,'',0.279252680319,0.289818113978,-0.0143114663137,0.0105654336587,0.001,64.3629327283,-6500.0,0.0,-300.0,0.0
1513267126442551742,,704901,,1513267124,625445376,'',0.279252680319,0.289791906692,0.00522963225515,0.0105392263732,0.001,70.0459151032,-6500.0,0.0,-300.0,0.0
1513267126452388483,,704902,,1513267124,635445376,'',0.279252680319,0.289790294557,0.00526561286554,0.0105376142383,0.001,70.0815569642,-6500.0,0.0,-300.0,0.0
1513267126462420027,,704903,,1513267124,645445376,'',0.279252680319,0.289786165273,-0.0136761661929,0.010533484954,0.001,64.3496666418,-6500.0,0.0,-300.0,0.0
1513267126472500857,,704904,,1513267124,655445376,'',0.279252680319,0.289799275795,0.00508516246013,0.0105465954757,0.001,70.086756559,-6500.0,0.0,-300.0,0.0
1513267126482759532,,704905,,1513267124,665445376,'',0.279252680319,0.289792158851,0.00521965566921,0.0105394785321,0.001,70.0619238135,-6500.0,0.0,-300.0,0.0
1513267126492713156,,704906,,1513267124,675445376,'',0.279252680319,0.289804819363,-0.0140576953331,0.0105521390435,0.001,64.3614723101,-6500.0,0.0,-300.0,0.0
1513267126502758525,,704907,,1513267124,685445376,'',0.279252680319,0.289815691169,0.00475072795033,0.01056301085,0.001,70.1037862737,-6500.0,0.0,-300.0,0.0
1513267126512670227,,704908,,1513267124,695445376,'',0.279252680319,0.289809831105,0.00485963331495,0.0105571507858,0.001,70.0914300007,-6500.0,0.0,-300.0,0.0
1513267126522691523,,704909,,1513267124,705445376,'',0.279252680319,0.28980380934,-0.0140395160946,0.0105511290213,0.001,64.437045563,-6500.0,0.0,-300.0,0.0
1513267126532488586,,704910,,1513267124,715445376,'',0.279252680319,0.289814475219,0.00476826893302,0.0105617948995,0.001,70.0929790914,-6500.0,0.0,-300.0,0.0
1513267126542724025,,704911,,1513267124,725445376,'',0.279252680319,0.289823503549,0.00458551209944,0.0105708232298,0.001,70.0983363376,-6500.0,0.0,-300.0,0.0
1513267126552743683,,704912,,1513267124,735445376,'',0.279252680319,0.289828403343,0.00448884565259,0.0105757230243,0.001,70.096080674,-6500.0,0.0,-300.0,0.0
1513267126562730065,,704913,,1513267124,745445376,'',0.279252680319,0.289816655966,0.00473870828434,0.0105639756469,0.001,70.0439261211,-6500.0,0.0,-300.0,0.0
1513267126572660120,,704914,,1513267124,755445376,'',0.279252680319,0.289773118064,-0.0134079270047,0.0105204377445,0.001,64.4256052,-6500.0,0.0,-300.0,0.0
1513267126582524244,,704915,,1513267124,765445376,'',0.279252680319,0.289753879145,0.00600190184956,0.0105011988263,0.001,70.0304353019,-6500.0,0.0,-300.0,0.0
1513267126592680933,,704916,,1513267124,775445376,'',0.279252680319,0.28975531684,-0.0130534692253,0.0105026365208,0.001,64.3368574219,-6500.0,0.0,-300.0,0.0
1513267126602423319,,704917,,1513267124,785445376,'',0.279252680319,0.289790711716,-0.0137617945509,0.0105380313969,0.001,64.455940132,-6500.0,0.0,-300.0,0.0
1513267126612814660,,704918,,1513267124,795445376,'',0.279252680319,0.289806075261,0.00495373588838,0.010553394942,0.001,70.0941898878,-6500.0,0.0,-300.0,0.0
1513267126622853050,,704919,,1513267124,805445376,'',0.279252680319,0.289764229627,-0.0132346458782,0.0105115493079,0.001,64.3482041144,-6500.0,0.0,-300.0,0.0
1513267126632730240,,704920,,1513267124,815445376,'',0.279252680319,0.289731293878,-0.0125604230597,0.0104786135584,0.001,64.3913164525,-6500.0,0.0,-300.0,0.0
1513267126642724412,,704921,,1513267124,825445376,'',0.279252680319,0.289752077769,-0.0129902844472,0.0104993974498,0.001,64.3430164036,-6500.0,0.0,-300.0,0.0
1513267126652636454,,704922,,1513267124,835445376,'',0.279252680319,0.289770718278,0.00565989829547,0.0105180379593,0.001,70.07342829,-6500.0,0.0,-300.0,0.0
