rosbagTimestamp,header,seq,stamp,secs,nsecs,frame_id,set_point,process_value,process_value_dot,error,time_step,command,p,i,d,i_clamp
1513265848802085468,,577130,,1513265847,10063616,'',0.471238898038,0.442983955887,0.00309998307065,-0.0282549421516,0.001,168.594501209,6000.0,0.0,300.0,0.0
1513265848811936428,,577131,,1513265847,20063616,'',0.471238898038,0.442999036548,0.00279294141954,-0.0282398614901,0.001,168.615263714,6000.0,0.0,300.0,0.0
1513265848822477749,,577132,,1513265847,30063616,'',0.471238898038,0.443010111857,0.00257023740142,-0.0282287861815,0.001,168.59612743,6000.0,0.0,300.0,0.0
1513265848831938919,,577133,,1513265847,40063616,'',0.471238898038,0.443018893509,-0.01216322361,-0.028220004529,0.001,172.982732213,6000.0,0.0,300.0,0.0
1513265848842275916,,577134,,1513265847,50063616,'',0.471238898038,0.44298733448,-0.0115247443201,-0.0282515635583,0.001,172.983386992,6000.0,0.0,300.0,0.0
1513265848852297841,,577135,,1513265847,60063616,'',0.471238898038,0.442961494838,-0.011005292574,-0.0282774032005,0.001,172.98184053,6000.0,0.0,300.0,0.0
1513265848862163698,,577136,,1513265847,70063616,'',0.471238898038,0.442929630497,0.00419980491205,-0.0283092675415,0.001,168.586848355,6000.0,0.0,300.0,0.0
1513265848871950121,,577137,,1513265847,80063616,'',0.471238898038,0.442940468948,-0.0105755986895,-0.0282984290903,0.001,172.976084227,6000.0,0.0,300.0,0.0
1513265848881905676,,577138,,1513265847,90063616,'',0.471238898038,0.442976203066,0.00325960510523,-0.0282626949726,0.001,168.595682035,6000.0,0.0,300.0,0.0
1513265848892301901,,577139,,1513265847,100063616,'',0.471238898038,0.442980789235,0.00317202831743,-0.0282581088034,0.001,168.613423066,6000.0,0.0,300.0,0.0
1513265848902266647,,577140,,1513265847,110063616,'',0.471238898038,0.442981659511,0.00315046734397,-0.028257238527,0.001,168.594065689,6000.0,0.0,300.0,0.0
1513265848912177000,,577141,,1513265847,120063616,'',0.471238898038,0.442996450406,0.00285177544749,-0.0282424476321,0.001,168.595427441,6000.0,0.0,300.0,0.0
1513265848921984553,,577142,,1513265847,130063616,'',0.471238898038,0.44298360005,0.00311373688085,-0.0282552979889,0.001,168.594244348,6000.0,0.0,300.0,0.0
1513265848931923374,,577143,,1513265847,140063616,'',0.471238898038,0.442959335354,-0.0109583423506,-0.0282795626841,0.001,172.974517028,6000.0,0.0,300.0,0.0
1513265848941958627,,577144,,1513265847,150063616,'',0.471238898038,0.442966179261,0.00346393575254,-0.0282727187777,0.001,168.614889929,6000.0,0.0,300.0,0.0
1513265848952380225,,577145,,1513265847,160063616,'',0.471238898038,0.442997256403,0.00283557152342,-0.0282416416355,0.001,168.594682887,6000.0,0.0,300.0,0.0
1513265848962294931,,577146,,1513265847,170063616,'',0.471238898038,0.44300891032,0.00259943370155,-0.0282299877185,0.001,168.595073131,6000.0,0.0,300.0,0.0
1513265848972299805,,577147,,1513265847,180063616,'',0.471238898038,0.443032193801,0.00212874419598,-0.0282067042376,0.001,168.59810344,6000.0,0.0,300.0,0.0
1513265848982215329,,577148,,1513265847,190063616,'',0.471238898038,0.443051295375,0.00174259444658,-0.0281876026637,0.001,168.6000994,6000.0,0.0,300.0,0.0
1513265848992168818,,577149,,1513265847,200063616,'',0.471238898038,0.443053996758,0.0016856632526,-0.0281849012801,0.001,168.60182238,6000.0,0.0,300.0,0.0
1513265849002202272,,577150,,1513265847,210063616,'',0.471238898038,0.443028992739,0.00218367024082,-0.0282099052995,0.001,168.599848784,6000.0,0.0,300.0,0.0
1513265849012156701,,577151,,1513265847,220063616,'',0.471238898038,0.443023179508,0.00230216541962,-0.0282157185302,0.001,168.599389939,6000.0,0.0,300.0,0.0
1513265849022033584,,577152,,1513265847,230063616,'',0.471238898038,0.443016266135,0.0024425664944,-0.0282226319039,0.001,168.601144337,6000.0,0.0,300.0,0.0
1513265849032391293,,577153,,1513265847,240063616,'',0.471238898038,0.442999236672,0.00278976607958,-0.0282396613668,0.001,168.595885761,6000.0,0.0,300.0,0.0
1513265849042364471,,577154,,1513265847,250063616,'',0.471238898038,0.442997231016,0.00282499567277,-0.0282416670229,0.001,168.613715973,6000.0,0.0,300.0,0.0
1513265849052261312,,577155,,1513265847,260063616,'',0.471238898038,0.443008337795,-0.0119545834751,-0.0282305602436,0.001,172.985290047,6000.0,0.0,300.0,0.0
1513265849062299652,,577156,,1513265847,270063616,'',0.471238898038,0.443031764782,0.00213056754592,-0.0282071332567,0.001,168.600839147,6000.0,0.0,300.0,0.0
1513265849072237792,,577157,,1513265847,280063616,'',0.471238898038,0.443050908265,0.00174481072634,-0.028187989773,0.001,168.612697218,6000.0,0.0,300.0,0.0
1513265849082258461,,577158,,1513265847,290063616,'',0.471238898038,0.443040068635,-0.0125921878627,-0.0281988294031,0.001,172.991803047,6000.0,0.0,300.0,0.0
1513265849092204787,,577159,,1513265847,300063616,'',0.471238898038,0.443031686293,0.00213662675813,-0.0282072117455,0.001,168.601451219,6000.0,0.0,300.0,0.0
1513265849102136846,,577160,,1513265847,310063616,'',0.471238898038,0.443012450151,0.00252865809487,-0.0282264478877,0.001,168.597813036,6000.0,0.0,300.0,0.0
1513265849112377617,,577161,,1513265847,320063616,'',0.471238898038,0.443021858103,0.00233200775258,-0.0282170399352,0.001,168.597260304,6000.0,0.0,300.0,0.0
1513265849122426894,,577162,,1513265847,330063616,'',0.471238898038,0.44303006984,0.0021638965947,-0.0282088281988,0.001,168.599306643,6000.0,0.0,300.0,0.0
1513265849132261694,,577163,,1513265847,340063616,'',0.471238898038,0.443049558792,0.00177132804137,-0.0281893392463,0.001,168.601985457,6000.0,0.0,300.0,0.0
1513265849142089578,,577164,,1513265847,350063616,'',0.471238898038,0.443052517188,0.00171537459356,-0.02818638085,0.001,168.612121711,6000.0,0.0,300.0,0.0
1513265849151955424,,577165,,1513265847,360063616,'',0.471238898038,0.443067933801,0.0014041757478,-0.0281709642377,0.001,168.602008696,6000.0,0.0,300.0,0.0
1513265849162386606,,577166,,1513265847,370063616,'',0.471238898038,0.443066765636,0.00142788461009,-0.0281721324021,0.001,168.602004381,6000.0,0.0,300.0,0.0
1513265849172332418,,577167,,1513265847,380063616,'',0.471238898038,0.443066113556,0.00144456041684,-0.0281727844821,0.001,168.601945298,6000.0,0.0,300.0,0.0
1513265849182238323,,577168,,1513265847,390063616,'',0.471238898038,0.44306469684,-0.0130843452706,-0.0281742011982,0.001,172.998905604,6000.0,0.0,300.0,0.0
1513265849192231212,,577169,,1513265847,400063616,'',0.471238898038,0.443064114949,0.00148726666149,-0.0281747830899,0.001,168.60176421,6000.0,0.0,300.0,0.0
1513265849202151800,,577170,,1513265847,410063616,'',0.471238898038,0.443050366799,0.00176068664347,-0.0281885312395,0.001,168.601535863,6000.0,0.0,300.0,0.0
1513265849212244028,,577171,,1513265847,420063616,'',0.471238898038,0.443066146317,0.00144181730694,-0.0281727517216,0.001,168.611110532,6000.0,0.0,300.0,0.0
1513265849222099291,,577172,,1513265847,430063616,'',0.471238898038,0.443067088482,0.00142222347592,-0.0281718095568,0.001,168.601519811,6000.0,0.0,300.0,0.0
1513265849232094309,,577173,,1513265847,440063616,'',0.471238898038,0.443079838518,0.00116467376051,-0.0281590595207,0.001,168.609835794,6000.0,0.0,300.0,0.0
1513265849242076155,,577174,,1513265847,450063616,'',0.471238898038,0.443077072358,0.0012204508235,-0.0281618256805,0.001,168.602497284,6000.0,0.0,300.0,0.0
1513265849252362048,,577175,,1513265847,460063616,'',0.471238898038,0.443048535102,-0.0127598788474,-0.0281903629361,0.001,172.981557666,6000.0,0.0,300.0,0.0
1513265849262233601,,577176,,1513265847,470063616,'',0.471238898038,0.443026441671,0.00224108647281,-0.0282124563673,0.001,168.598350734,6000.0,0.0,300.0,0.0
1513265849272232361,,577177,,1513265847,480063616,'',0.471238898038,0.443046590571,0.00183447934013,-0.0281923074678,0.001,168.599645642,6000.0,0.0,300.0,0.0
1513265849282255494,,577178,,1513265847,490063616,'',0.471238898038,0.443036693558,-0.0125199204881,-0.0282022044802,0.001,173.014997827,6000.0,0.0,300.0,0.0
1513265849292073444,,577179,,1513265847,500063616,'',0.471238898038,0.443028006992,0.00221245549029,-0.028210891047,0.001,168.597054288,6000.0,0.0,300.0,0.0
1513265849302025893,,577180,,1513265847,510063616,'',0.471238898038,0.443047827006,0.00181194994204,-0.0281910710324,0.001,168.611803119,6000.0,0.0,300.0,0.0
1513265849312015241,,577181,,1513265847,520063616,'',0.471238898038,0.443027212382,0.00223075394382,-0.0282116856567,0.001,168.597615733,6000.0,0.0,300.0,0.0
1513265849321939811,,577182,,1513265847,530063616,'',0.471238898038,0.443021793759,0.00233407164453,-0.0282171042793,0.001,168.597254098,6000.0,0.0,300.0,0.0
1513265849332292795,,577183,,1513265847,540063616,'',0.471238898038,0.443042742579,0.00191146873011,-0.0281961554597,0.001,168.61365417,6000.0,0.0,300.0,0.0
1513265849342284995,,577184,,1513265847,550063616,'',0.471238898038,0.443060502121,0.00155054171912,-0.0281783959172,0.001,168.601886363,6000.0,0.0,300.0,0.0
1513265849352071933,,577185,,1513265847,560063616,'',0.471238898038,0.443062011828,0.00152069126714,-0.02817688621,0.001,168.601573651,6000.0,0.0,300.0,0.0
1513265849361963152,,577186,,1513265847,570063616,'',0.471238898038,0.443075677656,0.00124538132947,-0.0281632203825,0.001,168.602811876,6000.0,0.0,300.0,0.0
1513265849371972623,,577187,,1513265847,580063616,'',0.471238898038,0.443034438935,-0.0124777057157,-0.0282044591032,0.001,172.987655002,6000.0,0.0,300.0,0.0
1513265849382548993,,577188,,1513265847,590063616,'',0.471238898038,0.443040460234,0.00196183413445,-0.0281984378041,0.001,168.603727867,6000.0,0.0,300.0,0.0
1513265849392465211,,577189,,1513265847,600063616,'',0.471238898038,0.443044563155,0.00188159763725,-0.0281943348833,0.001,168.601077775,6000.0,0.0,300.0,0.0
1513265849402331802,,577190,,1513265847,610063616,'',0.471238898038,0.443022623053,0.00231708137193,-0.0282162749855,0.001,168.59733408,6000.0,0.0,300.0,0.0
1513265849412219585,,577191,,1513265847,620063616,'',0.471238898038,0.443003395377,-0.0118531397815,-0.0282355026611,0.001,172.984842228,6000.0,0.0,300.0,0.0
1513265849422209898,,577192,,1513265847,630063616,'',0.471238898038,0.443002582827,0.00271939309193,-0.0282363152113,0.001,168.596976591,6000.0,0.0,300.0,0.0
1513265849432131440,,577193,,1513265847,640063616,'',0.471238898038,0.443000960415,0.00275256654428,-0.0282379376231,0.001,168.614371759,6000.0,0.0,300.0,0.0
1513265849442111338,,577194,,1513265847,650063616,'',0.471238898038,0.442987623045,0.0030239413409,-0.0282512749933,0.001,168.593958483,6000.0,0.0,300.0,0.0
1513265849452060243,,577195,,1513265847,660063616,'',0.471238898038,0.443014761095,0.00247638459661,-0.0282241369432,0.001,168.613053223,6000.0,0.0,300.0,0.0
1513265849462491221,,577196,,1513265847,670063616,'',0.471238898038,0.442998224218,0.00280639242128,-0.0282406738202,0.001,168.594777641,6000.0,0.0,300.0,0.0
1513265849472386056,,577197,,1513265847,680063616,'',0.471238898038,0.443023487803,0.00229731869968,-0.028215410235,0.001,168.598083092,6000.0,0.0,300.0,0.0
1513265849482229222,,577198,,1513265847,690063616,'',0.471238898038,0.443016857956,0.00242978578374,-0.0282220400829,0.001,168.598186682,6000.0,0.0,300.0,0.0
1513265849492286663,,577199,,1513265847,700063616,'',0.471238898038,0.44303874142,0.00198902771932,-0.0282001566187,0.001,168.599465181,6000.0,0.0,300.0,0.0
1513265849502168882,,577200,,1513265847,710063616,'',0.471238898038,0.44303266164,0.00211234413962,-0.0282062363987,0.001,168.61360002,6000.0,0.0,300.0,0.0
1513265849512090614,,577201,,1513265847,720063616,'',0.471238898038,0.443051682031,0.00172909511988,-0.028187216007,0.001,168.601138691,6000.0,0.0,300.0,0.0
1513265849522015581,,577202,,1513265847,730063616,'',0.471238898038,0.443135612018,0.0145912650181,-0.0281032860204,0.001,164.304000962,6000.0,0.0,300.0,0.0
1513265849531956818,,577203,,1513265847,740063616,'',0.471238898038,0.443438892797,0.0375749654707,-0.0278000052411,0.001,155.469982864,6000.0,0.0,300.0,0.0
1513265849542437001,,577204,,1513265847,750063616,'',0.471238898038,0.443977903349,0.0703552219076,-0.0272609946899,0.001,142.439497493,6000.0,0.0,300.0,0.0
1513265849552293012,,577205,,1513265847,760063616,'',0.471238898038,0.444639823662,0.0715403459993,-0.0265990743761,0.001,138.474089689,6000.0,0.0,300.0,0.0
1513265849562261880,,577206,,1513265847,770063616,'',0.471238898038,0.44551005455,0.0976316261587,-0.0257288434888,0.001,124.937587738,6000.0,0.0,300.0,0.0
1513265849572169733,,577207,,1513265847,780063616,'',0.471238898038,0.446534613926,0.106047846681,-0.0247042841123,0.001,117.019266336,6000.0,0.0,300.0,0.0
1513265849582145389,,577208,,1513265847,790063616,'',0.471238898038,0.447568660762,0.0997179909795,-0.0236702372765,0.001,111.893533418,6000.0,0.0,300.0,0.0
1513265849592183684,,577209,,1513265847,800063616,'',0.471238898038,0.448557942774,0.0942864853989,-0.0226809552644,0.001,107.68667825,6000.0,0.0,300.0,0.0
1513265849602092860,,577210,,1513265847,810063616,'',0.471238898038,0.449418665443,0.0769036201514,-0.0218202325953,0.001,107.7096386,6000.0,0.0,300.0,0.0
1513265849612396105,,577211,,1513265847,820063616,'',0.471238898038,0.450151445377,0.0766556890924,-0.0210874526619,0.001,103.409695603,6000.0,0.0,300.0,0.0
1513265849622247464,,577212,,1513265847,830063616,'',0.471238898038,0.450800123024,0.0635476067589,-0.0204387750141,0.001,103.432687042,6000.0,0.0,300.0,0.0
1513265849632165145,,577213,,1513265847,840063616,'',0.471238898038,0.451453452478,0.079462710236,-0.0197854455605,0.001,94.7330815792,6000.0,0.0,300.0,0.0
1513265849642120731,,577214,,1513265847,850063616,'',0.471238898038,0.452181582332,0.0793097640221,-0.0190573157061,0.001,90.9146554513,6000.0,0.0,300.0,0.0
1513265849652918102,,577215,,1513265847,860063616,'',0.471238898038,0.453094142879,0.0899869335218,-0.0181447551592,0.001,81.7389653092,6000.0,0.0,300.0,0.0
1513265849662342925,,577216,,1513265847,870063616,'',0.471238898038,0.454101357283,0.0987440248714,-0.0171375407559,0.001,72.9603142499,6000.0,0.0,300.0,0.0
1513265849672149314,,577217,,1513265847,880063616,'',0.471238898038,0.455161485314,0.106439039456,-0.0160774127243,0.001,64.44117749,6000.0,0.0,300.0,0.0
1513265849682091083,,577218,,1513265847,890063616,'',0.471238898038,0.45617269669,0.100566096078,-0.0150662013487,0.001,60.0750066241,6000.0,0.0,300.0,0.0
1513265849691992577,,577219,,1513265847,900063616,'',0.471238898038,0.4570743318,0.082353062854,-0.0141645662383,0.001,60.7278119831,6000.0,0.0,300.0,0.0
1513265849702426287,,577220,,1513265847,910063616,'',0.471238898038,0.457907621664,0.0800749488215,-0.0133312763743,0.001,56.0345428973,6000.0,0.0,300.0,0.0
1513265849712345144,,577221,,1513265847,920063616,'',0.471238898038,0.458680289806,0.0790214365575,-0.0125586082323,0.001,52.0045814806,6000.0,0.0,300.0,0.0
1513265849722256079,,577222,,1513265847,930063616,'',0.471238898038,0.459510800017,0.0913586487957,-0.0117280980212,0.001,42.8231446909,6000.0,0.0,300.0,0.0
1513265849732167965,,577223,,1513265847,940063616,'',0.471238898038,0.460331670713,0.0893283064527,-0.0109072273253,0.001,39.1026319277,6000.0,0.0,300.0,0.0
1513265849742129713,,577224,,1513265847,950063616,'',0.471238898038,0.46117732709,0.0868024774675,-0.0100615709487,0.001,34.1656247728,6000.0,0.0,300.0,0.0
1513265849752047741,,577225,,1513265847,960063616,'',0.471238898038,0.462025788706,0.0842227873702,-0.00921310933214,0.001,29.8305135688,6000.0,0.0,300.0,0.0
1513265849761936676,,577226,,1513265847,970063616,'',0.471238898038,0.462873252558,0.0816572175912,-0.00836564548006,0.001,25.6442873238,6000.0,0.0,300.0,0.0
1513265849772254712,,577227,,1513265847,980063616,'',0.471238898038,0.463663735965,0.0802459866721,-0.00757516207299,0.001,20.7694069172,6000.0,0.0,300.0,0.0
1513265849782242181,,577228,,1513265847,990063616,'',0.471238898038,0.464383659995,0.0656987779773,-0.00685523804354,0.001,21.2410578322,6000.0,0.0,300.0,0.0
1513265849792199145,,577229,,1513265848,63616,'',0.471238898038,0.46502854023,0.0672258266592,-0.00621035780888,0.001,16.991614565,6000.0,0.0,300.0,0.0
1513265849802192501,,577230,,1513265848,10063616,'',0.471238898038,0.465634091657,0.0549948269046,-0.00560480638112,0.001,17.0782717488,6000.0,0.0,300.0,0.0
1513265849812101838,,577231,,1513265848,20063616,'',0.471238898038,0.466233494639,0.0574413788011,-0.00500540339958,0.001,13.0068565085,6000.0,0.0,300.0,0.0
1513265849822007591,,577232,,1513265848,30063616,'',0.471238898038,0.466788493907,0.0462254572506,-0.00445040413165,0.001,12.7457966226,6000.0,0.0,300.0,0.0
1513265849832232663,,577233,,1513265848,40063616,'',0.471238898038,0.467309408074,0.050261247763,-0.00392948996436,0.001,8.7406625284,6000.0,0.0,300.0,0.0
1513265849841990701,,577234,,1513265848,50063616,'',0.471238898038,0.46778762218,0.0406063505239,-0.00345127585815,0.001,8.49965490634,6000.0,0.0,300.0,0.0
1513265849852787601,,577235,,1513265848,60063616,'',0.471238898038,0.468216915077,0.0464930627317,-0.00302198296107,0.001,4.14163781104,6000.0,0.0,300.0,0.0
1513265849862162041,,577236,,1513265848,70063616,'',0.471238898038,0.468621797923,0.0383166228576,-0.00261710011508,0.001,4.33411823212,6000.0,0.0,300.0,0.0
1513265849872224876,,577237,,1513265848,80063616,'',0.471238898038,0.469019991594,0.0448290968594,-0.00221890644415,0.001,-0.188094904502,6000.0,0.0,300.0,0.0
1513265849882395548,,577238,,1513265848,90063616,'',0.471238898038,0.469359353632,0.0379727746423,-0.00187954440629,0.001,-0.194990732865,6000.0,0.0,300.0,0.0
1513265849892194356,,577239,,1513265848,100063616,'',0.471238898038,0.469687601499,0.0313372293393,-0.00155129653957,0.001,0.0767546507096,6000.0,0.0,300.0,0.0
1513265849902040486,,577240,,1513265848,110063616,'',0.471238898038,0.469969033726,0.0256521098113,-0.00126986431225,0.001,-0.107645370611,6000.0,0.0,300.0,0.0
1513265849912136457,,577241,,1513265848,120063616,'',0.471238898038,0.470199409243,0.0209983700424,0.0,0.001,0.0,6000.0,0.0,300.0,0.0
1513265849921979528,,577242,,1513265848,130063616,'',0.471238898038,0.470387629437,0.0171961960306,0.0,0.001,0.0,6000.0,0.0,300.0,0.0
1513265849931972309,,577243,,1513265848,140063616,'',0.471238898038,0.470596387981,0.0129791793602,0.0,0.001,0.0,6000.0,0.0,300.0,0.0
1513265849942445138,,577244,,1513265848,150063616,'',0.471238898038,0.470780571449,0.0238178292532,0.0,0.001,0.0,6000.0,0.0,300.0,0.0
1513265849952310397,,577245,,1513265848,160063616,'',0.471238898038,0.470968175235,0.0200290002723,0.0,0.001,0.0,6000.0,0.0,300.0,0.0
1513265849962286734,,577246,,1513265848,170063616,'',0.471238898038,0.471136003348,0.0166349143745,0.0,0.001,0.0,6000.0,0.0,300.0,0.0
1513265849972166425,,577247,,1513265848,180063616,'',0.471238898038,0.471285065635,0.0136236106304,0.0,0.001,0.0,6000.0,0.0,300.0,0.0
1513265849982094485,,577248,,1513265848,190063616,'',0.471238898038,0.471394533187,0.0114183063089,0.0,0.001,0.0,6000.0,0.0,300.0,0.0
1513265849992043359,,577249,,1513265848,200063616,'',0.471238898038,0.471496804427,0.00935115076,0.0,0.001,0.0,6000.0,0.0,300.0,0.0
1513265850001997858,,577250,,1513265848,210063616,'',0.471238898038,0.471580909138,0.00765118580944,0.0,0.001,0.0,6000.0,0.0,300.0,0.0
1513265850012427370,,577251,,1513265848,220063616,'',0.471238898038,0.471662398587,0.00600682785911,0.0,0.001,0.0,6000.0,0.0,300.0,0.0
1513265850022321505,,577252,,1513265848,230063616,'',0.471238898038,0.471743464546,0.00436817542133,0.0,0.001,0.0,6000.0,0.0,300.0,0.0
1513265850032293702,,577253,,1513265848,240063616,'',0.471238898038,0.471794850828,0.00332653506433,0.0,0.001,0.0,6000.0,0.0,300.0,0.0
1513265850042251138,,577254,,1513265848,250063616,'',0.471238898038,0.471865476666,0.0164560251088,0.0,0.001,0.0,6000.0,0.0,300.0,0.0
1513265850051957023,,577255,,1513265848,260063616,'',0.471238898038,0.471909803868,0.015559672941,0.0,0.001,0.0,6000.0,0.0,300.0,0.0
1513265850061962366,,577256,,1513265848,270063616,'',0.471238898038,0.471997251089,0.0137864877318,0.0,0.001,0.0,6000.0,0.0,300.0,0.0
1513265850071925052,,577257,,1513265848,280063616,'',0.471238898038,0.472028664098,-0.00140537943704,0.0,0.001,0.0,6000.0,0.0,300.0,0.0
1513265850082395534,,577258,,1513265848,290063616,'',0.471238898038,0.472067079816,-0.00218254045993,0.0,0.001,0.0,6000.0,0.0,300.0,0.0
1513265850092373038,,577259,,1513265848,300063616,'',0.471238898038,0.472126861901,0.0111680264595,0.0,0.001,0.0,6000.0,0.0,300.0,0.0
1513265850102264190,,577260,,1513265848,310063616,'',0.471238898038,0.472176882666,0.0101587858015,0.0,0.001,0.0,6000.0,0.0,300.0,0.0
1513265850112151607,,577261,,1513265848,320063616,'',0.471238898038,0.472229947447,0.00908032741621,0.0,0.001,0.0,6000.0,0.0,300.0,0.0
1513265850122106221,,577262,,1513265848,330063616,'',0.471238898038,0.472285386621,0.00796793904477,0.0,0.001,0.0,6000.0,0.0,300.0,0.0
1513265850132000515,,577263,,1513265848,340063616,'',0.471238898038,0.472344969932,0.0067644710634,0.0,0.001,0.0,6000.0,0.0,300.0,0.0
1513265850141953621,,577264,,1513265848,350063616,'',0.471238898038,0.472393129489,0.00579184070032,0.0,0.001,0.0,6000.0,0.0,300.0,0.0
1513265850151993399,,577265,,1513265848,360063616,'',0.471238898038,0.472430870412,-0.00952633634339,0.0,0.001,0.0,6000.0,0.0,300.0,0.0
1513265850162276996,,577266,,1513265848,370063616,'',0.471238898038,0.472475988253,0.00411999630374,0.0,0.001,0.0,6000.0,0.0,300.0,0.0
1513265850172335979,,577267,,1513265848,380063616,'',0.471238898038,0.472512998738,0.00337255717349,0.0,0.001,0.0,6000.0,0.0,300.0,0.0
1513265850182142545,,577268,,1513265848,390063616,'',0.471238898038,0.472543234242,0.00276194106223,0.0,0.001,0.0,6000.0,0.0,300.0,0.0
1513265850192065853,,577269,,1513265848,400063616,'',0.471238898038,0.472569690913,0.0167871151262,0.0,0.001,0.0,6000.0,0.0,300.0,0.0
1513265850201957336,,577270,,1513265848,410063616,'',0.471238898038,0.472604043066,0.0160921722123,0.0,0.001,0.0,6000.0,0.0,300.0,0.0
1513265850212392174,,577271,,1513265848,420063616,'',0.471238898038,0.472629785996,0.00101327918114,0.0,0.001,0.0,6000.0,0.0,300.0,0.0
1513265850222309927,,577272,,1513265848,430063616,'',0.471238898038,0.472665691805,0.000288174046232,0.0,0.001,0.0,6000.0,0.0,300.0,0.0
1513265850232253610,,577273,,1513265848,440063616,'',0.471238898038,0.472680985659,-2.33714158951e-05,0.0,0.001,0.0,6000.0,0.0,300.0,0.0
1513265850242201731,,577274,,1513265848,450063616,'',0.471238898038,0.47270760739,0.013993384648,0.0,0.001,0.0,6000.0,0.0,300.0,0.0
1513265850252153974,,577275,,1513265848,460063616,'',0.471238898038,0.472714512344,-0.000705561018777,0.0,0.001,0.0,6000.0,0.0,300.0,0.0
1513265850262003470,,577276,,1513265848,470063616,'',0.471238898038,0.472721221163,-0.000839599538147,0.0,0.001,0.0,6000.0,0.0,300.0,0.0
1513265850271976439,,577277,,1513265848,480063616,'',0.471238898038,0.472750597227,-0.00142926430764,0.0,0.001,0.0,6000.0,0.0,300.0,0.0
1513265850282363676,,577278,,1513265848,490063616,'',0.471238898038,0.472778670464,0.0125604466641,0.0,0.001,0.0,6000.0,0.0,300.0,0.0
1513265850292220750,,577279,,1513265848,500063616,'',0.471238898038,0.472799547118,-0.00241281447655,0.0,0.001,0.0,6000.0,0.0,300.0,0.0
1513265850302316301,,577280,,1513265848,510063616,'',0.471238898038,0.47281708824,-0.00276495340322,0.0,0.001,0.0,6000.0,0.0,300.0,0.0
1513265850312264460,,577281,,1513265848,520063616,'',0.471238898038,0.472872326589,0.0106731820976,0.0,0.001,0.0,6000.0,0.0,300.0,0.0
1513265850322166156,,577282,,1513265848,530063616,'',0.471238898038,0.472930510715,0.00949883270502,0.0,0.001,0.0,6000.0,0.0,300.0,0.0
1513265850332097044,,577283,,1513265848,540063616,'',0.471238898038,0.473001986354,0.00805413976889,0.0,0.001,0.0,6000.0,0.0,300.0,0.0
1513265850342219235,,577284,,1513265848,550063616,'',0.471238898038,0.473048232015,0.00712213332292,0.0,0.001,0.0,6000.0,0.0,300.0,0.0
1513265850352041777,,577285,,1513265848,560063616,'',0.471238898038,0.47307184876,-0.00791226816814,0.0,0.001,0.0,6000.0,0.0,300.0,0.0
1513265850362548409,,577286,,1513265848,570063616,'',0.471238898038,0.473118912721,0.00569405697878,0.0,0.001,0.0,6000.0,0.0,300.0,0.0
1513265850372511097,,577287,,1513265848,580063616,'',0.471238898038,0.473170000112,0.00466116693988,0.0,0.001,0.0,6000.0,0.0,300.0,0.0
1513265850382466346,,577288,,1513265848,590063616,'',0.471238898038,0.473211821256,0.00381562280159,0.0,0.001,0.0,6000.0,0.0,300.0,0.0
1513265850392228397,,577289,,1513265848,600063616,'',0.471238898038,0.473245999974,0.00312459403976,0.0,0.001,0.0,6000.0,0.0,300.0,0.0
1513265850402357667,,577290,,1513265848,610063616,'',0.471238898038,0.473274037019,0.00255773822746,0.0,0.001,0.0,6000.0,0.0,300.0,0.0
1513265850412027197,,577291,,1513265848,620063616,'',0.471238898038,0.473296935793,0.00209476848241,0.0,0.001,0.0,6000.0,0.0,300.0,0.0
1513265850422542091,,577292,,1513265848,630063616,'',0.471238898038,0.473356466145,0.000888061938007,0.0,0.001,0.0,6000.0,0.0,300.0,0.0
1513265850432309173,,577293,,1513265848,640063616,'',0.471238898038,0.473457084171,0.0134110656083,0.0,0.001,0.0,6000.0,0.0,300.0,0.0
1513265850442182188,,577294,,1513265848,650063616,'',0.471238898038,0.473577305875,0.0109829339834,0.0,0.001,0.0,6000.0,0.0,300.0,0.0
1513265850451964255,,577295,,1513265848,660063616,'',0.471238898038,0.473701347259,0.00847689183392,0.0,0.001,0.0,6000.0,0.0,300.0,0.0
1513265850462345812,,577296,,1513265848,670063616,'',0.471238898038,0.473776000865,-0.00759003218696,0.0,0.001,0.0,6000.0,0.0,300.0,0.0
1513265850472245792,,577297,,1513265848,680063616,'',0.471238898038,0.473850677743,0.00546142376547,0.0,0.001,0.0,6000.0,0.0,300.0,0.0
1513265850482088691,,577298,,1513265848,690063616,'',0.471238898038,0.473899642903,0.00447250265918,0.0,0.001,0.0,6000.0,0.0,300.0,0.0
1513265850492152444,,577299,,1513265848,700063616,'',0.471238898038,0.473978248628,0.0028797523357,0.0,0.001,0.0,6000.0,0.0,300.0,0.0
1513265850502087771,,577300,,1513265848,710063616,'',0.471238898038,0.474122610494,0.0145233975332,0.0,0.001,0.0,6000.0,0.0,300.0,0.0
1513265850512098731,,577301,,1513265848,720063616,'',0.471238898038,0.474212699427,0.0127051157566,0.0,0.001,0.0,6000.0,0.0,300.0,0.0
1513265850521972157,,577302,,1513265848,730063616,'',0.471238898038,0.474314359761,0.0106542142889,0.0,0.001,0.0,6000.0,0.0,300.0,0.0
1513265850532379060,,577303,,1513265848,740063616,'',0.471238898038,0.474410009699,0.00872152049007,0.0,0.001,0.0,6000.0,0.0,300.0,0.0
1513265850542373232,,577304,,1513265848,750063616,'',0.471238898038,0.474501654585,0.00686691472754,0.0,0.001,0.0,6000.0,0.0,300.0,0.0
1513265850552221998,,577305,,1513265848,760063616,'',0.471238898038,0.474563350135,0.00562081508881,0.0,0.001,0.0,6000.0,0.0,300.0,0.0
1513265850562276263,,577306,,1513265848,770063616,'',0.471238898038,0.474641885168,0.0185949470271,0.0,0.001,0.0,6000.0,0.0,300.0,0.0
1513265850572130999,,577307,,1513265848,780063616,'',0.471238898038,0.474743332682,0.00198743786238,0.0,0.001,0.0,6000.0,0.0,300.0,0.0
1513265850582124631,,577308,,1513265848,790063616,'',0.471238898038,0.474891580883,0.0135491446485,0.0,0.001,0.0,6000.0,0.0,300.0,0.0
1513265850592071863,,577309,,1513265848,800063616,'',0.471238898038,0.475000802287,0.0113451736851,0.0,0.001,0.0,6000.0,0.0,300.0,0.0
1513265850602075205,,577310,,1513265848,810063616,'',0.471238898038,0.475115965542,0.00901762052143,0.0,0.001,0.0,6000.0,0.0,300.0,0.0
1513265850612356575,,577311,,1513265848,820063616,'',0.471238898038,0.47523671608,0.0211344021801,0.0,0.001,0.0,6000.0,0.0,300.0,0.0
1513265850622329806,,577312,,1513265848,830063616,'',0.471238898038,0.475387901759,0.0180796774256,0.0,0.001,0.0,6000.0,0.0,300.0,0.0
1513265850632315166,,577313,,1513265848,840063616,'',0.471238898038,0.475511534426,0.015584177684,0.0,0.001,0.0,6000.0,0.0,300.0,0.0
1513265850642363263,,577314,,1513265848,850063616,'',0.471238898038,0.47562331672,-0.00123202313246,0.0,0.001,0.0,6000.0,0.0,300.0,0.0
1513265850652212796,,577315,,1513265848,860063616,'',0.471238898038,0.475729747509,0.0111723832492,0.0,0.001,0.0,6000.0,0.0,300.0,0.0
1513265850662023004,,577316,,1513265848,870063616,'',0.471238898038,0.475829888535,0.00914918213131,0.0,0.001,0.0,6000.0,0.0,300.0,0.0
1513265850672081676,,577317,,1513265848,880063616,'',0.471238898038,0.475925346603,0.00722169099799,0.0,0.001,0.0,6000.0,0.0,300.0,0.0
1513265850682371124,,577318,,1513265848,890063616,'',0.471238898038,0.476017726175,0.0199142223684,0.0,0.001,0.0,6000.0,0.0,300.0,0.0
1513265850692286833,,577319,,1513265848,900063616,'',0.471238898038,0.476105234821,0.00359182116797,0.0,0.001,0.0,6000.0,0.0,300.0,0.0
1513265850702147567,,577320,,1513265848,910063616,'',0.471238898038,0.476192313699,0.0163884957405,0.0,0.001,0.0,6000.0,0.0,300.0,0.0
1513265850712167731,,577321,,1513265848,920063616,'',0.471238898038,0.476314004052,0.0139320590437,0.0,0.001,0.0,6000.0,0.0,300.0,0.0
1513265850721948995,,577322,,1513265848,930063616,'',0.471238898038,0.476439052214,0.0114045407338,0.0,0.001,0.0,6000.0,0.0,300.0,0.0
1513265850732260110,,577323,,1513265848,940063616,'',0.471238898038,0.476566912749,0.00882308215251,0.0,0.001,0.0,6000.0,0.0,300.0,0.0
1513265850742187771,,577324,,1513265848,950063616,'',0.471238898038,0.476710706522,0.0204755692232,0.0,0.001,0.0,6000.0,0.0,300.0,0.0
1513265850752198305,,577325,,1513265848,960063616,'',0.471238898038,0.476882226381,0.0170116672749,0.0,0.001,0.0,6000.0,0.0,300.0,0.0
1513265850762053362,,577326,,1513265848,970063616,'',0.471238898038,0.477020570625,-0.000342087931019,0.0,0.001,0.0,6000.0,0.0,300.0,0.0
1513265850771982029,,577327,,1513265848,980063616,'',0.471238898038,0.477094319644,0.0127200237612,0.0,0.001,0.0,6000.0,0.0,300.0,0.0
1513265850782291003,,577328,,1513265848,990063616,'',0.471238898038,0.477208532435,0.0104122408249,0.0,0.001,0.0,6000.0,0.0,300.0,0.0
1513265850792355785,,577329,,1513265849,63616,'',0.471238898038,0.477302017664,0.00852327888115,0.0,0.001,0.0,6000.0,0.0,300.0,0.0
1513265850802338476,,577330,,1513265849,10063616,'',0.471238898038,0.477365685212,0.00723989165796,0.0,0.001,0.0,6000.0,0.0,300.0,0.0
1513265850812166818,,577331,,1513265849,20063616,'',0.471238898038,0.477430654596,0.00592656217797,0.0,0.001,0.0,6000.0,0.0,300.0,0.0
1513265850822004075,,577332,,1513265849,30063616,'',0.471238898038,0.477496822645,0.00459205689281,0.0,0.001,0.0,6000.0,0.0,300.0,0.0
1513265850831948599,,577333,,1513265849,40063616,'',0.471238898038,0.4775392652,0.00373091239404,0.0,0.001,0.0,6000.0,0.0,300.0,0.0
1513265850841995429,,577334,,1513265849,50063616,'',0.471238898038,0.477622910801,0.00204374003793,0.0,0.001,0.0,6000.0,0.0,300.0,0.0
1513265850852378255,,577335,,1513265849,60063616,'',0.471238898038,0.47769421407,0.0151562923841,0.0,0.001,0.0,6000.0,0.0,300.0,0.0
1513265850862137751,,577336,,1513265849,70063616,'',0.471238898038,0.477830296578,0.012406913452,0.0,0.001,0.0,6000.0,0.0,300.0,0.0
1513265850872030079,,577337,,1513265849,80063616,'',0.471238898038,0.477970141687,0.0241383609737,0.0,0.001,0.0,6000.0,0.0,300.0,0.0
1513265850882383845,,577338,,1513265849,90063616,'',0.471238898038,0.478134436474,0.020815477013,0.0,0.001,0.0,6000.0,0.0,300.0,0.0
1513265850892347355,,577339,,1513265849,100063616,'',0.471238898038,0.478321402873,0.01703886173,0.0,0.001,0.0,6000.0,0.0,300.0,0.0
1513265850902214596,,577340,,1513265849,110063616,'',0.471238898038,0.478474118062,0.0139541014883,0.0,0.001,0.0,6000.0,0.0,300.0,0.0
1513265850912136862,,577341,,1513265849,120063616,'',0.471238898038,0.478611942264,0.0111727584176,0.0,0.001,0.0,6000.0,0.0,300.0,0.0
1513265850922374024,,577342,,1513265849,130063616,'',0.471238898038,0.478699856717,0.00939673287507,0.0,0.001,0.0,6000.0,0.0,300.0,0.0
1513265850932318466,,577343,,1513265849,140063616,'',0.471238898038,0.478784061077,0.00769541361149,0.0,0.001,0.0,6000.0,0.0,300.0,0.0
1513265850942325313,,577344,,1513265849,150063616,'',0.471238898038,0.478865147227,0.00606020388929,0.0,0.001,0.0,6000.0,0.0,300.0,0.0
1513265850952403923,,577345,,1513265849,160063616,'',0.471238898038,0.478933493013,0.00467788638021,0.0,0.001,0.0,6000.0,0.0,300.0,0.0
1513265850962231957,,577346,,1513265849,170063616,'',0.471238898038,0.478975460666,0.00382963799146,0.0,0.001,0.0,6000.0,0.0,300.0,0.0
1513265850972207331,,577347,,1513265849,180063616,'',0.471238898038,0.478997032623,0.00339251236644,0.0,0.001,0.0,6000.0,0.0,300.0,0.0
1513265850982326142,,577348,,1513265849,190063616,'',0.471238898038,0.47902749558,0.00277699853301,0.0,0.001,0.0,6000.0,0.0,300.0,0.0
1513265850992062467,,577349,,1513265849,200063616,'',0.471238898038,0.479038597139,0.00255000360801,0.0,0.001,0.0,6000.0,0.0,300.0,0.0
1513265851001986586,,577350,,1513265849,210063616,'',0.471238898038,0.479061520892,0.0020873088876,0.0,0.001,0.0,6000.0,0.0,300.0,0.0
1513265851012440756,,577351,,1513265849,220063616,'',0.471238898038,0.479080246402,0.00170935180114,0.0,0.001,0.0,6000.0,0.0,300.0,0.0
1513265851022535425,,577352,,1513265849,230063616,'',0.471238898038,0.479095611631,0.00139921890665,0.0,0.001,0.0,6000.0,0.0,300.0,0.0
1513265851032452591,,577353,,1513265849,240063616,'',0.471238898038,0.479108166365,0.00114581322195,0.0,0.001,0.0,6000.0,0.0,300.0,0.0
1513265851042296111,,577354,,1513265849,250063616,'',0.471238898038,0.479131953935,0.000662551116151,0.0,0.001,0.0,6000.0,0.0,300.0,0.0
1513265851052224997,,577355,,1513265849,260063616,'',0.471238898038,0.479150402972,0.000290723141909,0.0,0.001,0.0,6000.0,0.0,300.0,0.0
1513265851062099594,,577356,,1513265849,270063616,'',0.471238898038,0.479233133537,0.0131744854581,0.0,0.001,0.0,6000.0,0.0,300.0,0.0
1513265851072104996,,577357,,1513265849,280063616,'',0.471238898038,0.479363264846,0.0105442570855,0.0,0.001,0.0,6000.0,0.0,300.0,0.0
1513265851082444736,,577358,,1513265849,290063616,'',0.471238898038,0.479588743887,0.0205472429896,0.0,0.001,0.0,6000.0,0.0,300.0,0.0
1513265851092311710,,577359,,1513265849,300063616,'',0.471238898038,0.479892723617,0.0435116347205,0.0,0.001,0.0,6000.0,0.0,300.0,0.0
1513265851102286022,,577360,,1513265849,310063616,'',0.471238898038,0.480274438458,0.0358013096119,0.0,0.001,0.0,6000.0,0.0,300.0,0.0
1513265851112162345,,577361,,1513265849,320063616,'',0.471238898038,0.480754157204,0.0406730683324,0.0,0.001,0.0,6000.0,0.0,300.0,0.0
1513265851122153950,,577362,,1513265849,330063616,'',0.471238898038,0.481224348073,0.0457224637716,0.0,0.001,0.0,6000.0,0.0,300.0,0.0
1513265851132126342,,577363,,1513265849,340063616,'',0.471238898038,0.481699290469,0.0506853590854,0.0,0.001,0.0,6000.0,0.0,300.0,0.0
1513265851142440410,,577364,,1513265849,350063616,'',0.471238898038,0.482089705332,0.0427910574831,0.0,0.001,0.0,6000.0,0.0,300.0,0.0
1513265851152298888,,577365,,1513265849,360063616,'',0.471238898038,0.48247417476,0.0350273458197,0.0112352767213,0.001,-77.9561816223,6000.0,0.0,300.0,0.0
1513265851162482486,,577366,,1513265849,370063616,'',0.471238898038,0.482788238609,0.0286853560772,0.0115493405706,0.001,-77.7759246418,6000.0,0.0,300.0,0.0
1513265851172147433,,577367,,1513265849,380063616,'',0.471238898038,0.48306027289,0.0377485879893,0.0118213748516,0.001,-82.300998222,6000.0,0.0,300.0,0.0
1513265851182509511,,577368,,1513265849,390063616,'',0.471238898038,0.483399344173,0.0309004836137,0.0121604461343,0.001,-82.2811876939,6000.0,0.0,300.0,0.0
1513265851192401041,,577369,,1513265849,400063616,'',0.471238898038,0.483676383667,0.0253052136341,0.0124374856281,0.001,-82.2634008884,6000.0,0.0,300.0,0.0
1513265851202389753,,577370,,1513265849,410063616,'',0.471238898038,0.483929108583,0.0201957343882,0.0126902105445,0.001,-82.2346470171,6000.0,0.0,300.0,0.0
1513265851212365865,,577371,,1513265849,420063616,'',0.471238898038,0.484123939763,0.0162613088024,0.0128850417245,0.001,-82.0980117642,6000.0,0.0,300.0,0.0
1513265851222297154,,577372,,1513265849,430063616,'',0.471238898038,0.484297046046,0.0127658455323,0.0130581480076,0.001,-82.1998493057,6000.0,0.0,300.0,0.0
1513265851232492508,,577373,,1513265849,440063616,'',0.471238898038,0.484450670073,0.00966110751793,0.0132117720346,0.001,-82.1915189239,6000.0,0.0,300.0,0.0
1513265851242354237,,577374,,1513265849,450063616,'',0.471238898038,0.484550827584,0.0076395507391,0.0133119295457,0.001,-82.1746451063,6000.0,0.0,300.0,0.0
1513265851252374580,,577375,,1513265849,460063616,'',0.471238898038,0.484619506861,0.00625333472789,0.0133806088222,0.001,-82.1728929919,6000.0,0.0,300.0,0.0
1513265851262250475,,577376,,1513265849,470063616,'',0.471238898038,0.484661601292,0.00540298360395,0.0134227032535,0.001,-82.1605660512,6000.0,0.0,300.0,0.0
1513265851272398541,,577377,,1513265849,480063616,'',0.471238898038,0.484710077966,0.00442466558193,0.0134711799274,0.001,-82.1301131122,6000.0,0.0,300.0,0.0
1513265851282319603,,577378,,1513265849,490063616,'',0.471238898038,0.484749849728,0.00362202321899,0.0135109516899,0.001,-82.1598697875,6000.0,0.0,300.0,0.0
1513265851292351930,,577379,,1513265849,500063616,'',0.471238898038,0.484755949635,-0.0110506247278,0.0135170515968,0.001,-77.8399542511,6000.0,0.0,300.0,0.0
1513265851302123578,,577380,,1513265849,510063616,'',0.471238898038,0.484747651517,0.00367617017354,0.0135087534788,0.001,-82.1579605007,6000.0,0.0,300.0,0.0
1513265851312296182,,577381,,1513265849,520063616,'',0.471238898038,0.484752791809,-0.0109856355438,0.013513893771,0.001,-77.7795037035,6000.0,0.0,300.0,0.0
1513265851322202022,,577382,,1513265849,530063616,'',0.471238898038,0.484784774542,0.00292223753572,0.0135458765037,0.001,-82.1600882952,6000.0,0.0,300.0,0.0
1513265851332476397,,577383,,1513265849,540063616,'',0.471238898038,0.484745148605,0.00371815819283,0.0135062505662,0.001,-82.1536030885,6000.0,0.0,300.0,0.0
1513265851342437559,,577384,,1513265849,550063616,'',0.471238898038,0.484725200739,-0.0104354507182,0.0134863027006,0.001,-77.7694606581,6000.0,0.0,300.0,0.0
1513265851352390052,,577385,,1513265849,560063616,'',0.471238898038,0.484709476707,-0.0101139423832,0.013470578669,0.001,-77.7739003985,6000.0,0.0,300.0,0.0
1513265851362399525,,577386,,1513265849,570063616,'',0.471238898038,0.484684381013,-0.00959793580335,0.0134454829742,0.001,-77.8372484967,6000.0,0.0,300.0,0.0
1513265851372383499,,577387,,1513265849,580063616,'',0.471238898038,0.484611924745,-0.00813256764115,0.0133730267065,0.001,-77.7903885112,6000.0,0.0,300.0,0.0
1513265851382134589,,577388,,1513265849,590063616,'',0.471238898038,0.484552972453,0.0076100043376,0.0133140744143,0.001,-82.1283316707,6000.0,0.0,300.0,0.0
1513265851392206612,,577389,,1513265849,600063616,'',0.471238898038,0.484490535929,-0.00568951741742,0.0132516378908,0.001,-77.8315641748,6000.0,0.0,300.0,0.0
1513265851402273321,,577390,,1513265849,610063616,'',0.471238898038,0.484439424161,-0.00465742863707,0.0132005261224,0.001,-77.796685907,6000.0,0.0,300.0,0.0
1513265851412388782,,577391,,1513265849,620063616,'',0.471238898038,0.484397576958,-0.00381241719874,0.0131586789191,0.001,-77.7985783499,6000.0,0.0,300.0,0.0
1513265851422565249,,577392,,1513265849,630063616,'',0.471238898038,0.484377150758,-0.00340333571786,0.0131382527196,0.001,-77.8027827973,6000.0,0.0,300.0,0.0
1513265851432348696,,577393,,1513265849,640063616,'',0.471238898038,0.484346607923,-0.0027859777295,0.0131077098842,0.001,-77.8075836625,6000.0,0.0,300.0,0.0
1513265851442477844,,577394,,1513265849,650063616,'',0.471238898038,0.484321652311,-0.00228155349267,0.0130827542721,0.001,-77.8228762919,6000.0,0.0,300.0,0.0
1513265851452104335,,577395,,1513265849,660063616,'',0.471238898038,0.484301174575,-0.0018676399276,0.0130622765361,0.001,-77.8102212612,6000.0,0.0,300.0,0.0
1513265851462026120,,577396,,1513265849,670063616,'',0.471238898038,0.484284411857,-0.00152881749666,0.0130455138182,0.001,-77.8114208252,6000.0,0.0,300.0,0.0
1513265851472570593,,577397,,1513265849,680063616,'',0.471238898038,0.484270720013,-0.0012520662163,0.013031821975,0.001,-77.8226938913,6000.0,0.0,300.0,0.0
1513265851482510555,,577398,,1513265849,690063616,'',0.471238898038,0.484246521237,-0.000762416988251,0.013007623198,0.001,-77.8153517352,6000.0,0.0,300.0,0.0
1513265851492509955,,577399,,1513265849,700063616,'',0.471238898038,0.484184819286,-0.0140735184783,0.0129459212475,0.001,-73.5304407277,6000.0,0.0,300.0,0.0
1513265851502662285,,577400,,1513265849,710063616,'',0.471238898038,0.484161293554,-0.0135957557206,0.0129223955155,0.001,-73.4300782226,6000.0,0.0,300.0,0.0
1513265851512734216,,577401,,1513265849,720063616,'',0.471238898038,0.484119252852,0.00180930493285,0.0128803548134,0.001,-77.8275096823,6000.0,0.0,300.0,0.0
1513265851522212007,,577402,,1513265849,730063616,'',0.471238898038,0.484083497163,-0.0120249229312,0.0128445991244,0.001,-73.4342194643,6000.0,0.0,300.0,0.0
1513265851532463483,,577403,,1513265849,740063616,'',0.471238898038,0.484027024191,-0.010886752098,0.0127881261522,0.001,-73.4503015377,6000.0,0.0,300.0,0.0
1513265851542571908,,577404,,1513265849,750063616,'',0.471238898038,0.483955128479,-0.00944302234209,0.0127162304405,0.001,-73.5252064142,6000.0,0.0,300.0,0.0
1513265851552337563,,577405,,1513265849,760063616,'',0.471238898038,0.48386741506,-0.0222266718876,0.0126285170217,0.001,-69.2270947672,6000.0,0.0,300.0,0.0
1513265851562354548,,577406,,1513265849,770063616,'',0.471238898038,0.48381164112,-0.00654622906876,0.012572743082,0.001,-73.4643110162,6000.0,0.0,300.0,0.0
1513265851572077878,,577407,,1513265849,780063616,'',0.471238898038,0.483714772808,-0.0191421565347,0.0124758747697,0.001,-69.0868685677,6000.0,0.0,300.0,0.0
1513265851582553192,,577408,,1513265849,790063616,'',0.471238898038,0.483608695869,-0.0169947441945,0.0123697978303,0.001,-69.0817493748,6000.0,0.0,300.0,0.0
1513265851592637209,,577409,,1513265849,800063616,'',0.471238898038,0.483519647808,-0.0151911951331,0.0122807497691,0.001,-69.2098880287,6000.0,0.0,300.0,0.0
1513265851602534050,,577410,,1513265849,810063616,'',0.471238898038,0.483450283383,0.000769241640741,0.0122113853445,0.001,-73.4994682926,6000.0,0.0,300.0,0.0
1513265851612410033,,577411,,1513265849,820063616,'',0.471238898038,0.483367828099,0.00243168209004,0.0121289300606,0.001,-73.5091685134,6000.0,0.0,300.0,0.0
1513265851622503482,,577412,,1513265849,830063616,'',0.471238898038,0.483300494735,0.00379644796995,0.0120615966969,0.001,-73.5096968907,6000.0,0.0,300.0,0.0
1513265851632307291,,577413,,1513265849,840063616,'',0.471238898038,0.483217009913,-0.00907260633657,0.0119781118743,0.001,-69.1293462259,6000.0,0.0,300.0,0.0
1513265851642136716,,577414,,1513265849,850063616,'',0.471238898038,0.483135486334,-0.00742653578406,0.0118965882951,0.001,-69.0921047507,6000.0,0.0,300.0,0.0
1513265851652153083,,577415,,1513265849,860063616,'',0.471238898038,0.483095115738,-0.00660946343692,0.0118562176999,0.001,-69.1387127494,6000.0,0.0,300.0,0.0
1513265851662012314,,577416,,1513265849,870063616,'',0.471238898038,0.483035831791,-0.0054127914003,0.0117969337523,0.001,-69.1792991475,6000.0,0.0,300.0,0.0
1513265851672419895,,577417,,1513265849,880063616,'',0.471238898038,0.483000382137,-0.00469802099835,0.0117614840987,0.001,-69.1515976135,6000.0,0.0,300.0,0.0
1513265851682416801,,577418,,1513265849,890063616,'',0.471238898038,0.482959234195,-0.00386101294479,0.011720336156,0.001,-69.1519707922,6000.0,0.0,300.0,0.0
1513265851692367934,,577419,,1513265849,900063616,'',0.471238898038,0.482910257327,-0.0174295316632,0.0116713592884,0.001,-64.7863008683,6000.0,0.0,300.0,0.0
1513265851702113599,,577420,,1513265849,910063616,'',0.471238898038,0.48287194608,-0.00209858223486,0.0116330480413,0.001,-69.1612564077,6000.0,0.0,300.0,0.0
1513265851712099081,,577421,,1513265849,920063616,'',0.471238898038,0.482853069189,-0.00171864939987,0.0116141711503,0.001,-69.1674377789,6000.0,0.0,300.0,0.0
1513265851722555455,,577422,,1513265849,930063616,'',0.471238898038,0.482784813962,-0.000336141771823,0.011545915924,0.001,-69.1711046643,6000.0,0.0,300.0,0.0
1513265851732476542,,577423,,1513265849,940063616,'',0.471238898038,0.482757231523,0.000213122690793,0.0115183334841,0.001,-69.1723482872,6000.0,0.0,300.0,0.0
1513265851742228108,,577424,,1513265849,950063616,'',0.471238898038,0.482745894383,0.000447106761502,0.0115069963442,0.001,-69.1741155821,6000.0,0.0,300.0,0.0
1513265851752087385,,577425,,1513265849,960063616,'',0.471238898038,0.482644577336,-0.0120613604077,0.0114056792974,0.001,-64.8754635364,6000.0,0.0,300.0,0.0
1513265851762080689,,577426,,1513265849,970063616,'',0.471238898038,0.482615540146,0.00308073261227,0.0113766421078,0.001,-69.1864671266,6000.0,0.0,300.0,0.0
1513265851772507534,,577427,,1513265849,980063616,'',0.471238898038,0.482538966707,-0.00992988840249,0.0113000686681,0.001,-64.8134396903,6000.0,0.0,300.0,0.0
1513265851782521118,,577428,,1513265849,990063616,'',0.471238898038,0.482474634231,-0.00863091733408,0.0112357361922,0.001,-64.8106545805,6000.0,0.0,300.0,0.0
1513265851792318680,,577429,,1513265850,63616,'',0.471238898038,0.482411145764,-0.00734916705788,0.0111722477254,0.001,-64.8142818777,6000.0,0.0,300.0,0.0
1513265851802357215,,577430,,1513265850,10063616,'',0.471238898038,0.482369938087,-0.00651202832225,0.0111310400482,0.001,-64.8672452159,6000.0,0.0,300.0,0.0
1513265851812280848,,577431,,1513265850,20063616,'',0.471238898038,0.482350379835,0.00843564190992,0.0111114817962,0.001,-69.2104925999,6000.0,0.0,300.0,0.0
1513265851822238577,,577432,,1513265850,30063616,'',0.471238898038,0.482293870468,-0.00498390436016,0.0110549724296,0.001,-64.8572780936,6000.0,0.0,300.0,0.0
1513265851832135294,,577433,,1513265850,40063616,'',0.471238898038,0.482261264144,-0.00433133349169,0.0110223661057,0.001,-64.83123763,6000.0,0.0,300.0,0.0
1513265851842065712,,577434,,1513265850,50063616,'',0.471238898038,0.482235628657,-0.00380964129601,0.0109967306183,0.001,-64.8287335138,6000.0,0.0,300.0,0.0
1513265851852726281,,577435,,1513265850,60063616,'',0.471238898038,0.482187757462,-0.00283917763312,0.0109488594236,0.001,-64.8366477244,6000.0,0.0,300.0,0.0
1513265851862339971,,577436,,1513265850,70063616,'',0.471238898038,0.48216224293,-0.00232405700275,0.0109233448911,0.001,-64.8382874661,6000.0,0.0,300.0,0.0
1513265851872286825,,577437,,1513265850,80063616,'',0.471238898038,0.482141402518,-0.00190330362408,0.01090250448,0.001,-64.8535039086,6000.0,0.0,300.0,0.0
1513265851882244493,,577438,,1513265850,90063616,'',0.471238898038,0.482124301616,-0.0015580483234,0.0108854035777,0.001,-64.8428478327,6000.0,0.0,300.0,0.0
1513265851892114722,,577439,,1513265850,100063616,'',0.471238898038,0.482098299756,-0.00103330532952,0.0108594017179,0.001,-64.8441557545,6000.0,0.0,300.0,0.0
1513265851902619986,,577440,,1513265850,110063616,'',0.471238898038,0.482101505943,-0.00109812969624,0.0108626079041,0.001,-64.8511280819,6000.0,0.0,300.0,0.0
1513265851912531828,,577441,,1513265850,120063616,'',0.471238898038,0.482103842923,-0.00114802537585,0.0108649448842,0.001,-64.8442509985,6000.0,0.0,300.0,0.0
1513265851922492867,,577442,,1513265850,130063616,'',0.471238898038,0.482081107568,-0.000688306090627,0.0108422095297,0.001,-64.8464597655,6000.0,0.0,300.0,0.0
1513265851932257810,,577443,,1513265850,140063616,'',0.471238898038,0.482112184037,-0.00131707160897,0.0108732859985,0.001,-64.8427356147,6000.0,0.0,300.0,0.0
1513265851942214887,,577444,,1513265850,150063616,'',0.471238898038,0.48208838228,-0.000836314324046,0.0108494842416,0.001,-64.8466753823,6000.0,0.0,300.0,0.0
1513265851952236100,,577445,,1513265850,160063616,'',0.471238898038,0.482092830681,-0.000928858035804,0.0108539326428,0.001,-64.8519841814,6000.0,0.0,300.0,0.0
1513265851962541720,,577446,,1513265850,170063616,'',0.471238898038,0.482044984635,-0.0145155283529,0.0108060865961,0.001,-60.4610043342,6000.0,0.0,300.0,0.0
1513265851972577207,,577447,,1513265850,180063616,'',0.471238898038,0.482045373777,3.43593191725e-05,0.0108064757383,0.001,-64.8495615469,6000.0,0.0,300.0,0.0
1513265851982555829,,577448,,1513265850,190063616,'',0.471238898038,0.482045691657,2.81389520389e-05,0.0108067936184,0.001,-64.8495304248,6000.0,0.0,300.0,0.0
1513265851992250749,,577449,,1513265850,200063616,'',0.471238898038,0.482019011638,0.000565564486077,0.0107801135999,0.001,-64.8521425375,6000.0,0.0,300.0,0.0
1513265852002182264,,577450,,1513265850,210063616,'',0.471238898038,0.482024101647,0.00046318425038,0.0107852036086,0.001,-64.8485190318,6000.0,0.0,300.0,0.0
1513265852012143529,,577451,,1513265850,220063616,'',0.471238898038,0.482016095646,0.000625523748514,0.0107771976076,0.001,-64.8522468426,6000.0,0.0,300.0,0.0
1513265852022029721,,577452,,1513265850,230063616,'',0.471238898038,0.482021725149,0.000512055047491,0.0107828271101,0.001,-64.8516914724,6000.0,0.0,300.0,0.0
1513265852032091185,,577453,,1513265850,240063616,'',0.471238898038,0.482012821723,0.000692006706393,0.0107739236846,0.001,-64.8476921598,6000.0,0.0,300.0,0.0
1513265852042345866,,577454,,1513265850,250063616,'',0.471238898038,0.482019045778,0.000566464629989,0.0107801477395,0.001,-64.851770285,6000.0,0.0,300.0,0.0
1513265852052231585,,577455,,1513265850,260063616,'',0.471238898038,0.48202439663,0.000458495481847,0.0107854985919,0.001,-64.8486960168,6000.0,0.0,300.0,0.0
1513265852062565435,,577456,,1513265850,270063616,'',0.471238898038,0.482000896577,-0.013629538487,0.0107619985388,0.001,-60.4610621987,6000.0,0.0,300.0,0.0
1513265852072488991,,577457,,1513265850,280063616,'',0.471238898038,0.482008720604,0.000774365944175,0.0107698225658,0.001,-64.8521970783,6000.0,0.0,300.0,0.0
1513265852082392145,,577458,,1513265850,290063616,'',0.471238898038,0.482015674728,0.000634163629668,0.0107767766893,0.001,-64.8518724109,6000.0,0.0,300.0,0.0
1513265852092398132,,577459,,1513265850,300063616,'',0.471238898038,0.482020285152,0.000545843706287,0.0107813871132,0.001,-64.8513517884,6000.0,0.0,300.0,0.0
1513265852102446152,,577460,,1513265850,310063616,'',0.471238898038,0.481986478247,0.00122848944924,0.0107475802082,0.001,-64.8486009624,6000.0,0.0,300.0,0.0
1513265852112429042,,577461,,1513265850,320063616,'',0.471238898038,0.481983179388,-0.0132618058768,0.0107442813497,0.001,-60.4781041046,6000.0,0.0,300.0,0.0
1513265852122251796,,577462,,1513265850,330063616,'',0.471238898038,0.481968588084,0.00159324330591,0.0107296900451,0.001,-64.856620717,6000.0,0.0,300.0,0.0
1513265852132474442,,577463,,1513265850,340063616,'',0.471238898038,0.481957125859,0.00182695063961,0.0107182278207,0.001,-64.8470374182,6000.0,0.0,300.0,0.0
1513265852142268210,,577464,,1513265850,350063616,'',0.471238898038,0.481973451304,0.00149556700489,0.0107345532654,0.001,-64.8566031315,6000.0,0.0,300.0,0.0
1513265852152454790,,577465,,1513265850,360063616,'',0.471238898038,0.481985236024,0.00125956876578,0.010746337985,0.001,-64.8527393633,6000.0,0.0,300.0,0.0
1513265852162480373,,577466,,1513265850,370063616,'',0.471238898038,0.481969661755,0.00156643875722,0.0107307637168,0.001,-64.8460087736,6000.0,0.0,300.0,0.0
1513265852172567424,,577467,,1513265850,380063616,'',0.471238898038,0.48195776374,0.00180722071982,0.0107188657018,0.001,-64.8564433913,6000.0,0.0,300.0,0.0
1513265852182609191,,577468,,1513265850,390063616,'',0.471238898038,0.481973976273,0.00147935938612,0.0107350782343,0.001,-64.8574059412,6000.0,0.0,300.0,0.0
1513265852192307695,,577469,,1513265850,400063616,'',0.471238898038,0.481987219866,0.0012115380577,0.0107483218271,0.001,-64.8464254377,6000.0,0.0,300.0,0.0
1513265852202203998,,577470,,1513265850,410063616,'',0.471238898038,0.481998086439,0.000991786502045,0.0107591884004,0.001,-64.8532606746,6000.0,0.0,300.0,0.0
1513265852212473905,,577471,,1513265850,420063616,'',0.471238898038,0.4820069822,0.000811890116891,0.0107680841612,0.001,-64.8527929048,6000.0,0.0,300.0,0.0
1513265852222215220,,577472,,1513265850,430063616,'',0.471238898038,0.481973365447,-0.0130689607009,0.0107344674082,0.001,-60.4712695904,6000.0,0.0,300.0,0.0
1513265852232088673,,577473,,1513265850,440063616,'',0.471238898038,0.48196228516,0.00171429195537,0.0107233871216,0.001,-64.8570771723,6000.0,0.0,300.0,0.0
1513265852242248278,,577474,,1513265850,450063616,'',0.471238898038,0.481965737121,0.00164757036406,0.010726839082,0.001,-64.8552200893,6000.0,0.0,300.0,0.0
1513265852252206057,,577475,,1513265850,460063616,'',0.471238898038,0.481968034416,0.00159814443211,0.0107291363774,0.001,-64.8463993298,6000.0,0.0,300.0,0.0
1513265852262110532,,577476,,1513265850,470063616,'',0.471238898038,0.481969417187,0.0015705759814,0.0107305191483,0.001,-64.85835927,6000.0,0.0,300.0,0.0
1513265852272533308,,577477,,1513265850,480063616,'',0.471238898038,0.48195535203,-0.0127027240838,0.0107164539915,0.001,-60.5572071732,6000.0,0.0,300.0,0.0
1513265852282376321,,577478,,1513265850,490063616,'',0.471238898038,0.481904898778,-0.011683774537,0.0106660007399,0.001,-60.466100205,6000.0,0.0,300.0,0.0
1513265852292255598,,577479,,1513265850,500063616,'',0.471238898038,0.481918714997,0.00259697707787,0.0106798169588,0.001,-64.8445347384,6000.0,0.0,300.0,0.0
1513265852302236196,,577480,,1513265850,510063616,'',0.471238898038,0.481916105899,0.00264743483032,0.0106772078604,0.001,-64.8622175452,6000.0,0.0,300.0,0.0
1513265852312515618,,577481,,1513265850,520063616,'',0.471238898038,0.481899889661,0.00297292692026,0.0106609916227,0.001,-64.8573583666,6000.0,0.0,300.0,0.0
1513265852322568031,,577482,,1513265850,530063616,'',0.471238898038,0.481875056364,-0.0110817261396,0.010636158326,0.001,-60.482805198,6000.0,0.0,300.0,0.0
1513265852332407924,,577483,,1513265850,540063616,'',0.471238898038,0.481868037117,0.00361945661406,0.0106291390781,0.001,-64.8656167378,6000.0,0.0,300.0,0.0
1513265852342167151,,577484,,1513265850,550063616,'',0.471238898038,0.481821794312,-0.010003676946,0.0105828962731,0.001,-60.481227018,6000.0,0.0,300.0,0.0
1513265852352798923,,577485,,1513265850,560063616,'',0.471238898038,0.481837714337,0.00422705879154,0.0105988162986,0.001,-64.8350566956,6000.0,0.0,300.0,0.0
1513265852362431142,,577486,,1513265850,570063616,'',0.471238898038,0.48184870275,0.00400854704772,0.0106098047114,0.001,-64.8673685735,6000.0,0.0,300.0,0.0
1513265852372674339,,577487,,1513265850,580063616,'',0.471238898038,0.481845708122,0.00406696148924,0.0106068100837,0.001,-64.8405991713,6000.0,0.0,300.0,0.0
1513265852382319347,,577488,,1513265850,590063616,'',0.471238898038,0.481844113909,0.00410013932239,0.0106052158702,0.001,-64.8677843563,6000.0,0.0,300.0,0.0
1513265852392136837,,577489,,1513265850,600063616,'',0.471238898038,0.481803532421,0.00492339605952,0.0105646343824,0.001,-64.8760835427,6000.0,0.0,300.0,0.0
1513265852402223505,,577490,,1513265850,610063616,'',0.471238898038,0.481809791846,0.00479985971375,0.0105708938079,0.001,-64.8362617181,6000.0,0.0,300.0,0.0
1513265852412102345,,577491,,1513265850,620063616,'',0.471238898038,0.481826561511,0.00445901879858,0.0105876634722,0.001,-64.8667993333,6000.0,0.0,300.0,0.0
1513265852422236652,,577492,,1513265850,630063616,'',0.471238898038,0.481839569752,0.00419578146055,0.0106006717136,0.001,-64.8669843225,6000.0,0.0,300.0,0.0
1513265852432436967,,577493,,1513265850,640063616,'',0.471238898038,0.48183749941,-0.0103214055306,0.0105986013713,0.001,-60.5454130037,6000.0,0.0,300.0,0.0
1513265852442481880,,577494,,1513265850,650063616,'',0.471238898038,0.481863046633,0.0037164114987,0.0106241485942,0.001,-64.8649942064,6000.0,0.0,300.0,0.0
1513265852452386873,,577495,,1513265850,660063616,'',0.471238898038,0.481857655852,0.00382193741946,0.0106187578131,0.001,-64.8665573567,6000.0,0.0,300.0,0.0
1513265852462388037,,577496,,1513265850,670063616,'',0.471238898038,0.481865126366,-0.010885016646,0.0106262283275,0.001,-60.4670820296,6000.0,0.0,300.0,0.0
1513265852472028912,,577497,,1513265850,680063616,'',0.471238898038,0.481845194929,-0.010474520319,0.0106062968902,0.001,-60.495001801,6000.0,0.0,300.0,0.0
1513265852482499781,,577498,,1513265850,690063616,'',0.471238898038,0.481828839256,-0.0101463970948,0.010589941218,0.001,-60.4776563739,6000.0,0.0,300.0,0.0
1513265852492320960,,577499,,1513265850,700063616,'',0.471238898038,0.481830106259,-0.0101690972819,0.0105912082207,0.001,-60.5510102952,6000.0,0.0,300.0,0.0
1513265852502095217,,577500,,1513265850,710063616,'',0.471238898038,0.481790354469,-0.00935956722038,0.0105514564309,0.001,-60.4806911461,6000.0,0.0,300.0,0.0
1513265852512364144,,577501,,1513265850,720063616,'',0.471238898038,0.481797646216,0.00504712383444,0.0105587481774,0.001,-64.8643482298,6000.0,0.0,300.0,0.0
1513265852522151281,,577502,,1513265850,730063616,'',0.471238898038,0.481774970606,-0.0090502607934,0.0105360725674,0.001,-60.4802338988,6000.0,0.0,300.0,0.0
1513265852532065813,,577503,,1513265850,740063616,'',0.471238898038,0.481758647042,-0.0087261893275,0.0105197490036,0.001,-60.4844261056,6000.0,0.0,300.0,0.0
1513265852542544327,,577504,,1513265850,750063616,'',0.471238898038,0.481757138243,0.00586131348078,0.010518240204,0.001,-64.8418108058,6000.0,0.0,300.0,0.0
1513265852552536145,,577505,,1513265850,760063616,'',0.471238898038,0.481756957408,0.00585608799381,0.0105180593698,0.001,-64.8761048988,6000.0,0.0,300.0,0.0
1513265852562426980,,577506,,1513265850,770063616,'',0.471238898038,0.481769594754,0.00559938902924,0.0105306967154,0.001,-64.8761566632,6000.0,0.0,300.0,0.0
1513265852572371239,,577507,,1513265850,780063616,'',0.471238898038,0.481754460911,-0.00864951573081,0.0105155628729,0.001,-60.4867034036,6000.0,0.0,300.0,0.0
