rosbagTimestamp,header,seq,stamp,secs,nsecs,frame_id,set_point,process_value,process_value_dot,error,time_step,command,p,i,d,i_clamp
1513265247206991449,,516985,,1513265245,426751426,'',1.20427718388,1.18858155509,-0.00353590645567,-0.0156956287856,0.001,67.4912037781,4300.0,0.0,0.0,0.0
1513265247217024237,,516986,,1513265245,436751426,'',1.20427718388,1.18996918435,0.025132002468,-0.0143079995216,0.001,61.5243979431,4300.0,0.0,0.0,0.0
1513265247227169226,,516987,,1513265245,446751426,'',1.20427718388,1.18858155509,-0.00236054809614,-0.0156956287856,0.001,67.4912037781,4300.0,0.0,0.0,0.0
1513265247237396257,,516988,,1513265245,456751426,'',1.20427718388,1.18719392583,-0.0294083591138,-0.0170832580496,0.001,73.4580096131,4300.0,0.0,0.0,0.0
1513265247247274856,,516989,,1513265245,466751426,'',1.20427718388,1.18719392583,-0.0290533043401,-0.0170832580496,0.001,73.4580096131,4300.0,0.0,0.0,0.0
1513265247257052976,,516990,,1513265245,476751426,'',1.20427718388,1.18719392583,-0.0288390176393,-0.0170832580496,0.001,73.4580096131,4300.0,0.0,0.0,0.0
1513265247266950822,,516991,,1513265245,486751426,'',1.20427718388,1.18996918435,0.0262336746073,-0.0143079995216,0.001,61.5243979431,4300.0,0.0,0.0,0.0
1513265247276982238,,516992,,1513265245,496751426,'',1.20427718388,1.18996918435,0.0244865701257,-0.0143079995216,0.001,61.5243979431,4300.0,0.0,0.0,0.0
1513265247287191213,,516993,,1513265245,506751426,'',1.20427718388,1.18858155509,-0.00387240529768,-0.0156956287856,0.001,67.4912037781,4300.0,0.0,0.0,0.0
1513265247297152521,,516994,,1513265245,516751426,'',1.20427718388,1.18858155509,-0.00419241310242,-0.0156956287856,0.001,67.4912037781,4300.0,0.0,0.0,0.0
1513265247307076627,,516995,,1513265245,526751426,'',1.20427718388,1.18719392583,-0.0314413860296,-0.0170832580496,0.001,73.4580096131,4300.0,0.0,0.0,0.0
1513265247316999819,,516996,,1513265245,536751426,'',1.20427718388,1.18996918435,0.0246892600032,-0.0143079995216,0.001,61.5243979431,4300.0,0.0,0.0,0.0
1513265247326943868,,516997,,1513265245,546751426,'',1.20427718388,1.18858155509,-0.00172920539806,-0.0156956287856,0.001,67.4912037781,4300.0,0.0,0.0,0.0
1513265247336894859,,516998,,1513265245,556751426,'',1.20427718388,1.18996918435,0.0255872869726,-0.0143079995216,0.001,61.5243979431,4300.0,0.0,0.0,0.0
1513265247347309428,,516999,,1513265245,566751426,'',1.20427718388,1.18719392583,-0.0299621871987,-0.0170832580496,0.001,73.4580096131,4300.0,0.0,0.0,0.0
1513265247357193745,,517000,,1513265245,576751426,'',1.20427718388,1.18996918435,0.0254309028219,-0.0143079995216,0.001,61.5243979431,4300.0,0.0,0.0,0.0
1513265247366955112,,517001,,1513265245,586751426,'',1.20427718388,1.18858155509,-0.00266653592961,-0.0156956287856,0.001,67.4912037781,4300.0,0.0,0.0,0.0
1513265247377057498,,517002,,1513265245,596751426,'',1.20427718388,1.18858155509,-0.00315644141103,-0.0156956287856,0.001,67.4912037781,4300.0,0.0,0.0,0.0
1513265247387429565,,517003,,1513265245,606751426,'',1.20427718388,1.18858155509,-0.00158647068446,-0.0156956287856,0.001,67.4912037781,4300.0,0.0,0.0,0.0
1513265247397308343,,517004,,1513265245,616751426,'',1.20427718388,1.18996918435,0.0266508042106,-0.0143079995216,0.001,61.5243979431,4300.0,0.0,0.0,0.0
1513265247407120206,,517005,,1513265245,626751426,'',1.20427718388,1.18858155509,-0.00152749991986,-0.0156956287856,0.001,67.4912037781,4300.0,0.0,0.0,0.0
1513265247417010292,,517006,,1513265245,636751426,'',1.20427718388,1.18719392583,-0.0298057802448,-0.0170832580496,0.001,73.4580096131,4300.0,0.0,0.0,0.0
1513265247426939758,,517007,,1513265245,646751426,'',1.20427718388,1.18858155509,-0.0019812292373,-0.0156956287856,0.001,67.4912037781,4300.0,0.0,0.0,0.0
1513265247437043706,,517008,,1513265245,656751426,'',1.20427718388,1.18858155509,-0.00404509839604,-0.0156956287856,0.001,67.4912037781,4300.0,0.0,0.0,0.0
1513265247446979187,,517009,,1513265245,666751426,'',1.20427718388,1.18858155509,-0.00380287325601,-0.0156956287856,0.001,67.4912037781,4300.0,0.0,0.0,0.0
1513265247457334699,,517010,,1513265245,676751426,'',1.20427718388,1.18858155509,-0.00457814674439,-0.0156956287856,0.001,67.4912037781,4300.0,0.0,0.0,0.0
1513265247467314728,,517011,,1513265245,686751426,'',1.20427718388,1.18858155509,-0.00728702712748,-0.0156956287856,0.001,67.4912037781,4300.0,0.0,0.0,0.0
1513265247477176903,,517012,,1513265245,696751426,'',1.20427718388,1.18858155509,-0.00702378334757,-0.0156956287856,0.001,67.4912037781,4300.0,0.0,0.0,0.0
1513265247487135123,,517013,,1513265245,706751426,'',1.20427718388,1.18858155509,-0.00627976850667,-0.0156956287856,0.001,67.4912037781,4300.0,0.0,0.0,0.0
1513265247497027620,,517014,,1513265245,716751426,'',1.20427718388,1.18996918435,0.0218116386194,-0.0143079995216,0.001,61.5243979431,4300.0,0.0,0.0,0.0
1513265247506983843,,517015,,1513265245,726751426,'',1.20427718388,1.18858155509,-0.00497671083711,-0.0156956287856,0.001,67.4912037781,4300.0,0.0,0.0,0.0
1513265247517003306,,517016,,1513265245,736751426,'',1.20427718388,1.18858155509,-0.00454996827025,-0.0156956287856,0.001,67.4912037781,4300.0,0.0,0.0,0.0
1513265247526902911,,517017,,1513265245,746751426,'',1.20427718388,1.18858155509,-0.00427168887295,-0.0156956287856,0.001,67.4912037781,4300.0,0.0,0.0,0.0
1513265247537383276,,517018,,1513265245,756751426,'',1.20427718388,1.18858155509,-0.00296671482504,-0.0156956287856,0.001,67.4912037781,4300.0,0.0,0.0,0.0
1513265247547286206,,517019,,1513265245,766751426,'',1.20427718388,1.18858155509,-0.00145250698521,-0.0156956287856,0.001,67.4912037781,4300.0,0.0,0.0,0.0
1513265247557283207,,517020,,1513265245,776751426,'',1.20427718388,1.18858155509,-0.000725632556775,-0.0156956287856,0.001,67.4912037781,4300.0,0.0,0.0,0.0
1513265247567318692,,517021,,1513265245,786751426,'',1.20427718388,1.18858155509,-0.00157467871125,-0.0156956287856,0.001,67.4912037781,4300.0,0.0,0.0,0.0
1513265247577244335,,517022,,1513265245,796751426,'',1.20427718388,1.18858155509,-0.00229340541769,-0.0156956287856,0.001,67.4912037781,4300.0,0.0,0.0,0.0
1513265247587126014,,517023,,1513265245,806751426,'',1.20427718388,1.18858155509,-0.001919092919,-0.0156956287856,0.001,67.4912037781,4300.0,0.0,0.0,0.0
1513265247597114703,,517024,,1513265245,816751426,'',1.20427718388,1.18858155509,-0.00157140801044,-0.0156956287856,0.001,67.4912037781,4300.0,0.0,0.0,0.0
1513265247607076521,,517025,,1513265245,826751426,'',1.20427718388,1.18858155509,0.000207385799584,-0.0156956287856,0.001,67.4912037781,4300.0,0.0,0.0,0.0
1513265247617014566,,517026,,1513265245,836751426,'',1.20427718388,1.18858155509,-0.000861264699041,-0.0156956287856,0.001,67.4912037781,4300.0,0.0,0.0,0.0
1513265247627353585,,517027,,1513265245,846751426,'',1.20427718388,1.18858155509,-0.00267455764712,-0.0156956287856,0.001,67.4912037781,4300.0,0.0,0.0,0.0
1513265247637340000,,517028,,1513265245,856751426,'',1.20427718388,1.18858155509,-0.00262288466317,-0.0156956287856,0.001,67.4912037781,4300.0,0.0,0.0,0.0
1513265247647145601,,517029,,1513265245,866751426,'',1.20427718388,1.18858155509,-0.00218423566173,-0.0156956287856,0.001,67.4912037781,4300.0,0.0,0.0,0.0
1513265247657094066,,517030,,1513265245,876751426,'',1.20427718388,1.18858155509,-0.00169955945518,-0.0156956287856,0.001,67.4912037781,4300.0,0.0,0.0,0.0
1513265247666954970,,517031,,1513265245,886751426,'',1.20427718388,1.18858155509,-0.000837950715587,-0.0156956287856,0.001,67.4912037781,4300.0,0.0,0.0,0.0
1513265247677354104,,517032,,1513265245,896751426,'',1.20427718388,1.18858155509,-0.00164281358666,-0.0156956287856,0.001,67.4912037781,4300.0,0.0,0.0,0.0
1513265247687062567,,517033,,1513265245,906751426,'',1.20427718388,1.18858155509,-0.000907595590661,-0.0156956287856,0.001,67.4912037781,4300.0,0.0,0.0,0.0
1513265247696984944,,517034,,1513265245,916751426,'',1.20427718388,1.18996918435,0.0281891655091,-0.0143079995216,0.001,61.5243979431,4300.0,0.0,0.0,0.0
1513265247707394652,,517035,,1513265245,926751426,'',1.20427718388,1.18858155509,0.000566485425318,-0.0156956287856,0.001,67.4912037781,4300.0,0.0,0.0,0.0
1513265247717336028,,517036,,1513265245,936751426,'',1.20427718388,1.18858155509,0.000539101969616,-0.0156956287856,0.001,67.4912037781,4300.0,0.0,0.0,0.0
1513265247727247439,,517037,,1513265245,946751426,'',1.20427718388,1.18858155509,0.000394535516209,-0.0156956287856,0.001,67.4912037781,4300.0,0.0,0.0,0.0
1513265247737106086,,517038,,1513265245,956751426,'',1.20427718388,1.18858155509,-0.000180526061219,-0.0156956287856,0.001,67.4912037781,4300.0,0.0,0.0,0.0
1513265247747132376,,517039,,1513265245,966751426,'',1.20427718388,1.18858155509,-0.00162306575696,-0.0156956287856,0.001,67.4912037781,4300.0,0.0,0.0,0.0
1513265247757150101,,517040,,1513265245,976751426,'',1.20427718388,1.18996918435,0.0251419418638,-0.0143079995216,0.001,61.5243979431,4300.0,0.0,0.0,0.0
1513265247767155030,,517041,,1513265245,986751426,'',1.20427718388,1.18858155509,-0.00293219131785,-0.0156956287856,0.001,67.4912037781,4300.0,0.0,0.0,0.0
1513265247777229131,,517042,,1513265245,996751426,'',1.20427718388,1.18996918435,0.0250266054218,-0.0143079995216,0.001,61.5243979431,4300.0,0.0,0.0,0.0
1513265247786954969,,517043,,1513265246,6751426,'',1.20427718388,1.18996918435,0.0244984155271,-0.0143079995216,0.001,61.5243979431,4300.0,0.0,0.0,0.0
1513265247797423698,,517044,,1513265246,16751426,'',1.20427718388,1.18858155509,-0.00402139354805,-0.0156956287856,0.001,67.4912037781,4300.0,0.0,0.0,0.0
1513265247807236785,,517045,,1513265246,26751426,'',1.20427718388,1.18996918435,0.0226302165995,-0.0143079995216,0.001,61.5243979431,4300.0,0.0,0.0,0.0
1513265247817249763,,517046,,1513265246,36751426,'',1.20427718388,1.18858155509,-0.00543743722851,-0.0156956287856,0.001,67.4912037781,4300.0,0.0,0.0,0.0
1513265247827133345,,517047,,1513265246,46751426,'',1.20427718388,1.18858155509,-0.00448011178038,-0.0156956287856,0.001,67.4912037781,4300.0,0.0,0.0,0.0
1513265247837215470,,517048,,1513265246,56751426,'',1.20427718388,1.18858155509,-0.00419272388695,-0.0156956287856,0.001,67.4912037781,4300.0,0.0,0.0,0.0
1513265247846982074,,517049,,1513265246,66751426,'',1.20427718388,1.18858155509,-0.00198886896465,-0.0156956287856,0.001,67.4912037781,4300.0,0.0,0.0,0.0
1513265247856970200,,517050,,1513265246,76751426,'',1.20427718388,1.18719392583,-0.0291099645658,-0.0170832580496,0.001,73.4580096131,4300.0,0.0,0.0,0.0
1513265247867020942,,517051,,1513265246,86751426,'',1.20427718388,1.18858155509,0.000132198872101,-0.0156956287856,0.001,67.4912037781,4300.0,0.0,0.0,0.0
1513265247876893040,,517052,,1513265246,96751426,'',1.20427718388,1.18996918435,0.0275958080755,-0.0143079995216,0.001,61.5243979431,4300.0,0.0,0.0,0.0
1513265247887284145,,517053,,1513265246,106751426,'',1.20427718388,1.18858155509,-0.000867632956688,-0.0156956287856,0.001,67.4912037781,4300.0,0.0,0.0,0.0
1513265247897301238,,517054,,1513265246,116751426,'',1.20427718388,1.18858155509,-0.0007462305344,-0.0156956287856,0.001,67.4912037781,4300.0,0.0,0.0,0.0
1513265247907259237,,517055,,1513265246,126751426,'',1.20427718388,1.18858155509,0.000334620192954,-0.0156956287856,0.001,67.4912037781,4300.0,0.0,0.0,0.0
1513265247917243000,,517056,,1513265246,136751426,'',1.20427718388,1.18858155509,0.00181470226673,-0.0156956287856,0.001,67.4912037781,4300.0,0.0,0.0,0.0
1513265247927175931,,517057,,1513265246,146751426,'',1.20427718388,1.18719392583,-0.024976986057,-0.0170832580496,0.001,73.4580096131,4300.0,0.0,0.0,0.0
1513265247937438209,,517058,,1513265246,156751426,'',1.20427718388,1.18858155509,0.00355542931398,-0.0156956287856,0.001,67.4912037781,4300.0,0.0,0.0,0.0
1513265247947307109,,517059,,1513265246,166751426,'',1.20427718388,1.18858155509,0.003342940173,-0.0156956287856,0.001,67.4912037781,4300.0,0.0,0.0,0.0
1513265247957208321,,517060,,1513265246,176751426,'',1.20427718388,1.18858155509,0.0027125404004,-0.0156956287856,0.001,67.4912037781,4300.0,0.0,0.0,0.0
1513265247967128196,,517061,,1513265246,186751426,'',1.20427718388,1.18858155509,0.0022076787139,-0.0156956287856,0.001,67.4912037781,4300.0,0.0,0.0,0.0
1513265247977177998,,517062,,1513265246,196751426,'',1.20427718388,1.18858155509,0.00141856318763,-0.0156956287856,0.001,67.4912037781,4300.0,0.0,0.0,0.0
1513265247987061173,,517063,,1513265246,206751426,'',1.20427718388,1.18996918435,0.0261711442429,-0.0143079995216,0.001,61.5243979431,4300.0,0.0,0.0,0.0
1513265247996984418,,517064,,1513265246,216751426,'',1.20427718388,1.18858155509,-0.00306661737673,-0.0156956287856,0.001,67.4912037781,4300.0,0.0,0.0,0.0
1513265248006882288,,517065,,1513265246,226751426,'',1.20427718388,1.18719392583,-0.0294809621953,-0.0170832580496,0.001,73.4580096131,4300.0,0.0,0.0,0.0
1513265248017268680,,517066,,1513265246,236751426,'',1.20427718388,1.18858155509,-0.00170214858274,-0.0156956287856,0.001,67.4912037781,4300.0,0.0,0.0,0.0
1513265248027056102,,517067,,1513265246,246751426,'',1.20427718388,1.18858155509,-0.00291729401365,-0.0156956287856,0.001,67.4912037781,4300.0,0.0,0.0,0.0
1513265248037043989,,517068,,1513265246,256751426,'',1.20427718388,1.18858155509,-0.0039006008135,-0.0156956287856,0.001,67.4912037781,4300.0,0.0,0.0,0.0
1513265248047010745,,517069,,1513265246,266751426,'',1.20427718388,1.18858155509,-0.00217962896914,-0.0156956287856,0.001,67.4912037781,4300.0,0.0,0.0,0.0
1513265248056972057,,517070,,1513265246,276751426,'',1.20427718388,1.18858155509,-0.00134609666001,-0.0156956287856,0.001,67.4912037781,4300.0,0.0,0.0,0.0
1513265248066915222,,517071,,1513265246,286751426,'',1.20427718388,1.18858155509,-8.20051524455e-05,-0.0156956287856,0.001,67.4912037781,4300.0,0.0,0.0,0.0
1513265248076905158,,517072,,1513265246,296751426,'',1.20427718388,1.18858155509,0.00039743775762,-0.0156956287856,0.001,67.4912037781,4300.0,0.0,0.0,0.0
1513265248087382585,,517073,,1513265246,306751426,'',1.20427718388,1.18996918435,0.0272921363174,-0.0143079995216,0.001,61.5243979431,4300.0,0.0,0.0,0.0
1513265248097446516,,517074,,1513265246,316751426,'',1.20427718388,1.18719392583,-0.0274621508589,-0.0170832580496,0.001,73.4580096131,4300.0,0.0,0.0,0.0
1513265248107307607,,517075,,1513265246,326751426,'',1.20427718388,1.18858155509,0.00200263578186,-0.0156956287856,0.001,67.4912037781,4300.0,0.0,0.0,0.0
1513265248117274396,,517076,,1513265246,336751426,'',1.20427718388,1.18719392583,-0.0257765477341,-0.0170832580496,0.001,73.4580096131,4300.0,0.0,0.0,0.0
1513265248127295010,,517077,,1513265246,346751426,'',1.20427718388,1.18858155509,0.00183798041239,-0.0156956287856,0.001,67.4912037781,4300.0,0.0,0.0,0.0
1513265248137259167,,517078,,1513265246,356751426,'',1.20427718388,1.18858155509,0.000468068552379,-0.0156956287856,0.001,67.4912037781,4300.0,0.0,0.0,0.0
1513265248147102097,,517079,,1513265246,366751426,'',1.20427718388,1.18858155509,0.00039314346157,-0.0156956287856,0.001,67.4912037781,4300.0,0.0,0.0,0.0
1513265248157110148,,517080,,1513265246,376751426,'',1.20427718388,1.18719392583,-0.0261888389159,-0.0170832580496,0.001,73.4580096131,4300.0,0.0,0.0,0.0
1513265248167063331,,517081,,1513265246,386751426,'',1.20427718388,1.18858155509,0.000981204890473,-0.0156956287856,0.001,67.4912037781,4300.0,0.0,0.0,0.0
1513265248176978629,,517082,,1513265246,396751426,'',1.20427718388,1.18858155509,-0.00124399447842,-0.0156956287856,0.001,67.4912037781,4300.0,0.0,0.0,0.0
1513265248187352794,,517083,,1513265246,406751426,'',1.20427718388,1.18858155509,-0.00107116300243,-0.0156956287856,0.001,67.4912037781,4300.0,0.0,0.0,0.0
1513265248197340614,,517084,,1513265246,416751426,'',1.20427718388,1.18858155509,-0.00243372507442,-0.0156956287856,0.001,67.4912037781,4300.0,0.0,0.0,0.0
1513265248207325622,,517085,,1513265246,426751426,'',1.20427718388,1.18858155509,-0.00251793907445,-0.0156956287856,0.001,67.4912037781,4300.0,0.0,0.0,0.0
1513265248217091814,,517086,,1513265246,436751426,'',1.20427718388,1.18996918435,0.0259385295389,-0.0143079995216,0.001,61.5243979431,4300.0,0.0,0.0,0.0
1513265248227138047,,517087,,1513265246,446751426,'',1.20427718388,1.18858155509,-0.00169874769254,-0.0156956287856,0.001,67.4912037781,4300.0,0.0,0.0,0.0
1513265248237057840,,517088,,1513265246,456751426,'',1.20427718388,1.18858155509,-0.000394259755132,-0.0156956287856,0.001,67.4912037781,4300.0,0.0,0.0,0.0
1513265248247063057,,517089,,1513265246,466751426,'',1.20427718388,1.18858155509,-0.00135039319793,-0.0156956287856,0.001,67.4912037781,4300.0,0.0,0.0,0.0
1513265248256969467,,517090,,1513265246,476751426,'',1.20427718388,1.18996918435,0.0243361382268,-0.0143079995216,0.001,61.5243979431,4300.0,0.0,0.0,0.0
1513265248266902569,,517091,,1513265246,486751426,'',1.20427718388,1.18858155509,-0.00709442388709,-0.0156956287856,0.001,67.4912037781,4300.0,0.0,0.0,0.0
1513265248276937800,,517092,,1513265246,496751426,'',1.20427718388,1.19135681362,0.0430759605163,-0.0129203702577,0.001,55.5575921081,4300.0,0.0,0.0,0.0
1513265248286939138,,517093,,1513265246,506751426,'',1.20427718388,1.19135681362,0.0363088645307,-0.0129203702577,0.001,55.5575921081,4300.0,0.0,0.0,0.0
1513265248297068776,,517094,,1513265246,516751426,'',1.20427718388,1.19274444288,0.0572080060709,-0.0115327409937,0.001,49.5907862731,4300.0,0.0,0.0,0.0
1513265248307365804,,517095,,1513265246,526751426,'',1.20427718388,1.19274444288,0.0502931502568,-0.0115327409937,0.001,49.5907862731,4300.0,0.0,0.0,0.0
1513265248317353974,,517096,,1513265246,536751426,'',1.20427718388,1.19135681362,0.0171819125939,-0.0129203702577,0.001,55.5575921081,4300.0,0.0,0.0,0.0
1513265248327210956,,517097,,1513265246,546751426,'',1.20427718388,1.19274444288,0.0410417707605,-0.0115327409937,0.001,49.5907862731,4300.0,0.0,0.0,0.0
1513265248337324802,,517098,,1513265246,556751426,'',1.20427718388,1.19274444288,0.037584443231,-0.0115327409937,0.001,49.5907862731,4300.0,0.0,0.0,0.0
1513265248347260352,,517099,,1513265246,566751426,'',1.20427718388,1.19274444288,0.0332370869948,-0.0115327409937,0.001,49.5907862731,4300.0,0.0,0.0,0.0
1513265248357137081,,517100,,1513265246,576751426,'',1.20427718388,1.19413207215,0.0546680119945,-0.0101451117298,0.001,43.6239804381,4300.0,0.0,0.0,0.0
1513265248367155361,,517101,,1513265246,586751426,'',1.20427718388,1.19274444288,0.0198457566543,-0.0115327409937,0.001,49.5907862731,4300.0,0.0,0.0,0.0
1513265248377186605,,517102,,1513265246,596751426,'',1.20427718388,1.19413207215,0.0422404064088,-0.0101451117298,0.001,43.6239804381,4300.0,0.0,0.0,0.0
1513265248386944101,,517103,,1513265246,606751426,'',1.20427718388,1.19413207215,0.0371383012019,-0.0101451117298,0.001,43.6239804381,4300.0,0.0,0.0,0.0
1513265248396985073,,517104,,1513265246,616751426,'',1.20427718388,1.19413207215,0.0303902883458,-0.0101451117298,0.001,43.6239804381,4300.0,0.0,0.0,0.0
1513265248407379586,,517105,,1513265246,626751426,'',1.20427718388,1.19413207215,0.0258505672211,-0.0101451117298,0.001,43.6239804381,4300.0,0.0,0.0,0.0
1513265248417365819,,517106,,1513265246,636751426,'',1.20427718388,1.19551970141,0.0476348414852,-0.00875748246584,0.001,37.6571746031,4300.0,0.0,0.0,0.0
1513265248427348397,,517107,,1513265246,646751426,'',1.20427718388,1.19551970141,0.0410509682335,-0.00875748246584,0.001,37.6571746031,4300.0,0.0,0.0,0.0
1513265248437180834,,517108,,1513265246,656751426,'',1.20427718388,1.19551970141,0.0340857989487,-0.00875748246584,0.001,37.6571746031,4300.0,0.0,0.0,0.0
1513265248447111025,,517109,,1513265246,666751426,'',1.20427718388,1.19690733067,0.050868132445,-0.00736985320188,0.001,31.6903687681,4300.0,0.0,0.0,0.0
1513265248456904167,,517110,,1513265246,676751426,'',1.20427718388,1.1996825892,0.0904551735258,-0.00459459467398,0.001,19.7567570981,4300.0,0.0,0.0,0.0
1513265248466930451,,517111,,1513265246,686751426,'',1.20427718388,1.1996825892,0.0730856568552,-0.00459459467398,0.001,19.7567570981,4300.0,0.0,0.0,0.0
1513265248477417707,,517112,,1513265246,696751426,'',1.20427718388,1.20107021847,0.0842738112611,-0.00320696541002,0.001,13.7899512631,4300.0,0.0,0.0,0.0
1513265248487304707,,517113,,1513265246,706751426,'',1.20427718388,1.20245784773,0.0963626108171,-0.00181933614607,0.001,7.82314542811,4300.0,0.0,0.0,0.0
1513265248497367051,,517114,,1513265246,716751426,'',1.20427718388,1.20384547699,0.108425914634,-0.000431706882119,0.001,1.85633959311,4300.0,0.0,0.0,0.0
1513265248507168834,,517115,,1513265246,726751426,'',1.20427718388,1.20245784773,0.0672578076928,-0.00181933614607,0.001,7.82314542811,4300.0,0.0,0.0,0.0
1513265248517090900,,517116,,1513265246,736751426,'',1.20427718388,1.20384547699,0.0790322438337,-0.000431706882119,0.001,1.85633959311,4300.0,0.0,0.0,0.0
1513265248527354889,,517117,,1513265246,746751426,'',1.20427718388,1.20384547699,0.0637212677359,0.0,0.001,0.0,4300.0,0.0,0.0,0.0
1513265248537279445,,517118,,1513265246,756751426,'',1.20427718388,1.20523310626,0.0750634476118,0.0,0.001,0.0,4300.0,0.0,0.0,0.0
1513265248547239786,,517119,,1513265246,766751426,'',1.20427718388,1.20662073552,0.0858938177706,0.0,0.001,0.0,4300.0,0.0,0.0,0.0
1513265248557227483,,517120,,1513265246,776751426,'',1.20427718388,1.20800836479,0.0967170035752,0.0,0.001,0.0,4300.0,0.0,0.0,0.0
1513265248567201754,,517121,,1513265246,786751426,'',1.20427718388,1.20800836479,0.0802824531883,0.0,0.001,0.0,4300.0,0.0,0.0,0.0
1513265248577145133,,517122,,1513265246,796751426,'',1.20427718388,1.20800836479,0.0656754926326,0.0,0.001,0.0,4300.0,0.0,0.0,0.0
1513265248586935179,,517123,,1513265246,806751426,'',1.20427718388,1.20939599405,0.0782107915596,0.0,0.001,0.0,4300.0,0.0,0.0,0.0
1513265248596947163,,517124,,1513265246,816751426,'',1.20427718388,1.21078362331,0.0874252955845,0.0,0.001,0.0,4300.0,0.0,0.0,0.0
1513265248607358428,,517125,,1513265246,826751426,'',1.20427718388,1.21078362331,0.0725231408057,0.0,0.001,0.0,4300.0,0.0,0.0,0.0
1513265248617264520,,517126,,1513265246,836751426,'',1.20427718388,1.21078362331,0.0573388685352,0.0,0.001,0.0,4300.0,0.0,0.0,0.0
1513265248627269482,,517127,,1513265246,846751426,'',1.20427718388,1.21217125258,0.0713195341315,0.0,0.001,0.0,4300.0,0.0,0.0,0.0
1513265248637347686,,517128,,1513265246,856751426,'',1.20427718388,1.21217125258,0.0568058380015,0.0,0.001,0.0,4300.0,0.0,0.0,0.0
1513265248647314154,,517129,,1513265246,866751426,'',1.20427718388,1.21355888184,0.0714967551194,0.0,0.001,0.0,4300.0,0.0,0.0,0.0
1513265248657277107,,517130,,1513265246,876751426,'',1.20427718388,1.21217125258,0.0330089780623,0.0,0.001,0.0,4300.0,0.0,0.0,0.0
1513265248667157338,,517131,,1513265246,886751426,'',1.20427718388,1.21355888184,0.0494777772513,0.0,0.001,0.0,4300.0,0.0,0.0,0.0
1513265248677107811,,517132,,1513265246,896751426,'',1.20427718388,1.21494651111,0.0669573713248,0.0,0.001,0.0,4300.0,0.0,0.0,0.0
1513265248687093170,,517133,,1513265246,906751426,'',1.20427718388,1.21494651111,0.0572947345913,0.0,0.001,0.0,4300.0,0.0,0.0,0.0
1513265248697015065,,517134,,1513265246,916751426,'',1.20427718388,1.21494651111,0.047918464879,0.0,0.001,0.0,4300.0,0.0,0.0,0.0
1513265248707351123,,517135,,1513265246,926751426,'',1.20427718388,1.21355888184,0.0127293551699,0.0,0.001,0.0,4300.0,0.0,0.0,0.0
1513265248717118070,,517136,,1513265246,936751426,'',1.20427718388,1.21494651111,0.033372118711,0.0106693272295,0.001,-45.8781070869,4300.0,0.0,0.0,0.0
1513265248726937758,,517137,,1513265246,946751426,'',1.20427718388,1.21494651111,0.0273424331029,0.0106693272295,0.001,-45.8781070869,4300.0,0.0,0.0,0.0
1513265248737524732,,517138,,1513265246,956751426,'',1.20427718388,1.21494651111,0.0213916580043,0.0106693272295,0.001,-45.8781070869,4300.0,0.0,0.0,0.0
1513265248747296017,,517139,,1513265246,966751426,'',1.20427718388,1.21633414037,0.0439575579211,0.0120569564935,0.001,-51.8449129219,4300.0,0.0,0.0,0.0
1513265248757368085,,517140,,1513265246,976751426,'',1.20427718388,1.21494651111,0.0100596846898,0.0106693272295,0.001,-45.8781070869,4300.0,0.0,0.0,0.0
1513265248767291980,,517141,,1513265246,986751426,'',1.20427718388,1.21633414037,0.0341987659572,0.0120569564935,0.001,-51.8449129219,4300.0,0.0,0.0,0.0
1513265248777277668,,517142,,1513265246,996751426,'',1.20427718388,1.21633414037,0.0304849799645,0.0120569564935,0.001,-51.8449129219,4300.0,0.0,0.0,0.0
1513265248787224653,,517143,,1513265247,6751426,'',1.20427718388,1.21772176963,0.0549583343305,0.0134445857574,0.001,-57.8117187569,4300.0,0.0,0.0,0.0
1513265248797107572,,517144,,1513265247,16751426,'',1.20427718388,1.21633414037,0.0219694524875,0.0120569564935,0.001,-51.8449129219,4300.0,0.0,0.0,0.0
1513265248806952563,,517145,,1513265247,26751426,'',1.20427718388,1.21494651111,-0.0105663549666,0.0106693272295,0.001,-45.8781070869,4300.0,0.0,0.0,0.0
1513265248817463339,,517146,,1513265247,36751426,'',1.20427718388,1.21633414037,0.01429520632,0.0120569564935,0.001,-51.8449129219,4300.0,0.0,0.0,0.0
1513265248827314739,,517147,,1513265247,46751426,'',1.20427718388,1.21633414037,0.0100789296616,0.0120569564935,0.001,-51.8449129219,4300.0,0.0,0.0,0.0
1513265248837232630,,517148,,1513265247,56751426,'',1.20427718388,1.21772176963,0.0347990250856,0.0134445857574,0.001,-57.8117187569,4300.0,0.0,0.0,0.0
1513265248847284676,,517149,,1513265247,66751426,'',1.20427718388,1.21633414037,0.00454914816711,0.0120569564935,0.001,-51.8449129219,4300.0,0.0,0.0,0.0
1513265248857236761,,517150,,1513265247,76751426,'',1.20427718388,1.21633414037,0.00272949067539,0.0120569564935,0.001,-51.8449129219,4300.0,0.0,0.0,0.0
1513265248867187879,,517151,,1513265247,86751426,'',1.20427718388,1.21633414037,0.00123242917089,0.0120569564935,0.001,-51.8449129219,4300.0,0.0,0.0,0.0
1513265248877119980,,517152,,1513265247,96751426,'',1.20427718388,1.21772176963,0.0259567713557,0.0134445857574,0.001,-57.8117187569,4300.0,0.0,0.0,0.0
1513265248887129607,,517153,,1513265247,106751426,'',1.20427718388,1.21772176963,0.0227166407936,0.0134445857574,0.001,-57.8117187569,4300.0,0.0,0.0,0.0
1513265248897125876,,517154,,1513265247,116751426,'',1.20427718388,1.21772176963,0.0205439892908,0.0134445857574,0.001,-57.8117187569,4300.0,0.0,0.0,0.0
1513265248907324348,,517155,,1513265247,126751426,'',1.20427718388,1.21633414037,-0.00962395582062,0.0120569564935,0.001,-51.8449129219,4300.0,0.0,0.0,0.0
1513265248917291583,,517156,,1513265247,136751426,'',1.20427718388,1.21772176963,0.0176187427996,0.0134445857574,0.001,-57.8117187569,4300.0,0.0,0.0,0.0
1513265248927307981,,517157,,1513265247,146751426,'',1.20427718388,1.21633414037,-0.0114602990175,0.0120569564935,0.001,-51.8449129219,4300.0,0.0,0.0,0.0
1513265248937380530,,517158,,1513265247,156751426,'',1.20427718388,1.21772176963,0.0151180601868,0.0134445857574,0.001,-57.8117187569,4300.0,0.0,0.0,0.0
1513265248947224689,,517159,,1513265247,166751426,'',1.20427718388,1.21772176963,0.0134229688721,0.0134445857574,0.001,-57.8117187569,4300.0,0.0,0.0,0.0
1513265248957111555,,517160,,1513265247,176751426,'',1.20427718388,1.21772176963,0.0115218493642,0.0134445857574,0.001,-57.8117187569,4300.0,0.0,0.0,0.0
1513265248967133641,,517161,,1513265247,186751426,'',1.20427718388,1.21772176963,0.0104360206632,0.0134445857574,0.001,-57.8117187569,4300.0,0.0,0.0,0.0
1513265248977086993,,517162,,1513265247,196751426,'',1.20427718388,1.21772176963,0.00808293684097,0.0134445857574,0.001,-57.8117187569,4300.0,0.0,0.0,0.0
1513265248987368721,,517163,,1513265247,206751426,'',1.20427718388,1.21772176963,0.00661260194173,0.0134445857574,0.001,-57.8117187569,4300.0,0.0,0.0,0.0
1513265248997399517,,517164,,1513265247,216751426,'',1.20427718388,1.21772176963,0.00488296781158,0.0134445857574,0.001,-57.8117187569,4300.0,0.0,0.0,0.0
1513265249007386862,,517165,,1513265247,226751426,'',1.20427718388,1.21772176963,0.00205548005182,0.0134445857574,0.001,-57.8117187569,4300.0,0.0,0.0,0.0
1513265249017278284,,517166,,1513265247,236751426,'',1.20427718388,1.21772176963,0.00115258358543,0.0134445857574,0.001,-57.8117187569,4300.0,0.0,0.0,0.0
1513265249027294158,,517167,,1513265247,246751426,'',1.20427718388,1.22049702816,0.054332894602,0.0162198442853,0.001,-69.7453304269,4300.0,0.0,0.0,0.0
1513265249037187509,,517168,,1513265247,256751426,'',1.20427718388,1.21772176963,-0.00301111183077,0.0134445857574,0.001,-57.8117187569,4300.0,0.0,0.0,0.0
1513265249047154466,,517169,,1513265247,266751426,'',1.20427718388,1.2191093989,0.0234992625704,0.0148322150214,0.001,-63.7785245919,4300.0,0.0,0.0,0.0
1513265249057129131,,517170,,1513265247,276751426,'',1.20427718388,1.2191093989,0.0218620713735,0.0148322150214,0.001,-63.7785245919,4300.0,0.0,0.0,0.0
1513265249067044717,,517171,,1513265247,286751426,'',1.20427718388,1.2191093989,0.0213984441969,0.0148322150214,0.001,-63.7785245919,4300.0,0.0,0.0,0.0
1513265249077054894,,517172,,1513265247,296751426,'',1.20427718388,1.21772176963,-0.00697649303898,0.0134445857574,0.001,-57.8117187569,4300.0,0.0,0.0,0.0
1513265249086988651,,517173,,1513265247,306751426,'',1.20427718388,1.21772176963,-0.00723494352589,0.0134445857574,0.001,-57.8117187569,4300.0,0.0,0.0,0.0
1513265249097464942,,517174,,1513265247,316751426,'',1.20427718388,1.21772176963,-0.00854090425746,0.0134445857574,0.001,-57.8117187569,4300.0,0.0,0.0,0.0
1513265249107351223,,517175,,1513265247,326751426,'',1.20427718388,1.22049702816,0.0449078155213,0.0162198442853,0.001,-69.7453304269,4300.0,0.0,0.0,0.0
1513265249117295271,,517176,,1513265247,336751426,'',1.20427718388,1.2191093989,0.0133036980054,0.0148322150214,0.001,-63.7785245919,4300.0,0.0,0.0,0.0
1513265249127126354,,517177,,1513265247,346751426,'',1.20427718388,1.2191093989,0.0109245834238,0.0148322150214,0.001,-63.7785245919,4300.0,0.0,0.0,0.0
1513265249137035064,,517178,,1513265247,356751426,'',1.20427718388,1.2191093989,0.00689178268145,0.0148322150214,0.001,-63.7785245919,4300.0,0.0,0.0,0.0
1513265249147402326,,517179,,1513265247,366751426,'',1.20427718388,1.22049702816,0.0316566097635,0.0162198442853,0.001,-69.7453304269,4300.0,0.0,0.0,0.0
1513265249157351286,,517180,,1513265247,376751426,'',1.20427718388,1.22049702816,0.02894722954,0.0162198442853,0.001,-69.7453304269,4300.0,0.0,0.0,0.0
1513265249167340003,,517181,,1513265247,386751426,'',1.20427718388,1.22049702816,0.026646314912,0.0162198442853,0.001,-69.7453304269,4300.0,0.0,0.0,0.0
1513265249177262563,,517182,,1513265247,396751426,'',1.20427718388,1.2191093989,-0.00420535293793,0.0148322150214,0.001,-63.7785245919,4300.0,0.0,0.0,0.0
1513265249187121900,,517183,,1513265247,406751426,'',1.20427718388,1.22049702816,0.0204852784909,0.0162198442853,0.001,-69.7453304269,4300.0,0.0,0.0,0.0
1513265249197006188,,517184,,1513265247,416751426,'',1.20427718388,1.22049702816,0.0188519599355,0.0162198442853,0.001,-69.7453304269,4300.0,0.0,0.0,0.0
1513265249206965730,,517185,,1513265247,426751426,'',1.20427718388,1.2191093989,-0.00851459718253,0.0148322150214,0.001,-63.7785245919,4300.0,0.0,0.0,0.0
1513265249217320328,,517186,,1513265247,436751426,'',1.20427718388,1.2191093989,-0.0105115619471,0.0148322150214,0.001,-63.7785245919,4300.0,0.0,0.0,0.0
1513265249227212835,,517187,,1513265247,446751426,'',1.20427718388,1.2191093989,-0.0106490741816,0.0148322150214,0.001,-63.7785245919,4300.0,0.0,0.0,0.0
1513265249237138072,,517188,,1513265247,456751426,'',1.20427718388,1.2191093989,-0.0112721467026,0.0148322150214,0.001,-63.7785245919,4300.0,0.0,0.0,0.0
1513265249247154364,,517189,,1513265247,466751426,'',1.20427718388,1.2191093989,-0.0126672342688,0.0148322150214,0.001,-63.7785245919,4300.0,0.0,0.0,0.0
1513265249257080089,,517190,,1513265247,476751426,'',1.20427718388,1.22049702816,0.0150628192178,0.0162198442853,0.001,-69.7453304269,4300.0,0.0,0.0,0.0
1513265249266988336,,517191,,1513265247,486751426,'',1.20427718388,1.22049702816,0.0133138834556,0.0162198442853,0.001,-69.7453304269,4300.0,0.0,0.0,0.0
1513265249277008989,,517192,,1513265247,496751426,'',1.20427718388,1.22049702816,0.0113612457102,0.0162198442853,0.001,-69.7453304269,4300.0,0.0,0.0,0.0
1513265249286995339,,517193,,1513265247,506751426,'',1.20427718388,1.22049702816,0.00919402949971,0.0162198442853,0.001,-69.7453304269,4300.0,0.0,0.0,0.0
1513265249296934584,,517194,,1513265247,516751426,'',1.20427718388,1.22049702816,0.006945374138,0.0162198442853,0.001,-69.7453304269,4300.0,0.0,0.0,0.0
1513265249307041645,,517195,,1513265247,526751426,'',1.20427718388,1.22049702816,0.00468963600719,0.0162198442853,0.001,-69.7453304269,4300.0,0.0,0.0,0.0
1513265249316931527,,517196,,1513265247,536751426,'',1.20427718388,1.22188465743,0.0307452052532,0.0176074735493,0.001,-75.7121362619,4300.0,0.0,0.0,0.0
1513265249327399681,,517197,,1513265247,546751426,'',1.20427718388,1.22049702816,0.00169877123966,0.0162198442853,0.001,-69.7453304269,4300.0,0.0,0.0,0.0
1513265249337369597,,517198,,1513265247,556751426,'',1.20427718388,1.22049702816,-3.96509873331e-05,0.0162198442853,0.001,-69.7453304269,4300.0,0.0,0.0,0.0
1513265249347184089,,517199,,1513265247,566751426,'',1.20427718388,1.22188465743,0.0274549957681,0.0176074735493,0.001,-75.7121362619,4300.0,0.0,0.0,0.0
1513265249357038108,,517200,,1513265247,576751426,'',1.20427718388,1.22188465743,0.0239523870889,0.0176074735493,0.001,-75.7121362619,4300.0,0.0,0.0,0.0
1513265249366938911,,517201,,1513265247,586751426,'',1.20427718388,1.22049702816,-0.00686695179904,0.0162198442853,0.001,-69.7453304269,4300.0,0.0,0.0,0.0
1513265249377358835,,517202,,1513265247,596751426,'',1.20427718388,1.22188465743,0.0191884376317,0.0176074735493,0.001,-75.7121362619,4300.0,0.0,0.0,0.0
1513265249387297118,,517203,,1513265247,606751426,'',1.20427718388,1.22188465743,0.0192593740029,0.0176074735493,0.001,-75.7121362619,4300.0,0.0,0.0,0.0
1513265249397232541,,517204,,1513265247,616751426,'',1.20427718388,1.22049702816,-0.00876854694684,0.0162198442853,0.001,-69.7453304269,4300.0,0.0,0.0,0.0
1513265249407130560,,517205,,1513265247,626751426,'',1.20427718388,1.22188465743,0.0177229658053,0.0176074735493,0.001,-75.7121362619,4300.0,0.0,0.0,0.0
1513265249417176061,,517206,,1513265247,636751426,'',1.20427718388,1.22188465743,0.017053673323,0.0176074735493,0.001,-75.7121362619,4300.0,0.0,0.0,0.0
1513265249427177914,,517207,,1513265247,646751426,'',1.20427718388,1.22188465743,0.0155718071969,0.0176074735493,0.001,-75.7121362619,4300.0,0.0,0.0,0.0
1513265249436941524,,517208,,1513265247,656751426,'',1.20427718388,1.22049702816,-0.0136401121592,0.0162198442853,0.001,-69.7453304269,4300.0,0.0,0.0,0.0
1513265249447498931,,517209,,1513265247,666751426,'',1.20427718388,1.22049702816,-0.0146663514775,0.0162198442853,0.001,-69.7453304269,4300.0,0.0,0.0,0.0
1513265249457318016,,517210,,1513265247,676751426,'',1.20427718388,1.22188465743,0.0124799949334,0.0176074735493,0.001,-75.7121362619,4300.0,0.0,0.0,0.0
1513265249467208636,,517211,,1513265247,686751426,'',1.20427718388,1.22049702816,-0.0166479561497,0.0162198442853,0.001,-69.7453304269,4300.0,0.0,0.0,0.0
1513265249477105741,,517212,,1513265247,696751426,'',1.20427718388,1.22188465743,0.0108287759017,0.0176074735493,0.001,-75.7121362619,4300.0,0.0,0.0,0.0
1513265249487059427,,517213,,1513265247,706751426,'',1.20427718388,1.22188465743,0.0104186469921,0.0176074735493,0.001,-75.7121362619,4300.0,0.0,0.0,0.0
1513265249497020720,,517214,,1513265247,716751426,'',1.20427718388,1.22188465743,0.00945687806286,0.0176074735493,0.001,-75.7121362619,4300.0,0.0,0.0,0.0
1513265249506995488,,517215,,1513265247,726751426,'',1.20427718388,1.22188465743,0.00873916980567,0.0176074735493,0.001,-75.7121362619,4300.0,0.0,0.0,0.0
1513265249517479813,,517216,,1513265247,736751426,'',1.20427718388,1.22327228669,0.0351068673274,0.0189951028132,0.001,-81.6789420969,4300.0,0.0,0.0,0.0
1513265249527537609,,517217,,1513265247,746751426,'',1.20427718388,1.22188465743,0.0072504773105,0.0176074735493,0.001,-75.7121362619,4300.0,0.0,0.0,0.0
1513265249537345471,,517218,,1513265247,756751426,'',1.20427718388,1.22188465743,0.00644119716741,0.0176074735493,0.001,-75.7121362619,4300.0,0.0,0.0,0.0
1513265249547427142,,517219,,1513265247,766751426,'',1.20427718388,1.22188465743,0.00732307887993,0.0176074735493,0.001,-75.7121362619,4300.0,0.0,0.0,0.0
1513265249557220277,,517220,,1513265247,776751426,'',1.20427718388,1.22188465743,0.00803629993939,0.0176074735493,0.001,-75.7121362619,4300.0,0.0,0.0,0.0
1513265249567181256,,517221,,1513265247,786751426,'',1.20427718388,1.22049702816,-0.0194421246496,0.0162198442853,0.001,-69.7453304269,4300.0,0.0,0.0,0.0
1513265249577227803,,517222,,1513265247,796751426,'',1.20427718388,1.22049702816,-0.0188857560873,0.0162198442853,0.001,-69.7453304269,4300.0,0.0,0.0,0.0
1513265249587083893,,517223,,1513265247,806751426,'',1.20427718388,1.22049702816,-0.019039293745,0.0162198442853,0.001,-69.7453304269,4300.0,0.0,0.0,0.0
1513265249597109084,,517224,,1513265247,816751426,'',1.20427718388,1.22188465743,0.00888782601688,0.0176074735493,0.001,-75.7121362619,4300.0,0.0,0.0,0.0
1513265249607023065,,517225,,1513265247,826751426,'',1.20427718388,1.22049702816,-0.0167265050993,0.0162198442853,0.001,-69.7453304269,4300.0,0.0,0.0,0.0
1513265249616960480,,517226,,1513265247,836751426,'',1.20427718388,1.22327228669,0.0397551402361,0.0189951028132,0.001,-81.6789420969,4300.0,0.0,0.0,0.0
1513265249627408524,,517227,,1513265247,846751426,'',1.20427718388,1.22188465743,0.0121409028386,0.0176074735493,0.001,-75.7121362619,4300.0,0.0,0.0,0.0
1513265249637332778,,517228,,1513265247,856751426,'',1.20427718388,1.22188465743,0.0130253438931,0.0176074735493,0.001,-75.7121362619,4300.0,0.0,0.0,0.0
1513265249647624354,,517229,,1513265247,866751426,'',1.20427718388,1.22188465743,0.0136937050918,0.0176074735493,0.001,-75.7121362619,4300.0,0.0,0.0,0.0
1513265249657454211,,517230,,1513265247,876751426,'',1.20427718388,1.22049702816,-0.0122816918593,0.0162198442853,0.001,-69.7453304269,4300.0,0.0,0.0,0.0
1513265249667198289,,517231,,1513265247,886751426,'',1.20427718388,1.22049702816,-0.0106009075538,0.0162198442853,0.001,-69.7453304269,4300.0,0.0,0.0,0.0
1513265249677356497,,517232,,1513265247,896751426,'',1.20427718388,1.22049702816,-0.0106651538727,0.0162198442853,0.001,-69.7453304269,4300.0,0.0,0.0,0.0
1513265249687612548,,517233,,1513265247,906751426,'',1.20427718388,1.22049702816,-0.00924327568171,0.0162198442853,0.001,-69.7453304269,4300.0,0.0,0.0,0.0
1513265249697325698,,517234,,1513265247,916751426,'',1.20427718388,1.22049702816,-0.00858246100454,0.0162198442853,0.001,-69.7453304269,4300.0,0.0,0.0,0.0
1513265249707147469,,517235,,1513265247,926751426,'',1.20427718388,1.22327228669,0.0464374415252,0.0189951028132,0.001,-81.6789420969,4300.0,0.0,0.0,0.0
1513265249717380584,,517236,,1513265247,936751426,'',1.20427718388,1.2191093989,-0.0374113555578,0.0148322150214,0.001,-63.7785245919,4300.0,0.0,0.0,0.0
1513265249727631751,,517237,,1513265247,946751426,'',1.20427718388,1.22188465743,0.0193585536444,0.0176074735493,0.001,-75.7121362619,4300.0,0.0,0.0,0.0
1513265249737476507,,517238,,1513265247,956751426,'',1.20427718388,1.22049702816,-0.00710434473534,0.0162198442853,0.001,-69.7453304269,4300.0,0.0,0.0,0.0
1513265249747431743,,517239,,1513265247,966751426,'',1.20427718388,1.22049702816,-0.00631280323868,0.0162198442853,0.001,-69.7453304269,4300.0,0.0,0.0,0.0
1513265249757549384,,517240,,1513265247,976751426,'',1.20427718388,1.22049702816,-0.00423851537536,0.0162198442853,0.001,-69.7453304269,4300.0,0.0,0.0,0.0
1513265249767881851,,517241,,1513265247,986751426,'',1.20427718388,1.22188465743,0.02498935233,0.0176074735493,0.001,-75.7121362619,4300.0,0.0,0.0,0.0
1513265249777559616,,517242,,1513265247,996751426,'',1.20427718388,1.22049702816,-0.00246841919274,0.0162198442853,0.001,-69.7453304269,4300.0,0.0,0.0,0.0
1513265249787431941,,517243,,1513265248,6751426,'',1.20427718388,1.22049702816,-0.00200638539228,0.0162198442853,0.001,-69.7453304269,4300.0,0.0,0.0,0.0
1513265249797251719,,517244,,1513265248,16751426,'',1.20427718388,1.22049702816,-0.00107236395953,0.0162198442853,0.001,-69.7453304269,4300.0,0.0,0.0,0.0
1513265249807326962,,517245,,1513265248,26751426,'',1.20427718388,1.22049702816,-0.000376830868155,0.0162198442853,0.001,-69.7453304269,4300.0,0.0,0.0,0.0
1513265249817532597,,517246,,1513265248,36751426,'',1.20427718388,1.22049702816,0.00221733892416,0.0162198442853,0.001,-69.7453304269,4300.0,0.0,0.0,0.0
1513265249827383236,,517247,,1513265248,46751426,'',1.20427718388,1.22188465743,0.0302768717116,0.0176074735493,0.001,-75.7121362619,4300.0,0.0,0.0,0.0
1513265249837425082,,517248,,1513265248,56751426,'',1.20427718388,1.2191093989,-0.0220461080502,0.0148322150214,0.001,-63.7785245919,4300.0,0.0,0.0,0.0
1513265249847247987,,517249,,1513265248,66751426,'',1.20427718388,1.21633414037,-0.0689665120451,0.0120569564935,0.001,-51.8449129219,4300.0,0.0,0.0,0.0
1513265249857381174,,517250,,1513265248,76751426,'',1.20427718388,1.21633414037,-0.0563469704332,0.0120569564935,0.001,-51.8449129219,4300.0,0.0,0.0,0.0
1513265249867187365,,517251,,1513265248,86751426,'',1.20427718388,1.21494651111,-0.06853399768,0.0106693272295,0.001,-45.8781070869,4300.0,0.0,0.0,0.0
1513265249877112119,,517252,,1513265248,96751426,'',1.20427718388,1.21494651111,-0.0565981402281,0.0106693272295,0.001,-45.8781070869,4300.0,0.0,0.0,0.0
1513265249887537227,,517253,,1513265248,106751426,'',1.20427718388,1.21633414037,-0.0203845288057,0.0120569564935,0.001,-51.8449129219,4300.0,0.0,0.0,0.0
1513265249897389429,,517254,,1513265248,116751426,'',1.20427718388,1.21494651111,-0.0466955800136,0.0106693272295,0.001,-45.8781070869,4300.0,0.0,0.0,0.0
1513265249907204442,,517255,,1513265248,126751426,'',1.20427718388,1.21772176963,0.0138206841158,0.0134445857574,0.001,-57.8117187569,4300.0,0.0,0.0,0.0
1513265249917181768,,517256,,1513265248,136751426,'',1.20427718388,1.21772176963,0.014242448487,0.0134445857574,0.001,-57.8117187569,4300.0,0.0,0.0,0.0
1513265249927155217,,517257,,1513265248,146751426,'',1.20427718388,1.21772176963,0.0146289473746,0.0134445857574,0.001,-57.8117187569,4300.0,0.0,0.0,0.0
1513265249937065681,,517258,,1513265248,156751426,'',1.20427718388,1.21494651111,-0.0389443391422,0.0106693272295,0.001,-45.8781070869,4300.0,0.0,0.0,0.0
1513265249947527577,,517259,,1513265248,166751426,'',1.20427718388,1.21633414037,-0.00794643228692,0.0120569564935,0.001,-51.8449129219,4300.0,0.0,0.0,0.0
1513265249957242108,,517260,,1513265248,176751426,'',1.20427718388,1.21494651111,-0.0359560669344,0.0106693272295,0.001,-45.8781070869,4300.0,0.0,0.0,0.0
1513265249967581745,,517261,,1513265248,186751426,'',1.20427718388,1.21633414037,-0.00700013856637,0.0120569564935,0.001,-51.8449129219,4300.0,0.0,0.0,0.0
1513265249977588162,,517262,,1513265248,196751426,'',1.20427718388,1.21633414037,-0.00674074842319,0.0120569564935,0.001,-51.8449129219,4300.0,0.0,0.0,0.0
1513265249987672801,,517263,,1513265248,206751426,'',1.20427718388,1.21494651111,-0.0329662725816,0.0106693272295,0.001,-45.8781070869,4300.0,0.0,0.0,0.0
1513265249997510136,,517264,,1513265248,216751426,'',1.20427718388,1.21772176963,0.0224069527805,0.0134445857574,0.001,-57.8117187569,4300.0,0.0,0.0,0.0
1513265250007441823,,517265,,1513265248,226751426,'',1.20427718388,1.21633414037,-0.00358976303372,0.0120569564935,0.001,-51.8449129219,4300.0,0.0,0.0,0.0
1513265250017260483,,517266,,1513265248,236751426,'',1.20427718388,1.21633414037,-0.00352374368995,0.0120569564935,0.001,-51.8449129219,4300.0,0.0,0.0,0.0
1513265250027355292,,517267,,1513265248,246751426,'',1.20427718388,1.21633414037,-0.0033759862451,0.0120569564935,0.001,-51.8449129219,4300.0,0.0,0.0,0.0
1513265250037217247,,517268,,1513265248,256751426,'',1.20427718388,1.21633414037,-0.00335068157406,0.0120569564935,0.001,-51.8449129219,4300.0,0.0,0.0,0.0
1513265250047207134,,517269,,1513265248,266751426,'',1.20427718388,1.21633414037,-0.00380768169031,0.0120569564935,0.001,-51.8449129219,4300.0,0.0,0.0,0.0
1513265250057677792,,517270,,1513265248,276751426,'',1.20427718388,1.21772176963,0.0237872447371,0.0134445857574,0.001,-57.8117187569,4300.0,0.0,0.0,0.0
1513265250067420583,,517271,,1513265248,286751426,'',1.20427718388,1.21494651111,-0.0309389728936,0.0106693272295,0.001,-45.8781070869,4300.0,0.0,0.0,0.0
1513265250077421950,,517272,,1513265248,296751426,'',1.20427718388,1.21633414037,-0.00381689635777,0.0120569564935,0.001,-51.8449129219,4300.0,0.0,0.0,0.0
1513265250087357355,,517273,,1513265248,306751426,'',1.20427718388,1.21772176963,0.0238766355396,0.0134445857574,0.001,-57.8117187569,4300.0,0.0,0.0,0.0
1513265250097343129,,517274,,1513265248,316751426,'',1.20427718388,1.21772176963,0.0235683451199,0.0134445857574,0.001,-57.8117187569,4300.0,0.0,0.0,0.0
1513265250107407306,,517275,,1513265248,326751426,'',1.20427718388,1.21633414037,-0.0041304177469,0.0120569564935,0.001,-51.8449129219,4300.0,0.0,0.0,0.0
1513265250117130880,,517276,,1513265248,336751426,'',1.20427718388,1.21633414037,-0.00496739143542,0.0120569564935,0.001,-51.8449129219,4300.0,0.0,0.0,0.0
1513265250127575870,,517277,,1513265248,346751426,'',1.20427718388,1.21494651111,-0.0316331864714,0.0106693272295,0.001,-45.8781070869,4300.0,0.0,0.0,0.0
1513265250137461117,,517278,,1513265248,356751426,'',1.20427718388,1.21633414037,-0.00401945739049,0.0120569564935,0.001,-51.8449129219,4300.0,0.0,0.0,0.0
1513265250147320559,,517279,,1513265248,366751426,'',1.20427718388,1.21633414037,-0.0027685209084,0.0120569564935,0.001,-51.8449129219,4300.0,0.0,0.0,0.0
1513265250157363117,,517280,,1513265248,376751426,'',1.20427718388,1.21772176963,0.025672343342,0.0134445857574,0.001,-57.8117187569,4300.0,0.0,0.0,0.0
1513265250167456875,,517281,,1513265248,386751426,'',1.20427718388,1.21633414037,-0.00098504815197,0.0120569564935,0.001,-51.8449129219,4300.0,0.0,0.0,0.0
1513265250177220140,,517282,,1513265248,396751426,'',1.20427718388,1.21633414037,-0.000311098034662,0.0120569564935,0.001,-51.8449129219,4300.0,0.0,0.0,0.0
1513265250187264864,,517283,,1513265248,406751426,'',1.20427718388,1.21633414037,-0.000254684931353,0.0120569564935,0.001,-51.8449129219,4300.0,0.0,0.0,0.0
1513265250197092335,,517284,,1513265248,416751426,'',1.20427718388,1.21772176963,0.0268060089134,0.0134445857574,0.001,-57.8117187569,4300.0,0.0,0.0,0.0
1513265250207032023,,517285,,1513265248,426751426,'',1.20427718388,1.21633414037,-0.000498929391444,0.0120569564935,0.001,-51.8449129219,4300.0,0.0,0.0,0.0
1513265250217519768,,517286,,1513265248,436751426,'',1.20427718388,1.21494651111,-0.0288938931322,0.0106693272295,0.001,-45.8781070869,4300.0,0.0,0.0,0.0
1513265250227434916,,517287,,1513265248,446751426,'',1.20427718388,1.21633414037,-0.000703516009782,0.0120569564935,0.001,-51.8449129219,4300.0,0.0,0.0,0.0
1513265250237387350,,517288,,1513265248,456751426,'',1.20427718388,1.21633414037,-8.91380085844e-05,0.0120569564935,0.001,-51.8449129219,4300.0,0.0,0.0,0.0
1513265250247275406,,517289,,1513265248,466751426,'',1.20427718388,1.21633414037,-0.000605961742841,0.0120569564935,0.001,-51.8449129219,4300.0,0.0,0.0,0.0
1513265250257357970,,517290,,1513265248,476751426,'',1.20427718388,1.21633414037,-0.00148642059517,0.0120569564935,0.001,-51.8449129219,4300.0,0.0,0.0,0.0
1513265250267238565,,517291,,1513265248,486751426,'',1.20427718388,1.21633414037,-0.00121683342253,0.0120569564935,0.001,-51.8449129219,4300.0,0.0,0.0,0.0
1513265250277207293,,517292,,1513265248,496751426,'',1.20427718388,1.21633414037,-0.00052243541412,0.0120569564935,0.001,-51.8449129219,4300.0,0.0,0.0,0.0
1513265250287393447,,517293,,1513265248,506751426,'',1.20427718388,1.21633414037,0.000535862936579,0.0120569564935,0.001,-51.8449129219,4300.0,0.0,0.0,0.0
1513265250297476410,,517294,,1513265248,516751426,'',1.20427718388,1.21633414037,-9.01651818292e-05,0.0120569564935,0.001,-51.8449129219,4300.0,0.0,0.0,0.0
1513265250307376331,,517295,,1513265248,526751426,'',1.20427718388,1.21494651111,-0.0260189249018,0.0106693272295,0.001,-45.8781070869,4300.0,0.0,0.0,0.0
1513265250317434342,,517296,,1513265248,536751426,'',1.20427718388,1.21494651111,-0.0252802541988,0.0106693272295,0.001,-45.8781070869,4300.0,0.0,0.0,0.0
1513265250327365938,,517297,,1513265248,546751426,'',1.20427718388,1.21633414037,0.00273111152697,0.0120569564935,0.001,-51.8449129219,4300.0,0.0,0.0,0.0
1513265250337585846,,517298,,1513265248,556751426,'',1.20427718388,1.21633414037,0.00223635465832,0.0120569564935,0.001,-51.8449129219,4300.0,0.0,0.0,0.0
1513265250347263114,,517299,,1513265248,566751426,'',1.20427718388,1.21772176963,0.0308142543038,0.0134445857574,0.001,-57.8117187569,4300.0,0.0,0.0,0.0
1513265250357653049,,517300,,1513265248,576751426,'',1.20427718388,1.21633414037,0.00382013926341,0.0120569564935,0.001,-51.8449129219,4300.0,0.0,0.0,0.0
1513265250367451067,,517301,,1513265248,586751426,'',1.20427718388,1.21633414037,0.00258472902112,0.0120569564935,0.001,-51.8449129219,4300.0,0.0,0.0,0.0
1513265250377782241,,517302,,1513265248,596751426,'',1.20427718388,1.21772176963,0.030131730461,0.0134445857574,0.001,-57.8117187569,4300.0,0.0,0.0,0.0
1513265250387250468,,517303,,1513265248,606751426,'',1.20427718388,1.21633414037,0.00225706737187,0.0120569564935,0.001,-51.8449129219,4300.0,0.0,0.0,0.0
1513265250397548716,,517304,,1513265248,616751426,'',1.20427718388,1.21633414037,0.00236251532045,0.0120569564935,0.001,-51.8449129219,4300.0,0.0,0.0,0.0
1513265250407623944,,517305,,1513265248,626751426,'',1.20427718388,1.21633414037,0.00190827388306,0.0120569564935,0.001,-51.8449129219,4300.0,0.0,0.0,0.0
1513265250417831859,,517306,,1513265248,636751426,'',1.20427718388,1.21633414037,0.00152786473811,0.0120569564935,0.001,-51.8449129219,4300.0,0.0,0.0,0.0
1513265250427714542,,517307,,1513265248,646751426,'',1.20427718388,1.21633414037,0.00116896948608,0.0120569564935,0.001,-51.8449129219,4300.0,0.0,0.0,0.0
1513265250437238958,,517308,,1513265248,656751426,'',1.20427718388,1.21633414037,-5.21540774288e-05,0.0120569564935,0.001,-51.8449129219,4300.0,0.0,0.0,0.0
1513265250447550020,,517309,,1513265248,666751426,'',1.20427718388,1.21633414037,0.000482681380369,0.0120569564935,0.001,-51.8449129219,4300.0,0.0,0.0,0.0
1513265250457571665,,517310,,1513265248,676751426,'',1.20427718388,1.21633414037,-9.48011638092e-05,0.0120569564935,0.001,-51.8449129219,4300.0,0.0,0.0,0.0
1513265250467643345,,517311,,1513265248,686751426,'',1.20427718388,1.21494651111,-0.0280114724076,0.0106693272295,0.001,-45.8781070869,4300.0,0.0,0.0,0.0
1513265250477234024,,517312,,1513265248,696751426,'',1.20427718388,1.21633414037,1.81987585478e-05,0.0120569564935,0.001,-51.8449129219,4300.0,0.0,0.0,0.0
1513265250487194051,,517313,,1513265248,706751426,'',1.20427718388,1.21633414037,0.00052931740782,0.0120569564935,0.001,-51.8449129219,4300.0,0.0,0.0,0.0
1513265250497579671,,517314,,1513265248,716751426,'',1.20427718388,1.21633414037,0.000433385055884,0.0120569564935,0.001,-51.8449129219,4300.0,0.0,0.0,0.0
1513265250507554497,,517315,,1513265248,726751426,'',1.20427718388,1.21633414037,0.000908280358891,0.0120569564935,0.001,-51.8449129219,4300.0,0.0,0.0,0.0
1513265250517756302,,517316,,1513265248,736751426,'',1.20427718388,1.21633414037,0.000743697489692,0.0120569564935,0.001,-51.8449129219,4300.0,0.0,0.0,0.0
1513265250527436814,,517317,,1513265248,746751426,'',1.20427718388,1.21494651111,-0.0263338873631,0.0106693272295,0.001,-45.8781070869,4300.0,0.0,0.0,0.0
1513265250537392340,,517318,,1513265248,756751426,'',1.20427718388,1.21494651111,-0.025569278703,0.0106693272295,0.001,-45.8781070869,4300.0,0.0,0.0,0.0
1513265250547198247,,517319,,1513265248,766751426,'',1.20427718388,1.21633414037,0.00299606807672,0.0120569564935,0.001,-51.8449129219,4300.0,0.0,0.0,0.0
1513265250557648330,,517320,,1513265248,776751426,'',1.20427718388,1.21633414037,0.0029364726344,0.0120569564935,0.001,-51.8449129219,4300.0,0.0,0.0,0.0
1513265250567343521,,517321,,1513265248,786751426,'',1.20427718388,1.21772176963,0.0298790124914,0.0134445857574,0.001,-57.8117187569,4300.0,0.0,0.0,0.0
1513265250577733897,,517322,,1513265248,796751426,'',1.20427718388,1.21494651111,-0.0254555328691,0.0106693272295,0.001,-45.8781070869,4300.0,0.0,0.0,0.0
1513265250587570163,,517323,,1513265248,806751426,'',1.20427718388,1.21633414037,0.00264979814243,0.0120569564935,0.001,-51.8449129219,4300.0,0.0,0.0,0.0
1513265250597495670,,517324,,1513265248,816751426,'',1.20427718388,1.21633414037,0.00258351583213,0.0120569564935,0.001,-51.8449129219,4300.0,0.0,0.0,0.0
1513265250607535687,,517325,,1513265248,826751426,'',1.20427718388,1.21633414037,0.00262162030026,0.0120569564935,0.001,-51.8449129219,4300.0,0.0,0.0,0.0
1513265250617325651,,517326,,1513265248,836751426,'',1.20427718388,1.21633414037,0.00464740973708,0.0120569564935,0.001,-51.8449129219,4300.0,0.0,0.0,0.0
1513265250627938356,,517327,,1513265248,846751426,'',1.20427718388,1.21633414037,0.00228418864589,0.0120569564935,0.001,-51.8449129219,4300.0,0.0,0.0,0.0
1513265250637738128,,517328,,1513265248,856751426,'',1.20427718388,1.21633414037,0.000915047586438,0.0120569564935,0.001,-51.8449129219,4300.0,0.0,0.0,0.0
1513265250647634352,,517329,,1513265248,866751426,'',1.20427718388,1.21494651111,-0.0262648068033,0.0106693272295,0.001,-45.8781070869,4300.0,0.0,0.0,0.0
1513265250657536350,,517330,,1513265248,876751426,'',1.20427718388,1.21633414037,0.00143888303973,0.0120569564935,0.001,-51.8449129219,4300.0,0.0,0.0,0.0
1513265250667605564,,517331,,1513265248,886751426,'',1.20427718388,1.21633414037,0.00110605403932,0.0120569564935,0.001,-51.8449129219,4300.0,0.0,0.0,0.0
1513265250677836993,,517332,,1513265248,896751426,'',1.20427718388,1.21633414037,0.000362237702217,0.0120569564935,0.001,-51.8449129219,4300.0,0.0,0.0,0.0
1513265250687623060,,517333,,1513265248,906751426,'',1.20427718388,1.21633414037,0.000282469132806,0.0120569564935,0.001,-51.8449129219,4300.0,0.0,0.0,0.0
1513265250697715971,,517334,,1513265248,916751426,'',1.20427718388,1.21772176963,0.0266937746392,0.0134445857574,0.001,-57.8117187569,4300.0,0.0,0.0,0.0
1513265250707441352,,517335,,1513265248,926751426,'',1.20427718388,1.21633414037,-0.000652089118643,0.0120569564935,0.001,-51.8449129219,4300.0,0.0,0.0,0.0
1513265250717201545,,517336,,1513265248,936751426,'',1.20427718388,1.21494651111,-0.0265153823964,0.0106693272295,0.001,-45.8781070869,4300.0,0.0,0.0,0.0
1513265250727583591,,517337,,1513265248,946751426,'',1.20427718388,1.21633414037,0.00279054689408,0.0120569564935,0.001,-51.8449129219,4300.0,0.0,0.0,0.0
1513265250737467494,,517338,,1513265248,956751426,'',1.20427718388,1.21633414037,0.00216926493739,0.0120569564935,0.001,-51.8449129219,4300.0,0.0,0.0,0.0
1513265250747448010,,517339,,1513265248,966751426,'',1.20427718388,1.21633414037,0.00276567435616,0.0120569564935,0.001,-51.8449129219,4300.0,0.0,0.0,0.0
1513265250757655860,,517340,,1513265248,976751426,'',1.20427718388,1.21772176963,0.0286882612218,0.0134445857574,0.001,-57.8117187569,4300.0,0.0,0.0,0.0
1513265250768044552,,517341,,1513265248,986751426,'',1.20427718388,1.21633414037,0.0010627187191,0.0120569564935,0.001,-51.8449129219,4300.0,0.0,0.0,0.0
1513265250777512773,,517342,,1513265248,996751426,'',1.20427718388,1.21633414037,0.00143199254156,0.0120569564935,0.001,-51.8449129219,4300.0,0.0,0.0,0.0
1513265250787499431,,517343,,1513265249,6751426,'',1.20427718388,1.21633414037,0.00110568776443,0.0120569564935,0.001,-51.8449129219,4300.0,0.0,0.0,0.0
1513265250797610803,,517344,,1513265249,16751426,'',1.20427718388,1.21494651111,-0.0250467099791,0.0106693272295,0.001,-45.8781070869,4300.0,0.0,0.0,0.0
1513265250807590786,,517345,,1513265249,26751426,'',1.20427718388,1.21633414037,0.00194280346777,0.0120569564935,0.001,-51.8449129219,4300.0,0.0,0.0,0.0
1513265250817337330,,517346,,1513265249,36751426,'',1.20427718388,1.21633414037,0.00363755151914,0.0120569564935,0.001,-51.8449129219,4300.0,0.0,0.0,0.0
1513265250827629980,,517347,,1513265249,46751426,'',1.20427718388,1.21633414037,0.00246433849533,0.0120569564935,0.001,-51.8449129219,4300.0,0.0,0.0,0.0
1513265250837660350,,517348,,1513265249,56751426,'',1.20427718388,1.21633414037,0.00253465511327,0.0120569564935,0.001,-51.8449129219,4300.0,0.0,0.0,0.0
1513265250847666398,,517349,,1513265249,66751426,'',1.20427718388,1.21494651111,-0.0253610089374,0.0106693272295,0.001,-45.8781070869,4300.0,0.0,0.0,0.0
1513265250857359955,,517350,,1513265249,76751426,'',1.20427718388,1.21772176963,0.0301436882014,0.0134445857574,0.001,-57.8117187569,4300.0,0.0,0.0,0.0
1513265250867448676,,517351,,1513265249,86751426,'',1.20427718388,1.21633414037,0.00308628488172,0.0120569564935,0.001,-51.8449129219,4300.0,0.0,0.0,0.0
1513265250877090550,,517352,,1513265249,96751426,'',1.20427718388,1.21633414037,0.00412339895552,0.0120569564935,0.001,-51.8449129219,4300.0,0.0,0.0,0.0
1513265250887143370,,517353,,1513265249,106751426,'',1.20427718388,1.21494651111,-0.0240793678368,0.0106693272295,0.001,-45.8781070869,4300.0,0.0,0.0,0.0
1513265250897400480,,517354,,1513265249,116751426,'',1.20427718388,1.21494651111,-0.0217726634025,0.0106693272295,0.001,-45.8781070869,4300.0,0.0,0.0,0.0
1513265250907455390,,517355,,1513265249,126751426,'',1.20427718388,1.21633414037,0.00859966014322,0.0120569564935,0.001,-51.8449129219,4300.0,0.0,0.0,0.0
1513265250917527818,,517356,,1513265249,136751426,'',1.20427718388,1.21633414037,0.00899786132443,0.0120569564935,0.001,-51.8449129219,4300.0,0.0,0.0,0.0
1513265250927253664,,517357,,1513265249,146751426,'',1.20427718388,1.21494651111,-0.0181261822779,0.0106693272295,0.001,-45.8781070869,4300.0,0.0,0.0,0.0
1513265250937177081,,517358,,1513265249,156751426,'',1.20427718388,1.21633414037,0.0106390634337,0.0120569564935,0.001,-51.8449129219,4300.0,0.0,0.0,0.0
1513265250947464707,,517359,,1513265249,166751426,'',1.20427718388,1.21494651111,-0.0167810503487,0.0106693272295,0.001,-45.8781070869,4300.0,0.0,0.0,0.0
1513265250957615773,,517360,,1513265249,176751426,'',1.20427718388,1.21494651111,-0.0171862909195,0.0106693272295,0.001,-45.8781070869,4300.0,0.0,0.0,0.0
1513265250967587643,,517361,,1513265249,186751426,'',1.20427718388,1.21633414037,0.012329831122,0.0120569564935,0.001,-51.8449129219,4300.0,0.0,0.0,0.0
1513265250977418432,,517362,,1513265249,196751426,'',1.20427718388,1.21633414037,0.0105450666752,0.0120569564935,0.001,-51.8449129219,4300.0,0.0,0.0,0.0
1513265250987579786,,517363,,1513265249,206751426,'',1.20427718388,1.21633414037,0.0102139538512,0.0120569564935,0.001,-51.8449129219,4300.0,0.0,0.0,0.0
1513265250997419252,,517364,,1513265249,216751426,'',1.20427718388,1.21633414037,0.0104225322023,0.0120569564935,0.001,-51.8449129219,4300.0,0.0,0.0,0.0
1513265251007303683,,517365,,1513265249,226751426,'',1.20427718388,1.21494651111,-0.0189769862693,0.0106693272295,0.001,-45.8781070869,4300.0,0.0,0.0,0.0
1513265251017439630,,517366,,1513265249,236751426,'',1.20427718388,1.21633414037,0.00839456422229,0.0120569564935,0.001,-51.8449129219,4300.0,0.0,0.0,0.0
1513265251027574307,,517367,,1513265249,246751426,'',1.20427718388,1.21633414037,0.00786709830446,0.0120569564935,0.001,-51.8449129219,4300.0,0.0,0.0,0.0
1513265251037392374,,517368,,1513265249,256751426,'',1.20427718388,1.21494651111,-0.0215389241444,0.0106693272295,0.001,-45.8781070869,4300.0,0.0,0.0,0.0
1513265251047264170,,517369,,1513265249,266751426,'',1.20427718388,1.21494651111,-0.0221571101393,0.0106693272295,0.001,-45.8781070869,4300.0,0.0,0.0,0.0
1513265251057337549,,517370,,1513265249,276751426,'',1.20427718388,1.21494651111,-0.023134446336,0.0106693272295,0.001,-45.8781070869,4300.0,0.0,0.0,0.0
1513265251067356470,,517371,,1513265249,286751426,'',1.20427718388,1.21633414037,0.00299405675407,0.0120569564935,0.001,-51.8449129219,4300.0,0.0,0.0,0.0
1513265251077287737,,517372,,1513265249,296751426,'',1.20427718388,1.21633414037,0.00197820539503,0.0120569564935,0.001,-51.8449129219,4300.0,0.0,0.0,0.0
1513265251087246050,,517373,,1513265249,306751426,'',1.20427718388,1.21633414037,0.0015921162197,0.0120569564935,0.001,-51.8449129219,4300.0,0.0,0.0,0.0
1513265251097231711,,517374,,1513265249,316751426,'',1.20427718388,1.21633414037,0.00134494345898,0.0120569564935,0.001,-51.8449129219,4300.0,0.0,0.0,0.0
1513265251107612377,,517375,,1513265249,326751426,'',1.20427718388,1.21494651111,-0.026374230073,0.0106693272295,0.001,-45.8781070869,4300.0,0.0,0.0,0.0
1513265251117493322,,517376,,1513265249,336751426,'',1.20427718388,1.21633414037,0.00191534800541,0.0120569564935,0.001,-51.8449129219,4300.0,0.0,0.0,0.0
1513265251127488594,,517377,,1513265249,346751426,'',1.20427718388,1.21494651111,-0.0274421235086,0.0106693272295,0.001,-45.8781070869,4300.0,0.0,0.0,0.0
1513265251137465209,,517378,,1513265249,356751426,'',1.20427718388,1.21633414037,-6.31756236966e-05,0.0120569564935,0.001,-51.8449129219,4300.0,0.0,0.0,0.0
1513265251147293975,,517379,,1513265249,366751426,'',1.20427718388,1.21633414037,-0.00101093409498,0.0120569564935,0.001,-51.8449129219,4300.0,0.0,0.0,0.0
1513265251157276906,,517380,,1513265249,376751426,'',1.20427718388,1.21494651111,-0.0297677983573,0.0106693272295,0.001,-45.8781070869,4300.0,0.0,0.0,0.0
1513265251167245480,,517381,,1513265249,386751426,'',1.20427718388,1.21633414037,-0.00192707614465,0.0120569564935,0.001,-51.8449129219,4300.0,0.0,0.0,0.0
1513265251176957921,,517382,,1513265249,396751426,'',1.20427718388,1.21633414037,-0.00101690832985,0.0120569564935,0.001,-51.8449129219,4300.0,0.0,0.0,0.0
1513265251187348377,,517383,,1513265249,406751426,'',1.20427718388,1.21772176963,0.025553195741,0.0134445857574,0.001,-57.8117187569,4300.0,0.0,0.0,0.0
1513265251197319252,,517384,,1513265249,416751426,'',1.20427718388,1.21494651111,-0.027491970512,0.0106693272295,0.001,-45.8781070869,4300.0,0.0,0.0,0.0
1513265251207193991,,517385,,1513265249,426751426,'',1.20427718388,1.21633414037,0.00302422586063,0.0120569564935,0.001,-51.8449129219,4300.0,0.0,0.0,0.0
1513265251217256262,,517386,,1513265249,436751426,'',1.20427718388,1.21633414037,0.00288697928643,0.0120569564935,0.001,-51.8449129219,4300.0,0.0,0.0,0.0
1513265251227136396,,517387,,1513265249,446751426,'',1.20427718388,1.21633414037,0.0033598971036,0.0120569564935,0.001,-51.8449129219,4300.0,0.0,0.0,0.0
1513265251237107496,,517388,,1513265249,456751426,'',1.20427718388,1.21633414037,0.00274637511984,0.0120569564935,0.001,-51.8449129219,4300.0,0.0,0.0,0.0
1513265251247153245,,517389,,1513265249,466751426,'',1.20427718388,1.21633414037,0.0027622978782,0.0120569564935,0.001,-51.8449129219,4300.0,0.0,0.0,0.0
1513265251256986182,,517390,,1513265249,476751426,'',1.20427718388,1.21633414037,0.00325764519089,0.0120569564935,0.001,-51.8449129219,4300.0,0.0,0.0,0.0
1513265251266956948,,517391,,1513265249,486751426,'',1.20427718388,1.21772176963,0.0295962787288,0.0134445857574,0.001,-57.8117187569,4300.0,0.0,0.0,0.0
1513265251277390336,,517392,,1513265249,496751426,'',1.20427718388,1.21633414037,0.00225866443952,0.0120569564935,0.001,-51.8449129219,4300.0,0.0,0.0,0.0
1513265251287350869,,517393,,1513265249,506751426,'',1.20427718388,1.21633414037,-0.000150677004959,0.0120569564935,0.001,-51.8449129219,4300.0,0.0,0.0,0.0
1513265251297447188,,517394,,1513265249,516751426,'',1.20427718388,1.21633414037,0.0008624003572,0.0120569564935,0.001,-51.8449129219,4300.0,0.0,0.0,0.0
1513265251307198784,,517395,,1513265249,526751426,'',1.20427718388,1.21494651111,-0.0272595346884,0.0106693272295,0.001,-45.8781070869,4300.0,0.0,0.0,0.0
1513265251317108793,,517396,,1513265249,536751426,'',1.20427718388,1.21633414037,0.00064021660385,0.0120569564935,0.001,-51.8449129219,4300.0,0.0,0.0,0.0
1513265251326975237,,517397,,1513265249,546751426,'',1.20427718388,1.21633414037,0.000463271886437,0.0120569564935,0.001,-51.8449129219,4300.0,0.0,0.0,0.0
1513265251337573978,,517398,,1513265249,556751426,'',1.20427718388,1.21633414037,0.00134279223104,0.0120569564935,0.001,-51.8449129219,4300.0,0.0,0.0,0.0
1513265251347578753,,517399,,1513265249,566751426,'',1.20427718388,1.21633414037,0.00108995355058,0.0120569564935,0.001,-51.8449129219,4300.0,0.0,0.0,0.0
1513265251357470133,,517400,,1513265249,576751426,'',1.20427718388,1.21633414037,0.00139507298283,0.0120569564935,0.001,-51.8449129219,4300.0,0.0,0.0,0.0
1513265251367493299,,517401,,1513265249,586751426,'',1.20427718388,1.21494651111,-0.0258127798934,0.0106693272295,0.001,-45.8781070869,4300.0,0.0,0.0,0.0
1513265251377587374,,517402,,1513265249,596751426,'',1.20427718388,1.21633414037,0.00173268112058,0.0120569564935,0.001,-51.8449129219,4300.0,0.0,0.0,0.0
1513265251387300631,,517403,,1513265249,606751426,'',1.20427718388,1.21772176963,0.0293275309078,0.0134445857574,0.001,-57.8117187569,4300.0,0.0,0.0,0.0
1513265251397448336,,517404,,1513265249,616751426,'',1.20427718388,1.21633414037,0.000444279682025,0.0120569564935,0.001,-51.8449129219,4300.0,0.0,0.0,0.0
1513265251407200395,,517405,,1513265249,626751426,'',1.20427718388,1.21772176963,0.0293561099887,0.0134445857574,0.001,-57.8117187569,4300.0,0.0,0.0,0.0
1513265251417184631,,517406,,1513265249,636751426,'',1.20427718388,1.21633414037,0.00214170309935,0.0120569564935,0.001,-51.8449129219,4300.0,0.0,0.0,0.0
1513265251427086586,,517407,,1513265249,646751426,'',1.20427718388,1.21494651111,-0.0251202126075,0.0106693272295,0.001,-45.8781070869,4300.0,0.0,0.0,0.0
1513265251437175127,,517408,,1513265249,656751426,'',1.20427718388,1.21494651111,-0.025139593647,0.0106693272295,0.001,-45.8781070869,4300.0,0.0,0.0,0.0
1513265251447185819,,517409,,1513265249,666751426,'',1.20427718388,1.21494651111,-0.0240032490268,0.0106693272295,0.001,-45.8781070869,4300.0,0.0,0.0,0.0
1513265251456997421,,517410,,1513265249,676751426,'',1.20427718388,1.21633414037,0.00378694338615,0.0120569564935,0.001,-51.8449129219,4300.0,0.0,0.0,0.0
1513265251467403593,,517411,,1513265249,686751426,'',1.20427718388,1.21633414037,0.00510096094015,0.0120569564935,0.001,-51.8449129219,4300.0,0.0,0.0,0.0
1513265251477420492,,517412,,1513265249,696751426,'',1.20427718388,1.21633414037,0.0046451526567,0.0120569564935,0.001,-51.8449129219,4300.0,0.0,0.0,0.0
1513265251487252651,,517413,,1513265249,706751426,'',1.20427718388,1.21494651111,-0.0221587634911,0.0106693272295,0.001,-45.8781070869,4300.0,0.0,0.0,0.0
1513265251497363524,,517414,,1513265249,716751426,'',1.20427718388,1.21494651111,-0.0200915023469,0.0106693272295,0.001,-45.8781070869,4300.0,0.0,0.0,0.0
1513265251507141332,,517415,,1513265249,726751426,'',1.20427718388,1.21494651111,-0.0195111818145,0.0106693272295,0.001,-45.8781070869,4300.0,0.0,0.0,0.0
1513265251516971514,,517416,,1513265249,736751426,'',1.20427718388,1.21633414037,0.00946012715643,0.0120569564935,0.001,-51.8449129219,4300.0,0.0,0.0,0.0
1513265251527402875,,517417,,1513265249,746751426,'',1.20427718388,1.21633414037,0.00874057134031,0.0120569564935,0.001,-51.8449129219,4300.0,0.0,0.0,0.0
1513265251537383374,,517418,,1513265249,756751426,'',1.20427718388,1.21494651111,-0.0198643860194,0.0106693272295,0.001,-45.8781070869,4300.0,0.0,0.0,0.0
1513265251547556917,,517419,,1513265249,766751426,'',1.20427718388,1.21494651111,-0.0197121562984,0.0106693272295,0.001,-45.8781070869,4300.0,0.0,0.0,0.0
1513265251557324232,,517420,,1513265249,776751426,'',1.20427718388,1.21633414037,0.00785726758711,0.0120569564935,0.001,-51.8449129219,4300.0,0.0,0.0,0.0
1513265251567095618,,517421,,1513265249,786751426,'',1.20427718388,1.21494651111,-0.0200212701972,0.0106693272295,0.001,-45.8781070869,4300.0,0.0,0.0,0.0
1513265251577135938,,517422,,1513265249,796751426,'',1.20427718388,1.21633414037,0.00702808065002,0.0120569564935,0.001,-51.8449129219,4300.0,0.0,0.0,0.0
1513265251587134857,,517423,,1513265249,806751426,'',1.20427718388,1.21633414037,0.00626344370755,0.0120569564935,0.001,-51.8449129219,4300.0,0.0,0.0,0.0
1513265251597256024,,517424,,1513265249,816751426,'',1.20427718388,1.21633414037,0.00662802634737,0.0120569564935,0.001,-51.8449129219,4300.0,0.0,0.0,0.0
1513265251607164189,,517425,,1513265249,826751426,'',1.20427718388,1.21494651111,-0.0215763800572,0.0106693272295,0.001,-45.8781070869,4300.0,0.0,0.0,0.0
1513265251617021050,,517426,,1513265249,836751426,'',1.20427718388,1.21633414037,0.00578150298941,0.0120569564935,0.001,-51.8449129219,4300.0,0.0,0.0,0.0
1513265251627432838,,517427,,1513265249,846751426,'',1.20427718388,1.21633414037,0.00570519861726,0.0120569564935,0.001,-51.8449129219,4300.0,0.0,0.0,0.0
1513265251637309482,,517428,,1513265249,856751426,'',1.20427718388,1.21633414037,0.00525025509692,0.0120569564935,0.001,-51.8449129219,4300.0,0.0,0.0,0.0
1513265251647180368,,517429,,1513265249,866751426,'',1.20427718388,1.21633414037,0.00526248826899,0.0120569564935,0.001,-51.8449129219,4300.0,0.0,0.0,0.0
1513265251657140463,,517430,,1513265249,876751426,'',1.20427718388,1.21633414037,0.00378599392559,0.0120569564935,0.001,-51.8449129219,4300.0,0.0,0.0,0.0
1513265251667595323,,517431,,1513265249,886751426,'',1.20427718388,1.21633414037,0.00357329122092,0.0120569564935,0.001,-51.8449129219,4300.0,0.0,0.0,0.0
1513265251677445795,,517432,,1513265249,896751426,'',1.20427718388,1.21633414037,0.00386389810937,0.0120569564935,0.001,-51.8449129219,4300.0,0.0,0.0,0.0
1513265251687318678,,517433,,1513265249,906751426,'',1.20427718388,1.21772176963,0.0320820699848,0.0134445857574,0.001,-57.8117187569,4300.0,0.0,0.0,0.0
1513265251697179531,,517434,,1513265249,916751426,'',1.20427718388,1.21772176963,0.0312830423836,0.0134445857574,0.001,-57.8117187569,4300.0,0.0,0.0,0.0
1513265251707056095,,517435,,1513265249,926751426,'',1.20427718388,1.21494651111,-0.0238617598783,0.0106693272295,0.001,-45.8781070869,4300.0,0.0,0.0,0.0
1513265251717022552,,517436,,1513265249,936751426,'',1.20427718388,1.21633414037,0.00492173929356,0.0120569564935,0.001,-51.8449129219,4300.0,0.0,0.0,0.0
1513265251727001174,,517437,,1513265249,946751426,'',1.20427718388,1.21633414037,0.00402945083685,0.0120569564935,0.001,-51.8449129219,4300.0,0.0,0.0,0.0
1513265251737390275,,517438,,1513265249,956751426,'',1.20427718388,1.21633414037,0.00234383391159,0.0120569564935,0.001,-51.8449129219,4300.0,0.0,0.0,0.0
1513265251747387258,,517439,,1513265249,966751426,'',1.20427718388,1.21633414037,0.00190509902235,0.0120569564935,0.001,-51.8449129219,4300.0,0.0,0.0,0.0
1513265251757219415,,517440,,1513265249,976751426,'',1.20427718388,1.21633414037,0.00261205826925,0.0120569564935,0.001,-51.8449129219,4300.0,0.0,0.0,0.0
1513265251767159164,,517441,,1513265249,986751426,'',1.20427718388,1.21494651111,-0.0238162319971,0.0106693272295,0.001,-45.8781070869,4300.0,0.0,0.0,0.0
1513265251777020027,,517442,,1513265249,996751426,'',1.20427718388,1.21633414037,0.0035230870947,0.0120569564935,0.001,-51.8449129219,4300.0,0.0,0.0,0.0
1513265251787422662,,517443,,1513265250,6751426,'',1.20427718388,1.21494651111,-0.0225934984372,0.0106693272295,0.001,-45.8781070869,4300.0,0.0,0.0,0.0
1513265251797410072,,517444,,1513265250,16751426,'',1.20427718388,1.21494651111,-0.0215596858525,0.0106693272295,0.001,-45.8781070869,4300.0,0.0,0.0,0.0
1513265251807255646,,517445,,1513265250,26751426,'',1.20427718388,1.21633414037,0.00478509546015,0.0120569564935,0.001,-51.8449129219,4300.0,0.0,0.0,0.0
1513265251817362699,,517446,,1513265250,36751426,'',1.20427718388,1.21633414037,0.00342950174257,0.0120569564935,0.001,-51.8449129219,4300.0,0.0,0.0,0.0
1513265251827064633,,517447,,1513265250,46751426,'',1.20427718388,1.21772176963,0.0307693073174,0.0134445857574,0.001,-57.8117187569,4300.0,0.0,0.0,0.0
1513265251837032176,,517448,,1513265250,56751426,'',1.20427718388,1.21633414037,0.00223062031978,0.0120569564935,0.001,-51.8449129219,4300.0,0.0,0.0,0.0
1513265251847064018,,517449,,1513265250,66751426,'',1.20427718388,1.21633414037,0.00285011077266,0.0120569564935,0.001,-51.8449129219,4300.0,0.0,0.0,0.0
1513265251856975472,,517450,,1513265250,76751426,'',1.20427718388,1.21633414037,0.00134538538404,0.0120569564935,0.001,-51.8449129219,4300.0,0.0,0.0,0.0
1513265251867375474,,517451,,1513265250,86751426,'',1.20427718388,1.21633414037,0.00157267009666,0.0120569564935,0.001,-51.8449129219,4300.0,0.0,0.0,0.0
1513265251877282253,,517452,,1513265250,96751426,'',1.20427718388,1.21633414037,0.00176587177592,0.0120569564935,0.001,-51.8449129219,4300.0,0.0,0.0,0.0
1513265251887261169,,517453,,1513265250,106751426,'',1.20427718388,1.21633414037,0.00245497046405,0.0120569564935,0.001,-51.8449129219,4300.0,0.0,0.0,0.0
1513265251897176643,,517454,,1513265250,116751426,'',1.20427718388,1.21633414037,0.00196400032341,0.0120569564935,0.001,-51.8449129219,4300.0,0.0,0.0,0.0
1513265251907107241,,517455,,1513265250,126751426,'',1.20427718388,1.21633414037,0.00102992090909,0.0120569564935,0.001,-51.8449129219,4300.0,0.0,0.0,0.0
1513265251917046748,,517456,,1513265250,136751426,'',1.20427718388,1.21633414037,-0.00018145198804,0.0120569564935,0.001,-51.8449129219,4300.0,0.0,0.0,0.0
1513265251927022698,,517457,,1513265250,146751426,'',1.20427718388,1.21633414037,-0.00059969667075,0.0120569564935,0.001,-51.8449129219,4300.0,0.0,0.0,0.0
1513265251937374425,,517458,,1513265250,156751426,'',1.20427718388,1.21494651111,-0.0279673903129,0.0106693272295,0.001,-45.8781070869,4300.0,0.0,0.0,0.0
1513265251947402350,,517459,,1513265250,166751426,'',1.20427718388,1.21633414037,0.00108422944616,0.0120569564935,0.001,-51.8449129219,4300.0,0.0,0.0,0.0
1513265251957363248,,517460,,1513265250,176751426,'',1.20427718388,1.21633414037,0.00136377977182,0.0120569564935,0.001,-51.8449129219,4300.0,0.0,0.0,0.0
1513265251967308814,,517461,,1513265250,186751426,'',1.20427718388,1.21633414037,0.00106166837588,0.0120569564935,0.001,-51.8449129219,4300.0,0.0,0.0,0.0
1513265251977285036,,517462,,1513265250,196751426,'',1.20427718388,1.21633414037,0.00184381112296,0.0120569564935,0.001,-51.8449129219,4300.0,0.0,0.0,0.0
1513265251987118049,,517463,,1513265250,206751426,'',1.20427718388,1.21633414037,-4.09157667351e-05,0.0120569564935,0.001,-51.8449129219,4300.0,0.0,0.0,0.0
