rosbagTimestamp,header,seq,stamp,secs,nsecs,frame_id,set_point,process_value,process_value_dot,error,time_step,command,p,i,d,i_clamp
1513266159320809888,,608193,,1513266157,522366423,'',0.471238898038,0.479965544298,-0.0283460813848,0.00872664625997,0.001,43.6332312999,-5000.0,0.0,0.0,0.0
1513266159330728276,,608194,,1513266157,532366423,'',0.471238898038,0.481622502449,0.00421810487582,0.0103836044106,0.001,51.918022053,-5000.0,0.0,0.0,0.0
1513266159340639243,,608195,,1513266157,542366423,'',0.471238898038,0.481622502449,0.0070515026113,0.0103836044106,0.001,51.918022053,-5000.0,0.0,0.0,0.0
1513266159350868398,,608196,,1513266157,552366423,'',0.471238898038,0.481622502449,0.00639961142362,0.0103836044106,0.001,51.918022053,-5000.0,0.0,0.0,0.0
1513266159360787147,,608197,,1513266157,562366423,'',0.471238898038,0.479965544298,-0.0275743253882,0.00872664625997,0.001,43.6332312999,-5000.0,0.0,0.0,0.0
1513266159370823721,,608198,,1513266157,572366423,'',0.471238898038,0.4832794606,0.0388462281344,0.0120405625612,0.001,60.2028128061,-5000.0,0.0,0.0,0.0
1513266159380721287,,608199,,1513266157,582366423,'',0.471238898038,0.481622502449,0.0068394979296,0.0103836044106,0.001,51.918022053,-5000.0,0.0,0.0,0.0
1513266159390692885,,608200,,1513266157,592366423,'',0.471238898038,0.481622502449,0.00620976650918,0.0103836044106,0.001,51.918022053,-5000.0,0.0,0.0,0.0
1513266159400688051,,608201,,1513266157,602366423,'',0.471238898038,0.481622502449,0.00736523434891,0.0103836044106,0.001,51.918022053,-5000.0,0.0,0.0,0.0
1513266159410715630,,608202,,1513266157,612366423,'',0.471238898038,0.4832794606,0.0405462628968,0.0120405625612,0.001,60.2028128061,-5000.0,0.0,0.0,0.0
1513266159420582048,,608203,,1513266157,622366423,'',0.471238898038,0.481622502449,0.00694565823421,0.0103836044106,0.001,51.918022053,-5000.0,0.0,0.0,0.0
1513266159430460683,,608204,,1513266157,632366423,'',0.471238898038,0.481622502449,0.00750959294696,0.0103836044106,0.001,51.918022053,-5000.0,0.0,0.0,0.0
1513266159440456402,,608205,,1513266157,642366423,'',0.471238898038,0.479965544298,-0.026086586942,0.00872664625997,0.001,43.6332312999,-5000.0,0.0,0.0,0.0
1513266159450341071,,608206,,1513266157,652366423,'',0.471238898038,0.481622502449,0.00779124138792,0.0103836044106,0.001,51.918022053,-5000.0,0.0,0.0,0.0
1513266159460484109,,608207,,1513266157,662366423,'',0.471238898038,0.481622502449,0.00643145799428,0.0103836044106,0.001,51.918022053,-5000.0,0.0,0.0,0.0
1513266159470779252,,608208,,1513266157,672366423,'',0.471238898038,0.481622502449,0.00343115787565,0.0103836044106,0.001,51.918022053,-5000.0,0.0,0.0,0.0
1513266159480736622,,608209,,1513266157,682366423,'',0.471238898038,0.479965544298,-0.0276711250963,0.00872664625997,0.001,43.6332312999,-5000.0,0.0,0.0,0.0
1513266159490619047,,608210,,1513266157,692366423,'',0.471238898038,0.481622502449,0.00587553311852,0.0103836044106,0.001,51.918022053,-5000.0,0.0,0.0,0.0
1513266159500527095,,608211,,1513266157,702366423,'',0.471238898038,0.479965544298,-0.0274432490991,0.00872664625997,0.001,43.6332312999,-5000.0,0.0,0.0,0.0
1513266159510863901,,608212,,1513266157,712366423,'',0.471238898038,0.479965544298,-0.0272666187224,0.00872664625997,0.001,43.6332312999,-5000.0,0.0,0.0,0.0
1513266159520825519,,608213,,1513266157,722366423,'',0.471238898038,0.481622502449,0.00746573411827,0.0103836044106,0.001,51.918022053,-5000.0,0.0,0.0,0.0
1513266159530806912,,608214,,1513266157,732366423,'',0.471238898038,0.4832794606,0.0382853346799,0.0120405625612,0.001,60.2028128061,-5000.0,0.0,0.0,0.0
1513266159540761519,,608215,,1513266157,742366423,'',0.471238898038,0.481622502449,0.00337916671189,0.0103836044106,0.001,51.918022053,-5000.0,0.0,0.0,0.0
1513266159550761867,,608216,,1513266157,752366423,'',0.471238898038,0.481622502449,0.00346530912169,0.0103836044106,0.001,51.918022053,-5000.0,0.0,0.0,0.0
1513266159560779037,,608217,,1513266157,762366423,'',0.471238898038,0.481622502449,0.00405949920452,0.0103836044106,0.001,51.918022053,-5000.0,0.0,0.0,0.0
1513266159570815396,,608218,,1513266157,772366423,'',0.471238898038,0.481622502449,0.00452536840557,0.0103836044106,0.001,51.918022053,-5000.0,0.0,0.0,0.0
1513266159580769814,,608219,,1513266157,782366423,'',0.471238898038,0.481622502449,0.00375245470234,0.0103836044106,0.001,51.918022053,-5000.0,0.0,0.0,0.0
1513266159590635455,,608220,,1513266157,792366423,'',0.471238898038,0.481622502449,0.00193821473982,0.0103836044106,0.001,51.918022053,-5000.0,0.0,0.0,0.0
1513266159600704370,,608221,,1513266157,802366423,'',0.471238898038,0.4832794606,0.0355754303783,0.0120405625612,0.001,60.2028128061,-5000.0,0.0,0.0,0.0
1513266159610758283,,608222,,1513266157,812366423,'',0.471238898038,0.481622502449,0.00354145798213,0.0103836044106,0.001,51.918022053,-5000.0,0.0,0.0,0.0
1513266159620526948,,608223,,1513266157,822366423,'',0.471238898038,0.479965544298,-0.0311399473431,0.00872664625997,0.001,43.6332312999,-5000.0,0.0,0.0,0.0
1513266159630579978,,608224,,1513266157,832366423,'',0.471238898038,0.481622502449,0.00253279382746,0.0103836044106,0.001,51.918022053,-5000.0,0.0,0.0,0.0
1513266159640465483,,608225,,1513266157,842366423,'',0.471238898038,0.481622502449,0.00388620735682,0.0103836044106,0.001,51.918022053,-5000.0,0.0,0.0,0.0
1513266159650354709,,608226,,1513266157,852366423,'',0.471238898038,0.481622502449,0.0037793185624,0.0103836044106,0.001,51.918022053,-5000.0,0.0,0.0,0.0
1513266159660375685,,608227,,1513266157,862366423,'',0.471238898038,0.479965544298,-0.0302742850782,0.00872664625997,0.001,43.6332312999,-5000.0,0.0,0.0,0.0
1513266159670732517,,608228,,1513266157,872366423,'',0.471238898038,0.479965544298,-0.0289071794631,0.00872664625997,0.001,43.6332312999,-5000.0,0.0,0.0,0.0
1513266159680773789,,608229,,1513266157,882366423,'',0.471238898038,0.481622502449,0.00434479308506,0.0103836044106,0.001,51.918022053,-5000.0,0.0,0.0,0.0
1513266159690788816,,608230,,1513266157,892366423,'',0.471238898038,0.481622502449,0.00347849447255,0.0103836044106,0.001,51.918022053,-5000.0,0.0,0.0,0.0
1513266159700738589,,608231,,1513266157,902366423,'',0.471238898038,0.481622502449,0.00397970818624,0.0103836044106,0.001,51.918022053,-5000.0,0.0,0.0,0.0
1513266159710815658,,608232,,1513266157,912366423,'',0.471238898038,0.479965544298,-0.0277386301996,0.00872664625997,0.001,43.6332312999,-5000.0,0.0,0.0,0.0
1513266159720715036,,608233,,1513266157,922366423,'',0.471238898038,0.479965544298,-0.026292433926,0.00872664625997,0.001,43.6332312999,-5000.0,0.0,0.0,0.0
1513266159730731824,,608234,,1513266157,932366423,'',0.471238898038,0.479965544298,-0.0270045871291,0.00872664625997,0.001,43.6332312999,-5000.0,0.0,0.0,0.0
1513266159740678004,,608235,,1513266157,942366423,'',0.471238898038,0.479965544298,-0.0280734248402,0.00872664625997,0.001,43.6332312999,-5000.0,0.0,0.0,0.0
1513266159750657784,,608236,,1513266157,952366423,'',0.471238898038,0.4832794606,0.0384190943496,0.0120405625612,0.001,60.2028128061,-5000.0,0.0,0.0,0.0
1513266159760652333,,608237,,1513266157,962366423,'',0.471238898038,0.481622502449,0.0041235857399,0.0103836044106,0.001,51.918022053,-5000.0,0.0,0.0,0.0
1513266159770757375,,608238,,1513266157,972366423,'',0.471238898038,0.4832794606,0.035563308788,0.0120405625612,0.001,60.2028128061,-5000.0,0.0,0.0,0.0
1513266159780614261,,608239,,1513266157,982366423,'',0.471238898038,0.479965544298,-0.0305137368686,0.00872664625997,0.001,43.6332312999,-5000.0,0.0,0.0,0.0
1513266159790453735,,608240,,1513266157,992366423,'',0.471238898038,0.481622502449,0.00247629135828,0.0103836044106,0.001,51.918022053,-5000.0,0.0,0.0,0.0
1513266159800420339,,608241,,1513266158,2366423,'',0.471238898038,0.479965544298,-0.0302275643013,0.00872664625997,0.001,43.6332312999,-5000.0,0.0,0.0,0.0
1513266159810359570,,608242,,1513266158,12366423,'',0.471238898038,0.479965544298,-0.0296710764258,0.00872664625997,0.001,43.6332312999,-5000.0,0.0,0.0,0.0
1513266159820766338,,608243,,1513266158,22366423,'',0.471238898038,0.481622502449,0.00545140518273,0.0103836044106,0.001,51.918022053,-5000.0,0.0,0.0,0.0
1513266159830867237,,608244,,1513266158,32366423,'',0.471238898038,0.481622502449,0.00457673259459,0.0103836044106,0.001,51.918022053,-5000.0,0.0,0.0,0.0
1513266159840827243,,608245,,1513266158,42366423,'',0.471238898038,0.479965544298,-0.0278549953349,0.00872664625997,0.001,43.6332312999,-5000.0,0.0,0.0,0.0
1513266159850785926,,608246,,1513266158,52366423,'',0.471238898038,0.481622502449,0.0059307115306,0.0103836044106,0.001,51.918022053,-5000.0,0.0,0.0,0.0
1513266159860796999,,608247,,1513266158,62366423,'',0.471238898038,0.479965544298,-0.0243714253353,0.00872664625997,0.001,43.6332312999,-5000.0,0.0,0.0,0.0
1513266159870715446,,608248,,1513266158,72366423,'',0.471238898038,0.479965544298,-0.0241208248603,0.00872664625997,0.001,43.6332312999,-5000.0,0.0,0.0,0.0
1513266159880734621,,608249,,1513266158,82366423,'',0.471238898038,0.481622502449,0.00826608452231,0.0103836044106,0.001,51.918022053,-5000.0,0.0,0.0,0.0
1513266159890576481,,608250,,1513266158,92366423,'',0.471238898038,0.479965544298,-0.0254144089574,0.00872664625997,0.001,43.6332312999,-5000.0,0.0,0.0,0.0
1513266159900510927,,608251,,1513266158,102366423,'',0.471238898038,0.481622502449,0.00832513798912,0.0103836044106,0.001,51.918022053,-5000.0,0.0,0.0,0.0
1513266159910331776,,608252,,1513266158,112366423,'',0.471238898038,0.481622502449,0.00800618470556,0.0103836044106,0.001,51.918022053,-5000.0,0.0,0.0,0.0
1513266159920713356,,608253,,1513266158,122366423,'',0.471238898038,0.481622502449,0.00889286551021,0.0103836044106,0.001,51.918022053,-5000.0,0.0,0.0,0.0
1513266159930746871,,608254,,1513266158,132366423,'',0.471238898038,0.481622502449,0.00861297835194,0.0103836044106,0.001,51.918022053,-5000.0,0.0,0.0,0.0
1513266159940704317,,608255,,1513266158,142366423,'',0.471238898038,0.479965544298,-0.0257659858003,0.00872664625997,0.001,43.6332312999,-5000.0,0.0,0.0,0.0
1513266159950578527,,608256,,1513266158,152366423,'',0.471238898038,0.479965544298,-0.0264639234163,0.00872664625997,0.001,43.6332312999,-5000.0,0.0,0.0,0.0
1513266159960650604,,608257,,1513266158,162366423,'',0.471238898038,0.481622502449,0.0075272530202,0.0103836044106,0.001,51.918022053,-5000.0,0.0,0.0,0.0
1513266159970410144,,608258,,1513266158,172366423,'',0.471238898038,0.4832794606,0.0389399080743,0.0120405625612,0.001,60.2028128061,-5000.0,0.0,0.0,0.0
1513266159980357805,,608259,,1513266158,182366423,'',0.471238898038,0.481622502449,0.00506351688647,0.0103836044106,0.001,51.918022053,-5000.0,0.0,0.0,0.0
1513266159990749701,,608260,,1513266158,192366423,'',0.471238898038,0.481622502449,0.00344409133655,0.0103836044106,0.001,51.918022053,-5000.0,0.0,0.0,0.0
1513266160000546195,,608261,,1513266158,202366423,'',0.471238898038,0.479965544298,-0.0270508525023,0.00872664625997,0.001,43.6332312999,-5000.0,0.0,0.0,0.0
1513266160010546742,,608262,,1513266158,212366423,'',0.471238898038,0.481622502449,0.00647613430527,0.0103836044106,0.001,51.918022053,-5000.0,0.0,0.0,0.0
1513266160020711803,,608263,,1513266158,222366423,'',0.471238898038,0.481622502449,0.00588415245743,0.0103836044106,0.001,51.918022053,-5000.0,0.0,0.0,0.0
1513266160030528872,,608264,,1513266158,232366423,'',0.471238898038,0.481622502449,0.00603509589327,0.0103836044106,0.001,51.918022053,-5000.0,0.0,0.0,0.0
1513266160040299796,,608265,,1513266158,242366423,'',0.471238898038,0.481622502449,0.00611021769516,0.0103836044106,0.001,51.918022053,-5000.0,0.0,0.0,0.0
1513266160050820719,,608266,,1513266158,252366423,'',0.471238898038,0.479965544298,-0.0271848618057,0.00872664625997,0.001,43.6332312999,-5000.0,0.0,0.0,0.0
1513266160060744357,,608267,,1513266158,262366423,'',0.471238898038,0.479965544298,-0.0263631974877,0.00872664625997,0.001,43.6332312999,-5000.0,0.0,0.0,0.0
1513266160070646230,,608268,,1513266158,272366423,'',0.471238898038,0.481622502449,0.0063746204313,0.0103836044106,0.001,51.918022053,-5000.0,0.0,0.0,0.0
1513266160080579502,,608269,,1513266158,282366423,'',0.471238898038,0.481622502449,0.00638517093723,0.0103836044106,0.001,51.918022053,-5000.0,0.0,0.0,0.0
1513266160090617230,,608270,,1513266158,292366423,'',0.471238898038,0.481622502449,0.00516584949273,0.0103836044106,0.001,51.918022053,-5000.0,0.0,0.0,0.0
1513266160100575290,,608271,,1513266158,302366423,'',0.471238898038,0.481622502449,0.00539343680232,0.0103836044106,0.001,51.918022053,-5000.0,0.0,0.0,0.0
1513266160110679083,,608272,,1513266158,312366423,'',0.471238898038,0.479965544298,-0.0283468440597,0.00872664625997,0.001,43.6332312999,-5000.0,0.0,0.0,0.0
1513266160120712864,,608273,,1513266158,322366423,'',0.471238898038,0.481622502449,0.00423213939129,0.0103836044106,0.001,51.918022053,-5000.0,0.0,0.0,0.0
1513266160130643341,,608274,,1513266158,332366423,'',0.471238898038,0.479965544298,-0.027015828593,0.00872664625997,0.001,43.6332312999,-5000.0,0.0,0.0,0.0
1513266160140679862,,608275,,1513266158,342366423,'',0.471238898038,0.479965544298,-0.0245037802958,0.00872664625997,0.001,43.6332312999,-5000.0,0.0,0.0,0.0
1513266160150615479,,608276,,1513266158,352366423,'',0.471238898038,0.479965544298,-0.0229801154672,0.00872664625997,0.001,43.6332312999,-5000.0,0.0,0.0,0.0
1513266160160638387,,608277,,1513266158,362366423,'',0.471238898038,0.481622502449,0.0110386049334,0.0103836044106,0.001,51.918022053,-5000.0,0.0,0.0,0.0
1513266160170705734,,608278,,1513266158,372366423,'',0.471238898038,0.479965544298,-0.0225404067605,0.00872664625997,0.001,43.6332312999,-5000.0,0.0,0.0,0.0
1513266160180732034,,608279,,1513266158,382366423,'',0.471238898038,0.481622502449,0.0100918035052,0.0103836044106,0.001,51.918022053,-5000.0,0.0,0.0,0.0
1513266160190552141,,608280,,1513266158,392366423,'',0.471238898038,0.481622502449,0.0093771673534,0.0103836044106,0.001,51.918022053,-5000.0,0.0,0.0,0.0
1513266160200448130,,608281,,1513266158,402366423,'',0.471238898038,0.481622502449,0.00938395392984,0.0103836044106,0.001,51.918022053,-5000.0,0.0,0.0,0.0
1513266160210946257,,608282,,1513266158,412366423,'',0.471238898038,0.479965544298,-0.0255940465645,0.00872664625997,0.001,43.6332312999,-5000.0,0.0,0.0,0.0
1513266160220817440,,608283,,1513266158,422366423,'',0.471238898038,0.481622502449,0.0070639394263,0.0103836044106,0.001,51.918022053,-5000.0,0.0,0.0,0.0
1513266160230747381,,608284,,1513266158,432366423,'',0.471238898038,0.481622502449,0.0064344896568,0.0103836044106,0.001,51.918022053,-5000.0,0.0,0.0,0.0
1513266160240533994,,608285,,1513266158,442366423,'',0.471238898038,0.4832794606,0.039361272912,0.0120405625612,0.001,60.2028128061,-5000.0,0.0,0.0,0.0
1513266160250342991,,608286,,1513266158,452366423,'',0.471238898038,0.479965544298,-0.026190996281,0.00872664625997,0.001,43.6332312999,-5000.0,0.0,0.0,0.0
1513266160260399219,,608287,,1513266158,462366423,'',0.471238898038,0.479965544298,-0.0262330697302,0.00872664625997,0.001,43.6332312999,-5000.0,0.0,0.0,0.0
1513266160270744852,,608288,,1513266158,472366423,'',0.471238898038,0.481622502449,0.00705990253302,0.0103836044106,0.001,51.918022053,-5000.0,0.0,0.0,0.0
1513266160280738865,,608289,,1513266158,482366423,'',0.471238898038,0.481622502449,0.00574141220504,0.0103836044106,0.001,51.918022053,-5000.0,0.0,0.0,0.0
1513266160290686456,,608290,,1513266158,492366423,'',0.471238898038,0.481622502449,0.00580353990229,0.0103836044106,0.001,51.918022053,-5000.0,0.0,0.0,0.0
1513266160300732007,,608291,,1513266158,502366423,'',0.471238898038,0.481622502449,0.00603705615848,0.0103836044106,0.001,51.918022053,-5000.0,0.0,0.0,0.0
1513266160310713348,,608292,,1513266158,512366423,'',0.471238898038,0.479965544298,-0.0253812198334,0.00872664625997,0.001,43.6332312999,-5000.0,0.0,0.0,0.0
1513266160320595032,,608293,,1513266158,522366423,'',0.471238898038,0.481622502449,0.00909634058327,0.0103836044106,0.001,51.918022053,-5000.0,0.0,0.0,0.0
1513266160330555904,,608294,,1513266158,532366423,'',0.471238898038,0.481622502449,0.00928790504243,0.0103836044106,0.001,51.918022053,-5000.0,0.0,0.0,0.0
1513266160340470077,,608295,,1513266158,542366423,'',0.471238898038,0.481622502449,0.00825597146071,0.0103836044106,0.001,51.918022053,-5000.0,0.0,0.0,0.0
1513266160350792154,,608296,,1513266158,552366423,'',0.471238898038,0.481622502449,0.00912054965241,0.0103836044106,0.001,51.918022053,-5000.0,0.0,0.0,0.0
1513266160360789196,,608297,,1513266158,562366423,'',0.471238898038,0.479965544298,-0.0218477573852,0.00872664625997,0.001,43.6332312999,-5000.0,0.0,0.0,0.0
1513266160370696026,,608298,,1513266158,572366423,'',0.471238898038,0.479965544298,-0.0208051358497,0.00872664625997,0.001,43.6332312999,-5000.0,0.0,0.0,0.0
1513266160380587580,,608299,,1513266158,582366423,'',0.471238898038,0.481622502449,0.0115196895049,0.0103836044106,0.001,51.918022053,-5000.0,0.0,0.0,0.0
1513266160390521661,,608300,,1513266158,592366423,'',0.471238898038,0.479965544298,-0.020375821316,0.00872664625997,0.001,43.6332312999,-5000.0,0.0,0.0,0.0
1513266160400420979,,608301,,1513266158,602366423,'',0.471238898038,0.481622502449,0.0130732417394,0.0103836044106,0.001,51.918022053,-5000.0,0.0,0.0,0.0
1513266160411063551,,608302,,1513266158,612366423,'',0.471238898038,0.479965544298,-0.0203314918465,0.00872664625997,0.001,43.6332312999,-5000.0,0.0,0.0,0.0
1513266160420368437,,608303,,1513266158,622366423,'',0.471238898038,0.479965544298,-0.0191170805393,0.00872664625997,0.001,43.6332312999,-5000.0,0.0,0.0,0.0
1513266160430388203,,608304,,1513266158,632366423,'',0.471238898038,0.481622502449,0.0147943582979,0.0103836044106,0.001,51.918022053,-5000.0,0.0,0.0,0.0
1513266160440349196,,608305,,1513266158,642366423,'',0.471238898038,0.481622502449,0.0157567700679,0.0103836044106,0.001,51.918022053,-5000.0,0.0,0.0,0.0
1513266160450829809,,608306,,1513266158,652366423,'',0.471238898038,0.481622502449,0.0158429643925,0.0103836044106,0.001,51.918022053,-5000.0,0.0,0.0,0.0
1513266160460872740,,608307,,1513266158,662366423,'',0.471238898038,0.479965544298,-0.0174992447903,0.00872664625997,0.001,43.6332312999,-5000.0,0.0,0.0,0.0
1513266160470771192,,608308,,1513266158,672366423,'',0.471238898038,0.479965544298,-0.0161323253724,0.00872664625997,0.001,43.6332312999,-5000.0,0.0,0.0,0.0
1513266160480777605,,608309,,1513266158,682366423,'',0.471238898038,0.479965544298,-0.0150570470179,0.00872664625997,0.001,43.6332312999,-5000.0,0.0,0.0,0.0
1513266160490778433,,608310,,1513266158,692366423,'',0.471238898038,0.481622502449,0.017566891642,0.0103836044106,0.001,51.918022053,-5000.0,0.0,0.0,0.0
1513266160500819184,,608311,,1513266158,702366423,'',0.471238898038,0.481622502449,0.0179394929391,0.0103836044106,0.001,51.918022053,-5000.0,0.0,0.0,0.0
1513266160510650429,,608312,,1513266158,712366423,'',0.471238898038,0.479965544298,-0.0132627878348,0.00872664625997,0.001,43.6332312999,-5000.0,0.0,0.0,0.0
1513266160523575466,,608313,,1513266158,722366423,'',0.471238898038,0.479965544298,-0.010795177257,0.00872664625997,0.001,43.6332312999,-5000.0,0.0,0.0,0.0
1513266160530453133,,608314,,1513266158,732366423,'',0.471238898038,0.479965544298,-0.0100644362441,0.00872664625997,0.001,43.6332312999,-5000.0,0.0,0.0,0.0
1513266160541018091,,608315,,1513266158,742366423,'',0.471238898038,0.481622502449,0.0234388563934,0.0103836044106,0.001,51.918022053,-5000.0,0.0,0.0,0.0
1513266160550864679,,608316,,1513266158,752366423,'',0.471238898038,0.479965544298,-0.0100661915244,0.00872664625997,0.001,43.6332312999,-5000.0,0.0,0.0,0.0
1513266160560756010,,608317,,1513266158,762366423,'',0.471238898038,0.481622502449,0.0221283730578,0.0103836044106,0.001,51.918022053,-5000.0,0.0,0.0,0.0
1513266160570904784,,608318,,1513266158,772366423,'',0.471238898038,0.479965544298,-0.0111010511586,0.00872664625997,0.001,43.6332312999,-5000.0,0.0,0.0,0.0
1513266160580704999,,608319,,1513266158,782366423,'',0.471238898038,0.481622502449,0.0236863102046,0.0103836044106,0.001,51.918022053,-5000.0,0.0,0.0,0.0
1513266160590722028,,608320,,1513266158,792366423,'',0.471238898038,0.479965544298,-0.00681490991959,0.00872664625997,0.001,43.6332312999,-5000.0,0.0,0.0,0.0
1513266160600569143,,608321,,1513266158,802366423,'',0.471238898038,0.479965544298,-0.00619713022544,0.00872664625997,0.001,43.6332312999,-5000.0,0.0,0.0,0.0
1513266160610532562,,608322,,1513266158,812366423,'',0.471238898038,0.479965544298,-0.00687154761357,0.00872664625997,0.001,43.6332312999,-5000.0,0.0,0.0,0.0
1513266160620547729,,608323,,1513266158,822366423,'',0.471238898038,0.481622502449,0.0253741532627,0.0103836044106,0.001,51.918022053,-5000.0,0.0,0.0,0.0
1513266160630600452,,608324,,1513266158,832366423,'',0.471238898038,0.479965544298,-0.00840637400727,0.00872664625997,0.001,43.6332312999,-5000.0,0.0,0.0,0.0
1513266160640495351,,608325,,1513266158,842366423,'',0.471238898038,0.479965544298,-0.00688131126127,0.00872664625997,0.001,43.6332312999,-5000.0,0.0,0.0,0.0
1513266160650357110,,608326,,1513266158,852366423,'',0.471238898038,0.481622502449,0.0272388644454,0.0103836044106,0.001,51.918022053,-5000.0,0.0,0.0,0.0
1513266160660412427,,608327,,1513266158,862366423,'',0.471238898038,0.479965544298,-0.00752162477761,0.00872664625997,0.001,43.6332312999,-5000.0,0.0,0.0,0.0
1513266160670851259,,608328,,1513266158,872366423,'',0.471238898038,0.479965544298,-0.00852663442386,0.00872664625997,0.001,43.6332312999,-5000.0,0.0,0.0,0.0
1513266160680871566,,608329,,1513266158,882366423,'',0.471238898038,0.481622502449,0.0240541412571,0.0103836044106,0.001,51.918022053,-5000.0,0.0,0.0,0.0
1513266160690801237,,608330,,1513266158,892366423,'',0.471238898038,0.479965544298,-0.00845974316665,0.00872664625997,0.001,43.6332312999,-5000.0,0.0,0.0,0.0
1513266160700639977,,608331,,1513266158,902366423,'',0.471238898038,0.479965544298,-0.008164444096,0.00872664625997,0.001,43.6332312999,-5000.0,0.0,0.0,0.0
1513266160710573668,,608332,,1513266158,912366423,'',0.471238898038,0.481622502449,0.026125580232,0.0103836044106,0.001,51.918022053,-5000.0,0.0,0.0,0.0
1513266160720599275,,608333,,1513266158,922366423,'',0.471238898038,0.479965544298,-0.0065693522345,0.00872664625997,0.001,43.6332312999,-5000.0,0.0,0.0,0.0
1513266160730453663,,608334,,1513266158,932366423,'',0.471238898038,0.478308586148,-0.0399792467993,0.00706968810934,0.001,35.3484405467,-5000.0,0.0,0.0,0.0
1513266160740421402,,608335,,1513266158,942366423,'',0.471238898038,0.481622502449,0.0274631509312,0.0103836044106,0.001,51.918022053,-5000.0,0.0,0.0,0.0
1513266160750841651,,608336,,1513266158,952366423,'',0.471238898038,0.4832794606,0.0583980967358,0.0120405625612,0.001,60.2028128061,-5000.0,0.0,0.0,0.0
1513266160760766885,,608337,,1513266158,962366423,'',0.471238898038,0.479965544298,-0.00939834233986,0.00872664625997,0.001,43.6332312999,-5000.0,0.0,0.0,0.0
1513266160770775136,,608338,,1513266158,972366423,'',0.471238898038,0.479965544298,-0.0101294056135,0.00872664625997,0.001,43.6332312999,-5000.0,0.0,0.0,0.0
1513266160780615273,,608339,,1513266158,982366423,'',0.471238898038,0.479965544298,-0.00954696225532,0.00872664625997,0.001,43.6332312999,-5000.0,0.0,0.0,0.0
1513266160790670402,,608340,,1513266158,992366423,'',0.471238898038,0.479965544298,-0.0102324878429,0.00872664625997,0.001,43.6332312999,-5000.0,0.0,0.0,0.0
1513266160800528814,,608341,,1513266159,2366423,'',0.471238898038,0.481622502449,0.0220293958723,0.0103836044106,0.001,51.918022053,-5000.0,0.0,0.0,0.0
1513266160810483755,,608342,,1513266159,12366423,'',0.471238898038,0.479965544298,-0.0111592150136,0.00872664625997,0.001,43.6332312999,-5000.0,0.0,0.0,0.0
1513266160820892387,,608343,,1513266159,22366423,'',0.471238898038,0.479965544298,-0.0102504475026,0.00872664625997,0.001,43.6332312999,-5000.0,0.0,0.0,0.0
1513266160830790498,,608344,,1513266159,32366423,'',0.471238898038,0.479965544298,-0.0101462412855,0.00872664625997,0.001,43.6332312999,-5000.0,0.0,0.0,0.0
1513266160840790758,,608345,,1513266159,42366423,'',0.471238898038,0.479965544298,-0.0107304577699,0.00872664625997,0.001,43.6332312999,-5000.0,0.0,0.0,0.0
1513266160850745417,,608346,,1513266159,52366423,'',0.471238898038,0.479965544298,-0.0093650476621,0.00872664625997,0.001,43.6332312999,-5000.0,0.0,0.0,0.0
1513266160860616115,,608347,,1513266159,62366423,'',0.471238898038,0.481622502449,0.0228461052076,0.0103836044106,0.001,51.918022053,-5000.0,0.0,0.0,0.0
1513266160870687380,,608348,,1513266159,72366423,'',0.471238898038,0.481622502449,0.0216516049873,0.0103836044106,0.001,51.918022053,-5000.0,0.0,0.0,0.0
1513266160880750773,,608349,,1513266159,82366423,'',0.471238898038,0.481622502449,0.0200671216202,0.0103836044106,0.001,51.918022053,-5000.0,0.0,0.0,0.0
1513266160890668716,,608350,,1513266159,92366423,'',0.471238898038,0.479965544298,-0.0122784243231,0.00872664625997,0.001,43.6332312999,-5000.0,0.0,0.0,0.0
1513266160900649813,,608351,,1513266159,102366423,'',0.471238898038,0.481622502449,0.0208811374125,0.0103836044106,0.001,51.918022053,-5000.0,0.0,0.0,0.0
1513266160910577178,,608352,,1513266159,112366423,'',0.471238898038,0.481622502449,0.0196048652111,0.0103836044106,0.001,51.918022053,-5000.0,0.0,0.0,0.0
1513266160920596772,,608353,,1513266159,122366423,'',0.471238898038,0.479965544298,-0.0149143509452,0.00872664625997,0.001,43.6332312999,-5000.0,0.0,0.0,0.0
1513266160930512106,,608354,,1513266159,132366423,'',0.471238898038,0.479965544298,-0.0163659834236,0.00872664625997,0.001,43.6332312999,-5000.0,0.0,0.0,0.0
1513266160940802033,,608355,,1513266159,142366423,'',0.471238898038,0.479965544298,-0.0157362327559,0.00872664625997,0.001,43.6332312999,-5000.0,0.0,0.0,0.0
1513266160950392615,,608356,,1513266159,152366423,'',0.471238898038,0.479965544298,-0.0158717536587,0.00872664625997,0.001,43.6332312999,-5000.0,0.0,0.0,0.0
1513266160960575266,,608357,,1513266159,162366423,'',0.471238898038,0.481622502449,0.0179998164323,0.0103836044106,0.001,51.918022053,-5000.0,0.0,0.0,0.0
1513266160970797512,,608358,,1513266159,172366423,'',0.471238898038,0.481622502449,0.0165559016324,0.0103836044106,0.001,51.918022053,-5000.0,0.0,0.0,0.0
1513266160980816717,,608359,,1513266159,182366423,'',0.471238898038,0.479965544298,-0.0150486745986,0.00872664625997,0.001,43.6332312999,-5000.0,0.0,0.0,0.0
1513266160990764244,,608360,,1513266159,192366423,'',0.471238898038,0.479965544298,-0.013555246006,0.00872664625997,0.001,43.6332312999,-5000.0,0.0,0.0,0.0
1513266161000624627,,608361,,1513266159,202366423,'',0.471238898038,0.479965544298,-0.0122478962406,0.00872664625997,0.001,43.6332312999,-5000.0,0.0,0.0,0.0
1513266161010519829,,608362,,1513266159,212366423,'',0.471238898038,0.479965544298,-0.0129987910947,0.00872664625997,0.001,43.6332312999,-5000.0,0.0,0.0,0.0
1513266161020533920,,608363,,1513266159,222366423,'',0.471238898038,0.481622502449,0.0192173776624,0.0103836044106,0.001,51.918022053,-5000.0,0.0,0.0,0.0
1513266161030425036,,608364,,1513266159,232366423,'',0.471238898038,0.481622502449,0.0193892761598,0.0103836044106,0.001,51.918022053,-5000.0,0.0,0.0,0.0
1513266161040894937,,608365,,1513266159,242366423,'',0.471238898038,0.481622502449,0.0195565591527,0.0103836044106,0.001,51.918022053,-5000.0,0.0,0.0,0.0
1513266161050889166,,608366,,1513266159,252366423,'',0.471238898038,0.481622502449,0.0196467454468,0.0103836044106,0.001,51.918022053,-5000.0,0.0,0.0,0.0
1513266161060823737,,608367,,1513266159,262366423,'',0.471238898038,0.479965544298,-0.0138061481262,0.00872664625997,0.001,43.6332312999,-5000.0,0.0,0.0,0.0
1513266161070703894,,608368,,1513266159,272366423,'',0.471238898038,0.481622502449,0.0190283338088,0.0103836044106,0.001,51.918022053,-5000.0,0.0,0.0,0.0
1513266161080827641,,608369,,1513266159,282366423,'',0.471238898038,0.479965544298,-0.0136278161923,0.00872664625997,0.001,43.6332312999,-5000.0,0.0,0.0,0.0
1513266161090805959,,608370,,1513266159,292366423,'',0.471238898038,0.479965544298,-0.0123441096466,0.00872664625997,0.001,43.6332312999,-5000.0,0.0,0.0,0.0
1513266161100713747,,608371,,1513266159,302366423,'',0.471238898038,0.479965544298,-0.0118528184023,0.00872664625997,0.001,43.6332312999,-5000.0,0.0,0.0,0.0
1513266161110682525,,608372,,1513266159,312366423,'',0.471238898038,0.479965544298,-0.008432017325,0.00872664625997,0.001,43.6332312999,-5000.0,0.0,0.0,0.0
1513266161120888846,,608373,,1513266159,322366423,'',0.471238898038,0.478308586148,-0.0420584166264,0.00706968810934,0.001,35.3484405467,-5000.0,0.0,0.0,0.0
1513266161130577416,,608374,,1513266159,332366423,'',0.471238898038,0.479965544298,-0.00823261490995,0.00872664625997,0.001,43.6332312999,-5000.0,0.0,0.0,0.0
1513266161140460095,,608375,,1513266159,342366423,'',0.471238898038,0.481622502449,0.0236290533845,0.0103836044106,0.001,51.918022053,-5000.0,0.0,0.0,0.0
1513266161150707115,,608376,,1513266159,352366423,'',0.471238898038,0.479965544298,-0.00807719143788,0.00872664625997,0.001,43.6332312999,-5000.0,0.0,0.0,0.0
1513266161160766796,,608377,,1513266159,362366423,'',0.471238898038,0.479965544298,-0.00963604076554,0.00872664625997,0.001,43.6332312999,-5000.0,0.0,0.0,0.0
1513266161170604741,,608378,,1513266159,372366423,'',0.471238898038,0.479965544298,-0.0102463628647,0.00872664625997,0.001,43.6332312999,-5000.0,0.0,0.0,0.0
1513266161180688052,,608379,,1513266159,382366423,'',0.471238898038,0.479965544298,-0.0101707803216,0.00872664625997,0.001,43.6332312999,-5000.0,0.0,0.0,0.0
1513266161190568260,,608380,,1513266159,392366423,'',0.471238898038,0.479965544298,-0.0113146271053,0.00872664625997,0.001,43.6332312999,-5000.0,0.0,0.0,0.0
1513266161200539419,,608381,,1513266159,402366423,'',0.471238898038,0.479965544298,-0.0117081267437,0.00872664625997,0.001,43.6332312999,-5000.0,0.0,0.0,0.0
1513266161210389460,,608382,,1513266159,412366423,'',0.471238898038,0.479965544298,-0.0125017592626,0.00872664625997,0.001,43.6332312999,-5000.0,0.0,0.0,0.0
1513266161220903885,,608383,,1513266159,422366423,'',0.471238898038,0.481622502449,0.0201031842434,0.0103836044106,0.001,51.918022053,-5000.0,0.0,0.0,0.0
1513266161230842964,,608384,,1513266159,432366423,'',0.471238898038,0.479965544298,-0.0133515810811,0.00872664625997,0.001,43.6332312999,-5000.0,0.0,0.0,0.0
1513266161240837642,,608385,,1513266159,442366423,'',0.471238898038,0.479965544298,-0.0127131998344,0.00872664625997,0.001,43.6332312999,-5000.0,0.0,0.0,0.0
1513266161250793329,,608386,,1513266159,452366423,'',0.471238898038,0.479965544298,-0.015701740647,0.00872664625997,0.001,43.6332312999,-5000.0,0.0,0.0,0.0
1513266161260800219,,608387,,1513266159,462366423,'',0.471238898038,0.479965544298,-0.0152350494643,0.00872664625997,0.001,43.6332312999,-5000.0,0.0,0.0,0.0
1513266161270700616,,608388,,1513266159,472366423,'',0.471238898038,0.479965544298,-0.0143281518955,0.00872664625997,0.001,43.6332312999,-5000.0,0.0,0.0,0.0
1513266161280568601,,608389,,1513266159,482366423,'',0.471238898038,0.479965544298,-0.0159820248027,0.00872664625997,0.001,43.6332312999,-5000.0,0.0,0.0,0.0
1513266161290751599,,608390,,1513266159,492366423,'',0.471238898038,0.479965544298,-0.0160537620169,0.00872664625997,0.001,43.6332312999,-5000.0,0.0,0.0,0.0
1513266161300744459,,608391,,1513266159,502366423,'',0.471238898038,0.479965544298,-0.0150060276577,0.00872664625997,0.001,43.6332312999,-5000.0,0.0,0.0,0.0
1513266161310674057,,608392,,1513266159,512366423,'',0.471238898038,0.479965544298,-0.0148150196719,0.00872664625997,0.001,43.6332312999,-5000.0,0.0,0.0,0.0
1513266161320716909,,608393,,1513266159,522366423,'',0.471238898038,0.479965544298,-0.0157541167426,0.00872664625997,0.001,43.6332312999,-5000.0,0.0,0.0,0.0
1513266161330652745,,608394,,1513266159,532366423,'',0.471238898038,0.479965544298,-0.016574494093,0.00872664625997,0.001,43.6332312999,-5000.0,0.0,0.0,0.0
1513266161340694166,,608395,,1513266159,542366423,'',0.471238898038,0.481622502449,0.0168652686708,0.0103836044106,0.001,51.918022053,-5000.0,0.0,0.0,0.0
1513266161350471737,,608396,,1513266159,552366423,'',0.471238898038,0.481622502449,0.0173474944564,0.0103836044106,0.001,51.918022053,-5000.0,0.0,0.0,0.0
1513266161360915761,,608397,,1513266159,562366423,'',0.471238898038,0.479965544298,-0.0156029672882,0.00872664625997,0.001,43.6332312999,-5000.0,0.0,0.0,0.0
1513266161370386199,,608398,,1513266159,572366423,'',0.471238898038,0.479965544298,-0.0164601581068,0.00872664625997,0.001,43.6332312999,-5000.0,0.0,0.0,0.0
1513266161380732866,,608399,,1513266159,582366423,'',0.471238898038,0.481622502449,0.0169349154855,0.0103836044106,0.001,51.918022053,-5000.0,0.0,0.0,0.0
1513266161390759511,,608400,,1513266159,592366423,'',0.471238898038,0.479965544298,-0.0159560968835,0.00872664625997,0.001,43.6332312999,-5000.0,0.0,0.0,0.0
1513266161400695855,,608401,,1513266159,602366423,'',0.471238898038,0.481622502449,0.0162533727648,0.0103836044106,0.001,51.918022053,-5000.0,0.0,0.0,0.0
1513266161410576387,,608402,,1513266159,612366423,'',0.471238898038,0.481622502449,0.0150424852522,0.0103836044106,0.001,51.918022053,-5000.0,0.0,0.0,0.0
1513266161420549936,,608403,,1513266159,622366423,'',0.471238898038,0.481622502449,0.0141673157881,0.0103836044106,0.001,51.918022053,-5000.0,0.0,0.0,0.0
1513266161430542072,,608404,,1513266159,632366423,'',0.471238898038,0.481622502449,0.01457714718,0.0103836044106,0.001,51.918022053,-5000.0,0.0,0.0,0.0
1513266161441072547,,608405,,1513266159,642366423,'',0.471238898038,0.479965544298,-0.0179941305624,0.00872664625997,0.001,43.6332312999,-5000.0,0.0,0.0,0.0
1513266161450583917,,608406,,1513266159,652366423,'',0.471238898038,0.481622502449,0.0132988398478,0.0103836044106,0.001,51.918022053,-5000.0,0.0,0.0,0.0
1513266161460417523,,608407,,1513266159,662366423,'',0.471238898038,0.481622502449,0.0126837368771,0.0103836044106,0.001,51.918022053,-5000.0,0.0,0.0,0.0
1513266161470915507,,608408,,1513266159,672366423,'',0.471238898038,0.481622502449,0.0126915533459,0.0103836044106,0.001,51.918022053,-5000.0,0.0,0.0,0.0
1513266161480807458,,608409,,1513266159,682366423,'',0.471238898038,0.481622502449,0.0102781175868,0.0103836044106,0.001,51.918022053,-5000.0,0.0,0.0,0.0
1513266161490799340,,608410,,1513266159,692366423,'',0.471238898038,0.481622502449,0.0107883298833,0.0103836044106,0.001,51.918022053,-5000.0,0.0,0.0,0.0
1513266161500758132,,608411,,1513266159,702366423,'',0.471238898038,0.481622502449,0.0117698294411,0.0103836044106,0.001,51.918022053,-5000.0,0.0,0.0,0.0
1513266161510747331,,608412,,1513266159,712366423,'',0.471238898038,0.479965544298,-0.0183849249336,0.00872664625997,0.001,43.6332312999,-5000.0,0.0,0.0,0.0
1513266161520849174,,608413,,1513266159,722366423,'',0.471238898038,0.479965544298,-0.0144010108343,0.00872664625997,0.001,43.6332312999,-5000.0,0.0,0.0,0.0
1513266161530596846,,608414,,1513266159,732366423,'',0.471238898038,0.479965544298,-0.0111888498116,0.00872664625997,0.001,43.6332312999,-5000.0,0.0,0.0,0.0
1513266161540685464,,608415,,1513266159,742366423,'',0.471238898038,0.478308586148,-0.04263008832,0.00706968810934,0.001,35.3484405467,-5000.0,0.0,0.0,0.0
1513266161550561220,,608416,,1513266159,752366423,'',0.471238898038,0.481622502449,0.0252833140589,0.0103836044106,0.001,51.918022053,-5000.0,0.0,0.0,0.0
1513266161560405810,,608417,,1513266159,762366423,'',0.471238898038,0.481622502449,0.0266805934283,0.0103836044106,0.001,51.918022053,-5000.0,0.0,0.0,0.0
1513266161570882928,,608418,,1513266159,772366423,'',0.471238898038,0.478308586148,-0.0365718050642,0.00706968810934,0.001,35.3484405467,-5000.0,0.0,0.0,0.0
1513266161580810901,,608419,,1513266159,782366423,'',0.471238898038,0.479965544298,-0.000768244573339,0.00872664625997,0.001,43.6332312999,-5000.0,0.0,0.0,0.0
1513266161590792355,,608420,,1513266159,792366423,'',0.471238898038,0.479965544298,0.00298198792465,0.00872664625997,0.001,43.6332312999,-5000.0,0.0,0.0,0.0
1513266161600599353,,608421,,1513266159,802366423,'',0.471238898038,0.479965544298,0.0041552265721,0.00872664625997,0.001,43.6332312999,-5000.0,0.0,0.0,0.0
1513266161610440412,,608422,,1513266159,812366423,'',0.471238898038,0.479965544298,0.00637883096478,0.00872664625997,0.001,43.6332312999,-5000.0,0.0,0.0,0.0
1513266161620359224,,608423,,1513266159,822366423,'',0.471238898038,0.478308586148,-0.0239782962798,0.00706968810934,0.001,35.3484405467,-5000.0,0.0,0.0,0.0
1513266161630868819,,608424,,1513266159,832366423,'',0.471238898038,0.479965544298,0.0126296899791,0.00872664625997,0.001,43.6332312999,-5000.0,0.0,0.0,0.0
1513266161640933799,,608425,,1513266159,842366423,'',0.471238898038,0.478308586148,-0.0194447395197,0.00706968810934,0.001,35.3484405467,-5000.0,0.0,0.0,0.0
1513266161650534584,,608426,,1513266159,852366423,'',0.471238898038,0.478308586148,-0.0159835717225,0.00706968810934,0.001,35.3484405467,-5000.0,0.0,0.0,0.0
1513266161660526532,,608427,,1513266159,862366423,'',0.471238898038,0.478308586148,-0.0143684299652,0.00706968810934,0.001,35.3484405467,-5000.0,0.0,0.0,0.0
1513266161670367038,,608428,,1513266159,872366423,'',0.471238898038,0.476651627997,-0.0451275165425,0.00541272995872,0.001,27.0636497936,-5000.0,0.0,0.0,0.0
1513266161680468321,,608429,,1513266159,882366423,'',0.471238898038,0.476651627997,-0.0422498984463,0.00541272995872,0.001,27.0636497936,-5000.0,0.0,0.0,0.0
1513266161690881896,,608430,,1513266159,892366423,'',0.471238898038,0.478308586148,-0.00782533183235,0.00706968810934,0.001,35.3484405467,-5000.0,0.0,0.0,0.0
1513266161700911925,,608431,,1513266159,902366423,'',0.471238898038,0.479965544298,0.0263273273113,0.00872664625997,0.001,43.6332312999,-5000.0,0.0,0.0,0.0
1513266161710843800,,608432,,1513266159,912366423,'',0.471238898038,0.478308586148,-0.00586335716729,0.00706968810934,0.001,35.3484405467,-5000.0,0.0,0.0,0.0
1513266161720837722,,608433,,1513266159,922366423,'',0.471238898038,0.478308586148,-0.00780604585138,0.00706968810934,0.001,35.3484405467,-5000.0,0.0,0.0,0.0
1513266161730564261,,608434,,1513266159,932366423,'',0.471238898038,0.478308586148,-0.00637888706473,0.00706968810934,0.001,35.3484405467,-5000.0,0.0,0.0,0.0
1513266161740495802,,608435,,1513266159,942366423,'',0.471238898038,0.478308586148,-0.00460772377656,0.00706968810934,0.001,35.3484405467,-5000.0,0.0,0.0,0.0
1513266161750548203,,608436,,1513266159,952366423,'',0.471238898038,0.478308586148,-0.00497465441259,0.00706968810934,0.001,35.3484405467,-5000.0,0.0,0.0,0.0
1513266161760538021,,608437,,1513266159,962366423,'',0.471238898038,0.478308586148,-0.00531467936558,0.00706968810934,0.001,35.3484405467,-5000.0,0.0,0.0,0.0
1513266161770454121,,608438,,1513266159,972366423,'',0.471238898038,0.478308586148,-0.00386033347898,0.00706968810934,0.001,35.3484405467,-5000.0,0.0,0.0,0.0
1513266161780880986,,608439,,1513266159,982366423,'',0.471238898038,0.476651627997,-0.0371853068241,0.00541272995872,0.001,27.0636497936,-5000.0,0.0,0.0,0.0
1513266161790708894,,608440,,1513266159,992366423,'',0.471238898038,0.478308586148,-0.00305609658727,0.00706968810934,0.001,35.3484405467,-5000.0,0.0,0.0,0.0
1513266161800805749,,608441,,1513266160,2366423,'',0.471238898038,0.478308586148,-0.00302964239195,0.00706968810934,0.001,35.3484405467,-5000.0,0.0,0.0,0.0
1513266161810693276,,608442,,1513266160,12366423,'',0.471238898038,0.478308586148,-0.00120674459387,0.00706968810934,0.001,35.3484405467,-5000.0,0.0,0.0,0.0
1513266161820593778,,608443,,1513266160,22366423,'',0.471238898038,0.479965544298,0.0306859994746,0.00872664625997,0.001,43.6332312999,-5000.0,0.0,0.0,0.0
1513266161830505375,,608444,,1513266160,32366423,'',0.471238898038,0.478308586148,-0.00472127002769,0.00706968810934,0.001,35.3484405467,-5000.0,0.0,0.0,0.0
1513266161840466005,,608445,,1513266160,42366423,'',0.471238898038,0.476651627997,-0.0353697358412,0.00541272995872,0.001,27.0636497936,-5000.0,0.0,0.0,0.0
1513266161850687873,,608446,,1513266160,52366423,'',0.471238898038,0.478308586148,-0.00225177135017,0.00706968810934,0.001,35.3484405467,-5000.0,0.0,0.0,0.0
1513266161860648144,,608447,,1513266160,62366423,'',0.471238898038,0.478308586148,-0.000707751929444,0.00706968810934,0.001,35.3484405467,-5000.0,0.0,0.0,0.0
1513266161870453503,,608448,,1513266160,72366423,'',0.471238898038,0.476651627997,-0.030938697811,0.00541272995872,0.001,27.0636497936,-5000.0,0.0,0.0,0.0
1513266161880450494,,608449,,1513266160,82366423,'',0.471238898038,0.478308586148,0.00267434773628,0.00706968810934,0.001,35.3484405467,-5000.0,0.0,0.0,0.0
1513266161890406235,,608450,,1513266160,92366423,'',0.471238898038,0.478308586148,0.00277281833314,0.00706968810934,0.001,35.3484405467,-5000.0,0.0,0.0,0.0
1513266161900951421,,608451,,1513266160,102366423,'',0.471238898038,0.478308586148,0.00162387509609,0.00706968810934,0.001,35.3484405467,-5000.0,0.0,0.0,0.0
1513266161910788676,,608452,,1513266160,112366423,'',0.471238898038,0.478308586148,0.00196205435657,0.00706968810934,0.001,35.3484405467,-5000.0,0.0,0.0,0.0
1513266161920600998,,608453,,1513266160,122366423,'',0.471238898038,0.478308586148,0.00165703519288,0.00706968810934,0.001,35.3484405467,-5000.0,0.0,0.0,0.0
1513266161930406131,,608454,,1513266160,132366423,'',0.471238898038,0.478308586148,0.00316373517073,0.00706968810934,0.001,35.3484405467,-5000.0,0.0,0.0,0.0
1513266161940872463,,608455,,1513266160,142366423,'',0.471238898038,0.478308586148,0.00379702532912,0.00706968810934,0.001,35.3484405467,-5000.0,0.0,0.0,0.0
1513266161950812647,,608456,,1513266160,152366423,'',0.471238898038,0.478308586148,0.00301839432183,0.00706968810934,0.001,35.3484405467,-5000.0,0.0,0.0,0.0
1513266161960756637,,608457,,1513266160,162366423,'',0.471238898038,0.478308586148,0.00257326925972,0.00706968810934,0.001,35.3484405467,-5000.0,0.0,0.0,0.0
1513266161970715899,,608458,,1513266160,172366423,'',0.471238898038,0.478308586148,0.0020364527868,0.00706968810934,0.001,35.3484405467,-5000.0,0.0,0.0,0.0
1513266161980744195,,608459,,1513266160,182366423,'',0.471238898038,0.478308586148,0.00225406318417,0.00706968810934,0.001,35.3484405467,-5000.0,0.0,0.0,0.0
1513266161990564457,,608460,,1513266160,192366423,'',0.471238898038,0.478308586148,0.00184513684014,0.00706968810934,0.001,35.3484405467,-5000.0,0.0,0.0,0.0
1513266162000625150,,608461,,1513266160,202366423,'',0.471238898038,0.478308586148,0.000986838993049,0.00706968810934,0.001,35.3484405467,-5000.0,0.0,0.0,0.0
1513266162010473922,,608462,,1513266160,212366423,'',0.471238898038,0.478308586148,-0.000367359550923,0.00706968810934,0.001,35.3484405467,-5000.0,0.0,0.0,0.0
1513266162020502771,,608463,,1513266160,222366423,'',0.471238898038,0.478308586148,0.000260276921794,0.00706968810934,0.001,35.3484405467,-5000.0,0.0,0.0,0.0
1513266162030433911,,608464,,1513266160,232366423,'',0.471238898038,0.478308586148,0.00132121652252,0.00706968810934,0.001,35.3484405467,-5000.0,0.0,0.0,0.0
1513266162040885586,,608465,,1513266160,242366423,'',0.471238898038,0.478308586148,0.00226158502318,0.00706968810934,0.001,35.3484405467,-5000.0,0.0,0.0,0.0
1513266162050943500,,608466,,1513266160,252366423,'',0.471238898038,0.478308586148,0.00182247211257,0.00706968810934,0.001,35.3484405467,-5000.0,0.0,0.0,0.0
1513266162060824029,,608467,,1513266160,262366423,'',0.471238898038,0.479965544298,0.0342446788802,0.00872664625997,0.001,43.6332312999,-5000.0,0.0,0.0,0.0
1513266162070730611,,608468,,1513266160,272366423,'',0.471238898038,0.476651627997,-0.0320945500721,0.00541272995872,0.001,27.0636497936,-5000.0,0.0,0.0,0.0
1513266162080712122,,608469,,1513266160,282366423,'',0.471238898038,0.476651627997,-0.0322422157682,0.00541272995872,0.001,27.0636497936,-5000.0,0.0,0.0,0.0
1513266162090790610,,608470,,1513266160,292366423,'',0.471238898038,0.478308586148,0.000514981050812,0.00706968810934,0.001,35.3484405467,-5000.0,0.0,0.0,0.0
1513266162100830844,,608471,,1513266160,302366423,'',0.471238898038,0.478308586148,0.000449485515322,0.00706968810934,0.001,35.3484405467,-5000.0,0.0,0.0,0.0
1513266162110856901,,608472,,1513266160,312366423,'',0.471238898038,0.479965544298,0.0326157811805,0.00872664625997,0.001,43.6332312999,-5000.0,0.0,0.0,0.0
1513266162120767537,,608473,,1513266160,322366423,'',0.471238898038,0.479965544298,0.0333271626164,0.00872664625997,0.001,43.6332312999,-5000.0,0.0,0.0,0.0
1513266162130576552,,608474,,1513266160,332366423,'',0.471238898038,0.478308586148,-0.000719842423872,0.00706968810934,0.001,35.3484405467,-5000.0,0.0,0.0,0.0
1513266162140729844,,608475,,1513266160,342366423,'',0.471238898038,0.478308586148,0.000651281045007,0.00706968810934,0.001,35.3484405467,-5000.0,0.0,0.0,0.0
1513266162150676352,,608476,,1513266160,352366423,'',0.471238898038,0.476651627997,-0.0316641162024,0.00541272995872,0.001,27.0636497936,-5000.0,0.0,0.0,0.0
1513266162160625240,,608477,,1513266160,362366423,'',0.471238898038,0.478308586148,0.00274391198944,0.00706968810934,0.001,35.3484405467,-5000.0,0.0,0.0,0.0
1513266162170801330,,608478,,1513266160,372366423,'',0.471238898038,0.478308586148,0.00401111774456,0.00706968810934,0.001,35.3484405467,-5000.0,0.0,0.0,0.0
1513266162180749900,,608479,,1513266160,382366423,'',0.471238898038,0.478308586148,0.00207174490432,0.00706968810934,0.001,35.3484405467,-5000.0,0.0,0.0,0.0
1513266162190696849,,608480,,1513266160,392366423,'',0.471238898038,0.478308586148,0.00232476786659,0.00706968810934,0.001,35.3484405467,-5000.0,0.0,0.0,0.0
1513266162200774762,,608481,,1513266160,402366423,'',0.471238898038,0.476651627997,-0.0296504847472,0.00541272995872,0.001,27.0636497936,-5000.0,0.0,0.0,0.0
1513266162210697636,,608482,,1513266160,412366423,'',0.471238898038,0.476651627997,-0.028492265835,0.00541272995872,0.001,27.0636497936,-5000.0,0.0,0.0,0.0
1513266162220625004,,608483,,1513266160,422366423,'',0.471238898038,0.478308586148,0.0064274210441,0.00706968810934,0.001,35.3484405467,-5000.0,0.0,0.0,0.0
1513266162230685297,,608484,,1513266160,432366423,'',0.471238898038,0.479965544298,0.039947481459,0.00872664625997,0.001,43.6332312999,-5000.0,0.0,0.0,0.0
1513266162240640823,,608485,,1513266160,442366423,'',0.471238898038,0.478308586148,0.00414156350047,0.00706968810934,0.001,35.3484405467,-5000.0,0.0,0.0,0.0
1513266162250617665,,608486,,1513266160,452366423,'',0.471238898038,0.478308586148,0.00388467102973,0.00706968810934,0.001,35.3484405467,-5000.0,0.0,0.0,0.0
1513266162260565868,,608487,,1513266160,462366423,'',0.471238898038,0.478308586148,0.00262533718274,0.00706968810934,0.001,35.3484405467,-5000.0,0.0,0.0,0.0
1513266162270550907,,608488,,1513266160,472366423,'',0.471238898038,0.476651627997,-0.0294541961563,0.00541272995872,0.001,27.0636497936,-5000.0,0.0,0.0,0.0
1513266162280620654,,608489,,1513266160,482366423,'',0.471238898038,0.478308586148,0.00329345362597,0.00706968810934,0.001,35.3484405467,-5000.0,0.0,0.0,0.0
1513266162290866909,,608490,,1513266160,492366423,'',0.471238898038,0.476651627997,-0.0295004741989,0.00541272995872,0.001,27.0636497936,-5000.0,0.0,0.0,0.0
1513266162300798544,,608491,,1513266160,502366423,'',0.471238898038,0.478308586148,0.00506840074103,0.00706968810934,0.001,35.3484405467,-5000.0,0.0,0.0,0.0
1513266162310773950,,608492,,1513266160,512366423,'',0.471238898038,0.478308586148,0.00535058073568,0.00706968810934,0.001,35.3484405467,-5000.0,0.0,0.0,0.0
1513266162320701303,,608493,,1513266160,522366423,'',0.471238898038,0.479965544298,0.0365638174362,0.00872664625997,0.001,43.6332312999,-5000.0,0.0,0.0,0.0
1513266162330700759,,608494,,1513266160,532366423,'',0.471238898038,0.476651627997,-0.0315405772747,0.00541272995872,0.001,27.0636497936,-5000.0,0.0,0.0,0.0
1513266162340578874,,608495,,1513266160,542366423,'',0.471238898038,0.478308586148,0.00215945032796,0.00706968810934,0.001,35.3484405467,-5000.0,0.0,0.0,0.0
1513266162350596069,,608496,,1513266160,552366423,'',0.471238898038,0.479965544298,0.0340215746827,0.00872664625997,0.001,43.6332312999,-5000.0,0.0,0.0,0.0
1513266162360486640,,608497,,1513266160,562366423,'',0.471238898038,0.478308586148,0.00230846342919,0.00706968810934,0.001,35.3484405467,-5000.0,0.0,0.0,0.0
1513266162370551063,,608498,,1513266160,572366423,'',0.471238898038,0.476651627997,-0.03209274929,0.00541272995872,0.001,27.0636497936,-5000.0,0.0,0.0,0.0
1513266162380522313,,608499,,1513266160,582366423,'',0.471238898038,0.479965544298,0.0339783370056,0.00872664625997,0.001,43.6332312999,-5000.0,0.0,0.0,0.0
1513266162390871624,,608500,,1513266160,592366423,'',0.471238898038,0.478308586148,-0.00017523702598,0.00706968810934,0.001,35.3484405467,-5000.0,0.0,0.0,0.0
1513266162400720411,,608501,,1513266160,602366423,'',0.471238898038,0.478308586148,0.00234482193444,0.00706968810934,0.001,35.3484405467,-5000.0,0.0,0.0,0.0
1513266162410750604,,608502,,1513266160,612366423,'',0.471238898038,0.478308586148,0.00319381337332,0.00706968810934,0.001,35.3484405467,-5000.0,0.0,0.0,0.0
1513266162420631683,,608503,,1513266160,622366423,'',0.471238898038,0.478308586148,0.0044266141591,0.00706968810934,0.001,35.3484405467,-5000.0,0.0,0.0,0.0
1513266162430509180,,608504,,1513266160,632366423,'',0.471238898038,0.476651627997,-0.0298220322159,0.00541272995872,0.001,27.0636497936,-5000.0,0.0,0.0,0.0
1513266162440563351,,608505,,1513266160,642366423,'',0.471238898038,0.476651627997,-0.0311486317508,0.00541272995872,0.001,27.0636497936,-5000.0,0.0,0.0,0.0
1513266162450523393,,608506,,1513266160,652366423,'',0.471238898038,0.476651627997,-0.029664964312,0.00541272995872,0.001,27.0636497936,-5000.0,0.0,0.0,0.0
1513266162460497664,,608507,,1513266160,662366423,'',0.471238898038,0.478308586148,0.00494427738929,0.00706968810934,0.001,35.3484405467,-5000.0,0.0,0.0,0.0
1513266162470480273,,608508,,1513266160,672366423,'',0.471238898038,0.478308586148,0.00341506539741,0.00706968810934,0.001,35.3484405467,-5000.0,0.0,0.0,0.0
1513266162480595443,,608509,,1513266160,682366423,'',0.471238898038,0.476651627997,-0.0293915657702,0.00541272995872,0.001,27.0636497936,-5000.0,0.0,0.0,0.0
1513266162490857853,,608510,,1513266160,692366423,'',0.471238898038,0.479965544298,0.039082997931,0.00872664625997,0.001,43.6332312999,-5000.0,0.0,0.0,0.0
1513266162500985346,,608511,,1513266160,702366423,'',0.471238898038,0.476651627997,-0.0276439091926,0.00541272995872,0.001,27.0636497936,-5000.0,0.0,0.0,0.0
1513266162510746026,,608512,,1513266160,712366423,'',0.471238898038,0.476651627997,-0.0262865554265,0.00541272995872,0.001,27.0636497936,-5000.0,0.0,0.0,0.0
1513266162520710495,,608513,,1513266160,722366423,'',0.471238898038,0.478308586148,0.00772316793821,0.00706968810934,0.001,35.3484405467,-5000.0,0.0,0.0,0.0
1513266162530606933,,608514,,1513266160,732366423,'',0.471238898038,0.478308586148,0.00748609537129,0.00706968810934,0.001,35.3484405467,-5000.0,0.0,0.0,0.0
1513266162540560108,,608515,,1513266160,742366423,'',0.471238898038,0.476651627997,-0.02533255348,0.00541272995872,0.001,27.0636497936,-5000.0,0.0,0.0,0.0
1513266162550616960,,608516,,1513266160,752366423,'',0.471238898038,0.476651627997,-0.0250316877804,0.00541272995872,0.001,27.0636497936,-5000.0,0.0,0.0,0.0
1513266162560482370,,608517,,1513266160,762366423,'',0.471238898038,0.479965544298,0.039164205397,0.00872664625997,0.001,43.6332312999,-5000.0,0.0,0.0,0.0
1513266162570424209,,608518,,1513266160,772366423,'',0.471238898038,0.478308586148,0.00534381001259,0.00706968810934,0.001,35.3484405467,-5000.0,0.0,0.0,0.0
1513266162580419621,,608519,,1513266160,782366423,'',0.471238898038,0.476651627997,-0.026043948289,0.00541272995872,0.001,27.0636497936,-5000.0,0.0,0.0,0.0
1513266162590882142,,608520,,1513266160,792366423,'',0.471238898038,0.476651627997,-0.0260216131375,0.00541272995872,0.001,27.0636497936,-5000.0,0.0,0.0,0.0
1513266162600807226,,608521,,1513266160,802366423,'',0.471238898038,0.478308586148,0.00733747601579,0.00706968810934,0.001,35.3484405467,-5000.0,0.0,0.0,0.0
1513266162610707501,,608522,,1513266160,812366423,'',0.471238898038,0.478308586148,0.00793611563697,0.00706968810934,0.001,35.3484405467,-5000.0,0.0,0.0,0.0
1513266162620664698,,608523,,1513266160,822366423,'',0.471238898038,0.478308586148,0.00886183141535,0.00706968810934,0.001,35.3484405467,-5000.0,0.0,0.0,0.0
1513266162630673061,,608524,,1513266160,832366423,'',0.471238898038,0.478308586148,0.00776580250887,0.00706968810934,0.001,35.3484405467,-5000.0,0.0,0.0,0.0
1513266162640570814,,608525,,1513266160,842366423,'',0.471238898038,0.476651627997,-0.0252087477108,0.00541272995872,0.001,27.0636497936,-5000.0,0.0,0.0,0.0
1513266162650589163,,608526,,1513266160,852366423,'',0.471238898038,0.478308586148,0.00667465553187,0.00706968810934,0.001,35.3484405467,-5000.0,0.0,0.0,0.0
1513266162660764203,,608527,,1513266160,862366423,'',0.471238898038,0.478308586148,0.00675731038005,0.00706968810934,0.001,35.3484405467,-5000.0,0.0,0.0,0.0
1513266162670407372,,608528,,1513266160,872366423,'',0.471238898038,0.478308586148,0.00602740011554,0.00706968810934,0.001,35.3484405467,-5000.0,0.0,0.0,0.0
1513266162680451728,,608529,,1513266160,882366423,'',0.471238898038,0.478308586148,0.0072569411372,0.00706968810934,0.001,35.3484405467,-5000.0,0.0,0.0,0.0
1513266162690399425,,608530,,1513266160,892366423,'',0.471238898038,0.478308586148,0.00712243643576,0.00706968810934,0.001,35.3484405467,-5000.0,0.0,0.0,0.0
1513266162700452687,,608531,,1513266160,902366423,'',0.471238898038,0.476651627997,-0.0250575517514,0.00541272995872,0.001,27.0636497936,-5000.0,0.0,0.0,0.0
1513266162710872602,,608532,,1513266160,912366423,'',0.471238898038,0.476651627997,-0.0234307980187,0.00541272995872,0.001,27.0636497936,-5000.0,0.0,0.0,0.0
1513266162720816664,,608533,,1513266160,922366423,'',0.471238898038,0.478308586148,0.0107168709472,0.00706968810934,0.001,35.3484405467,-5000.0,0.0,0.0,0.0
1513266162730826314,,608534,,1513266160,932366423,'',0.471238898038,0.478308586148,0.00878034411325,0.00706968810934,0.001,35.3484405467,-5000.0,0.0,0.0,0.0
1513266162740769023,,608535,,1513266160,942366423,'',0.471238898038,0.478308586148,0.0101094084663,0.00706968810934,0.001,35.3484405467,-5000.0,0.0,0.0,0.0
1513266162750825929,,608536,,1513266160,952366423,'',0.471238898038,0.478308586148,0.00939000111584,0.00706968810934,0.001,35.3484405467,-5000.0,0.0,0.0,0.0
1513266162760729059,,608537,,1513266160,962366423,'',0.471238898038,0.478308586148,0.00949230478032,0.00706968810934,0.001,35.3484405467,-5000.0,0.0,0.0,0.0
1513266162770656906,,608538,,1513266160,972366423,'',0.471238898038,0.479965544298,0.0429903150197,0.00872664625997,0.001,43.6332312999,-5000.0,0.0,0.0,0.0
1513266162780589487,,608539,,1513266160,982366423,'',0.471238898038,0.478308586148,0.00776898154577,0.00706968810934,0.001,35.3484405467,-5000.0,0.0,0.0,0.0
1513266162790437412,,608540,,1513266160,992366423,'',0.471238898038,0.478308586148,0.00945502884169,0.00706968810934,0.001,35.3484405467,-5000.0,0.0,0.0,0.0
1513266162800840715,,608541,,1513266161,2366423,'',0.471238898038,0.478308586148,0.010803100257,0.00706968810934,0.001,35.3484405467,-5000.0,0.0,0.0,0.0
1513266162810809595,,608542,,1513266161,12366423,'',0.471238898038,0.478308586148,0.0118779041892,0.00706968810934,0.001,35.3484405467,-5000.0,0.0,0.0,0.0
1513266162820714826,,608543,,1513266161,22366423,'',0.471238898038,0.478308586148,0.00971805698036,0.00706968810934,0.001,35.3484405467,-5000.0,0.0,0.0,0.0
1513266162830584459,,608544,,1513266161,32366423,'',0.471238898038,0.476651627997,-0.0242803273657,0.00541272995872,0.001,27.0636497936,-5000.0,0.0,0.0,0.0
1513266162840623329,,608545,,1513266161,42366423,'',0.471238898038,0.478308586148,0.00751543095607,0.00706968810934,0.001,35.3484405467,-5000.0,0.0,0.0,0.0
1513266162850652453,,608546,,1513266161,52366423,'',0.471238898038,0.478308586148,0.00913093204233,0.00706968810934,0.001,35.3484405467,-5000.0,0.0,0.0,0.0
1513266162860625110,,608547,,1513266161,62366423,'',0.471238898038,0.476651627997,-0.0240853029624,0.00541272995872,0.001,27.0636497936,-5000.0,0.0,0.0,0.0
1513266162870645623,,608548,,1513266161,72366423,'',0.471238898038,0.476651627997,-0.023950149461,0.00541272995872,0.001,27.0636497936,-5000.0,0.0,0.0,0.0
1513266162880684967,,608549,,1513266161,82366423,'',0.471238898038,0.476651627997,-0.02263344642,0.00541272995872,0.001,27.0636497936,-5000.0,0.0,0.0,0.0
1513266162890666167,,608550,,1513266161,92366423,'',0.471238898038,0.476651627997,-0.0233240634115,0.00541272995872,0.001,27.0636497936,-5000.0,0.0,0.0,0.0
1513266162900670793,,608551,,1513266161,102366423,'',0.471238898038,0.476651627997,-0.0238182849874,0.00541272995872,0.001,27.0636497936,-5000.0,0.0,0.0,0.0
1513266162910406130,,608552,,1513266161,112366423,'',0.471238898038,0.476651627997,-0.0230542924593,0.00541272995872,0.001,27.0636497936,-5000.0,0.0,0.0,0.0
1513266162920823627,,608553,,1513266161,122366423,'',0.471238898038,0.478308586148,0.00974925818885,0.00706968810934,0.001,35.3484405467,-5000.0,0.0,0.0,0.0
1513266162930686834,,608554,,1513266161,132366423,'',0.471238898038,0.479965544298,0.0431681941905,0.00872664625997,0.001,43.6332312999,-5000.0,0.0,0.0,0.0
1513266162940723236,,608555,,1513266161,142366423,'',0.471238898038,0.478308586148,0.00915636608836,0.00706968810934,0.001,35.3484405467,-5000.0,0.0,0.0,0.0
1513266162950751278,,608556,,1513266161,152366423,'',0.471238898038,0.476651627997,-0.0228480878986,0.00541272995872,0.001,27.0636497936,-5000.0,0.0,0.0,0.0
1513266162960593225,,608557,,1513266161,162366423,'',0.471238898038,0.478308586148,0.0111475481438,0.00706968810934,0.001,35.3484405467,-5000.0,0.0,0.0,0.0
1513266162970504883,,608558,,1513266161,172366423,'',0.471238898038,0.478308586148,0.00847287592889,0.00706968810934,0.001,35.3484405467,-5000.0,0.0,0.0,0.0
1513266162980506476,,608559,,1513266161,182366423,'',0.471238898038,0.476651627997,-0.0235895724425,0.00541272995872,0.001,27.0636497936,-5000.0,0.0,0.0,0.0
1513266162990937222,,608560,,1513266161,192366423,'',0.471238898038,0.478308586148,0.00870363134306,0.00706968810934,0.001,35.3484405467,-5000.0,0.0,0.0,0.0
1513266163001014067,,608561,,1513266161,202366423,'',0.471238898038,0.479965544298,0.0423875264797,0.00872664625997,0.001,43.6332312999,-5000.0,0.0,0.0,0.0
1513266163010981720,,608562,,1513266161,212366423,'',0.471238898038,0.478308586148,0.00841646224924,0.00706968810934,0.001,35.3484405467,-5000.0,0.0,0.0,0.0
1513266163020893572,,608563,,1513266161,222366423,'',0.471238898038,0.476651627997,-0.0234734769976,0.00541272995872,0.001,27.0636497936,-5000.0,0.0,0.0,0.0
1513266163030921065,,608564,,1513266161,232366423,'',0.471238898038,0.476651627997,-0.0246882456754,0.00541272995872,0.001,27.0636497936,-5000.0,0.0,0.0,0.0
1513266163040909837,,608565,,1513266161,242366423,'',0.471238898038,0.478308586148,0.00885943900065,0.00706968810934,0.001,35.3484405467,-5000.0,0.0,0.0,0.0
1513266163050985059,,608566,,1513266161,252366423,'',0.471238898038,0.476651627997,-0.0243054367701,0.00541272995872,0.001,27.0636497936,-5000.0,0.0,0.0,0.0
1513266163060869961,,608567,,1513266161,262366423,'',0.471238898038,0.478308586148,0.00859370302731,0.00706968810934,0.001,35.3484405467,-5000.0,0.0,0.0,0.0
1513266163070800088,,608568,,1513266161,272366423,'',0.471238898038,0.478308586148,0.00776220714553,0.00706968810934,0.001,35.3484405467,-5000.0,0.0,0.0,0.0
1513266163080726826,,608569,,1513266161,282366423,'',0.471238898038,0.476651627997,-0.0233829399457,0.00541272995872,0.001,27.0636497936,-5000.0,0.0,0.0,0.0
1513266163090662154,,608570,,1513266161,292366423,'',0.471238898038,0.478308586148,0.00821208249968,0.00706968810934,0.001,35.3484405467,-5000.0,0.0,0.0,0.0
1513266163100632290,,608571,,1513266161,302366423,'',0.471238898038,0.478308586148,0.00917118247894,0.00706968810934,0.001,35.3484405467,-5000.0,0.0,0.0,0.0
1513266163110541683,,608572,,1513266161,312366423,'',0.471238898038,0.476651627997,-0.0228356775225,0.00541272995872,0.001,27.0636497936,-5000.0,0.0,0.0,0.0
1513266163120650627,,608573,,1513266161,322366423,'',0.471238898038,0.478308586148,0.0111682268777,0.00706968810934,0.001,35.3484405467,-5000.0,0.0,0.0,0.0
1513266163130583819,,608574,,1513266161,332366423,'',0.471238898038,0.478308586148,0.0108308401372,0.00706968810934,0.001,35.3484405467,-5000.0,0.0,0.0,0.0
1513266163140532521,,608575,,1513266161,342366423,'',0.471238898038,0.478308586148,0.010079664962,0.00706968810934,0.001,35.3484405467,-5000.0,0.0,0.0,0.0
1513266163150460343,,608576,,1513266161,352366423,'',0.471238898038,0.478308586148,0.00943707159111,0.00706968810934,0.001,35.3484405467,-5000.0,0.0,0.0,0.0
1513266163160933116,,608577,,1513266161,362366423,'',0.471238898038,0.478308586148,0.0106794053944,0.00706968810934,0.001,35.3484405467,-5000.0,0.0,0.0,0.0
1513266163170895635,,608578,,1513266161,372366423,'',0.471238898038,0.476651627997,-0.0223445832955,0.00541272995872,0.001,27.0636497936,-5000.0,0.0,0.0,0.0
1513266163180856340,,608579,,1513266161,382366423,'',0.471238898038,0.478308586148,0.0115207861485,0.00706968810934,0.001,35.3484405467,-5000.0,0.0,0.0,0.0
1513266163190817942,,608580,,1513266161,392366423,'',0.471238898038,0.476651627997,-0.0215573700147,0.00541272995872,0.001,27.0636497936,-5000.0,0.0,0.0,0.0
1513266163200750433,,608581,,1513266161,402366423,'',0.471238898038,0.478308586148,0.0104857628857,0.00706968810934,0.001,35.3484405467,-5000.0,0.0,0.0,0.0
1513266163210601225,,608582,,1513266161,412366423,'',0.471238898038,0.478308586148,0.0103822192689,0.00706968810934,0.001,35.3484405467,-5000.0,0.0,0.0,0.0
1513266163220589606,,608583,,1513266161,422366423,'',0.471238898038,0.476651627997,-0.0219809027273,0.00541272995872,0.001,27.0636497936,-5000.0,0.0,0.0,0.0
1513266163230611897,,608584,,1513266161,432366423,'',0.471238898038,0.476651627997,-0.0204010531759,0.00541272995872,0.001,27.0636497936,-5000.0,0.0,0.0,0.0
1513266163240551002,,608585,,1513266161,442366423,'',0.471238898038,0.478308586148,0.0129224402269,0.00706968810934,0.001,35.3484405467,-5000.0,0.0,0.0,0.0
1513266163250978312,,608586,,1513266161,452366423,'',0.471238898038,0.476651627997,-0.0198495600685,0.00541272995872,0.001,27.0636497936,-5000.0,0.0,0.0,0.0
1513266163260798312,,608587,,1513266161,462366423,'',0.471238898038,0.478308586148,0.0139499511206,0.00706968810934,0.001,35.3484405467,-5000.0,0.0,0.0,0.0
1513266163270660437,,608588,,1513266161,472366423,'',0.471238898038,0.478308586148,0.0144496392585,0.00706968810934,0.001,35.3484405467,-5000.0,0.0,0.0,0.0
1513266163280464991,,608589,,1513266161,482366423,'',0.471238898038,0.478308586148,0.0135975917379,0.00706968810934,0.001,35.3484405467,-5000.0,0.0,0.0,0.0
1513266163290434513,,608590,,1513266161,492366423,'',0.471238898038,0.476651627997,-0.0192233346226,0.00541272995872,0.001,27.0636497936,-5000.0,0.0,0.0,0.0
1513266163300922194,,608591,,1513266161,502366423,'',0.471238898038,0.478308586148,0.0116561517145,0.00706968810934,0.001,35.3484405467,-5000.0,0.0,0.0,0.0
1513266163310909830,,608592,,1513266161,512366423,'',0.471238898038,0.478308586148,0.011265425122,0.00706968810934,0.001,35.3484405467,-5000.0,0.0,0.0,0.0
1513266163320788582,,608593,,1513266161,522366423,'',0.471238898038,0.479965544298,0.0437860082872,0.00872664625997,0.001,43.6332312999,-5000.0,0.0,0.0,0.0
1513266163330873699,,608594,,1513266161,532366423,'',0.471238898038,0.478308586148,0.0113617678614,0.00706968810934,0.001,35.3484405467,-5000.0,0.0,0.0,0.0
1513266163340738603,,608595,,1513266161,542366423,'',0.471238898038,0.478308586148,0.0098905365091,0.00706968810934,0.001,35.3484405467,-5000.0,0.0,0.0,0.0
1513266163350792842,,608596,,1513266161,552366423,'',0.471238898038,0.478308586148,0.0105658616729,0.00706968810934,0.001,35.3484405467,-5000.0,0.0,0.0,0.0
1513266163360813073,,608597,,1513266161,562366423,'',0.471238898038,0.478308586148,0.0103807609192,0.00706968810934,0.001,35.3484405467,-5000.0,0.0,0.0,0.0
1513266163371130801,,608598,,1513266161,572366423,'',0.471238898038,0.476651627997,-0.0236648694488,0.00541272995872,0.001,27.0636497936,-5000.0,0.0,0.0,0.0
1513266163380515951,,608599,,1513266161,582366423,'',0.471238898038,0.478308586148,0.00911255562627,0.00706968810934,0.001,35.3484405467,-5000.0,0.0,0.0,0.0
1513266163390582722,,608600,,1513266161,592366423,'',0.471238898038,0.478308586148,0.0092735630025,0.00706968810934,0.001,35.3484405467,-5000.0,0.0,0.0,0.0
1513266163400502824,,608601,,1513266161,602366423,'',0.471238898038,0.476651627997,-0.0246294074035,0.00541272995872,0.001,27.0636497936,-5000.0,0.0,0.0,0.0
1513266163410899046,,608602,,1513266161,612366423,'',0.471238898038,0.478308586148,0.00911239692527,0.00706968810934,0.001,35.3484405467,-5000.0,0.0,0.0,0.0
1513266163420932294,,608603,,1513266161,622366423,'',0.471238898038,0.478308586148,0.00986547790425,0.00706968810934,0.001,35.3484405467,-5000.0,0.0,0.0,0.0
