rosbagTimestamp,header,seq,stamp,secs,nsecs,frame_id,set_point,process_value,process_value_dot,error,time_step,command,p,i,d,i_clamp
1513266159320566608,,608192,,1513266157,522366423,'',1.37881010908,1.35062864592,-0.0207962831267,-0.0281814631515,0.001,140.907315757,5000.0,0.0,0.0,0.0
1513266159330345346,,608193,,1513266157,532366423,'',1.37881010908,1.35062864592,-0.0196504131974,-0.0281814631515,0.001,140.907315757,5000.0,0.0,0.0,0.0
1513266159340734038,,608194,,1513266157,542366423,'',1.37881010908,1.35182956055,0.00341920079786,-0.0269805485285,0.001,134.902742643,5000.0,0.0,0.0,0.0
1513266159350698931,,608195,,1513266157,552366423,'',1.37881010908,1.35062864592,-0.0192096577656,-0.0281814631515,0.001,140.907315757,5000.0,0.0,0.0,0.0
1513266159360682511,,608196,,1513266157,562366423,'',1.37881010908,1.35182956055,0.00452549087517,-0.0269805485285,0.001,134.902742643,5000.0,0.0,0.0,0.0
1513266159370652221,,608197,,1513266157,572366423,'',1.37881010908,1.35182956055,0.00588925857257,-0.0269805485285,0.001,134.902742643,5000.0,0.0,0.0,0.0
1513266159380485645,,608198,,1513266157,582366423,'',1.37881010908,1.35062864592,-0.0167434955614,-0.0281814631515,0.001,140.907315757,5000.0,0.0,0.0,0.0
1513266159390351805,,608199,,1513266157,592366423,'',1.37881010908,1.35182956055,0.00833206073028,-0.0269805485285,0.001,134.902742643,5000.0,0.0,0.0,0.0
1513266159400487624,,608200,,1513266157,602366423,'',1.37881010908,1.35182956055,0.00944681862601,-0.0269805485285,0.001,134.902742643,5000.0,0.0,0.0,0.0
1513266159410379118,,608201,,1513266157,612366423,'',1.37881010908,1.35062864592,-0.0151852968843,-0.0281814631515,0.001,140.907315757,5000.0,0.0,0.0,0.0
1513266159420462194,,608202,,1513266157,622366423,'',1.37881010908,1.35062864592,-0.0137104515708,-0.0281814631515,0.001,140.907315757,5000.0,0.0,0.0,0.0
1513266159430813894,,608203,,1513266157,632366423,'',1.37881010908,1.35062864592,-0.0120587248984,-0.0281814631515,0.001,140.907315757,5000.0,0.0,0.0,0.0
1513266159440447089,,608204,,1513266157,642366423,'',1.37881010908,1.3494277313,-0.0354918756193,-0.0293823777744,0.001,146.911888872,5000.0,0.0,0.0,0.0
1513266159450316691,,608205,,1513266157,652366423,'',1.37881010908,1.3494277313,-0.0338568298359,-0.0293823777744,0.001,146.911888872,5000.0,0.0,0.0,0.0
1513266159460852004,,608206,,1513266157,662366423,'',1.37881010908,1.35062864592,-0.0113607715533,-0.0281814631515,0.001,140.907315757,5000.0,0.0,0.0,0.0
1513266159470790246,,608207,,1513266157,672366423,'',1.37881010908,1.35182956055,0.0114191199247,-0.0269805485285,0.001,134.902742643,5000.0,0.0,0.0,0.0
1513266159480749766,,608208,,1513266157,682366423,'',1.37881010908,1.35182956055,0.0101818557012,-0.0269805485285,0.001,134.902742643,5000.0,0.0,0.0,0.0
1513266159490788488,,608209,,1513266157,692366423,'',1.37881010908,1.35182956055,0.00874567161231,-0.0269805485285,0.001,134.902742643,5000.0,0.0,0.0,0.0
1513266159500778080,,608210,,1513266157,702366423,'',1.37881010908,1.35182956055,0.00893284176778,-0.0269805485285,0.001,134.902742643,5000.0,0.0,0.0,0.0
1513266159510621097,,608211,,1513266157,712366423,'',1.37881010908,1.35303047517,0.0315234038542,-0.0257796339056,0.001,128.898169528,5000.0,0.0,0.0,0.0
1513266159520641345,,608212,,1513266157,722366423,'',1.37881010908,1.35062864592,-0.0173628317055,-0.0281814631515,0.001,140.907315757,5000.0,0.0,0.0,0.0
1513266159530544134,,608213,,1513266157,732366423,'',1.37881010908,1.35182956055,0.00641449732219,-0.0269805485285,0.001,134.902742643,5000.0,0.0,0.0,0.0
1513266159540508384,,608214,,1513266157,742366423,'',1.37881010908,1.35182956055,0.00614393322903,-0.0269805485285,0.001,134.902742643,5000.0,0.0,0.0,0.0
1513266159550531200,,608215,,1513266157,752366423,'',1.37881010908,1.35062864592,-0.0187178347752,-0.0281814631515,0.001,140.907315757,5000.0,0.0,0.0,0.0
1513266159560636109,,608216,,1513266157,762366423,'',1.37881010908,1.35062864592,-0.0182992721666,-0.0281814631515,0.001,140.907315757,5000.0,0.0,0.0,0.0
1513266159570530666,,608217,,1513266157,772366423,'',1.37881010908,1.35182956055,0.0045589641153,-0.0269805485285,0.001,134.902742643,5000.0,0.0,0.0,0.0
1513266159580488255,,608218,,1513266157,782366423,'',1.37881010908,1.35182956055,0.00502634214392,-0.0269805485285,0.001,134.902742643,5000.0,0.0,0.0,0.0
1513266159590444864,,608219,,1513266157,792366423,'',1.37881010908,1.35182956055,0.00583658567859,-0.0269805485285,0.001,134.902742643,5000.0,0.0,0.0,0.0
1513266159600489011,,608220,,1513266157,802366423,'',1.37881010908,1.35182956055,0.0052063272049,-0.0269805485285,0.001,134.902742643,5000.0,0.0,0.0,0.0
1513266159610816095,,608221,,1513266157,812366423,'',1.37881010908,1.35182956055,0.00638989053628,-0.0269805485285,0.001,134.902742643,5000.0,0.0,0.0,0.0
1513266159620849684,,608222,,1513266157,822366423,'',1.37881010908,1.35182956055,0.0051975833411,-0.0269805485285,0.001,134.902742643,5000.0,0.0,0.0,0.0
1513266159630776000,,608223,,1513266157,832366423,'',1.37881010908,1.35182956055,0.00387012091787,-0.0269805485285,0.001,134.902742643,5000.0,0.0,0.0,0.0
1513266159640708770,,608224,,1513266157,842366423,'',1.37881010908,1.35182956055,0.00488903373424,-0.0269805485285,0.001,134.902742643,5000.0,0.0,0.0,0.0
1513266159650677080,,608225,,1513266157,852366423,'',1.37881010908,1.35062864592,-0.0184106334808,-0.0281814631515,0.001,140.907315757,5000.0,0.0,0.0,0.0
1513266159660614927,,608226,,1513266157,862366423,'',1.37881010908,1.35182956055,0.00488597256611,-0.0269805485285,0.001,134.902742643,5000.0,0.0,0.0,0.0
1513266159670631862,,608227,,1513266157,872366423,'',1.37881010908,1.35062864592,-0.0201465489261,-0.0281814631515,0.001,140.907315757,5000.0,0.0,0.0,0.0
1513266159680603336,,608228,,1513266157,882366423,'',1.37881010908,1.35182956055,0.00418561037976,-0.0269805485285,0.001,134.902742643,5000.0,0.0,0.0,0.0
1513266159690617425,,608229,,1513266157,892366423,'',1.37881010908,1.35303047517,0.028004688277,-0.0257796339056,0.001,128.898169528,5000.0,0.0,0.0,0.0
1513266159700532737,,608230,,1513266157,902366423,'',1.37881010908,1.35182956055,0.00346674473508,-0.0269805485285,0.001,134.902742643,5000.0,0.0,0.0,0.0
1513266159710422591,,608231,,1513266157,912366423,'',1.37881010908,1.35303047517,0.0262307625707,-0.0257796339056,0.001,128.898169528,5000.0,0.0,0.0,0.0
1513266159720390140,,608232,,1513266157,922366423,'',1.37881010908,1.35182956055,0.00204030094748,-0.0269805485285,0.001,134.902742643,5000.0,0.0,0.0,0.0
1513266159730865183,,608233,,1513266157,932366423,'',1.37881010908,1.35062864592,-0.0229448719969,-0.0281814631515,0.001,140.907315757,5000.0,0.0,0.0,0.0
1513266159740834781,,608234,,1513266157,942366423,'',1.37881010908,1.35062864592,-0.0217952334149,-0.0281814631515,0.001,140.907315757,5000.0,0.0,0.0,0.0
1513266159750748194,,608235,,1513266157,952366423,'',1.37881010908,1.35182956055,0.0024548780838,-0.0269805485285,0.001,134.902742643,5000.0,0.0,0.0,0.0
1513266159760652337,,608236,,1513266157,962366423,'',1.37881010908,1.35182956055,0.00211646393677,-0.0269805485285,0.001,134.902742643,5000.0,0.0,0.0,0.0
1513266159770561853,,608237,,1513266157,972366423,'',1.37881010908,1.35182956055,0.00182010455737,-0.0269805485285,0.001,134.902742643,5000.0,0.0,0.0,0.0
1513266159780621749,,608238,,1513266157,982366423,'',1.37881010908,1.35062864592,-0.0222756589671,-0.0281814631515,0.001,140.907315757,5000.0,0.0,0.0,0.0
1513266159790473754,,608239,,1513266157,992366423,'',1.37881010908,1.35182956055,0.00206620863742,-0.0269805485285,0.001,134.902742643,5000.0,0.0,0.0,0.0
1513266159800431165,,608240,,1513266158,2366423,'',1.37881010908,1.35062864592,-0.0221079192511,-0.0281814631515,0.001,140.907315757,5000.0,0.0,0.0,0.0
1513266159810379203,,608241,,1513266158,12366423,'',1.37881010908,1.35303047517,0.0250229297958,-0.0257796339056,0.001,128.898169528,5000.0,0.0,0.0,0.0
1513266159820831420,,608242,,1513266158,22366423,'',1.37881010908,1.35303047517,0.0252882437159,-0.0257796339056,0.001,128.898169528,5000.0,0.0,0.0,0.0
1513266159830713154,,608243,,1513266158,32366423,'',1.37881010908,1.35182956055,0.00133724714696,-0.0269805485285,0.001,134.902742643,5000.0,0.0,0.0,0.0
1513266159840570204,,608244,,1513266158,42366423,'',1.37881010908,1.35182956055,0.0010824611157,-0.0269805485285,0.001,134.902742643,5000.0,0.0,0.0,0.0
1513266159850487658,,608245,,1513266158,52366423,'',1.37881010908,1.35182956055,0.00214662028387,-0.0269805485285,0.001,134.902742643,5000.0,0.0,0.0,0.0
1513266159860482689,,608246,,1513266158,62366423,'',1.37881010908,1.35182956055,0.00178068657841,-0.0269805485285,0.001,134.902742643,5000.0,0.0,0.0,0.0
1513266159870361682,,608247,,1513266158,72366423,'',1.37881010908,1.35303047517,0.0251964071174,-0.0257796339056,0.001,128.898169528,5000.0,0.0,0.0,0.0
1513266159880282889,,608248,,1513266158,82366423,'',1.37881010908,1.35303047517,0.0249687925338,-0.0257796339056,0.001,128.898169528,5000.0,0.0,0.0,0.0
1513266159890303007,,608249,,1513266158,92366423,'',1.37881010908,1.35182956055,0.000966365196585,-0.0269805485285,0.001,134.902742643,5000.0,0.0,0.0,0.0
1513266159900292759,,608250,,1513266158,102366423,'',1.37881010908,1.35182956055,0.0025461624056,-0.0269805485285,0.001,134.902742643,5000.0,0.0,0.0,0.0
1513266159910857658,,608251,,1513266158,112366423,'',1.37881010908,1.35182956055,0.00341475428234,-0.0269805485285,0.001,134.902742643,5000.0,0.0,0.0,0.0
1513266159920824893,,608252,,1513266158,122366423,'',1.37881010908,1.35182956055,0.00236245687931,-0.0269805485285,0.001,134.902742643,5000.0,0.0,0.0,0.0
1513266159930681063,,608253,,1513266158,132366423,'',1.37881010908,1.35062864592,-0.0206139613375,-0.0281814631515,0.001,140.907315757,5000.0,0.0,0.0,0.0
1513266159940646790,,608254,,1513266158,142366423,'',1.37881010908,1.35062864592,-0.0208285951086,-0.0281814631515,0.001,140.907315757,5000.0,0.0,0.0,0.0
1513266159950579265,,608255,,1513266158,152366423,'',1.37881010908,1.35182956055,0.00282167498754,-0.0269805485285,0.001,134.902742643,5000.0,0.0,0.0,0.0
1513266159960477858,,608256,,1513266158,162366423,'',1.37881010908,1.35182956055,0.00366207439912,-0.0269805485285,0.001,134.902742643,5000.0,0.0,0.0,0.0
1513266159970403454,,608257,,1513266158,172366423,'',1.37881010908,1.35303047517,0.0281691427793,-0.0257796339056,0.001,128.898169528,5000.0,0.0,0.0,0.0
1513266159980410304,,608258,,1513266158,182366423,'',1.37881010908,1.35182956055,0.00226682914322,-0.0269805485285,0.001,134.902742643,5000.0,0.0,0.0,0.0
1513266159990458309,,608259,,1513266158,192366423,'',1.37881010908,1.35062864592,-0.0206526594519,-0.0281814631515,0.001,140.907315757,5000.0,0.0,0.0,0.0
1513266160000383568,,608260,,1513266158,202366423,'',1.37881010908,1.35062864592,-0.0186945436328,-0.0281814631515,0.001,140.907315757,5000.0,0.0,0.0,0.0
1513266160010334170,,608261,,1513266158,212366423,'',1.37881010908,1.35182956055,0.00758464804158,-0.0269805485285,0.001,134.902742643,5000.0,0.0,0.0,0.0
1513266160020757479,,608262,,1513266158,222366423,'',1.37881010908,1.35062864592,-0.0141436993014,-0.0281814631515,0.001,140.907315757,5000.0,0.0,0.0,0.0
1513266160030732849,,608263,,1513266158,232366423,'',1.37881010908,1.35182956055,0.0117310622397,-0.0269805485285,0.001,134.902742643,5000.0,0.0,0.0,0.0
1513266160040644389,,608264,,1513266158,242366423,'',1.37881010908,1.35062864592,-0.0102576286894,-0.0281814631515,0.001,140.907315757,5000.0,0.0,0.0,0.0
1513266160050508150,,608265,,1513266158,252366423,'',1.37881010908,1.35062864592,-0.00790332901913,-0.0281814631515,0.001,140.907315757,5000.0,0.0,0.0,0.0
1513266160060449547,,608266,,1513266158,262366423,'',1.37881010908,1.35062864592,-0.00694264622606,-0.0281814631515,0.001,140.907315757,5000.0,0.0,0.0,0.0
1513266160070395122,,608267,,1513266158,272366423,'',1.37881010908,1.35182956055,0.0172917499016,-0.0269805485285,0.001,134.902742643,5000.0,0.0,0.0,0.0
1513266160080809815,,608268,,1513266158,282366423,'',1.37881010908,1.35182956055,0.0154254606509,-0.0269805485285,0.001,134.902742643,5000.0,0.0,0.0,0.0
1513266160090819623,,608269,,1513266158,292366423,'',1.37881010908,1.35062864592,-0.00849358063088,-0.0281814631515,0.001,140.907315757,5000.0,0.0,0.0,0.0
1513266160100760544,,608270,,1513266158,302366423,'',1.37881010908,1.35062864592,-0.00919527848201,-0.0281814631515,0.001,140.907315757,5000.0,0.0,0.0,0.0
1513266160110685667,,608271,,1513266158,312366423,'',1.37881010908,1.35062864592,-0.00839403789648,-0.0281814631515,0.001,140.907315757,5000.0,0.0,0.0,0.0
1513266160120635351,,608272,,1513266158,322366423,'',1.37881010908,1.35062864592,-0.00906780578334,-0.0281814631515,0.001,140.907315757,5000.0,0.0,0.0,0.0
1513266160130616246,,608273,,1513266158,332366423,'',1.37881010908,1.35182956055,0.0155040614725,-0.0269805485285,0.001,134.902742643,5000.0,0.0,0.0,0.0
1513266160140585496,,608274,,1513266158,342366423,'',1.37881010908,1.35182956055,0.0136243376274,-0.0269805485285,0.001,134.902742643,5000.0,0.0,0.0,0.0
1513266160150345629,,608275,,1513266158,352366423,'',1.37881010908,1.35062864592,-0.011236884806,-0.0281814631515,0.001,140.907315757,5000.0,0.0,0.0,0.0
1513266160160304276,,608276,,1513266158,362366423,'',1.37881010908,1.35182956055,0.0137704513556,-0.0269805485285,0.001,134.902742643,5000.0,0.0,0.0,0.0
1513266160170831506,,608277,,1513266158,372366423,'',1.37881010908,1.35062864592,-0.00990770628521,-0.0281814631515,0.001,140.907315757,5000.0,0.0,0.0,0.0
1513266160180589863,,608278,,1513266158,382366423,'',1.37881010908,1.35303047517,0.0368140164245,-0.0257796339056,0.001,128.898169528,5000.0,0.0,0.0,0.0
1513266160190568325,,608279,,1513266158,392366423,'',1.37881010908,1.35182956055,0.0124120293272,-0.0269805485285,0.001,134.902742643,5000.0,0.0,0.0,0.0
1513266160200427024,,608280,,1513266158,402366423,'',1.37881010908,1.35182956055,0.0128286977899,-0.0269805485285,0.001,134.902742643,5000.0,0.0,0.0,0.0
1513266160210753065,,608281,,1513266158,412366423,'',1.37881010908,1.35182956055,0.0118007796533,-0.0269805485285,0.001,134.902742643,5000.0,0.0,0.0,0.0
1513266160220870110,,608282,,1513266158,422366423,'',1.37881010908,1.35182956055,0.0104481976199,-0.0269805485285,0.001,134.902742643,5000.0,0.0,0.0,0.0
1513266160230711165,,608283,,1513266158,432366423,'',1.37881010908,1.35182956055,0.00812258280786,-0.0269805485285,0.001,134.902742643,5000.0,0.0,0.0,0.0
1513266160240651042,,608284,,1513266158,442366423,'',1.37881010908,1.35062864592,-0.0153838610422,-0.0281814631515,0.001,140.907315757,5000.0,0.0,0.0,0.0
1513266160250673364,,608285,,1513266158,452366423,'',1.37881010908,1.35182956055,0.00816469113317,-0.0269805485285,0.001,134.902742643,5000.0,0.0,0.0,0.0
1513266160260524652,,608286,,1513266158,462366423,'',1.37881010908,1.35062864592,-0.0153400342032,-0.0281814631515,0.001,140.907315757,5000.0,0.0,0.0,0.0
1513266160270473187,,608287,,1513266158,472366423,'',1.37881010908,1.35182956055,0.00770989453756,-0.0269805485285,0.001,134.902742643,5000.0,0.0,0.0,0.0
1513266160280518625,,608288,,1513266158,482366423,'',1.37881010908,1.35303047517,0.0287076607478,-0.0257796339056,0.001,128.898169528,5000.0,0.0,0.0,0.0
1513266160290326619,,608289,,1513266158,492366423,'',1.37881010908,1.35303047517,0.025183601598,-0.0257796339056,0.001,128.898169528,5000.0,0.0,0.0,0.0
1513266160300747015,,608290,,1513266158,502366423,'',1.37881010908,1.35303047517,0.018912251082,-0.0257796339056,0.001,128.898169528,5000.0,0.0,0.0,0.0
1513266160310592229,,608291,,1513266158,512366423,'',1.37881010908,1.35423138979,0.0361947082543,-0.0245787192827,0.001,122.893596413,5000.0,0.0,0.0,0.0
1513266160320514494,,608292,,1513266158,522366423,'',1.37881010908,1.35543230442,0.0508426373057,-0.0233778046597,0.001,116.889023299,5000.0,0.0,0.0,0.0
1513266160330547866,,608293,,1513266158,532366423,'',1.37881010908,1.35543230442,0.0403525815173,-0.0233778046597,0.001,116.889023299,5000.0,0.0,0.0,0.0
1513266160340473253,,608294,,1513266158,542366423,'',1.37881010908,1.35783413366,0.0792772225747,-0.0209759754139,0.001,104.879877069,5000.0,0.0,0.0,0.0
1513266160350476120,,608295,,1513266158,552366423,'',1.37881010908,1.35543230442,0.0247703333781,-0.0233778046597,0.001,116.889023299,5000.0,0.0,0.0,0.0
1513266160360538237,,608296,,1513266158,562366423,'',1.37881010908,1.35783413366,0.0656686343034,-0.0209759754139,0.001,104.879877069,5000.0,0.0,0.0,0.0
1513266160370384709,,608297,,1513266158,572366423,'',1.37881010908,1.35663321904,0.0352452061577,-0.0221768900368,0.001,110.884450184,5000.0,0.0,0.0,0.0
1513266160380303564,,608298,,1513266158,582366423,'',1.37881010908,1.35663321904,0.0292834601935,-0.0221768900368,0.001,110.884450184,5000.0,0.0,0.0,0.0
1513266160390787791,,608299,,1513266158,592366423,'',1.37881010908,1.35783413366,0.0463655138753,-0.0209759754139,0.001,104.879877069,5000.0,0.0,0.0,0.0
1513266160400635811,,608300,,1513266158,602366423,'',1.37881010908,1.35903504828,0.063066968689,-0.0197750607909,0.001,98.8753039547,5000.0,0.0,0.0,0.0
1513266160411135095,,608301,,1513266158,612366423,'',1.37881010908,1.35903504828,0.054688134485,-0.0197750607909,0.001,98.8753039547,5000.0,0.0,0.0,0.0
1513266160420667436,,608302,,1513266158,622366423,'',1.37881010908,1.35903504828,0.0447855426374,-0.0197750607909,0.001,98.8753039547,5000.0,0.0,0.0,0.0
1513266160430574042,,608303,,1513266158,632366423,'',1.37881010908,1.36023596291,0.0595676981169,-0.018574146168,0.001,92.8707308401,5000.0,0.0,0.0,0.0
1513266160440570413,,608304,,1513266158,642366423,'',1.37881010908,1.36023596291,0.0491331273146,-0.018574146168,0.001,92.8707308401,5000.0,0.0,0.0,0.0
1513266160450539148,,608305,,1513266158,652366423,'',1.37881010908,1.36263779215,0.0886538539336,-0.0161723169221,0.001,80.8615846107,5000.0,0.0,0.0,0.0
1513266160460481744,,608306,,1513266158,662366423,'',1.37881010908,1.36023596291,0.0315581515454,-0.018574146168,0.001,92.8707308401,5000.0,0.0,0.0,0.0
1513266160470366830,,608307,,1513266158,672366423,'',1.37881010908,1.36143687753,0.0465384940793,-0.0173732315451,0.001,86.8661577254,5000.0,0.0,0.0,0.0
1513266160480389838,,608308,,1513266158,682366423,'',1.37881010908,1.36143687753,0.034992676367,-0.0173732315451,0.001,86.8661577254,5000.0,0.0,0.0,0.0
1513266160490375794,,608309,,1513266158,692366423,'',1.37881010908,1.36383870678,0.0704468513164,-0.0149714022992,0.001,74.8570114961,5000.0,0.0,0.0,0.0
1513266160500731228,,608310,,1513266158,702366423,'',1.37881010908,1.36383870678,0.0551577815074,-0.0149714022992,0.001,74.8570114961,5000.0,0.0,0.0,0.0
1513266160510799793,,608311,,1513266158,712366423,'',1.37881010908,1.36624053602,0.0895989211476,-0.0125695730534,0.001,62.8478652668,5000.0,0.0,0.0,0.0
1513266160521088802,,608312,,1513266158,722366423,'',1.37881010908,1.36624053602,0.0733238500921,-0.0125695730534,0.001,62.8478652668,5000.0,0.0,0.0,0.0
1513266160530758982,,608313,,1513266158,732366423,'',1.37881010908,1.36624053602,0.0574850752396,-0.0125695730534,0.001,62.8478652668,5000.0,0.0,0.0,0.0
1513266160540687274,,608314,,1513266158,742366423,'',1.37881010908,1.36624053602,0.0434961777703,-0.0125695730534,0.001,62.8478652668,5000.0,0.0,0.0,0.0
1513266160550777871,,608315,,1513266158,752366423,'',1.37881010908,1.36864236527,0.0770367465638,-0.0101677438075,0.001,50.8387190375,5000.0,0.0,0.0,0.0
1513266160560756013,,608316,,1513266158,762366423,'',1.37881010908,1.36984327989,0.083806713868,-0.00896682918456,0.001,44.8341459228,5000.0,0.0,0.0,0.0
1513266160570743520,,608317,,1513266158,772366423,'',1.37881010908,1.36984327989,0.0680457800939,-0.00896682918456,0.001,44.8341459228,5000.0,0.0,0.0,0.0
1513266160580657517,,608318,,1513266158,782366423,'',1.37881010908,1.37224510914,0.0997077934496,-0.00656499993869,0.001,32.8249996935,5000.0,0.0,0.0,0.0
1513266160590565656,,608319,,1513266158,792366423,'',1.37881010908,1.37224510914,0.0833336793544,-0.00656499993869,0.001,32.8249996935,5000.0,0.0,0.0,0.0
1513266160600579337,,608320,,1513266158,802366423,'',1.37881010908,1.37224510914,0.0660773849209,-0.00656499993869,0.001,32.8249996935,5000.0,0.0,0.0,0.0
1513266160610431201,,608321,,1513266158,812366423,'',1.37881010908,1.37344602376,0.0743997128698,-0.00536408531576,0.001,26.8204265788,5000.0,0.0,0.0,0.0
1513266160620502301,,608322,,1513266158,822366423,'',1.37881010908,1.37464693838,0.0820818495282,-0.00416317069283,0.001,20.8158534642,5000.0,0.0,0.0,0.0
1513266160630370114,,608323,,1513266158,832366423,'',1.37881010908,1.37344602376,0.0451892170023,-0.00536408531576,0.001,26.8204265788,5000.0,0.0,0.0,0.0
1513266160640906082,,608324,,1513266158,842366423,'',1.37881010908,1.37464693838,0.0572902588867,-0.00416317069283,0.001,20.8158534642,5000.0,0.0,0.0,0.0
1513266160650723872,,608325,,1513266158,852366423,'',1.37881010908,1.37344602376,0.023202476955,-0.00536408531576,0.001,26.8204265788,5000.0,0.0,0.0,0.0
1513266160660585260,,608326,,1513266158,862366423,'',1.37881010908,1.37584785301,0.0617064795609,-0.0029622560699,0.001,14.8112803495,5000.0,0.0,0.0,0.0
1513266160670551274,,608327,,1513266158,872366423,'',1.37881010908,1.37584785301,0.0526074887615,-0.0029622560699,0.001,14.8112803495,5000.0,0.0,0.0,0.0
1513266160680427619,,608328,,1513266158,882366423,'',1.37881010908,1.37464693838,0.0196703103587,-0.00416317069283,0.001,20.8158534642,5000.0,0.0,0.0,0.0
1513266160690468533,,608329,,1513266158,892366423,'',1.37881010908,1.37584785301,0.0381410340923,-0.0029622560699,0.001,14.8112803495,5000.0,0.0,0.0,0.0
1513266160700294264,,608330,,1513266158,902366423,'',1.37881010908,1.37584785301,0.0325254091544,-0.0029622560699,0.001,14.8112803495,5000.0,0.0,0.0,0.0
1513266160710805293,,608331,,1513266158,912366423,'',1.37881010908,1.37464693838,0.00150029602627,-0.00416317069283,0.001,20.8158534642,5000.0,0.0,0.0,0.0
1513266160720800377,,608332,,1513266158,922366423,'',1.37881010908,1.37584785301,0.0202295248735,-0.0029622560699,0.001,14.8112803495,5000.0,0.0,0.0,0.0
1513266160730763496,,608333,,1513266158,932366423,'',1.37881010908,1.37704876763,0.0394950494169,-0.00176134144697,0.001,8.80670723483,5000.0,0.0,0.0,0.0
1513266160740681460,,608334,,1513266158,942366423,'',1.37881010908,1.37584785301,0.0120555344332,-0.0029622560699,0.001,14.8112803495,5000.0,0.0,0.0,0.0
1513266160750705582,,608335,,1513266158,952366423,'',1.37881010908,1.37584785301,0.00681631592446,-0.0029622560699,0.001,14.8112803495,5000.0,0.0,0.0,0.0
1513266160760540605,,608336,,1513266158,962366423,'',1.37881010908,1.37584785301,0.0030083579424,-0.0029622560699,0.001,14.8112803495,5000.0,0.0,0.0,0.0
1513266160770618948,,608337,,1513266158,972366423,'',1.37881010908,1.37464693838,-0.0248830131574,-0.00416317069283,0.001,20.8158534642,5000.0,0.0,0.0,0.0
1513266160780526287,,608338,,1513266158,982366423,'',1.37881010908,1.37704876763,0.0179970463755,-0.00176134144697,0.001,8.80670723483,5000.0,0.0,0.0,0.0
1513266160790467455,,608339,,1513266158,992366423,'',1.37881010908,1.37704876763,0.0138680100781,0.0,0.001,0.0,5000.0,0.0,0.0,0.0
1513266160800797121,,608340,,1513266159,2366423,'',1.37881010908,1.37704876763,0.0104822776576,0.0,0.001,0.0,5000.0,0.0,0.0,0.0
1513266160810877261,,608341,,1513266159,12366423,'',1.37881010908,1.37704876763,0.00680438641027,0.0,0.001,0.0,5000.0,0.0,0.0,0.0
1513266160820722317,,608342,,1513266159,22366423,'',1.37881010908,1.37824968225,0.0279928202061,0.0,0.001,0.0,5000.0,0.0,0.0,0.0
1513266160830781346,,608343,,1513266159,32366423,'',1.37881010908,1.37824968225,0.0229176125128,0.0,0.001,0.0,5000.0,0.0,0.0,0.0
1513266160840657149,,608344,,1513266159,42366423,'',1.37881010908,1.37945059687,0.0417002460567,0.0,0.001,0.0,5000.0,0.0,0.0,0.0
1513266160850577011,,608345,,1513266159,52366423,'',1.37881010908,1.37824968225,0.0134715926986,0.0,0.001,0.0,5000.0,0.0,0.0,0.0
1513266160860482886,,608346,,1513266159,62366423,'',1.37881010908,1.37824968225,0.0097001614283,0.0,0.001,0.0,5000.0,0.0,0.0,0.0
1513266160870429354,,608347,,1513266159,72366423,'',1.37881010908,1.37824968225,0.00533258879043,0.0,0.001,0.0,5000.0,0.0,0.0,0.0
1513266160880466888,,608348,,1513266159,82366423,'',1.37881010908,1.37945059687,0.0255633968703,0.0,0.001,0.0,5000.0,0.0,0.0,0.0
1513266160890521163,,608349,,1513266159,92366423,'',1.37881010908,1.37945059687,0.0236134955565,0.0,0.001,0.0,5000.0,0.0,0.0,0.0
1513266160900443298,,608350,,1513266159,102366423,'',1.37881010908,1.37824968225,-0.00233944788903,0.0,0.001,0.0,5000.0,0.0,0.0,0.0
1513266160910843488,,608351,,1513266159,112366423,'',1.37881010908,1.37824968225,-0.00321862328538,0.0,0.001,0.0,5000.0,0.0,0.0,0.0
1513266160920850783,,608352,,1513266159,122366423,'',1.37881010908,1.37824968225,-0.00432103798463,0.0,0.001,0.0,5000.0,0.0,0.0,0.0
1513266160930791235,,608353,,1513266159,132366423,'',1.37881010908,1.37945059687,0.0185262530853,0.0,0.001,0.0,5000.0,0.0,0.0,0.0
1513266160940656655,,608354,,1513266159,142366423,'',1.37881010908,1.37945059687,0.0176856782318,0.0,0.001,0.0,5000.0,0.0,0.0,0.0
1513266160950594570,,608355,,1513266159,152366423,'',1.37881010908,1.37945059687,0.0153775248727,0.0,0.001,0.0,5000.0,0.0,0.0,0.0
1513266160960606752,,608356,,1513266159,162366423,'',1.37881010908,1.37945059687,0.0156188182642,0.0,0.001,0.0,5000.0,0.0,0.0,0.0
1513266160970344594,,608357,,1513266159,172366423,'',1.37881010908,1.37945059687,0.0145278691054,0.0,0.001,0.0,5000.0,0.0,0.0,0.0
1513266160980895912,,608358,,1513266159,182366423,'',1.37881010908,1.37824968225,-0.00970814694057,0.0,0.001,0.0,5000.0,0.0,0.0,0.0
1513266160990783757,,608359,,1513266159,192366423,'',1.37881010908,1.37945059687,0.0127648017654,0.0,0.001,0.0,5000.0,0.0,0.0,0.0
1513266161000814097,,608360,,1513266159,202366423,'',1.37881010908,1.37945059687,0.0117328125378,0.0,0.001,0.0,5000.0,0.0,0.0,0.0
1513266161010719163,,608361,,1513266159,212366423,'',1.37881010908,1.37945059687,0.0100518056783,0.0,0.001,0.0,5000.0,0.0,0.0,0.0
1513266161020734292,,608362,,1513266159,222366423,'',1.37881010908,1.37824968225,-0.0147501771476,0.0,0.001,0.0,5000.0,0.0,0.0,0.0
1513266161030675125,,608363,,1513266159,232366423,'',1.37881010908,1.3806515115,0.0328320339889,0.0,0.001,0.0,5000.0,0.0,0.0,0.0
1513266161040590191,,608364,,1513266159,242366423,'',1.37881010908,1.37945059687,0.00650749414087,0.0,0.001,0.0,5000.0,0.0,0.0,0.0
1513266161050427814,,608365,,1513266159,252366423,'',1.37881010908,1.3806515115,0.0290828071324,0.0,0.001,0.0,5000.0,0.0,0.0,0.0
1513266161060323886,,608366,,1513266159,262366423,'',1.37881010908,1.3806515115,0.0268449430382,0.0,0.001,0.0,5000.0,0.0,0.0,0.0
1513266161070881705,,608367,,1513266159,272366423,'',1.37881010908,1.37945059687,0.00289028678313,0.0,0.001,0.0,5000.0,0.0,0.0,0.0
1513266161080813222,,608368,,1513266159,282366423,'',1.37881010908,1.37824968225,-0.0214026849072,0.0,0.001,0.0,5000.0,0.0,0.0,0.0
1513266161090919067,,608369,,1513266159,292366423,'',1.37881010908,1.37945059687,0.00359098544007,0.0,0.001,0.0,5000.0,0.0,0.0,0.0
1513266161100918625,,608370,,1513266159,302366423,'',1.37881010908,1.37945059687,0.00335843671885,0.0,0.001,0.0,5000.0,0.0,0.0,0.0
1513266161110834697,,608371,,1513266159,312366423,'',1.37881010908,1.37945059687,0.00236245188745,0.0,0.001,0.0,5000.0,0.0,0.0,0.0
1513266161120799954,,608372,,1513266159,322366423,'',1.37881010908,1.37945059687,0.00111271452316,0.0,0.001,0.0,5000.0,0.0,0.0,0.0
1513266161130712753,,608373,,1513266159,332366423,'',1.37881010908,1.37945059687,0.000504185282516,0.0,0.001,0.0,5000.0,0.0,0.0,0.0
1513266161140743281,,608374,,1513266159,342366423,'',1.37881010908,1.37945059687,-2.26017774181e-05,0.0,0.001,0.0,5000.0,0.0,0.0,0.0
1513266161150715184,,608375,,1513266159,352366423,'',1.37881010908,1.37945059687,0.000394670577992,0.0,0.001,0.0,5000.0,0.0,0.0,0.0
1513266161160781189,,608376,,1513266159,362366423,'',1.37881010908,1.37945059687,0.000329747984694,0.0,0.001,0.0,5000.0,0.0,0.0,0.0
1513266161170432855,,608377,,1513266159,372366423,'',1.37881010908,1.37824968225,-0.0204948136777,0.0,0.001,0.0,5000.0,0.0,0.0,0.0
1513266161180398058,,608378,,1513266159,382366423,'',1.37881010908,1.37824968225,-0.019843927284,0.0,0.001,0.0,5000.0,0.0,0.0,0.0
1513266161190749692,,608379,,1513266159,392366423,'',1.37881010908,1.37824968225,-0.0193192855077,0.0,0.001,0.0,5000.0,0.0,0.0,0.0
1513266161200626579,,608380,,1513266159,402366423,'',1.37881010908,1.37945059687,0.00314775169288,0.0,0.001,0.0,5000.0,0.0,0.0,0.0
1513266161210655206,,608381,,1513266159,412366423,'',1.37881010908,1.3806515115,0.0250169413754,0.0,0.001,0.0,5000.0,0.0,0.0,0.0
1513266161220674836,,608382,,1513266159,422366423,'',1.37881010908,1.3806515115,0.0221543127343,0.0,0.001,0.0,5000.0,0.0,0.0,0.0
1513266161230585454,,608383,,1513266159,432366423,'',1.37881010908,1.3806515115,0.0155688335722,0.0,0.001,0.0,5000.0,0.0,0.0,0.0
1513266161240593423,,608384,,1513266159,442366423,'',1.37881010908,1.3806515115,0.0106410324043,0.0,0.001,0.0,5000.0,0.0,0.0,0.0
1513266161250515858,,608385,,1513266159,452366423,'',1.37881010908,1.38185242612,0.0302898753261,0.0,0.001,0.0,5000.0,0.0,0.0,0.0
1513266161260459824,,608386,,1513266159,462366423,'',1.37881010908,1.38185242612,0.0265856372722,0.0,0.001,0.0,5000.0,0.0,0.0,0.0
1513266161270488095,,608387,,1513266159,472366423,'',1.37881010908,1.38185242612,0.024311462204,0.0,0.001,0.0,5000.0,0.0,0.0,0.0
1513266161280501180,,608388,,1513266159,482366423,'',1.37881010908,1.3806515115,-0.00222222769715,0.0,0.001,0.0,5000.0,0.0,0.0,0.0
1513266161290491672,,608389,,1513266159,492366423,'',1.37881010908,1.3806515115,-0.00438639766285,0.0,0.001,0.0,5000.0,0.0,0.0,0.0
1513266161300584106,,608390,,1513266159,502366423,'',1.37881010908,1.37945059687,-0.0295177455203,0.0,0.001,0.0,5000.0,0.0,0.0,0.0
1513266161310397602,,608391,,1513266159,512366423,'',1.37881010908,1.3806515115,-0.00514728704104,0.0,0.001,0.0,5000.0,0.0,0.0,0.0
1513266161320346351,,608392,,1513266159,522366423,'',1.37881010908,1.3806515115,-0.00551510861808,0.0,0.001,0.0,5000.0,0.0,0.0,0.0
1513266161330519445,,608393,,1513266159,532366423,'',1.37881010908,1.38185242612,0.0171139244853,0.0,0.001,0.0,5000.0,0.0,0.0,0.0
1513266161340717222,,608394,,1513266159,542366423,'',1.37881010908,1.3806515115,-0.00877564908313,0.0,0.001,0.0,5000.0,0.0,0.0,0.0
1513266161350524527,,608395,,1513266159,552366423,'',1.37881010908,1.38185242612,0.0126978679601,0.0,0.001,0.0,5000.0,0.0,0.0,0.0
1513266161360509153,,608396,,1513266159,562366423,'',1.37881010908,1.38185242612,0.00818628118245,0.0,0.001,0.0,5000.0,0.0,0.0,0.0
1513266161370492038,,608397,,1513266159,572366423,'',1.37881010908,1.38305334074,0.0282704883263,0.0,0.001,0.0,5000.0,0.0,0.0,0.0
1513266161380488798,,608398,,1513266159,582366423,'',1.37881010908,1.38305334074,0.0239925784001,0.0,0.001,0.0,5000.0,0.0,0.0,0.0
1513266161390441384,,608399,,1513266159,592366423,'',1.37881010908,1.38185242612,-0.00153664109438,0.0,0.001,0.0,5000.0,0.0,0.0,0.0
1513266161410789529,,608400,,1513266159,612366423,'',1.37881010908,1.38185242612,-0.00211085831419,0.0,0.001,0.0,5000.0,0.0,0.0,0.0
1513266161420639904,,608401,,1513266159,622366423,'',1.37881010908,1.38185242612,-0.00215582994134,0.0,0.001,0.0,5000.0,0.0,0.0,0.0
1513266161430546249,,608402,,1513266159,632366423,'',1.37881010908,1.38305334074,0.0219941251852,0.0,0.001,0.0,5000.0,0.0,0.0,0.0
1513266161440616031,,608403,,1513266159,642366423,'',1.37881010908,1.38185242612,-0.00187055400588,0.0,0.001,0.0,5000.0,0.0,0.0,0.0
1513266161450484368,,608404,,1513266159,652366423,'',1.37881010908,1.38305334074,0.0218192691028,0.0,0.001,0.0,5000.0,0.0,0.0,0.0
1513266161460424500,,608405,,1513266159,662366423,'',1.37881010908,1.38185242612,-0.00106450628672,0.0,0.001,0.0,5000.0,0.0,0.0,0.0
1513266161470914865,,608406,,1513266159,672366423,'',1.37881010908,1.38185242612,-0.00184441682036,0.0,0.001,0.0,5000.0,0.0,0.0,0.0
1513266161480816197,,608407,,1513266159,682366423,'',1.37881010908,1.38425425537,0.0446776445934,0.0,0.001,0.0,5000.0,0.0,0.0,0.0
1513266161490658186,,608408,,1513266159,692366423,'',1.37881010908,1.38425425537,0.0439164014831,0.0,0.001,0.0,5000.0,0.0,0.0,0.0
1513266161500596804,,608409,,1513266159,702366423,'',1.37881010908,1.38545516999,0.0639322356593,0.0,0.001,0.0,5000.0,0.0,0.0,0.0
1513266161510515448,,608410,,1513266159,712366423,'',1.37881010908,1.38665608461,0.0734636389124,0.0,0.001,0.0,5000.0,0.0,0.0,0.0
1513266161520485978,,608411,,1513266159,722366423,'',1.37881010908,1.39266065773,0.167872685071,0.0,0.001,0.0,5000.0,0.0,0.0,0.0
1513266161530899216,,608412,,1513266159,732366423,'',1.37881010908,1.39986614546,0.266879440712,0.0,0.001,0.0,5000.0,0.0,0.0,0.0
1513266161540828299,,608413,,1513266159,742366423,'',1.37881010908,1.40466980396,0.306472122188,0.0258596948805,0.001,-129.298474402,5000.0,0.0,0.0,0.0
1513266161550395089,,608414,,1513266159,752366423,'',1.37881010908,1.40346888933,0.235000682199,0.0246587802575,0.001,-123.293901288,5000.0,0.0,0.0,0.0
1513266161560829583,,608415,,1513266159,762366423,'',1.37881010908,1.40466980396,0.219802456598,0.0258596948805,0.001,-129.298474402,5000.0,0.0,0.0,0.0
1513266161570869694,,608416,,1513266159,772366423,'',1.37881010908,1.4070716332,0.221926902821,0.0282615241263,0.001,-141.307620632,5000.0,0.0,0.0,0.0
1513266161580713481,,608417,,1513266159,782366423,'',1.37881010908,1.4070716332,0.179602617297,0.0282615241263,0.001,-141.307620632,5000.0,0.0,0.0,0.0
1513266161590595018,,608418,,1513266159,792366423,'',1.37881010908,1.40827254782,0.168104350353,0.0294624387493,0.001,-147.312193746,5000.0,0.0,0.0,0.0
1513266161600598404,,608419,,1513266159,802366423,'',1.37881010908,1.40947346245,0.161810316611,0.0306633533722,0.001,-153.316766861,5000.0,0.0,0.0,0.0
1513266161610615280,,608420,,1513266159,812366423,'',1.37881010908,1.4070716332,0.0880413348755,0.0282615241263,0.001,-141.307620632,5000.0,0.0,0.0,0.0
1513266161620590599,,608421,,1513266159,822366423,'',1.37881010908,1.40827254782,0.090600241421,0.0294624387493,0.001,-147.312193746,5000.0,0.0,0.0,0.0
1513266161630510628,,608422,,1513266159,832366423,'',1.37881010908,1.41187529169,0.140712273038,0.0330651826181,0.001,-165.32591309,5000.0,0.0,0.0,0.0
1513266161640747658,,608423,,1513266159,842366423,'',1.37881010908,1.41067437707,0.093675016367,0.0318642679951,0.001,-159.321339976,5000.0,0.0,0.0,0.0
1513266161650582602,,608424,,1513266159,852366423,'',1.37881010908,1.41187529169,0.096898726449,0.0330651826181,0.001,-165.32591309,5000.0,0.0,0.0,0.0
1513266161660534825,,608425,,1513266159,862366423,'',1.37881010908,1.41307620632,0.10517708626,0.034266097241,0.001,-171.330486205,5000.0,0.0,0.0,0.0
1513266161670365485,,608426,,1513266159,872366423,'',1.37881010908,1.41187529169,0.0679772310502,0.0330651826181,0.001,-165.32591309,5000.0,0.0,0.0,0.0
1513266161680807503,,608427,,1513266159,882366423,'',1.37881010908,1.41067437707,0.0344495902787,0.0318642679951,0.001,-159.321339976,5000.0,0.0,0.0,0.0
1513266161690797536,,608428,,1513266159,892366423,'',1.37881010908,1.41067437707,0.0269314723724,0.0318642679951,0.001,-159.321339976,5000.0,0.0,0.0,0.0
1513266161700456605,,608429,,1513266159,902366423,'',1.37881010908,1.41067437707,0.019857606844,0.0318642679951,0.001,-159.321339976,5000.0,0.0,0.0,0.0
1513266161710391604,,608430,,1513266159,912366423,'',1.37881010908,1.41067437707,0.0145586958331,0.0318642679951,0.001,-159.321339976,5000.0,0.0,0.0,0.0
1513266161720845729,,608431,,1513266159,922366423,'',1.37881010908,1.41187529169,0.0335601917563,0.0330651826181,0.001,-165.32591309,5000.0,0.0,0.0,0.0
1513266161730805153,,608432,,1513266159,932366423,'',1.37881010908,1.41067437707,0.00677220089508,0.0318642679951,0.001,-159.321339976,5000.0,0.0,0.0,0.0
1513266161740823985,,608433,,1513266159,942366423,'',1.37881010908,1.41187529169,0.0288051452559,0.0330651826181,0.001,-165.32591309,5000.0,0.0,0.0,0.0
1513266161750808454,,608434,,1513266159,952366423,'',1.37881010908,1.41067437707,0.00238220545335,0.0318642679951,0.001,-159.321339976,5000.0,0.0,0.0,0.0
1513266161760676580,,608435,,1513266159,962366423,'',1.37881010908,1.41067437707,0.000184581291721,0.0318642679951,0.001,-159.321339976,5000.0,0.0,0.0,0.0
1513266161770577751,,608436,,1513266159,972366423,'',1.37881010908,1.41187529169,0.0243255925767,0.0330651826181,0.001,-165.32591309,5000.0,0.0,0.0,0.0
1513266161780616234,,608437,,1513266159,982366423,'',1.37881010908,1.41067437707,0.00129820958427,0.0318642679951,0.001,-159.321339976,5000.0,0.0,0.0,0.0
1513266161790623134,,608438,,1513266159,992366423,'',1.37881010908,1.40947346245,-0.022719993732,0.0306633533722,0.001,-153.316766861,5000.0,0.0,0.0,0.0
1513266161800469778,,608439,,1513266160,2366423,'',1.37881010908,1.41067437707,0.00128628222991,0.0318642679951,0.001,-159.321339976,5000.0,0.0,0.0,0.0
1513266161810542965,,608440,,1513266160,12366423,'',1.37881010908,1.41067437707,0.00105311902277,0.0318642679951,0.001,-159.321339976,5000.0,0.0,0.0,0.0
1513266161820511594,,608441,,1513266160,22366423,'',1.37881010908,1.41067437707,0.000930597433622,0.0318642679951,0.001,-159.321339976,5000.0,0.0,0.0,0.0
1513266161830491779,,608442,,1513266160,32366423,'',1.37881010908,1.41067437707,0.00119551292239,0.0318642679951,0.001,-159.321339976,5000.0,0.0,0.0,0.0
1513266161840486830,,608443,,1513266160,42366423,'',1.37881010908,1.41187529169,0.0260411312787,0.0330651826181,0.001,-165.32591309,5000.0,0.0,0.0,0.0
1513266161850375574,,608444,,1513266160,52366423,'',1.37881010908,1.41067437707,0.00228447409605,0.0318642679951,0.001,-159.321339976,5000.0,0.0,0.0,0.0
1513266161860831543,,608445,,1513266160,62366423,'',1.37881010908,1.41067437707,0.00271978725298,0.0318642679951,0.001,-159.321339976,5000.0,0.0,0.0,0.0
1513266161870816117,,608446,,1513266160,72366423,'',1.37881010908,1.41067437707,0.00269000954911,0.0318642679951,0.001,-159.321339976,5000.0,0.0,0.0,0.0
1513266161880850499,,608447,,1513266160,82366423,'',1.37881010908,1.40947346245,-0.02115654312,0.0306633533722,0.001,-153.316766861,5000.0,0.0,0.0,0.0
1513266161890745426,,608448,,1513266160,92366423,'',1.37881010908,1.40947346245,-0.0199519123498,0.0306633533722,0.001,-153.316766861,5000.0,0.0,0.0,0.0
1513266161900672648,,608449,,1513266160,102366423,'',1.37881010908,1.40947346245,-0.0201685773733,0.0306633533722,0.001,-153.316766861,5000.0,0.0,0.0,0.0
1513266161910695736,,608450,,1513266160,112366423,'',1.37881010908,1.41067437707,0.00511463367785,0.0318642679951,0.001,-159.321339976,5000.0,0.0,0.0,0.0
1513266161920610161,,608451,,1513266160,122366423,'',1.37881010908,1.41067437707,0.00594062433018,0.0318642679951,0.001,-159.321339976,5000.0,0.0,0.0,0.0
1513266161930542783,,608452,,1513266160,132366423,'',1.37881010908,1.40947346245,-0.0171184863334,0.0306633533722,0.001,-153.316766861,5000.0,0.0,0.0,0.0
1513266161940391630,,608453,,1513266160,142366423,'',1.37881010908,1.41067437707,0.00806833506215,0.0318642679951,0.001,-159.321339976,5000.0,0.0,0.0,0.0
1513266161950395772,,608454,,1513266160,152366423,'',1.37881010908,1.40827254782,-0.039298600318,0.0294624387493,0.001,-147.312193746,5000.0,0.0,0.0,0.0
1513266161960423814,,608455,,1513266160,162366423,'',1.37881010908,1.40947346245,-0.0153444641323,0.0306633533722,0.001,-153.316766861,5000.0,0.0,0.0,0.0
1513266161970379438,,608456,,1513266160,172366423,'',1.37881010908,1.41187529169,0.0323486642881,0.0330651826181,0.001,-165.32591309,5000.0,0.0,0.0,0.0
1513266161980790058,,608457,,1513266160,182366423,'',1.37881010908,1.41067437707,0.00703266451848,0.0318642679951,0.001,-159.321339976,5000.0,0.0,0.0,0.0
1513266161990819098,,608458,,1513266160,192366423,'',1.37881010908,1.40947346245,-0.0166639007499,0.0306633533722,0.001,-153.316766861,5000.0,0.0,0.0,0.0
1513266162000831751,,608459,,1513266160,202366423,'',1.37881010908,1.40947346245,-0.0149646225252,0.0306633533722,0.001,-153.316766861,5000.0,0.0,0.0,0.0
1513266162010758682,,608460,,1513266160,212366423,'',1.37881010908,1.41187529169,0.0336414565719,0.0330651826181,0.001,-165.32591309,5000.0,0.0,0.0,0.0
1513266162020781677,,608461,,1513266160,222366423,'',1.37881010908,1.41067437707,0.00901034976758,0.0318642679951,0.001,-159.321339976,5000.0,0.0,0.0,0.0
1513266162030778747,,608462,,1513266160,232366423,'',1.37881010908,1.40947346245,-0.0150665445287,0.0306633533722,0.001,-153.316766861,5000.0,0.0,0.0,0.0
1513266162040689788,,608463,,1513266160,242366423,'',1.37881010908,1.40947346245,-0.0150230315749,0.0306633533722,0.001,-153.316766861,5000.0,0.0,0.0,0.0
1513266162050667831,,608464,,1513266160,252366423,'',1.37881010908,1.41067437707,0.010095462946,0.0318642679951,0.001,-159.321339976,5000.0,0.0,0.0,0.0
1513266162060621198,,608465,,1513266160,262366423,'',1.37881010908,1.41067437707,0.0112572285767,0.0318642679951,0.001,-159.321339976,5000.0,0.0,0.0,0.0
1513266162070614639,,608466,,1513266160,272366423,'',1.37881010908,1.40947346245,-0.011087305906,0.0306633533722,0.001,-153.316766861,5000.0,0.0,0.0,0.0
1513266162080644342,,608467,,1513266160,282366423,'',1.37881010908,1.40947346245,-0.0116865451389,0.0306633533722,0.001,-153.316766861,5000.0,0.0,0.0,0.0
1513266162090824653,,608468,,1513266160,292366423,'',1.37881010908,1.41067437707,0.0120472273894,0.0318642679951,0.001,-159.321339976,5000.0,0.0,0.0,0.0
1513266162100549940,,608469,,1513266160,302366423,'',1.37881010908,1.41067437707,0.0125536855597,0.0318642679951,0.001,-159.321339976,5000.0,0.0,0.0,0.0
1513266162110436982,,608470,,1513266160,312366423,'',1.37881010908,1.40947346245,-0.0126209004416,0.0306633533722,0.001,-153.316766861,5000.0,0.0,0.0,0.0
1513266162120663647,,608471,,1513266160,322366423,'',1.37881010908,1.41067437707,0.010831094125,0.0318642679951,0.001,-159.321339976,5000.0,0.0,0.0,0.0
1513266162130617337,,608472,,1513266160,332366423,'',1.37881010908,1.41067437707,0.0105693935612,0.0318642679951,0.001,-159.321339976,5000.0,0.0,0.0,0.0
1513266162140568426,,608473,,1513266160,342366423,'',1.37881010908,1.40947346245,-0.0121323076731,0.0306633533722,0.001,-153.316766861,5000.0,0.0,0.0,0.0
1513266162150782111,,608474,,1513266160,352366423,'',1.37881010908,1.41067437707,0.0112084709704,0.0318642679951,0.001,-159.321339976,5000.0,0.0,0.0,0.0
1513266162160641802,,608475,,1513266160,362366423,'',1.37881010908,1.40947346245,-0.0124307902502,0.0306633533722,0.001,-153.316766861,5000.0,0.0,0.0,0.0
1513266162170478176,,608476,,1513266160,372366423,'',1.37881010908,1.40947346245,-0.0101570793297,0.0306633533722,0.001,-153.316766861,5000.0,0.0,0.0,0.0
1513266162180698455,,608477,,1513266160,382366423,'',1.37881010908,1.40947346245,-0.00964628525565,0.0306633533722,0.001,-153.316766861,5000.0,0.0,0.0,0.0
1513266162190751132,,608478,,1513266160,392366423,'',1.37881010908,1.41067437707,0.015495946278,0.0318642679951,0.001,-159.321339976,5000.0,0.0,0.0,0.0
1513266162200821305,,608479,,1513266160,402366423,'',1.37881010908,1.41067437707,0.0148660331325,0.0318642679951,0.001,-159.321339976,5000.0,0.0,0.0,0.0
1513266162210757710,,608480,,1513266160,412366423,'',1.37881010908,1.40947346245,-0.00974012278938,0.0306633533722,0.001,-153.316766861,5000.0,0.0,0.0,0.0
1513266162220613448,,608481,,1513266160,422366423,'',1.37881010908,1.41067437707,0.0145282190679,0.0318642679951,0.001,-159.321339976,5000.0,0.0,0.0,0.0
1513266162230499536,,608482,,1513266160,432366423,'',1.37881010908,1.41067437707,0.0140786951602,0.0318642679951,0.001,-159.321339976,5000.0,0.0,0.0,0.0
1513266162240622768,,608483,,1513266160,442366423,'',1.37881010908,1.41067437707,0.014102719226,0.0318642679951,0.001,-159.321339976,5000.0,0.0,0.0,0.0
1513266162250899948,,608484,,1513266160,452366423,'',1.37881010908,1.40947346245,-0.0109339950179,0.0306633533722,0.001,-153.316766861,5000.0,0.0,0.0,0.0
1513266162260807256,,608485,,1513266160,462366423,'',1.37881010908,1.41067437707,0.0122206893026,0.0318642679951,0.001,-159.321339976,5000.0,0.0,0.0,0.0
1513266162270779795,,608486,,1513266160,472366423,'',1.37881010908,1.40947346245,-0.0111707158253,0.0306633533722,0.001,-153.316766861,5000.0,0.0,0.0,0.0
1513266162280718844,,608487,,1513266160,482366423,'',1.37881010908,1.40947346245,-0.0130284014818,0.0306633533722,0.001,-153.316766861,5000.0,0.0,0.0,0.0
1513266162290625740,,608488,,1513266160,492366423,'',1.37881010908,1.40947346245,-0.0120019490131,0.0306633533722,0.001,-153.316766861,5000.0,0.0,0.0,0.0
1513266162300726388,,608489,,1513266160,502366423,'',1.37881010908,1.40947346245,-0.0120223160733,0.0306633533722,0.001,-153.316766861,5000.0,0.0,0.0,0.0
1513266162310699134,,608490,,1513266160,512366423,'',1.37881010908,1.40947346245,-0.0106483144443,0.0306633533722,0.001,-153.316766861,5000.0,0.0,0.0,0.0
1513266162320648308,,608491,,1513266160,522366423,'',1.37881010908,1.41067437707,0.0133247039112,0.0318642679951,0.001,-159.321339976,5000.0,0.0,0.0,0.0
1513266162330551223,,608492,,1513266160,532366423,'',1.37881010908,1.41067437707,0.0135156439386,0.0318642679951,0.001,-159.321339976,5000.0,0.0,0.0,0.0
1513266162340892955,,608493,,1513266160,542366423,'',1.37881010908,1.40947346245,-0.0101174847344,0.0306633533722,0.001,-153.316766861,5000.0,0.0,0.0,0.0
1513266162350943507,,608494,,1513266160,552366423,'',1.37881010908,1.40947346245,-0.00875283919307,0.0306633533722,0.001,-153.316766861,5000.0,0.0,0.0,0.0
1513266162360814292,,608495,,1513266160,562366423,'',1.37881010908,1.41067437707,0.016164534901,0.0318642679951,0.001,-159.321339976,5000.0,0.0,0.0,0.0
1513266162370728286,,608496,,1513266160,572366423,'',1.37881010908,1.41067437707,0.0154352343886,0.0318642679951,0.001,-159.321339976,5000.0,0.0,0.0,0.0
1513266162380789607,,608497,,1513266160,582366423,'',1.37881010908,1.40947346245,-0.00987464200809,0.0306633533722,0.001,-153.316766861,5000.0,0.0,0.0,0.0
1513266162390463417,,608498,,1513266160,592366423,'',1.37881010908,1.41067437707,0.0149139340305,0.0318642679951,0.001,-159.321339976,5000.0,0.0,0.0,0.0
1513266162400558011,,608499,,1513266160,602366423,'',1.37881010908,1.41187529169,0.0381747662266,0.0330651826181,0.001,-165.32591309,5000.0,0.0,0.0,0.0
1513266162410836845,,608500,,1513266160,612366423,'',1.37881010908,1.41187529169,0.0369281647783,0.0330651826181,0.001,-165.32591309,5000.0,0.0,0.0,0.0
1513266162420520061,,608501,,1513266160,622366423,'',1.37881010908,1.41067437707,0.0125810067144,0.0318642679951,0.001,-159.321339976,5000.0,0.0,0.0,0.0
1513266162430846036,,608502,,1513266160,632366423,'',1.37881010908,1.40947346245,-0.0117530075486,0.0306633533722,0.001,-153.316766861,5000.0,0.0,0.0,0.0
1513266162440822049,,608503,,1513266160,642366423,'',1.37881010908,1.40947346245,-0.0135793541963,0.0306633533722,0.001,-153.316766861,5000.0,0.0,0.0,0.0
1513266162450669776,,608504,,1513266160,652366423,'',1.37881010908,1.40947346245,-0.0137501309578,0.0306633533722,0.001,-153.316766861,5000.0,0.0,0.0,0.0
1513266162460566220,,608505,,1513266160,662366423,'',1.37881010908,1.40947346245,-0.0139301480249,0.0306633533722,0.001,-153.316766861,5000.0,0.0,0.0,0.0
1513266162470784729,,608506,,1513266160,672366423,'',1.37881010908,1.40947346245,-0.0131122178355,0.0306633533722,0.001,-153.316766861,5000.0,0.0,0.0,0.0
1513266162480702063,,608507,,1513266160,682366423,'',1.37881010908,1.41067437707,0.0104540393377,0.0318642679951,0.001,-159.321339976,5000.0,0.0,0.0,0.0
1513266162490775281,,608508,,1513266160,692366423,'',1.37881010908,1.41067437707,0.0107734755325,0.0318642679951,0.001,-159.321339976,5000.0,0.0,0.0,0.0
1513266162500840883,,608509,,1513266160,702366423,'',1.37881010908,1.40947346245,-0.0123492796699,0.0306633533722,0.001,-153.316766861,5000.0,0.0,0.0,0.0
1513266162510748933,,608510,,1513266160,712366423,'',1.37881010908,1.40947346245,-0.0118325263655,0.0306633533722,0.001,-153.316766861,5000.0,0.0,0.0,0.0
1513266162520525801,,608511,,1513266160,722366423,'',1.37881010908,1.41067437707,0.0123685650621,0.0318642679951,0.001,-159.321339976,5000.0,0.0,0.0,0.0
1513266162530484485,,608512,,1513266160,732366423,'',1.37881010908,1.40947346245,-0.0118503549564,0.0306633533722,0.001,-153.316766861,5000.0,0.0,0.0,0.0
1513266162540440218,,608513,,1513266160,742366423,'',1.37881010908,1.41067437707,0.0118075017118,0.0318642679951,0.001,-159.321339976,5000.0,0.0,0.0,0.0
1513266162550877220,,608514,,1513266160,752366423,'',1.37881010908,1.40947346245,-0.0123940872971,0.0306633533722,0.001,-153.316766861,5000.0,0.0,0.0,0.0
1513266162560498495,,608515,,1513266160,762366423,'',1.37881010908,1.41067437707,0.0110330036629,0.0318642679951,0.001,-159.321339976,5000.0,0.0,0.0,0.0
1513266162570423939,,608516,,1513266160,772366423,'',1.37881010908,1.41187529169,0.0340610350687,0.0330651826181,0.001,-165.32591309,5000.0,0.0,0.0,0.0
1513266162580428919,,608517,,1513266160,782366423,'',1.37881010908,1.40947346245,-0.0135038938501,0.0306633533722,0.001,-153.316766861,5000.0,0.0,0.0,0.0
1513266162590429371,,608518,,1513266160,792366423,'',1.37881010908,1.40827254782,-0.0370533990155,0.0294624387493,0.001,-147.312193746,5000.0,0.0,0.0,0.0
1513266162600505459,,608519,,1513266160,802366423,'',1.37881010908,1.40947346245,-0.0130277758705,0.0306633533722,0.001,-153.316766861,5000.0,0.0,0.0,0.0
1513266162610535409,,608520,,1513266160,812366423,'',1.37881010908,1.40947346245,-0.0124076037177,0.0306633533722,0.001,-153.316766861,5000.0,0.0,0.0,0.0
1513266162620928124,,608521,,1513266160,822366423,'',1.37881010908,1.41067437707,0.0127267512696,0.0318642679951,0.001,-159.321339976,5000.0,0.0,0.0,0.0
1513266162630451486,,608522,,1513266160,832366423,'',1.37881010908,1.40947346245,-0.0112073926531,0.0306633533722,0.001,-153.316766861,5000.0,0.0,0.0,0.0
1513266162640434679,,608523,,1513266160,842366423,'',1.37881010908,1.40947346245,-0.010897249177,0.0306633533722,0.001,-153.316766861,5000.0,0.0,0.0,0.0
1513266162650915578,,608524,,1513266160,852366423,'',1.37881010908,1.40827254782,-0.0335701408859,0.0294624387493,0.001,-147.312193746,5000.0,0.0,0.0,0.0
1513266162660871774,,608525,,1513266160,862366423,'',1.37881010908,1.41067437707,0.0149187273582,0.0318642679951,0.001,-159.321339976,5000.0,0.0,0.0,0.0
1513266162670694771,,608526,,1513266160,872366423,'',1.37881010908,1.41067437707,0.0138914673601,0.0318642679951,0.001,-159.321339976,5000.0,0.0,0.0,0.0
1513266162680593064,,608527,,1513266160,882366423,'',1.37881010908,1.41067437707,0.0135224567221,0.0318642679951,0.001,-159.321339976,5000.0,0.0,0.0,0.0
1513266162690547252,,608528,,1513266160,892366423,'',1.37881010908,1.41187529169,0.0370295246664,0.0330651826181,0.001,-165.32591309,5000.0,0.0,0.0,0.0
1513266162700465914,,608529,,1513266160,902366423,'',1.37881010908,1.40947346245,-0.0115049927664,0.0306633533722,0.001,-153.316766861,5000.0,0.0,0.0,0.0
1513266162710372974,,608530,,1513266160,912366423,'',1.37881010908,1.40947346245,-0.0124333847369,0.0306633533722,0.001,-153.316766861,5000.0,0.0,0.0,0.0
1513266162720518098,,608531,,1513266160,922366423,'',1.37881010908,1.40947346245,-0.0118902043009,0.0306633533722,0.001,-153.316766861,5000.0,0.0,0.0,0.0
1513266162730534553,,608532,,1513266160,932366423,'',1.37881010908,1.41067437707,0.0113900607024,0.0318642679951,0.001,-159.321339976,5000.0,0.0,0.0,0.0
1513266162740900635,,608533,,1513266160,942366423,'',1.37881010908,1.40947346245,-0.0119063182302,0.0306633533722,0.001,-153.316766861,5000.0,0.0,0.0,0.0
1513266162752438453,,608534,,1513266160,952366423,'',1.37881010908,1.40947346245,-0.0102002773816,0.0306633533722,0.001,-153.316766861,5000.0,0.0,0.0,0.0
1513266162760603185,,608535,,1513266160,962366423,'',1.37881010908,1.40947346245,-0.00968327719176,0.0306633533722,0.001,-153.316766861,5000.0,0.0,0.0,0.0
1513266162770730330,,608536,,1513266160,972366423,'',1.37881010908,1.41067437707,0.0149987587195,0.0318642679951,0.001,-159.321339976,5000.0,0.0,0.0,0.0
1513266162780630650,,608537,,1513266160,982366423,'',1.37881010908,1.40947346245,-0.0102226838678,0.0306633533722,0.001,-153.316766861,5000.0,0.0,0.0,0.0
1513266162790442884,,608538,,1513266160,992366423,'',1.37881010908,1.40827254782,-0.0338300571662,0.0294624387493,0.001,-147.312193746,5000.0,0.0,0.0,0.0
1513266162800430924,,608539,,1513266161,2366423,'',1.37881010908,1.41067437707,0.0147143301674,0.0318642679951,0.001,-159.321339976,5000.0,0.0,0.0,0.0
1513266162810424026,,608540,,1513266161,12366423,'',1.37881010908,1.40827254782,-0.0324778217829,0.0294624387493,0.001,-147.312193746,5000.0,0.0,0.0,0.0
1513266162820395828,,608541,,1513266161,22366423,'',1.37881010908,1.41067437707,0.0157379327852,0.0318642679951,0.001,-159.321339976,5000.0,0.0,0.0,0.0
1513266162830768369,,608542,,1513266161,32366423,'',1.37881010908,1.41067437707,0.0150639077709,0.0318642679951,0.001,-159.321339976,5000.0,0.0,0.0,0.0
1513266162840841038,,608543,,1513266161,42366423,'',1.37881010908,1.40947346245,-0.00845569559972,0.0306633533722,0.001,-153.316766861,5000.0,0.0,0.0,0.0
1513266162850711853,,608544,,1513266161,52366423,'',1.37881010908,1.40827254782,-0.0315644948223,0.0294624387493,0.001,-147.312193746,5000.0,0.0,0.0,0.0
1513266162860712297,,608545,,1513266161,62366423,'',1.37881010908,1.40947346245,-0.00643077487319,0.0306633533722,0.001,-153.316766861,5000.0,0.0,0.0,0.0
1513266162870634144,,608546,,1513266161,72366423,'',1.37881010908,1.41067437707,0.0193452590386,0.0318642679951,0.001,-159.321339976,5000.0,0.0,0.0,0.0
1513266162880773131,,608547,,1513266161,82366423,'',1.37881010908,1.40947346245,-0.00401388984375,0.0306633533722,0.001,-153.316766861,5000.0,0.0,0.0,0.0
1513266162890659037,,608548,,1513266161,92366423,'',1.37881010908,1.41067437707,0.018785177942,0.0318642679951,0.001,-159.321339976,5000.0,0.0,0.0,0.0
1513266162900842721,,608549,,1513266161,102366423,'',1.37881010908,1.40947346245,-0.00486083861515,0.0306633533722,0.001,-153.316766861,5000.0,0.0,0.0,0.0
1513266162910828217,,608550,,1513266161,112366423,'',1.37881010908,1.40947346245,-0.00349119071618,0.0306633533722,0.001,-153.316766861,5000.0,0.0,0.0,0.0
1513266162920832000,,608551,,1513266161,122366423,'',1.37881010908,1.40827254782,-0.0257579592799,0.0294624387493,0.001,-147.312193746,5000.0,0.0,0.0,0.0
1513266162930802637,,608552,,1513266161,132366423,'',1.37881010908,1.40947346245,0.00227051594273,0.0306633533722,0.001,-153.316766861,5000.0,0.0,0.0,0.0
1513266162940808227,,608553,,1513266161,142366423,'',1.37881010908,1.4070716332,-0.0387041058735,0.0282615241263,0.001,-141.307620632,5000.0,0.0,0.0,0.0
1513266162950798699,,608554,,1513266161,152366423,'',1.37881010908,1.4070716332,-0.0290080204669,0.0282615241263,0.001,-141.307620632,5000.0,0.0,0.0,0.0
1513266162960702629,,608555,,1513266161,162366423,'',1.37881010908,1.40466980396,-0.0656416360998,0.0258596948805,0.001,-129.298474402,5000.0,0.0,0.0,0.0
1513266162970402970,,608556,,1513266161,172366423,'',1.37881010908,1.40346888933,-0.0792349806824,0.0246587802575,0.001,-123.293901288,5000.0,0.0,0.0,0.0
1513266162980804838,,608557,,1513266161,182366423,'',1.37881010908,1.40346888933,-0.0656396714755,0.0246587802575,0.001,-123.293901288,5000.0,0.0,0.0,0.0
1513266162990379061,,608558,,1513266161,192366423,'',1.37881010908,1.40226797471,-0.0757309634265,0.0234578656346,0.001,-117.289328173,5000.0,0.0,0.0,0.0
1513266163000866229,,608559,,1513266161,202366423,'',1.37881010908,1.40226797471,-0.0619394657049,0.0234578656346,0.001,-117.289328173,5000.0,0.0,0.0,0.0
1513266163010878284,,608560,,1513266161,212366423,'',1.37881010908,1.40106706009,-0.0705228714085,0.0222569510117,0.001,-111.284755058,5000.0,0.0,0.0,0.0
1513266163020893576,,608561,,1513266161,222366423,'',1.37881010908,1.39986614546,-0.0802427056739,0.0210560363887,0.001,-105.280181944,5000.0,0.0,0.0,0.0
1513266163030850312,,608562,,1513266161,232366423,'',1.37881010908,1.39986614546,-0.0653540593155,0.0210560363887,0.001,-105.280181944,5000.0,0.0,0.0,0.0
1513266163040765198,,608563,,1513266161,242366423,'',1.37881010908,1.39866523084,-0.07508231169,0.0198551217658,0.001,-99.275608829,5000.0,0.0,0.0,0.0
1513266163050814068,,608564,,1513266161,252366423,'',1.37881010908,1.39746431622,-0.0848317331199,0.0186542071429,0.001,-93.2710357144,5000.0,0.0,0.0,0.0
1513266163060658273,,608565,,1513266161,262366423,'',1.37881010908,1.39866523084,-0.047843696847,0.0198551217658,0.001,-99.275608829,5000.0,0.0,0.0,0.0
1513266163070666728,,608566,,1513266161,272366423,'',1.37881010908,1.39746431622,-0.0589582008057,0.0186542071429,0.001,-93.2710357144,5000.0,0.0,0.0,0.0
1513266163080511641,,608567,,1513266161,282366423,'',1.37881010908,1.39866523084,-0.024023403499,0.0198551217658,0.001,-99.275608829,5000.0,0.0,0.0,0.0
1513266163090386538,,608568,,1513266161,292366423,'',1.37881010908,1.39746431622,-0.038150139076,0.0186542071429,0.001,-93.2710357144,5000.0,0.0,0.0,0.0
1513266163100916636,,608569,,1513266161,302366423,'',1.37881010908,1.39746431622,-0.0281907713744,0.0186542071429,0.001,-93.2710357144,5000.0,0.0,0.0,0.0
1513266163110908979,,608570,,1513266161,312366423,'',1.37881010908,1.39746431622,-0.0196090602527,0.0186542071429,0.001,-93.2710357144,5000.0,0.0,0.0,0.0
1513266163120865048,,608571,,1513266161,322366423,'',1.37881010908,1.39506248697,-0.0587801818239,0.016252377897,0.001,-81.2618894851,5000.0,0.0,0.0,0.0
1513266163130751878,,608572,,1513266161,332366423,'',1.37881010908,1.3962634016,-0.0278376113688,0.0174532925199,0.001,-87.2664625997,5000.0,0.0,0.0,0.0
1513266163140732376,,608573,,1513266161,342366423,'',1.37881010908,1.39506248697,-0.0457662436496,0.016252377897,0.001,-81.2618894851,5000.0,0.0,0.0,0.0
1513266163150617086,,608574,,1513266161,352366423,'',1.37881010908,1.3962634016,-0.0166731296096,0.0174532925199,0.001,-87.2664625997,5000.0,0.0,0.0,0.0
1513266163160573923,,608575,,1513266161,362366423,'',1.37881010908,1.39746431622,0.0114106479064,0.0186542071429,0.001,-93.2710357144,5000.0,0.0,0.0,0.0
1513266163170575307,,608576,,1513266161,372366423,'',1.37881010908,1.39386157235,-0.0541734013519,0.0150514632741,0.001,-75.2573163704,5000.0,0.0,0.0,0.0
1513266163180429281,,608577,,1513266161,382366423,'',1.37881010908,1.39506248697,-0.0261970508799,0.016252377897,0.001,-81.2618894851,5000.0,0.0,0.0,0.0
1513266163190486068,,608578,,1513266161,392366423,'',1.37881010908,1.39386157235,-0.0460978363786,0.0150514632741,0.001,-75.2573163704,5000.0,0.0,0.0,0.0
1513266163200411247,,608579,,1513266161,402366423,'',1.37881010908,1.39506248697,-0.016994556302,0.016252377897,0.001,-81.2618894851,5000.0,0.0,0.0,0.0
1513266163210438434,,608580,,1513266161,412366423,'',1.37881010908,1.39506248697,-0.0138759647421,0.016252377897,0.001,-81.2618894851,5000.0,0.0,0.0,0.0
1513266163220914342,,608581,,1513266161,422366423,'',1.37881010908,1.39386157235,-0.0356072700776,0.0150514632741,0.001,-75.2573163704,5000.0,0.0,0.0,0.0
1513266163230445179,,608582,,1513266161,432366423,'',1.37881010908,1.39506248697,-0.00974909307974,0.016252377897,0.001,-81.2618894851,5000.0,0.0,0.0,0.0
1513266163240902727,,608583,,1513266161,442366423,'',1.37881010908,1.39506248697,-0.00755150115884,0.016252377897,0.001,-81.2618894851,5000.0,0.0,0.0,0.0
1513266163250866017,,608584,,1513266161,452366423,'',1.37881010908,1.39386157235,-0.0303986705158,0.0150514632741,0.001,-75.2573163704,5000.0,0.0,0.0,0.0
1513266163260517073,,608585,,1513266161,462366423,'',1.37881010908,1.39506248697,-0.00349195373677,0.016252377897,0.001,-81.2618894851,5000.0,0.0,0.0,0.0
1513266163270660440,,608586,,1513266161,472366423,'',1.37881010908,1.39506248697,-0.0020330946609,0.016252377897,0.001,-81.2618894851,5000.0,0.0,0.0,0.0
1513266163280487270,,608587,,1513266161,482366423,'',1.37881010908,1.39506248697,-0.000374714752695,0.016252377897,0.001,-81.2618894851,5000.0,0.0,0.0,0.0
1513266163290435398,,608588,,1513266161,492366423,'',1.37881010908,1.39506248697,-0.000690372662644,0.016252377897,0.001,-81.2618894851,5000.0,0.0,0.0,0.0
1513266163300814119,,608589,,1513266161,502366423,'',1.37881010908,1.39506248697,0.000736516997311,0.016252377897,0.001,-81.2618894851,5000.0,0.0,0.0,0.0
1513266163310603578,,608590,,1513266161,512366423,'',1.37881010908,1.3962634016,0.0252095630603,0.0174532925199,0.001,-87.2664625997,5000.0,0.0,0.0,0.0
1513266163320461515,,608591,,1513266161,522366423,'',1.37881010908,1.39506248697,0.00163504033465,0.016252377897,0.001,-81.2618894851,5000.0,0.0,0.0,0.0
1513266163330873696,,608592,,1513266161,532366423,'',1.37881010908,1.39506248697,0.00302112851111,0.016252377897,0.001,-81.2618894851,5000.0,0.0,0.0,0.0
1513266163340910297,,608593,,1513266161,542366423,'',1.37881010908,1.39386157235,-0.0204420798179,0.0150514632741,0.001,-75.2573163704,5000.0,0.0,0.0,0.0
1513266163350872376,,608594,,1513266161,552366423,'',1.37881010908,1.39386157235,-0.0193839048756,0.0150514632741,0.001,-75.2573163704,5000.0,0.0,0.0,0.0
1513266163360896876,,608595,,1513266161,562366423,'',1.37881010908,1.39506248697,0.00488109808027,0.016252377897,0.001,-81.2618894851,5000.0,0.0,0.0,0.0
1513266163371002792,,608596,,1513266161,572366423,'',1.37881010908,1.39506248697,0.00399875468875,0.016252377897,0.001,-81.2618894851,5000.0,0.0,0.0,0.0
1513266163380836098,,608597,,1513266161,582366423,'',1.37881010908,1.39506248697,0.00678862480951,0.016252377897,0.001,-81.2618894851,5000.0,0.0,0.0,0.0
1513266163390784373,,608598,,1513266161,592366423,'',1.37881010908,1.39506248697,0.00647085734323,0.016252377897,0.001,-81.2618894851,5000.0,0.0,0.0,0.0
1513266163400789257,,608599,,1513266161,602366423,'',1.37881010908,1.39506248697,0.00705127917101,0.016252377897,0.001,-81.2618894851,5000.0,0.0,0.0,0.0
1513266163410764966,,608600,,1513266161,612366423,'',1.37881010908,1.39506248697,0.00574952928062,0.016252377897,0.001,-81.2618894851,5000.0,0.0,0.0,0.0
1513266163420828763,,608601,,1513266161,622366423,'',1.37881010908,1.39506248697,0.00645419128872,0.016252377897,0.001,-81.2618894851,5000.0,0.0,0.0,0.0
