rosbagTimestamp,header,seq,stamp,secs,nsecs,frame_id,set_point,process_value,process_value_dot,error,time_step,command,p,i,d,i_clamp
1513266159320803925,,608180,,1513266157,522366423,'',0.471238898038,0.435188552349,0.000463803206523,-0.0360503456892,0.001,216.16269032,6000.0,0.0,300.0,0.0
1513266159330649815,,608181,,1513266157,532366423,'',0.471238898038,0.435179202388,0.000649785936356,-0.0360596956503,0.001,216.16170941,6000.0,0.0,300.0,0.0
1513266159340601970,,608182,,1513266157,542366423,'',0.471238898038,0.435170985658,0.000813119374536,-0.0360679123809,0.001,216.166162294,6000.0,0.0,300.0,0.0
1513266159350580845,,608183,,1513266157,552366423,'',0.471238898038,0.435178328291,0.000665605349453,-0.0360605697477,0.001,216.162017055,6000.0,0.0,300.0,0.0
1513266159360634292,,608184,,1513266157,562366423,'',0.471238898038,0.435171557386,0.000802428761932,-0.0360673406523,0.001,216.165849602,6000.0,0.0,300.0,0.0
1513266159370527665,,608185,,1513266157,572366423,'',0.471238898038,0.435178796142,0.000656857332417,-0.0360601018963,0.001,216.161672601,6000.0,0.0,300.0,0.0
1513266159380475491,,608186,,1513266157,582366423,'',0.471238898038,0.435184712254,0.000537884293031,-0.0360541857849,0.001,216.165448226,6000.0,0.0,300.0,0.0
1513266159390397844,,608187,,1513266157,592366423,'',0.471238898038,0.435189564121,0.00044031320612,-0.0360493339174,0.001,216.162776087,6000.0,0.0,300.0,0.0
1513266159400688054,,608188,,1513266157,602366423,'',0.471238898038,0.435193529117,0.000360577114817,-0.0360453689216,0.001,216.165310006,6000.0,0.0,300.0,0.0
1513266159410692537,,608189,,1513266157,612366423,'',0.471238898038,0.435196782884,0.000295143846085,-0.0360421151549,0.001,216.163109538,6000.0,0.0,300.0,0.0
1513266159420590775,,608190,,1513266157,622366423,'',0.471238898038,0.435199445393,0.00024160076086,-0.0360394526453,0.001,216.163701387,6000.0,0.0,300.0,0.0
1513266159430564208,,608191,,1513266157,632366423,'',0.471238898038,0.435201620994,0.000197849403737,-0.036037277044,0.001,216.163798138,6000.0,0.0,300.0,0.0
1513266159440437272,,608192,,1513266157,642366423,'',0.471238898038,0.435217502437,-0.00012198361284,-0.0360213956011,0.001,216.165073836,6000.0,0.0,300.0,0.0
1513266159450241739,,608193,,1513266157,652366423,'',0.471238898038,0.43520397768,0.000151949260092,-0.0360349203581,0.001,216.163997913,6000.0,0.0,300.0,0.0
1513266159460766769,,608194,,1513266157,662366423,'',0.471238898038,0.435205332766,0.000124428100339,-0.0360335652726,0.001,216.165122946,6000.0,0.0,300.0,0.0
1513266159470604635,,608195,,1513266157,672366423,'',0.471238898038,0.435194421058,0.000343917359138,-0.0360444769801,0.001,216.163287276,6000.0,0.0,300.0,0.0
1513266159480555611,,608196,,1513266157,682366423,'',0.471238898038,0.43519750678,0.000281632170268,-0.0360413912584,0.001,216.165342825,6000.0,0.0,300.0,0.0
1513266159490545242,,608197,,1513266157,692366423,'',0.471238898038,0.435213302569,-3.6895021204e-05,-0.0360255954699,0.001,216.164788376,6000.0,0.0,300.0,0.0
1513266159500535777,,608198,,1513266157,702366423,'',0.471238898038,0.435212968961,-3.02173228221e-05,-0.0360259290773,0.001,216.164557436,6000.0,0.0,300.0,0.0
1513266159510395543,,608199,,1513266157,712366423,'',0.471238898038,0.435212695068,-2.4734902068e-05,-0.0360262029706,0.001,216.164744093,6000.0,0.0,300.0,0.0
1513266159520395849,,608200,,1513266157,722366423,'',0.471238898038,0.435212470887,-2.02475597683e-05,-0.0360264271512,0.001,216.164694254,6000.0,0.0,300.0,0.0
1513266159530375060,,608201,,1513266157,732366423,'',0.471238898038,0.435212287724,-1.65812558766e-05,-0.0360266103141,0.001,216.164459449,6000.0,0.0,300.0,0.0
1513266159540297424,,608202,,1513266157,742366423,'',0.471238898038,0.435198120319,0.000266046065694,-0.0360407777194,0.001,216.165700755,6000.0,0.0,300.0,0.0
1513266159550319790,,608203,,1513266157,752366423,'',0.471238898038,0.435200535877,0.000217867920932,-0.0360383621611,0.001,216.166574679,6000.0,0.0,300.0,0.0
1513266159560777250,,608204,,1513266157,762366423,'',0.471238898038,0.435202522403,0.000178246813314,-0.0360363756359,0.001,216.162400214,6000.0,0.0,300.0,0.0
1513266159570820018,,608205,,1513266157,772366423,'',0.471238898038,0.435217166705,-0.000113478583574,-0.0360217313332,0.001,216.164383047,6000.0,0.0,300.0,0.0
1513266159580778245,,608206,,1513266157,782366423,'',0.471238898038,0.435216130846,-9.28827324692e-05,-0.0360227671923,0.001,216.165225867,6000.0,0.0,300.0,0.0
1513266159590639355,,608207,,1513266157,792366423,'',0.471238898038,0.435215283665,-7.60383496913e-05,-0.0360236143731,0.001,216.164370381,6000.0,0.0,300.0,0.0
1513266159600711169,,608208,,1513266157,802366423,'',0.471238898038,0.435214591242,-6.2270979584e-05,-0.0360243067968,0.001,216.164362949,6000.0,0.0,300.0,0.0
1513266159610806662,,608209,,1513266157,812366423,'',0.471238898038,0.435214021889,-5.09506099903e-05,-0.0360248761497,0.001,216.165227192,6000.0,0.0,300.0,0.0
1513266159620535606,,608210,,1513266157,822366423,'',0.471238898038,0.435213558931,-4.17456821014e-05,-0.0360253391075,0.001,216.164515993,6000.0,0.0,300.0,0.0
1513266159630591964,,608211,,1513266157,832366423,'',0.471238898038,0.435213177998,-3.41716360719e-05,-0.0360257200408,0.001,216.164810426,6000.0,0.0,300.0,0.0
1513266159640465215,,608212,,1513266157,842366423,'',0.471238898038,0.435212866266,-2.79735062332e-05,-0.0360260317729,0.001,216.16473291,6000.0,0.0,300.0,0.0
1513266159650414607,,608213,,1513266157,852366423,'',0.471238898038,0.435212610889,-2.28958951315e-05,-0.0360262871491,0.001,216.16487095,6000.0,0.0,300.0,0.0
1513266159660385530,,608214,,1513266157,862366423,'',0.471238898038,0.435210866612,1.28374274203e-05,-0.0360280314266,0.001,216.164578421,6000.0,0.0,300.0,0.0
1513266159670522094,,608215,,1513266157,872366423,'',0.471238898038,0.435210973951,1.05127043126e-05,-0.0360279240878,0.001,216.164585313,6000.0,0.0,300.0,0.0
1513266159680491908,,608216,,1513266157,882366423,'',0.471238898038,0.435211061859,8.60879991162e-06,-0.0360278361794,0.001,216.164654694,6000.0,0.0,300.0,0.0
1513266159690359132,,608217,,1513266157,892366423,'',0.471238898038,0.435211133985,7.04671116029e-06,-0.0360277640536,0.001,216.164602172,6000.0,0.0,300.0,0.0
1513266159700882584,,608218,,1513266157,902366423,'',0.471238898038,0.435197167799,0.00028968517685,-0.0360417302398,0.001,216.16314947,6000.0,0.0,300.0,0.0
1513266159710760107,,608219,,1513266157,912366423,'',0.471238898038,0.435199755569,0.000237231893628,-0.0360391424691,0.001,216.163435018,6000.0,0.0,300.0,0.0
1513266159720699734,,608220,,1513266157,922366423,'',0.471238898038,0.435201879981,0.000194170745457,-0.0360370180572,0.001,216.163414606,6000.0,0.0,300.0,0.0
1513266159730731826,,608221,,1513266157,932366423,'',0.471238898038,0.435201813575,0.000196450005151,-0.0360370844636,0.001,216.163462486,6000.0,0.0,300.0,0.0
1513266159740686759,,608222,,1513266157,942366423,'',0.471238898038,0.435190062328,0.000436487475291,-0.03604883571,0.001,216.1626934,6000.0,0.0,300.0,0.0
1513266159750657781,,608223,,1513266157,952366423,'',0.471238898038,0.435180908624,0.000622118599118,-0.0360579894141,0.001,216.166321987,6000.0,0.0,300.0,0.0
1513266159760539972,,608224,,1513266157,962366423,'',0.471238898038,0.435186451536,0.000509245730156,-0.0360524465029,0.001,216.162658232,6000.0,0.0,300.0,0.0
1513266159770561850,,608225,,1513266157,972366423,'',0.471238898038,0.435190980969,0.000417010775641,-0.0360479170694,0.001,216.165525848,6000.0,0.0,300.0,0.0
1513266159780618882,,608226,,1513266157,982366423,'',0.471238898038,0.435194697063,0.000341338221445,-0.036044200975,0.001,216.162697412,6000.0,0.0,300.0,0.0
1513266159790469809,,608227,,1513266157,992366423,'',0.471238898038,0.435197738558,0.000279402860867,-0.0360411594806,0.001,216.163989667,6000.0,0.0,300.0,0.0
1513266159800423496,,608228,,1513266158,2366423,'',0.471238898038,0.435200222392,0.000228823398133,-0.0360386756466,0.001,216.163663179,6000.0,0.0,300.0,0.0
1513266159810366562,,608229,,1513266158,12366423,'',0.471238898038,0.435202257243,0.000187386780561,-0.0360366407954,0.001,216.165033727,6000.0,0.0,300.0,0.0
1513266159820833258,,608230,,1513266158,22366423,'',0.471238898038,0.435203926522,0.000153394478646,-0.0360349715164,0.001,216.163993576,6000.0,0.0,300.0,0.0
1513266159830855909,,608231,,1513266158,32366423,'',0.471238898038,0.435205293108,0.000125566046955,-0.0360336049301,0.001,216.164073421,6000.0,0.0,300.0,0.0
1513266159840769876,,608232,,1513266158,42366423,'',0.471238898038,0.435193386484,0.000366431603199,-0.0360455115545,0.001,216.162968215,6000.0,0.0,300.0,0.0
1513266159850700413,,608233,,1513266158,52366423,'',0.471238898038,0.435196658937,0.000300081847671,-0.0360422391013,0.001,216.163377509,6000.0,0.0,300.0,0.0
1513266159860675277,,608234,,1513266158,62366423,'',0.471238898038,0.435199339136,0.000245740180713,-0.0360395589021,0.001,216.165320218,6000.0,0.0,300.0,0.0
1513266159870602367,,608235,,1513266158,72366423,'',0.471238898038,0.435201537765,0.000201162466156,-0.0360373602732,0.001,216.163733159,6000.0,0.0,300.0,0.0
1513266159880669447,,608236,,1513266158,82366423,'',0.471238898038,0.435203334305,0.000164737201039,-0.0360355637335,0.001,216.164927453,6000.0,0.0,300.0,0.0
1513266159890744632,,608237,,1513266158,92366423,'',0.471238898038,0.435191287947,0.00040770244823,-0.0360476100914,0.001,216.16280445,6000.0,0.0,300.0,0.0
1513266159900603316,,608238,,1513266158,102366423,'',0.471238898038,0.435181959176,0.000595976060276,-0.0360569388622,0.001,216.161916138,6000.0,0.0,300.0,0.0
1513266159910563464,,608239,,1513266158,112366423,'',0.471238898038,0.435187301348,0.000488051063033,-0.0360515966909,0.001,216.165228243,6000.0,0.0,300.0,0.0
1513266159920410152,,608240,,1513266158,122366423,'',0.471238898038,0.435191683182,0.000399527240227,-0.0360472148568,0.001,216.162955718,6000.0,0.0,300.0,0.0
1513266159930448398,,608241,,1513266158,132366423,'',0.471238898038,0.43518182985,0.000599428407531,-0.0360570681884,0.001,216.161212268,6000.0,0.0,300.0,0.0
1513266159940334365,,608242,,1513266158,142366423,'',0.471238898038,0.435173687658,0.000760881249771,-0.0360652103807,0.001,216.161154605,6000.0,0.0,300.0,0.0
1513266159950804127,,608243,,1513266158,152366423,'',0.471238898038,0.43518054187,0.000622808492487,-0.0360583561682,0.001,216.161830777,6000.0,0.0,300.0,0.0
1513266159960687070,,608244,,1513266158,162366423,'',0.471238898038,0.435186138648,0.000510065769377,-0.0360527593902,0.001,216.165589413,6000.0,0.0,300.0,0.0
1513266159970649662,,608245,,1513266158,172366423,'',0.471238898038,0.435177686802,0.000674444474799,-0.0360612112365,0.001,216.166500196,6000.0,0.0,300.0,0.0
1513266159980616121,,608246,,1513266158,182366423,'',0.471238898038,0.435197306041,0.000278558397642,-0.0360415919979,0.001,216.165249809,6000.0,0.0,300.0,0.0
1513266159990583797,,608247,,1513266158,192366423,'',0.471238898038,0.43518669187,0.000495151843156,-0.0360522061687,0.001,216.162532608,6000.0,0.0,300.0,0.0
1513266160000395565,,608248,,1513266158,202366423,'',0.471238898038,0.435191175743,0.00040551018769,-0.0360477222957,0.001,216.165635715,6000.0,0.0,300.0,0.0
1513266160010391742,,608249,,1513266158,212366423,'',0.471238898038,0.435194855543,0.000331943572662,-0.0360440424958,0.001,216.16332157,6000.0,0.0,300.0,0.0
1513266160020452989,,608250,,1513266158,222366423,'',0.471238898038,0.435197874501,0.000271588506644,-0.0360410235371,0.001,216.161576681,6000.0,0.0,300.0,0.0
1513266160030329423,,608251,,1513266158,232366423,'',0.471238898038,0.435200329056,0.000222517005303,-0.0360385689821,0.001,216.163818579,6000.0,0.0,300.0,0.0
1513266160040308901,,608252,,1513266158,242366423,'',0.471238898038,0.435202348633,0.000182141594369,-0.0360365494052,0.001,216.16385982,6000.0,0.0,300.0,0.0
1513266160050719209,,608253,,1513266158,252366423,'',0.471238898038,0.435192092927,0.000393116156182,-0.0360468051111,0.001,216.1657316,6000.0,0.0,300.0,0.0
1513266160060543513,,608254,,1513266158,262366423,'',0.471238898038,0.435195606032,0.000321804172334,-0.0360432920068,0.001,216.163658454,6000.0,0.0,300.0,0.0
1513266160070523239,,608255,,1513266158,272366423,'',0.471238898038,0.435198476901,0.000263528820811,-0.0360404211375,0.001,216.165350229,6000.0,0.0,300.0,0.0
1513266160080431510,,608256,,1513266158,282366423,'',0.471238898038,0.435174928553,0.00074305881289,-0.0360639694859,0.001,216.161055572,6000.0,0.0,300.0,0.0
1513266160090471155,,608257,,1513266158,292366423,'',0.471238898038,0.435181555733,0.000608257895055,-0.0360573423051,0.001,216.161573466,6000.0,0.0,300.0,0.0
1513266160100420346,,608258,,1513266158,302366423,'',0.471238898038,0.435174939078,0.000737612969762,-0.0360639589606,0.001,216.161536334,6000.0,0.0,300.0,0.0
1513266160110350612,,608259,,1513266158,312366423,'',0.471238898038,0.43516934557,0.000850647926929,-0.0360695524683,0.001,216.160508969,6000.0,0.0,300.0,0.0
1513266160120327721,,608260,,1513266158,322366423,'',0.471238898038,0.435176973906,0.000696564673869,-0.0360619241322,0.001,216.170362448,6000.0,0.0,300.0,0.0
1513266160130365996,,608261,,1513266158,332366423,'',0.471238898038,0.435183228417,0.00057023104959,-0.0360556696216,0.001,216.161744555,6000.0,0.0,300.0,0.0
1513266160140377433,,608262,,1513266158,342366423,'',0.471238898038,0.435188349559,0.00046679010279,-0.036050548479,0.001,216.162673129,6000.0,0.0,300.0,0.0
1513266160150336974,,608263,,1513266158,352366423,'',0.471238898038,0.435179338276,0.000649424230436,-0.036059559762,0.001,216.16603396,6000.0,0.0,300.0,0.0
1513266160160295699,,608264,,1513266158,362366423,'',0.471238898038,0.435185165098,0.000531617496974,-0.0360537329409,0.001,216.162249675,6000.0,0.0,300.0,0.0
1513266160170816707,,608265,,1513266158,372366423,'',0.471238898038,0.435189925786,0.000435365842225,-0.0360489722523,0.001,216.165446235,6000.0,0.0,300.0,0.0
1513266160180743416,,608266,,1513266158,382366423,'',0.471238898038,0.435193831341,0.000356403284134,-0.0360450666971,0.001,216.163240729,6000.0,0.0,300.0,0.0
1513266160190643191,,608267,,1513266158,392366423,'',0.471238898038,0.435197029301,0.000291746908371,-0.0360418687379,0.001,216.163324659,6000.0,0.0,300.0,0.0
1513266160200665026,,608268,,1513266158,402366423,'',0.471238898038,0.43519964198,0.000238923725312,-0.0360392560584,0.001,216.163630379,6000.0,0.0,300.0,0.0
1513266160210622890,,608269,,1513266158,412366423,'',0.471238898038,0.435201790284,0.000195489289347,-0.0360371077543,0.001,216.162330331,6000.0,0.0,300.0,0.0
1513266160220782630,,608270,,1513266158,422366423,'',0.471238898038,0.435203540306,0.00016010731995,-0.036035357732,0.001,216.164157316,6000.0,0.0,300.0,0.0
1513266160230563200,,608271,,1513266158,432366423,'',0.471238898038,0.435218775835,-0.000149978359327,-0.0360201222037,0.001,216.165209626,6000.0,0.0,300.0,0.0
1513266160240535973,,608272,,1513266158,442366423,'',0.471238898038,0.435217448383,-0.000122767329592,-0.0360214496557,0.001,216.165209744,6000.0,0.0,300.0,0.0
1513266160250402564,,608273,,1513266158,452366423,'',0.471238898038,0.435229306275,-0.000364643755223,-0.036009591763,0.001,216.166144997,6000.0,0.0,300.0,0.0
1513266160260409585,,608274,,1513266158,462366423,'',0.471238898038,0.435333752831,0.0266378721138,-0.0359051452077,0.001,207.423575975,6000.0,0.0,300.0,0.0
1513266160270397412,,608275,,1513266158,472366423,'',0.471238898038,0.435619514201,0.0499761858028,-0.0356193838372,0.001,198.643675116,6000.0,0.0,300.0,0.0
1513266160280633837,,608276,,1513266158,482366423,'',0.471238898038,0.436176513432,0.0532840587161,-0.035062384606,0.001,194.647890559,6000.0,0.0,300.0,0.0
1513266160290624094,,608277,,1513266158,492366423,'',0.471238898038,0.436988850072,0.0950984615763,-0.0342500479666,0.001,176.766620268,6000.0,0.0,300.0,0.0
1513266160300539292,,608278,,1513266158,502366423,'',0.471238898038,0.438029860229,0.117735173846,-0.0332090378092,0.001,164.471451043,6000.0,0.0,300.0,0.0
1513266160310554399,,608279,,1513266158,512366423,'',0.471238898038,0.439236687963,0.122468717722,-0.0320022100757,0.001,155.05383797,6000.0,0.0,300.0,0.0
1513266160320602945,,608280,,1513266158,522366423,'',0.471238898038,0.440657221142,0.151998729063,-0.0305816768964,0.001,137.707551323,6000.0,0.0,300.0,0.0
1513266160330635522,,608281,,1513266158,532366423,'',0.471238898038,0.442127487122,0.151409435982,-0.0291114109166,0.001,129.982136521,6000.0,0.0,300.0,0.0
1513266160340557906,,608282,,1513266158,542366423,'',0.471238898038,0.443475159675,0.124176483344,-0.027763738363,0.001,129.096929036,6000.0,0.0,300.0,0.0
1513266160350490027,,608283,,1513266158,552366423,'',0.471238898038,0.444629367119,0.115415160176,-0.0266095309198,0.001,125.591498098,6000.0,0.0,300.0,0.0
1513266160360534852,,608284,,1513266158,562366423,'',0.471238898038,0.445627012273,0.0952612630064,-0.025611885766,0.001,124.831165594,6000.0,0.0,300.0,0.0
1513266160370374430,,608285,,1513266158,572366423,'',0.471238898038,0.446495748665,0.0922700218897,-0.0247431493739,0.001,121.138249245,6000.0,0.0,300.0,0.0
1513266160380800544,,608286,,1513266158,582366423,'',0.471238898038,0.447392342297,0.0887151718335,-0.0238465557419,0.001,116.356617199,6000.0,0.0,300.0,0.0
1513266160390787378,,608287,,1513266158,592366423,'',0.471238898038,0.448390267442,0.112225332757,-0.0228486305963,0.001,103.085371042,6000.0,0.0,300.0,0.0
1513266160400842603,,608288,,1513266158,602366423,'',0.471238898038,0.449505075674,0.118818457178,-0.0217338223646,0.001,95.3348061036,6000.0,0.0,300.0,0.0
1513266160411208001,,608289,,1513266158,612366423,'',0.471238898038,0.450707949362,0.123626650236,-0.0205309486766,0.001,85.947067673,6000.0,0.0,300.0,0.0
1513266160420660622,,608290,,1513266158,622366423,'',0.471238898038,0.451949466609,0.127654844671,-0.0192894314296,0.001,78.0581873474,6000.0,0.0,300.0,0.0
1513266160430721458,,608291,,1513266158,632366423,'',0.471238898038,0.453190077217,0.117148573549,-0.0180488208219,0.001,72.9620336599,6000.0,0.0,300.0,0.0
1513266160440650403,,608292,,1513266158,642366423,'',0.471238898038,0.454286634854,0.109551583358,-0.0169522631841,0.001,67.8815799997,6000.0,0.0,300.0,0.0
1513266160450626643,,608293,,1513266158,652366423,'',0.471238898038,0.455266461556,0.0897595842999,-0.0159724364827,0.001,69.3925443532,6000.0,0.0,300.0,0.0
1513266160460579861,,608294,,1513266158,662366423,'',0.471238898038,0.456206441376,0.0998821449565,-0.0150324566627,0.001,60.1646676201,6000.0,0.0,300.0,0.0
1513266160470555834,,608295,,1513266158,672366423,'',0.471238898038,0.45708955902,0.0820419135448,-0.0141493390184,0.001,60.6796537316,6000.0,0.0,300.0,0.0
1513266160480384651,,608296,,1513266158,682366423,'',0.471238898038,0.458037954722,0.0919991309879,-0.0132009433164,0.001,51.4336163492,6000.0,0.0,300.0,0.0
1513266160490784875,,608297,,1513266158,692366423,'',0.471238898038,0.459012946723,0.101414820259,-0.0122259513156,0.001,42.9612155132,6000.0,0.0,300.0,0.0
1513266160500722914,,608298,,1513266158,702366423,'',0.471238898038,0.460017514048,0.0956763223663,-0.0112213839906,0.001,38.7707980089,6000.0,0.0,300.0,0.0
1513266160510799798,,608299,,1513266158,712366423,'',0.471238898038,0.461076143881,0.103405831779,-0.010162754158,0.001,29.859006863,6000.0,0.0,300.0,0.0
1513266160520773646,,608300,,1513266158,722366423,'',0.471238898038,0.462164234656,0.0959809837805,-0.00907466338202,0.001,25.3289286612,6000.0,0.0,300.0,0.0
1513266160530654929,,608301,,1513266158,732366423,'',0.471238898038,0.463181154564,0.0899849389273,-0.00805774347397,0.001,21.2648250008,6000.0,0.0,300.0,0.0
1513266160545223554,,608302,,1513266158,742366423,'',0.471238898038,0.464202319457,0.0984716662954,-0.00703657858175,0.001,12.3787460138,6000.0,0.0,300.0,0.0
1513266160550582738,,608303,,1513266158,752366423,'',0.471238898038,0.465231076234,0.10680503628,-0.00600782180458,0.001,3.90596213758,6000.0,0.0,300.0,0.0
1513266160560684692,,608304,,1513266158,762366423,'',0.471238898038,0.466296346986,0.114396831139,-0.00494255105212,0.001,-4.04309524769,6000.0,0.0,300.0,0.0
1513266160570391349,,608305,,1513266158,772366423,'',0.471238898038,0.467365185496,0.107362691889,-0.00387371254242,0.001,-9.1359034146,6000.0,0.0,300.0,0.0
1513266160580854812,,608306,,1513266158,782366423,'',0.471238898038,0.468503465052,0.113476043084,-0.00273543298604,0.001,-17.8759636199,6000.0,0.0,300.0,0.0
1513266160590480107,,608307,,1513266158,792366423,'',0.471238898038,0.46956343722,0.106620187178,-0.0016754608187,0.001,-22.7111307882,6000.0,0.0,300.0,0.0
1513266160600310921,,608308,,1513266158,802366423,'',0.471238898038,0.470599435175,0.100246822822,-0.000639462863961,0.001,-26.396661408,6000.0,0.0,300.0,0.0
1513266160610859462,,608309,,1513266158,812366423,'',0.471238898038,0.471618659194,0.108768531633,0.000379761155478,0.001,-34.3513443857,6000.0,0.0,300.0,0.0
1513266160620785910,,608310,,1513266158,822366423,'',0.471238898038,0.472545780824,0.0900427435141,0.0,0.001,0.0,6000.0,0.0,300.0,0.0
1513266160630661774,,608311,,1513266158,832366423,'',0.471238898038,0.473378644294,0.0732178760246,0.0,0.001,0.0,6000.0,0.0,300.0,0.0
1513266160640590041,,608312,,1513266158,842366423,'',0.471238898038,0.474156497269,0.0866202206158,0.0,0.001,0.0,6000.0,0.0,300.0,0.0
1513266160650544792,,608313,,1513266158,852366423,'',0.471238898038,0.474910221201,0.0713946750376,0.0,0.001,0.0,6000.0,0.0,300.0,0.0
1513266160660454782,,608314,,1513266158,862366423,'',0.471238898038,0.475525695215,0.0589636452419,0.0,0.001,0.0,6000.0,0.0,300.0,0.0
1513266160670494662,,608315,,1513266158,872366423,'',0.471238898038,0.47609549989,0.0620061228914,0.0,0.001,0.0,6000.0,0.0,300.0,0.0
1513266160680882411,,608316,,1513266158,882366423,'',0.471238898038,0.476614700674,0.0515163575573,0.0,0.001,0.0,6000.0,0.0,300.0,0.0
1513266160690801240,,608317,,1513266158,892366423,'',0.471238898038,0.477064192227,0.0424299975449,0.0,0.001,0.0,6000.0,0.0,300.0,0.0
1513266160700750365,,608318,,1513266158,902366423,'',0.471238898038,0.47747099441,0.0342180763738,0.0,0.001,0.0,6000.0,0.0,300.0,0.0
1513266160710759155,,608319,,1513266158,912366423,'',0.471238898038,0.477896792209,0.040171132076,0.0,0.001,0.0,6000.0,0.0,300.0,0.0
1513266160720793625,,608320,,1513266158,922366423,'',0.471238898038,0.478256915492,0.0328967193593,0.0,0.001,0.0,6000.0,0.0,300.0,0.0
1513266160730611368,,608321,,1513266158,932366423,'',0.471238898038,0.4785666258,0.0411970994549,0.0,0.001,0.0,6000.0,0.0,300.0,0.0
1513266160740615760,,608322,,1513266158,942366423,'',0.471238898038,0.47888368155,0.0347948029184,0.0,0.001,0.0,6000.0,0.0,300.0,0.0
1513266160750709326,,608323,,1513266158,952366423,'',0.471238898038,0.4791838893,0.028730027678,0.0,0.001,0.0,6000.0,0.0,300.0,0.0
1513266160760757011,,608324,,1513266158,962366423,'',0.471238898038,0.479455229311,0.0232507150603,0.0,0.001,0.0,6000.0,0.0,300.0,0.0
1513266160770776573,,608325,,1513266158,972366423,'',0.471238898038,0.479757597948,0.0316984842607,0.0,0.001,0.0,6000.0,0.0,300.0,0.0
1513266160780516881,,608326,,1513266158,982366423,'',0.471238898038,0.480070341204,0.0399371680434,0.0,0.001,0.0,6000.0,0.0,300.0,0.0
1513266160790574334,,608327,,1513266158,992366423,'',0.471238898038,0.480428440304,0.0327024717935,0.0,0.001,0.0,6000.0,0.0,300.0,0.0
1513266160800433579,,608328,,1513266159,2366423,'',0.471238898038,0.48076253752,0.0259571537984,0.0,0.001,0.0,6000.0,0.0,300.0,0.0
1513266160810368388,,608329,,1513266159,12366423,'',0.471238898038,0.481126398941,0.0331628079781,0.0,0.001,0.0,6000.0,0.0,300.0,0.0
1513266160820894366,,608330,,1513266159,22366423,'',0.471238898038,0.481462140595,0.0263738450905,0.0,0.001,0.0,6000.0,0.0,300.0,0.0
1513266160830685873,,608331,,1513266159,32366423,'',0.471238898038,0.481845731777,0.047736750282,0.0,0.001,0.0,6000.0,0.0,300.0,0.0
1513266160840731463,,608332,,1513266159,42366423,'',0.471238898038,0.482222305185,0.0401325635877,0.0109834071468,0.001,-77.7325737225,6000.0,0.0,300.0,0.0
1513266160850585615,,608333,,1513266159,52366423,'',0.471238898038,0.482583491799,0.0328355296207,0.011344593761,0.001,-78.0068591152,6000.0,0.0,300.0,0.0
1513266160860612432,,608334,,1513266159,62366423,'',0.471238898038,0.482877629609,0.0268930790967,0.0116387315703,0.001,-77.9398792104,6000.0,0.0,300.0,0.0
1513266160870446526,,608335,,1513266159,72366423,'',0.471238898038,0.483118686216,0.0220230252794,0.0118797881773,0.001,-77.9259930276,6000.0,0.0,300.0,0.0
1513266160880824546,,608336,,1513266159,82366423,'',0.471238898038,0.483356317806,0.0172155091426,0.0121174197671,0.001,-77.8915297547,6000.0,0.0,300.0,0.0
1513266160890856874,,608337,,1513266159,92366423,'',0.471238898038,0.483536285051,0.0135827264058,0.0122973870122,0.001,-77.8851079276,6000.0,0.0,300.0,0.0
1513266160900702689,,608338,,1513266159,102366423,'',0.471238898038,0.483710961988,0.0100507657276,0.0124720639495,0.001,-77.852748235,6000.0,0.0,300.0,0.0
1513266160910675194,,608339,,1513266159,112366423,'',0.471238898038,0.483893453512,0.0209255423278,0.0126545554732,0.001,-82.1094427708,6000.0,0.0,300.0,0.0
1513266160920850788,,608340,,1513266159,122366423,'',0.471238898038,0.484053550586,0.0176816653872,0.0128146525471,0.001,-82.233416186,6000.0,0.0,300.0,0.0
1513266160930320788,,608341,,1513266159,132366423,'',0.471238898038,0.484146101299,0.00125968179443,0.0129072032608,0.001,-77.8173552591,6000.0,0.0,300.0,0.0
1513266160940882707,,608342,,1513266159,142366423,'',0.471238898038,0.484247714401,-0.000786373794979,0.0130088163622,0.001,-77.8209669227,6000.0,0.0,300.0,0.0
1513266160950797769,,608343,,1513266159,152366423,'',0.471238898038,0.484266787944,-0.00117289790863,0.0130278899055,0.001,-77.8135878913,6000.0,0.0,300.0,0.0
1513266160960800067,,608344,,1513266159,162366423,'',0.471238898038,0.484268990801,-0.00121503863254,0.0130300927622,0.001,-77.8141632032,6000.0,0.0,300.0,0.0
1513266160970640232,,608345,,1513266159,172366423,'',0.471238898038,0.484270249521,-0.00123820035948,0.0130313514828,0.001,-77.8132489849,6000.0,0.0,300.0,0.0
1513266160980859950,,608346,,1513266159,182366423,'',0.471238898038,0.484219724674,-0.000217756310049,0.0129808266353,0.001,-77.8196814976,6000.0,0.0,300.0,0.0
1513266160990629283,,608347,,1513266159,192366423,'',0.471238898038,0.484126838797,0.00165612736488,0.012887940759,0.001,-77.8276484276,6000.0,0.0,300.0,0.0
1513266161000624630,,608348,,1513266159,202366423,'',0.471238898038,0.483946508613,-0.0237994853807,0.0127076105747,0.001,-69.4029449992,6000.0,0.0,300.0,0.0
1513266161010519832,,608349,,1513266159,212366423,'',0.471238898038,0.483744847537,-0.0197289079248,0.0125059494983,0.001,-69.0841435762,6000.0,0.0,300.0,0.0
1513266161020535877,,608350,,1513266159,222366423,'',0.471238898038,0.483540591705,-0.0156069418802,0.012301693667,0.001,-69.1161875702,6000.0,0.0,300.0,0.0
1513266161030425031,,608351,,1513266159,232366423,'',0.471238898038,0.483335643451,-0.0260277729916,0.0120967454122,0.001,-64.890584214,6000.0,0.0,300.0,0.0
1513266161040484598,,608352,,1513266159,242366423,'',0.471238898038,0.483126935067,-0.0218320631203,0.0118880370286,0.001,-65.621950065,6000.0,0.0,300.0,0.0
1513266161050823522,,608353,,1513266159,252366423,'',0.471238898038,0.4829314065,-0.0178756346833,0.0116925084619,0.001,-64.9047519419,6000.0,0.0,300.0,0.0
1513266161060827714,,608354,,1513266159,262366423,'',0.471238898038,0.482692420797,-0.0130528173282,0.0114535227584,0.001,-64.8775515276,6000.0,0.0,300.0,0.0
1513266161070712848,,608355,,1513266159,272366423,'',0.471238898038,0.482470201393,-0.0231186318147,0.011231303355,0.001,-60.4141305929,6000.0,0.0,300.0,0.0
1513266161080628264,,608356,,1513266159,282366423,'',0.471238898038,0.482250126752,-0.0186726983119,0.0110112287136,0.001,-60.5542758951,6000.0,0.0,300.0,0.0
1513266161090541622,,608357,,1513266159,292366423,'',0.471238898038,0.482068572584,-0.0150021775025,0.0108296745452,0.001,-60.4631989585,6000.0,0.0,300.0,0.0
1513266161100480306,,608358,,1513266159,302366423,'',0.471238898038,0.481880786148,-0.0112059567322,0.0106418881095,0.001,-60.4791174627,6000.0,0.0,300.0,0.0
1513266161110488304,,608359,,1513266159,312366423,'',0.471238898038,0.481742643384,-0.00841719641903,0.0105037453456,0.001,-60.4835404565,6000.0,0.0,300.0,0.0
1513266161120490661,,608360,,1513266159,322366423,'',0.471238898038,0.481653107197,-0.00660696798366,0.0104142091583,0.001,-60.5027066939,6000.0,0.0,300.0,0.0
1513266161130409893,,608361,,1513266159,332366423,'',0.471238898038,0.481567851852,-0.0194411036626,0.0103289538135,0.001,-56.2391673281,6000.0,0.0,300.0,0.0
1513266161140666300,,608362,,1513266159,342366423,'',0.471238898038,0.481511056449,-0.00373502749249,0.0102721584108,0.001,-60.5115361275,6000.0,0.0,300.0,0.0
1513266161150574345,,608363,,1513266159,352366423,'',0.471238898038,0.481464386515,-0.00279355919147,0.0102254884769,0.001,-60.5313069357,6000.0,0.0,300.0,0.0
1513266161160535167,,608364,,1513266159,362366423,'',0.471238898038,0.48143938617,-0.00228675886972,0.0102004881315,0.001,-60.5165345818,6000.0,0.0,300.0,0.0
1513266161170423436,,608365,,1513266159,372366423,'',0.471238898038,0.48140600891,-0.00160785386079,0.0101671108719,0.001,-60.5290998867,6000.0,0.0,300.0,0.0
1513266161180390810,,608366,,1513266159,382366423,'',0.471238898038,0.4813915968,-0.00131611094315,0.0101526987611,0.001,-60.5193520083,6000.0,0.0,300.0,0.0
1513266161190324644,,608367,,1513266159,392366423,'',0.471238898038,0.481366802677,-0.000815294879546,0.0101279046389,0.001,-60.5232157574,6000.0,0.0,300.0,0.0
1513266161200350219,,608368,,1513266159,402366423,'',0.471238898038,0.481359518931,-0.000667653550485,0.0101206208928,0.001,-60.5231125654,6000.0,0.0,300.0,0.0
1513266161210846335,,608369,,1513266159,412366423,'',0.471238898038,0.481301456862,0.000506753745483,0.0100625588232,0.001,-60.5285567671,6000.0,0.0,300.0,0.0
1513266161220897103,,608370,,1513266159,422366423,'',0.471238898038,0.481241084397,-0.0128288153521,0.0100021863583,0.001,-56.2342253073,6000.0,0.0,300.0,0.0
1513266161230755233,,608371,,1513266159,432366423,'',0.471238898038,0.481165528216,0.00325996217263,0.00992663017708,0.001,-60.5465665255,6000.0,0.0,300.0,0.0
1513266161240583172,,608372,,1513266159,442366423,'',0.471238898038,0.481140667211,-0.0107890713541,0.00990176917239,0.001,-56.2947613824,6000.0,0.0,300.0,0.0
1513266161250541600,,608373,,1513266159,452366423,'',0.471238898038,0.481095407725,-0.00987504506984,0.00985650968628,0.001,-56.1548919316,6000.0,0.0,300.0,0.0
1513266161260562337,,608374,,1513266159,462366423,'',0.471238898038,0.481032429135,-0.00861021687467,0.00979353109651,0.001,-56.2139481033,6000.0,0.0,300.0,0.0
1513266161270496585,,608375,,1513266159,472366423,'',0.471238898038,0.480968073635,-0.00731118283744,0.00972917559619,0.001,-56.1742280008,6000.0,0.0,300.0,0.0
1513266161280562294,,608376,,1513266159,482366423,'',0.471238898038,0.480939511018,-0.00673535201848,0.00970061297909,0.001,-56.2149254746,6000.0,0.0,300.0,0.0
1513266161290481882,,608377,,1513266159,492366423,'',0.471238898038,0.480917521195,-0.00629032806539,0.00967862315644,0.001,-56.1745811514,6000.0,0.0,300.0,0.0
1513266161300570284,,608378,,1513266159,502366423,'',0.471238898038,0.480874009873,-0.00541755434468,0.00963511183459,0.001,-56.1769590702,6000.0,0.0,300.0,0.0
1513266161310391755,,608379,,1513266159,512366423,'',0.471238898038,0.480865983214,0.00931619816956,0.00962708517554,0.001,-60.5738810622,6000.0,0.0,300.0,0.0
1513266161320337260,,608380,,1513266159,522366423,'',0.471238898038,0.480897299386,0.00867794342129,0.00965840134748,0.001,-60.5649930537,6000.0,0.0,300.0,0.0
1513266161330889542,,608381,,1513266159,532366423,'',0.471238898038,0.480893748665,-0.00580808223623,0.00965485062664,0.001,-56.1800945556,6000.0,0.0,300.0,0.0
1513266161340817139,,608382,,1513266159,542366423,'',0.471238898038,0.480893146311,-0.00580011316043,0.00965424827226,0.001,-56.1818182547,6000.0,0.0,300.0,0.0
1513266161350895917,,608383,,1513266159,552366423,'',0.471238898038,0.480867173177,-0.0052742801162,0.00962827513832,0.001,-56.2092481868,6000.0,0.0,300.0,0.0
1513266161360800531,,608384,,1513266159,562366423,'',0.471238898038,0.480820286299,-0.00432518031736,0.00958138826102,0.001,-56.1846421978,6000.0,0.0,300.0,0.0
1513266161371054391,,608385,,1513266159,572366423,'',0.471238898038,0.480779674995,-0.00351081169896,0.00954077695621,0.001,-56.2103825015,6000.0,0.0,300.0,0.0
1513266161380485084,,608386,,1513266159,582366423,'',0.471238898038,0.480748170436,-0.00287383445795,0.00950927239739,0.001,-56.189925575,6000.0,0.0,300.0,0.0
1513266161390439288,,608387,,1513266159,592366423,'',0.471238898038,0.480722384064,-0.00235247080387,0.00948348602568,0.001,-56.1915827155,6000.0,0.0,300.0,0.0
1513266161400363061,,608388,,1513266159,602366423,'',0.471238898038,0.480701317581,-0.00192653656996,0.00946241954283,0.001,-56.206962816,6000.0,0.0,300.0,0.0
1513266161410865844,,608389,,1513266159,612366423,'',0.471238898038,0.480684028159,-0.00157696910394,0.00944513012009,0.001,-56.1938019878,6000.0,0.0,300.0,0.0
1513266161420895662,,608390,,1513266159,622366423,'',0.471238898038,0.48066988623,-0.00129103947617,0.00943098819132,0.001,-56.1989757708,6000.0,0.0,300.0,0.0
1513266161430838655,,608391,,1513266159,632366423,'',0.471238898038,0.480658319677,-0.00105718026818,0.00941942163807,0.001,-56.2037894307,6000.0,0.0,300.0,0.0
1513266161440853022,,608392,,1513266159,642366423,'',0.471238898038,0.48067554624,-0.00140885949743,0.0094366482011,0.001,-56.1969116956,6000.0,0.0,300.0,0.0
1513266161450684359,,608393,,1513266159,652366423,'',0.471238898038,0.480688178237,-0.00166521257238,0.00944928019874,0.001,-56.2043519543,6000.0,0.0,300.0,0.0
1513266161460691526,,608394,,1513266159,662366423,'',0.471238898038,0.48067328223,-0.0013632504948,0.00943438419118,0.001,-56.1978888254,6000.0,0.0,300.0,0.0
1513266161470720592,,608395,,1513266159,672366423,'',0.471238898038,0.480661084246,-0.00111598098884,0.00942218620772,0.001,-56.1984590242,6000.0,0.0,300.0,0.0
1513266161480553250,,608396,,1513266159,682366423,'',0.471238898038,0.480651116601,-0.000913923430139,0.00941221856229,0.001,-56.2052981227,6000.0,0.0,300.0,0.0
1513266161490522397,,608397,,1513266159,692366423,'',0.471238898038,0.48068479012,0.0129598160083,0.00944589208104,0.001,-60.5608311489,6000.0,0.0,300.0,0.0
1513266161500610960,,608398,,1513266159,702366423,'',0.471238898038,0.480697801928,-0.00185834802888,0.00945890388914,0.001,-56.1955608556,6000.0,0.0,300.0,0.0
1513266161510515161,,608399,,1513266159,712366423,'',0.471238898038,0.480774247435,0.0111550694922,0.00953534939684,0.001,-60.5019919805,6000.0,0.0,300.0,0.0
1513266161520492306,,608400,,1513266159,722366423,'',0.471238898038,0.48088673739,0.00888323998302,0.00964783935184,0.001,-60.5826424379,6000.0,0.0,300.0,0.0
1513266161530848654,,608401,,1513266159,732366423,'',0.471238898038,0.480952265185,-0.00699403710758,0.00971336714646,0.001,-56.2133684925,6000.0,0.0,300.0,0.0
1513266161540592121,,608402,,1513266159,742366423,'',0.471238898038,0.481020201794,0.00619312521671,0.00978130375525,0.001,-60.5632483736,6000.0,0.0,300.0,0.0
1513266161550485967,,608403,,1513266159,752366423,'',0.471238898038,0.481075754399,0.00507018875,0.00983685636021,0.001,-60.5473593529,6000.0,0.0,300.0,0.0
1513266161560908793,,608404,,1513266159,762366423,'',0.471238898038,0.481133616491,0.00390041528109,0.00989471845273,0.001,-60.5365403596,6000.0,0.0,300.0,0.0
1513266161570869690,,608405,,1513266159,772366423,'',0.471238898038,0.481168623593,0.00319281197508,0.00992972555411,0.001,-60.5434062919,6000.0,0.0,300.0,0.0
1513266161580824400,,608406,,1513266159,782366423,'',0.471238898038,0.481197222443,0.00261473951198,0.00995832440483,0.001,-60.5227162547,6000.0,0.0,300.0,0.0
1513266161590352880,,608407,,1513266159,792366423,'',0.471238898038,0.481195145878,0.00265542675632,0.00995624783982,0.001,-60.53647131,6000.0,0.0,300.0,0.0
1513266161600731350,,608408,,1513266159,802366423,'',0.471238898038,0.481205418862,0.00244387708375,0.00996652082322,0.001,-60.5379593873,6000.0,0.0,300.0,0.0
1513266161610673150,,608409,,1513266159,812366423,'',0.471238898038,0.481227350091,0.00200151705713,0.00998845205293,0.001,-60.5217663518,6000.0,0.0,300.0,0.0
1513266161620666419,,608410,,1513266159,822366423,'',0.471238898038,0.481245352284,0.00163840698177,0.0100064542457,0.001,-60.5340496973,6000.0,0.0,300.0,0.0
1513266161630634261,,608411,,1513266159,832366423,'',0.471238898038,0.48124683604,0.00160594872992,0.0100079380017,0.001,-60.5339044299,6000.0,0.0,300.0,0.0
1513266161640628308,,608412,,1513266159,842366423,'',0.471238898038,0.481261280727,0.00131505305297,0.0100223826886,0.001,-60.5252478703,6000.0,0.0,300.0,0.0
1513266161650576922,,608413,,1513266159,852366423,'',0.471238898038,0.481273121958,0.00107658731077,0.0100342239199,0.001,-60.5303165689,6000.0,0.0,300.0,0.0
1513266161660534464,,608414,,1513266159,862366423,'',0.471238898038,0.4812828291,0.000881099133688,0.0100439310614,0.001,-60.5247620575,6000.0,0.0,300.0,0.0
1513266161670365543,,608415,,1513266159,872366423,'',0.471238898038,0.481290742688,0.00072173060276,0.0100518446494,0.001,-60.5284550028,6000.0,0.0,300.0,0.0
1513266161680803777,,608416,,1513266159,882366423,'',0.471238898038,0.481297244359,0.000590796093545,0.0100583463204,0.001,-60.5285838282,6000.0,0.0,300.0,0.0
1513266161690678350,,608417,,1513266159,892366423,'',0.471238898038,0.481302556434,0.000483818361819,0.010063658396,0.001,-60.524627935,6000.0,0.0,300.0,0.0
1513266161700773506,,608418,,1513266159,902366423,'',0.471238898038,0.481321023521,0.000112166688685,0.0100821254825,0.001,-60.5264626469,6000.0,0.0,300.0,0.0
1513266161710730896,,608419,,1513266159,912366423,'',0.471238898038,0.481309835776,0.000335469837286,0.0100709377376,0.001,-60.5275164639,6000.0,0.0,300.0,0.0
1513266161720582968,,608420,,1513266159,922366423,'',0.471238898038,0.481300805365,0.000514446790866,0.0100619073267,0.001,-60.5256113953,6000.0,0.0,300.0,0.0
1513266161730688523,,608421,,1513266159,932366423,'',0.471238898038,0.481305480586,0.000421135250318,0.0100665825471,0.001,-60.5247759611,6000.0,0.0,300.0,0.0
1513266161740603731,,608422,,1513266159,942366423,'',0.471238898038,0.481309308875,0.00034472740141,0.0100704108361,0.001,-60.5249148542,6000.0,0.0,300.0,0.0
1513266161750559017,,608423,,1513266159,952366423,'',0.471238898038,0.481312435775,0.000282318394206,0.0100735377362,0.001,-60.5267799666,6000.0,0.0,300.0,0.0
1513266161760615998,,608424,,1513266159,962366423,'',0.471238898038,0.481315002163,0.000231096509568,0.0100761041241,0.001,-60.5272137115,6000.0,0.0,300.0,0.0
1513266161770446470,,608425,,1513266159,972366423,'',0.471238898038,0.481317099126,0.000189243752319,0.0100782010873,0.001,-60.5270668266,6000.0,0.0,300.0,0.0
1513266161780382438,,608426,,1513266159,982366423,'',0.471238898038,0.48131881928,0.000154911637626,0.0100799212411,0.001,-60.5268455673,6000.0,0.0,300.0,0.0
1513266161790829759,,608427,,1513266159,992366423,'',0.471238898038,0.481320224186,0.00012687147284,0.0100813261472,0.001,-60.5266729582,6000.0,0.0,300.0,0.0
1513266161800816191,,608428,,1513266160,2366423,'',0.471238898038,0.481321377399,0.000103854776629,0.0100824793607,0.001,-60.5264773342,6000.0,0.0,300.0,0.0
1513266161810760990,,608429,,1513266160,12366423,'',0.471238898038,0.481335863898,-0.000188716323015,0.0100969658597,0.001,-60.5259874412,6000.0,0.0,300.0,0.0
1513266161820796171,,608430,,1513266160,22366423,'',0.471238898038,0.481346580233,-0.000408083867056,0.0101076821941,0.001,-60.5268239223,6000.0,0.0,300.0,0.0
1513266161830713444,,608431,,1513266160,32366423,'',0.471238898038,0.481355939922,-0.000593886234305,0.0101170418838,0.001,-60.5273782877,6000.0,0.0,300.0,0.0
1513266161840739473,,608432,,1513266160,42366423,'',0.471238898038,0.481350614137,-0.000486154194087,0.0101117160986,0.001,-60.5238843273,6000.0,0.0,300.0,0.0
1513266161850600871,,608433,,1513266160,52366423,'',0.471238898038,0.481359631791,-0.000672486549586,0.0101207337525,0.001,-60.5272983137,6000.0,0.0,300.0,0.0
1513266161860648139,,608434,,1513266160,62366423,'',0.471238898038,0.481366105819,-0.000802259086834,0.0101272077808,0.001,-60.5227464979,6000.0,0.0,300.0,0.0
1513266161870454513,,608435,,1513266160,72366423,'',0.471238898038,0.481371029709,-0.000899504193883,0.0101321316709,0.001,-60.5225885982,6000.0,0.0,300.0,0.0
1513266161880457120,,608436,,1513266160,82366423,'',0.471238898038,0.481389731821,0.0132790386932,0.0101508337825,0.001,-64.8974409534,6000.0,0.0,300.0,0.0
1513266161890412454,,608437,,1513266160,92366423,'',0.471238898038,0.481378274152,-0.00104650824514,0.0101393761136,0.001,-60.5214132045,6000.0,0.0,300.0,0.0
1513266161900871152,,608438,,1513266160,102366423,'',0.471238898038,0.481380834254,-0.00110085880976,0.0101419362155,0.001,-60.5301268174,6000.0,0.0,300.0,0.0
1513266161910788679,,608439,,1513266160,112366423,'',0.471238898038,0.481384215832,-0.00116884537327,0.010145317794,0.001,-60.5212113267,6000.0,0.0,300.0,0.0
1513266161920758704,,608440,,1513266160,122366423,'',0.471238898038,0.481373775821,-0.000957120435112,0.010134877783,0.001,-60.5272615632,6000.0,0.0,300.0,0.0
1513266161930766296,,608441,,1513266160,132366423,'',0.471238898038,0.481377480637,-0.00102574405038,0.0101385825985,0.001,-60.5211879362,6000.0,0.0,300.0,0.0
1513266161940884227,,608442,,1513266160,142366423,'',0.471238898038,0.481356110846,-0.000596135811186,0.0101172128077,0.001,-60.5235937637,6000.0,0.0,300.0,0.0
1513266161950820216,,608443,,1513266160,152366423,'',0.471238898038,0.481350763739,-0.000488191196152,0.010111865701,0.001,-60.5278932459,6000.0,0.0,300.0,0.0
1513266161960760508,,608444,,1513266160,162366423,'',0.471238898038,0.48134636909,-0.000399474294423,0.0101074710516,0.001,-60.5216463136,6000.0,0.0,300.0,0.0
1513266161970628865,,608445,,1513266160,172366423,'',0.471238898038,0.481342793458,-0.000327291287908,0.0101038954194,0.001,-60.5268045478,6000.0,0.0,300.0,0.0
1513266161980510642,,608446,,1513266160,182366423,'',0.471238898038,0.481327424375,-1.89704799604e-05,0.0100885263365,0.001,-60.5260464207,6000.0,0.0,300.0,0.0
1513266161990494068,,608447,,1513266160,192366423,'',0.471238898038,0.481327271349,-1.55289042898e-05,0.0100883733102,0.001,-60.5260293944,6000.0,0.0,300.0,0.0
1513266162000391298,,608448,,1513266160,202366423,'',0.471238898038,0.481327146335,-1.27173287814e-05,0.0100882482962,0.001,-60.5261216738,6000.0,0.0,300.0,0.0
1513266162010361889,,608449,,1513266160,212366423,'',0.471238898038,0.481327043778,-1.04108290458e-05,0.01008814574,0.001,-60.526055053,6000.0,0.0,300.0,0.0
1513266162020865360,,608450,,1513266160,222366423,'',0.471238898038,0.481312649236,-0.0142759134722,0.0100737511971,0.001,-56.1470302547,6000.0,0.0,300.0,0.0
1513266162030851696,,608451,,1513266160,232366423,'',0.471238898038,0.481301356219,0.000506250113211,0.0100624581804,0.001,-60.5249961379,6000.0,0.0,300.0,0.0
1513266162040694202,,608452,,1513266160,242366423,'',0.471238898038,0.48126854456,0.00117576461731,0.0100296465214,0.001,-60.5306778682,6000.0,0.0,300.0,0.0
1513266162050665385,,608453,,1513266160,252366423,'',0.471238898038,0.481266072554,0.00122470314558,0.0100271745154,0.001,-60.5315794941,6000.0,0.0,300.0,0.0
1513266162060556659,,608454,,1513266160,262366423,'',0.471238898038,0.481277033045,0.00100286011682,0.0100381350068,0.001,-60.5254527043,6000.0,0.0,300.0,0.0
1513266162070608559,,608455,,1513266160,272366423,'',0.471238898038,0.481249180844,0.00156279037873,0.0100102828054,0.001,-60.5335618894,6000.0,0.0,300.0,0.0
1513266162080626104,,608456,,1513266160,282366423,'',0.471238898038,0.481263193548,0.00127985870742,0.0100242955094,0.001,-60.5229607341,6000.0,0.0,300.0,0.0
1513266162090806089,,608457,,1513266160,292366423,'',0.471238898038,0.481248462672,0.00157741923694,0.010009564634,0.001,-60.5328330281,6000.0,0.0,300.0,0.0
1513266162100543079,,608458,,1513266160,302366423,'',0.471238898038,0.481212514129,0.00230821392801,0.00997361609039,0.001,-60.5357663412,6000.0,0.0,300.0,0.0
1513266162110859958,,608459,,1513266160,312366423,'',0.471238898038,0.481192933249,-0.0118584471372,0.00995403521049,0.001,-56.1530532173,6000.0,0.0,300.0,0.0
1513266162120657741,,608460,,1513266160,322366423,'',0.471238898038,0.48116672904,0.00322806456491,0.00992783100141,0.001,-60.5396475062,6000.0,0.0,300.0,0.0
1513266162130606583,,608461,,1513266160,332366423,'',0.471238898038,0.48117095157,0.00314554778702,0.00993205353158,0.001,-60.5867865332,6000.0,0.0,300.0,0.0
1513266162140552858,,608462,,1513266160,342366423,'',0.471238898038,0.481186542761,0.00283372344939,0.009947644723,0.001,-60.5156952737,6000.0,0.0,300.0,0.0
1513266162150720206,,608463,,1513266160,352366423,'',0.471238898038,0.481173275997,0.00310422360133,0.00993437795889,0.001,-60.5373025406,6000.0,0.0,300.0,0.0
1513266162160637180,,608464,,1513266160,362366423,'',0.471238898038,0.481163642731,0.00330378200241,0.00992474469256,0.001,-60.5180351844,6000.0,0.0,300.0,0.0
1513266162170925208,,608465,,1513266160,372366423,'',0.471238898038,0.481154279208,0.00349186213419,0.00991538116945,0.001,-60.5331590458,6000.0,0.0,300.0,0.0
1513266162180786551,,608466,,1513266160,382366423,'',0.471238898038,0.481146916709,0.00363332021141,0.00990801867025,0.001,-60.5413269815,6000.0,0.0,300.0,0.0
1513266162190703495,,608467,,1513266160,392366423,'',0.471238898038,0.481141047209,0.00375424817189,0.00990214917068,0.001,-60.5450741214,6000.0,0.0,300.0,0.0
1513266162200808161,,608468,,1513266160,402366423,'',0.471238898038,0.481121495583,0.00414188841432,0.00988259754483,0.001,-60.5120604112,6000.0,0.0,300.0,0.0
1513266162210650169,,608469,,1513266160,412366423,'',0.471238898038,0.481119449022,0.00418321685541,0.00988055098378,0.001,-60.5412369268,6000.0,0.0,300.0,0.0
1513266162220664080,,608470,,1513266160,422366423,'',0.471238898038,0.481079920066,0.00497527958488,0.00984102202727,0.001,-60.5092148718,6000.0,0.0,300.0,0.0
1513266162230495768,,608471,,1513266160,432366423,'',0.471238898038,0.481084567694,-0.00966925173142,0.00984566965567,0.001,-56.1678266519,6000.0,0.0,300.0,0.0
1513266162240608609,,608472,,1513266160,442366423,'',0.471238898038,0.48110431998,0.00448567456405,0.00986542194152,0.001,-60.5491551443,6000.0,0.0,300.0,0.0
1513266162250888506,,608473,,1513266160,452366423,'',0.471238898038,0.481092937552,0.00472323914934,0.00985403951337,0.001,-60.4630856816,6000.0,0.0,300.0,0.0
1513266162260756168,,608474,,1513266160,462366423,'',0.471238898038,0.481094859713,-0.00987640987407,0.00985596167481,0.001,-56.1492375784,6000.0,0.0,300.0,0.0
1513266162270688304,,608475,,1513266160,472366423,'',0.471238898038,0.48108389117,-0.00965372837379,0.00984499313108,0.001,-56.1567169383,6000.0,0.0,300.0,0.0
1513266162280718119,,608476,,1513266160,482366423,'',0.471238898038,0.481101601996,-0.010010328345,0.00986270395727,0.001,-56.2215400838,6000.0,0.0,300.0,0.0
1513266162290567185,,608477,,1513266160,492366423,'',0.471238898038,0.481063224475,-0.00923693948846,0.00982432643696,0.001,-56.1640485251,6000.0,0.0,300.0,0.0
1513266162300723770,,608478,,1513266160,502366423,'',0.471238898038,0.481058988965,0.0054081325005,0.00982009092619,0.001,-60.5472183309,6000.0,0.0,300.0,0.0
1513266162310693535,,608479,,1513266160,512366423,'',0.471238898038,0.481013791807,-0.00823329885718,0.00977489376813,0.001,-56.1729998885,6000.0,0.0,300.0,0.0
1513266162320671839,,608480,,1513266160,522366423,'',0.471238898038,0.481018498343,0.00623111538051,0.00977960030429,0.001,-60.5504143019,6000.0,0.0,300.0,0.0
1513266162330570693,,608481,,1513266160,532366423,'',0.471238898038,0.48105019075,0.00558387270059,0.00981129271128,0.001,-60.5511399723,6000.0,0.0,300.0,0.0
1513266162340674947,,608482,,1513266160,542366423,'',0.471238898038,0.481034187261,-0.00865211849624,0.00979528922248,0.001,-56.205872997,6000.0,0.0,300.0,0.0
1513266162350943221,,608483,,1513266160,552366423,'',0.471238898038,0.481045472023,-0.00887858259402,0.00980657398421,0.001,-56.1681188575,6000.0,0.0,300.0,0.0
1513266162360451428,,608484,,1513266160,562366423,'',0.471238898038,0.481031577555,-0.00858778801968,0.00979267951628,0.001,-56.1617623573,6000.0,0.0,300.0,0.0
1513266162370845257,,608485,,1513266160,572366423,'',0.471238898038,0.481019319754,0.00621122180892,0.00978042171553,0.001,-60.5651493825,6000.0,0.0,300.0,0.0
1513266162380787154,,608486,,1513266160,582366423,'',0.471238898038,0.481023471821,0.00612692873464,0.00978457378274,0.001,-60.5540033087,6000.0,0.0,300.0,0.0
1513266162390494555,,608487,,1513266160,592366423,'',0.471238898038,0.480986920893,-0.00769169347046,0.00974802285457,0.001,-56.221649871,6000.0,0.0,300.0,0.0
1513266162400606924,,608488,,1513266160,602366423,'',0.471238898038,0.481010555462,0.00639005724274,0.00977165742353,0.001,-60.5565762626,6000.0,0.0,300.0,0.0
1513266162410681579,,608489,,1513266160,612366423,'',0.471238898038,0.481005187679,0.00649270389213,0.00976628964015,0.001,-60.5514649279,6000.0,0.0,300.0,0.0
1513266162420511374,,608490,,1513266160,622366423,'',0.471238898038,0.480972046019,-0.00739375409802,0.00973314798078,0.001,-56.2166420343,6000.0,0.0,300.0,0.0
1513266162430872531,,608491,,1513266160,632366423,'',0.471238898038,0.480943346445,-0.00681014776138,0.00970444840638,0.001,-56.1697795225,6000.0,0.0,300.0,0.0
1513266162440977439,,608492,,1513266160,642366423,'',0.471238898038,0.480946729875,0.00767264084934,0.00970783183641,0.001,-60.5510896501,6000.0,0.0,300.0,0.0
1513266162450723785,,608493,,1513266160,652366423,'',0.471238898038,0.480950786854,-0.00696562361055,0.0097118888151,0.001,-56.2304236253,6000.0,0.0,300.0,0.0
1513266162460822887,,608494,,1513266160,662366423,'',0.471238898038,0.480953340523,-0.00701726491517,0.00971444248437,0.001,-56.1733632989,6000.0,0.0,300.0,0.0
1513266162470541932,,608495,,1513266160,672366423,'',0.471238898038,0.48092988947,-0.00654046133177,0.00969099143191,0.001,-56.1710970304,6000.0,0.0,300.0,0.0
1513266162480599591,,608496,,1513266160,682366423,'',0.471238898038,0.480896824479,-0.00587850210795,0.00965792644101,0.001,-56.2193132428,6000.0,0.0,300.0,0.0
1513266162490729362,,608497,,1513266160,692366423,'',0.471238898038,0.480894496363,-0.00582451398697,0.00965559832416,0.001,-56.1745621999,6000.0,0.0,300.0,0.0
1513266162500850774,,608498,,1513266160,702366423,'',0.471238898038,0.480905635532,0.00850687522849,0.00966673749331,0.001,-60.5617801917,6000.0,0.0,300.0,0.0
1513266162510840012,,608499,,1513266160,712366423,'',0.471238898038,0.480915487788,-0.00625780867838,0.00967658974952,0.001,-56.2104403826,6000.0,0.0,300.0,0.0
1513266162520805438,,608500,,1513266160,722366423,'',0.471238898038,0.480927015371,0.00807251813906,0.0096881173329,0.001,-60.55996784,6000.0,0.0,300.0,0.0
1513266162530659838,,608501,,1513266160,732366423,'',0.471238898038,0.480880847662,-0.00555555496944,0.00964194962359,0.001,-56.1353758393,6000.0,0.0,300.0,0.0
1513266162540625618,,608502,,1513266160,742366423,'',0.471238898038,0.480896919228,0.00868002050474,0.00965802118914,0.001,-60.4866615741,6000.0,0.0,300.0,0.0
1513266162550623280,,608503,,1513266160,752366423,'',0.471238898038,0.480909730227,0.0084234286597,0.00967083218871,0.001,-60.4854052094,6000.0,0.0,300.0,0.0
1513266162560581440,,608504,,1513266160,762366423,'',0.471238898038,0.480920235471,-0.00634871944186,0.00968133743264,0.001,-56.1720422072,6000.0,0.0,300.0,0.0
1513266162570570075,,608505,,1513266160,772366423,'',0.471238898038,0.480900322832,-0.00594181206717,0.00966142479353,0.001,-56.1761394495,6000.0,0.0,300.0,0.0
1513266162580549876,,608506,,1513266160,782366423,'',0.471238898038,0.480872787866,-0.00538828015166,0.00963388982743,0.001,-56.1817490154,6000.0,0.0,300.0,0.0
1513266162590525101,,608507,,1513266160,792366423,'',0.471238898038,0.48086405769,-0.00521569588877,0.00962515965156,0.001,-56.1824380982,6000.0,0.0,300.0,0.0
1513266162600499644,,608508,,1513266160,802366423,'',0.471238898038,0.480870910618,0.00919815059401,0.0096320125795,0.001,-60.5088697285,6000.0,0.0,300.0,0.0
1513266162610527839,,608509,,1513266160,812366423,'',0.471238898038,0.480835873381,-0.00464964786964,0.0095969753422,0.001,-56.1833208935,6000.0,0.0,300.0,0.0
1513266162620745581,,608510,,1513266160,822366423,'',0.471238898038,0.480834267487,0.00993768610791,0.00959536944879,0.001,-60.5074843824,6000.0,0.0,300.0,0.0
1513266162630687210,,608511,,1513266160,832366423,'',0.471238898038,0.480818790815,-0.00430920042962,0.00957989277693,0.001,-56.1807319945,6000.0,0.0,300.0,0.0
1513266162640738125,,608512,,1513266160,842366423,'',0.471238898038,0.480848557977,0.00965105136815,0.00960965993866,0.001,-60.5701070854,6000.0,0.0,300.0,0.0
1513266162650624455,,608513,,1513266160,852366423,'',0.471238898038,0.480833073171,0.00996549251915,0.00959417513288,0.001,-60.5859394993,6000.0,0.0,300.0,0.0
1513266162660866548,,608514,,1513266160,862366423,'',0.471238898038,0.480816874037,-0.00425877937224,0.00957797599903,0.001,-56.1886240981,6000.0,0.0,300.0,0.0
1513266162670544195,,608515,,1513266160,872366423,'',0.471238898038,0.480778624458,-0.0034861791981,0.00953972641964,0.001,-56.1871662167,6000.0,0.0,300.0,0.0
1513266162680463699,,608516,,1513266160,882366423,'',0.471238898038,0.480787579467,-0.00366330847039,0.00954868142883,0.001,-56.2096680118,6000.0,0.0,300.0,0.0
1513266162690403222,,608517,,1513266160,892366423,'',0.471238898038,0.48075464928,-0.00299883486627,0.00951575124121,0.001,-56.1893385441,6000.0,0.0,300.0,0.0
1513266162700469090,,608518,,1513266160,902366423,'',0.471238898038,0.480779406344,-0.00349998573275,0.00954050830513,0.001,-56.2126471705,6000.0,0.0,300.0,0.0
1513266162710872597,,608519,,1513266160,912366423,'',0.471238898038,0.480787380919,-0.00366281760805,0.00954848288045,0.001,-56.1829317618,6000.0,0.0,300.0,0.0
1513266162720748805,,608520,,1513266160,922366423,'',0.471238898038,0.480779269187,-0.0034977137618,0.00954037114855,0.001,-56.163840603,6000.0,0.0,300.0,0.0
1513266162730849636,,608521,,1513266160,932366423,'',0.471238898038,0.480762023397,0.0114042532863,0.00952312535857,0.001,-60.5088714214,6000.0,0.0,300.0,0.0
1513266162740773618,,608522,,1513266160,942366423,'',0.471238898038,0.480732414935,-0.0171180788975,0.00949351689701,0.001,-51.6717092885,6000.0,0.0,300.0,0.0
1513266162750840489,,608523,,1513266160,952366423,'',0.471238898038,0.480722515823,-0.00236205840927,0.0094836177842,0.001,-56.1951401967,6000.0,0.0,300.0,0.0
1513266162760723982,,608524,,1513266160,962366423,'',0.471238898038,0.480715174862,-0.00220974150803,0.00947627682315,0.001,-56.1941895901,6000.0,0.0,300.0,0.0
1513266162770587728,,608525,,1513266160,972366423,'',0.471238898038,0.480695365516,-0.0018086747663,0.00945646747772,0.001,-56.1945797016,6000.0,0.0,300.0,0.0
1513266162780615649,,608526,,1513266160,982366423,'',0.471238898038,0.480679194104,-0.00148126285584,0.00944029606544,0.001,-56.1992718561,6000.0,0.0,300.0,0.0
1513266162790533490,,608527,,1513266160,992366423,'',0.471238898038,0.480692907854,-0.00175219005243,0.00945400981594,0.001,-56.1942987643,6000.0,0.0,300.0,0.0
1513266162800488482,,608528,,1513266161,2366423,'',0.471238898038,0.480677179979,-0.00143497580964,0.00943828194015,0.001,-56.2063245898,6000.0,0.0,300.0,0.0
1513266162810519682,,608529,,1513266161,12366423,'',0.471238898038,0.480678608678,0.0130925349325,0.00943971063934,0.001,-60.5857537918,6000.0,0.0,300.0,0.0
1513266162820426133,,608530,,1513266161,22366423,'',0.471238898038,0.480677647951,-0.00144400947333,0.00943874991216,0.001,-56.2049894703,6000.0,0.0,300.0,0.0
1513266162830367590,,608531,,1513266161,32366423,'',0.471238898038,0.480679033526,0.013084705743,0.00944013548799,0.001,-60.5970566176,6000.0,0.0,300.0,0.0
1513266162840554449,,608532,,1513266161,42366423,'',0.471238898038,0.480680132158,0.0130618724376,0.00944123411903,0.001,-60.5846700009,6000.0,0.0,300.0,0.0
1513266162850781927,,608533,,1513266161,52366423,'',0.471238898038,0.480691702659,-0.00172901235625,0.00945280462084,0.001,-56.2055432935,6000.0,0.0,300.0,0.0
1513266162860695205,,608534,,1513266161,62366423,'',0.471238898038,0.480702676105,0.012605433676,0.00946377806607,0.001,-60.5871805205,6000.0,0.0,300.0,0.0
1513266162870631512,,608535,,1513266161,72366423,'',0.471238898038,0.480685175269,-0.0015989195516,0.00944627723005,0.001,-56.2057964743,6000.0,0.0,300.0,0.0
1513266162880494528,,608536,,1513266161,82366423,'',0.471238898038,0.480710882298,0.0124360863053,0.00947198425993,0.001,-60.5935665611,6000.0,0.0,300.0,0.0
1513266162890360706,,608537,,1513266161,92366423,'',0.471238898038,0.480691061373,-0.0162764528001,0.00945216333481,0.001,-51.8053446308,6000.0,0.0,300.0,0.0
1513266162900473696,,608538,,1513266161,102366423,'',0.471238898038,0.480690003023,0.0128578779554,0.00945110498469,0.001,-60.5847047497,6000.0,0.0,300.0,0.0
1513266162910421860,,608539,,1513266161,112366423,'',0.471238898038,0.480687184991,-0.016204736189,0.00944828695228,0.001,-51.8115521088,6000.0,0.0,300.0,0.0
1513266162920492274,,608540,,1513266161,122366423,'',0.471238898038,0.480672458324,-0.00134794262044,0.00943356028532,0.001,-56.1967856488,6000.0,0.0,300.0,0.0
1513266162930342025,,608541,,1513266161,132366423,'',0.471238898038,0.480673407756,-0.0013631416923,0.00943450971793,0.001,-56.2057447714,6000.0,0.0,300.0,0.0
1513266162940834861,,608542,,1513266161,142366423,'',0.471238898038,0.480661181482,-0.00111578018605,0.00942228344343,0.001,-56.1974049414,6000.0,0.0,300.0,0.0
1513266162950870115,,608543,,1513266161,152366423,'',0.471238898038,0.480651984497,-0.000926744989092,0.00941308645888,0.001,-56.1921334335,6000.0,0.0,300.0,0.0
1513266162960801298,,608544,,1513266161,162366423,'',0.471238898038,0.480643681847,-0.000759301288261,0.0094047838082,0.001,-56.1996128144,6000.0,0.0,300.0,0.0
1513266162970850558,,608545,,1513266161,172366423,'',0.471238898038,0.480636852261,-0.000621565621039,0.00939795422233,0.001,-56.2005965896,6000.0,0.0,300.0,0.0
1513266162980761624,,608546,,1513266161,182366423,'',0.471238898038,0.480642425341,-0.0152852288821,0.00940352730273,0.001,-51.9224848867,6000.0,0.0,300.0,0.0
1513266162990806414,,608547,,1513266161,192366423,'',0.471238898038,0.480662327309,-0.00113072894823,0.00942342927033,0.001,-56.1972927589,6000.0,0.0,300.0,0.0
1513266163000653374,,608548,,1513266161,202366423,'',0.471238898038,0.480679387807,-0.00147466650019,0.00944048976812,0.001,-56.1948729508,6000.0,0.0,300.0,0.0
1513266163010576503,,608549,,1513266161,212366423,'',0.471238898038,0.48065290584,-0.000937449845964,0.00941400780141,0.001,-56.1913719007,6000.0,0.0,300.0,0.0
1513266163020548584,,608550,,1513266161,222366423,'',0.471238898038,0.48064442061,-0.000767749770116,0.00940552257129,0.001,-56.1995501901,6000.0,0.0,300.0,0.0
1513266163030535720,,608551,,1513266161,232366423,'',0.471238898038,0.480637470203,-0.000628745342633,0.00939857216453,0.001,-56.2080283083,6000.0,0.0,300.0,0.0
1513266163040441949,,608552,,1513266161,242366423,'',0.471238898038,0.480631767764,-0.000514699613952,0.009392869726,0.001,-56.2007730076,6000.0,0.0,300.0,0.0
1513266163050459705,,608553,,1513266161,252366423,'',0.471238898038,0.480614895096,-0.000172196154335,0.0093759970573,0.001,-56.2028032153,6000.0,0.0,300.0,0.0
1513266163060551643,,608554,,1513266161,262366423,'',0.471238898038,0.480623607524,-0.000350517736506,0.00938470948582,0.001,-56.2015197089,6000.0,0.0,300.0,0.0
1513266163070487649,,608555,,1513266161,272366423,'',0.471238898038,0.480620417869,-0.000286904452415,0.00938151983089,0.001,-56.2012279296,6000.0,0.0,300.0,0.0
1513266163080505324,,608556,,1513266161,282366423,'',0.471238898038,0.480617814218,-0.000234978203406,0.00937891617948,0.001,-56.2034044947,6000.0,0.0,300.0,0.0
1513266163090384036,,608557,,1513266161,292366423,'',0.471238898038,0.48061546635,-0.00018705954999,0.00937656831138,0.001,-56.2020046193,6000.0,0.0,300.0,0.0
1513266163100378916,,608558,,1513266161,302366423,'',0.471238898038,0.480613754812,-0.000153123687664,0.00937485677356,0.001,-56.2020933467,6000.0,0.0,300.0,0.0
1513266163111097453,,608559,,1513266161,312366423,'',0.471238898038,0.480625604084,-0.000392877589837,0.00938670604509,0.001,-56.1963442712,6000.0,0.0,300.0,0.0
1513266163120849596,,608560,,1513266161,322366423,'',0.471238898038,0.48062206653,-0.000321866622085,0.00938316849111,0.001,-56.2015387371,6000.0,0.0,300.0,0.0
1513266163130687221,,608561,,1513266161,332366423,'',0.471238898038,0.48064364881,-0.000754919146083,0.00940475077185,0.001,-56.2046655432,6000.0,0.0,300.0,0.0
1513266163140732755,,608562,,1513266161,342366423,'',0.471238898038,0.48063682463,-0.000617966603407,0.00939792659138,0.001,-56.1998345483,6000.0,0.0,300.0,0.0
1513266163150574363,,608563,,1513266161,352366423,'',0.471238898038,0.480617956655,-0.00023232875159,0.00937905861673,0.001,-56.2032377809,6000.0,0.0,300.0,0.0
1513266163160729748,,608564,,1513266161,362366423,'',0.471238898038,0.480602363744,8.4538691233e-05,0.00936346570515,0.001,-56.2026174997,6000.0,0.0,300.0,0.0
1513266163170461627,,608565,,1513266161,372366423,'',0.471238898038,0.480589793107,0.000336346219894,0.00935089506819,0.001,-56.2018113616,6000.0,0.0,300.0,0.0
1513266163180415878,,608566,,1513266161,382366423,'',0.471238898038,0.480579974311,0.000532290688708,0.00934107627216,0.001,-56.2016671355,6000.0,0.0,300.0,0.0
1513266163190478453,,608567,,1513266161,392366423,'',0.471238898038,0.480597094284,0.000181568567834,0.00935819624578,0.001,-56.2036141848,6000.0,0.0,300.0,0.0
1513266163200403191,,608568,,1513266161,402366423,'',0.471238898038,0.480586005621,0.000406173587594,0.00934710758278,0.001,-56.2014336877,6000.0,0.0,300.0,0.0
1513266163210931834,,608569,,1513266161,412366423,'',0.471238898038,0.480589638773,0.000332486620262,0.00935074073456,0.001,-56.2043136359,6000.0,0.0,300.0,0.0
1513266163220881732,,608570,,1513266161,422366423,'',0.471238898038,0.480565863129,0.000815865399259,0.00932696509103,0.001,-56.2121322628,6000.0,0.0,300.0,0.0
1513266163230853718,,608571,,1513266161,432366423,'',0.471238898038,0.480559092563,-0.0136017711007,0.00932019452479,0.001,-51.908909462,6000.0,0.0,300.0,0.0
1513266163240791475,,608572,,1513266161,442366423,'',0.471238898038,0.480567627995,0.000784563952621,0.0093287299569,0.001,-56.2123953959,6000.0,0.0,300.0,0.0
1513266163250768836,,608573,,1513266161,452366423,'',0.471238898038,0.480549373236,0.00115356997309,0.00931047519777,0.001,-56.2052092877,6000.0,0.0,300.0,0.0
1513266163260650199,,608574,,1513266161,462366423,'',0.471238898038,0.480521423863,-0.0129122798177,0.00928252582478,0.001,-48.9033486089,6000.0,0.0,300.0,0.0
1513266163270754481,,608575,,1513266161,472366423,'',0.471238898038,0.480536774592,0.00134780824739,0.00929787655394,0.001,-56.2086752559,6000.0,0.0,300.0,0.0
1513266163280796121,,608576,,1513266161,482366423,'',0.471238898038,0.480536635742,0.00136287751318,0.0092977377037,0.001,-56.1997757475,6000.0,0.0,300.0,0.0
1513266163290656156,,608577,,1513266161,492366423,'',0.471238898038,0.480549254968,0.00111504808125,0.00931035692965,0.001,-56.2163205906,6000.0,0.0,300.0,0.0
1513266163300413008,,608578,,1513266161,502366423,'',0.471238898038,0.480519179308,0.00172473940511,0.00928028126916,0.001,-56.1985070733,6000.0,0.0,300.0,0.0
1513266163310494879,,608579,,1513266161,512366423,'',0.471238898038,0.480520785754,0.00169561151108,0.00928188771583,0.001,-56.2064227081,6000.0,0.0,300.0,0.0
1513266163320461518,,608580,,1513266161,522366423,'',0.471238898038,0.480536225634,0.00138850112932,0.00929732759506,0.001,-56.2001652197,6000.0,0.0,300.0,0.0
1513266163330784841,,608581,,1513266161,532366423,'',0.471238898038,0.480561350362,0.000882202106505,0.0093224523238,0.001,-56.2069180624,6000.0,0.0,300.0,0.0
1513266163340705447,,608582,,1513266161,542366423,'',0.471238898038,0.480569457803,0.0007221277224,0.00933055976445,0.001,-56.206385167,6000.0,0.0,300.0,0.0
1513266163350790763,,608583,,1513266161,552366423,'',0.471238898038,0.480589481608,0.000313733849663,0.00935058356932,0.001,-56.2045213608,6000.0,0.0,300.0,0.0
1513266163360812814,,608584,,1513266161,562366423,'',0.471238898038,0.480580304813,0.000500490698338,0.0093414067746,0.001,-56.2064122498,6000.0,0.0,300.0,0.0
1513266163370557389,,608585,,1513266161,572366423,'',0.471238898038,0.480572201038,0.00066769837948,0.00933330299916,0.001,-56.2019695488,6000.0,0.0,300.0,0.0
1513266163380675298,,608586,,1513266161,582366423,'',0.471238898038,0.480552621655,0.00106810861842,0.00931372361617,0.001,-56.2073319132,6000.0,0.0,300.0,0.0
1513266163390585760,,608587,,1513266161,592366423,'',0.471238898038,0.480550120683,0.0011233427287,0.00931122264428,0.001,-56.2086048055,6000.0,0.0,300.0,0.0
1513266163400563271,,608588,,1513266161,602366423,'',0.471238898038,0.480534808886,0.00143166938822,0.00929591084758,0.001,-56.2092576997,6000.0,0.0,300.0,0.0
1513266163410562162,,608589,,1513266161,612366423,'',0.471238898038,0.48053557059,0.00141819922406,0.00929667255166,0.001,-56.2087773182,6000.0,0.0,300.0,0.0
1513266163420451052,,608590,,1513266161,622366423,'',0.471238898038,0.480534965791,0.0014356077488,0.00929606775247,0.001,-56.1997028673,6000.0,0.0,300.0,0.0
