rosbagTimestamp,header,seq,stamp,secs,nsecs,frame_id,set_point,process_value,process_value_dot,error,time_step,command,p,i,d,i_clamp
1513267098952156798,,702146,,1513267097,135445376,'',1.3962634016,1.3914597431,0.00480409822303,0.0,0.001,0.0,5000.0,0.0,0.0,0.0
1513267098962232539,,702147,,1513267097,145445376,'',1.3962634016,1.3914597431,0.00568753558993,0.0,0.001,0.0,5000.0,0.0,0.0,0.0
1513267098972147198,,702148,,1513267097,155445376,'',1.3962634016,1.3914597431,0.00597954282518,0.0,0.001,0.0,5000.0,0.0,0.0,0.0
1513267098982036170,,702149,,1513267097,165445376,'',1.3962634016,1.39266065773,0.0295057451147,0.0,0.001,0.0,5000.0,0.0,0.0,0.0
1513267098991905218,,702150,,1513267097,175445376,'',1.3962634016,1.39025882848,-0.017398341111,0.0,0.001,0.0,5000.0,0.0,0.0,0.0
1513267099001900846,,702151,,1513267097,185445376,'',1.3962634016,1.3914597431,0.00687462333916,0.0,0.001,0.0,5000.0,0.0,0.0,0.0
1513267099011872781,,702152,,1513267097,195445376,'',1.3962634016,1.39025882848,-0.0182076140058,0.0,0.001,0.0,5000.0,0.0,0.0,0.0
1513267099021879714,,702153,,1513267097,205445376,'',1.3962634016,1.39025882848,-0.0179700941692,0.0,0.001,0.0,5000.0,0.0,0.0,0.0
1513267099031761626,,702154,,1513267097,215445376,'',1.3962634016,1.3914597431,0.00554144816497,0.0,0.001,0.0,5000.0,0.0,0.0,0.0
1513267099042187389,,702155,,1513267097,225445376,'',1.3962634016,1.3914597431,0.00494743099044,0.0,0.001,0.0,5000.0,0.0,0.0,0.0
1513267099052157654,,702156,,1513267097,235445376,'',1.3962634016,1.3914597431,0.00534501103994,0.0,0.001,0.0,5000.0,0.0,0.0,0.0
1513267099062205020,,702157,,1513267097,245445376,'',1.3962634016,1.39025882848,-0.0176268617888,0.0,0.001,0.0,5000.0,0.0,0.0,0.0
1513267099072114179,,702158,,1513267097,255445376,'',1.3962634016,1.3914597431,0.00592898973125,0.0,0.001,0.0,5000.0,0.0,0.0,0.0
1513267099082147881,,702159,,1513267097,265445376,'',1.3962634016,1.3914597431,0.00489598445964,0.0,0.001,0.0,5000.0,0.0,0.0,0.0
1513267099092108844,,702160,,1513267097,275445376,'',1.3962634016,1.39025882848,-0.0189122797682,0.0,0.001,0.0,5000.0,0.0,0.0,0.0
1513267099101966010,,702161,,1513267097,285445376,'',1.3962634016,1.3914597431,0.00478692326071,0.0,0.001,0.0,5000.0,0.0,0.0,0.0
1513267099111913603,,702162,,1513267097,295445376,'',1.3962634016,1.3914597431,0.00480879684826,0.0,0.001,0.0,5000.0,0.0,0.0,0.0
1513267099121857801,,702163,,1513267097,305445376,'',1.3962634016,1.3914597431,0.00400310235607,0.0,0.001,0.0,5000.0,0.0,0.0,0.0
1513267099131798440,,702164,,1513267097,315445376,'',1.3962634016,1.39025882848,-0.0199669349537,0.0,0.001,0.0,5000.0,0.0,0.0,0.0
1513267099141765394,,702165,,1513267097,325445376,'',1.3962634016,1.39025882848,-0.0184856969127,0.0,0.001,0.0,5000.0,0.0,0.0,0.0
1513267099152112982,,702166,,1513267097,335445376,'',1.3962634016,1.3914597431,0.00519257458297,0.0,0.001,0.0,5000.0,0.0,0.0,0.0
1513267099162043530,,702167,,1513267097,345445376,'',1.3962634016,1.3914597431,0.00468560833348,0.0,0.001,0.0,5000.0,0.0,0.0,0.0
1513267099171993557,,702168,,1513267097,355445376,'',1.3962634016,1.3914597431,0.00334543646737,0.0,0.001,0.0,5000.0,0.0,0.0,0.0
1513267099181915983,,702169,,1513267097,365445376,'',1.3962634016,1.3914597431,0.00262602270929,0.0,0.001,0.0,5000.0,0.0,0.0,0.0
1513267099191925244,,702170,,1513267097,375445376,'',1.3962634016,1.39025882848,-0.0216621533915,0.0,0.001,0.0,5000.0,0.0,0.0,0.0
1513267099201854650,,702171,,1513267097,385445376,'',1.3962634016,1.39266065773,0.0259182985819,0.0,0.001,0.0,5000.0,0.0,0.0,0.0
1513267099211840794,,702172,,1513267097,395445376,'',1.3962634016,1.39266065773,0.0255425983051,0.0,0.001,0.0,5000.0,0.0,0.0,0.0
1513267099222234851,,702173,,1513267097,405445376,'',1.3962634016,1.39025882848,-0.0227139898205,0.0,0.001,0.0,5000.0,0.0,0.0,0.0
1513267099231989659,,702174,,1513267097,415445376,'',1.3962634016,1.39025882848,-0.0225239854235,0.0,0.001,0.0,5000.0,0.0,0.0,0.0
1513267099241970107,,702175,,1513267097,425445376,'',1.3962634016,1.3914597431,0.0023483975412,0.0,0.001,0.0,5000.0,0.0,0.0,0.0
1513267099251833059,,702176,,1513267097,435445376,'',1.3962634016,1.3914597431,0.003708316484,0.0,0.001,0.0,5000.0,0.0,0.0,0.0
1513267099261870754,,702177,,1513267097,445445376,'',1.3962634016,1.3914597431,0.00397045745256,0.0,0.001,0.0,5000.0,0.0,0.0,0.0
1513267099271882292,,702178,,1513267097,455445376,'',1.3962634016,1.3914597431,0.00327538850481,0.0,0.001,0.0,5000.0,0.0,0.0,0.0
1513267099281968702,,702179,,1513267097,465445376,'',1.3962634016,1.3914597431,0.00315258920948,0.0,0.001,0.0,5000.0,0.0,0.0,0.0
1513267099292223781,,702180,,1513267097,475445376,'',1.3962634016,1.39025882848,-0.0194496697375,0.0,0.001,0.0,5000.0,0.0,0.0,0.0
1513267099302141293,,702181,,1513267097,485445376,'',1.3962634016,1.39025882848,-0.0185111022097,0.0,0.001,0.0,5000.0,0.0,0.0,0.0
1513267099311991185,,702182,,1513267097,495445376,'',1.3962634016,1.39025882848,-0.0178247765265,0.0,0.001,0.0,5000.0,0.0,0.0,0.0
1513267099322090134,,702183,,1513267097,505445376,'',1.3962634016,1.3914597431,0.0056354324236,0.0,0.001,0.0,5000.0,0.0,0.0,0.0
1513267099331853030,,702184,,1513267097,515445376,'',1.3962634016,1.3914597431,0.0046133527386,0.0,0.001,0.0,5000.0,0.0,0.0,0.0
1513267099341793202,,702185,,1513267097,525445376,'',1.3962634016,1.3914597431,0.00473499968753,0.0,0.001,0.0,5000.0,0.0,0.0,0.0
1513267099352218320,,702186,,1513267097,535445376,'',1.3962634016,1.3914597431,0.00476118144565,0.0,0.001,0.0,5000.0,0.0,0.0,0.0
1513267099362061259,,702187,,1513267097,545445376,'',1.3962634016,1.3914597431,0.00430806615455,0.0,0.001,0.0,5000.0,0.0,0.0,0.0
1513267099372092294,,702188,,1513267097,555445376,'',1.3962634016,1.39025882848,-0.0197565356359,0.0,0.001,0.0,5000.0,0.0,0.0,0.0
1513267099381820594,,702189,,1513267097,565445376,'',1.3962634016,1.39025882848,-0.0197042921171,0.0,0.001,0.0,5000.0,0.0,0.0,0.0
1513267099392285521,,702190,,1513267097,575445376,'',1.3962634016,1.39025882848,-0.0187894107136,0.0,0.001,0.0,5000.0,0.0,0.0,0.0
1513267099402176440,,702191,,1513267097,585445376,'',1.3962634016,1.39025882848,-0.0201466699037,0.0,0.001,0.0,5000.0,0.0,0.0,0.0
1513267099412125472,,702192,,1513267097,595445376,'',1.3962634016,1.3914597431,0.00471868118881,0.0,0.001,0.0,5000.0,0.0,0.0,0.0
1513267099422002906,,702193,,1513267097,605445376,'',1.3962634016,1.3914597431,0.00339851738412,0.0,0.001,0.0,5000.0,0.0,0.0,0.0
1513267099431859184,,702194,,1513267097,615445376,'',1.3962634016,1.39025882848,-0.0205663175952,0.0,0.001,0.0,5000.0,0.0,0.0,0.0
1513267099442256591,,702195,,1513267097,625445376,'',1.3962634016,1.39025882848,-0.0203287387128,0.0,0.001,0.0,5000.0,0.0,0.0,0.0
1513267099452295324,,702196,,1513267097,635445376,'',1.3962634016,1.39025882848,-0.0191999459767,0.0,0.001,0.0,5000.0,0.0,0.0,0.0
1513267099462099978,,702197,,1513267097,645445376,'',1.3962634016,1.39266065773,0.0275241586136,0.0,0.001,0.0,5000.0,0.0,0.0,0.0
1513267099472121539,,702198,,1513267097,655445376,'',1.3962634016,1.3914597431,0.00400103490806,0.0,0.001,0.0,5000.0,0.0,0.0,0.0
1513267099482026547,,702199,,1513267097,665445376,'',1.3962634016,1.3914597431,0.00242833239321,0.0,0.001,0.0,5000.0,0.0,0.0,0.0
1513267099491852066,,702200,,1513267097,675445376,'',1.3962634016,1.39025882848,-0.0209876874615,0.0,0.001,0.0,5000.0,0.0,0.0,0.0
1513267099501766924,,702201,,1513267097,685445376,'',1.3962634016,1.39025882848,-0.0211309887448,0.0,0.001,0.0,5000.0,0.0,0.0,0.0
1513267099511978159,,702202,,1513267097,695445376,'',1.3962634016,1.3914597431,0.00430552085524,0.0,0.001,0.0,5000.0,0.0,0.0,0.0
1513267099521870118,,702203,,1513267097,705445376,'',1.3962634016,1.39025882848,-0.0198045413776,0.0,0.001,0.0,5000.0,0.0,0.0,0.0
1513267099531766645,,702204,,1513267097,715445376,'',1.3962634016,1.39025882848,-0.020522090608,0.0,0.001,0.0,5000.0,0.0,0.0,0.0
1513267099541766621,,702205,,1513267097,725445376,'',1.3962634016,1.39025882848,-0.0194212096991,0.0,0.001,0.0,5000.0,0.0,0.0,0.0
1513267099551735383,,702206,,1513267097,735445376,'',1.3962634016,1.39025882848,-0.0193735276101,0.0,0.001,0.0,5000.0,0.0,0.0,0.0
1513267099562217521,,702207,,1513267097,745445376,'',1.3962634016,1.39266065773,0.028238538552,0.0,0.001,0.0,5000.0,0.0,0.0,0.0
1513267099572121113,,702208,,1513267097,755445376,'',1.3962634016,1.3914597431,0.0041220705411,0.0,0.001,0.0,5000.0,0.0,0.0,0.0
1513267099582057276,,702209,,1513267097,765445376,'',1.3962634016,1.3914597431,0.0041863210496,0.0,0.001,0.0,5000.0,0.0,0.0,0.0
1513267099591993844,,702210,,1513267097,775445376,'',1.3962634016,1.3914597431,0.00341779319467,0.0,0.001,0.0,5000.0,0.0,0.0,0.0
1513267099601957405,,702211,,1513267097,785445376,'',1.3962634016,1.39025882848,-0.0197052389827,0.0,0.001,0.0,5000.0,0.0,0.0,0.0
1513267099611844457,,702212,,1513267097,795445376,'',1.3962634016,1.39266065773,0.0280048315215,0.0,0.001,0.0,5000.0,0.0,0.0,0.0
1513267099622259233,,702213,,1513267097,805445376,'',1.3962634016,1.3914597431,0.00337027718584,0.0,0.001,0.0,5000.0,0.0,0.0,0.0
1513267099632162921,,702214,,1513267097,815445376,'',1.3962634016,1.3914597431,0.00233535122923,0.0,0.001,0.0,5000.0,0.0,0.0,0.0
1513267099642147108,,702215,,1513267097,825445376,'',1.3962634016,1.3914597431,0.00326500717012,0.0,0.001,0.0,5000.0,0.0,0.0,0.0
1513267099651974546,,702216,,1513267097,835445376,'',1.3962634016,1.39266065773,0.0260668457909,0.0,0.001,0.0,5000.0,0.0,0.0,0.0
1513267099661936894,,702217,,1513267097,845445376,'',1.3962634016,1.3914597431,0.00233946568241,0.0,0.001,0.0,5000.0,0.0,0.0,0.0
1513267099671792367,,702218,,1513267097,855445376,'',1.3962634016,1.3914597431,0.0027500986337,0.0,0.001,0.0,5000.0,0.0,0.0,0.0
1513267099682251824,,702219,,1513267097,865445376,'',1.3962634016,1.3914597431,0.00355334764934,0.0,0.001,0.0,5000.0,0.0,0.0,0.0
1513267099692279444,,702220,,1513267097,875445376,'',1.3962634016,1.3914597431,0.00330723655407,0.0,0.001,0.0,5000.0,0.0,0.0,0.0
1513267099702181435,,702221,,1513267097,885445376,'',1.3962634016,1.3914597431,0.00264572224848,0.0,0.001,0.0,5000.0,0.0,0.0,0.0
1513267099712002490,,702222,,1513267097,895445376,'',1.3962634016,1.3914597431,0.00214443306655,0.0,0.001,0.0,5000.0,0.0,0.0,0.0
1513267099721922947,,702223,,1513267097,905445376,'',1.3962634016,1.39025882848,-0.0220713158222,0.0,0.001,0.0,5000.0,0.0,0.0,0.0
1513267099731949215,,702224,,1513267097,915445376,'',1.3962634016,1.3914597431,0.00222109949017,0.0,0.001,0.0,5000.0,0.0,0.0,0.0
1513267099741817703,,702225,,1513267097,925445376,'',1.3962634016,1.3914597431,0.00265808656841,0.0,0.001,0.0,5000.0,0.0,0.0,0.0
1513267099751783506,,702226,,1513267097,935445376,'',1.3962634016,1.39266065773,0.0268808220992,0.0,0.001,0.0,5000.0,0.0,0.0,0.0
1513267099761704689,,702227,,1513267097,945445376,'',1.3962634016,1.3914597431,0.00308404799066,0.0,0.001,0.0,5000.0,0.0,0.0,0.0
1513267099772036420,,702228,,1513267097,955445376,'',1.3962634016,1.3914597431,0.00512397534548,0.0,0.001,0.0,5000.0,0.0,0.0,0.0
1513267099782054265,,702229,,1513267097,965445376,'',1.3962634016,1.39025882848,-0.0188558288522,0.0,0.001,0.0,5000.0,0.0,0.0,0.0
1513267099792136166,,702230,,1513267097,975445376,'',1.3962634016,1.3914597431,0.00313623738762,0.0,0.001,0.0,5000.0,0.0,0.0,0.0
1513267099802092007,,702231,,1513267097,985445376,'',1.3962634016,1.3914597431,0.00304073187076,0.0,0.001,0.0,5000.0,0.0,0.0,0.0
1513267099812129425,,702232,,1513267097,995445376,'',1.3962634016,1.3914597431,0.00337200793679,0.0,0.001,0.0,5000.0,0.0,0.0,0.0
1513267099821932293,,702233,,1513267098,5445376,'',1.3962634016,1.39025882848,-0.0192586938801,0.0,0.001,0.0,5000.0,0.0,0.0,0.0
1513267099831898083,,702234,,1513267098,15445376,'',1.3962634016,1.3914597431,0.00500011783974,0.0,0.001,0.0,5000.0,0.0,0.0,0.0
1513267099841859221,,702235,,1513267098,25445376,'',1.3962634016,1.3914597431,0.0054350073552,0.0,0.001,0.0,5000.0,0.0,0.0,0.0
1513267099851733295,,702236,,1513267098,35445376,'',1.3962634016,1.3914597431,0.0044618980571,0.0,0.001,0.0,5000.0,0.0,0.0,0.0
1513267099862230407,,702237,,1513267098,45445376,'',1.3962634016,1.3914597431,0.00588106553165,0.0,0.001,0.0,5000.0,0.0,0.0,0.0
1513267099872166886,,702238,,1513267098,55445376,'',1.3962634016,1.3914597431,0.00432481172568,0.0,0.001,0.0,5000.0,0.0,0.0,0.0
1513267099882131016,,702239,,1513267098,65445376,'',1.3962634016,1.3914597431,0.00440736814626,0.0,0.001,0.0,5000.0,0.0,0.0,0.0
1513267099892022238,,702240,,1513267098,75445376,'',1.3962634016,1.3914597431,0.00443450173252,0.0,0.001,0.0,5000.0,0.0,0.0,0.0
1513267099901920702,,702241,,1513267098,85445376,'',1.3962634016,1.39025882848,-0.0222957241369,0.0,0.001,0.0,5000.0,0.0,0.0,0.0
1513267099912358195,,702242,,1513267098,95445376,'',1.3962634016,1.3914597431,0.00157167199729,0.0,0.001,0.0,5000.0,0.0,0.0,0.0
1513267099922245610,,702243,,1513267098,105445376,'',1.3962634016,1.39266065773,0.0237856120613,0.0,0.001,0.0,5000.0,0.0,0.0,0.0
1513267099932199332,,702244,,1513267098,115445376,'',1.3962634016,1.3914597431,-0.000350334491881,0.0,0.001,0.0,5000.0,0.0,0.0,0.0
1513267099942118936,,702245,,1513267098,125445376,'',1.3962634016,1.3914597431,-0.00286064419159,0.0,0.001,0.0,5000.0,0.0,0.0,0.0
1513267099951982968,,702246,,1513267098,135445376,'',1.3962634016,1.3914597431,-0.0045003966571,0.0,0.001,0.0,5000.0,0.0,0.0,0.0
1513267099962057196,,702247,,1513267098,145445376,'',1.3962634016,1.39266065773,0.0169949462062,0.0,0.001,0.0,5000.0,0.0,0.0,0.0
1513267099972001712,,702248,,1513267098,155445376,'',1.3962634016,1.39266065773,0.0164450438699,0.0,0.001,0.0,5000.0,0.0,0.0,0.0
1513267099982029196,,702249,,1513267098,165445376,'',1.3962634016,1.3914597431,-0.00817169926201,0.0,0.001,0.0,5000.0,0.0,0.0,0.0
1513267099991825042,,702250,,1513267098,175445376,'',1.3962634016,1.39266065773,0.0140002275135,0.0,0.001,0.0,5000.0,0.0,0.0,0.0
1513267100001750411,,702251,,1513267098,185445376,'',1.3962634016,1.3914597431,-0.0114769831305,0.0,0.001,0.0,5000.0,0.0,0.0,0.0
1513267100012402502,,702252,,1513267098,195445376,'',1.3962634016,1.3914597431,-0.0119688412258,0.0,0.001,0.0,5000.0,0.0,0.0,0.0
1513267100022112401,,702253,,1513267098,205445376,'',1.3962634016,1.3914597431,-0.0149842315543,0.0,0.001,0.0,5000.0,0.0,0.0,0.0
1513267100032084768,,702254,,1513267098,215445376,'',1.3962634016,1.39266065773,0.00715806708134,0.0,0.001,0.0,5000.0,0.0,0.0,0.0
1513267100041961270,,702255,,1513267098,225445376,'',1.3962634016,1.39386157235,0.027410027871,0.0,0.001,0.0,5000.0,0.0,0.0,0.0
1513267100051940643,,702256,,1513267098,235445376,'',1.3962634016,1.39386157235,0.0242268912083,0.0,0.001,0.0,5000.0,0.0,0.0,0.0
1513267100061959124,,702257,,1513267098,245445376,'',1.3962634016,1.39266065773,-0.00349414414334,0.0,0.001,0.0,5000.0,0.0,0.0,0.0
1513267100072278285,,702258,,1513267098,255445376,'',1.3962634016,1.39386157235,0.0161187898232,0.0,0.001,0.0,5000.0,0.0,0.0,0.0
1513267100082262992,,702259,,1513267098,265445376,'',1.3962634016,1.39506248697,0.0352407510997,0.0,0.001,0.0,5000.0,0.0,0.0,0.0
1513267100092109715,,702260,,1513267098,275445376,'',1.3962634016,1.39506248697,0.0322791427021,0.0,0.001,0.0,5000.0,0.0,0.0,0.0
1513267100102189919,,702261,,1513267098,285445376,'',1.3962634016,1.39386157235,0.00525037685371,0.0,0.001,0.0,5000.0,0.0,0.0,0.0
1513267100111929476,,702262,,1513267098,295445376,'',1.3962634016,1.39506248697,0.0241214986597,0.0,0.001,0.0,5000.0,0.0,0.0,0.0
1513267100121883202,,702263,,1513267098,305445376,'',1.3962634016,1.39506248697,0.0197543381854,0.0,0.001,0.0,5000.0,0.0,0.0,0.0
1513267100131901440,,702264,,1513267098,315445376,'',1.3962634016,1.39506248697,0.0143572756096,0.0,0.001,0.0,5000.0,0.0,0.0,0.0
1513267100141843389,,702265,,1513267098,325445376,'',1.3962634016,1.3962634016,0.0329236988183,0.0,0.001,0.0,5000.0,0.0,0.0,0.0
1513267100151900423,,702266,,1513267098,335445376,'',1.3962634016,1.39746431622,0.0511698964789,0.0,0.001,0.0,5000.0,0.0,0.0,0.0
1513267100161816607,,702267,,1513267098,345445376,'',1.3962634016,1.3962634016,0.0207610863675,0.0,0.001,0.0,5000.0,0.0,0.0,0.0
1513267100171965629,,702268,,1513267098,355445376,'',1.3962634016,1.3962634016,0.0151908362846,0.0,0.001,0.0,5000.0,0.0,0.0,0.0
1513267100182077017,,702269,,1513267098,365445376,'',1.3962634016,1.39746431622,0.0335406722808,0.0,0.001,0.0,5000.0,0.0,0.0,0.0
1513267100191869271,,702270,,1513267098,375445376,'',1.3962634016,1.39746431622,0.030046180386,0.0,0.001,0.0,5000.0,0.0,0.0,0.0
1513267100201804100,,702271,,1513267098,385445376,'',1.3962634016,1.3962634016,0.00339116432689,0.0,0.001,0.0,5000.0,0.0,0.0,0.0
1513267100211732880,,702272,,1513267098,395445376,'',1.3962634016,1.39746431622,0.0234943380781,0.0,0.001,0.0,5000.0,0.0,0.0,0.0
1513267100222422618,,702273,,1513267098,405445376,'',1.3962634016,1.3962634016,-0.00543540958066,0.0,0.001,0.0,5000.0,0.0,0.0,0.0
1513267100232331196,,702274,,1513267098,415445376,'',1.3962634016,1.39746431622,0.015811129671,0.0,0.001,0.0,5000.0,0.0,0.0,0.0
1513267100242261677,,702275,,1513267098,425445376,'',1.3962634016,1.39746431622,0.0128820981288,0.0,0.001,0.0,5000.0,0.0,0.0,0.0
1513267100252289270,,702276,,1513267098,435445376,'',1.3962634016,1.39746431622,0.00929774985247,0.0,0.001,0.0,5000.0,0.0,0.0,0.0
1513267100262317820,,702277,,1513267098,445445376,'',1.3962634016,1.3962634016,-0.0157345543674,0.0,0.001,0.0,5000.0,0.0,0.0,0.0
1513267100272247566,,702278,,1513267098,455445376,'',1.3962634016,1.39746431622,0.00689327467187,0.0,0.001,0.0,5000.0,0.0,0.0,0.0
1513267100282307685,,702279,,1513267098,465445376,'',1.3962634016,1.39746431622,0.0060339870776,0.0,0.001,0.0,5000.0,0.0,0.0,0.0
1513267100292140883,,702280,,1513267098,475445376,'',1.3962634016,1.39746431622,0.00408171234631,0.0,0.001,0.0,5000.0,0.0,0.0,0.0
1513267100302315681,,702281,,1513267098,485445376,'',1.3962634016,1.39746431622,0.00336277231243,0.0,0.001,0.0,5000.0,0.0,0.0,0.0
1513267100312427307,,702282,,1513267098,495445376,'',1.3962634016,1.39866523084,0.0247836415021,0.0,0.001,0.0,5000.0,0.0,0.0,0.0
1513267100322207119,,702283,,1513267098,505445376,'',1.3962634016,1.39866523084,0.0224935728494,0.0,0.001,0.0,5000.0,0.0,0.0,0.0
1513267100332058448,,702284,,1513267098,515445376,'',1.3962634016,1.39866523084,0.0206445243097,0.0,0.001,0.0,5000.0,0.0,0.0,0.0
1513267100342015561,,702285,,1513267098,525445376,'',1.3962634016,1.39746431622,-0.00383222999763,0.0,0.001,0.0,5000.0,0.0,0.0,0.0
1513267100351875444,,702286,,1513267098,535445376,'',1.3962634016,1.39866523084,0.018466678085,0.0,0.001,0.0,5000.0,0.0,0.0,0.0
1513267100361744075,,702287,,1513267098,545445376,'',1.3962634016,1.39986614546,0.0410573222396,0.0,0.001,0.0,5000.0,0.0,0.0,0.0
1513267100372059247,,702288,,1513267098,555445376,'',1.3962634016,1.39746431622,-0.00791020981526,0.0,0.001,0.0,5000.0,0.0,0.0,0.0
1513267100382035065,,702289,,1513267098,565445376,'',1.3962634016,1.39746431622,-0.00867404807285,0.0,0.001,0.0,5000.0,0.0,0.0,0.0
1513267100391921092,,702290,,1513267098,575445376,'',1.3962634016,1.39866523084,0.0131886968607,0.0,0.001,0.0,5000.0,0.0,0.0,0.0
1513267100401946411,,702291,,1513267098,585445376,'',1.3962634016,1.39746431622,-0.0108215394401,0.0,0.001,0.0,5000.0,0.0,0.0,0.0
1513267100411714981,,702292,,1513267098,595445376,'',1.3962634016,1.39866523084,0.0114356772994,0.0,0.001,0.0,5000.0,0.0,0.0,0.0
1513267100421991907,,702293,,1513267098,605445376,'',1.3962634016,1.39746431622,-0.0135357891616,0.0,0.001,0.0,5000.0,0.0,0.0,0.0
1513267100431921870,,702294,,1513267098,615445376,'',1.3962634016,1.39746431622,-0.0141138232455,0.0,0.001,0.0,5000.0,0.0,0.0,0.0
1513267100441827379,,702295,,1513267098,625445376,'',1.3962634016,1.39866523084,0.0091702544147,0.0,0.001,0.0,5000.0,0.0,0.0,0.0
1513267100451911049,,702296,,1513267098,635445376,'',1.3962634016,1.39986614546,0.0321027825988,0.0,0.001,0.0,5000.0,0.0,0.0,0.0
1513267100462207527,,702297,,1513267098,645445376,'',1.3962634016,1.39866523084,0.00724127886065,0.0,0.001,0.0,5000.0,0.0,0.0,0.0
1513267100472297545,,702298,,1513267098,655445376,'',1.3962634016,1.39986614546,0.0310451195685,0.0,0.001,0.0,5000.0,0.0,0.0,0.0
1513267100482123146,,702299,,1513267098,665445376,'',1.3962634016,1.39866523084,0.00649067891724,0.0,0.001,0.0,5000.0,0.0,0.0,0.0
1513267100491968955,,702300,,1513267098,675445376,'',1.3962634016,1.39866523084,0.00743765631066,0.0,0.001,0.0,5000.0,0.0,0.0,0.0
1513267100502123218,,702301,,1513267098,685445376,'',1.3962634016,1.39746431622,-0.0176937477206,0.0,0.001,0.0,5000.0,0.0,0.0,0.0
1513267100512093101,,702302,,1513267098,695445376,'',1.3962634016,1.39866523084,0.00575313867246,0.0,0.001,0.0,5000.0,0.0,0.0,0.0
1513267100522241923,,702303,,1513267098,705445376,'',1.3962634016,1.39866523084,0.00303660427145,0.0,0.001,0.0,5000.0,0.0,0.0,0.0
1513267100532042530,,702304,,1513267098,715445376,'',1.3962634016,1.39866523084,0.00165072575863,0.0,0.001,0.0,5000.0,0.0,0.0,0.0
1513267100541954429,,702305,,1513267098,725445376,'',1.3962634016,1.39986614546,0.023862275495,0.0,0.001,0.0,5000.0,0.0,0.0,0.0
1513267100551945098,,702306,,1513267098,735445376,'',1.3962634016,1.39986614546,0.0217099381102,0.0,0.001,0.0,5000.0,0.0,0.0,0.0
1513267100561851705,,702307,,1513267098,745445376,'',1.3962634016,1.39866523084,-0.00164879698715,0.0,0.001,0.0,5000.0,0.0,0.0,0.0
1513267100571777074,,702308,,1513267098,755445376,'',1.3962634016,1.39866523084,-0.00304739016374,0.0,0.001,0.0,5000.0,0.0,0.0,0.0
1513267100582262346,,702309,,1513267098,765445376,'',1.3962634016,1.39866523084,-0.00508308116649,0.0,0.001,0.0,5000.0,0.0,0.0,0.0
1513267100592204281,,702310,,1513267098,775445376,'',1.3962634016,1.39866523084,-0.00590581769063,0.0,0.001,0.0,5000.0,0.0,0.0,0.0
1513267100602217792,,702311,,1513267098,785445376,'',1.3962634016,1.39866523084,-0.00522822981345,0.0,0.001,0.0,5000.0,0.0,0.0,0.0
1513267100612223173,,702312,,1513267098,795445376,'',1.3962634016,1.39866523084,-0.00470096960011,0.0,0.001,0.0,5000.0,0.0,0.0,0.0
1513267100621968746,,702313,,1513267098,805445376,'',1.3962634016,1.39866523084,-0.00608809868381,0.0,0.001,0.0,5000.0,0.0,0.0,0.0
1513267100631886907,,702314,,1513267098,815445376,'',1.3962634016,1.39986614546,0.0187764505208,0.0,0.001,0.0,5000.0,0.0,0.0,0.0
1513267100641806809,,702315,,1513267098,825445376,'',1.3962634016,1.39986614546,0.0179305437477,0.0,0.001,0.0,5000.0,0.0,0.0,0.0
1513267100651822864,,702316,,1513267098,835445376,'',1.3962634016,1.39986614546,0.0172126873922,0.0,0.001,0.0,5000.0,0.0,0.0,0.0
1513267100662201797,,702317,,1513267098,845445376,'',1.3962634016,1.39986614546,0.0166943438481,0.0,0.001,0.0,5000.0,0.0,0.0,0.0
1513267100672214020,,702318,,1513267098,855445376,'',1.3962634016,1.39866523084,-0.00662010127839,0.0,0.001,0.0,5000.0,0.0,0.0,0.0
1513267100682148361,,702319,,1513267098,865445376,'',1.3962634016,1.39866523084,-0.00671386884662,0.0,0.001,0.0,5000.0,0.0,0.0,0.0
1513267100692019209,,702320,,1513267098,875445376,'',1.3962634016,1.39746431622,-0.0284131624728,0.0,0.001,0.0,5000.0,0.0,0.0,0.0
1513267100701860860,,702321,,1513267098,885445376,'',1.3962634016,1.39866523084,-0.0021497684744,0.0,0.001,0.0,5000.0,0.0,0.0,0.0
1513267100711821625,,702322,,1513267098,895445376,'',1.3962634016,1.39866523084,-0.00302557351962,0.0,0.001,0.0,5000.0,0.0,0.0,0.0
1513267100722273145,,702323,,1513267098,905445376,'',1.3962634016,1.39866523084,-0.00376905729956,0.0,0.001,0.0,5000.0,0.0,0.0,0.0
1513267100732263666,,702324,,1513267098,915445376,'',1.3962634016,1.39866523084,-0.00216933634628,0.0,0.001,0.0,5000.0,0.0,0.0,0.0
1513267100741787431,,702325,,1513267098,925445376,'',1.3962634016,1.39866523084,-0.00223410718998,0.0,0.001,0.0,5000.0,0.0,0.0,0.0
1513267100752335442,,702326,,1513267098,935445376,'',1.3962634016,1.39866523084,-0.00196301159574,0.0,0.001,0.0,5000.0,0.0,0.0,0.0
1513267100761763484,,702327,,1513267098,945445376,'',1.3962634016,1.39986614546,0.0252365758501,0.0,0.001,0.0,5000.0,0.0,0.0,0.0
1513267100771842141,,702328,,1513267098,955445376,'',1.3962634016,1.39746431622,-0.0225743278925,0.0,0.001,0.0,5000.0,0.0,0.0,0.0
1513267100782422620,,702329,,1513267098,965445376,'',1.3962634016,1.39866523084,0.0025881810079,0.0,0.001,0.0,5000.0,0.0,0.0,0.0
1513267100792269114,,702330,,1513267098,975445376,'',1.3962634016,1.39866523084,0.00166528512356,0.0,0.001,0.0,5000.0,0.0,0.0,0.0
1513267100802198248,,702331,,1513267098,985445376,'',1.3962634016,1.39986614546,0.0246797426585,0.0,0.001,0.0,5000.0,0.0,0.0,0.0
1513267100812054302,,702332,,1513267098,995445376,'',1.3962634016,1.39986614546,0.0245539055841,0.0,0.001,0.0,5000.0,0.0,0.0,0.0
1513267100822165889,,702333,,1513267099,5445376,'',1.3962634016,1.39986614546,0.0236027850631,0.0,0.001,0.0,5000.0,0.0,0.0,0.0
1513267100832313772,,702334,,1513267099,15445376,'',1.3962634016,1.39866523084,-0.000963195219737,0.0,0.001,0.0,5000.0,0.0,0.0,0.0
1513267100842138038,,702335,,1513267099,25445376,'',1.3962634016,1.39986614546,0.0229490277561,0.0,0.001,0.0,5000.0,0.0,0.0,0.0
1513267100852191249,,702336,,1513267099,35445376,'',1.3962634016,1.39866523084,-0.00198820911556,0.0,0.001,0.0,5000.0,0.0,0.0,0.0
1513267100862091223,,702337,,1513267099,45445376,'',1.3962634016,1.39866523084,-0.00298135125091,0.0,0.001,0.0,5000.0,0.0,0.0,0.0
1513267100872079851,,702338,,1513267099,55445376,'',1.3962634016,1.40106706009,0.0424779993553,0.0,0.001,0.0,5000.0,0.0,0.0,0.0
1513267100882075754,,702339,,1513267099,65445376,'',1.3962634016,1.39866523084,-0.00667482053092,0.0,0.001,0.0,5000.0,0.0,0.0,0.0
1513267100892127263,,702340,,1513267099,75445376,'',1.3962634016,1.39866523084,-0.0062711268144,0.0,0.001,0.0,5000.0,0.0,0.0,0.0
1513267100901995171,,702341,,1513267099,85445376,'',1.3962634016,1.39866523084,-0.00815225155828,0.0,0.001,0.0,5000.0,0.0,0.0,0.0
1513267100911917344,,702342,,1513267099,95445376,'',1.3962634016,1.39866523084,-0.00789959992424,0.0,0.001,0.0,5000.0,0.0,0.0,0.0
1513267100921989605,,702343,,1513267099,105445376,'',1.3962634016,1.40106706009,0.0397100430604,0.0,0.001,0.0,5000.0,0.0,0.0,0.0
1513267100931845296,,702344,,1513267099,115445376,'',1.3962634016,1.39866523084,-0.00899729061375,0.0,0.001,0.0,5000.0,0.0,0.0,0.0
1513267100942248843,,702345,,1513267099,125445376,'',1.3962634016,1.39986614546,0.0155645921496,0.0,0.001,0.0,5000.0,0.0,0.0,0.0
1513267100952248539,,702346,,1513267099,135445376,'',1.3962634016,1.39866523084,-0.0115044171774,0.0,0.001,0.0,5000.0,0.0,0.0,0.0
1513267100962181797,,702347,,1513267099,145445376,'',1.3962634016,1.39986614546,0.0100080199058,0.0,0.001,0.0,5000.0,0.0,0.0,0.0
1513267100972151911,,702348,,1513267099,155445376,'',1.3962634016,1.39866523084,-0.015947021895,0.0,0.001,0.0,5000.0,0.0,0.0,0.0
1513267100982120305,,702349,,1513267099,165445376,'',1.3962634016,1.39986614546,0.00588395056751,0.0,0.001,0.0,5000.0,0.0,0.0,0.0
1513267100991928446,,702350,,1513267099,175445376,'',1.3962634016,1.39986614546,0.00437325474723,0.0,0.001,0.0,5000.0,0.0,0.0,0.0
1513267101001817256,,702351,,1513267099,185445376,'',1.3962634016,1.39986614546,0.00443563300274,0.0,0.001,0.0,5000.0,0.0,0.0,0.0
1513267101011882545,,702352,,1513267099,195445376,'',1.3962634016,1.39986614546,0.00448440739747,0.0,0.001,0.0,5000.0,0.0,0.0,0.0
1513267101022299093,,702353,,1513267099,205445376,'',1.3962634016,1.39866523084,-0.0200827685799,0.0,0.001,0.0,5000.0,0.0,0.0,0.0
1513267101032260183,,702354,,1513267099,215445376,'',1.3962634016,1.39986614546,0.00385585505078,0.0,0.001,0.0,5000.0,0.0,0.0,0.0
1513267101042102779,,702355,,1513267099,225445376,'',1.3962634016,1.39986614546,0.00277789341908,0.0,0.001,0.0,5000.0,0.0,0.0,0.0
1513267101052099009,,702356,,1513267099,235445376,'',1.3962634016,1.39986614546,0.00145130361983,0.0,0.001,0.0,5000.0,0.0,0.0,0.0
1513267101062022379,,702357,,1513267099,245445376,'',1.3962634016,1.39986614546,0.000764393591767,0.0,0.001,0.0,5000.0,0.0,0.0,0.0
1513267101071816385,,702358,,1513267099,255445376,'',1.3962634016,1.39986614546,-0.000653329882146,0.0,0.001,0.0,5000.0,0.0,0.0,0.0
1513267101081819528,,702359,,1513267099,265445376,'',1.3962634016,1.39986614546,-0.000975573487168,0.0,0.001,0.0,5000.0,0.0,0.0,0.0
1513267101092244110,,702360,,1513267099,275445376,'',1.3962634016,1.39986614546,-0.00161270705908,0.0,0.001,0.0,5000.0,0.0,0.0,0.0
1513267101102146277,,702361,,1513267099,285445376,'',1.3962634016,1.39986614546,-0.00346397750018,0.0,0.001,0.0,5000.0,0.0,0.0,0.0
1513267101112052457,,702362,,1513267099,295445376,'',1.3962634016,1.40106706009,0.0183858899717,0.0,0.001,0.0,5000.0,0.0,0.0,0.0
1513267101122029116,,702363,,1513267099,305445376,'',1.3962634016,1.40106706009,0.0168013701422,0.0,0.001,0.0,5000.0,0.0,0.0,0.0
1513267101132072456,,702364,,1513267099,315445376,'',1.3962634016,1.39986614546,-0.00921283499422,0.0,0.001,0.0,5000.0,0.0,0.0,0.0
1513267101142040874,,702365,,1513267099,325445376,'',1.3962634016,1.39986614546,-0.0105272960725,0.0,0.001,0.0,5000.0,0.0,0.0,0.0
1513267101151939756,,702366,,1513267099,335445376,'',1.3962634016,1.39986614546,-0.0107880607171,0.0,0.001,0.0,5000.0,0.0,0.0,0.0
1513267101161843533,,702367,,1513267099,345445376,'',1.3962634016,1.40106706009,0.0123452997571,0.0,0.001,0.0,5000.0,0.0,0.0,0.0
1513267101172320574,,702368,,1513267099,355445376,'',1.3962634016,1.39986614546,-0.0105697422489,0.0,0.001,0.0,5000.0,0.0,0.0,0.0
1513267101182258748,,702369,,1513267099,365445376,'',1.3962634016,1.40106706009,0.0133600025345,0.0,0.001,0.0,5000.0,0.0,0.0,0.0
1513267101192212520,,702370,,1513267099,375445376,'',1.3962634016,1.40106706009,0.0131892743903,0.0,0.001,0.0,5000.0,0.0,0.0,0.0
1513267101202075066,,702371,,1513267099,385445376,'',1.3962634016,1.40106706009,0.0129917138053,0.0,0.001,0.0,5000.0,0.0,0.0,0.0
1513267101212169653,,702372,,1513267099,395445376,'',1.3962634016,1.40106706009,0.0132286562831,0.0,0.001,0.0,5000.0,0.0,0.0,0.0
1513267101222268675,,702373,,1513267099,405445376,'',1.3962634016,1.40106706009,0.0134074140446,0.0,0.001,0.0,5000.0,0.0,0.0,0.0
1513267101232299720,,702374,,1513267099,415445376,'',1.3962634016,1.39986614546,-0.010672849781,0.0,0.001,0.0,5000.0,0.0,0.0,0.0
1513267101241993531,,702375,,1513267099,425445376,'',1.3962634016,1.40226797471,0.037506783635,0.0,0.001,0.0,5000.0,0.0,0.0,0.0
1513267101252024676,,702376,,1513267099,435445376,'',1.3962634016,1.39986614546,-0.00946214605533,0.0,0.001,0.0,5000.0,0.0,0.0,0.0
1513267101261907114,,702377,,1513267099,445445376,'',1.3962634016,1.39866523084,-0.0341070895987,0.0,0.001,0.0,5000.0,0.0,0.0,0.0
1513267101271894273,,702378,,1513267099,455445376,'',1.3962634016,1.40106706009,0.0144068135588,0.0,0.001,0.0,5000.0,0.0,0.0,0.0
1513267101281840783,,702379,,1513267099,465445376,'',1.3962634016,1.40106706009,0.0135904799229,0.0,0.001,0.0,5000.0,0.0,0.0,0.0
1513267101292225367,,702380,,1513267099,475445376,'',1.3962634016,1.39986614546,-0.0100571373946,0.0,0.001,0.0,5000.0,0.0,0.0,0.0
1513267101302242794,,702381,,1513267099,485445376,'',1.3962634016,1.40106706009,0.0151079451361,0.0,0.001,0.0,5000.0,0.0,0.0,0.0
1513267101312103955,,702382,,1513267099,495445376,'',1.3962634016,1.39986614546,-0.0101136074331,0.0,0.001,0.0,5000.0,0.0,0.0,0.0
1513267101321936673,,702383,,1513267099,505445376,'',1.3962634016,1.39986614546,-0.00969227986501,0.0,0.001,0.0,5000.0,0.0,0.0,0.0
1513267101331939546,,702384,,1513267099,515445376,'',1.3962634016,1.40106706009,0.0141319899404,0.0,0.001,0.0,5000.0,0.0,0.0,0.0
1513267101342149686,,702385,,1513267099,525445376,'',1.3962634016,1.40106706009,0.0137279071886,0.0,0.001,0.0,5000.0,0.0,0.0,0.0
1513267101352194709,,702386,,1513267099,535445376,'',1.3962634016,1.40106706009,0.0125306624317,0.0,0.001,0.0,5000.0,0.0,0.0,0.0
1513267101362029370,,702387,,1513267099,545445376,'',1.3962634016,1.40106706009,0.0123878500895,0.0,0.001,0.0,5000.0,0.0,0.0,0.0
1513267101372032210,,702388,,1513267099,555445376,'',1.3962634016,1.40106706009,0.0115170283313,0.0,0.001,0.0,5000.0,0.0,0.0,0.0
1513267101382006918,,702389,,1513267099,565445376,'',1.3962634016,1.39986614546,-0.0138841643461,0.0,0.001,0.0,5000.0,0.0,0.0,0.0
1513267101391926667,,702390,,1513267099,575445376,'',1.3962634016,1.40106706009,0.00938266223086,0.0,0.001,0.0,5000.0,0.0,0.0,0.0
1513267101401896843,,702391,,1513267099,585445376,'',1.3962634016,1.40106706009,0.00769479457906,0.0,0.001,0.0,5000.0,0.0,0.0,0.0
1513267101411943719,,702392,,1513267099,595445376,'',1.3962634016,1.40106706009,0.0080789732005,0.0,0.001,0.0,5000.0,0.0,0.0,0.0
1513267101422374996,,702393,,1513267099,605445376,'',1.3962634016,1.40106706009,0.00877019623214,0.0,0.001,0.0,5000.0,0.0,0.0,0.0
1513267101432277169,,702394,,1513267099,615445376,'',1.3962634016,1.40106706009,0.00888185590011,0.0,0.001,0.0,5000.0,0.0,0.0,0.0
1513267101442277895,,702395,,1513267099,625445376,'',1.3962634016,1.39986614546,-0.0166520593704,0.0,0.001,0.0,5000.0,0.0,0.0,0.0
1513267101452228164,,702396,,1513267099,635445376,'',1.3962634016,1.40226797471,0.0312769570184,0.0,0.001,0.0,5000.0,0.0,0.0,0.0
1513267101462194221,,702397,,1513267099,645445376,'',1.3962634016,1.40106706009,0.00665331871721,0.0,0.001,0.0,5000.0,0.0,0.0,0.0
1513267101472053210,,702398,,1513267099,655445376,'',1.3962634016,1.40106706009,0.00715633382228,0.0,0.001,0.0,5000.0,0.0,0.0,0.0
1513267101481966040,,702399,,1513267099,665445376,'',1.3962634016,1.39986614546,-0.0179667892741,0.0,0.001,0.0,5000.0,0.0,0.0,0.0
1513267101491934621,,702400,,1513267099,675445376,'',1.3962634016,1.40226797471,0.0289632269495,0.0,0.001,0.0,5000.0,0.0,0.0,0.0
1513267101501839884,,702401,,1513267099,685445376,'',1.3962634016,1.40106706009,0.00350528376653,0.0,0.001,0.0,5000.0,0.0,0.0,0.0
1513267101512319109,,702402,,1513267099,695445376,'',1.3962634016,1.40106706009,0.00287791362964,0.0,0.001,0.0,5000.0,0.0,0.0,0.0
1513267101522149986,,702403,,1513267099,705445376,'',1.3962634016,1.40226797471,0.0256850112618,0.0,0.001,0.0,5000.0,0.0,0.0,0.0
1513267101532163233,,702404,,1513267099,715445376,'',1.3962634016,1.40226797471,0.026197562428,0.0,0.001,0.0,5000.0,0.0,0.0,0.0
1513267101542120676,,702405,,1513267099,725445376,'',1.3962634016,1.40106706009,0.000262176682615,0.0,0.001,0.0,5000.0,0.0,0.0,0.0
1513267101552170208,,702406,,1513267099,735445376,'',1.3962634016,1.40106706009,0.000145672644833,0.0,0.001,0.0,5000.0,0.0,0.0,0.0
1513267101562137890,,702407,,1513267099,745445376,'',1.3962634016,1.40106706009,-0.000255956597395,0.0,0.001,0.0,5000.0,0.0,0.0,0.0
1513267101572024071,,702408,,1513267099,755445376,'',1.3962634016,1.40106706009,-0.000641772169802,0.0,0.001,0.0,5000.0,0.0,0.0,0.0
1513267101581882194,,702409,,1513267099,765445376,'',1.3962634016,1.40106706009,-0.0017977130497,0.0,0.001,0.0,5000.0,0.0,0.0,0.0
1513267101591878638,,702410,,1513267099,775445376,'',1.3962634016,1.40106706009,-0.00233376640779,0.0,0.001,0.0,5000.0,0.0,0.0,0.0
1513267101601867006,,702411,,1513267099,785445376,'',1.3962634016,1.40226797471,0.0214403098213,0.0,0.001,0.0,5000.0,0.0,0.0,0.0
1513267101612380062,,702412,,1513267099,795445376,'',1.3962634016,1.40226797471,0.0211313609874,0.0,0.001,0.0,5000.0,0.0,0.0,0.0
1513267101622240295,,702413,,1513267099,805445376,'',1.3962634016,1.40106706009,-0.0056248034406,0.0,0.001,0.0,5000.0,0.0,0.0,0.0
1513267101632172147,,702414,,1513267099,815445376,'',1.3962634016,1.40346888933,0.0398812412999,0.0,0.001,0.0,5000.0,0.0,0.0,0.0
1513267101642074697,,702415,,1513267099,825445376,'',1.3962634016,1.40106706009,-0.00751887190748,0.0,0.001,0.0,5000.0,0.0,0.0,0.0
1513267101651974283,,702416,,1513267099,835445376,'',1.3962634016,1.40106706009,-0.00704602586713,0.0,0.001,0.0,5000.0,0.0,0.0,0.0
1513267101661938528,,702417,,1513267099,845445376,'',1.3962634016,1.39986614546,-0.0317612317376,0.0,0.001,0.0,5000.0,0.0,0.0,0.0
1513267101672227183,,702418,,1513267099,855445376,'',1.3962634016,1.40106706009,-0.00704337417462,0.0,0.001,0.0,5000.0,0.0,0.0,0.0
1513267101682157733,,702419,,1513267099,865445376,'',1.3962634016,1.40106706009,-0.00666188181053,0.0,0.001,0.0,5000.0,0.0,0.0,0.0
1513267101692097339,,702420,,1513267099,875445376,'',1.3962634016,1.40226797471,0.0182959591548,0.0,0.001,0.0,5000.0,0.0,0.0,0.0
1513267101702006599,,702421,,1513267099,885445376,'',1.3962634016,1.40106706009,-0.00577022855339,0.0,0.001,0.0,5000.0,0.0,0.0,0.0
1513267101711812219,,702422,,1513267099,895445376,'',1.3962634016,1.40106706009,-0.00598787345744,0.0,0.001,0.0,5000.0,0.0,0.0,0.0
1513267101722316396,,702423,,1513267099,905445376,'',1.3962634016,1.40106706009,-0.00574280751346,0.0,0.001,0.0,5000.0,0.0,0.0,0.0
1513267101732226894,,702424,,1513267099,915445376,'',1.3962634016,1.40226797471,0.0195424751582,0.0,0.001,0.0,5000.0,0.0,0.0,0.0
1513267101742206294,,702425,,1513267099,925445376,'',1.3962634016,1.40106706009,-0.00521171026887,0.0,0.001,0.0,5000.0,0.0,0.0,0.0
1513267101752078142,,702426,,1513267099,935445376,'',1.3962634016,1.40106706009,-0.00699191235192,0.0,0.001,0.0,5000.0,0.0,0.0,0.0
1513267101761959894,,702427,,1513267099,945445376,'',1.3962634016,1.40106706009,-0.00753250869212,0.0,0.001,0.0,5000.0,0.0,0.0,0.0
1513267101771949614,,702428,,1513267099,955445376,'',1.3962634016,1.40226797471,0.0172138185449,0.0,0.001,0.0,5000.0,0.0,0.0,0.0
1513267101781840497,,702429,,1513267099,965445376,'',1.3962634016,1.40106706009,-0.00751590259753,0.0,0.001,0.0,5000.0,0.0,0.0,0.0
1513267101791842427,,702430,,1513267099,975445376,'',1.3962634016,1.40226797471,0.0168149084788,0.0,0.001,0.0,5000.0,0.0,0.0,0.0
1513267101801851358,,702431,,1513267099,985445376,'',1.3962634016,1.40106706009,-0.00743298170435,0.0,0.001,0.0,5000.0,0.0,0.0,0.0
1513267101812208336,,702432,,1513267099,995445376,'',1.3962634016,1.40226797471,0.0172698226735,0.0,0.001,0.0,5000.0,0.0,0.0,0.0
1513267101822247778,,702433,,1513267100,5445376,'',1.3962634016,1.40106706009,-0.00695451141684,0.0,0.001,0.0,5000.0,0.0,0.0,0.0
1513267101832217563,,702434,,1513267100,15445376,'',1.3962634016,1.40106706009,-0.00614327691668,0.0,0.001,0.0,5000.0,0.0,0.0,0.0
1513267101842045623,,702435,,1513267100,25445376,'',1.3962634016,1.39986614546,-0.031028700086,0.0,0.001,0.0,5000.0,0.0,0.0,0.0
1513267101851954134,,702436,,1513267100,35445376,'',1.3962634016,1.40106706009,-0.00599841915074,0.0,0.001,0.0,5000.0,0.0,0.0,0.0
1513267101861983299,,702437,,1513267100,45445376,'',1.3962634016,1.40106706009,-0.00493433809149,0.0,0.001,0.0,5000.0,0.0,0.0,0.0
1513267101872311302,,702438,,1513267100,55445376,'',1.3962634016,1.40106706009,-0.0040678701928,0.0,0.001,0.0,5000.0,0.0,0.0,0.0
1513267101882198805,,702439,,1513267100,65445376,'',1.3962634016,1.40106706009,-0.00469282267016,0.0,0.001,0.0,5000.0,0.0,0.0,0.0
1513267101892103269,,702440,,1513267100,75445376,'',1.3962634016,1.40106706009,-0.00520890626571,0.0,0.001,0.0,5000.0,0.0,0.0,0.0
1513267101902118078,,702441,,1513267100,85445376,'',1.3962634016,1.40106706009,-0.00590798619099,0.0,0.001,0.0,5000.0,0.0,0.0,0.0
1513267101911984931,,702442,,1513267100,95445376,'',1.3962634016,1.40106706009,-0.00439591634378,0.0,0.001,0.0,5000.0,0.0,0.0,0.0
1513267101921908076,,702443,,1513267100,105445376,'',1.3962634016,1.40106706009,-0.00395372160641,0.0,0.001,0.0,5000.0,0.0,0.0,0.0
1513267101932337574,,702444,,1513267100,115445376,'',1.3962634016,1.40106706009,-0.00542631399348,0.0,0.001,0.0,5000.0,0.0,0.0,0.0
1513267101942282453,,702445,,1513267100,125445376,'',1.3962634016,1.40106706009,-0.00531834503075,0.0,0.001,0.0,5000.0,0.0,0.0,0.0
1513267101952440602,,702446,,1513267100,135445376,'',1.3962634016,1.40106706009,-0.0048091840319,0.0,0.001,0.0,5000.0,0.0,0.0,0.0
1513267101961850747,,702447,,1513267100,145445376,'',1.3962634016,1.40106706009,-0.00393759523992,0.0,0.001,0.0,5000.0,0.0,0.0,0.0
1513267101972100767,,702448,,1513267100,155445376,'',1.3962634016,1.40226797471,0.0191837083956,0.0,0.001,0.0,5000.0,0.0,0.0,0.0
1513267101982075727,,702449,,1513267100,165445376,'',1.3962634016,1.39986614546,-0.0297049158859,0.0,0.001,0.0,5000.0,0.0,0.0,0.0
1513267101992103002,,702450,,1513267100,175445376,'',1.3962634016,1.40106706009,-0.00437375755706,0.0,0.001,0.0,5000.0,0.0,0.0,0.0
1513267102001816430,,702451,,1513267100,185445376,'',1.3962634016,1.40226797471,0.019820519407,0.0,0.001,0.0,5000.0,0.0,0.0,0.0
1513267102012362394,,702452,,1513267100,195445376,'',1.3962634016,1.40226797471,0.0192632496609,0.0,0.001,0.0,5000.0,0.0,0.0,0.0
1513267102022315452,,702453,,1513267100,205445376,'',1.3962634016,1.40226797471,0.0192581116247,0.0,0.001,0.0,5000.0,0.0,0.0,0.0
1513267102032232397,,702454,,1513267100,215445376,'',1.3962634016,1.39986614546,-0.0296197542408,0.0,0.001,0.0,5000.0,0.0,0.0,0.0
1513267102042193463,,702455,,1513267100,225445376,'',1.3962634016,1.40226797471,0.0185478278667,0.0,0.001,0.0,5000.0,0.0,0.0,0.0
1513267102052158903,,702456,,1513267100,235445376,'',1.3962634016,1.40106706009,-0.00650037431216,0.0,0.001,0.0,5000.0,0.0,0.0,0.0
1513267102061974318,,702457,,1513267100,245445376,'',1.3962634016,1.40106706009,-0.00530918090472,0.0,0.001,0.0,5000.0,0.0,0.0,0.0
1513267102072300077,,702458,,1513267100,255445376,'',1.3962634016,1.40106706009,-0.00735028918334,0.0,0.001,0.0,5000.0,0.0,0.0,0.0
1513267102082269576,,702459,,1513267100,265445376,'',1.3962634016,1.40226797471,0.0155181608308,0.0,0.001,0.0,5000.0,0.0,0.0,0.0
1513267102092158244,,702460,,1513267100,275445376,'',1.3962634016,1.40106706009,-0.00928620763782,0.0,0.001,0.0,5000.0,0.0,0.0,0.0
1513267102102202174,,702461,,1513267100,285445376,'',1.3962634016,1.40346888933,0.0395090055218,0.0,0.001,0.0,5000.0,0.0,0.0,0.0
1513267102112062899,,702462,,1513267100,295445376,'',1.3962634016,1.40106706009,-0.00822297643227,0.0,0.001,0.0,5000.0,0.0,0.0,0.0
1513267102122040262,,702463,,1513267100,305445376,'',1.3962634016,1.40346888933,0.0381839418446,0.0,0.001,0.0,5000.0,0.0,0.0,0.0
1513267102132030453,,702464,,1513267100,315445376,'',1.3962634016,1.40106706009,-0.0101951128163,0.0,0.001,0.0,5000.0,0.0,0.0,0.0
1513267102141936371,,702465,,1513267100,325445376,'',1.3962634016,1.40106706009,-0.00801187749545,0.0,0.001,0.0,5000.0,0.0,0.0,0.0
1513267102151848869,,702466,,1513267100,335445376,'',1.3962634016,1.40106706009,-0.00750118883934,0.0,0.001,0.0,5000.0,0.0,0.0,0.0
1513267102161855524,,702467,,1513267100,345445376,'',1.3962634016,1.40106706009,-0.00701013089273,0.0,0.001,0.0,5000.0,0.0,0.0,0.0
1513267102172243891,,702468,,1513267100,355445376,'',1.3962634016,1.40226797471,0.0154418207196,0.0,0.001,0.0,5000.0,0.0,0.0,0.0
1513267102182261174,,702469,,1513267100,365445376,'',1.3962634016,1.40346888933,0.039061931841,0.0,0.001,0.0,5000.0,0.0,0.0,0.0
