rosbagTimestamp,header,seq,stamp,secs,nsecs,frame_id,set_point,process_value,process_value_dot,error,time_step,command,p,i,d,i_clamp
1513267098952045652,,702152,,1513267097,135445376,'',0.244346095279,0.225901616988,0.000334966312461,-0.0184444782912,0.001,110.563187829,6000.0,0.0,300.0,0.0
1513267098962052610,,702153,,1513267097,145445376,'',0.244346095279,0.22590463318,0.000274236812879,-0.0184414620988,0.001,110.564146785,6000.0,0.0,300.0,0.0
1513267098971934254,,702154,,1513267097,155445376,'',0.244346095279,0.225883064076,-0.0127136341824,-0.0184630312036,0.001,114.607187024,6000.0,0.0,300.0,0.0
1513267098981881080,,702155,,1513267097,165445376,'',0.244346095279,0.22587821386,0.000812061403704,-0.0184678814195,0.001,110.563423211,6000.0,0.0,300.0,0.0
1513267098991892875,,702156,,1513267097,175445376,'',0.244346095279,0.225874340684,0.000887954953382,-0.0184717545949,0.001,110.563328643,6000.0,0.0,300.0,0.0
1513267099002229570,,702157,,1513267097,185445376,'',0.244346095279,0.225882302936,0.000726951104267,-0.0184637923428,0.001,110.563951126,6000.0,0.0,300.0,0.0
1513267099012141818,,702158,,1513267097,195445376,'',0.244346095279,0.225865611214,0.00106869549761,-0.0184804840655,0.001,110.569655709,6000.0,0.0,300.0,0.0
1513267099022228596,,702159,,1513267097,205445376,'',0.244346095279,0.22587515958,0.000874853053594,-0.0184709356992,0.001,110.567862962,6000.0,0.0,300.0,0.0
1513267099032073654,,702160,,1513267097,215445376,'',0.244346095279,0.225869748921,-0.0124403673461,-0.0184763463584,0.001,114.609654387,6000.0,0.0,300.0,0.0
1513267099042063293,,702161,,1513267097,225445376,'',0.244346095279,0.225878544508,0.000805302751455,-0.0184675507711,0.001,110.563395213,6000.0,0.0,300.0,0.0
1513267099051846567,,702162,,1513267097,235445376,'',0.244346095279,0.225885745764,0.000659260237018,-0.0184603495155,0.001,110.564295442,6000.0,0.0,300.0,0.0
1513267099061803150,,702163,,1513267097,245445376,'',0.244346095279,0.225891642079,0.000539682100989,-0.0184544532002,0.001,110.564484542,6000.0,0.0,300.0,0.0
1513267099071693167,,702164,,1513267097,255445376,'',0.244346095279,0.22589645675,0.000442039866955,-0.0184496385291,0.001,110.565203404,6000.0,0.0,300.0,0.0
1513267099082160830,,702165,,1513267097,265445376,'',0.244346095279,0.225900409601,0.000361875464766,-0.0184456856778,0.001,110.565538484,6000.0,0.0,300.0,0.0
1513267099092120566,,702166,,1513267097,275445376,'',0.244346095279,0.225903645042,0.000296260263786,-0.0184424502375,0.001,110.565706142,6000.0,0.0,300.0,0.0
1513267099101889455,,702167,,1513267097,285445376,'',0.244346095279,0.225893879574,0.000496489500198,-0.0184522157054,0.001,110.565127234,6000.0,0.0,300.0,0.0
1513267099111912478,,702168,,1513267097,295445376,'',0.244346095279,0.225885624807,0.000663404514403,-0.018460470472,0.001,110.56466616,6000.0,0.0,300.0,0.0
1513267099121868741,,702169,,1513267097,305445376,'',0.244346095279,0.225878847324,0.00080356758943,-0.0184672479548,0.001,110.575322949,6000.0,0.0,300.0,0.0
1513267099132202463,,702170,,1513267097,315445376,'',0.244346095279,0.225885993049,0.000657852295897,-0.0184601022306,0.001,110.563939718,6000.0,0.0,300.0,0.0
1513267099142104638,,702171,,1513267097,325445376,'',0.244346095279,0.225878633852,-0.012618214947,-0.0184674614272,0.001,114.606811478,6000.0,0.0,300.0,0.0
1513267099152019694,,702172,,1513267097,335445376,'',0.244346095279,0.225873625466,0.000904105264901,-0.0184724698135,0.001,110.563007469,6000.0,0.0,300.0,0.0
1513267099161904960,,702173,,1513267097,345445376,'',0.244346095279,0.225881702764,0.00074046957457,-0.0184643925152,0.001,110.568859535,6000.0,0.0,300.0,0.0
1513267099172195125,,702174,,1513267097,355445376,'',0.244346095279,0.225865518627,0.00106431834146,-0.0184805766523,0.001,110.56227293,6000.0,0.0,300.0,0.0
1513267099182173406,,702175,,1513267097,365445376,'',0.244346095279,0.225863835483,0.00109861698212,-0.0184822597965,0.001,110.562835243,6000.0,0.0,300.0,0.0
1513267099192136030,,702176,,1513267097,375445376,'',0.244346095279,0.225873706997,0.000899325868665,-0.018472388282,0.001,110.563014856,6000.0,0.0,300.0,0.0
1513267099202012901,,702177,,1513267097,385445376,'',0.244346095279,0.225869010499,0.000998498088324,-0.0184770847805,0.001,110.557126004,6000.0,0.0,300.0,0.0
1513267099211981873,,702178,,1513267097,395445376,'',0.244346095279,0.225864986922,0.00107883030055,-0.0184811083575,0.001,110.563546371,6000.0,0.0,300.0,0.0
1513267099221828400,,702179,,1513267097,405445376,'',0.244346095279,0.225874646028,0.000883200118367,-0.0184714492509,0.001,110.563354527,6000.0,0.0,300.0,0.0
1513267099231753879,,702180,,1513267097,415445376,'',0.244346095279,0.225870386579,0.000971483226036,-0.0184757087005,0.001,110.562993456,6000.0,0.0,300.0,0.0
1513267099241725030,,702181,,1513267097,425445376,'',0.244346095279,0.2258790327,0.000796005590662,-0.018467062579,0.001,110.569277733,6000.0,0.0,300.0,0.0
1513267099252250840,,702182,,1513267097,435445376,'',0.244346095279,0.22586225873,0.00113698969622,-0.0184838365495,0.001,110.561241998,6000.0,0.0,300.0,0.0
1513267099262151461,,702183,,1513267097,445445376,'',0.244346095279,0.225858877281,-0.0122229314453,-0.0184872179983,0.001,114.704958836,6000.0,0.0,300.0,0.0
1513267099272167517,,702184,,1513267097,455445376,'',0.244346095279,0.225869645209,0.000980531159428,-0.0184764500701,0.001,110.556686145,6000.0,0.0,300.0,0.0
1513267099282161381,,702185,,1513267097,465445376,'',0.244346095279,0.225878424483,0.000803434532847,-0.0184676707957,0.001,110.568324447,6000.0,0.0,300.0,0.0
1513267099292065060,,702186,,1513267097,475445376,'',0.244346095279,0.225861227301,0.00114800142582,-0.0184848679778,0.001,110.563299003,6000.0,0.0,300.0,0.0
1513267099301969907,,702187,,1513267097,485445376,'',0.244346095279,0.225871569941,0.000939792215328,-0.0184745253379,0.001,110.562821224,6000.0,0.0,300.0,0.0
1513267099312000115,,702188,,1513267097,495445376,'',0.244346095279,0.225891709767,0.0139414251293,-0.0184543855119,0.001,107.024348138,6000.0,0.0,300.0,0.0
1513267099321892525,,702189,,1513267097,505445376,'',0.244346095279,0.225896505245,0.000426327845371,-0.0184495900343,0.001,110.565207515,6000.0,0.0,300.0,0.0
1513267099331858754,,702190,,1513267097,515445376,'',0.244346095279,0.225889224371,0.00057632153264,-0.018456870908,0.001,110.569207305,6000.0,0.0,300.0,0.0
1513267099341798933,,702191,,1513267097,525445376,'',0.244346095279,0.225883232945,0.000701329787174,-0.0184628623337,0.001,110.567915245,6000.0,0.0,300.0,0.0
1513267099352218316,,702192,,1513267097,535445376,'',0.244346095279,0.225889570684,0.000574408501804,-0.0184565245949,0.001,110.56867947,6000.0,0.0,300.0,0.0
1513267099361986089,,702193,,1513267097,545445376,'',0.244346095279,0.225905906889,0.000246618083069,-0.0184401883906,0.001,110.565788237,6000.0,0.0,300.0,0.0
1513267099371964735,,702194,,1513267097,555445376,'',0.244346095279,0.225897068377,0.000425130181597,-0.0184490269023,0.001,110.56540985,6000.0,0.0,300.0,0.0
1513267099381821921,,702195,,1513267097,565445376,'',0.244346095279,0.225900909978,0.00034803900717,-0.018445185301,0.001,110.565808714,6000.0,0.0,300.0,0.0
1513267099392299303,,702196,,1513267097,575445376,'',0.244346095279,0.225904049882,0.000285029111973,-0.0184420453968,0.001,110.56775385,6000.0,0.0,300.0,0.0
1513267099401981416,,702197,,1513267097,585445376,'',0.244346095279,0.225906625933,0.000233334327423,-0.0184394693464,0.001,110.565980583,6000.0,0.0,300.0,0.0
1513267099412599371,,702198,,1513267097,595445376,'',0.244346095279,0.225908771648,0.000190275274494,-0.018437323631,0.001,110.555127275,6000.0,0.0,300.0,0.0
1513267099421982557,,702199,,1513267097,605445376,'',0.244346095279,0.225910464113,0.000156311811796,-0.0184356311664,0.001,110.56539014,6000.0,0.0,300.0,0.0
1513267099431867948,,702200,,1513267097,615445376,'',0.244346095279,0.225911871086,0.000128077431233,-0.018434224193,0.001,110.567292384,6000.0,0.0,300.0,0.0
1513267099441859598,,702201,,1513267097,625445376,'',0.244346095279,0.225900893721,0.000353113426595,-0.0184452015581,0.001,110.565478174,6000.0,0.0,300.0,0.0
1513267099452292187,,702202,,1513267097,635445376,'',0.244346095279,0.225904043075,0.000289052497168,-0.0184420522042,0.001,110.565410921,6000.0,0.0,300.0,0.0
1513267099462205267,,702203,,1513267097,645445376,'',0.244346095279,0.22590662524,0.000236528732361,-0.0184394700387,0.001,110.564214988,6000.0,0.0,300.0,0.0
1513267099472179397,,702204,,1513267097,655445376,'',0.244346095279,0.225896783942,0.000437639618711,-0.0184493113368,0.001,110.567862776,6000.0,0.0,300.0,0.0
1513267099482046861,,702205,,1513267097,665445376,'',0.244346095279,0.225889619017,0.000581333711731,-0.0184564762622,0.001,110.564790944,6000.0,0.0,300.0,0.0
1513267099491914337,,702206,,1513267097,675445376,'',0.244346095279,0.225906995151,0.000229160114904,-0.0184391001283,0.001,110.566031008,6000.0,0.0,300.0,0.0
1513267099501857215,,702207,,1513267097,685445376,'',0.244346095279,0.225896037747,0.000449277923422,-0.018450057532,0.001,110.565589389,6000.0,0.0,300.0,0.0
1513267099511785511,,702208,,1513267097,695445376,'',0.244346095279,0.225900061555,0.000367902627082,-0.0184460337246,0.001,110.567287647,6000.0,0.0,300.0,0.0
1513267099521780269,,702209,,1513267097,705445376,'',0.244346095279,0.225891673775,0.000534998024229,-0.0184544215038,0.001,110.564797955,6000.0,0.0,300.0,0.0
1513267099532121157,,702210,,1513267097,715445376,'',0.244346095279,0.225908699964,0.000191001662504,-0.018437395315,0.001,110.566185477,6000.0,0.0,300.0,0.0
1513267099542098094,,702211,,1513267097,725445376,'',0.244346095279,0.225910432645,0.00015636032456,-0.0184356626345,0.001,110.56634247,6000.0,0.0,300.0,0.0
1513267099551983714,,702212,,1513267097,735445376,'',0.244346095279,0.225911848021,0.000128062821722,-0.0184342472581,0.001,110.566582899,6000.0,0.0,300.0,0.0
1513267099562036878,,702213,,1513267097,745445376,'',0.244346095279,0.225900114326,-0.013055096897,-0.0184459809537,0.001,114.513378965,6000.0,0.0,300.0,0.0
1513267099571900084,,702214,,1513267097,755445376,'',0.244346095279,0.225903404792,0.000302126129922,-0.0184426904871,0.001,110.565423945,6000.0,0.0,300.0,0.0
1513267099581778835,,702215,,1513267097,765445376,'',0.244346095279,0.225893604498,0.000496194700336,-0.0184524907815,0.001,110.564673809,6000.0,0.0,300.0,0.0
1513267099592229744,,702216,,1513267097,775445376,'',0.244346095279,0.225874355344,0.000882719553325,-0.0184717399355,0.001,110.568710721,6000.0,0.0,300.0,0.0
1513267099602157595,,702217,,1513267097,785445376,'',0.244346095279,0.225870821974,0.000955101305803,-0.018475273305,0.001,110.56185345,6000.0,0.0,300.0,0.0
1513267099612130595,,702218,,1513267097,795445376,'',0.244346095279,0.22587942372,0.000781892663476,-0.0184666715597,0.001,110.564212903,6000.0,0.0,300.0,0.0
1513267099622227286,,702219,,1513267097,805445376,'',0.244346095279,0.225886464923,0.000640107802479,-0.0184596303564,0.001,110.564124421,6000.0,0.0,300.0,0.0
1513267099632169427,,702220,,1513267097,815445376,'',0.244346095279,0.225878770695,0.000783459232903,-0.0184673245843,0.001,110.577468958,6000.0,0.0,300.0,0.0
1513267099642107190,,702221,,1513267097,825445376,'',0.244346095279,0.225874378432,0.000877961807714,-0.0184717168469,0.001,110.569797992,6000.0,0.0,300.0,0.0
1513267099651847109,,702222,,1513267097,835445376,'',0.244346095279,0.225869124498,-0.0124380323837,-0.0184769707807,0.001,114.606903479,6000.0,0.0,300.0,0.0
1513267099662316191,,702223,,1513267097,845445376,'',0.244346095279,0.225878039644,0.000806955865609,-0.0184680556351,0.001,110.561881283,6000.0,0.0,300.0,0.0
1513267099672318985,,702224,,1513267097,855445376,'',0.244346095279,0.225885317227,0.000660919182763,-0.0184607780525,0.001,110.564259115,6000.0,0.0,300.0,0.0
1513267099682260881,,702225,,1513267097,865445376,'',0.244346095279,0.225891291914,0.000541027244096,-0.0184548033653,0.001,110.564254006,6000.0,0.0,300.0,0.0
1513267099692293256,,702226,,1513267097,875445376,'',0.244346095279,0.225896174782,0.00044304444914,-0.018449920497,0.001,110.567338189,6000.0,0.0,300.0,0.0
1513267099701962574,,702227,,1513267097,885445376,'',0.244346095279,0.2258873966,0.000611827631203,-0.0184586986788,0.001,110.564210198,6000.0,0.0,300.0,0.0
1513267099712138857,,702228,,1513267097,895445376,'',0.244346095279,0.225881976321,0.000725783678641,-0.0184641189581,0.001,110.563922962,6000.0,0.0,300.0,0.0
1513267099722047782,,702229,,1513267097,905445376,'',0.244346095279,0.225877156064,0.000829830189334,-0.018468939215,0.001,110.557747635,6000.0,0.0,300.0,0.0
1513267099731949210,,702230,,1513267097,915445376,'',0.244346095279,0.225884615051,0.000679219752691,-0.0184614802283,0.001,110.558453748,6000.0,0.0,300.0,0.0
1513267099741827744,,702231,,1513267097,925445376,'',0.244346095279,0.225879290448,0.000785531588519,-0.0184668048312,0.001,110.552767754,6000.0,0.0,300.0,0.0
1513267099751785442,,702232,,1513267097,935445376,'',0.244346095279,0.225886315486,0.000643899991455,-0.0184597797929,0.001,110.568072166,6000.0,0.0,300.0,0.0
1513267099762171927,,702233,,1513267097,945445376,'',0.244346095279,0.225878964035,-0.0126303138618,-0.0184671312442,0.001,114.587678753,6000.0,0.0,300.0,0.0
1513267099772044182,,702234,,1513267097,955445376,'',0.244346095279,0.225848975007,0.00139715854609,-0.0184971202722,0.001,110.560268372,6000.0,0.0,300.0,0.0
1513267099782070092,,702235,,1513267097,965445376,'',0.244346095279,0.225836782392,0.00164039704847,-0.0185093128874,0.001,110.57013122,6000.0,0.0,300.0,0.0
1513267099792149719,,702236,,1513267097,975445376,'',0.244346095279,0.225851558524,0.00134288367726,-0.0184945367553,0.001,110.560229269,6000.0,0.0,300.0,0.0
1513267099802098364,,702237,,1513267097,985445376,'',0.244346095279,0.225863657101,0.0010992821422,-0.0184824381782,0.001,110.561068308,6000.0,0.0,300.0,0.0
1513267099812143536,,702238,,1513267097,995445376,'',0.244346095279,0.225873563531,0.000899818877977,-0.0184725317477,0.001,110.561371078,6000.0,0.0,300.0,0.0
1513267099822051631,,702239,,1513267098,5445376,'',0.244346095279,0.225881648374,0.000737032788448,-0.0184644469052,0.001,110.56394811,6000.0,0.0,300.0,0.0
1513267099831918288,,702240,,1513267098,15445376,'',0.244346095279,0.225888287312,0.000603359596468,-0.0184578079675,0.001,110.56416099,6000.0,0.0,300.0,0.0
1513267099841868955,,702241,,1513267098,25445376,'',0.244346095279,0.225882632459,0.000716958037377,-0.0184634628203,0.001,110.563823569,6000.0,0.0,300.0,0.0
1513267099852241908,,702242,,1513267098,35445376,'',0.244346095279,0.225889081234,0.000587160872612,-0.0184570140452,0.001,110.56423756,6000.0,0.0,300.0,0.0
1513267099862126740,,702243,,1513267098,45445376,'',0.244346095279,0.225894370732,0.00048069695777,-0.0184517245472,0.001,110.568093383,6000.0,0.0,300.0,0.0
1513267099872014963,,702244,,1513267098,55445376,'',0.244346095279,0.225898704961,0.000393460132571,-0.0184473903179,0.001,110.564937461,6000.0,0.0,300.0,0.0
1513267099882023464,,702245,,1513267098,65445376,'',0.244346095279,0.22587881725,0.000790596035701,-0.0184672780292,0.001,110.565837581,6000.0,0.0,300.0,0.0
1513267099891850077,,702246,,1513267098,75445376,'',0.244346095279,0.225885938702,0.000647828864617,-0.0184601565769,0.001,110.56822565,6000.0,0.0,300.0,0.0
1513267099901752273,,702247,,1513267098,85445376,'',0.244346095279,0.225965832581,0.0124558629023,-0.0183802626985,0.001,106.516260368,6000.0,0.0,300.0,0.0
1513267099911819570,,702248,,1513267098,95445376,'',0.244346095279,0.226190938525,0.034762320247,-0.0181551567537,0.001,98.418113751,6000.0,0.0,300.0,0.0
1513267099921752014,,702249,,1513267098,105445376,'',0.244346095279,0.226541908351,0.0410957019319,-0.0178041869278,0.001,94.4325971231,6000.0,0.0,300.0,0.0
1513267099932213340,,702250,,1513267098,115445376,'',0.244346095279,0.227070155489,0.0572655366056,-0.0172759397906,0.001,86.6997030729,6000.0,0.0,300.0,0.0
1513267099942128754,,702251,,1513267098,125445376,'',0.244346095279,0.227683434801,0.0582989365265,-0.0166626604781,0.001,82.5201530612,6000.0,0.0,300.0,0.0
1513267099951990573,,702252,,1513267098,135445376,'',0.244346095279,0.228365330502,0.0579452930153,-0.0159807647772,0.001,78.3583570119,6000.0,0.0,300.0,0.0
1513267099962057202,,702253,,1513267098,145445376,'',0.244346095279,0.228946496286,0.0462053153102,-0.015399598993,0.001,78.4621081507,6000.0,0.0,300.0,0.0
1513267099972001708,,702254,,1513267098,155445376,'',0.244346095279,0.229455301672,0.035927766917,-0.0148907936077,0.001,78.5219325576,6000.0,0.0,300.0,0.0
1513267099981916191,,702255,,1513267098,165445376,'',0.244346095279,0.229898406018,0.0404013799888,-0.0144476892614,0.001,74.5163752482,6000.0,0.0,300.0,0.0
1513267099991825046,,702256,,1513267098,175445376,'',0.244346095279,0.230272864906,0.0328375314054,-0.0140732303728,0.001,74.5386274445,6000.0,0.0,300.0,0.0
1513267100001761475,,702257,,1513267098,185445376,'',0.244346095279,0.230628411781,0.0390787670987,-0.0137176834982,0.001,70.772260416,6000.0,0.0,300.0,0.0
1513267100012402505,,702258,,1513267098,195445376,'',0.244346095279,0.231065708866,0.04366548215,-0.0132803864127,0.001,66.8192855881,6000.0,0.0,300.0,0.0
1513267100022119595,,702259,,1513267098,205445376,'',0.244346095279,0.23155707348,0.0471621020126,-0.0127890217995,0.001,62.4833215983,6000.0,0.0,300.0,0.0
1513267100032090579,,702260,,1513267098,215445376,'',0.244346095279,0.232089684098,0.0498236713846,-0.0122564111814,0.001,58.5296524928,6000.0,0.0,300.0,0.0
1513267100042021700,,702261,,1513267098,225445376,'',0.244346095279,0.23255016931,0.0539458431165,-0.0117959259694,0.001,54.5255685453,6000.0,0.0,300.0,0.0
1513267100052027454,,702262,,1513267098,235445376,'',0.244346095279,0.232997464961,0.0449171967867,-0.0113486303181,0.001,54.8360084097,6000.0,0.0,300.0,0.0
1513267100061969826,,702263,,1513267098,245445376,'',0.244346095279,0.233402491949,0.0501562811912,-0.0109436033307,0.001,50.5365819833,6000.0,0.0,300.0,0.0
1513267100072018538,,702264,,1513267098,255445376,'',0.244346095279,0.233794075527,0.0422486220485,-0.0105520197522,0.001,50.5634772835,6000.0,0.0,300.0,0.0
1513267100082270800,,702265,,1513267098,265445376,'',0.244346095279,0.234173480985,0.0345833260951,-0.0101726142947,0.001,50.5900754036,6000.0,0.0,300.0,0.0
1513267100092040609,,702266,,1513267098,275445376,'',0.244346095279,0.234521563695,0.0409721452771,-0.00982453158378,0.001,46.8402495535,6000.0,0.0,300.0,0.0
1513267100102095484,,702267,,1513267098,285445376,'',0.244346095279,0.23485422127,0.0342509483236,-0.00949187400901,0.001,46.3846489571,6000.0,0.0,300.0,0.0
1513267100111946188,,702268,,1513267098,295445376,'',0.244346095279,0.235150205988,0.0282730815493,-0.00919588929154,0.001,46.8659865369,6000.0,0.0,300.0,0.0
1513267100121901733,,702269,,1513267098,305445376,'',0.244346095279,0.235476536931,0.0350743542176,-0.00886955834844,0.001,42.6442776422,6000.0,0.0,300.0,0.0
1513267100131783954,,702270,,1513267098,315445376,'',0.244346095279,0.235865361879,0.0406458678984,-0.00848073340053,0.001,38.6194268408,6000.0,0.0,300.0,0.0
1513267100142192802,,702271,,1513267098,325445376,'',0.244346095279,0.236230399752,0.0332761243508,-0.00811569552674,0.001,38.6746855336,6000.0,0.0,300.0,0.0
1513267100152150317,,702272,,1513267098,335445376,'',0.244346095279,0.236638245916,0.0384654189277,-0.00770784936366,0.001,34.934468635,6000.0,0.0,300.0,0.0
1513267100162107362,,702273,,1513267098,345445376,'',0.244346095279,0.237104194215,0.0424792286432,-0.00724190106374,0.001,30.972088685,6000.0,0.0,300.0,0.0
1513267100172051343,,702274,,1513267098,355445376,'',0.244346095279,0.237586746304,0.0595826443917,-0.00675934897485,0.001,22.766843392,6000.0,0.0,300.0,0.0
1513267100181918031,,702275,,1513267098,365445376,'',0.244346095279,0.23813327542,0.0619671235864,-0.00621281985923,0.001,19.4566142453,6000.0,0.0,300.0,0.0
1513267100191770067,,702276,,1513267098,375445376,'',0.244346095279,0.238692527644,0.0640938521283,-0.00565356763493,0.001,14.1286933806,6000.0,0.0,300.0,0.0
1513267100201813479,,702277,,1513267098,385445376,'',0.244346095279,0.23923190978,0.0532010118301,-0.00511418549916,0.001,14.6607852159,6000.0,0.0,300.0,0.0
1513267100211742486,,702278,,1513267098,395445376,'',0.244346095279,0.239733359831,0.0430766494476,-0.00461273544843,0.001,14.9646318612,6000.0,0.0,300.0,0.0
1513267100222431458,,702279,,1513267098,405445376,'',0.244346095279,0.240231537079,0.0464353588174,-0.00411455820066,0.001,10.054686407,6000.0,0.0,300.0,0.0
1513267100232339273,,702280,,1513267098,415445376,'',0.244346095279,0.240646541568,0.0380507088318,-0.00369955371121,0.001,10.7128438126,6000.0,0.0,300.0,0.0
1513267100241948297,,702281,,1513267098,425445376,'',0.244346095279,0.240988206392,0.0311477956494,-0.00335788888729,0.001,10.7192911255,6000.0,0.0,300.0,0.0
1513267100251763173,,702282,,1513267098,435445376,'',0.244346095279,0.241340817678,0.0374470846908,-0.00300527760108,0.001,6.75331781977,6000.0,0.0,300.0,0.0
1513267100262330168,,702283,,1513267098,445445376,'',0.244346095279,0.241665197342,0.0308942955593,-0.0026808979376,0.001,6.95932880545,6000.0,0.0,300.0,0.0
1513267100272266402,,702284,,1513267098,455445376,'',0.244346095279,0.241943453456,0.0252751980064,-0.00240264182337,0.001,7.10188006545,6000.0,0.0,300.0,0.0
1513267100282322751,,702285,,1513267098,465445376,'',0.244346095279,0.242206473667,0.0333886920484,-0.00213962161246,0.001,2.52064244204,6000.0,0.0,300.0,0.0
1513267100292220165,,702286,,1513267098,475445376,'',0.244346095279,0.242458179504,0.0283006245165,-0.00188791577564,0.001,2.97660123108,6000.0,0.0,300.0,0.0
1513267100302334059,,702287,,1513267098,485445376,'',0.244346095279,0.242677562609,0.0238578754593,-0.00166853267059,0.001,2.50441879627,6000.0,0.0,300.0,0.0
1513267100312435271,,702288,,1513267098,495445376,'',0.244346095279,0.242889887955,0.019569539092,-0.00145620732434,0.001,3.12562681581,6000.0,0.0,300.0,0.0
1513267100322214313,,702289,,1513267098,505445376,'',0.244346095279,0.24307822022,0.0157684949797,0.0,0.001,0.0,6000.0,0.0,300.0,0.0
1513267100331873659,,702290,,1513267098,515445376,'',0.244346095279,0.24323274936,0.0126492730285,0.0,0.001,0.0,6000.0,0.0,300.0,0.0
1513267100342294994,,702291,,1513267098,525445376,'',0.244346095279,0.243433331792,0.0220205895449,0.0,0.001,0.0,6000.0,0.0,300.0,0.0
1513267100352192154,,702292,,1513267098,535445376,'',0.244346095279,0.243605113018,0.00513144905575,0.0,0.001,0.0,6000.0,0.0,300.0,0.0
1513267100362145694,,702293,,1513267098,545445376,'',0.244346095279,0.243747716178,0.0156768007992,0.0,0.001,0.0,6000.0,0.0,300.0,0.0
1513267100371988519,,702294,,1513267098,555445376,'',0.244346095279,0.243888418072,0.0128327559286,0.0,0.001,0.0,6000.0,0.0,300.0,0.0
1513267100381977861,,702295,,1513267098,565445376,'',0.244346095279,0.244039941051,0.00977023427872,0.0,0.001,0.0,6000.0,0.0,300.0,0.0
1513267100391865492,,702296,,1513267098,575445376,'',0.244346095279,0.244210081027,0.00633269278904,0.0,0.001,0.0,6000.0,0.0,300.0,0.0
1513267100401806695,,702297,,1513267098,585445376,'',0.244346095279,0.24433950791,0.017143866145,0.0,0.001,0.0,6000.0,0.0,300.0,0.0
1513267100411719577,,702298,,1513267098,595445376,'',0.244346095279,0.244470319934,0.0144967403755,0.0,0.001,0.0,6000.0,0.0,300.0,0.0
1513267100421798759,,702299,,1513267098,605445376,'',0.244346095279,0.244600438121,0.0118675146617,0.0,0.001,0.0,6000.0,0.0,300.0,0.0
1513267100431761896,,702300,,1513267098,615445376,'',0.244346095279,0.244706766879,0.0097189886641,0.0,0.001,0.0,6000.0,0.0,300.0,0.0
1513267100442256412,,702301,,1513267098,625445376,'',0.244346095279,0.244794001468,0.0079562879296,0.0,0.001,0.0,6000.0,0.0,300.0,0.0
1513267100452227867,,702302,,1513267098,635445376,'',0.244346095279,0.244865396163,0.00651365508381,0.0,0.001,0.0,6000.0,0.0,300.0,0.0
1513267100462180084,,702303,,1513267098,645445376,'',0.244346095279,0.244948802906,0.0182526157978,0.0,0.001,0.0,6000.0,0.0,300.0,0.0
1513267100472066442,,702304,,1513267098,655445376,'',0.244346095279,0.245042146068,0.0163643024142,0.0,0.001,0.0,6000.0,0.0,300.0,0.0
1513267100482181240,,702305,,1513267098,665445376,'',0.244346095279,0.245202277966,0.0265532376697,0.0,0.001,0.0,6000.0,0.0,300.0,0.0
1513267100492047471,,702306,,1513267098,675445376,'',0.244346095279,0.245406814815,0.0224183509288,0.0,0.001,0.0,6000.0,0.0,300.0,0.0
1513267100502139435,,702307,,1513267098,685445376,'',0.244346095279,0.245596804197,0.0185783560949,0.0,0.001,0.0,6000.0,0.0,300.0,0.0
1513267100512107004,,702308,,1513267098,695445376,'',0.244346095279,0.245776044703,0.014958094902,0.0,0.001,0.0,6000.0,0.0,300.0,0.0
1513267100522126581,,702309,,1513267098,705445376,'',0.244346095279,0.245956367729,0.0113062078814,0.0,0.001,0.0,6000.0,0.0,300.0,0.0
1513267100531931828,,702310,,1513267098,715445376,'',0.244346095279,0.246155268492,0.02071917908,0.0,0.001,0.0,6000.0,0.0,300.0,0.0
1513267100541847604,,702311,,1513267098,725445376,'',0.244346095279,0.246281374773,0.0181686131459,0.0,0.001,0.0,6000.0,0.0,300.0,0.0
1513267100552180445,,702312,,1513267098,735445376,'',0.244346095279,0.246421065791,0.0153483163534,0.0,0.001,0.0,6000.0,0.0,300.0,0.0
1513267100562182557,,702313,,1513267098,745445376,'',0.244346095279,0.246498140786,0.000365286705984,0.0,0.001,0.0,6000.0,0.0,300.0,0.0
1513267100572005181,,702314,,1513267098,755445376,'',0.244346095279,0.24660906812,0.0115503532303,0.0,0.001,0.0,6000.0,0.0,300.0,0.0
1513267100581804993,,702315,,1513267098,765445376,'',0.244346095279,0.246712580851,0.00946041977857,0.0,0.001,0.0,6000.0,0.0,300.0,0.0
1513267100591777561,,702316,,1513267098,775445376,'',0.244346095279,0.246786113354,0.00797841581026,0.0,0.001,0.0,6000.0,0.0,300.0,0.0
1513267100602230164,,702317,,1513267098,785445376,'',0.244346095279,0.246857714732,0.00653230024263,0.0,0.001,0.0,6000.0,0.0,300.0,0.0
1513267100612235454,,702318,,1513267098,795445376,'',0.244346095279,0.246929199413,0.0185093298579,0.0,0.001,0.0,6000.0,0.0,300.0,0.0
1513267100621978123,,702319,,1513267098,805445376,'',0.244346095279,0.246951173734,0.00464244592752,0.0,0.001,0.0,6000.0,0.0,300.0,0.0
1513267100631978558,,702320,,1513267098,815445376,'',0.244346095279,0.246992683084,0.00380450426691,0.0,0.001,0.0,6000.0,0.0,300.0,0.0
1513267100641885399,,702321,,1513267098,825445376,'',0.244346095279,0.247026870938,0.00311436029148,0.0,0.001,0.0,6000.0,0.0,300.0,0.0
1513267100651836617,,702322,,1513267098,835445376,'',0.244346095279,0.247067574785,0.00229287708383,0.0,0.001,0.0,6000.0,0.0,300.0,0.0
1513267100661850591,,702323,,1513267098,845445376,'',0.244346095279,0.247101054867,0.00161912205265,0.0,0.001,0.0,6000.0,0.0,300.0,0.0
1513267100671783041,,702324,,1513267098,855445376,'',0.244346095279,0.247127051179,0.00109349740086,0.0,0.001,0.0,6000.0,0.0,300.0,0.0
1513267100682214907,,702325,,1513267098,865445376,'',0.244346095279,0.247172917582,0.000160393435047,0.0,0.001,0.0,6000.0,0.0,300.0,0.0
1513267100692148108,,702326,,1513267098,875445376,'',0.244346095279,0.247212616428,0.0127883929597,0.0,0.001,0.0,6000.0,0.0,300.0,0.0
1513267100702134647,,702327,,1513267098,885445376,'',0.244346095279,0.247267144036,0.0116899314619,0.0,0.001,0.0,6000.0,0.0,300.0,0.0
1513267100712127907,,702328,,1513267098,895445376,'',0.244346095279,0.24737183097,0.00957437733292,0.0,0.001,0.0,6000.0,0.0,300.0,0.0
1513267100722023754,,702329,,1513267098,905445376,'',0.244346095279,0.247446218014,0.00807377371169,0.0,0.001,0.0,6000.0,0.0,300.0,0.0
1513267100732037725,,702330,,1513267098,915445376,'',0.244346095279,0.247543156435,0.00611219618094,0.0,0.001,0.0,6000.0,0.0,300.0,0.0
1513267100742054092,,702331,,1513267098,925445376,'',0.244346095279,0.247633956617,0.00427862563147,0.0,0.001,0.0,6000.0,0.0,300.0,0.0
1513267100752037686,,702332,,1513267098,935445376,'',0.244346095279,0.247732491753,0.0157038137828,0.0,0.001,0.0,6000.0,0.0,300.0,0.0
1513267100761964478,,702333,,1513267098,945445376,'',0.244346095279,0.247837715349,0.0135733855088,0.0,0.001,0.0,6000.0,0.0,300.0,0.0
1513267100771921853,,702334,,1513267098,955445376,'',0.244346095279,0.247960244648,0.011099816372,0.0,0.001,0.0,6000.0,0.0,300.0,0.0
1513267100782354228,,702335,,1513267098,965445376,'',0.244346095279,0.248072127519,0.00883691892904,0.0,0.001,0.0,6000.0,0.0,300.0,0.0
1513267100792278132,,702336,,1513267098,975445376,'',0.244346095279,0.248138351574,0.00750019876439,0.0,0.001,0.0,6000.0,0.0,300.0,0.0
1513267100802210193,,702337,,1513267098,985445376,'',0.244346095279,0.24821844129,0.00588702343896,0.0,0.001,0.0,6000.0,0.0,300.0,0.0
1513267100812148603,,702338,,1513267098,995445376,'',0.244346095279,0.248258048657,-0.00833562849586,0.0,0.001,0.0,6000.0,0.0,300.0,0.0
1513267100821955513,,702339,,1513267099,5445376,'',0.244346095279,0.248315468223,0.00392749719229,0.0,0.001,0.0,6000.0,0.0,300.0,0.0
1513267100831873797,,702340,,1513267099,15445376,'',0.244346095279,0.248374142619,0.00274988667262,0.0,0.001,0.0,6000.0,0.0,300.0,0.0
1513267100841828059,,702341,,1513267099,25445376,'',0.244346095279,0.24839874808,0.00225213662218,0.0,0.001,0.0,6000.0,0.0,300.0,0.0
1513267100852202893,,702342,,1513267099,35445376,'',0.244346095279,0.248454650863,0.00112079027727,0.0,0.001,0.0,6000.0,0.0,300.0,0.0
1513267100862097317,,702343,,1513267099,45445376,'',0.244346095279,0.248476223434,0.000682923403393,0.0,0.001,0.0,6000.0,0.0,300.0,0.0
1513267100872092909,,702344,,1513267099,55445376,'',0.244346095279,0.248506043067,7.55750708793e-05,0.0,0.001,0.0,6000.0,0.0,300.0,0.0
1513267100881949236,,702345,,1513267099,65445376,'',0.244346095279,0.248506773749,6.18918763431e-05,0.0,0.001,0.0,6000.0,0.0,300.0,0.0
1513267100891992354,,702346,,1513267099,75445376,'',0.244346095279,0.248518397576,-0.000174520606584,0.0,0.001,0.0,6000.0,0.0,300.0,0.0
1513267100901995905,,702347,,1513267099,85445376,'',0.244346095279,0.248529888125,-0.000404580299348,0.0,0.001,0.0,6000.0,0.0,300.0,0.0
1513267100911730725,,702348,,1513267099,95445376,'',0.244346095279,0.24852629506,-0.000331196595382,0.0,0.001,0.0,6000.0,0.0,300.0,0.0
1513267100921790112,,702349,,1513267099,105445376,'',0.244346095279,0.248523354219,-0.000271133738928,0.0,0.001,0.0,6000.0,0.0,300.0,0.0
1513267100932186732,,702350,,1513267099,115445376,'',0.244346095279,0.248546788183,0.0126793636107,0.0,0.001,0.0,6000.0,0.0,300.0,0.0
1513267100942136604,,702351,,1513267099,125445376,'',0.244346095279,0.248551352601,-0.000837127153039,0.0,0.001,0.0,6000.0,0.0,300.0,0.0
1513267100951919450,,702352,,1513267099,135445376,'',0.244346095279,0.248569202444,-0.00120033963851,0.0,0.001,0.0,6000.0,0.0,300.0,0.0
1513267100961834795,,702353,,1513267099,145445376,'',0.244346095279,0.248678970008,0.0100075832984,0.0,0.001,0.0,6000.0,0.0,300.0,0.0
1513267100971832263,,702354,,1513267099,155445376,'',0.244346095279,0.248793119253,0.00770516831552,0.0,0.001,0.0,6000.0,0.0,300.0,0.0
1513267100981814830,,702355,,1513267099,165445376,'',0.244346095279,0.248947712792,0.0180092489345,0.0,0.001,0.0,6000.0,0.0,300.0,0.0
1513267100992326009,,702356,,1513267099,175445376,'',0.244346095279,0.249121192914,0.0145019429842,0.0,0.001,0.0,6000.0,0.0,300.0,0.0
1513267101002289649,,702357,,1513267099,185445376,'',0.244346095279,0.249348132789,0.0233381088163,0.0,0.001,0.0,6000.0,0.0,300.0,0.0
1513267101012148889,,702358,,1513267099,195445376,'',0.244346095279,0.249531871267,0.0196271047603,0.0,0.001,0.0,6000.0,0.0,300.0,0.0
1513267101022216296,,702359,,1513267099,205445376,'',0.244346095279,0.249708057494,0.0160680148107,0.0,0.001,0.0,6000.0,0.0,300.0,0.0
1513267101031983589,,702360,,1513267099,215445376,'',0.244346095279,0.249940706495,0.0382154086764,0.0,0.001,0.0,6000.0,0.0,300.0,0.0
1513267101042091165,,702361,,1513267099,225445376,'',0.244346095279,0.250394970837,0.0424643458181,0.0,0.001,0.0,6000.0,0.0,300.0,0.0
1513267101051908543,,702362,,1513267099,235445376,'',0.244346095279,0.250836577662,0.0469557402089,0.0,0.001,0.0,6000.0,0.0,300.0,0.0
1513267101061957394,,702363,,1513267099,245445376,'',0.244346095279,0.251258020959,0.0384433827334,0.0,0.001,0.0,6000.0,0.0,300.0,0.0
1513267101071816380,,702364,,1513267099,255445376,'',0.244346095279,0.251614674859,0.0312418076609,0.0,0.001,0.0,6000.0,0.0,300.0,0.0
1513267101082269225,,702365,,1513267099,265445376,'',0.244346095279,0.251895163679,0.0255760724599,0.0,0.001,0.0,6000.0,0.0,300.0,0.0
1513267101092177667,,702366,,1513267099,275445376,'',0.244346095279,0.25212476578,0.0209382237526,0.0,0.001,0.0,6000.0,0.0,300.0,0.0
1513267101102062145,,702367,,1513267099,285445376,'',0.244346095279,0.252348244687,0.0164235814808,0.0,0.001,0.0,6000.0,0.0,300.0,0.0
1513267101111972052,,702368,,1513267099,295445376,'',0.244346095279,0.252532110586,0.0127097451483,0.0,0.001,0.0,6000.0,0.0,300.0,0.0
1513267101121942194,,702369,,1513267099,305445376,'',0.244346095279,0.252670785042,0.0233295636318,0.0,0.001,0.0,6000.0,0.0,300.0,0.0
1513267101132067332,,702370,,1513267099,315445376,'',0.244346095279,0.252808068239,0.0205610655864,0.0,0.001,0.0,6000.0,0.0,300.0,0.0
1513267101141956137,,702371,,1513267099,325445376,'',0.244346095279,0.252932753182,0.00462165298895,0.0,0.001,0.0,6000.0,0.0,300.0,0.0
1513267101151882620,,702372,,1513267099,335445376,'',0.244346095279,0.253046514036,0.0157424166694,0.0,0.001,0.0,6000.0,0.0,300.0,0.0
1513267101161945520,,702373,,1513267099,345445376,'',0.244346095279,0.253187774924,0.0128888031517,0.0,0.001,0.0,6000.0,0.0,300.0,0.0
1513267101171793279,,702374,,1513267099,355445376,'',0.244346095279,0.253279663084,0.0110319742588,0.0,0.001,0.0,6000.0,0.0,300.0,0.0
1513267101182263984,,702375,,1513267099,365445376,'',0.244346095279,0.253365496882,-0.00412546135888,0.0,0.001,0.0,6000.0,0.0,300.0,0.0
1513267101192122120,,702376,,1513267099,375445376,'',0.244346095279,0.253460069444,0.00738589517742,0.0,0.001,0.0,6000.0,0.0,300.0,0.0
1513267101202055568,,702377,,1513267099,385445376,'',0.244346095279,0.253526425483,0.00604584975889,0.0,0.001,0.0,6000.0,0.0,300.0,0.0
1513267101211904662,,702378,,1513267099,395445376,'',0.244346095279,0.253654715101,0.0168809807735,0.0,0.001,0.0,6000.0,0.0,300.0,0.0
1513267101221955203,,702379,,1513267099,405445376,'',0.244346095279,0.253780967326,0.0143290622006,0.0,0.001,0.0,6000.0,0.0,300.0,0.0
1513267101231839687,,702380,,1513267099,415445376,'',0.244346095279,0.253861281833,0.0127037693395,0.0,0.001,0.0,6000.0,0.0,300.0,0.0
1513267101241798921,,702381,,1513267099,425445376,'',0.244346095279,0.253963673082,0.0106331570062,0.0,0.001,0.0,6000.0,0.0,300.0,0.0
1513267101252239097,,702382,,1513267099,435445376,'',0.244346095279,0.254035065281,0.00919218776581,0.0,0.001,0.0,6000.0,0.0,300.0,0.0
1513267101262173344,,702383,,1513267099,445445376,'',0.244346095279,0.25411759365,0.00752564118392,0.0,0.001,0.0,6000.0,0.0,300.0,0.0
1513267101272102399,,702384,,1513267099,455445376,'',0.244346095279,0.254196149597,0.0059364269477,0.0,0.001,0.0,6000.0,0.0,300.0,0.0
1513267101282194641,,702385,,1513267099,465445376,'',0.244346095279,0.254286775185,0.00410984484642,0.0,0.001,0.0,6000.0,0.0,300.0,0.0
1513267101292073250,,702386,,1513267099,475445376,'',0.244346095279,0.254359310683,0.00264694563272,0.0,0.001,0.0,6000.0,0.0,300.0,0.0
1513267101301937434,,702387,,1513267099,485445376,'',0.244346095279,0.254491043742,0.0134092195525,0.0,0.001,0.0,6000.0,0.0,300.0,0.0
1513267101311827810,,702388,,1513267099,495445376,'',0.244346095279,0.254635951448,0.0239060139943,0.0,0.001,0.0,6000.0,0.0,300.0,0.0
1513267101322437181,,702389,,1513267099,505445376,'',0.244346095279,0.2548036702,0.0205199528586,0.0104575749207,0.001,-68.9439753538,6000.0,0.0,300.0,0.0
1513267101332266583,,702390,,1513267099,515445376,'',0.244346095279,0.254952153141,0.017518089169,0.0106060578616,0.001,-68.9019958943,6000.0,0.0,300.0,0.0
1513267101342205974,,702391,,1513267099,525445376,'',0.244346095279,0.255109094877,0.0143471840352,0.0107629995982,0.001,-68.8034864153,6000.0,0.0,300.0,0.0
1513267101352123578,,702392,,1513267099,535445376,'',0.244346095279,0.255237884059,0.0117450828588,0.0108917887798,0.001,-68.8132509324,6000.0,0.0,300.0,0.0
1513267101361859550,,702393,,1513267099,545445376,'',0.244346095279,0.255355738555,0.00936155049537,0.011009643276,0.001,-68.8806136504,6000.0,0.0,300.0,0.0
1513267101372054464,,702394,,1513267099,555445376,'',0.244346095279,0.255451723432,0.00742269291074,0.0111056281531,0.001,-68.871916715,6000.0,0.0,300.0,0.0
1513267101381918359,,702395,,1513267099,565445376,'',0.244346095279,0.255581176219,0.0182290273776,0.0112350809402,0.001,-72.9124544715,6000.0,0.0,300.0,0.0
1513267101392204235,,702396,,1513267099,575445376,'',0.244346095279,0.255733432639,0.0151506689994,0.0113873373597,0.001,-72.8014280966,6000.0,0.0,300.0,0.0
1513267101402178662,,702397,,1513267099,585445376,'',0.244346095279,0.25589369864,0.0119117842149,0.0115476033612,0.001,-72.8831741574,6000.0,0.0,300.0,0.0
1513267101412035029,,702398,,1513267099,595445376,'',0.244346095279,0.256048808741,0.0222031872745,0.0117027134623,0.001,-76.9053947099,6000.0,0.0,300.0,0.0
1513267101422064640,,702399,,1513267099,605445376,'',0.244346095279,0.256224332392,0.0186569875535,0.0118782371131,0.001,-76.8905157119,6000.0,0.0,300.0,0.0
1513267101432337252,,702400,,1513267099,615445376,'',0.244346095279,0.256344506955,0.0162258160694,0.0119984116761,0.001,-76.8850202886,6000.0,0.0,300.0,0.0
1513267101442262283,,702401,,1513267099,625445376,'',0.244346095279,0.256477010258,0.000127267131179,0.0121309149787,0.001,-72.8258901048,6000.0,0.0,300.0,0.0
1513267101452232155,,702402,,1513267099,635445376,'',0.244346095279,0.256598498368,0.0110984227517,0.0122524030888,0.001,-76.7777951636,6000.0,0.0,300.0,0.0
1513267101462292755,,702403,,1513267099,645445376,'',0.244346095279,0.256722597272,0.00859267692676,0.0123765019928,0.001,-76.8613214399,6000.0,0.0,300.0,0.0
1513267101472313175,,702404,,1513267099,655445376,'',0.244346095279,0.256882677261,0.0053592378255,0.012536581982,0.001,-76.8366455461,6000.0,0.0,300.0,0.0
1513267101482187939,,702405,,1513267099,665445376,'',0.244346095279,0.256990574175,0.0165921085732,0.0126444788957,0.001,-80.7427375681,6000.0,0.0,300.0,0.0
1513267101492066223,,702406,,1513267099,675445376,'',0.244346095279,0.257103404035,0.0143124702867,0.0127573087558,0.001,-80.8591164263,6000.0,0.0,300.0,0.0
1513267101501952708,,702407,,1513267099,685445376,'',0.244346095279,0.257244671132,0.011461606362,0.0128985758528,0.001,-80.8471413287,6000.0,0.0,300.0,0.0
1513267101511931225,,702408,,1513267099,695445376,'',0.244346095279,0.257360385278,0.00912604777016,0.0130142899985,0.001,-80.8406324332,6000.0,0.0,300.0,0.0
1513267101521958611,,702409,,1513267099,705445376,'',0.244346095279,0.257466127266,0.00699096275901,0.013120031987,0.001,-80.7838782754,6000.0,0.0,300.0,0.0
1513267101531917986,,702410,,1513267099,715445376,'',0.244346095279,0.257591153686,0.0178922471707,0.0132450584068,0.001,-84.8608891893,6000.0,0.0,300.0,0.0
1513267101542219879,,702411,,1513267099,725445376,'',0.244346095279,0.257680561106,0.016080976596,0.0133344658264,0.001,-84.7266293597,6000.0,0.0,300.0,0.0
1513267101552216501,,702412,,1513267099,735445376,'',0.244346095279,0.257776840754,0.0141381243598,0.0134307454748,0.001,-84.8492366414,6000.0,0.0,300.0,0.0
1513267101562137902,,702413,,1513267099,745445376,'',0.244346095279,0.257892053908,0.0118114837312,0.0135459586289,0.001,-84.8353821209,6000.0,0.0,300.0,0.0
1513267101572024859,,702414,,1513267099,755445376,'',0.244346095279,0.257962282431,0.010394144257,0.0136161871519,0.001,-84.773089082,6000.0,0.0,300.0,0.0
1513267101581921605,,702415,,1513267099,765445376,'',0.244346095279,0.258042949774,0.0087685720615,0.0136968544947,0.001,-84.8251252082,6000.0,0.0,300.0,0.0
1513267101592313482,,702416,,1513267099,775445376,'',0.244346095279,0.258121662669,0.00717865598775,0.0137755673894,0.001,-84.8117687519,6000.0,0.0,300.0,0.0
1513267101602228788,,702417,,1513267099,785445376,'',0.244346095279,0.258187337779,0.0192751395113,0.0138412424996,0.001,-88.8534700525,6000.0,0.0,300.0,0.0
1513267101612062593,,702418,,1513267099,795445376,'',0.244346095279,0.258239879312,0.0047898863811,0.0138937840324,0.001,-84.8076281242,6000.0,0.0,300.0,0.0
1513267101621997831,,702419,,1513267099,805445376,'',0.244346095279,0.258308048686,0.0168369941737,0.0139619534064,0.001,-88.8529695259,6000.0,0.0,300.0,0.0
1513267101632038522,,702420,,1513267099,815445376,'',0.244346095279,0.25836329425,0.0157179112526,0.0140171989709,0.001,-88.7193200312,6000.0,0.0,300.0,0.0
1513267101641953662,,702421,,1513267099,825445376,'',0.244346095279,0.258396848797,0.00161990111853,0.0140507535178,0.001,-84.7812377936,6000.0,0.0,300.0,0.0
1513267101651817464,,702422,,1513267099,835445376,'',0.244346095279,0.258435788711,0.000828455001116,0.0140896934322,0.001,-84.7892901614,6000.0,0.0,300.0,0.0
1513267101662215006,,702423,,1513267099,845445376,'',0.244346095279,0.258501772146,-0.000507232480073,0.0141556768664,0.001,-84.7838410666,6000.0,0.0,300.0,0.0
1513267101672236727,,702424,,1513267099,855445376,'',0.244346095279,0.258535150202,-0.00117708155634,0.0141890549231,0.001,-84.7816304021,6000.0,0.0,300.0,0.0
1513267101682157730,,702425,,1513267099,865445376,'',0.244346095279,0.258560717658,-0.00169733911163,0.0142146223787,0.001,-84.7628221506,6000.0,0.0,300.0,0.0
1513267101692097342,,702426,,1513267099,875445376,'',0.244346095279,0.258592751914,-0.00234051920774,0.0142466566347,0.001,-84.7781795588,6000.0,0.0,300.0,0.0
1513267101702005279,,702427,,1513267099,885445376,'',0.244346095279,0.258645637077,0.0100147958685,0.0142995417974,0.001,-88.7480488251,6000.0,0.0,300.0,0.0
1513267101711925570,,702428,,1513267099,895445376,'',0.244346095279,0.258651542656,0.00989643880098,0.0143054473766,0.001,-88.8083987427,6000.0,0.0,300.0,0.0
1513267101721773327,,702429,,1513267099,905445376,'',0.244346095279,0.258694426411,0.00903355660096,0.0143483311316,0.001,-88.8130947979,6000.0,0.0,300.0,0.0
1513267101732212380,,702430,,1513267099,915445376,'',0.244346095279,0.258713109005,-0.00476566216534,0.0143670137257,0.001,-84.7657819445,6000.0,0.0,300.0,0.0
1513267101742226531,,702431,,1513267099,925445376,'',0.244346095279,0.258779682313,0.00731639966567,0.0144335870339,0.001,-88.7589042701,6000.0,0.0,300.0,0.0
1513267101752078145,,702432,,1513267099,935445376,'',0.244346095279,0.258759330541,-0.00570351091667,0.0144132352619,0.001,-84.751563659,6000.0,0.0,300.0,0.0
1513267101761967318,,702433,,1513267099,945445376,'',0.244346095279,0.258803002105,0.00683143986299,0.0144569068256,0.001,-88.7928815915,6000.0,0.0,300.0,0.0
1513267101771958070,,702434,,1513267099,955445376,'',0.244346095279,0.25883852251,-0.00730773545841,0.0144924272309,0.001,-84.7598987091,6000.0,0.0,300.0,0.0
1513267101781849056,,702435,,1513267099,965445376,'',0.244346095279,0.258892512029,0.0050303683669,0.0145464167498,0.001,-88.7951467848,6000.0,0.0,300.0,0.0
1513267101792068995,,702436,,1513267099,975445376,'',0.244346095279,0.258900727446,-0.00855594867702,0.0145546321665,0.001,-84.8011908097,6000.0,0.0,300.0,0.0
1513267101801991257,,702437,,1513267099,985445376,'',0.244346095279,0.25894439652,0.00398523629555,0.0145983012406,0.001,-88.7907333904,6000.0,0.0,300.0,0.0
1513267101812234842,,702438,,1513267099,995445376,'',0.244346095279,0.258980136157,0.00326271168057,0.0146340408773,0.001,-88.78438079,6000.0,0.0,300.0,0.0
1513267101821819690,,702439,,1513267100,5445376,'',0.244346095279,0.258997429447,0.00291256215601,0.0146513341674,0.001,-88.7820652574,6000.0,0.0,300.0,0.0
1513267101832252663,,702440,,1513267100,15445376,'',0.244346095279,0.259023568822,0.0023842180975,0.0146774735425,0.001,-88.7818947837,6000.0,0.0,300.0,0.0
1513267101842130527,,702441,,1513267100,25445376,'',0.244346095279,0.259045412537,0.0153636845399,0.0146993172578,0.001,-92.7261837028,6000.0,0.0,300.0,0.0
1513267101852084224,,702442,,1513267100,35445376,'',0.244346095279,0.259062839438,0.00158763576203,0.0147167441591,0.001,-88.7783357419,6000.0,0.0,300.0,0.0
1513267101862053760,,702443,,1513267100,45445376,'',0.244346095279,0.259077113322,0.00129963575481,0.0147310180431,0.001,-88.7785145648,6000.0,0.0,300.0,0.0
1513267101871988451,,702444,,1513267100,55445376,'',0.244346095279,0.259078050189,0.00127881714126,0.0147319549094,0.001,-88.7779650819,6000.0,0.0,300.0,0.0
1513267101881838122,,702445,,1513267100,65445376,'',0.244346095279,0.259089541023,0.00104731670587,0.0147434457442,0.001,-88.7706947661,6000.0,0.0,300.0,0.0
1513267101891850574,,702446,,1513267100,75445376,'',0.244346095279,0.259098966727,0.000857421497955,0.0147528714478,0.001,-88.7764404717,6000.0,0.0,300.0,0.0
1513267101902243732,,702447,,1513267100,85445376,'',0.244346095279,0.259106683566,0.00070195397006,0.0147605882873,0.001,-88.7753344419,6000.0,0.0,300.0,0.0
1513267101912237987,,702448,,1513267100,95445376,'',0.244346095279,0.259101902374,0.000797889761472,0.014755807095,0.001,-88.7754805067,6000.0,0.0,300.0,0.0
1513267101921920502,,702449,,1513267100,105445376,'',0.244346095279,0.259109105015,0.000652852190938,0.0147630097361,0.001,-88.7801129855,6000.0,0.0,300.0,0.0
1513267101932337579,,702450,,1513267100,115445376,'',0.244346095279,0.25912598491,0.000309836806946,0.0147798896309,0.001,-88.771520616,6000.0,0.0,300.0,0.0
1513267101941790028,,702451,,1513267100,125445376,'',0.244346095279,0.259128802817,0.000253657247019,0.0147827075377,0.001,-88.7736813925,6000.0,0.0,300.0,0.0
1513267101952447789,,702452,,1513267100,135445376,'',0.244346095279,0.25913110993,0.00020766118521,0.0147850146512,0.001,-88.7735280612,6000.0,0.0,300.0,0.0
1513267101961747774,,702453,,1513267100,145445376,'',0.244346095279,0.259132998732,0.000170004849942,0.0147869034528,0.001,-88.7733569219,6000.0,0.0,300.0,0.0
1513267101972259164,,702454,,1513267100,155445376,'',0.244346095279,0.259133840038,0.000155506782275,0.0147877447593,0.001,-88.7731797329,6000.0,0.0,300.0,0.0
1513267101982181779,,702455,,1513267100,165445376,'',0.244346095279,0.259148166826,0.0132868905961,0.0148020715468,0.001,-92.7306681202,6000.0,0.0,300.0,0.0
1513267101991950316,,702456,,1513267100,175445376,'',0.244346095279,0.259171597477,-0.000616339796697,0.0148255021974,0.001,-88.778107392,6000.0,0.0,300.0,0.0
1513267102001940368,,702457,,1513267100,185445376,'',0.244346095279,0.259155090343,-0.000281683882483,0.0148089950643,0.001,-88.7711770746,6000.0,0.0,300.0,0.0
1513267102011845517,,702458,,1513267100,195445376,'',0.244346095279,0.259152630911,-0.000230610105917,0.0148065356316,0.001,-88.7715781022,6000.0,0.0,300.0,0.0
1513267102022326008,,702459,,1513267100,205445376,'',0.244346095279,0.259174047557,-0.000660309680361,0.0148279522777,0.001,-88.7698274627,6000.0,0.0,300.0,0.0
1513267102032232394,,702460,,1513267100,215445376,'',0.244346095279,0.259168149229,-0.000540551503991,0.0148220539497,0.001,-88.7703274592,6000.0,0.0,300.0,0.0
1513267102042417522,,702461,,1513267100,225445376,'',0.244346095279,0.25918805005,-0.000938982223141,0.0148419547704,0.001,-88.7743431979,6000.0,0.0,300.0,0.0
1513267102052285059,,702462,,1513267100,235445376,'',0.244346095279,0.259204287959,-0.00126462684155,0.0148581926794,0.001,-88.7753233559,6000.0,0.0,300.0,0.0
1513267102062040626,,702463,,1513267100,245445376,'',0.244346095279,0.259192907969,-0.00103532490635,0.0148468126901,0.001,-88.7685286512,6000.0,0.0,300.0,0.0
1513267102071908564,,702464,,1513267100,255445376,'',0.244346095279,0.259231834229,-0.00181634566031,0.0148857389496,0.001,-88.7644016994,6000.0,0.0,300.0,0.0
1513267102081848657,,702465,,1513267100,265445376,'',0.244346095279,0.259264872036,0.010935570985,0.0149187767573,0.001,-92.8084063927,6000.0,0.0,300.0,0.0
1513267102091759466,,702466,,1513267100,275445376,'',0.244346095279,0.259278478706,-0.00276683317184,0.0149323834271,0.001,-88.7795601982,6000.0,0.0,300.0,0.0
1513267102102206111,,702467,,1513267100,285445376,'',0.244346095279,0.25927659367,-0.00273180643746,0.014930498391,0.001,-88.7595576034,6000.0,0.0,300.0,0.0
1513267102112170858,,702468,,1513267100,295445376,'',0.244346095279,0.259290462398,0.0104097749552,0.0149443671185,0.001,-92.8060877179,6000.0,0.0,300.0,0.0
1513267102122058109,,702469,,1513267100,305445376,'',0.244346095279,0.259274109348,-0.00268399139303,0.0149280140692,0.001,-88.7605712628,6000.0,0.0,300.0,0.0
1513267102132154027,,702470,,1513267100,315445376,'',0.244346095279,0.259286599136,0.0104895091439,0.0149405038566,0.001,-92.8102282079,6000.0,0.0,300.0,0.0
1513267102142105968,,702471,,1513267100,325445376,'',0.244346095279,0.259272244989,-0.00264477413962,0.01492614971,0.001,-88.7622664895,6000.0,0.0,300.0,0.0
1513267102152084001,,702472,,1513267100,335445376,'',0.244346095279,0.259295739546,-0.00311526120553,0.0149496442669,0.001,-88.7604120373,6000.0,0.0,300.0,0.0
1513267102161874068,,702473,,1513267100,345445376,'',0.244346095279,0.259290967999,-0.00301951092144,0.0149448727199,0.001,-88.7819404695,6000.0,0.0,300.0,0.0
1513267102171859669,,702474,,1513267100,355445376,'',0.244346095279,0.259300580734,-0.00321088799221,0.0149544854551,0.001,-88.7785975818,6000.0,0.0,300.0,0.0
1513267102181793074,,702475,,1513267100,365445376,'',0.244346095279,0.259294982479,-0.00309545581251,0.0149488871996,0.001,-88.7604717935,6000.0,0.0,300.0,0.0
