rosbagTimestamp,header,seq,stamp,secs,nsecs,frame_id,set_point,process_value,process_value_dot,error,time_step,command,p,i,d,i_clamp
1513267098952017275,,702143,,1513267097,135445376,'',0.13962634016,0.142480332471,-0.00324820259563,0.0028539923114,0.001,16.1276722564,-6000.0,0.0,-300.0,0.0
1513267098962055726,,702144,,1513267097,145445376,'',0.13962634016,0.142451349818,-0.00265930242617,0.00282500965877,0.001,16.1368868785,-6000.0,0.0,-300.0,0.0
1513267098972094496,,702145,,1513267097,155445376,'',0.13962634016,0.142474344589,-0.00311692308802,0.00284800442902,0.001,16.1517508072,-6000.0,0.0,-300.0,0.0
1513267098982001721,,702146,,1513267097,165445376,'',0.13962634016,0.142462619684,-0.0028706971403,0.00283627952458,0.001,16.1519148403,-6000.0,0.0,-300.0,0.0
1513267098992000333,,702147,,1513267097,175445376,'',0.13962634016,0.142467472633,-0.00296660624186,0.00284113247373,0.001,16.1523333373,-6000.0,0.0,-300.0,0.0
1513267099001884798,,702148,,1513267097,185445376,'',0.13962634016,0.142502805934,-0.00368366821076,0.00287646577404,0.001,16.1490720411,-6000.0,0.0,-300.0,0.0
1513267099011890097,,702149,,1513267097,195445376,'',0.13962634016,0.142501073031,-0.00365515173665,0.00287473287132,0.001,16.1737301179,-6000.0,0.0,-300.0,0.0
1513267099022234588,,702150,,1513267097,205445376,'',0.13962634016,0.142468315303,-0.00299217191923,0.00284197514345,0.001,16.1675797137,-6000.0,0.0,-300.0,0.0
1513267099032074211,,702151,,1513267097,215445376,'',0.13962634016,0.14248926907,-0.00341403102583,0.00286292891002,0.001,16.1495002101,-6000.0,0.0,-300.0,0.0
1513267099042071633,,702152,,1513267097,225445376,'',0.13962634016,0.142492227107,-0.00346975757764,0.0028658869471,0.001,16.1489815046,-6000.0,0.0,-300.0,0.0
1513267099051963951,,702153,,1513267097,235445376,'',0.13962634016,0.142538337453,-0.0044046564515,0.00291199729339,0.001,16.1463261839,-6000.0,0.0,-300.0,0.0
1513267099061954491,,702154,,1513267097,245445376,'',0.13962634016,0.142498820619,-0.00360572974738,0.00287248045905,0.001,16.1475935254,-6000.0,0.0,-300.0,0.0
1513267099071897541,,702155,,1513267097,255445376,'',0.13962634016,0.142500836571,0.0141058406568,0.0028744964119,0.001,21.4951052682,-6000.0,0.0,-300.0,0.0
1513267099081822143,,702156,,1513267097,265445376,'',0.13962634016,0.142501706011,-0.0036605959164,0.00287536585127,0.001,16.1494314016,-6000.0,0.0,-300.0,0.0
1513267099091812326,,702157,,1513267097,275445376,'',0.13962634016,0.14251538591,-0.00394345703634,0.00288904575055,0.001,16.1468493452,-6000.0,0.0,-300.0,0.0
1513267099101883585,,702158,,1513267097,285445376,'',0.13962634016,0.142480045014,-0.00322844543611,0.00285370485456,0.001,16.1521991784,-6000.0,0.0,-300.0,0.0
1513267099111894691,,702159,,1513267097,295445376,'',0.13962634016,0.142466603608,-0.00295664661417,0.00284026344866,0.001,16.1541132277,-6000.0,0.0,-300.0,0.0
1513267099122335947,,702160,,1513267097,305445376,'',0.13962634016,0.142456014385,-0.00274432447866,0.00282967422531,0.001,16.1932464181,-6000.0,0.0,-300.0,0.0
1513267099132202712,,702161,,1513267097,315445376,'',0.13962634016,0.142463466195,-0.00288598885219,0.00283712603554,0.001,16.1510033047,-6000.0,0.0,-300.0,0.0
1513267099142075756,,702162,,1513267097,325445376,'',0.13962634016,0.14245398198,-0.00269825191439,0.00282764182077,0.001,16.153476929,-6000.0,0.0,-300.0,0.0
1513267099152031394,,702163,,1513267097,335445376,'',0.13962634016,0.142463038553,-0.00288395845546,0.00283669839328,0.001,16.1518768878,-6000.0,0.0,-300.0,0.0
1513267099162036418,,702164,,1513267097,345445376,'',0.13962634016,0.142454321893,0.0150370174325,0.00282798173333,0.001,21.3990783332,-6000.0,0.0,-300.0,0.0
1513267099171928178,,702165,,1513267097,355445376,'',0.13962634016,0.142444603374,-0.00252045677151,0.00281826321474,0.001,16.1535472504,-6000.0,0.0,-300.0,0.0
1513267099181797305,,702166,,1513267097,365445376,'',0.13962634016,0.142451594581,-0.00265893046583,0.00282525442169,0.001,16.1546361754,-6000.0,0.0,-300.0,0.0
1513267099192303886,,702167,,1513267097,375445376,'',0.13962634016,0.142442500108,-0.00246876739985,0.0028161599484,0.001,16.1537378218,-6000.0,0.0,-300.0,0.0
1513267099202276761,,702168,,1513267097,385445376,'',0.13962634016,0.14243586511,-0.0023306222707,0.00280952495044,0.001,16.1415366384,-6000.0,0.0,-300.0,0.0
1513267099212249473,,702169,,1513267097,395445376,'',0.13962634016,0.142430072116,-0.00221850593422,0.00280373195645,0.001,16.1575832085,-6000.0,0.0,-300.0,0.0
1513267099222261395,,702170,,1513267097,405445376,'',0.13962634016,0.142410197831,-0.00181621215376,0.00278385767158,0.001,16.157188476,-6000.0,0.0,-300.0,0.0
1513267099231994213,,702171,,1513267097,415445376,'',0.13962634016,0.142425219798,-0.0021223545996,0.0027988796388,0.001,16.1559150759,-6000.0,0.0,-300.0,0.0
1513267099241978191,,702172,,1513267097,425445376,'',0.13962634016,0.142406299454,-0.00173899670254,0.00277995929426,0.001,16.169666986,-6000.0,0.0,-300.0,0.0
1513267099251837120,,702173,,1513267097,435445376,'',0.13962634016,0.14240682637,-0.00174953180899,0.00278048621061,0.001,16.1558357581,-6000.0,0.0,-300.0,0.0
1513267099261724792,,702174,,1513267097,445445376,'',0.13962634016,0.142408189056,-0.00178134185815,0.00278184889652,0.001,16.1428880921,-6000.0,0.0,-300.0,0.0
1513267099272318751,,702175,,1513267097,455445376,'',0.13962634016,0.142392281576,-0.00145829360882,0.00276594141658,0.001,16.1494822609,-6000.0,0.0,-300.0,0.0
1513267099282166255,,702176,,1513267097,465445376,'',0.13962634016,0.142379311938,-0.00119490689622,0.0027529717786,0.001,16.1666755453,-6000.0,0.0,-300.0,0.0
1513267099291991504,,702177,,1513267097,475445376,'',0.13962634016,0.142368643192,-0.000978246570272,0.00274230303239,0.001,16.1616249824,-6000.0,0.0,-300.0,0.0
1513267099301830577,,702178,,1513267097,485445376,'',0.13962634016,0.142377039676,-0.00114695256028,0.00275069951652,0.001,16.1596690181,-6000.0,0.0,-300.0,0.0
1513267099312145582,,702179,,1513267097,495445376,'',0.13962634016,0.142366761742,-0.0009385575709,0.00274042158214,0.001,16.1945430097,-6000.0,0.0,-300.0,0.0
1513267099322099488,,702180,,1513267097,505445376,'',0.13962634016,0.142390313481,-0.00141136667492,0.0027639733214,0.001,16.1588740562,-6000.0,0.0,-300.0,0.0
1513267099332026849,,702181,,1513267097,515445376,'',0.13962634016,0.142425559342,-0.00212175825236,0.00279921918272,0.001,16.1726000288,-6000.0,0.0,-300.0,0.0
1513267099342060064,,702182,,1513267097,525445376,'',0.13962634016,0.14240649805,-0.00173690058493,0.00278015789094,0.001,16.1669171518,-6000.0,0.0,-300.0,0.0
1513267099352114655,,702183,,1513267097,535445376,'',0.13962634016,0.142423212995,-0.00207101098181,0.00279687283532,0.001,16.170627203,-6000.0,0.0,-300.0,0.0
1513267099362070723,,702184,,1513267097,545445376,'',0.13962634016,0.142437145782,-0.00235335158869,0.00281080562264,0.001,16.1528606104,-6000.0,0.0,-300.0,0.0
1513267099371980909,,702185,,1513267097,555445376,'',0.13962634016,0.142496369191,-0.00355275290077,0.00287002903176,0.001,16.1511674126,-6000.0,0.0,-300.0,0.0
1513267099381820590,,702186,,1513267097,565445376,'',0.13962634016,0.142479014538,-0.00320735311984,0.0028526743788,0.001,16.1534374597,-6000.0,0.0,-300.0,0.0
1513267099391788042,,702187,,1513267097,575445376,'',0.13962634016,0.142482676173,-0.00327932679814,0.00285633601329,0.001,16.1728198829,-6000.0,0.0,-300.0,0.0
1513267099401739710,,702188,,1513267097,585445376,'',0.13962634016,0.142501011988,-0.00365342295617,0.00287467182823,0.001,16.1481727078,-6000.0,0.0,-300.0,0.0
1513267099412159429,,702189,,1513267097,595445376,'',0.13962634016,0.142519456783,0.0137602008277,0.00289311662393,0.001,22.2904750666,-6000.0,0.0,-300.0,0.0
1513267099422123872,,702190,,1513267097,605445376,'',0.13962634016,0.142483938805,-0.00339572961867,0.00285759864502,0.001,16.1299377849,-6000.0,0.0,-300.0,0.0
1513267099432075313,,702191,,1513267097,615445376,'',0.13962634016,0.142487646519,-0.00345360660855,0.00286130635966,0.001,16.1711146656,-6000.0,0.0,-300.0,0.0
1513267099441973788,,702192,,1513267097,625445376,'',0.13962634016,0.142486863541,-0.00342290396403,0.00286052338122,0.001,16.1497181687,-6000.0,0.0,-300.0,0.0
1513267099451757341,,702193,,1513267097,635445376,'',0.13962634016,0.142503951414,-0.00375908980477,0.00287761125417,0.001,16.1436171442,-6000.0,0.0,-300.0,0.0
1513267099462230844,,702194,,1513267097,645445376,'',0.13962634016,0.142500953736,-0.00369260159339,0.00287461357599,0.001,16.1207752612,-6000.0,0.0,-300.0,0.0
1513267099472179798,,702195,,1513267097,655445376,'',0.13962634016,0.142468356498,-0.00302566992151,0.00284201633857,0.001,16.1703853787,-6000.0,0.0,-300.0,0.0
1513267099482071086,,702196,,1513267097,665445376,'',0.13962634016,0.142457068461,-0.00278680929,0.00283072830189,0.001,16.1540127439,-6000.0,0.0,-300.0,0.0
1513267099491917826,,702197,,1513267097,675445376,'',0.13962634016,0.142479350274,-0.00323713768199,0.00285301011435,0.001,16.1503989259,-6000.0,0.0,-300.0,0.0
1513267099501931259,,702198,,1513267097,685445376,'',0.13962634016,0.142500897977,0.0140832723263,0.00287455781753,0.001,21.4818549135,-6000.0,0.0,-300.0,0.0
1513267099511865874,,702199,,1513267097,695445376,'',0.13962634016,0.142482838842,-0.00329883023513,0.00285649868208,0.001,16.1669057321,-6000.0,0.0,-300.0,0.0
1513267099521743102,,702200,,1513267097,705445376,'',0.13962634016,0.142453404319,-0.00270080277167,0.00282706415909,0.001,16.153525897,-6000.0,0.0,-300.0,0.0
1513267099532147300,,702201,,1513267097,715445376,'',0.13962634016,0.14247592828,-0.00314797047365,0.00284958812079,0.001,16.1507089837,-6000.0,0.0,-300.0,0.0
1513267099542094359,,702202,,1513267097,725445376,'',0.13962634016,0.142479302277,-0.00321528784977,0.00285296211701,0.001,16.1504032748,-6000.0,0.0,-300.0,0.0
1513267099551942580,,702203,,1513267097,735445376,'',0.13962634016,0.142450557873,-0.00263339716036,0.00282421771326,0.001,16.1552860619,-6000.0,0.0,-300.0,0.0
1513267099561909509,,702204,,1513267097,745445376,'',0.13962634016,0.142459911094,-0.00282131002942,0.00283357093411,0.001,16.1735243029,-6000.0,0.0,-300.0,0.0
1513267099571884049,,702205,,1513267097,755445376,'',0.13962634016,0.142498493333,-0.00360120731742,0.00287215317371,0.001,16.1452865179,-6000.0,0.0,-300.0,0.0
1513267099581762435,,702206,,1513267097,765445376,'',0.13962634016,0.142529237179,-0.00421949653863,0.00290289701977,0.001,16.1446599813,-6000.0,0.0,-300.0,0.0
1513267099592241938,,702207,,1513267097,775445376,'',0.13962634016,0.142523747513,0.0136361439323,0.00289740735357,0.001,21.4103943663,-6000.0,0.0,-300.0,0.0
1513267099602150655,,702208,,1513267097,785445376,'',0.13962634016,0.14250171707,-0.00366701520696,0.00287537690997,0.001,16.144933254,-6000.0,0.0,-300.0,0.0
1513267099612023292,,702209,,1513267097,795445376,'',0.13962634016,0.142498582362,-0.0036028169011,0.00287224220264,0.001,16.151775798,-6000.0,0.0,-300.0,0.0
1513267099622028698,,702210,,1513267097,805445376,'',0.13962634016,0.14253303096,-0.00422324330603,0.00290669080068,0.001,16.14522482,-6000.0,0.0,-300.0,0.0
1513267099631952765,,702211,,1513267097,815445376,'',0.13962634016,0.142527420259,0.0136047677157,0.00290108009953,0.001,21.2587223842,-6000.0,0.0,-300.0,0.0
1513267099642009788,,702212,,1513267097,825445376,'',0.13962634016,0.142506317489,-0.00372680358403,0.00287997732939,0.001,16.1764296882,-6000.0,0.0,-300.0,0.0
1513267099651980821,,702213,,1513267097,835445376,'',0.13962634016,0.142517758223,-0.00396773889202,0.00289141806319,0.001,16.1477827243,-6000.0,0.0,-300.0,0.0
1513267099662324651,,702214,,1513267097,845445376,'',0.13962634016,0.142514270502,-0.00390257535877,0.00288793034232,0.001,16.1398801195,-6000.0,0.0,-300.0,0.0
1513267099672324840,,702215,,1513267097,855445376,'',0.13962634016,0.142511134218,-0.00384516470577,0.00288479405835,0.001,16.1486321801,-6000.0,0.0,-300.0,0.0
1513267099682265589,,702216,,1513267097,865445376,'',0.13962634016,0.142522921155,-0.00409105638704,0.00289658099569,0.001,16.1437916654,-6000.0,0.0,-300.0,0.0
1513267099692290940,,702217,,1513267097,875445376,'',0.13962634016,0.142486256682,-0.00335014519726,0.00285991652228,0.001,16.1669501758,-6000.0,0.0,-300.0,0.0
1513267099702190554,,702218,,1513267097,885445376,'',0.13962634016,0.142490230817,-0.00341827590484,0.00286389065724,0.001,16.1491652969,-6000.0,0.0,-300.0,0.0
1513267099712104484,,702219,,1513267097,895445376,'',0.13962634016,0.14245943106,-0.00279808771431,0.00283309090092,0.001,16.1528122009,-6000.0,0.0,-300.0,0.0
1513267099722054892,,702220,,1513267097,905445376,'',0.13962634016,0.142482939203,-0.00328161823332,0.00285659904303,0.001,16.1280158745,-6000.0,0.0,-300.0,0.0
1513267099731962978,,702221,,1513267097,915445376,'',0.13962634016,0.142469042118,-0.00300434113251,0.00284270195816,0.001,16.1268228047,-6000.0,0.0,-300.0,0.0
1513267099742231819,,702222,,1513267097,925445376,'',0.13962634016,0.142471346062,-0.003052354532,0.00284500590227,0.001,16.1094860984,-6000.0,0.0,-300.0,0.0
1513267099752159086,,702223,,1513267097,935445376,'',0.13962634016,0.142444143521,-0.00250201403202,0.00281780336191,0.001,16.1687482508,-6000.0,0.0,-300.0,0.0
1513267099761959018,,702224,,1513267097,945445376,'',0.13962634016,0.14247082487,-0.00303935345178,0.00284448471008,0.001,16.156657245,-6000.0,0.0,-300.0,0.0
1513267099771870201,,702225,,1513267097,955445376,'',0.13962634016,0.142458511108,-0.00278569837669,0.00283217094816,0.001,16.1512797222,-6000.0,0.0,-300.0,0.0
1513267099782119726,,702226,,1513267097,965445376,'',0.13962634016,0.142479347328,-0.00321461074563,0.0028530071687,0.001,16.1708009028,-6000.0,0.0,-300.0,0.0
1513267099792149617,,702227,,1513267097,975445376,'',0.13962634016,0.142482482801,-0.00327652968094,0.0028561426412,0.001,16.1482233587,-6000.0,0.0,-300.0,0.0
1513267099802111540,,702228,,1513267097,985445376,'',0.13962634016,0.14245309385,-0.00268216125316,0.00282675368999,0.001,16.1502614903,-6000.0,0.0,-300.0,0.0
1513267099811961497,,702229,,1513267097,995445376,'',0.13962634016,0.142461755553,-0.00284416604913,0.00283541539316,0.001,16.1468375768,-6000.0,0.0,-300.0,0.0
1513267099821927767,,702230,,1513267098,5445376,'',0.13962634016,0.142451020249,-0.00263018196172,0.00282468008975,0.001,16.1537279926,-6000.0,0.0,-300.0,0.0
1513267099832256076,,702231,,1513267098,15445376,'',0.13962634016,0.142458635476,-0.00279206925049,0.00283229531624,0.001,16.1514692064,-6000.0,0.0,-300.0,0.0
1513267099842181816,,702232,,1513267098,25445376,'',0.13962634016,0.142449398947,-0.00260485371285,0.00282305878769,0.001,16.1531127363,-6000.0,0.0,-300.0,0.0
1513267099852135454,,702233,,1513267098,35445376,'',0.13962634016,0.142456745883,-0.00275895266968,0.00283040572352,0.001,16.1516514494,-6000.0,0.0,-300.0,0.0
1513267099862230411,,702234,,1513267098,45445376,'',0.13962634016,0.142493171821,-0.00349452280542,0.0028668316612,0.001,16.1723313803,-6000.0,0.0,-300.0,0.0
1513267099872014967,,702235,,1513267098,55445376,'',0.13962634016,0.14246183038,-0.0028603372334,0.0028354902208,0.001,16.1495104542,-6000.0,0.0,-300.0,0.0
1513267099882039547,,702236,,1513267098,65445376,'',0.13962634016,0.142485178493,-0.00332332883098,0.00285883833391,0.001,16.1597261664,-6000.0,0.0,-300.0,0.0
1513267099891863756,,702237,,1513267098,75445376,'',0.13962634016,0.142502963273,0.014057584613,0.00287662311331,0.001,21.4106240588,-6000.0,0.0,-300.0,0.0
1513267099902272600,,702238,,1513267098,85445376,'',0.13962634016,0.142469859839,-0.00302155322851,0.00284351967964,0.001,16.1492964381,-6000.0,0.0,-300.0,0.0
1513267099912187713,,702239,,1513267098,95445376,'',0.13962634016,0.142508145655,0.0139547781755,0.00288180549579,0.001,21.5116276655,-6000.0,0.0,-300.0,0.0
1513267099922106266,,702240,,1513267098,105445376,'',0.13962634016,0.14253644625,-0.0043652365278,0.00291010609,0.001,16.1449103849,-6000.0,0.0,-300.0,0.0
1513267099932027132,,702241,,1513267098,115445376,'',0.13962634016,0.142576292545,-0.00516861396922,0.00294995238559,0.001,16.1696139626,-6000.0,0.0,-300.0,0.0
1513267099941894368,,702242,,1513267098,125445376,'',0.13962634016,0.14259188491,-0.00547814230955,0.00296554475063,0.001,16.1516897527,-6000.0,0.0,-300.0,0.0
1513267099952369232,,702243,,1513267098,135445376,'',0.13962634016,0.14258998399,-0.00543906601279,0.0029636438309,0.001,16.1352607762,-6000.0,0.0,-300.0,0.0
1513267099961763398,,702244,,1513267098,145445376,'',0.13962634016,0.142557899842,-0.00479192402749,0.00293155968282,0.001,16.1429352189,-6000.0,0.0,-300.0,0.0
1513267099971816516,,702245,,1513267098,155445376,'',0.13962634016,0.142560787267,-0.00485425024261,0.00293444710696,0.001,16.1444231313,-6000.0,0.0,-300.0,0.0
1513267099982236950,,702246,,1513267098,165445376,'',0.13962634016,0.142566219942,-0.00496412434198,0.00293987978201,0.001,16.1439626078,-6000.0,0.0,-300.0,0.0
1513267099992200626,,702247,,1513267098,175445376,'',0.13962634016,0.142614171514,-0.00593177021203,0.00298783135494,0.001,16.1381831305,-6000.0,0.0,-300.0,0.0
1513267100002132085,,702248,,1513267098,185445376,'',0.13962634016,0.142610466347,0.0118909015002,0.00298412618724,0.001,21.4136728962,-6000.0,0.0,-300.0,0.0
1513267100012033684,,702249,,1513267098,195445376,'',0.13962634016,0.142604673424,-0.00574173430079,0.002978333264,0.001,16.1788560315,-6000.0,0.0,-300.0,0.0
1513267100022029514,,702250,,1513267098,205445376,'',0.13962634016,0.142631885476,-0.00629465313231,0.00300554531662,0.001,16.1324873127,-6000.0,0.0,-300.0,0.0
1513267100031785240,,702251,,1513267098,215445376,'',0.13962634016,0.142621837786,-0.0060982911104,0.00299549762626,0.001,16.1392479282,-6000.0,0.0,-300.0,0.0
1513267100041941644,,702252,,1513267098,225445376,'',0.13962634016,0.142599824865,-0.00565116103836,0.00297348470552,0.001,16.1411139457,-6000.0,0.0,-300.0,0.0
1513267100052204524,,702253,,1513267098,235445376,'',0.13962634016,0.14258059227,-0.00526182999143,0.00295425211068,0.001,16.174628613,-6000.0,0.0,-300.0,0.0
1513267100062080362,,702254,,1513267098,245445376,'',0.13962634016,0.142583794862,0.0124223523895,0.00295745470279,0.001,21.4925625098,-6000.0,0.0,-300.0,0.0
1513267100072172166,,702255,,1513267098,255445376,'',0.13962634016,0.142602153439,-0.00569607382727,0.00297581327993,0.001,16.1376275273,-6000.0,0.0,-300.0,0.0
1513267100081970985,,702256,,1513267098,265445376,'',0.13962634016,0.142581102991,-0.00527309973983,0.00295476283108,0.001,16.1381360909,-6000.0,0.0,-300.0,0.0
1513267100091947508,,702257,,1513267098,275445376,'',0.13962634016,0.142550994419,-0.00466083491004,0.00292465425951,0.001,16.1718280143,-6000.0,0.0,-300.0,0.0
1513267100101796200,,702258,,1513267098,285445376,'',0.13962634016,0.142526985298,0.0135771114051,0.00290064513799,0.001,21.591974744,-6000.0,0.0,-300.0,0.0
1513267100111800569,,702259,,1513267098,295445376,'',0.13962634016,0.142505413748,-0.00373303711098,0.0028790735888,0.001,16.1763731073,-6000.0,0.0,-300.0,0.0
1513267100122249736,,702260,,1513267098,305445376,'',0.13962634016,0.142471874467,-0.00305604684218,0.00284553430704,0.001,16.1519601975,-6000.0,0.0,-300.0,0.0
1513267100132129037,,702261,,1513267098,315445376,'',0.13962634016,0.142477445449,0.0145826288816,0.00285110528974,0.001,21.5023537714,-6000.0,0.0,-300.0,0.0
1513267100142028014,,702262,,1513267098,325445376,'',0.13962634016,0.142529441577,-0.0042127018833,0.0029031014172,0.001,16.1483002512,-6000.0,0.0,-300.0,0.0
1513267100152095563,,702263,,1513267098,335445376,'',0.13962634016,0.142508050788,-0.00378861198247,0.002881710628,0.001,16.1762645614,-6000.0,0.0,-300.0,0.0
1513267100161927619,,702264,,1513267098,345445376,'',0.13962634016,0.142489835119,-0.00342400154068,0.0028634949594,0.001,16.1761389741,-6000.0,0.0,-300.0,0.0
1513267100172021768,,702265,,1513267098,355445376,'',0.13962634016,0.142476337884,-0.00314745512646,0.00284999772417,0.001,16.1599982052,-6000.0,0.0,-300.0,0.0
1513267100181920505,,702266,,1513267098,365445376,'',0.13962634016,0.142481250994,-0.00323816969269,0.00285491083438,0.001,16.1954961716,-6000.0,0.0,-300.0,0.0
1513267100191876648,,702267,,1513267098,375445376,'',0.13962634016,0.142515885121,-0.00395353329634,0.00288954496106,0.001,16.1182749344,-6000.0,0.0,-300.0,0.0
1513267100202405944,,702268,,1513267098,385445376,'',0.13962634016,0.14249774489,-0.00358483269558,0.00287140473002,0.001,16.1497671826,-6000.0,0.0,-300.0,0.0
1513267100211843648,,702269,,1513267098,395445376,'',0.13962634016,0.142496131099,-0.00354597096973,0.00286979093933,0.001,16.1714354373,-6000.0,0.0,-300.0,0.0
1513267100222434436,,702270,,1513267098,405445376,'',0.13962634016,0.142499593539,0.0141513260726,0.0028732533791,0.001,21.6923143863,-6000.0,0.0,-300.0,0.0
1513267100232340990,,702271,,1513267098,415445376,'',0.13962634016,0.14249733491,-0.00355847954472,0.00287099475005,0.001,16.1474786699,-6000.0,0.0,-300.0,0.0
1513267100242199038,,702272,,1513267098,425445376,'',0.13962634016,0.142513574317,-0.00388740093488,0.00288723415794,0.001,16.1425064612,-6000.0,0.0,-300.0,0.0
1513267100252168645,,702273,,1513267098,435445376,'',0.13962634016,0.142511867192,0.0138955398283,0.00288552703203,0.001,21.4941702114,-6000.0,0.0,-300.0,0.0
1513267100262384624,,702274,,1513267098,445445376,'',0.13962634016,0.142507941695,-0.0037791633009,0.00288160153521,0.001,16.1707879175,-6000.0,0.0,-300.0,0.0
1513267100272264654,,702275,,1513267098,455445376,'',0.13962634016,0.142489717295,-0.00341212678237,0.00286337713587,0.001,16.1906958145,-6000.0,0.0,-300.0,0.0
1513267100282137974,,702276,,1513267098,465445376,'',0.13962634016,0.142490622712,-0.00343766667617,0.00286428255249,0.001,16.1232949861,-6000.0,0.0,-300.0,0.0
1513267100292209000,,702277,,1513267098,475445376,'',0.13962634016,0.142491970666,-0.00347831667253,0.00286563050693,0.001,16.1712781462,-6000.0,0.0,-300.0,0.0
1513267100302200547,,702278,,1513267098,485445376,'',0.13962634016,0.142496087853,0.014179966204,0.00286974769327,0.001,21.6853848487,-6000.0,0.0,-300.0,0.0
1513267100312012220,,702279,,1513267098,495445376,'',0.13962634016,0.142479363257,-0.00320989077081,0.00285302309765,0.001,16.1979159698,-6000.0,0.0,-300.0,0.0
1513267100322240392,,702280,,1513267098,505445376,'',0.13962634016,0.14248444486,-0.00330957470023,0.00285810470012,0.001,16.171950517,-6000.0,0.0,-300.0,0.0
1513267100331891255,,702281,,1513267098,515445376,'',0.13962634016,0.142469659468,-0.00300436997847,0.00284331930884,0.001,16.1684757027,-6000.0,0.0,-300.0,0.0
1513267100342321939,,702282,,1513267098,525445376,'',0.13962634016,0.142475801571,0.0146211955504,0.0028494614113,0.001,21.6566680875,-6000.0,0.0,-300.0,0.0
1513267100351678475,,702283,,1513267098,535445376,'',0.13962634016,0.142464555766,-0.0028972231444,0.00283821560608,0.001,16.1694008427,-6000.0,0.0,-300.0,0.0
1513267100362169056,,702284,,1513267098,545445376,'',0.13962634016,0.142470786194,-0.00302126144107,0.00284444603477,0.001,16.1722315936,-6000.0,0.0,-300.0,0.0
1513267100371997741,,702285,,1513267098,555445376,'',0.13962634016,0.14249288345,-0.00347426552944,0.00286654329004,0.001,16.1481661393,-6000.0,0.0,-300.0,0.0
1513267100381972206,,702286,,1513267098,565445376,'',0.13962634016,0.142494872214,-0.00351912767611,0.00286853205487,0.001,16.148992524,-6000.0,0.0,-300.0,0.0
1513267100391756783,,702287,,1513267098,575445376,'',0.13962634016,0.142494016529,-0.0035024117162,0.00286767636981,0.001,16.1703427214,-6000.0,0.0,-300.0,0.0
1513267100402144397,,702288,,1513267098,585445376,'',0.13962634016,0.142477201871,-0.00316220771759,0.00285086171148,0.001,16.1515085977,-6000.0,0.0,-300.0,0.0
1513267100411999990,,702289,,1513267098,595445376,'',0.13962634016,0.142465244366,-0.00291786136529,0.00283890420647,0.001,16.1542125791,-6000.0,0.0,-300.0,0.0
1513267100422041600,,702290,,1513267098,605445376,'',0.13962634016,0.142485886782,-0.00333987250711,0.0028595466226,0.001,16.1519795021,-6000.0,0.0,-300.0,0.0
1513267100431932167,,702291,,1513267098,615445376,'',0.13962634016,0.142506986792,0.013981905816,0.00288064663253,0.001,21.4097607032,-6000.0,0.0,-300.0,0.0
1513267100441940445,,702292,,1513267098,625445376,'',0.13962634016,0.142487983505,-0.00338401196986,0.00286164334521,0.001,16.1483942211,-6000.0,0.0,-300.0,0.0
1513267100451925192,,702293,,1513267098,635445376,'',0.13962634016,0.142523476993,0.0136401303339,0.00289713683342,0.001,21.4892423573,-6000.0,0.0,-300.0,0.0
1513267100461805579,,702294,,1513267098,645445376,'',0.13962634016,0.142501531877,-0.00366098251339,0.00287519171712,0.001,16.1505031957,-6000.0,0.0,-300.0,0.0
1513267100472305944,,702295,,1513267098,655445376,'',0.13962634016,0.142500797755,-0.00364111887359,0.00287445759516,0.001,16.1713487824,-6000.0,0.0,-300.0,0.0
1513267100482223807,,702296,,1513267098,665445376,'',0.13962634016,0.14250009482,-0.00362058818464,0.00287375466057,0.001,16.1482571486,-6000.0,0.0,-300.0,0.0
1513267100492160074,,702297,,1513267098,675445376,'',0.13962634016,0.142482680572,-0.00326730512534,0.00285634041223,0.001,16.1508074253,-6000.0,0.0,-300.0,0.0
1513267100502241650,,702298,,1513267098,685445376,'',0.13962634016,0.142517308289,0.0137838940134,0.00289096812988,0.001,21.4897292601,-6000.0,0.0,-300.0,0.0
1513267100512194597,,702299,,1513267098,695445376,'',0.13962634016,0.142542445904,-0.0044747014651,0.00291610574406,0.001,16.1472738048,-6000.0,0.0,-300.0,0.0
1513267100522134497,,702300,,1513267098,705445376,'',0.13962634016,0.142567081034,-0.00496261001356,0.00294074087466,0.001,16.2525106833,-6000.0,0.0,-300.0,0.0
1513267100531945042,,702301,,1513267098,715445376,'',0.13962634016,0.142538827714,-0.00439547636701,0.00291248755465,0.001,16.1743239014,-6000.0,0.0,-300.0,0.0
1513267100542267520,,702302,,1513267098,725445376,'',0.13962634016,0.142499235593,-0.00359848930017,0.00287289543362,0.001,16.147292583,-6000.0,0.0,-300.0,0.0
1513267100552070304,,702303,,1513267098,735445376,'',0.13962634016,0.142514346689,-0.00390242924375,0.00288800652917,0.001,16.1506235328,-6000.0,0.0,-300.0,0.0
1513267100562191935,,702304,,1513267098,745445376,'',0.13962634016,0.142479184381,-0.00319465859682,0.00285284422191,0.001,16.1494873544,-6000.0,0.0,-300.0,0.0
1513267100572098287,,702305,,1513267098,755445376,'',0.13962634016,0.142465028341,-0.00290721922367,0.00283868818101,0.001,16.1489536833,-6000.0,0.0,-300.0,0.0
1513267100581964839,,702306,,1513267098,765445376,'',0.13962634016,0.142472009959,-0.00304867902326,0.00284566979979,0.001,16.1554873409,-6000.0,0.0,-300.0,0.0
1513267100591780505,,702307,,1513267098,775445376,'',0.13962634016,0.142444516069,-0.0024955479187,0.00281817590904,0.001,16.1488476169,-6000.0,0.0,-300.0,0.0
1513267100601791296,,702308,,1513267098,785445376,'',0.13962634016,0.142452889161,-0.00267236804897,0.00282654900116,0.001,16.1551156606,-6000.0,0.0,-300.0,0.0
1513267100611798640,,702309,,1513267098,795445376,'',0.13962634016,0.142444723195,-0.00251127705279,0.00281838303563,0.001,16.1702169784,-6000.0,0.0,-300.0,0.0
1513267100622389345,,702310,,1513267098,805445376,'',0.13962634016,0.142439178338,-0.00240395509456,0.00281283817856,0.001,16.134975479,-6000.0,0.0,-300.0,0.0
1513267100632259119,,702311,,1513267098,815445376,'',0.13962634016,0.142433554974,-0.00228929631725,0.00280721481418,0.001,16.1552085099,-6000.0,0.0,-300.0,0.0
1513267100642252280,,702312,,1513267098,825445376,'',0.13962634016,0.142430538909,0.0155208550704,0.00280419874917,0.001,21.5100371561,-6000.0,0.0,-300.0,0.0
1513267100652233714,,702313,,1513267098,835445376,'',0.13962634016,0.142410579978,-0.00182402991571,0.00278423981822,0.001,16.1571560817,-6000.0,0.0,-300.0,0.0
1513267100662215749,,702314,,1513267098,845445376,'',0.13962634016,0.142441409092,-0.00244586699564,0.00281506893244,0.001,16.1691901536,-6000.0,0.0,-300.0,0.0
1513267100672087528,,702315,,1513267098,855445376,'',0.13962634016,0.142434144884,-0.00229757763773,0.00280780472469,0.001,16.1564857399,-6000.0,0.0,-300.0,0.0
1513267100682059389,,702316,,1513267098,865445376,'',0.13962634016,0.142413526737,-0.00188083772855,0.00278718657778,0.001,16.1552764609,-6000.0,0.0,-300.0,0.0
1513267100692005810,,702317,,1513267098,875445376,'',0.13962634016,0.142414120066,0.0158553656511,0.00278777990628,0.001,21.5024561562,-6000.0,0.0,-300.0,0.0
1513267100701905458,,702318,,1513267098,885445376,'',0.13962634016,0.142413682432,-0.00187252667492,0.00278734227225,0.001,16.15621287,-6000.0,0.0,-300.0,0.0
1513267100711872445,,702319,,1513267098,895445376,'',0.13962634016,0.142411359101,-0.0018309341211,0.00278501894183,0.001,16.1677001128,-6000.0,0.0,-300.0,0.0
1513267100722284852,,702320,,1513267098,905445376,'',0.13962634016,0.142424984453,-0.00210354713601,0.00279864429384,0.001,16.1399145455,-6000.0,0.0,-300.0,0.0
1513267100732274414,,702321,,1513267098,915445376,'',0.13962634016,0.1424373204,-0.00235220119909,0.00281098024083,0.001,16.1569357685,-6000.0,0.0,-300.0,0.0
1513267100742216110,,702322,,1513267098,925445376,'',0.13962634016,0.142416133569,-0.00192570045657,0.00278979340959,0.001,16.1583606969,-6000.0,0.0,-300.0,0.0
1513267100752158921,,702323,,1513267098,935445376,'',0.13962634016,0.142415544654,-0.0019243047399,0.00278920449477,0.001,16.1869692325,-6000.0,0.0,-300.0,0.0
1513267100762049546,,702324,,1513267098,945445376,'',0.13962634016,0.142430982741,0.0155052017254,0.00280464258162,0.001,21.4024053701,-6000.0,0.0,-300.0,0.0
1513267100771965674,,702325,,1513267098,955445376,'',0.13962634016,0.14241084373,-0.00183773958518,0.00278450356999,0.001,16.127176427,-6000.0,0.0,-300.0,0.0
1513267100781900121,,702326,,1513267098,965445376,'',0.13962634016,0.142394491872,-0.00150521698971,0.00276815171283,0.001,16.1490109496,-6000.0,0.0,-300.0,0.0
1513267100791803240,,702327,,1513267098,975445376,'',0.13962634016,0.142413725026,-0.00188594493918,0.00278738486646,0.001,16.1579782928,-6000.0,0.0,-300.0,0.0
1513267100801843141,,702328,,1513267098,985445376,'',0.13962634016,0.142444107761,-0.0024911437948,0.00281776760118,0.001,16.1552161918,-6000.0,0.0,-300.0,0.0
1513267100812246133,,702329,,1513267098,995445376,'',0.13962634016,0.142436119223,-0.00233267707335,0.00280977906337,0.001,16.1565102116,-6000.0,0.0,-300.0,0.0
1513267100822251127,,702330,,1513267099,5445376,'',0.13962634016,0.142432574111,0.015485968594,0.00280623395113,0.001,21.4919431151,-6000.0,0.0,-300.0,0.0
1513267100832085156,,702331,,1513267099,15445376,'',0.13962634016,0.142458971758,-0.00280188145466,0.00283263159875,0.001,16.1512346221,-6000.0,0.0,-300.0,0.0
1513267100842048939,,702332,,1513267099,25445376,'',0.13962634016,0.14246716973,-0.00295959600689,0.0028408295708,0.001,16.1692703856,-6000.0,0.0,-300.0,0.0
1513267100852204037,,702333,,1513267099,35445376,'',0.13962634016,0.142440568905,-0.00242292787515,0.00281422874585,0.001,16.1546139445,-6000.0,0.0,-300.0,0.0
1513267100861995966,,702334,,1513267099,45445376,'',0.13962634016,0.142418785086,-0.00198344219418,0.00279244492644,0.001,16.1564605413,-6000.0,0.0,-300.0,0.0
1513267100871895158,,702335,,1513267099,55445376,'',0.13962634016,0.142418094922,-0.0019697817936,0.0027917547627,0.001,16.1565190459,-6000.0,0.0,-300.0,0.0
1513267100881949239,,702336,,1513267099,65445376,'',0.13962634016,0.14240041997,-0.00161314425212,0.00277407981074,0.001,16.1663005923,-6000.0,0.0,-300.0,0.0
1513267100892283907,,702337,,1513267099,75445376,'',0.13962634016,0.142385922671,-0.00132062400703,0.00275958251117,0.001,16.1596283625,-6000.0,0.0,-300.0,0.0
1513267100902309719,,702338,,1513267099,85445376,'',0.13962634016,0.142388878143,-0.00138155112767,0.00276253798314,0.001,16.160193771,-6000.0,0.0,-300.0,0.0
1513267100912277323,,702339,,1513267099,95445376,'',0.13962634016,0.142424978051,-0.00210374437474,0.00279863789104,0.001,16.1559355687,-6000.0,0.0,-300.0,0.0
1513267100922177237,,702340,,1513267099,105445376,'',0.13962634016,0.142440555257,0.0153280190127,0.00281421509765,0.001,21.4913597475,-6000.0,0.0,-300.0,0.0
1513267100932039910,,702341,,1513267099,115445376,'',0.13962634016,0.142418827364,-0.0019828526822,0.00279248720442,0.001,16.1703782216,-6000.0,0.0,-300.0,0.0
1513267100942104253,,702342,,1513267099,125445376,'',0.13962634016,0.142417109198,-0.00194920387755,0.00279076903802,0.001,16.156602605,-6000.0,0.0,-300.0,0.0
1513267100952029031,,702343,,1513267099,135445376,'',0.13962634016,0.142415106327,-0.00190896502028,0.00278876616773,0.001,16.1566342659,-6000.0,0.0,-300.0,0.0
1513267100961958322,,702344,,1513267099,145445376,'',0.13962634016,0.142382733642,-0.00125595544765,0.00275639348291,0.001,16.159516593,-6000.0,0.0,-300.0,0.0
1513267100971938098,,702345,,1513267099,155445376,'',0.13962634016,0.142371460761,-0.00102855435917,0.00274512060098,0.001,16.166350148,-6000.0,0.0,-300.0,0.0
1513267100981888792,,702346,,1513267099,165445376,'',0.13962634016,0.142362193102,-0.000841603448445,0.00273585294286,0.001,16.154618822,-6000.0,0.0,-300.0,0.0
1513267100991778794,,702347,,1513267099,175445376,'',0.13962634016,0.142354643491,-0.000689309659233,0.00272830333121,0.001,16.1612493987,-6000.0,0.0,-300.0,0.0
1513267101001806104,,702348,,1513267099,185445376,'',0.13962634016,0.142348446556,-0.000564302616009,0.00272210639676,0.001,16.1618922911,-6000.0,0.0,-300.0,0.0
1513267101012260987,,702349,,1513267099,195445376,'',0.13962634016,0.142343383054,-0.000462159622852,0.0027170428946,0.001,16.1625847978,-6000.0,0.0,-300.0,0.0
1513267101021926685,,702350,,1513267099,205445376,'',0.13962634016,0.142324677725,-8.12597736059e-05,0.00269833756568,0.001,16.1645115946,-6000.0,0.0,-300.0,0.0
1513267101031868860,,702351,,1513267099,215445376,'',0.13962634016,0.14232391518,-6.65244956789e-05,0.00269757502049,0.001,16.1644573642,-6000.0,0.0,-300.0,0.0
1513267101041857161,,702352,,1513267099,225445376,'',0.13962634016,0.14232329075,-5.44581298542e-05,0.00269695059052,0.001,16.1645390659,-6000.0,0.0,-300.0,0.0
1513267101052172692,,702353,,1513267099,235445376,'',0.13962634016,0.142326119602,0.0176436422769,0.00269977944279,0.001,21.4143842591,-6000.0,0.0,-300.0,0.0
1513267101062030435,,702354,,1513267099,245445376,'',0.13962634016,0.142354476739,-0.000687347511466,0.00272813657988,0.001,16.1619119078,-6000.0,0.0,-300.0,0.0
1513267101071943618,,702355,,1513267099,255445376,'',0.13962634016,0.142348310046,-0.000562696305836,0.00272196988596,0.001,16.1622721338,-6000.0,0.0,-300.0,0.0
1513267101081833734,,702356,,1513267099,265445376,'',0.13962634016,0.142343261688,-0.000460650729535,0.00271692152857,0.001,16.1627295521,-6000.0,0.0,-300.0,0.0
1513267101092244113,,702357,,1513267099,275445376,'',0.13962634016,0.142324071161,-6.87345782506e-05,0.00269773100103,0.001,16.1644420929,-6000.0,0.0,-300.0,0.0
1513267101102156400,,702358,,1513267099,285445376,'',0.13962634016,0.142275033139,0.000921836356019,0.00264869297972,0.001,16.1634079831,-6000.0,0.0,-300.0,0.0
1513267101112061871,,702359,,1513267099,295445376,'',0.13962634016,0.142217313123,-0.015661127074,0.00259097296298,0.001,10.8188855318,-6000.0,0.0,-300.0,0.0
1513267101122044046,,702360,,1513267099,305445376,'',0.13962634016,0.142221155173,0.00200559154194,0.00259481501332,0.001,16.1756778262,-6000.0,0.0,-300.0,0.0
1513267101132117659,,702361,,1513267099,315445376,'',0.13962634016,0.142239150203,0.00164220422679,0.00261281004303,0.001,16.1731123909,-6000.0,0.0,-300.0,0.0
1513267101141969551,,702362,,1513267099,325445376,'',0.13962634016,0.142253898099,0.00134438873558,0.00262755793979,0.001,16.1708265501,-6000.0,0.0,-300.0,0.0
1513267101151943921,,702363,,1513267099,335445376,'',0.13962634016,0.142265952995,0.00110095507198,0.00263961283501,0.001,16.1644036656,-6000.0,0.0,-300.0,0.0
1513267101161845497,,702364,,1513267099,345445376,'',0.13962634016,0.142259663395,0.00122709244267,0.00263332323575,0.001,16.1703041719,-6000.0,0.0,-300.0,0.0
1513267101172320410,,702365,,1513267099,355445376,'',0.13962634016,0.142239669098,0.00163754287005,0.00261332893804,0.001,16.1721158023,-6000.0,0.0,-300.0,0.0
1513267101182271431,,702366,,1513267099,365445376,'',0.13962634016,0.142254322892,0.00134057272086,0.00262798273264,0.001,16.1704018684,-6000.0,0.0,-300.0,0.0
1513267101192223008,,702367,,1513267099,375445376,'',0.13962634016,0.142232014576,-0.0159578580405,0.00260567441607,0.001,10.9223826235,-6000.0,0.0,-300.0,0.0
1513267101202149400,,702368,,1513267099,385445376,'',0.13962634016,0.142182628961,-0.0149660012528,0.00255628880169,0.001,10.9432792693,-6000.0,0.0,-300.0,0.0
1513267101212172225,,702369,,1513267099,395445376,'',0.13962634016,0.142207615745,0.00227873185735,0.00258127558553,0.001,16.1751847926,-6000.0,0.0,-300.0,0.0
1513267101222304495,,702370,,1513267099,405445376,'',0.13962634016,0.142165039072,0.00313703556106,0.00253869891273,0.001,16.1847766485,-6000.0,0.0,-300.0,0.0
1513267101232159453,,702371,,1513267099,415445376,'',0.13962634016,0.142159900134,0.00324156880361,0.00253355997457,0.001,16.1559126348,-6000.0,0.0,-300.0,0.0
1513267101241982513,,702372,,1513267099,425445376,'',0.13962634016,0.142140368932,-0.0141172467835,0.00251402877281,0.001,10.9108997349,-6000.0,0.0,-300.0,0.0
1513267101251959997,,702373,,1513267099,435445376,'',0.13962634016,0.142127213705,0.00390187320458,0.00250087354554,0.001,16.1823050874,-6000.0,0.0,-300.0,0.0
1513267101261904255,,702374,,1513267099,445445376,'',0.13962634016,0.142114158288,0.0041633382536,0.00248781812895,0.001,16.1834880041,-6000.0,0.0,-300.0,0.0
1513267101272249477,,702375,,1513267099,455445376,'',0.13962634016,0.142135315651,0.00374211654133,0.00250897549103,0.001,16.1804900161,-6000.0,0.0,-300.0,0.0
1513267101282205822,,702376,,1513267099,465445376,'',0.13962634016,0.142105655909,0.00433635810035,0.00247931574933,0.001,16.1541657714,-6000.0,0.0,-300.0,0.0
1513267101292073247,,702377,,1513267099,475445376,'',0.13962634016,0.142144608946,0.00355003956401,0.00251826878603,0.001,16.179702231,-6000.0,0.0,-300.0,0.0
1513267101302120316,,702378,,1513267099,485445376,'',0.13962634016,0.142144926174,0.00354232563065,0.0025185860144,0.001,16.1786504915,-6000.0,0.0,-300.0,0.0
1513267101312017629,,702379,,1513267099,495445376,'',0.13962634016,0.142161587185,0.00320389112463,0.00253524702552,0.001,16.1771035265,-6000.0,0.0,-300.0,0.0
1513267101321946218,,702380,,1513267099,505445376,'',0.13962634016,0.1421904068,0.00262274948723,0.00256406664032,0.001,16.1782879069,-6000.0,0.0,-300.0,0.0
1513267101331951478,,702381,,1513267099,515445376,'',0.13962634016,0.142213983702,0.00214732607879,0.00258764354244,0.001,16.1725780267,-6000.0,0.0,-300.0,0.0
1513267101341853980,,702382,,1513267099,525445376,'',0.13962634016,0.142233258982,0.00175864400157,0.00260691882238,0.001,16.1604792834,-6000.0,0.0,-300.0,0.0
1513267101352322016,,702383,,1513267099,535445376,'',0.13962634016,0.142215776486,0.00211210520571,0.00258943632651,0.001,16.1602252532,-6000.0,0.0,-300.0,0.0
1513267101362121735,,702384,,1513267099,545445376,'',0.13962634016,0.142202482788,0.00237780346451,0.00257614262802,0.001,16.1754851553,-6000.0,0.0,-300.0,0.0
1513267101372258508,,702385,,1513267099,555445376,'',0.13962634016,0.142209274358,0.00223825740025,0.00258293419877,0.001,16.174869789,-6000.0,0.0,-300.0,0.0
1513267101382013187,,702386,,1513267099,565445376,'',0.13962634016,0.142229440271,0.00183234702916,0.00260310011181,0.001,16.1735740802,-6000.0,0.0,-300.0,0.0
1513267101391936392,,702387,,1513267099,575445376,'',0.13962634016,0.142229738911,0.00182979023456,0.00260339875161,0.001,16.161893604,-6000.0,0.0,-300.0,0.0
1513267101401899693,,702388,,1513267099,585445376,'',0.13962634016,0.142230727363,0.00180738728147,0.00260438720325,0.001,16.1735809367,-6000.0,0.0,-300.0,0.0
1513267101411957507,,702389,,1513267099,595445376,'',0.13962634016,0.142247001349,0.00147964388849,0.00262066118967,0.001,16.1710225097,-6000.0,0.0,-300.0,0.0
1513267101422376213,,702390,,1513267099,605445376,'',0.13962634016,0.142244204486,0.00154043823786,0.00261786432617,0.001,16.1712595976,-6000.0,0.0,-300.0,0.0
1513267101431982103,,702391,,1513267099,615445376,'',0.13962634016,0.142226733928,0.00190008992891,0.0026003937685,0.001,16.1732878237,-6000.0,0.0,-300.0,0.0
1513267101442323498,,702392,,1513267099,625445376,'',0.13962634016,0.142211951607,0.00219949360365,0.00258561144772,0.001,16.1725681763,-6000.0,0.0,-300.0,0.0
1513267101452339790,,702393,,1513267099,635445376,'',0.13962634016,0.142231596407,0.00180133445628,0.00260525624719,0.001,16.1592301066,-6000.0,0.0,-300.0,0.0
1513267101462209081,,702394,,1513267099,645445376,'',0.13962634016,0.142232281745,0.00179357962438,0.0026059415852,0.001,16.1749734664,-6000.0,0.0,-300.0,0.0
1513267101472053213,,702395,,1513267099,655445376,'',0.13962634016,0.142231383532,0.00180492923725,0.00260504337273,0.001,16.1729965659,-6000.0,0.0,-300.0,0.0
1513267101481894019,,702396,,1513267099,665445376,'',0.13962634016,0.142216201224,0.00210050159715,0.00258986106494,0.001,16.1576578058,-6000.0,0.0,-300.0,0.0
1513267101491951190,,702397,,1513267099,675445376,'',0.13962634016,0.142188788527,0.00265683344506,0.00256244836757,0.001,16.1759571636,-6000.0,0.0,-300.0,0.0
1513267101501853929,,702398,,1513267099,685445376,'',0.13962634016,0.142198012923,0.00246679492321,0.0025716727637,0.001,16.175175219,-6000.0,0.0,-300.0,0.0
1513267101512323322,,702399,,1513267099,695445376,'',0.13962634016,0.142125875735,0.00391928520712,0.00249953557534,0.001,16.1827103425,-6000.0,0.0,-300.0,0.0
1513267101522222738,,702400,,1513267099,705445376,'',0.13962634016,0.14211325357,0.00417324541338,0.00248691341013,0.001,16.1557509334,-6000.0,0.0,-300.0,0.0
1513267101532172416,,702401,,1513267099,715445376,'',0.13962634016,0.14210415399,0.004347930403,0.00247781383015,0.001,16.1831315648,-6000.0,0.0,-300.0,0.0
1513267101542046372,,702402,,1513267099,725445376,'',0.13962634016,0.142112128831,0.00420010251707,0.00248578867099,0.001,16.1493191014,-6000.0,0.0,-300.0,0.0
1513267101552027422,,702403,,1513267099,735445376,'',0.13962634016,0.14208601154,0.00472975967541,0.00245967138046,0.001,16.1860383064,-6000.0,0.0,-300.0,0.0
1513267101561928076,,702404,,1513267099,745445376,'',0.13962634016,0.142081239525,0.00482304964808,0.0024548993655,0.001,16.1850740055,-6000.0,0.0,-300.0,0.0
1513267101572426617,,702405,,1513267099,755445376,'',0.13962634016,0.142090262659,-0.0131054509605,0.00246392249932,0.001,10.9096633286,-6000.0,0.0,-300.0,0.0
1513267101582351482,,702406,,1513267099,765445376,'',0.13962634016,0.142084120406,-0.0129833548031,0.00245778024629,0.001,10.8354805441,-6000.0,0.0,-300.0,0.0
1513267101592112698,,702407,,1513267099,775445376,'',0.13962634016,0.142111143273,0.00422145173691,0.00248480311304,0.001,16.1800949635,-6000.0,0.0,-300.0,0.0
1513267101602247300,,702408,,1513267099,785445376,'',0.13962634016,0.142116828911,0.00411090397267,0.00249048875194,0.001,16.182057122,-6000.0,0.0,-300.0,0.0
1513267101611986074,,702409,,1513267099,795445376,'',0.13962634016,0.142153759905,0.00336538714475,0.00252741974554,0.001,16.1801431332,-6000.0,0.0,-300.0,0.0
1513267101621898002,,702410,,1513267099,805445376,'',0.13962634016,0.142136854156,0.00371078089215,0.0025105139962,0.001,16.1825036057,-6000.0,0.0,-300.0,0.0
1513267101632051280,,702411,,1513267099,815445376,'',0.13962634016,0.14215311746,-0.014361655656,0.00252677730081,0.001,10.9423399234,-6000.0,0.0,-300.0,0.0
1513267101641953656,,702412,,1513267099,825445376,'',0.13962634016,0.142151916022,0.00340579309384,0.00252557586261,0.001,16.1552251084,-6000.0,0.0,-300.0,0.0
1513267101652263128,,702413,,1513267099,835445376,'',0.13962634016,0.142149233384,0.00346327860213,0.00252289322434,0.001,16.1793102211,-6000.0,0.0,-300.0,0.0
1513267101662222474,,702414,,1513267099,845445376,'',0.13962634016,0.142180285118,0.00283526340499,0.00255394495841,0.001,16.1758595697,-6000.0,0.0,-300.0,0.0
1513267101672210162,,702415,,1513267099,855445376,'',0.13962634016,0.142205701146,0.00232122924286,0.00257936098684,0.001,16.1730159202,-6000.0,0.0,-300.0,0.0
1513267101682159217,,702416,,1513267099,865445376,'',0.13962634016,0.142179204197,0.00285276175847,0.00255286403751,0.001,16.2035819577,-6000.0,0.0,-300.0,0.0
1513267101692107017,,702417,,1513267099,875445376,'',0.13962634016,0.142204751654,0.00233685850776,0.00257841149462,0.001,16.1724083806,-6000.0,0.0,-300.0,0.0
1513267101701994513,,702418,,1513267099,885445376,'',0.13962634016,0.142161718718,-0.0145366791396,0.00253537855806,0.001,10.9292782766,-6000.0,0.0,-300.0,0.0
1513267101711925575,,702419,,1513267099,895445376,'',0.13962634016,0.142190503939,0.00262965097566,0.00256416377954,0.001,16.1742942379,-6000.0,0.0,-300.0,0.0
1513267101722327023,,702420,,1513267099,905445376,'',0.13962634016,0.142214075917,0.0021527199012,0.00258773575754,0.001,16.1744347325,-6000.0,0.0,-300.0,0.0
1513267101732143866,,702421,,1513267099,915445376,'',0.13962634016,0.142217227104,0.00208462774313,0.00259088694453,0.001,16.1735464484,-6000.0,0.0,-300.0,0.0
1513267101742245100,,702422,,1513267099,925445376,'',0.13962634016,0.1422042102,0.00233805822622,0.00257787004064,0.001,16.1603989492,-6000.0,0.0,-300.0,0.0
1513267101751990635,,702423,,1513267099,935445376,'',0.13962634016,0.142192095445,0.00258625989024,0.00256575528557,0.001,16.1803613612,-6000.0,0.0,-300.0,0.0
1513267101761900299,,702424,,1513267099,945445376,'',0.13962634016,0.142182106477,-0.0149579029154,0.00255576631777,0.001,10.8492873766,-6000.0,0.0,-300.0,0.0
1513267101772303797,,702425,,1513267099,955445376,'',0.13962634016,0.14215579762,-0.0144250377103,0.00252945746027,0.001,10.8425303069,-6000.0,0.0,-300.0,0.0
1513267101781846810,,702426,,1513267099,965445376,'',0.13962634016,0.142155024386,0.00333090181675,0.00252868422615,0.001,16.1797852353,-6000.0,0.0,-300.0,0.0
1513267101792282129,,702427,,1513267099,975445376,'',0.13962634016,0.142122884361,-0.0137592601248,0.00249654420149,0.001,10.9184160143,-6000.0,0.0,-300.0,0.0
1513267101802314707,,702428,,1513267099,985445376,'',0.13962634016,0.142143208779,0.00357599048345,0.00251686861938,0.001,16.1811145428,-6000.0,0.0,-300.0,0.0
1513267101812266667,,702429,,1513267099,995445376,'',0.13962634016,0.142110485639,-0.0135027150996,0.00248414547992,0.001,10.8448004697,-6000.0,0.0,-300.0,0.0
1513267101822247620,,702430,,1513267100,5445376,'',0.13962634016,0.142131415729,0.00382259646492,0.00250507556938,0.001,16.177233587,-6000.0,0.0,-300.0,0.0
1513267101832209963,,702431,,1513267100,15445376,'',0.13962634016,0.142133416331,0.00378207113944,0.00250707617144,0.001,16.1795589766,-6000.0,0.0,-300.0,0.0
1513267101842139910,,702432,,1513267100,25445376,'',0.13962634016,0.142104732696,0.00436875035692,0.00247839253644,0.001,16.1553790642,-6000.0,0.0,-300.0,0.0
1513267101851944851,,702433,,1513267100,35445376,'',0.13962634016,0.142110269845,0.00425467998457,0.00248392968583,0.001,16.1801588051,-6000.0,0.0,-300.0,0.0
1513267101861985427,,702434,,1513267100,45445376,'',0.13962634016,0.142098606602,-0.0132597040707,0.00247226644268,0.001,10.833209562,-6000.0,0.0,-300.0,0.0
1513267101871864904,,702435,,1513267100,55445376,'',0.13962634016,0.142106244689,0.00433671021103,0.00247990452979,0.001,16.1829543379,-6000.0,0.0,-300.0,0.0
1513267101881829661,,702436,,1513267100,65445376,'',0.13962634016,0.142096684095,-0.0132117987147,0.00247034393498,0.001,10.9174637004,-6000.0,0.0,-300.0,0.0
1513267101892259063,,702437,,1513267100,75445376,'',0.13962634016,0.142088904473,0.00469180441914,0.00246256431299,0.001,16.1857761855,-6000.0,0.0,-300.0,0.0
1513267101902129546,,702438,,1513267100,85445376,'',0.13962634016,0.142083911393,0.00479111369994,0.00245757123345,0.001,16.183466458,-6000.0,0.0,-300.0,0.0
1513267101911999048,,702439,,1513267100,95445376,'',0.13962634016,0.142111035896,0.004241406616,0.00248469573682,0.001,16.1801028119,-6000.0,0.0,-300.0,0.0
1513267101921928067,,702440,,1513267100,105445376,'',0.13962634016,0.142133655411,0.00378270951322,0.00250731525109,0.001,16.2081764973,-6000.0,0.0,-300.0,0.0
1513267101932349591,,702441,,1513267100,115445376,'',0.13962634016,0.142120184217,0.0040523969473,0.0024938440577,0.001,16.1510861455,-6000.0,0.0,-300.0,0.0
1513267101942388259,,702442,,1513267100,125445376,'',0.13962634016,0.142141059428,0.00363386533973,0.00251471926837,0.001,16.1802649794,-6000.0,0.0,-300.0,0.0
1513267101952466045,,702443,,1513267100,135445376,'',0.13962634016,0.142140982843,0.00363014645844,0.00251464268298,0.001,16.1810575023,-6000.0,0.0,-300.0,0.0
1513267101962258196,,702444,,1513267100,145445376,'',0.13962634016,0.142110786981,0.00423866681737,0.0024844468218,0.001,16.1837934693,-6000.0,0.0,-300.0,0.0
1513267101972327346,,702445,,1513267100,155445376,'',0.13962634016,0.142116845431,-0.0136282797568,0.00249050527125,0.001,10.8413806266,-6000.0,0.0,-300.0,0.0
1513267101982190822,,702446,,1513267100,165445376,'',0.13962634016,0.142153697102,0.00337461623812,0.00252735694278,0.001,16.1575159758,-6000.0,0.0,-300.0,0.0
1513267101992134667,,702447,,1513267100,175445376,'',0.13962634016,0.142121333198,0.0040375153223,0.00249499303889,0.001,16.1282193247,-6000.0,0.0,-300.0,0.0
1513267102002055629,,702448,,1513267100,185445376,'',0.13962634016,0.142157441116,0.00330543369443,0.0025311009562,0.001,16.1817078862,-6000.0,0.0,-300.0,0.0
1513267102011947124,,702449,,1513267100,195445376,'',0.13962634016,0.142139257424,0.0036682119809,0.00251291726466,0.001,16.1812138379,-6000.0,0.0,-300.0,0.0
1513267102021921990,,702450,,1513267100,205445376,'',0.13962634016,0.142139136277,-0.0140791248363,0.00251279611756,0.001,10.8345659797,-6000.0,0.0,-300.0,0.0
1513267102032314243,,702451,,1513267100,215445376,'',0.13962634016,0.142109209159,0.00427063334279,0.00248286899959,0.001,16.1827030422,-6000.0,0.0,-300.0,0.0
1513267102042269056,,702452,,1513267100,225445376,'',0.13962634016,0.142147435389,0.00349790030984,0.00252109522903,0.001,16.158252496,-6000.0,0.0,-300.0,0.0
1513267102052164586,,702453,,1513267100,235445376,'',0.13962634016,0.142131230026,-0.0139180598409,0.00250488986683,0.001,10.9237474099,-6000.0,0.0,-300.0,0.0
1513267102061985559,,702454,,1513267100,245445376,'',0.13962634016,0.142149078322,0.0034689155073,0.00252273816281,0.001,16.1783227577,-6000.0,0.0,-300.0,0.0
1513267102071904589,,702455,,1513267100,255445376,'',0.13962634016,0.142149788176,0.00345474906746,0.00252344801647,0.001,16.1802596744,-6000.0,0.0,-300.0,0.0
1513267102081848653,,702456,,1513267100,265445376,'',0.13962634016,0.14213214049,0.00381464583317,0.00250580033093,0.001,16.1818586844,-6000.0,0.0,-300.0,0.0
1513267102092288651,,702457,,1513267100,275445376,'',0.13962634016,0.142101980344,0.00442548734108,0.00247564018447,0.001,16.1536651583,-6000.0,0.0,-300.0,0.0
1513267102102224256,,702458,,1513267100,285445376,'',0.13962634016,0.142111444628,0.00422797579708,0.00248510446818,0.001,16.1849542434,-6000.0,0.0,-300.0,0.0
1513267102112069225,,702459,,1513267100,295445376,'',0.13962634016,0.142116421473,0.00412296346652,0.00249008131296,0.001,16.183282943,-6000.0,0.0,-300.0,0.0
1513267102122027117,,702460,,1513267100,305445376,'',0.13962634016,0.142105318704,0.00435018515929,0.00247897854475,0.001,16.1842889354,-6000.0,0.0,-300.0,0.0
1513267102131996553,,702461,,1513267100,315445376,'',0.13962634016,0.142098151974,0.00449414137673,0.00247181181468,0.001,16.1865607574,-6000.0,0.0,-300.0,0.0
1513267102142251623,,702462,,1513267100,325445376,'',0.13962634016,0.142091393798,-0.0131162152341,0.00246505363849,0.001,10.8424045485,-6000.0,0.0,-300.0,0.0
1513267102152201134,,702463,,1513267100,335445376,'',0.13962634016,0.142115477831,-0.0136028916799,0.00248913767165,0.001,10.8405035682,-6000.0,0.0,-300.0,0.0
1513267102162106734,,702464,,1513267100,345445376,'',0.13962634016,0.142120427912,0.00404857909123,0.00249408775241,0.001,16.1522701325,-6000.0,0.0,-300.0,0.0
1513267102172151738,,702465,,1513267100,355445376,'',0.13962634016,0.142123393577,0.00398735475751,0.00249705341768,0.001,16.1573435608,-6000.0,0.0,-300.0,0.0
1513267102182190222,,702466,,1513267100,365445376,'',0.13962634016,0.142159127907,0.00326436823516,0.00253278774744,0.001,16.1775295325,-6000.0,0.0,-300.0,0.0
