rosbagTimestamp,header,seq,stamp,secs,nsecs,frame_id,set_point,process_value,process_value_dot,error,time_step,command,p,i,d,i_clamp
1513265720979977738,,564349,,1513265719,190063616,'',0.488692190558,0.451783183652,1.71703475818e-05,-0.0369090069068,0.001,221.448580389,6000.0,0.0,300.0,0.0
1513265720989824960,,564350,,1513265719,200063616,'',0.488692190558,0.451783346123,1.40620510062e-05,-0.0369088444359,0.001,221.448701414,6000.0,0.0,300.0,0.0
1513265720999703678,,564351,,1513265719,210063616,'',0.488692190558,0.451769400016,0.000295271644374,-0.0369227905424,0.001,221.447583378,6000.0,0.0,300.0,0.0
1513265721009549958,,564352,,1513265719,220063616,'',0.488692190558,0.45177280468,0.0147741308893,-0.0369193858788,0.001,217.067600023,6000.0,0.0,300.0,0.0
1513265721019469608,,564353,,1513265719,230063616,'',0.488692190558,0.451774846333,0.000180172827974,-0.0369173442254,0.001,221.449059496,6000.0,0.0,300.0,0.0
1513265721029419284,,564354,,1513265719,240063616,'',0.488692190558,0.451790845269,0.014414750895,-0.0369013452897,0.001,217.064856878,6000.0,0.0,300.0,0.0
1513265721039547869,,564355,,1513265719,250063616,'',0.488692190558,0.451789614919,-0.00011667207062,-0.0369025756394,0.001,221.449295181,6000.0,0.0,300.0,0.0
1513265721049901648,,564356,,1513265719,260063616,'',0.488692190558,0.451788615708,-9.56050540151e-05,-0.0369035748508,0.001,221.4491269,6000.0,0.0,300.0,0.0
1513265721059847200,,564357,,1513265719,270063616,'',0.488692190558,0.451801367126,-0.000353384604498,-0.0368908234326,0.001,221.450348856,6000.0,0.0,300.0,0.0
1513265721069884271,,564358,,1513265719,280063616,'',0.488692190558,0.451798237964,-0.000289413828413,-0.0368939525941,0.001,221.448038635,6000.0,0.0,300.0,0.0
1513265721079836663,,564359,,1513265719,290063616,'',0.488692190558,0.451809433125,-0.000517498367107,-0.0368827574335,0.001,221.450509526,6000.0,0.0,300.0,0.0
1513265721089674231,,564360,,1513265719,300063616,'',0.488692190558,0.451791303234,-0.00014820723453,-0.0369008873248,0.001,221.449268679,6000.0,0.0,300.0,0.0
1513265721099591006,,564361,,1513265719,310063616,'',0.488692190558,0.451789995531,-0.000121371356585,-0.0369021950277,0.001,221.448501898,6000.0,0.0,300.0,0.0
1513265721109579065,,564362,,1513265719,320063616,'',0.488692190558,0.451788922651,-9.9354372332e-05,-0.0369032679076,0.001,221.448501683,6000.0,0.0,300.0,0.0
1513265721119522506,,564363,,1513265719,330063616,'',0.488692190558,0.451813476529,-0.000595083748183,-0.0368787140291,0.001,221.443600474,6000.0,0.0,300.0,0.0
1513265721129935701,,564364,,1513265719,340063616,'',0.488692190558,0.451820300463,-0.000736108410247,-0.036871890095,0.001,221.451726751,6000.0,0.0,300.0,0.0
1513265721139941942,,564365,,1513265719,350063616,'',0.488692190558,0.451813732052,-0.000602614363522,-0.0368784585067,0.001,221.450607378,6000.0,0.0,300.0,0.0
1513265721149902728,,564366,,1513265719,360063616,'',0.488692190558,0.451808363511,-0.000493506064772,-0.0368838270475,0.001,221.447915574,6000.0,0.0,300.0,0.0
1513265721159791678,,564367,,1513265719,370063616,'',0.488692190558,0.451803959499,-0.000404000506846,-0.0368882310593,0.001,221.450486607,6000.0,0.0,300.0,0.0
1513265721169817467,,564368,,1513265719,380063616,'',0.488692190558,0.451800360437,-0.000330854461946,-0.0368918301212,0.001,221.44813601,6000.0,0.0,300.0,0.0
1513265721179735368,,564369,,1513265719,390063616,'',0.488692190558,0.451785258267,-2.45802625503e-05,-0.0369069322915,0.001,221.448756252,6000.0,0.0,300.0,0.0
1513265721189637063,,564370,,1513265719,400063616,'',0.488692190558,0.451785044795,-2.01226056729e-05,-0.0369071457634,0.001,221.448738156,6000.0,0.0,300.0,0.0
1513265721199576301,,564371,,1513265719,410063616,'',0.488692190558,0.451798488779,-0.000275872244873,-0.0368937017792,0.001,221.447943612,6000.0,0.0,300.0,0.0
1513265721209568537,,564372,,1513265719,420063616,'',0.488692190558,0.451795874984,-0.000225824211923,-0.0368963155747,0.001,221.449948862,6000.0,0.0,300.0,0.0
1513265721219550633,,564373,,1513265719,430063616,'',0.488692190558,0.451806954368,-0.00045447632486,-0.0368852361909,0.001,221.450862491,6000.0,0.0,300.0,0.0
1513265721229452916,,564374,,1513265719,440063616,'',0.488692190558,0.45180281334,-0.00037219673835,-0.0368893772188,0.001,221.450381084,6000.0,0.0,300.0,0.0
1513265721239971482,,564375,,1513265719,450063616,'',0.488692190558,0.451799415652,-0.000304686839059,-0.0368927749069,0.001,221.450135414,6000.0,0.0,300.0,0.0
1513265721249638384,,564376,,1513265719,460063616,'',0.488692190558,0.451796639992,-0.000249536242847,-0.0368955505669,0.001,221.448181664,6000.0,0.0,300.0,0.0
1513265721259497200,,564377,,1513265719,470063616,'',0.488692190558,0.451807597503,-0.000472755130836,-0.0368845930554,0.001,221.450787223,6000.0,0.0,300.0,0.0
1513265721269485416,,564378,,1513265719,480063616,'',0.488692190558,0.451803333154,-0.000387027864623,-0.0368888574045,0.001,221.450288446,6000.0,0.0,300.0,0.0
1513265721279913176,,564379,,1513265719,490063616,'',0.488692190558,0.451799840204,-0.000316808222404,-0.0368923503547,0.001,221.450176361,6000.0,0.0,300.0,0.0
1513265721289841890,,564380,,1513265719,500063616,'',0.488692190558,0.451796988435,-0.000259478412216,-0.0368952021233,0.001,221.448017845,6000.0,0.0,300.0,0.0
1513265721299836683,,564381,,1513265719,510063616,'',0.488692190558,0.451794646425,-0.000212396403776,-0.0368975441333,0.001,221.449814234,6000.0,0.0,300.0,0.0
1513265721309807016,,564382,,1513265719,520063616,'',0.488692190558,0.451790401753,-0.0146830427905,-0.0369017888053,0.001,225.824017483,6000.0,0.0,300.0,0.0
1513265721319846673,,564383,,1513265719,530063616,'',0.488692190558,0.451789257355,-0.000103152397624,-0.0369029332031,0.001,221.448498534,6000.0,0.0,300.0,0.0
1513265721329782748,,564384,,1513265719,540063616,'',0.488692190558,0.451775355515,0.000177532611685,-0.0369168350436,0.001,221.448069623,6000.0,0.0,300.0,0.0
1513265721339635798,,564385,,1513265719,550063616,'',0.488692190558,0.451776938462,0.000145325794962,-0.0369152520959,0.001,221.448009289,6000.0,0.0,300.0,0.0
1513265721349711855,,564386,,1513265719,560063616,'',0.488692190558,0.451778252712,0.000113798892229,-0.0369139378469,0.001,221.448876821,6000.0,0.0,300.0,0.0
1513265721359711546,,564387,,1513265719,570063616,'',0.488692190558,0.451779309909,9.31573435644e-05,-0.0369128806491,0.001,221.448161483,6000.0,0.0,300.0,0.0
1513265721369648800,,564388,,1513265719,580063616,'',0.488692190558,0.451780175011,7.62664327009e-05,-0.0369120155477,0.001,221.448302544,6000.0,0.0,300.0,0.0
1513265721379593248,,564389,,1513265719,590063616,'',0.488692190558,0.451767097715,0.000340840739856,-0.0369250928432,0.001,221.447216797,6000.0,0.0,300.0,0.0
1513265721389595900,,564390,,1513265719,600063616,'',0.488692190558,0.451770172639,0.000279130044848,-0.0369220179192,0.001,221.449263466,6000.0,0.0,300.0,0.0
1513265721399591265,,564391,,1513265719,610063616,'',0.488692190558,0.451772694745,0.000228513871481,-0.0369194958136,0.001,221.447624777,6000.0,0.0,300.0,0.0
1513265721409662258,,564392,,1513265719,620063616,'',0.488692190558,0.451774759681,0.000187072636722,-0.0369174308774,0.001,221.447811875,6000.0,0.0,300.0,0.0
1513265721419946183,,564393,,1513265719,630063616,'',0.488692190558,0.45177645043,0.000153140972191,-0.0369157401285,0.001,221.44796507,6000.0,0.0,300.0,0.0
1513265721429856063,,564394,,1513265719,640063616,'',0.488692190558,0.451791390575,-0.00014756068777,-0.0369007999834,0.001,221.448294815,6000.0,0.0,300.0,0.0
1513265721439742058,,564395,,1513265719,650063616,'',0.488692190558,0.451790063918,-0.000120778512553,-0.0369021266402,0.001,221.449277143,6000.0,0.0,300.0,0.0
1513265721449827047,,564396,,1513265719,660063616,'',0.488692190558,0.451788979614,-9.88888739329e-05,-0.0369032109448,0.001,221.448985917,6000.0,0.0,300.0,0.0
1513265721459790174,,564397,,1513265719,670063616,'',0.488692190558,0.45178809305,-8.09911792515e-05,-0.0369040975083,0.001,221.448481381,6000.0,0.0,300.0,0.0
1513265721469701880,,564398,,1513265719,680063616,'',0.488692190558,0.451787365487,-6.63033423557e-05,-0.0369048250712,0.001,221.44843168,6000.0,0.0,300.0,0.0
1513265721479538852,,564399,,1513265719,690063616,'',0.488692190558,0.451798976807,-0.000300766821703,-0.0368932137513,0.001,221.4498322,6000.0,0.0,300.0,0.0
1513265721489624776,,564400,,1513265719,700063616,'',0.488692190558,0.451810582208,0.0140212118815,-0.0368816083501,0.001,217.071594806,6000.0,0.0,300.0,0.0
1513265721499484088,,564401,,1513265719,710063616,'',0.488692190558,0.451793852974,-0.000194553879745,-0.0368983375843,0.001,221.448529401,6000.0,0.0,300.0,0.0
1513265721509412480,,564402,,1513265719,720063616,'',0.488692190558,0.451792081453,-0.000159283477675,-0.0369001091052,0.001,221.448307318,6000.0,0.0,300.0,0.0
1513265721519757598,,564403,,1513265719,730063616,'',0.488692190558,0.451803630609,-0.000392498099388,-0.0368885599494,0.001,221.450456327,6000.0,0.0,300.0,0.0
1513265721529778789,,564404,,1513265719,740063616,'',0.488692190558,0.451786349152,-4.08767116115e-05,-0.0369058414062,0.001,221.448835485,6000.0,0.0,300.0,0.0
1513265721539750210,,564405,,1513265719,750063616,'',0.488692190558,0.451785937882,-3.34643145593e-05,-0.0369062526759,0.001,221.448792183,6000.0,0.0,300.0,0.0
1513265721549766769,,564406,,1513265719,760063616,'',0.488692190558,0.451812321187,-0.000559067599458,-0.0368798693715,0.001,221.447794819,6000.0,0.0,300.0,0.0
1513265721559703326,,564407,,1513265719,770063616,'',0.488692190558,0.451807198944,-0.00045766263416,-0.0368849916148,0.001,221.451054792,6000.0,0.0,300.0,0.0
1513265721569650992,,564408,,1513265719,780063616,'',0.488692190558,0.451816098421,-0.000637348105067,-0.0368760921369,0.001,221.451744395,6000.0,0.0,300.0,0.0
1513265721579628705,,564409,,1513265719,790063616,'',0.488692190558,0.451810304056,-0.000522003244646,-0.0368818865027,0.001,221.447359018,6000.0,0.0,300.0,0.0
1513265721589569944,,564410,,1513265719,800063616,'',0.488692190558,0.451819623193,-0.000708063805814,-0.0368725673653,0.001,221.446638673,6000.0,0.0,300.0,0.0
1513265721599598746,,564411,,1513265719,810063616,'',0.488692190558,0.451813176911,-0.000579641858165,-0.036879013647,0.001,221.450953031,6000.0,0.0,300.0,0.0
1513265721609461576,,564412,,1513265719,820063616,'',0.488692190558,0.451819848262,-0.000718574552334,-0.0368723422961,0.001,221.452367079,6000.0,0.0,300.0,0.0
1513265721619405029,,564413,,1513265719,830063616,'',0.488692190558,0.45181337303,-0.000588484735772,-0.0368788175289,0.001,221.451481542,6000.0,0.0,300.0,0.0
1513265721629938251,,564414,,1513265719,840063616,'',0.488692190558,0.451835871955,0.0135099657052,-0.0368563186038,0.001,217.072577995,6000.0,0.0,300.0,0.0
1513265721639919998,,564415,,1513265719,850063616,'',0.488692190558,0.451840514291,-0.00114155508358,-0.0368516762672,0.001,221.455170026,6000.0,0.0,300.0,0.0
1513265721649872783,,564416,,1513265719,860063616,'',0.488692190558,0.451842853868,-0.00118666377981,-0.0368493366904,0.001,221.440004685,6000.0,0.0,300.0,0.0
1513265721659748608,,564417,,1513265719,870063616,'',0.488692190558,0.451832196519,-0.000971484197107,-0.036859994039,0.001,221.442977041,6000.0,0.0,300.0,0.0
1513265721669666217,,564418,,1513265719,880063616,'',0.488692190558,0.451823469055,-0.000795270369904,-0.0368687215036,0.001,221.451535457,6000.0,0.0,300.0,0.0
1513265721679623461,,564419,,1513265719,890063616,'',0.488692190558,0.451816320942,-0.000650944800282,-0.0368758696163,0.001,221.452754094,6000.0,0.0,300.0,0.0
1513265721689637915,,564420,,1513265719,900063616,'',0.488692190558,0.451810931891,-0.000540562231112,-0.0368812586672,0.001,221.450775829,6000.0,0.0,300.0,0.0
1513265721699597142,,564421,,1513265719,910063616,'',0.488692190558,0.45180606248,-0.000442530692912,-0.0368861280784,0.001,221.450263155,6000.0,0.0,300.0,0.0
1513265721709555387,,564422,,1513265719,920063616,'',0.488692190558,0.451802066019,-0.000362073494475,-0.036890124539,0.001,221.452727811,6000.0,0.0,300.0,0.0
1513265721719514659,,564423,,1513265719,930063616,'',0.488692190558,0.451810738459,-0.000540649743979,-0.0368814520993,0.001,221.450916187,6000.0,0.0,300.0,0.0
1513265721729614069,,564424,,1513265719,940063616,'',0.488692190558,0.451805903191,-0.000442583341205,-0.0368862873679,0.001,221.450633706,6000.0,0.0,300.0,0.0
1513265721739502083,,564425,,1513265719,950063616,'',0.488692190558,0.451801944717,-0.000362299647835,-0.036890245841,0.001,221.450718296,6000.0,0.0,300.0,0.0
1513265721749914142,,564426,,1513265719,960063616,'',0.488692190558,0.45179870514,-0.000296596219585,-0.0368934854186,0.001,221.44970404,6000.0,0.0,300.0,0.0
1513265721759740085,,564427,,1513265719,970063616,'',0.488692190558,0.451796058088,-0.000242910085997,-0.0368961324706,0.001,221.449881518,6000.0,0.0,300.0,0.0
1513265721769743584,,564428,,1513265719,980063616,'',0.488692190558,0.451793278579,-0.0147470305515,-0.0368989119789,0.001,225.735842916,6000.0,0.0,300.0,0.0
1513265721779577764,,564429,,1513265719,990063616,'',0.488692190558,0.451791597558,-0.000155485486516,-0.0369005930006,0.001,221.453477149,6000.0,0.0,300.0,0.0
1513265721789504687,,564430,,1513265720,63616,'',0.488692190558,0.451802986387,-0.000384639880333,-0.0368892041715,0.001,221.450369422,6000.0,0.0,300.0,0.0
1513265721799648174,,564431,,1513265720,10063616,'',0.488692190558,0.451786599228,-5.07664747109e-05,-0.0369055913304,0.001,221.448869924,6000.0,0.0,300.0,0.0
1513265721809458082,,564432,,1513265720,20063616,'',0.488692190558,0.451786142493,-4.15583349236e-05,-0.0369060480658,0.001,221.448855276,6000.0,0.0,300.0,0.0
1513265721819877423,,564433,,1513265720,30063616,'',0.488692190558,0.451785768625,-3.40208753499e-05,-0.0369064219332,0.001,221.44881183,6000.0,0.0,300.0,0.0
1513265721829861292,,564434,,1513265720,40063616,'',0.488692190558,0.451799504244,0.014242241779,-0.0368926863141,0.001,217.152022113,6000.0,0.0,300.0,0.0
1513265721839741542,,564435,,1513265720,50063616,'',0.488692190558,0.451796707731,-0.00025786963277,-0.0368954828276,0.001,221.449966396,6000.0,0.0,300.0,0.0
1513265721849715769,,564436,,1513265720,60063616,'',0.488692190558,0.451794417886,-0.000211104699335,-0.0368977726721,0.001,221.449668489,6000.0,0.0,300.0,0.0
1513265721859701271,,564437,,1513265720,70063616,'',0.488692190558,0.451792542823,-0.000172810747954,-0.036899647735,0.001,221.449534314,6000.0,0.0,300.0,0.0
1513265721869637259,,564438,,1513265720,80063616,'',0.488692190558,0.451791010932,-0.00014152531149,-0.0369011796261,0.001,221.448394478,6000.0,0.0,300.0,0.0
1513265721879559219,,564439,,1513265720,90063616,'',0.488692190558,0.451789754425,-0.000115863964808,-0.0369024361337,0.001,221.449170509,6000.0,0.0,300.0,0.0
1513265721889491145,,564440,,1513265720,100063616,'',0.488692190558,0.451788725393,-9.48482927459e-05,-0.0369034651658,0.001,221.449077271,6000.0,0.0,300.0,0.0
1513265721899543348,,564441,,1513265720,110063616,'',0.488692190558,0.451787884659,-7.76781905019e-05,-0.0369043058997,0.001,221.448518221,6000.0,0.0,300.0,0.0
1513265721909646699,,564442,,1513265720,120063616,'',0.488692190558,0.451787194828,-6.35899547621e-05,-0.03690499573,0.001,221.448502411,6000.0,0.0,300.0,0.0
1513265721919468655,,564443,,1513265720,130063616,'',0.488692190558,0.451798664934,-0.00029424075324,-0.0368935256249,0.001,221.450084297,6000.0,0.0,300.0,0.0
1513265721929914398,,564444,,1513265720,140063616,'',0.488692190558,0.451808515002,-0.000492825404308,-0.0368836755566,0.001,221.446841576,6000.0,0.0,300.0,0.0
1513265721939943226,,564445,,1513265720,150063616,'',0.488692190558,0.45181843374,0.0138635562973,-0.0368737568188,0.001,217.059183209,6000.0,0.0,300.0,0.0
1513265721949811493,,564446,,1513265720,160063616,'',0.488692190558,0.451812199838,-0.00056756100041,-0.0368799907209,0.001,221.451573603,6000.0,0.0,300.0,0.0
1513265721959873601,,564447,,1513265720,170063616,'',0.488692190558,0.45180710191,-0.000464662009512,-0.0368850886485,0.001,221.45060792,6000.0,0.0,300.0,0.0
1513265721969835115,,564448,,1513265720,180063616,'',0.488692190558,0.451789161875,-0.000108466089081,-0.0369030286838,0.001,221.449339304,6000.0,0.0,300.0,0.0
1513265721979779707,,564449,,1513265720,190063616,'',0.488692190558,0.451788241154,-8.88100450596e-05,-0.0369039494048,0.001,221.448984823,6000.0,0.0,300.0,0.0
1513265721989800594,,564450,,1513265720,200063616,'',0.488692190558,0.451787486456,-7.26983551592e-05,-0.0369047041025,0.001,221.448965015,6000.0,0.0,300.0,0.0
1513265721999689887,,564451,,1513265720,210063616,'',0.488692190558,0.45178687007,-5.95394092624e-05,-0.0369053204889,0.001,221.448571374,6000.0,0.0,300.0,0.0
1513265722009536957,,564452,,1513265720,220063616,'',0.488692190558,0.451786364252,-4.87409441066e-05,-0.0369058263065,0.001,221.448879996,6000.0,0.0,300.0,0.0
1513265722019485362,,564453,,1513265720,230063616,'',0.488692190558,0.451785950173,-3.99009607558e-05,-0.0369062403857,0.001,221.448814904,6000.0,0.0,300.0,0.0
1513265722029959051,,564454,,1513265720,240063616,'',0.488692190558,0.451799375728,-0.000311306771863,-0.0368928148302,0.001,221.44825675,6000.0,0.0,300.0,0.0
1513265722039896844,,564455,,1513265720,250063616,'',0.488692190558,0.451809773962,-0.000521905848252,-0.036882416596,0.001,221.450684432,6000.0,0.0,300.0,0.0
1513265722049895090,,564456,,1513265720,260063616,'',0.488692190558,0.451805113239,-0.000427231180637,-0.0368870773193,0.001,221.450439342,6000.0,0.0,300.0,0.0
1513265722059742879,,564457,,1513265720,270063616,'',0.488692190558,0.451801305616,-0.000349885794917,-0.0368908849424,0.001,221.448105792,6000.0,0.0,300.0,0.0
1513265722069664317,,564458,,1513265720,280063616,'',0.488692190558,0.451823290822,-0.000794219521894,-0.0368688997365,0.001,221.452953149,6000.0,0.0,300.0,0.0
1513265722079849651,,564459,,1513265720,290063616,'',0.488692190558,0.451804037343,-0.000404383460022,-0.0368881532151,0.001,221.450464647,6000.0,0.0,300.0,0.0
1513265722089790010,,564460,,1513265720,300063616,'',0.488692190558,0.451800424733,-0.000331179133899,-0.0368917658255,0.001,221.448157799,6000.0,0.0,300.0,0.0
1513265722099741818,,564461,,1513265720,310063616,'',0.488692190558,0.451797460551,-0.00027111427296,-0.0368947300075,0.001,221.449556306,6000.0,0.0,300.0,0.0
1513265722109680552,,564462,,1513265720,320063616,'',0.488692190558,0.451795034182,-0.000221947409875,-0.0368971563767,0.001,221.447986706,6000.0,0.0,300.0,0.0
1513265722119532994,,564463,,1513265720,330063616,'',0.488692190558,0.451793048008,-0.000181700475573,-0.0368991425502,0.001,221.449416582,6000.0,0.0,300.0,0.0
1513265722129556003,,564464,,1513265720,340063616,'',0.488692190558,0.451804641028,-0.000418799387451,-0.0368875495305,0.001,221.450519345,6000.0,0.0,300.0,0.0
1513265722139539882,,564465,,1513265720,350063616,'',0.488692190558,0.451800919215,-0.000342987024665,-0.0368912713439,0.001,221.448216411,6000.0,0.0,300.0,0.0
1513265722149545689,,564466,,1513265720,360063616,'',0.488692190558,0.45179786535,-0.000280780605747,-0.0368943252083,0.001,221.447713041,6000.0,0.0,300.0,0.0
1513265722159481603,,564467,,1513265720,370063616,'',0.488692190558,0.45179536557,-0.000229860742883,-0.0368968249883,0.001,221.44961304,6000.0,0.0,300.0,0.0
1513265722170006174,,564468,,1513265720,380063616,'',0.488692190558,0.451806266857,-0.000447098577928,-0.0368859237016,0.001,221.450537133,6000.0,0.0,300.0,0.0
1513265722179874917,,564469,,1513265720,390063616,'',0.488692190558,0.451801988572,-0.000358365259597,-0.0368902019869,0.001,221.447430837,6000.0,0.0,300.0,0.0
1513265722189869054,,564470,,1513265720,400063616,'',0.488692190558,0.451798741041,-0.000293375336858,-0.0368934495174,0.001,221.445493662,6000.0,0.0,300.0,0.0
1513265722199829657,,564471,,1513265720,410063616,'',0.488692190558,0.451809841289,-0.000518430552972,-0.0368823492698,0.001,221.450990527,6000.0,0.0,300.0,0.0
1513265722209897091,,564472,,1513265720,420063616,'',0.488692190558,0.451805179818,-0.00042461706694,-0.0368870107402,0.001,221.447612554,6000.0,0.0,300.0,0.0
1513265722219790028,,564473,,1513265720,430063616,'',0.488692190558,0.451801344247,-0.00034742505606,-0.0368908463111,0.001,221.44757567,6000.0,0.0,300.0,0.0
1513265722229661367,,564474,,1513265720,440063616,'',0.488692190558,0.451811709549,-0.000557361726502,-0.0368804810089,0.001,221.447289478,6000.0,0.0,300.0,0.0
1513265722239578436,,564475,,1513265720,450063616,'',0.488692190558,0.451820433721,-0.000734449290093,-0.0368717568377,0.001,221.451950279,6000.0,0.0,300.0,0.0
1513265722249637695,,564476,,1513265720,460063616,'',0.488692190558,0.451826871263,-0.000862993811889,-0.0368653192957,0.001,221.451222089,6000.0,0.0,300.0,0.0
1513265722259462950,,564477,,1513265720,470063616,'',0.488692190558,0.451831576778,-0.000958440497767,-0.0368606137804,0.001,221.448038863,6000.0,0.0,300.0,0.0
1513265722269524591,,564478,,1513265720,480063616,'',0.488692190558,0.451822965063,-0.000784659962639,-0.0368692254951,0.001,221.451214873,6000.0,0.0,300.0,0.0
1513265722279483592,,564479,,1513265720,490063616,'',0.488692190558,0.451815914031,-0.000642373292192,-0.0368762765277,0.001,221.447267213,6000.0,0.0,300.0,0.0
1513265722289955987,,564480,,1513265720,500063616,'',0.488692190558,0.45181014943,-0.000526046244161,-0.0368820411282,0.001,221.448165352,6000.0,0.0,300.0,0.0
1513265722299817464,,564481,,1513265720,510063616,'',0.488692190558,0.451805422733,-0.000430663623906,-0.0368867678251,0.001,221.450340984,6000.0,0.0,300.0,0.0
1513265722309780164,,564482,,1513265720,520063616,'',0.488692190558,0.451801551081,-0.000352535418206,-0.0368906394775,0.001,221.450137381,6000.0,0.0,300.0,0.0
1513265722319560731,,564483,,1513265720,530063616,'',0.488692190558,0.451786392754,-4.91919653244e-05,-0.0369057978042,0.001,221.448923276,6000.0,0.0,300.0,0.0
1513265722329595723,,564484,,1513265720,540063616,'',0.488692190558,0.451785974453,-4.02903492344e-05,-0.036906216105,0.001,221.448816963,6000.0,0.0,300.0,0.0
1513265722339570132,,564485,,1513265720,550063616,'',0.488692190558,0.451811295294,-0.000549403332732,-0.0368808952648,0.001,221.45112227,6000.0,0.0,300.0,0.0
1513265722349447550,,564486,,1513265720,560063616,'',0.488692190558,0.451806360404,-0.000449777030041,-0.0368858301544,0.001,221.443200145,6000.0,0.0,300.0,0.0
1513265722359925259,,564487,,1513265720,570063616,'',0.488692190558,0.451802327692,-0.000368364024327,-0.0368898628666,0.001,221.44786015,6000.0,0.0,300.0,0.0
1513265722369850577,,564488,,1513265720,580063616,'',0.488692190558,0.451812269383,-0.00056922745631,-0.0368799211754,0.001,221.450552279,6000.0,0.0,300.0,0.0
1513265722379887348,,564489,,1513265720,590063616,'',0.488692190558,0.451792819458,-0.014733108369,-0.0368993711004,0.001,225.838027882,6000.0,0.0,300.0,0.0
1513265722389875348,,564490,,1513265720,600063616,'',0.488692190558,0.451791237315,-0.000144039116615,-0.0369009532437,0.001,221.448218879,6000.0,0.0,300.0,0.0
1513265722399739509,,564491,,1513265720,610063616,'',0.488692190558,0.451789939536,-0.000117917468912,-0.0369022510224,0.001,221.44916163,6000.0,0.0,300.0,0.0
1513265722409573768,,564492,,1513265720,620063616,'',0.488692190558,0.451788876837,-9.65274864262e-05,-0.0369033137219,0.001,221.449062995,6000.0,0.0,300.0,0.0
1513265722419549969,,564493,,1513265720,630063616,'',0.488692190558,0.451801234271,-0.000348939683842,-0.0368909562871,0.001,221.44790787,6000.0,0.0,300.0,0.0
1513265722429525414,,564494,,1513265720,640063616,'',0.488692190558,0.451823325767,-0.000792084830442,-0.0368688647916,0.001,221.446199464,6000.0,0.0,300.0,0.0
1513265722439498329,,564495,,1513265720,650063616,'',0.488692190558,0.451816205496,-0.000648374471356,-0.0368759850623,0.001,221.451942276,6000.0,0.0,300.0,0.0
1513265722449972077,,564496,,1513265720,660063616,'',0.488692190558,0.45182238814,-0.000772175533168,-0.036869802418,0.001,221.453972576,6000.0,0.0,300.0,0.0
1513265722459405753,,564497,,1513265720,670063616,'',0.488692190558,0.451815459225,-0.000632505508475,-0.0368767313331,0.001,221.447287062,6000.0,0.0,300.0,0.0
1513265722469964660,,564498,,1513265720,680063616,'',0.488692190558,0.45182219185,-0.000766769685268,-0.0368699987082,0.001,221.448383324,6000.0,0.0,300.0,0.0
1513265722479992510,,564499,,1513265720,690063616,'',0.488692190558,0.451800974765,-0.0148952049901,-0.036891215793,0.001,225.830156282,6000.0,0.0,300.0,0.0
1513265722489937030,,564500,,1513265720,700063616,'',0.488692190558,0.451811440417,-0.00054921759718,-0.0368807501414,0.001,221.45129515,6000.0,0.0,300.0,0.0
1513265722499890337,,564501,,1513265720,710063616,'',0.488692190558,0.451792755684,-0.0147230010484,-0.0368994348749,0.001,225.646522989,6000.0,0.0,300.0,0.0
1513265722509910952,,564502,,1513265720,720063616,'',0.488692190558,0.4518100105,-0.000403818292965,-0.0368821800584,0.001,221.447373543,6000.0,0.0,300.0,0.0
1513265722519681387,,564503,,1513265720,730063616,'',0.488692190558,0.451805307779,-0.000330579108703,-0.0368868827791,0.001,221.450579758,6000.0,0.0,300.0,0.0
1513265722529579037,,564504,,1513265720,740063616,'',0.488692190558,0.451801456898,-0.000270606297256,-0.0368907336602,0.001,221.450459092,6000.0,0.0,300.0,0.0
1513265722539654203,,564505,,1513265720,750063616,'',0.488692190558,0.451798311214,-0.000221616079809,-0.0368938793439,0.001,221.450132747,6000.0,0.0,300.0,0.0
1513265722549623180,,564506,,1513265720,760063616,'',0.488692190558,0.451795729632,-0.000181411060744,-0.0368964609262,0.001,221.449643901,6000.0,0.0,300.0,0.0
1513265722559556978,,564507,,1513265720,770063616,'',0.488692190558,0.451793621761,-0.000148583512453,-0.0368985687977,0.001,221.448295772,6000.0,0.0,300.0,0.0
1513265722569456648,,564508,,1513265720,780063616,'',0.488692190558,0.451791891709,-0.000121640053787,-0.0369002988492,0.001,221.449170372,6000.0,0.0,300.0,0.0
1513265722579960839,,564509,,1513265720,790063616,'',0.488692190558,0.451790475011,-9.95767014389e-05,-0.0369017155469,0.001,221.449151812,6000.0,0.0,300.0,0.0
1513265722589792467,,564510,,1513265720,800063616,'',0.488692190558,0.451789882208,-8.99445099594e-05,-0.0369023083504,0.001,221.44914822,6000.0,0.0,300.0,0.0
1513265722599720667,,564511,,1513265720,810063616,'',0.488692190558,0.451788832173,-7.36638810829e-05,-0.0369033583858,0.001,221.448476849,6000.0,0.0,300.0,0.0
1513265722609743226,,564512,,1513265720,820063616,'',0.488692190558,0.45180148761,-0.000332990085236,-0.0368907029487,0.001,221.450233622,6000.0,0.0,300.0,0.0
1513265722619743268,,564513,,1513265720,830063616,'',0.488692190558,0.451798330657,-0.00027259677806,-0.0368938599011,0.001,221.449698011,6000.0,0.0,300.0,0.0
1513265722629859566,,564514,,1513265720,840063616,'',0.488692190558,0.451795750443,-0.000223236626036,-0.036896440115,0.001,221.448215294,6000.0,0.0,300.0,0.0
1513265722639785302,,564515,,1513265720,850063616,'',0.488692190558,0.451781450542,6.38546386796e-05,-0.0369107400163,0.001,221.448771274,6000.0,0.0,300.0,0.0
1513265722649776999,,564516,,1513265720,860063616,'',0.488692190558,0.451794915117,-0.000209666363732,-0.0368972754415,0.001,221.449511606,6000.0,0.0,300.0,0.0
1513265722659723348,,564517,,1513265720,870063616,'',0.488692190558,0.451792945756,-0.000171553955869,-0.0368992448021,0.001,221.450870317,6000.0,0.0,300.0,0.0
1513265722669619490,,564518,,1513265720,880063616,'',0.488692190558,0.451791344381,-0.000140563057145,-0.0369008461771,0.001,221.448392468,6000.0,0.0,300.0,0.0
1513265722679593226,,564519,,1513265720,890063616,'',0.488692190558,0.451790027186,-0.000115071796541,-0.0369021633724,0.001,221.44996778,6000.0,0.0,300.0,0.0
1513265722689520221,,564520,,1513265720,900063616,'',0.488692190558,0.45178894868,-9.41998097791e-05,-0.0369032418786,0.001,221.449097503,6000.0,0.0,300.0,0.0
1513265722700004437,,564521,,1513265720,910063616,'',0.488692190558,0.451801041349,-0.000341928135489,-0.0368911492091,0.001,221.447817316,6000.0,0.0,300.0,0.0
1513265722710106472,,564522,,1513265720,920063616,'',0.488692190558,0.451904049337,0.0121347946203,-0.0367881412214,0.001,217.158583878,6000.0,0.0,300.0,0.0
1513265722719920502,,564523,,1513265720,930063616,'',0.488692190558,0.452186647223,0.0355335913751,-0.0365055433353,0.001,208.286014769,6000.0,0.0,300.0,0.0
1513265722730010671,,564524,,1513265720,940063616,'',0.488692190558,0.452692737191,0.0544229204086,-0.0359994533678,0.001,199.588089096,6000.0,0.0,300.0,0.0
1513265722739780871,,564525,,1513265720,950063616,'',0.488692190558,0.453422139687,0.0833592240126,-0.0352700508718,0.001,186.542641612,6000.0,0.0,300.0,0.0
1513265722749798462,,564526,,1513265720,960063616,'',0.488692190558,0.454250259978,0.0811834840754,-0.03444193058,0.001,182.960632334,6000.0,0.0,300.0,0.0
1513265722759848317,,564527,,1513265720,970063616,'',0.488692190558,0.455047674501,0.0796317835635,-0.0336445160576,0.001,177.881578845,6000.0,0.0,300.0,0.0
1513265722769743471,,564528,,1513265720,980063616,'',0.488692190558,0.455738253932,0.065677451409,-0.0329539366267,0.001,177.897409383,6000.0,0.0,300.0,0.0
1513265722779793434,,564529,,1513265720,990063616,'',0.488692190558,0.45632676625,0.0537893415908,-0.032365424308,0.001,177.990006418,6000.0,0.0,300.0,0.0
1513265722789689499,,564530,,1513265721,63616,'',0.488692190558,0.456836874759,0.0434911848655,-0.0318553157991,0.001,178.083516591,6000.0,0.0,300.0,0.0
1513265722799592758,,564531,,1513265721,10063616,'',0.488692190558,0.457321206495,0.0482625013069,-0.0313709840635,0.001,173.703877911,6000.0,0.0,300.0,0.0
1513265722809658742,,564532,,1513265721,20063616,'',0.488692190558,0.457849109342,0.0667093333495,-0.0308430812169,0.001,164.94183744,6000.0,0.0,300.0,0.0
1513265722819461375,,564533,,1513265721,30063616,'',0.488692190558,0.458488799237,0.0683430733485,-0.0302033913214,0.001,161.050457306,6000.0,0.0,300.0,0.0
1513265722829483502,,564534,,1513265721,40063616,'',0.488692190558,0.459198313886,0.0831229230208,-0.0294938766725,0.001,151.903165928,6000.0,0.0,300.0,0.0
1513265722840009827,,564535,,1513265721,50063616,'',0.488692190558,0.460025216604,0.0809766529124,-0.0286669739543,0.001,147.589509734,6000.0,0.0,300.0,0.0
1513265722849967278,,564536,,1513265721,60063616,'',0.488692190558,0.460806395521,0.0797505995544,-0.0278857950372,0.001,143.271710629,6000.0,0.0,300.0,0.0
1513265722859933592,,564537,,1513265721,70063616,'',0.488692190558,0.461549572916,0.0647281476404,-0.0271426176426,0.001,142.810407517,6000.0,0.0,300.0,0.0
1513265722869860925,,564538,,1513265721,80063616,'',0.488692190558,0.462235946045,0.0654233914491,-0.0264562445138,0.001,139.00793189,6000.0,0.0,300.0,0.0
1513265722879749743,,564539,,1513265721,90063616,'',0.488692190558,0.462837674401,0.0678241374626,-0.0258545161573,0.001,134.717801601,6000.0,0.0,300.0,0.0
1513265722889605482,,564540,,1513265721,100063616,'',0.488692190558,0.463473537379,0.0695352349521,-0.0252186531794,0.001,130.749468321,6000.0,0.0,300.0,0.0
1513265722899568330,,564541,,1513265721,110063616,'',0.488692190558,0.464139870653,0.0706282636058,-0.0245523199057,0.001,125.907157158,6000.0,0.0,300.0,0.0
1513265722909716769,,564542,,1513265721,120063616,'',0.488692190558,0.464935757071,0.0836583584191,-0.0237564334875,0.001,117.411095245,6000.0,0.0,300.0,0.0
1513265722919547832,,564543,,1513265721,130063616,'',0.488692190558,0.465808047221,0.0951512076164,-0.0228841433371,0.001,108.616259775,6000.0,0.0,300.0,0.0
1513265722929516802,,564544,,1513265721,140063616,'',0.488692190558,0.466728726162,0.0911096063575,-0.0219634643968,0.001,104.311100396,6000.0,0.0,300.0,0.0
1513265722939624029,,564545,,1513265721,150063616,'',0.488692190558,0.467653117624,0.0869949343991,-0.0210390729348,0.001,100.056558991,6000.0,0.0,300.0,0.0
1513265722950026541,,564546,,1513265721,160063616,'',0.488692190558,0.468501556786,0.0844062879997,-0.0201906337723,0.001,95.8470298774,6000.0,0.0,300.0,0.0
1513265722959909683,,564547,,1513265721,170063616,'',0.488692190558,0.469272089119,0.0688482622192,-0.0194201014399,0.001,96.2218981787,6000.0,0.0,300.0,0.0
1513265722969773544,,564548,,1513265721,180063616,'',0.488692190558,0.470089529572,0.0814477346149,-0.0186026609868,0.001,87.0848321672,6000.0,0.0,300.0,0.0
1513265722979790698,,564549,,1513265721,190063616,'',0.488692190558,0.470902338164,0.0795799193256,-0.0177898523946,0.001,82.7463620323,6000.0,0.0,300.0,0.0
1513265722989569462,,564550,,1513265721,200063616,'',0.488692190558,0.471815936355,0.104788451647,-0.0168762542034,0.001,70.3598011357,6000.0,0.0,300.0,0.0
1513265722999683050,,564551,,1513265721,210063616,'',0.488692190558,0.472801649295,0.11398547557,-0.015890541263,0.001,61.1073242994,6000.0,0.0,300.0,0.0
1513265723009558226,,564552,,1513265721,220063616,'',0.488692190558,0.473867723881,0.107007206369,-0.0148244666771,0.001,56.6139842629,6000.0,0.0,300.0,0.0
1513265723019475885,,564553,,1513265721,230063616,'',0.488692190558,0.47497247471,0.113806745807,-0.0137197158484,0.001,48.7628112881,6000.0,0.0,300.0,0.0
1513265723029884292,,564554,,1513265721,240063616,'',0.488692190558,0.476088283068,0.105819692353,-0.0126039074905,0.001,44.4528372737,6000.0,0.0,300.0,0.0
1513265723039819587,,564555,,1513265721,250063616,'',0.488692190558,0.47725035734,0.111457884277,-0.0114418332186,0.001,35.0793739937,6000.0,0.0,300.0,0.0
1513265723049863790,,564556,,1513265721,260063616,'',0.488692190558,0.478426505912,0.116811588755,-0.0102656846462,0.001,26.2668540444,6000.0,0.0,300.0,0.0
1513265723059778086,,564557,,1513265721,270063616,'',0.488692190558,0.47952799857,0.109119498174,-0.00916419198881,0.001,22.0877950582,6000.0,0.0,300.0,0.0
1513265723069734561,,564558,,1513265721,280063616,'',0.488692190558,0.480575758153,0.102509106139,-0.00811643240537,0.001,17.8830189057,6000.0,0.0,300.0,0.0
1513265723079669464,,564559,,1513265721,290063616,'',0.488692190558,0.481616725383,0.0960325831069,-0.00707546517564,0.001,13.465197951,6000.0,0.0,300.0,0.0
1513265723089664909,,564560,,1513265721,300063616,'',0.488692190558,0.482582962764,0.0910658531415,-0.00610922779431,0.001,9.83693971051,6000.0,0.0,300.0,0.0
1513265723099669863,,564561,,1513265721,310063616,'',0.488692190558,0.483522456384,0.101200641672,-0.00516973417428,0.001,0.441016412141,6000.0,0.0,300.0,0.0
1513265723109676840,,564562,,1513265721,320063616,'',0.488692190558,0.484430798466,0.0828509576256,-0.00426139209268,0.001,0.708841251766,6000.0,0.0,300.0,0.0
1513265723119498247,,564563,,1513265721,330063616,'',0.488692190558,0.485228404611,0.0667403686737,-0.00346378594715,0.001,0.617997649692,6000.0,0.0,300.0,0.0
1513265723129899595,,564564,,1513265721,340063616,'',0.488692190558,0.485984764317,0.0805688406495,-0.00270742624116,0.001,-8.00066270364,6000.0,0.0,300.0,0.0
1513265723139951100,,564565,,1513265721,350063616,'',0.488692190558,0.486708454459,0.0659497330212,-0.00198373609893,0.001,-8.06266912312,6000.0,0.0,300.0,0.0
1513265723149740974,,564566,,1513265721,360063616,'',0.488692190558,0.487368451491,0.0671711673826,-0.00132373906723,0.001,-12.2910261214,6000.0,0.0,300.0,0.0
1513265723159704194,,564567,,1513265721,370063616,'',0.488692190558,0.487971491569,0.0549896044059,-0.000720698989584,0.001,-12.259772916,6000.0,0.0,300.0,0.0
1513265723169714417,,564568,,1513265721,380063616,'',0.488692190558,0.488558420622,0.057690093566,0.0,0.001,0.0,6000.0,0.0,300.0,0.0
1513265723179627812,,564569,,1513265721,390063616,'',0.488692190558,0.48906387606,0.0474776389638,0.0,0.001,0.0,6000.0,0.0,300.0,0.0
1513265723189647297,,564570,,1513265721,400063616,'',0.488692190558,0.489540705315,0.0378483904393,0.0,0.001,0.0,6000.0,0.0,300.0,0.0
1513265723199569890,,564571,,1513265721,410063616,'',0.488692190558,0.489997802878,0.0431713146145,0.0,0.001,0.0,6000.0,0.0,300.0,0.0
1513265723209825133,,564572,,1513265721,420063616,'',0.488692190558,0.490411335111,0.0493683116857,0.0,0.001,0.0,6000.0,0.0,300.0,0.0
1513265723219745895,,564573,,1513265721,430063616,'',0.488692190558,0.490803584208,0.0414414353987,0.0,0.001,0.0,6000.0,0.0,300.0,0.0
1513265723229717125,,564574,,1513265721,440063616,'',0.488692190558,0.491189865417,0.0481952483875,0.0,0.001,0.0,6000.0,0.0,300.0,0.0
1513265723239635772,,564575,,1513265721,450063616,'',0.488692190558,0.491532205768,0.0412768964658,0.0,0.001,0.0,6000.0,0.0,300.0,0.0
1513265723249555762,,564576,,1513265721,460063616,'',0.488692190558,0.491902099596,0.0338061143455,0.0,0.001,0.0,6000.0,0.0,300.0,0.0
1513265723259452693,,564577,,1513265721,470063616,'',0.488692190558,0.492299377208,0.0403479393822,0.0,0.001,0.0,6000.0,0.0,300.0,0.0
1513265723269936083,,564578,,1513265721,480063616,'',0.488692190558,0.492649525612,0.0332728863316,0.0,0.001,0.0,6000.0,0.0,300.0,0.0
1513265723279789842,,564579,,1513265721,490063616,'',0.488692190558,0.492948282279,0.0272371243937,0.0,0.001,0.0,6000.0,0.0,300.0,0.0
1513265723289796708,,564580,,1513265721,500063616,'',0.488692190558,0.493272449123,0.0352393272555,0.0,0.001,0.0,6000.0,0.0,300.0,0.0
1513265723299950241,,564581,,1513265721,510063616,'',0.488692190558,0.493602271166,0.0285798086593,0.0,0.001,0.0,6000.0,0.0,300.0,0.0
1513265723309827356,,564582,,1513265721,520063616,'',0.488692190558,0.49396532036,0.0357993829047,0.0,0.001,0.0,6000.0,0.0,300.0,0.0
1513265723319759255,,564583,,1513265721,530063616,'',0.488692190558,0.494355354199,0.0424813925275,0.0,0.001,0.0,6000.0,0.0,300.0,0.0
1513265723329704308,,564584,,1513265721,540063616,'',0.488692190558,0.49476219016,0.0342565997457,0.0,0.001,0.0,6000.0,0.0,300.0,0.0
1513265723339525559,,564585,,1513265721,550063616,'',0.488692190558,0.495214755959,0.0542283903648,0.0,0.001,0.0,6000.0,0.0,300.0,0.0
1513265723349974470,,564586,,1513265721,560063616,'',0.488692190558,0.49558473477,0.032197172092,0.0,0.001,0.0,6000.0,0.0,300.0,0.0
1513265723359966683,,564587,,1513265721,570063616,'',0.488692190558,0.496003670766,0.0382916148058,0.0,0.001,0.0,6000.0,0.0,300.0,0.0
1513265723369992486,,564588,,1513265721,580063616,'',0.488692190558,0.496386708929,0.0305628601339,0.0,0.001,0.0,6000.0,0.0,300.0,0.0
1513265723379978771,,564589,,1513265721,590063616,'',0.488692190558,0.496715348099,0.0384779798121,0.0,0.001,0.0,6000.0,0.0,300.0,0.0
1513265723390000780,,564590,,1513265721,600063616,'',0.488692190558,0.497060743416,0.0314993562514,0.0,0.001,0.0,6000.0,0.0,300.0,0.0
1513265723399724618,,564591,,1513265721,610063616,'',0.488692190558,0.497318733455,0.0262898172592,0.0,0.001,0.0,6000.0,0.0,300.0,0.0
1513265723409791462,,564592,,1513265721,620063616,'',0.488692190558,0.497568942471,0.0357908258152,0.0,0.001,0.0,6000.0,0.0,300.0,0.0
1513265723419638106,,564593,,1513265721,630063616,'',0.488692190558,0.497810669772,0.0163487028598,0.0,0.001,0.0,6000.0,0.0,300.0,0.0
1513265723429632119,,564594,,1513265721,640063616,'',0.488692190558,0.498035517698,0.0118056062973,0.0,0.001,0.0,6000.0,0.0,300.0,0.0
1513265723439955064,,564595,,1513265721,650063616,'',0.488692190558,0.498247430386,0.0220783218101,0.0,0.001,0.0,6000.0,0.0,300.0,0.0
1513265723449796965,,564596,,1513265721,660063616,'',0.488692190558,0.498433649411,0.0183158121908,0.0,0.001,0.0,6000.0,0.0,300.0,0.0
1513265723459809901,,564597,,1513265721,670063616,'',0.488692190558,0.498623801687,0.0144754603633,0.0,0.001,0.0,6000.0,0.0,300.0,0.0
1513265723469687261,,564598,,1513265721,680063616,'',0.488692190558,0.498794493689,0.0255878485424,0.0,0.001,0.0,6000.0,0.0,300.0,0.0
1513265723479620414,,564599,,1513265721,690063616,'',0.488692190558,0.498930369474,0.00828259458684,0.0,0.001,0.0,6000.0,0.0,300.0,0.0
1513265723489556245,,564600,,1513265721,700063616,'',0.488692190558,0.499071002728,0.0199902981197,0.0,0.001,0.0,6000.0,0.0,300.0,0.0
1513265723500041032,,564601,,1513265721,710063616,'',0.488692190558,0.499173291446,0.0179295483807,0.0104811008881,0.001,-68.1563828836,6000.0,0.0,300.0,0.0
1513265723510031980,,564602,,1513265721,720063616,'',0.488692190558,0.499308668421,0.0151878428327,0.010616477863,0.001,-68.2669298722,6000.0,0.0,300.0,0.0
1513265723520006442,,564603,,1513265721,730063616,'',0.488692190558,0.499445115341,0.0124327405919,0.0107529247824,0.001,-68.2794239915,6000.0,0.0,300.0,0.0
1513265723529931173,,564604,,1513265721,740063616,'',0.488692190558,0.499544574713,0.0104218154865,0.010852384155,0.001,-68.1924320933,6000.0,0.0,300.0,0.0
1513265723539882943,,564605,,1513265721,750063616,'',0.488692190558,0.499638219743,0.00853144197473,0.0109460291842,0.001,-68.2557956687,6000.0,0.0,300.0,0.0
1513265723549940659,,564606,,1513265721,760063616,'',0.488692190558,0.499714870607,0.00698412264399,0.0110226800486,0.001,-68.2412788901,6000.0,0.0,300.0,0.0
1513265723559821860,,564607,,1513265721,770063616,'',0.488692190558,0.499790093217,0.00546555704908,0.0110979026589,0.001,-68.2349023303,6000.0,0.0,300.0,0.0
1513265723569801589,,564608,,1513265721,780063616,'',0.488692190558,0.499852907059,0.00420026517771,0.0111607165003,0.001,-68.2295776517,6000.0,0.0,300.0,0.0
1513265723579765427,,564609,,1513265721,790063616,'',0.488692190558,0.499930622464,0.0171868886882,0.0112384319053,0.001,-72.607362759,6000.0,0.0,300.0,0.0
1513265723589883872,,564610,,1513265721,800063616,'',0.488692190558,0.500005426772,0.00111886905406,0.011313236214,0.001,-68.2177002837,6000.0,0.0,300.0,0.0
1513265723599942782,,564611,,1513265721,810063616,'',0.488692190558,0.500028129194,0.000662418823233,0.0113359386352,0.001,-68.2157271265,6000.0,0.0,300.0,0.0
1513265723609794424,,564612,,1513265721,820063616,'',0.488692190558,0.500047285223,0.000274913316278,0.0113550946643,0.001,-68.213100372,6000.0,0.0,300.0,0.0
1513265723619773691,,564613,,1513265721,830063616,'',0.488692190558,0.500049745662,0.000225044615104,0.0113575551031,0.001,-68.2130214498,6000.0,0.0,300.0,0.0
1513265723629677430,,564614,,1513265721,840063616,'',0.488692190558,0.50006524732,-8.8254971846e-05,0.0113730567617,0.001,-68.212168202,6000.0,0.0,300.0,0.0
1513265723639637066,,564615,,1513265721,850063616,'',0.488692190558,0.500090076102,-0.000593269678898,0.0113978855431,0.001,-68.2046087209,6000.0,0.0,300.0,0.0
1513265723649574890,,564616,,1513265721,860063616,'',0.488692190558,0.500110457418,-0.00100198109401,0.0114182668592,0.001,-68.2068764339,6000.0,0.0,300.0,0.0
1513265723659550801,,564617,,1513265721,870063616,'',0.488692190558,0.50012710903,-0.00134210274662,0.0114349184718,0.001,-68.2163889366,6000.0,0.0,300.0,0.0
1513265723669533151,,564618,,1513265721,880063616,'',0.488692190558,0.500208371605,0.0115748592725,0.0115161810466,0.001,-72.583818189,6000.0,0.0,300.0,0.0
1513265723679999919,,564619,,1513265721,890063616,'',0.488692190558,0.500300142613,0.00971881364956,0.011607952055,0.001,-72.5907900648,6000.0,0.0,300.0,0.0
1513265723689967741,,564620,,1513265721,900063616,'',0.488692190558,0.500399317986,0.00771281812792,0.0117071274279,0.001,-72.5654012186,6000.0,0.0,300.0,0.0
1513265723699937349,,564621,,1513265721,910063616,'',0.488692190558,0.500454448857,0.00660048250314,0.0117622582982,0.001,-72.5653443998,6000.0,0.0,300.0,0.0
1513265723709988033,,564622,,1513265721,920063616,'',0.488692190558,0.500462076109,0.00644093977131,0.0117698855511,0.001,-72.5623118633,6000.0,0.0,300.0,0.0
1513265723719861355,,564623,,1513265721,930063616,'',0.488692190558,0.500480554346,0.00607240102607,0.0117883637873,0.001,-72.5629409481,6000.0,0.0,300.0,0.0
1513265723729734029,,564624,,1513265721,940063616,'',0.488692190558,0.500443550303,0.00682484313129,0.0117513597446,0.001,-72.5683202502,6000.0,0.0,300.0,0.0
1513265723739797560,,564625,,1513265721,950063616,'',0.488692190558,0.500386703079,-0.00658401369379,0.0116945125205,0.001,-68.1805233825,6000.0,0.0,300.0,0.0
1513265723749883189,,564626,,1513265721,960063616,'',0.488692190558,0.500353679454,-0.00591250358844,0.0116614888958,0.001,-68.2354100538,6000.0,0.0,300.0,0.0
1513265723759717124,,564627,,1513265721,970063616,'',0.488692190558,0.500326511242,-0.00536251355722,0.0116343206832,0.001,-68.1925324766,6000.0,0.0,300.0,0.0
1513265723769732134,,564628,,1513265721,980063616,'',0.488692190558,0.500278429575,-0.00439196321566,0.0115862390163,0.001,-68.2214462658,6000.0,0.0,300.0,0.0
1513265723779700428,,564629,,1513265721,990063616,'',0.488692190558,0.500238963459,-0.00359532169594,0.0115467729006,0.001,-68.1958121023,6000.0,0.0,300.0,0.0
1513265723789641592,,564630,,1513265722,63616,'',0.488692190558,0.50020666221,-0.00294330626481,0.0115144716511,0.001,-68.2004413783,6000.0,0.0,300.0,0.0
1513265723799617925,,564631,,1513265722,10063616,'',0.488692190558,0.500207682846,-0.00296835755908,0.0115154922874,0.001,-68.1958602147,6000.0,0.0,300.0,0.0
1513265723809610567,,564632,,1513265722,20063616,'',0.488692190558,0.500219862658,-0.00320562365405,0.0115276720994,0.001,-68.1947576277,6000.0,0.0,300.0,0.0
1513265723819469098,,564633,,1513265722,30063616,'',0.488692190558,0.500244300284,0.0108559501224,0.0115521097256,0.001,-72.5839082045,6000.0,0.0,300.0,0.0
1513265723829872587,,564634,,1513265722,40063616,'',0.488692190558,0.500264081109,0.0104568173885,0.0115718905503,0.001,-72.585136151,6000.0,0.0,300.0,0.0
1513265723839881655,,564635,,1513265722,50063616,'',0.488692190558,0.500254133467,-0.00390442476391,0.0115619429084,0.001,-68.2181300057,6000.0,0.0,300.0,0.0
1513265723849973388,,564636,,1513265722,60063616,'',0.488692190558,0.500260456106,0.0105243544748,0.0115682655478,0.001,-72.5056682815,6000.0,0.0,300.0,0.0
1513265723859886788,,564637,,1513265722,70063616,'',0.488692190558,0.500287925335,-0.00458222777902,0.011595734777,0.001,-68.1635300892,6000.0,0.0,300.0,0.0
1513265723869720764,,564638,,1513265722,80063616,'',0.488692190558,0.500337439886,0.00896817261185,0.0116452493274,0.001,-72.5702853278,6000.0,0.0,300.0,0.0
1513265723879626249,,564639,,1513265722,90063616,'',0.488692190558,0.500312774149,-0.0050879798722,0.0116205835902,0.001,-68.2229451366,6000.0,0.0,300.0,0.0
1513265723889495737,,564640,,1513265722,100063616,'',0.488692190558,0.500291625136,-0.0046560927263,0.0115994345774,0.001,-68.1907037363,6000.0,0.0,300.0,0.0
1513265723899991279,,564641,,1513265722,110063616,'',0.488692190558,0.500263281222,-0.00407829168063,0.011571090664,0.001,-68.1947905658,6000.0,0.0,300.0,0.0
1513265723909944530,,564642,,1513265722,120063616,'',0.488692190558,0.500240335172,-0.00361674720248,0.0115481446135,0.001,-68.1943779508,6000.0,0.0,300.0,0.0
1513265723919937446,,564643,,1513265722,130063616,'',0.488692190558,0.500085745508,-0.0296089161412,0.0113935549494,0.001,-59.6293444213,6000.0,0.0,300.0,0.0
1513265723929774327,,564644,,1513265722,140063616,'',0.488692190558,0.499950534928,-0.0123213536498,0.01125834437,0.001,-63.8413820507,6000.0,0.0,300.0,0.0
1513265723939770603,,564645,,1513265722,150063616,'',0.488692190558,0.499840395903,-0.0100944433839,0.0111482053447,0.001,-63.8404259008,6000.0,0.0,300.0,0.0
1513265723949635601,,564646,,1513265722,160063616,'',0.488692190558,0.499725205481,-0.00777269284526,0.0110330149226,0.001,-63.8582769273,6000.0,0.0,300.0,0.0
1513265723959774308,,564647,,1513265722,170063616,'',0.488692190558,0.499668319783,-0.00662522893172,0.0109761292248,0.001,-63.857021889,6000.0,0.0,300.0,0.0
1513265723969712745,,564648,,1513265722,180063616,'',0.488692190558,0.499648342356,-0.00621635669963,0.0109561517972,0.001,-63.8589486244,6000.0,0.0,300.0,0.0
1513265723979618125,,564649,,1513265722,190063616,'',0.488692190558,0.499632662478,-0.00589935401895,0.0109404719195,0.001,-63.8980049406,6000.0,0.0,300.0,0.0
1513265723989700518,,564650,,1513265722,200063616,'',0.488692190558,0.499606880115,0.00917356184563,0.0109146895569,0.001,-68.1894892275,6000.0,0.0,300.0,0.0
1513265723999576501,,564651,,1513265722,210063616,'',0.488692190558,0.499558535566,-0.00440710114314,0.0108663450071,0.001,-63.8688842131,6000.0,0.0,300.0,0.0
1513265724009659439,,564652,,1513265722,220063616,'',0.488692190558,0.49955834331,-0.00440708107394,0.0108661527513,0.001,-63.8660373609,6000.0,0.0,300.0,0.0
1513265724019901823,,564653,,1513265722,230063616,'',0.488692190558,0.499572345502,-0.0046898542877,0.0108801549433,0.001,-63.8916753234,6000.0,0.0,300.0,0.0
1513265724029807546,,564654,,1513265722,240063616,'',0.488692190558,0.499530271088,-0.0038394906637,0.0108380805293,0.001,-63.8980572699,6000.0,0.0,300.0,0.0
1513265724039775313,,564655,,1513265722,250063616,'',0.488692190558,0.499546649169,-0.00417052566717,0.0108544586108,0.001,-63.8660457806,6000.0,0.0,300.0,0.0
1513265724050282701,,564656,,1513265722,260063616,'',0.488692190558,0.499521725764,-0.00366630125503,0.0108295352053,0.001,-63.873278643,6000.0,0.0,300.0,0.0
1513265724059710175,,564657,,1513265722,270063616,'',0.488692190558,0.499555343593,0.0102058866136,0.0108631530342,0.001,-68.2577530871,6000.0,0.0,300.0,0.0
1513265724069617373,,564658,,1513265722,280063616,'',0.488692190558,0.499542169016,-0.00408619003583,0.010849978458,0.001,-63.8998239554,6000.0,0.0,300.0,0.0
1513265724080030397,,564659,,1513265722,290063616,'',0.488692190558,0.499543974367,-0.00411861901898,0.0108517838082,0.001,-63.8690144599,6000.0,0.0,300.0,0.0
1513265724089913675,,564660,,1513265722,300063616,'',0.488692190558,0.499531405854,-0.00386682106502,0.0108392152957,0.001,-63.874689416,6000.0,0.0,300.0,0.0
1513265724099963077,,564661,,1513265722,310063616,'',0.488692190558,0.499511165675,0.0111001131677,0.0108189751162,0.001,-68.2657674407,6000.0,0.0,300.0,0.0
1513265724109994529,,564662,,1513265722,320063616,'',0.488692190558,0.49951815068,0.010954539051,0.010825960122,0.001,-68.1914330948,6000.0,0.0,300.0,0.0
1513265724120017455,,564663,,1513265722,330063616,'',0.488692190558,0.499484670327,-0.00292331048815,0.0107924797691,0.001,-63.8781054655,6000.0,0.0,300.0,0.0
1513265724129891726,,564664,,1513265722,340063616,'',0.488692190558,0.499458486399,-0.00239311936202,0.0107662958407,0.001,-63.877949403,6000.0,0.0,300.0,0.0
1513265724139918315,,564665,,1513265722,350063616,'',0.488692190558,0.499437093816,-0.00195994686258,0.0107449032576,0.001,-63.8910463878,6000.0,0.0,300.0,0.0
1513265724149844186,,564666,,1513265722,360063616,'',0.488692190558,0.499432249802,-0.00185879869307,0.0107400592435,0.001,-63.8954877525,6000.0,0.0,300.0,0.0
1513265724159783479,,564667,,1513265722,370063616,'',0.488692190558,0.499415570339,-0.00152161649388,0.0107233797806,0.001,-63.8818379135,6000.0,0.0,300.0,0.0
1513265724170008899,,564668,,1513265722,380063616,'',0.488692190558,0.499403935786,-0.00128684574247,0.0107117452281,0.001,-63.8832636041,6000.0,0.0,300.0,0.0
1513265724179635554,,564669,,1513265722,390063616,'',0.488692190558,0.499366074652,-0.000515234300073,0.0106738840935,0.001,-63.8894443603,6000.0,0.0,300.0,0.0
1513265724189625618,,564670,,1513265722,400063616,'',0.488692190558,0.499349436048,-0.000180089900464,0.0106572454901,0.001,-63.8891099604,6000.0,0.0,300.0,0.0
1513265724200050660,,564671,,1513265722,410063616,'',0.488692190558,0.499321850392,0.000376393382872,0.0106296598332,0.001,-63.8904642737,6000.0,0.0,300.0,0.0
1513265724210000744,,564672,,1513265722,420063616,'',0.488692190558,0.499300741442,0.000804231912245,0.0106085508833,0.001,-63.8871623638,6000.0,0.0,300.0,0.0
1513265724219877123,,564673,,1513265722,430063616,'',0.488692190558,0.499268817098,0.00144845490124,0.01057662654,0.001,-63.9082848004,6000.0,0.0,300.0,0.0
1513265724229730441,,564674,,1513265722,440063616,'',0.488692190558,0.499216599,-0.0120477744066,0.0105244084416,0.001,-59.5217397954,6000.0,0.0,300.0,0.0
1513265724239726100,,564675,,1513265722,450063616,'',0.488692190558,0.49919897324,0.00285411016181,0.0105067826813,0.001,-63.9014632028,6000.0,0.0,300.0,0.0
1513265724249644944,,564676,,1513265722,460063616,'',0.488692190558,0.499173603583,0.00336625651927,0.0104814130247,0.001,-63.9037618801,6000.0,0.0,300.0,0.0
1513265724259662010,,564677,,1513265722,470063616,'',0.488692190558,0.499178151968,0.00326909457933,0.0104859614096,0.001,-63.8995632822,6000.0,0.0,300.0,0.0
1513265724269654670,,564678,,1513265722,480063616,'',0.488692190558,0.499129481031,0.00425370672273,0.0104372904723,0.001,-63.9092982357,6000.0,0.0,300.0,0.0
1513265724279931434,,564679,,1513265722,490063616,'',0.488692190558,0.499113249345,-0.00997190138587,0.0104210587867,0.001,-59.5235318793,6000.0,0.0,300.0,0.0
1513265724289858097,,564680,,1513265722,500063616,'',0.488692190558,0.499062481289,-0.00894228722316,0.0103702907305,0.001,-59.525250719,6000.0,0.0,300.0,0.0
1513265724299794734,,564681,,1513265722,510063616,'',0.488692190558,0.499032656768,-0.00833654732947,0.0103404662095,0.001,-59.459231407,6000.0,0.0,300.0,0.0
1513265724309985949,,564682,,1513265722,520063616,'',0.488692190558,0.498995204736,-0.00758144306963,0.0103030141774,0.001,-59.5795598476,6000.0,0.0,300.0,0.0
1513265724319726909,,564683,,1513265722,530063616,'',0.488692190558,0.49896470778,-0.00696445044939,0.0102725172218,0.001,-59.531592276,6000.0,0.0,300.0,0.0
1513265724329568876,,564684,,1513265722,540063616,'',0.488692190558,0.498981223409,-0.00729598344879,0.0102890328506,0.001,-59.5832501144,6000.0,0.0,300.0,0.0
1513265724339558575,,564685,,1513265722,550063616,'',0.488692190558,0.498955840388,-0.00678519709427,0.0102636498293,0.001,-59.5309887746,6000.0,0.0,300.0,0.0
1513265724349986098,,564686,,1513265722,560063616,'',0.488692190558,0.498894890298,-0.00555469435129,0.0102026997398,0.001,-59.5436482729,6000.0,0.0,300.0,0.0
1513265724360095787,,564687,,1513265722,570063616,'',0.488692190558,0.498871414627,-0.00508391691072,0.0101792240685,0.001,-59.5407261614,6000.0,0.0,300.0,0.0
1513265724369893888,,564688,,1513265722,580063616,'',0.488692190558,0.498852597937,-0.00470185926437,0.0101604073781,0.001,-59.5785844783,6000.0,0.0,300.0,0.0
1513265724379790434,,564689,,1513265722,590063616,'',0.488692190558,0.498823875726,-0.00412367252898,0.0101316851672,0.001,-59.5480618469,6000.0,0.0,300.0,0.0
1513265724389761041,,564690,,1513265722,600063616,'',0.488692190558,0.498800565144,-0.00365328979803,0.0101083745851,0.001,-59.5500378661,6000.0,0.0,300.0,0.0
1513265724399760307,,564691,,1513265722,610063616,'',0.488692190558,0.498793070349,-0.00349988049481,0.0101008797908,0.001,-59.5719178673,6000.0,0.0,300.0,0.0
1513265724409854493,,564692,,1513265722,620063616,'',0.488692190558,0.498787381543,-0.00338710345829,0.0100951909848,0.001,-59.5491981081,6000.0,0.0,300.0,0.0
1513265724419788153,,564693,,1513265722,630063616,'',0.488692190558,0.498770256369,-0.0030380331404,0.0100780658105,0.001,-59.5526071164,6000.0,0.0,300.0,0.0
1513265724429620380,,564694,,1513265722,640063616,'',0.488692190558,0.498755952313,-0.00275162024253,0.0100637617545,0.001,-59.5538196597,6000.0,0.0,300.0,0.0
1513265724439541654,,564695,,1513265722,650063616,'',0.488692190558,0.498743066781,-0.00249311262114,0.0100508762224,0.001,-59.5556318767,6000.0,0.0,300.0,0.0
1513265724449457870,,564696,,1513265722,660063616,'',0.488692190558,0.498720703412,-0.00204098398342,0.0100285128538,0.001,-59.5579863941,6000.0,0.0,300.0,0.0
1513265724460049455,,564697,,1513265722,670063616,'',0.488692190558,0.498702390542,-0.00167074578646,0.0100101999832,0.001,-59.5572744993,6000.0,0.0,300.0,0.0
1513265724469945352,,564698,,1513265722,680063616,'',0.488692190558,0.498687402562,-0.00136772816531,0.00999521200367,0.001,-59.5600255171,6000.0,0.0,300.0,0.0
1513265724479870856,,564699,,1513265722,690063616,'',0.488692190558,0.49867515826,-0.00112018050554,0.00998296770173,0.001,-59.560264163,6000.0,0.0,300.0,0.0
1513265724489849238,,564700,,1513265722,700063616,'',0.488692190558,0.498665107579,-0.000916982102318,0.00997291702056,0.001,-59.5609908966,6000.0,0.0,300.0,0.0
1513265724499707474,,564701,,1513265722,710063616,'',0.488692190558,0.498669109945,-0.000999847223918,0.00997691938621,0.001,-59.561181217,6000.0,0.0,300.0,0.0
1513265724509668070,,564702,,1513265722,720063616,'',0.488692190558,0.498646159785,-0.0150892071087,0.00995396922689,0.001,-55.2790304068,6000.0,0.0,300.0,0.0
1513265724519529805,,564703,,1513265722,730063616,'',0.488692190558,0.498641370192,-0.000435869754321,0.00994917963314,0.001,-59.5634064797,6000.0,0.0,300.0,0.0
1513265724529963764,,564704,,1513265722,740063616,'',0.488692190558,0.498637448933,-0.000356810697144,0.00994525837457,0.001,-59.5645108056,6000.0,0.0,300.0,0.0
1513265724539965005,,564705,,1513265722,750063616,'',0.488692190558,0.49862163495,-3.08355091927e-05,0.00992944439166,0.001,-59.5654365062,6000.0,0.0,300.0,0.0
1513265724549984598,,564706,,1513265722,760063616,'',0.488692190558,0.498621293337,-2.52428548094e-05,0.00992910277858,0.001,-59.5652795988,6000.0,0.0,300.0,0.0
1513265724559973628,,564707,,1513265722,770063616,'',0.488692190558,0.498649196219,0.0139675023138,0.00995700566013,0.001,-63.9724608743,6000.0,0.0,300.0,0.0
1513265724569903359,,564708,,1513265722,780063616,'',0.488692190558,0.498655333927,-0.000725828378741,0.00996314336826,0.001,-59.5667105443,6000.0,0.0,300.0,0.0
1513265724579764487,,564709,,1513265722,790063616,'',0.488692190558,0.498648881561,-0.000594209960261,0.00995669100213,0.001,-59.5630660238,6000.0,0.0,300.0,0.0
1513265724589633928,,564710,,1513265722,800063616,'',0.488692190558,0.498631427295,-0.000242287206724,0.00993923673649,0.001,-59.5643073793,6000.0,0.0,300.0,0.0
1513265724599647877,,564711,,1513265722,810063616,'',0.488692190558,0.498604921803,0.000297396672413,0.00991273124492,0.001,-59.5666223938,6000.0,0.0,300.0,0.0
1513265724609551453,,564712,,1513265722,820063616,'',0.488692190558,0.498607606832,0.000243550552996,0.00991541627314,0.001,-59.5650656209,6000.0,0.0,300.0,0.0
1513265724619578316,,564713,,1513265722,830063616,'',0.488692190558,0.498596611083,0.000466429934432,0.00990442052482,0.001,-59.5710092045,6000.0,0.0,300.0,0.0
1513265724629545931,,564714,,1513265722,840063616,'',0.488692190558,0.498600797763,0.000382040882554,0.00990860720482,0.001,-59.5668613329,6000.0,0.0,300.0,0.0
1513265724639676415,,564715,,1513265722,850063616,'',0.488692190558,0.498592236323,0.000552251942786,0.00990004576486,0.001,-59.564365192,6000.0,0.0,300.0,0.0
1513265724649536503,,564716,,1513265722,860063616,'',0.488692190558,0.498585251191,0.000693907779763,0.00989306063214,0.001,-59.5687430516,6000.0,0.0,300.0,0.0
1513265724660028490,,564717,,1513265722,870063616,'',0.488692190558,0.498591507848,0.000568066862467,0.00989931728948,0.001,-59.5679655977,6000.0,0.0,300.0,0.0
1513265724669880691,,564718,,1513265722,880063616,'',0.488692190558,0.498583651406,0.000726483238258,0.00989146084765,0.001,-59.5684254682,6000.0,0.0,300.0,0.0
1513265724679907962,,564719,,1513265722,890063616,'',0.488692190558,0.49856503483,0.00110623445714,0.00987284427162,0.001,-59.5623387449,6000.0,0.0,300.0,0.0
1513265724689927016,,564720,,1513265722,900063616,'',0.488692190558,0.49856275268,0.0011519487373,0.00987056212155,0.001,-59.5576396913,6000.0,0.0,300.0,0.0
1513265724699938283,,564721,,1513265722,910063616,'',0.488692190558,0.498559881247,0.00121283569788,0.00986769068855,0.001,-59.5616169783,6000.0,0.0,300.0,0.0
1513265724709928313,,564722,,1513265722,920063616,'',0.488692190558,0.498570738771,0.000992886648163,0.00987854821226,0.001,-59.5695200619,6000.0,0.0,300.0,0.0
1513265724719827155,,564723,,1513265722,930063616,'',0.488692190558,0.498593654802,0.0150832043845,0.00990146424394,0.001,-63.8604299396,6000.0,0.0,300.0,0.0
1513265724729771719,,564724,,1513265722,940063616,'',0.488692190558,0.498584063,-0.0138362832509,0.00989187244164,0.001,-55.1840175984,6000.0,0.0,300.0,0.0
1513265724739745780,,564725,,1513265722,950063616,'',0.488692190558,0.498577834273,0.000847059943022,0.00988564371444,0.001,-59.5686738674,6000.0,0.0,300.0,0.0
1513265724749588821,,564726,,1513265722,960063616,'',0.488692190558,0.498560361516,0.00118979400567,0.00986817095775,0.001,-59.5617336863,6000.0,0.0,300.0,0.0
1513265724759586735,,564727,,1513265722,970063616,'',0.488692190558,0.498571131943,0.000974023591453,0.00987894138413,0.001,-59.5686352204,6000.0,0.0,300.0,0.0
1513265724770061985,,564728,,1513265722,980063616,'',0.488692190558,0.498579950659,0.000797352955224,0.00988776010049,0.001,-59.5687391776,6000.0,0.0,300.0,0.0
1513265724779902896,,564729,,1513265722,990063616,'',0.488692190558,0.498562252708,0.00116767671408,0.00987006214936,0.001,-59.5702394186,6000.0,0.0,300.0,0.0
1513265724789839112,,564730,,1513265723,63616,'',0.488692190558,0.498546548567,0.00148034296607,0.00985435800825,0.001,-59.5742418424,6000.0,0.0,300.0,0.0
1513265724799746407,,564731,,1513265723,10063616,'',0.488692190558,0.49857148694,0.000973388041986,0.00987929638172,0.001,-59.5771369544,6000.0,0.0,300.0,0.0
1513265724809841426,,564732,,1513265723,20063616,'',0.488692190558,0.498580221668,0.000797227938981,0.00988803110943,0.001,-59.5636401334,6000.0,0.0,300.0,0.0
1513265724819740352,,564733,,1513265723,30063616,'',0.488692190558,0.49855929794,-0.0133390269924,0.00986710738163,0.001,-55.1899705804,6000.0,0.0,300.0,0.0
1513265724829673263,,564734,,1513265723,40063616,'',0.488692190558,0.498556803486,0.00127614902214,0.00986461292733,0.001,-59.5606896621,6000.0,0.0,300.0,0.0
1513265724839612251,,564735,,1513265723,50063616,'',0.488692190558,0.498541821952,-0.0129803151145,0.00984963139354,0.001,-55.1800948389,6000.0,0.0,300.0,0.0
1513265724849726664,,564736,,1513265723,60063616,'',0.488692190558,0.498543220892,0.00154546449286,0.00985103033372,0.001,-59.5624719503,6000.0,0.0,300.0,0.0
1513265724859655823,,564737,,1513265723,70063616,'',0.488692190558,0.498544397435,0.0015138334554,0.00985220687617,0.001,-59.5721929243,6000.0,0.0,300.0,0.0
1513265724869512478,,564738,,1513265723,80063616,'',0.488692190558,0.498544829854,0.00150692751393,0.00985263929547,0.001,-59.5698574652,6000.0,0.0,300.0,0.0
1513265724879519342,,564739,,1513265723,90063616,'',0.488692190558,0.498532038111,-0.0127937641925,0.00983984755278,0.001,-55.1773437125,6000.0,0.0,300.0,0.0
1513265724889905587,,564740,,1513265723,100063616,'',0.488692190558,0.498535206531,0.00170369775202,0.00984301597256,0.001,-59.5611822061,6000.0,0.0,300.0,0.0
1513265724899793645,,564741,,1513265723,110063616,'',0.488692190558,0.498525160487,0.00190869340678,0.00983296992886,0.001,-59.5757307763,6000.0,0.0,300.0,0.0
1513265724909771385,,564742,,1513265723,120063616,'',0.488692190558,0.498514892178,0.00211450834373,0.00982270161929,0.001,-59.5718055088,6000.0,0.0,300.0,0.0
1513265724919845218,,564743,,1513265723,130063616,'',0.488692190558,0.498520670807,0.0020012051831,0.00982848024847,0.001,-59.5743427312,6000.0,0.0,300.0,0.0
1513265724929740713,,564744,,1513265723,140063616,'',0.488692190558,0.498500162913,0.00241516644229,0.00980797235504,0.001,-59.5615419789,6000.0,0.0,300.0,0.0
1513265724939681662,,564745,,1513265723,150063616,'',0.488692190558,0.498469506442,-0.0115255870257,0.00977731588335,0.001,-55.0954807986,6000.0,0.0,300.0,0.0
1513265724949577219,,564746,,1513265723,160063616,'',0.488692190558,0.498482356764,-0.0117875569695,0.0097901662056,0.001,-55.1892346073,6000.0,0.0,300.0,0.0
1513265724959550955,,564747,,1513265723,170063616,'',0.488692190558,0.498481176182,-0.0117623226124,0.00978898562314,0.001,-55.264074998,6000.0,0.0,300.0,0.0
1513265724969993403,,564748,,1513265723,180063616,'',0.488692190558,0.498466809761,0.00307986799068,0.00977461920234,0.001,-59.5747586187,6000.0,0.0,300.0,0.0
1513265724979927210,,564749,,1513265723,190063616,'',0.488692190558,0.498494545898,0.00252133063975,0.00980235533953,0.001,-59.57670984,6000.0,0.0,300.0,0.0
1513265724989864369,,564750,,1513265723,200063616,'',0.488692190558,0.498480071371,0.00281177016203,0.00978788081258,0.001,-59.577205864,6000.0,0.0,300.0,0.0
1513265724999838238,,564751,,1513265723,210063616,'',0.488692190558,0.498464923089,-0.0114374022852,0.00977273253009,0.001,-55.2254901268,6000.0,0.0,300.0,0.0
1513265725009825540,,564752,,1513265723,220063616,'',0.488692190558,0.498441879357,0.0035837718434,0.00974968879839,0.001,-59.5848569006,6000.0,0.0,300.0,0.0
1513265725019872101,,564753,,1513265723,230063616,'',0.488692190558,0.49839589827,-0.0100418746624,0.0097037077119,0.001,-55.2485313987,6000.0,0.0,300.0,0.0
1513265725029819139,,564754,,1513265723,240063616,'',0.488692190558,0.498399215831,0.00445370802497,0.0097070252729,0.001,-59.5840599227,6000.0,0.0,300.0,0.0
1513265725039769981,,564755,,1513265723,250063616,'',0.488692190558,0.498413485905,0.00415967349233,0.00972129534672,0.001,-59.5855597672,6000.0,0.0,300.0,0.0
1513265725049674717,,564756,,1513265723,260063616,'',0.488692190558,0.498412981306,0.00417378451185,0.00972079074744,0.001,-59.5801770155,6000.0,0.0,300.0,0.0
1513265725059644161,,564757,,1513265723,270063616,'',0.488692190558,0.498425428523,0.00392517641745,0.00973323796444,0.001,-59.5795689827,6000.0,0.0,300.0,0.0
1513265725069531682,,564758,,1513265723,280063616,'',0.488692190558,0.498408982994,-0.0102882431206,0.00971679243567,0.001,-55.2732450112,6000.0,0.0,300.0,0.0
1513265725080043435,,564759,,1513265723,290063616,'',0.488692190558,0.498409044298,0.00426000454345,0.00971685374006,0.001,-59.5819966531,6000.0,0.0,300.0,0.0
1513265725089959009,,564760,,1513265723,300063616,'',0.488692190558,0.498380833125,-0.00973936981309,0.00968864256705,0.001,-55.2602813849,6000.0,0.0,300.0,0.0
1513265725099935878,,564761,,1513265723,310063616,'',0.488692190558,0.498372287475,0.00499952969515,0.00968009691628,0.001,-59.5910381041,6000.0,0.0,300.0,0.0
1513265725109910448,,564762,,1513265723,320063616,'',0.488692190558,0.498339931907,0.00565200907933,0.00964774134875,0.001,-59.589085373,6000.0,0.0,300.0,0.0
1513265725119947280,,564763,,1513265723,330063616,'',0.488692190558,0.498352369205,0.00539542105402,0.00966017864695,0.001,-59.5927142228,6000.0,0.0,300.0,0.0
1513265725129645423,,564764,,1513265723,340063616,'',0.488692190558,0.498348501203,-0.00908438292476,0.00965631064437,0.001,-55.2007071281,6000.0,0.0,300.0,0.0
1513265725139515619,,564765,,1513265723,350063616,'',0.488692190558,0.49833176083,-0.00874582720887,0.00963957027149,0.001,-55.1921464589,6000.0,0.0,300.0,0.0
1513265725149518885,,564766,,1513265723,360063616,'',0.488692190558,0.498292679621,0.00659647974217,0.00960048906273,0.001,-59.5448881705,6000.0,0.0,300.0,0.0
1513265725159903449,,564767,,1513265723,370063616,'',0.488692190558,0.498311136118,-0.00833028789784,0.0096189455595,0.001,-55.2017422255,6000.0,0.0,300.0,0.0
1513265725169873046,,564768,,1513265723,380063616,'',0.488692190558,0.498311679241,-0.00837254402986,0.00961948868254,0.001,-55.1390607313,6000.0,0.0,300.0,0.0
1513265725179786948,,564769,,1513265723,390063616,'',0.488692190558,0.498300531249,-0.00813882557658,0.00960834069092,0.001,-55.2572454573,6000.0,0.0,300.0,0.0
1513265725189676819,,564770,,1513265723,400063616,'',0.488692190558,0.498254009689,-0.00718829264613,0.00956181913056,0.001,-55.2187277925,6000.0,0.0,300.0,0.0
1513265725199717655,,564771,,1513265723,410063616,'',0.488692190558,0.498229556048,0.00786493951558,0.00953736548965,0.001,-59.5864829382,6000.0,0.0,300.0,0.0
1513265725210046794,,564772,,1513265723,420063616,'',0.488692190558,0.498236449865,0.00771981924418,0.00954425930695,0.001,-59.647098387,6000.0,0.0,300.0,0.0
1513265725219661021,,564773,,1513265723,430063616,'',0.488692190558,0.498252885159,-0.00714865747429,0.00956069460054,0.001,-55.2595720661,6000.0,0.0,300.0,0.0
1513265725229953622,,564774,,1513265723,440063616,'',0.488692190558,0.498268792982,0.00709593750595,0.00957660242365,0.001,-59.5971647135,6000.0,0.0,300.0,0.0
1513265725239933101,,564775,,1513265723,450063616,'',0.488692190558,0.498239857121,-0.00688169871139,0.00954766656306,0.001,-55.2151844094,6000.0,0.0,300.0,0.0
1513265725249895438,,564776,,1513265723,460063616,'',0.488692190558,0.49825852149,0.00730075545838,0.00956633093158,0.001,-59.6002043444,6000.0,0.0,300.0,0.0
1513265725259762180,,564777,,1513265723,470063616,'',0.488692190558,0.498256930988,-0.00722152633539,0.00956474042979,0.001,-55.2138367496,6000.0,0.0,300.0,0.0
1513265725269663057,,564778,,1513265723,480063616,'',0.488692190558,0.498220516006,0.00807063124113,0.00952832544769,0.001,-59.6067834251,6000.0,0.0,300.0,0.0
1513265725279744000,,564779,,1513265723,490063616,'',0.488692190558,0.498253312859,0.00740454051313,0.00956112230042,0.001,-59.6028461025,6000.0,0.0,300.0,0.0
1513265725289546280,,564780,,1513265723,500063616,'',0.488692190558,0.498239463471,-0.00687546026292,0.00954727291261,0.001,-55.2132290218,6000.0,0.0,300.0,0.0
1513265725299483580,,564781,,1513265723,510063616,'',0.488692190558,0.498229631873,-0.00667784115292,0.00953744131419,0.001,-55.210204205,6000.0,0.0,300.0,0.0
1513265725309617040,,564782,,1513265723,520063616,'',0.488692190558,0.498235875732,0.00775114744992,0.0095436851735,0.001,-59.5413318248,6000.0,0.0,300.0,0.0
1513265725319644918,,564783,,1513265723,530063616,'',0.488692190558,0.498200330529,-0.00608397118266,0.00950813997009,0.001,-55.2125906696,6000.0,0.0,300.0,0.0
1513265725329680828,,564784,,1513265723,540063616,'',0.488692190558,0.498238489382,0.0076997049236,0.00954629882365,0.001,-59.5954587476,6000.0,0.0,300.0,0.0
1513265725339503476,,564785,,1513265723,550063616,'',0.488692190558,0.498202246936,-0.006120031387,0.00951005637755,0.001,-55.2146146167,6000.0,0.0,300.0,0.0
1513265725349965835,,564786,,1513265723,560063616,'',0.488692190558,0.498175650702,0.00897351820878,0.00948346014324,0.001,-59.6056040887,6000.0,0.0,300.0,0.0
1513265725359942403,,564787,,1513265723,570063616,'',0.488692190558,0.498152264164,-0.00511593936786,0.00946007360556,0.001,-55.2531168011,6000.0,0.0,300.0,0.0
1513265725370030460,,564788,,1513265723,580063616,'',0.488692190558,0.498132615237,0.00983551495858,0.00944042467845,0.001,-59.6095034182,6000.0,0.0,300.0,0.0
1513265725379984296,,564789,,1513265723,590063616,'',0.488692190558,0.498132140036,0.00984493597949,0.00943994947761,0.001,-59.6123932822,6000.0,0.0,300.0,0.0
1513265725389784223,,564790,,1513265723,600063616,'',0.488692190558,0.498131027908,0.00986528648095,0.0094388373497,0.001,-59.5383324203,6000.0,0.0,300.0,0.0
1513265725399727898,,564791,,1513265723,610063616,'',0.488692190558,0.498128027865,0.00992437768419,0.00943583730664,0.001,-59.6106367665,6000.0,0.0,300.0,0.0
1513265725409619816,,564792,,1513265723,620063616,'',0.488692190558,0.49808651588,-0.00379249930226,0.00939432532117,0.001,-55.2240071158,6000.0,0.0,300.0,0.0
1513265725419776953,,564793,,1513265723,630063616,'',0.488692190558,0.498106324666,-0.00419069399273,0.00941413410778,0.001,-55.223003573,6000.0,0.0,300.0,0.0
1513265725429996984,,564794,,1513265723,640063616,'',0.488692190558,0.498107525117,0.0103398501938,0.00941533455874,0.001,-59.5430106425,6000.0,0.0,300.0,0.0
1513265725439901750,,564795,,1513265723,650063616,'',0.488692190558,0.498094772335,-0.00396039089141,0.00940258177693,0.001,-55.2243526055,6000.0,0.0,300.0,0.0
1513265725449920971,,564796,,1513265723,660063616,'',0.488692190558,0.498085508431,-0.00377519896424,0.00939331787291,0.001,-55.2251919832,6000.0,0.0,300.0,0.0
1513265725459611310,,564797,,1513265723,670063616,'',0.488692190558,0.498102421957,-0.00411769176423,0.00941023139855,0.001,-55.2236594935,6000.0,0.0,300.0,0.0
1513265725469697653,,564798,,1513265723,680063616,'',0.488692190558,0.498092250758,-0.00391440646465,0.00940006019983,0.001,-55.2302160914,6000.0,0.0,300.0,0.0
1513265725479652416,,564799,,1513265723,690063616,'',0.488692190558,0.498111513544,0.0102551495277,0.00941932298542,0.001,-59.6114153867,6000.0,0.0,300.0,0.0
1513265725489576426,,564800,,1513265723,700063616,'',0.488692190558,0.498123337645,-0.00453778224808,0.00943114708708,0.001,-55.2230729141,6000.0,0.0,300.0,0.0
1513265725499569636,,564801,,1513265723,710063616,'',0.488692190558,0.498134895239,0.00978420703249,0.0094427046809,0.001,-59.6036355517,6000.0,0.0,300.0,0.0
1513265725510004876,,564802,,1513265723,720063616,'',0.488692190558,0.49811943763,0.0100977085873,0.00942724707144,0.001,-59.6019348383,6000.0,0.0,300.0,0.0
1513265725519560101,,564803,,1513265723,730063616,'',0.488692190558,0.498092543268,-0.00391692977936,0.00940035270933,0.001,-55.2530490037,6000.0,0.0,300.0,0.0
1513265725529721298,,564804,,1513265723,740063616,'',0.488692190558,0.498082676057,-0.00371400801685,0.00939048549883,0.001,-55.1983953869,6000.0,0.0,300.0,0.0
1513265725539940573,,564805,,1513265723,750063616,'',0.488692190558,0.498075478812,-0.00356361289892,0.00938328825342,0.001,-55.2281589773,6000.0,0.0,300.0,0.0
1513265725549846313,,564806,,1513265723,760063616,'',0.488692190558,0.498068705219,-0.00342945947377,0.00937651466101,0.001,-55.2484809419,6000.0,0.0,300.0,0.0
1513265725559890705,,564807,,1513265723,770063616,'',0.488692190558,0.498092399338,0.0106590356529,0.0094002087791,0.001,-59.6139169748,6000.0,0.0,300.0,0.0
1513265725569809066,,564808,,1513265723,780063616,'',0.488692190558,0.498098227202,-0.00401819469558,0.00940603664368,0.001,-55.2286871839,6000.0,0.0,300.0,0.0
1513265725579819348,,564809,,1513265723,790063616,'',0.488692190558,0.498087613937,-0.00380461477774,0.0093954233789,0.001,-55.2247262119,6000.0,0.0,300.0,0.0
1513265725589741684,,564810,,1513265723,800063616,'',0.488692190558,0.498079831922,-0.00365746157764,0.00938764136316,0.001,-55.2257063168,6000.0,0.0,300.0,0.0
1513265725599626191,,564811,,1513265723,810063616,'',0.488692190558,0.498074137574,-0.00354078404845,0.00938194701532,0.001,-55.2486863198,6000.0,0.0,300.0,0.0
1513265725609582879,,564812,,1513265723,820063616,'',0.488692190558,0.498079615541,-0.00365333308679,0.00938742498228,0.001,-55.1925373458,6000.0,0.0,300.0,0.0
1513265725620102313,,564813,,1513265723,830063616,'',0.488692190558,0.498046977077,-0.00299240918143,0.00935478651821,0.001,-55.2312713494,6000.0,0.0,300.0,0.0
1513265725630097508,,564814,,1513265723,840063616,'',0.488692190558,0.498072762928,0.011047801551,0.00938057236923,0.001,-59.5478777396,6000.0,0.0,300.0,0.0
1513265725639952329,,564815,,1513265723,850063616,'',0.488692190558,0.498053967135,-0.00313223269323,0.00936177657631,0.001,-55.2298569185,6000.0,0.0,300.0,0.0
1513265725649988886,,564816,,1513265723,860063616,'',0.488692190558,0.498039128043,-0.0028283418192,0.00934693748474,0.001,-55.2275562905,6000.0,0.0,300.0,0.0
1513265725659873221,,564817,,1513265723,870063616,'',0.488692190558,0.498025703786,-0.0025599175774,0.00933351322756,0.001,-55.2475934349,6000.0,0.0,300.0,0.0
1513265725669574709,,564818,,1513265723,880063616,'',0.488692190558,0.498053118704,-0.0031192847632,0.00936092814608,0.001,-55.2496880729,6000.0,0.0,300.0,0.0
1513265725680041481,,564819,,1513265723,890063616,'',0.488692190558,0.49802520106,-0.00255350172824,0.00933301050177,0.001,-55.2284493941,6000.0,0.0,300.0,0.0
1513265725689911402,,564820,,1513265723,900063616,'',0.488692190558,0.498015262749,-0.00235740814287,0.00932307219082,0.001,-55.2159689144,6000.0,0.0,300.0,0.0
1513265725699743396,,564821,,1513265723,910063616,'',0.488692190558,0.498019247399,-0.00243028406005,0.00932705684101,0.001,-55.2318965601,6000.0,0.0,300.0,0.0
1513265725709730475,,564822,,1513265723,920063616,'',0.488692190558,0.498009886833,-0.00224315757912,0.00931769627467,0.001,-55.2333362272,6000.0,0.0,300.0,0.0
1513265725719643315,,564823,,1513265723,930063616,'',0.488692190558,0.498002230277,-0.00208818282029,0.0093100397189,0.001,-55.2333390877,6000.0,0.0,300.0,0.0
1513265725729707323,,564824,,1513265723,940063616,'',0.488692190558,0.498009526461,0.0123165126406,0.00931733590258,0.001,-59.5431851517,6000.0,0.0,300.0,0.0
1513265725739511371,,564825,,1513265723,950063616,'',0.488692190558,0.498028883795,0.0119288860733,0.00933669323664,0.001,-59.6223518945,6000.0,0.0,300.0,0.0
1513265725749581652,,564826,,1513265723,960063616,'',0.488692190558,0.498044584822,-0.0029462462934,0.00935239426327,0.001,-55.231446207,6000.0,0.0,300.0,0.0
1513265725760016187,,564827,,1513265723,970063616,'',0.488692190558,0.498030714372,-0.00266424379077,0.0093385238138,0.001,-55.2460852926,6000.0,0.0,300.0,0.0
1513265725769922494,,564828,,1513265723,980063616,'',0.488692190558,0.498018828792,-0.00242278300638,0.00932663823316,0.001,-55.2312336487,6000.0,0.0,300.0,0.0
1513265725779854443,,564829,,1513265723,990063616,'',0.488692190558,0.498010682252,-0.00225422823198,0.00931849169406,0.001,-55.2311582231,6000.0,0.0,300.0,0.0
1513265725789831240,,564830,,1513265724,63616,'',0.488692190558,0.498015555139,-0.00235840677237,0.00932336458029,0.001,-55.2315302658,6000.0,0.0,300.0,0.0
1513265725799642116,,564831,,1513265724,10063616,'',0.488692190558,0.4980215115,-0.00247716977442,0.00932932094134,0.001,-55.2466967156,6000.0,0.0,300.0,0.0
1513265725809583247,,564832,,1513265724,20063616,'',0.488692190558,0.497999328753,-0.00202789370962,0.00930713819416,0.001,-55.2330004956,6000.0,0.0,300.0,0.0
1513265725819575745,,564833,,1513265724,30063616,'',0.488692190558,0.497993932983,-0.00191679619682,0.00930174242448,0.001,-55.2316919045,6000.0,0.0,300.0,0.0
1513265725829603950,,564834,,1513265724,40063616,'',0.488692190558,0.498003477677,0.0124412362574,0.00931128711842,0.001,-59.5267819793,6000.0,0.0,300.0,0.0
1513265725839527261,,564835,,1513265724,50063616,'',0.488692190558,0.497997821566,-0.00200232420691,0.00930563100719,0.001,-55.2312657853,6000.0,0.0,300.0,0.0
1513265725850495481,,564836,,1513265724,60063616,'',0.488692190558,0.497992658998,-0.00189643350351,0.00930046843965,0.001,-55.2346960399,6000.0,0.0,300.0,0.0
1513265725859810790,,564837,,1513265724,70063616,'',0.488692190558,0.497989802851,-0.00183438103218,0.00929761229229,0.001,-55.2443082759,6000.0,0.0,300.0,0.0
1513265725869731452,,564838,,1513265724,80063616,'',0.488692190558,0.49799940631,-0.00202463563269,0.00930721575152,0.001,-55.2458609972,6000.0,0.0,300.0,0.0
1513265725879692274,,564839,,1513265724,90063616,'',0.488692190558,0.497981232708,-0.00165743418404,0.00928904214929,0.001,-55.2351190347,6000.0,0.0,300.0,0.0
1513265725889681247,,564840,,1513265724,100063616,'',0.488692190558,0.498007275734,0.0123735046694,0.00931508517519,0.001,-59.5529328759,6000.0,0.0,300.0,0.0
1513265725899621546,,564841,,1513265724,110063616,'',0.488692190558,0.498001413992,-0.00206239224758,0.00930922343381,0.001,-55.2322148202,6000.0,0.0,300.0,0.0
1513265725909598977,,564842,,1513265724,120063616,'',0.488692190558,0.497995871097,-0.00195021317737,0.00930368053813,0.001,-55.2333137847,6000.0,0.0,300.0,0.0
1513265725919584784,,564843,,1513265724,130063616,'',0.488692190558,0.497978338664,-0.00159650948257,0.00928614810583,0.001,-55.2329387172,6000.0,0.0,300.0,0.0
1513265725929543892,,564844,,1513265724,140063616,'',0.488692190558,0.497964015693,-0.00130755426746,0.00927182513488,0.001,-55.2362001183,6000.0,0.0,300.0,0.0
1513265725940012008,,564845,,1513265724,150063616,'',0.488692190558,0.497966611836,0.0131966091659,0.00927442127789,0.001,-59.629311065,6000.0,0.0,300.0,0.0
1513265725949972308,,564846,,1513265724,160063616,'',0.488692190558,0.497954387112,-0.00111338118743,0.00926219655311,0.001,-55.2366698105,6000.0,0.0,300.0,0.0
1513265725959864319,,564847,,1513265724,170063616,'',0.488692190558,0.497944398315,-0.000911850867031,0.0092522077561,0.001,-55.2379116314,6000.0,0.0,300.0,0.0
1513265725969804438,,564848,,1513265724,180063616,'',0.488692190558,0.497936202918,-0.000746503535807,0.00924401235938,0.001,-55.2389361736,6000.0,0.0,300.0,0.0
1513265725979823015,,564849,,1513265724,190063616,'',0.488692190558,0.497916412372,-0.000348988778137,0.00922422181398,0.001,-55.2405133291,6000.0,0.0,300.0,0.0
1513265725989667961,,564850,,1513265724,200063616,'',0.488692190558,0.497913291105,-0.0002856938411,0.0092211005469,0.001,-55.2411456928,6000.0,0.0,300.0,0.0
1513265725999735067,,564851,,1513265724,210063616,'',0.488692190558,0.497910063345,-0.0002248563531,0.00921787278662,0.001,-55.2411361525,6000.0,0.0,300.0,0.0
1513265726009640718,,564852,,1513265724,220063616,'',0.488692190558,0.497921312438,-0.000454250029682,0.00922912187987,0.001,-55.2399402643,6000.0,0.0,300.0,0.0
1513265726019591253,,564853,,1513265724,230063616,'',0.488692190558,0.497917302031,-0.000371855342794,0.00922511147257,0.001,-55.240300633,6000.0,0.0,300.0,0.0
1513265726030028743,,564854,,1513265724,240063616,'',0.488692190558,0.497914026264,-0.00030455400619,0.00922183570586,0.001,-55.2410973223,6000.0,0.0,300.0,0.0
1513265726040036354,,564855,,1513265724,250063616,'',0.488692190558,0.497898364655,1.54161540649e-05,0.0092061740961,0.001,-55.242015299,6000.0,0.0,300.0,0.0
1513265726049935243,,564856,,1513265724,260063616,'',0.488692190558,0.497912557515,0.0142827282501,0.00922036695636,0.001,-59.538628817,6000.0,0.0,300.0,0.0
1513265726059886011,,564857,,1513265724,270063616,'',0.488692190558,0.497925229348,0.0140191025723,0.00923303878993,0.001,-59.6505965047,6000.0,0.0,300.0,0.0
1513265726069830698,,564858,,1513265724,280063616,'',0.488692190558,0.497920509788,-0.000440056232433,0.00922831922995,0.001,-55.2402353691,6000.0,0.0,300.0,0.0
1513265726079883034,,564859,,1513265724,290063616,'',0.488692190558,0.497916652042,-0.000360382141954,0.00922446148327,0.001,-55.24250323,6000.0,0.0,300.0,0.0
1513265726089695415,,564860,,1513265724,300063616,'',0.488692190558,0.497940552804,-0.000840765385764,0.00924836224566,0.001,-55.2385674372,6000.0,0.0,300.0,0.0
1513265726099685340,,564861,,1513265724,310063616,'',0.488692190558,0.497933053267,-0.000688278556707,0.00924086270856,0.001,-55.2388079128,6000.0,0.0,300.0,0.0
1513265726109610033,,564862,,1513265724,320063616,'',0.488692190558,0.497926912178,-0.000563412831627,0.0092347216199,0.001,-55.2400472779,6000.0,0.0,300.0,0.0
1513265726119568434,,564863,,1513265724,330063616,'',0.488692190558,0.497921895251,-0.000461404493566,0.00922970469274,0.001,-55.2398840546,6000.0,0.0,300.0,0.0
1513265726129558678,,564864,,1513265724,340063616,'',0.488692190558,0.497943030766,-0.000884170569049,0.00925084020738,0.001,-55.2380375374,6000.0,0.0,300.0,0.0
1513265726140040409,,564865,,1513265724,350063616,'',0.488692190558,0.497935095498,-0.000724087650718,0.00924290494,0.001,-55.2432201707,6000.0,0.0,300.0,0.0
1513265726149878206,,564866,,1513265724,360063616,'',0.488692190558,0.497928585735,-0.000592762275427,0.00923639517633,0.001,-55.2403108974,6000.0,0.0,300.0,0.0
1513265726159849241,,564867,,1513265724,370063616,'',0.488692190558,0.497911087237,-0.000241373045662,0.00921889667859,0.001,-55.2410478637,6000.0,0.0,300.0,0.0
1513265726169863566,,564868,,1513265724,380063616,'',0.488692190558,0.497908935484,-0.000197671408321,0.00921674492572,0.001,-55.242383819,6000.0,0.0,300.0,0.0
1513265726179834485,,564869,,1513265724,390063616,'',0.488692190558,0.497907662664,-0.000172044032341,0.00921547210604,0.001,-55.2412567252,6000.0,0.0,300.0,0.0
