rosbagTimestamp,header,seq,stamp,secs,nsecs,frame_id,set_point,process_value,process_value_dot,error,time_step,command,p,i,d,i_clamp
1513265720979984931,,564346,,1513265719,190063616,'',0.750491578358,0.368150756575,0.00157835628274,-0.382340821783,0.001,550.0,3100.0,0.0,3000.0,0.0
1513265720989724421,,564347,,1513265719,200063616,'',0.750491578358,0.368153730176,0.00151698983011,-0.382337848181,0.001,550.0,3100.0,0.0,3000.0,0.0
1513265720999717150,,564348,,1513265719,210063616,'',0.750491578358,0.368161551201,-0.00459587815644,-0.382330027156,0.001,550.0,3100.0,0.0,3000.0,0.0
1513265721009701450,,564349,,1513265719,220063616,'',0.750491578358,0.36816972563,0.00119773871926,-0.382321852727,0.001,550.0,3100.0,0.0,3000.0,0.0
1513265721019568963,,564350,,1513265719,230063616,'',0.750491578358,0.368195968988,0.000664402621381,-0.38229560937,0.001,550.0,3100.0,0.0,3000.0,0.0
1513265721029570379,,564351,,1513265719,240063616,'',0.750491578358,0.368213253031,0.00627098352099,-0.382278325327,0.001,550.0,3100.0,0.0,3000.0,0.0
1513265721039571947,,564352,,1513265719,250063616,'',0.750491578358,0.368226649352,4.41893487859e-05,-0.382264929005,0.001,550.0,3100.0,0.0,3000.0,0.0
1513265721049445236,,564353,,1513265719,260063616,'',0.750491578358,0.368237476838,-0.000175130192697,-0.382254101519,0.001,550.0,3100.0,0.0,3000.0,0.0
1513265721059496202,,564354,,1513265719,270063616,'',0.750491578358,0.368241510205,-0.000255932795501,-0.382250068152,0.001,550.0,3100.0,0.0,3000.0,0.0
1513265721069785971,,564355,,1513265719,280063616,'',0.750491578358,0.368266283107,0.00520047588505,-0.382225295251,0.001,550.0,3100.0,0.0,3000.0,0.0
1513265721079855398,,564356,,1513265719,290063616,'',0.750491578358,0.368281789562,0.00488732406909,-0.382209788796,0.001,550.0,3100.0,0.0,3000.0,0.0
1513265721089640375,,564357,,1513265719,300063616,'',0.750491578358,0.368277549749,-0.000982655094715,-0.382214028609,0.001,550.0,3100.0,0.0,3000.0,0.0
1513265721099542927,,564358,,1513265719,310063616,'',0.750491578358,0.36828452392,0.00483094000871,-0.382207054438,0.001,550.0,3100.0,0.0,3000.0,0.0
1513265721109923835,,564359,,1513265719,320063616,'',0.750491578358,0.368285576329,-0.0011445967171,-0.382206002028,0.001,550.0,3100.0,0.0,3000.0,0.0
1513265721119865920,,564360,,1513265719,330063616,'',0.750491578358,0.368297887523,-0.00138611038904,-0.382193690834,0.001,550.0,3100.0,0.0,3000.0,0.0
1513265721129817522,,564361,,1513265719,340063616,'',0.750491578358,0.368311243096,-0.00165657249175,-0.382180335262,0.001,550.0,3100.0,0.0,3000.0,0.0
1513265721139864320,,564362,,1513265719,350063616,'',0.750491578358,0.368307008015,-0.00157108225328,-0.382184570343,0.001,550.0,3100.0,0.0,3000.0,0.0
1513265721149841047,,564363,,1513265719,360063616,'',0.750491578358,0.368309253847,-0.00160893385456,-0.382182324511,0.001,550.0,3100.0,0.0,3000.0,0.0
1513265721159693371,,564364,,1513265719,370063616,'',0.750491578358,0.368310993131,-0.00164572313623,-0.382180585226,0.001,550.0,3100.0,0.0,3000.0,0.0
1513265721169601716,,564365,,1513265719,380063616,'',0.750491578358,0.368311088021,-0.00164668068371,-0.382180490337,0.001,550.0,3100.0,0.0,3000.0,0.0
1513265721179476309,,564366,,1513265719,390063616,'',0.750491578358,0.368306935997,-0.00156480057363,-0.38218464236,0.001,550.0,3100.0,0.0,3000.0,0.0
1513265721189503041,,564367,,1513265719,400063616,'',0.750491578358,0.368293133413,0.00466740211276,-0.382198444945,0.001,550.0,3100.0,0.0,3000.0,0.0
1513265721199938527,,564368,,1513265719,410063616,'',0.750491578358,0.368287032798,-0.00116824188449,-0.382204545559,0.001,550.0,3100.0,0.0,3000.0,0.0
1513265721209944726,,564369,,1513265719,420063616,'',0.750491578358,0.368292448085,-0.00127806409656,-0.382199130272,0.001,550.0,3100.0,0.0,3000.0,0.0
1513265721219901435,,564370,,1513265719,430063616,'',0.750491578358,0.368312860595,-0.00169191206224,-0.382178717763,0.001,550.0,3100.0,0.0,3000.0,0.0
1513265721229814605,,564371,,1513265719,440063616,'',0.750491578358,0.368336112148,0.00974950360428,-0.382155466209,0.001,550.0,3100.0,0.0,3000.0,0.0
1513265721239814260,,564372,,1513265719,450063616,'',0.750491578358,0.368363997523,0.00322992162441,-0.382127580835,0.001,550.0,3100.0,0.0,3000.0,0.0
1513265721249659760,,564373,,1513265719,460063616,'',0.750491578358,0.368377502737,0.00295764853741,-0.38211407562,0.001,550.0,3100.0,0.0,3000.0,0.0
1513265721259502087,,564374,,1513265719,470063616,'',0.750491578358,0.368377238237,0.00296251864535,-0.382114340121,0.001,550.0,3100.0,0.0,3000.0,0.0
1513265721269842011,,564375,,1513265719,480063616,'',0.750491578358,0.368403835573,0.00242530898224,-0.382087742785,0.001,550.0,3100.0,0.0,3000.0,0.0
1513265721279747502,,564376,,1513265719,490063616,'',0.750491578358,0.368425621586,0.00198527779955,-0.382065956771,0.001,550.0,3100.0,0.0,3000.0,0.0
1513265721289770050,,564377,,1513265719,500063616,'',0.750491578358,0.368437786821,0.00173987529223,-0.382053791537,0.001,550.0,3100.0,0.0,3000.0,0.0
1513265721299682399,,564378,,1513265719,510063616,'',0.750491578358,0.368469354853,0.00109999923515,-0.382022223504,0.001,550.0,3100.0,0.0,3000.0,0.0
1513265721309602613,,564379,,1513265719,520063616,'',0.750491578358,0.368483385179,-0.00514142466774,-0.382008193178,0.001,550.0,3100.0,0.0,3000.0,0.0
1513265721319681467,,564380,,1513265719,530063616,'',0.750491578358,0.368485824101,0.00671830561992,-0.382005754257,0.001,550.0,3100.0,0.0,3000.0,0.0
1513265721329614299,,564381,,1513265719,540063616,'',0.750491578358,0.368498219194,0.000510176214977,-0.381993359164,0.001,550.0,3100.0,0.0,3000.0,0.0
1513265721339498101,,564382,,1513265719,550063616,'',0.750491578358,0.368524378522,0.00594044789202,-0.381967199836,0.001,550.0,3100.0,0.0,3000.0,0.0
1513265721349517244,,564383,,1513265719,560063616,'',0.750491578358,0.368525311774,-0.00598864821487,-0.381966266583,0.001,550.0,3100.0,0.0,3000.0,0.0
1513265721359920689,,564384,,1513265719,570063616,'',0.750491578358,0.368526485749,0.00589957954127,-0.381965092609,0.001,550.0,3100.0,0.0,3000.0,0.0
1513265721369660717,,564385,,1513265719,580063616,'',0.750491578358,0.368547074504,-0.000472743530476,-0.381944503853,0.001,550.0,3100.0,0.0,3000.0,0.0
1513265721379599655,,564386,,1513265719,590063616,'',0.750491578358,0.368558346428,-0.000700027965963,-0.381933231929,0.001,550.0,3100.0,0.0,3000.0,0.0
1513265721389652197,,564387,,1513265719,600063616,'',0.750491578358,0.368568190134,-0.000896594500631,-0.381923388224,0.001,550.0,3100.0,0.0,3000.0,0.0
1513265721399681876,,564388,,1513265719,610063616,'',0.750491578358,0.36858757016,0.00466923754487,-0.381904008197,0.001,550.0,3100.0,0.0,3000.0,0.0
1513265721409705606,,564389,,1513265719,620063616,'',0.750491578358,0.368597479865,-0.00148790037047,-0.381894098492,0.001,550.0,3100.0,0.0,3000.0,0.0
1513265721420090001,,564390,,1513265719,630063616,'',0.750491578358,0.36862088941,-0.00196048972134,-0.381870688947,0.001,550.0,3100.0,0.0,3000.0,0.0
1513265721429532684,,564391,,1513265719,640063616,'',0.750491578358,0.368634288514,-0.00222911961891,-0.381857289843,0.001,550.0,3100.0,0.0,3000.0,0.0
1513265721439520237,,564392,,1513265719,650063616,'',0.750491578358,0.368635842725,0.00369441692206,-0.381855735633,0.001,550.0,3100.0,0.0,3000.0,0.0
1513265721449964362,,564393,,1513265719,660063616,'',0.750491578358,0.368646762291,-0.00248081921444,-0.381844816066,0.001,550.0,3100.0,0.0,3000.0,0.0
1513265721459916377,,564394,,1513265719,670063616,'',0.750491578358,0.368651878218,0.00337326180904,-0.381839700139,0.001,550.0,3100.0,0.0,3000.0,0.0
1513265721469916618,,564395,,1513265719,680063616,'',0.750491578358,0.36866075676,0.00319059629601,-0.381830821598,0.001,550.0,3100.0,0.0,3000.0,0.0
1513265721479821756,,564396,,1513265719,690063616,'',0.750491578358,0.368635933054,-0.00226393577529,-0.381855645303,0.001,550.0,3100.0,0.0,3000.0,0.0
1513265721489790920,,564397,,1513265719,700063616,'',0.750491578358,0.368605739208,0.00430180801379,-0.38188583915,0.001,550.0,3100.0,0.0,3000.0,0.0
1513265721499606189,,564398,,1513265719,710063616,'',0.750491578358,0.368601550995,0.00438320636499,-0.381890027363,0.001,550.0,3100.0,0.0,3000.0,0.0
1513265721509540159,,564399,,1513265719,720063616,'',0.750491578358,0.368603672791,0.0102940863056,-0.381887905566,0.001,550.0,3100.0,0.0,3000.0,0.0
1513265721519958839,,564400,,1513265719,730063616,'',0.750491578358,0.368615901532,0.00408999760722,-0.381875676825,0.001,550.0,3100.0,0.0,3000.0,0.0
1513265721529927583,,564401,,1513265719,740063616,'',0.750491578358,0.36864149034,0.00357039094603,-0.381850088017,0.001,550.0,3100.0,0.0,3000.0,0.0
1513265721539840872,,564402,,1513265719,750063616,'',0.750491578358,0.368662906371,0.00313988125493,-0.381828671987,0.001,550.0,3100.0,0.0,3000.0,0.0
1513265721549742625,,564403,,1513265719,760063616,'',0.750491578358,0.368686354795,0.00862391740754,-0.381805223562,0.001,550.0,3100.0,0.0,3000.0,0.0
1513265721559693253,,564404,,1513265719,770063616,'',0.750491578358,0.368699262278,0.00241106982483,-0.38179231608,0.001,550.0,3100.0,0.0,3000.0,0.0
1513265721570012168,,564405,,1513265719,780063616,'',0.750491578358,0.368710334208,0.00218851351294,-0.38178124415,0.001,550.0,3100.0,0.0,3000.0,0.0
1513265721579944288,,564406,,1513265719,790063616,'',0.750491578358,0.368719191805,-0.00394753843457,-0.381772386553,0.001,550.0,3100.0,0.0,3000.0,0.0
1513265721589823034,,564407,,1513265719,800063616,'',0.750491578358,0.368736374435,0.0016605574562,-0.381755203923,0.001,550.0,3100.0,0.0,3000.0,0.0
1513265721599793926,,564408,,1513265719,810063616,'',0.750491578358,0.368735185103,-0.00427108519549,-0.381756393254,0.001,550.0,3100.0,0.0,3000.0,0.0
1513265721609720931,,564409,,1513265719,820063616,'',0.750491578358,0.368744247496,-0.00445373900238,-0.381747330862,0.001,550.0,3100.0,0.0,3000.0,0.0
1513265721619630792,,564410,,1513265719,830063616,'',0.750491578358,0.3687523102,0.00133999227704,-0.381739268158,0.001,550.0,3100.0,0.0,3000.0,0.0
1513265721629715612,,564411,,1513265719,840063616,'',0.750491578358,0.368752844045,0.00132918915631,-0.381738734312,0.001,550.0,3100.0,0.0,3000.0,0.0
1513265721639621921,,564412,,1513265719,850063616,'',0.750491578358,0.368753651315,-0.00464254044918,-0.381737927043,0.001,550.0,3100.0,0.0,3000.0,0.0
1513265721649838410,,564413,,1513265719,860063616,'',0.750491578358,0.368754768956,0.00129051565642,-0.381736809402,0.001,550.0,3100.0,0.0,3000.0,0.0
1513265721659960567,,564414,,1513265719,870063616,'',0.750491578358,0.368754871842,-0.00466587107101,-0.381736706515,0.001,550.0,3100.0,0.0,3000.0,0.0
1513265721669875670,,564415,,1513265719,880063616,'',0.750491578358,0.368777221305,0.000838529904659,-0.381714357053,0.001,550.0,3100.0,0.0,3000.0,0.0
1513265721679859773,,564416,,1513265719,890063616,'',0.750491578358,0.368800406649,0.000371473113591,-0.381691171709,0.001,550.0,3100.0,0.0,3000.0,0.0
1513265721689851183,,564417,,1513265719,900063616,'',0.750491578358,0.368786902366,0.000641586353308,-0.381704675992,0.001,550.0,3100.0,0.0,3000.0,0.0
1513265721699881906,,564418,,1513265719,910063616,'',0.750491578358,0.368776631862,0.000846975512464,-0.381714946495,0.001,550.0,3100.0,0.0,3000.0,0.0
1513265721709895515,,564419,,1513265719,920063616,'',0.750491578358,0.368778722935,0.00080590830816,-0.381712855422,0.001,550.0,3100.0,0.0,3000.0,0.0
1513265721719919825,,564420,,1513265719,930063616,'',0.750491578358,0.368774783472,0.000884707116606,-0.381716794886,0.001,550.0,3100.0,0.0,3000.0,0.0
1513265721729792126,,564421,,1513265719,940063616,'',0.750491578358,0.368793781657,0.000501057495327,-0.381697796701,0.001,550.0,3100.0,0.0,3000.0,0.0
1513265721739766190,,564422,,1513265719,950063616,'',0.750491578358,0.368814870667,7.51647108174e-05,-0.38167670769,0.001,550.0,3100.0,0.0,3000.0,0.0
1513265721749658546,,564423,,1513265719,960063616,'',0.750491578358,0.36883643217,-0.000362928314181,-0.381655146187,0.001,550.0,3100.0,0.0,3000.0,0.0
1513265721759543664,,564424,,1513265719,970063616,'',0.750491578358,0.368833228332,-0.000297235575462,-0.381658350026,0.001,550.0,3100.0,0.0,3000.0,0.0
1513265721769675626,,564425,,1513265719,980063616,'',0.750491578358,0.368830897479,-0.0002508759099,-0.381660680878,0.001,550.0,3100.0,0.0,3000.0,0.0
1513265721780050464,,564426,,1513265719,990063616,'',0.750491578358,0.36882867401,-0.000205023130545,-0.381662904347,0.001,550.0,3100.0,0.0,3000.0,0.0
1513265721789940989,,564427,,1513265720,63616,'',0.750491578358,0.368810697345,0.000158552443776,-0.381680881012,0.001,550.0,3100.0,0.0,3000.0,0.0
1513265721799928038,,564428,,1513265720,10063616,'',0.750491578358,0.368801010841,0.000354014088832,-0.381690567517,0.001,550.0,3100.0,0.0,3000.0,0.0
1513265721809928186,,564429,,1513265720,20063616,'',0.750491578358,0.368788105888,0.000617189223259,-0.381703472469,0.001,550.0,3100.0,0.0,3000.0,0.0
1513265721819707843,,564430,,1513265720,30063616,'',0.750491578358,0.368800143198,0.00633017254757,-0.38169143516,0.001,550.0,3100.0,0.0,3000.0,0.0
1513265721830014596,,564431,,1513265720,40063616,'',0.750491578358,0.368803067735,0.00626876810398,-0.381688510622,0.001,550.0,3100.0,0.0,3000.0,0.0
1513265721840048276,,564432,,1513265720,50063616,'',0.750491578358,0.368795192876,0.000472651890602,-0.381696385482,0.001,550.0,3100.0,0.0,3000.0,0.0
1513265721850254198,,564433,,1513265720,60063616,'',0.750491578358,0.368804488618,0.00624121288766,-0.381687089739,0.001,550.0,3100.0,0.0,3000.0,0.0
1513265721859696003,,564434,,1513265720,70063616,'',0.750491578358,0.368802084143,0.000334902305703,-0.381689494214,0.001,550.0,3100.0,0.0,3000.0,0.0
1513265721869495103,,564435,,1513265720,80063616,'',0.750491578358,0.368809846201,0.000175759986995,-0.381681732157,0.001,550.0,3100.0,0.0,3000.0,0.0
1513265721879567324,,564436,,1513265720,90063616,'',0.750491578358,0.368807027622,0.000232410046302,-0.381684550735,0.001,550.0,3100.0,0.0,3000.0,0.0
1513265721889882124,,564437,,1513265720,100063616,'',0.750491578358,0.36879786881,-0.00553682459334,-0.381693709547,0.001,550.0,3100.0,0.0,3000.0,0.0
1513265721899688944,,564438,,1513265720,110063616,'',0.750491578358,0.368811418432,0.000145549482436,-0.381680159926,0.001,550.0,3100.0,0.0,3000.0,0.0
1513265721909659421,,564439,,1513265720,120063616,'',0.750491578358,0.368807197373,0.000233159896103,-0.381684380985,0.001,550.0,3100.0,0.0,3000.0,0.0
1513265721920021906,,564440,,1513265720,130063616,'',0.750491578358,0.36880928998,0.000190860627584,-0.381682288378,0.001,550.0,3100.0,0.0,3000.0,0.0
1513265721930035448,,564441,,1513265720,140063616,'',0.750491578358,0.368827323443,-0.000176417756128,-0.381664254914,0.001,550.0,3100.0,0.0,3000.0,0.0
1513265721940049425,,564442,,1513265720,150063616,'',0.750491578358,0.368830734703,-0.0002451738319,-0.381660843655,0.001,550.0,3100.0,0.0,3000.0,0.0
1513265721949922185,,564443,,1513265720,160063616,'',0.750491578358,0.368833550672,-0.000301621749103,-0.381658027685,0.001,550.0,3100.0,0.0,3000.0,0.0
1513265721959947519,,564444,,1513265720,170063616,'',0.750491578358,0.368846004616,-0.000556059494384,-0.381645573742,0.001,550.0,3100.0,0.0,3000.0,0.0
1513265721969730673,,564445,,1513265720,180063616,'',0.750491578358,0.368862112435,-0.000883536994735,-0.381629465922,0.001,550.0,3100.0,0.0,3000.0,0.0
1513265721980005847,,564446,,1513265720,190063616,'',0.750491578358,0.368884925913,-0.00134421150755,-0.381606652444,0.001,550.0,3100.0,0.0,3000.0,0.0
1513265721990020457,,564447,,1513265720,200063616,'',0.750491578358,0.368910797623,0.00408950280162,-0.381580780734,0.001,550.0,3100.0,0.0,3000.0,0.0
1513265722000075016,,564448,,1513265720,210063616,'',0.750491578358,0.368904863956,-0.00174276261638,-0.381586714401,0.001,550.0,3100.0,0.0,3000.0,0.0
1513265722010006018,,564449,,1513265720,220063616,'',0.750491578358,0.368900312739,-0.00165168327028,-0.381591265619,0.001,550.0,3100.0,0.0,3000.0,0.0
1513265722019965670,,564450,,1513265720,230063616,'',0.750491578358,0.368918464749,0.00989190133976,-0.381573113609,0.001,550.0,3100.0,0.0,3000.0,0.0
1513265722029890107,,564451,,1513265720,240063616,'',0.750491578358,0.36894292221,0.00344356018052,-0.381548656147,0.001,550.0,3100.0,0.0,3000.0,0.0
1513265722039849683,,564452,,1513265720,250063616,'',0.750491578358,0.36897342527,0.00282805573242,-0.381518153088,0.001,550.0,3100.0,0.0,3000.0,0.0
1513265722049565904,,564453,,1513265720,260063616,'',0.750491578358,0.368982686842,0.00859509257357,-0.381508891515,0.001,550.0,3100.0,0.0,3000.0,0.0
1513265722060026665,,564454,,1513265720,270063616,'',0.750491578358,0.369006172192,0.00811974725706,-0.381485406166,0.001,550.0,3100.0,0.0,3000.0,0.0
1513265722069857279,,564455,,1513265720,280063616,'',0.750491578358,0.368994066895,0.00836572999695,-0.381497511463,0.001,550.0,3100.0,0.0,3000.0,0.0
1513265722079865313,,564456,,1513265720,290063616,'',0.750491578358,0.369010870538,0.00207043944609,-0.38148070782,0.001,550.0,3100.0,0.0,3000.0,0.0
1513265722089790007,,564457,,1513265720,300063616,'',0.750491578358,0.369007889808,0.00213133502457,-0.38148368855,0.001,550.0,3100.0,0.0,3000.0,0.0
1513265722099827754,,564458,,1513265720,310063616,'',0.750491578358,0.368983899376,-0.00333939789044,-0.381507678982,0.001,550.0,3100.0,0.0,3000.0,0.0
1513265722109717702,,564459,,1513265720,320063616,'',0.750491578358,0.368980217649,-0.00326510882415,-0.381511360708,0.001,550.0,3100.0,0.0,3000.0,0.0
1513265722119650075,,564460,,1513265720,330063616,'',0.750491578358,0.368956237345,-0.00278010408789,-0.381535341013,0.001,550.0,3100.0,0.0,3000.0,0.0
1513265722130003139,,564461,,1513265720,340063616,'',0.750491578358,0.368953366234,0.00323597399975,-0.381538212124,0.001,550.0,3100.0,0.0,3000.0,0.0
1513265722139990863,,564462,,1513265720,350063616,'',0.750491578358,0.368946322609,0.0033790794745,-0.381545255748,0.001,550.0,3100.0,0.0,3000.0,0.0
1513265722149995134,,564463,,1513265720,360063616,'',0.750491578358,0.3689774536,0.00274986936531,-0.381514124758,0.001,550.0,3100.0,0.0,3000.0,0.0
1513265722159978466,,564464,,1513265720,370063616,'',0.750491578358,0.368981774608,0.008619931667,-0.381509803749,0.001,550.0,3100.0,0.0,3000.0,0.0
1513265722170025056,,564465,,1513265720,380063616,'',0.750491578358,0.369001265806,0.00822842661482,-0.381490312552,0.001,550.0,3100.0,0.0,3000.0,0.0
1513265722179969485,,564466,,1513265720,390063616,'',0.750491578358,0.369006296649,0.00217094411581,-0.381485281708,0.001,550.0,3100.0,0.0,3000.0,0.0
1513265722189869049,,564467,,1513265720,400063616,'',0.750491578358,0.368998896089,0.00231588886834,-0.381492682268,0.001,550.0,3100.0,0.0,3000.0,0.0
1513265722199849482,,564468,,1513265720,410063616,'',0.750491578358,0.369014565762,0.00200295257822,-0.381477012596,0.001,550.0,3100.0,0.0,3000.0,0.0
1513265722209909083,,564469,,1513265720,420063616,'',0.750491578358,0.369001216981,0.0022695715213,-0.381490361377,0.001,550.0,3100.0,0.0,3000.0,0.0
1513265722219643363,,564470,,1513265720,430063616,'',0.750491578358,0.369016004548,0.00196863529929,-0.38147557381,0.001,550.0,3100.0,0.0,3000.0,0.0
1513265722229670614,,564471,,1513265720,440063616,'',0.750491578358,0.369027401033,0.00173547932853,-0.381464177324,0.001,550.0,3100.0,0.0,3000.0,0.0
1513265722239573755,,564472,,1513265720,450063616,'',0.750491578358,0.369048528665,0.00130916518566,-0.381443049693,0.001,550.0,3100.0,0.0,3000.0,0.0
1513265722250060715,,564473,,1513265720,460063616,'',0.750491578358,0.369049388389,-0.00466269713565,-0.381442189968,0.001,550.0,3100.0,0.0,3000.0,0.0
1513265722260009846,,564474,,1513265720,470063616,'',0.750491578358,0.369051281476,0.00125691827742,-0.381440296881,0.001,550.0,3100.0,0.0,3000.0,0.0
1513265722269808769,,564475,,1513265720,480063616,'',0.750491578358,0.369063754564,0.00696546835162,-0.381427823793,0.001,550.0,3100.0,0.0,3000.0,0.0
1513265722279881998,,564476,,1513265720,490063616,'',0.750491578358,0.369067507893,-0.00502358158738,-0.381424070464,0.001,550.0,3100.0,0.0,3000.0,0.0
1513265722289860976,,564477,,1513265720,500063616,'',0.750491578358,0.369050344776,0.00723493529948,-0.381441233582,0.001,550.0,3100.0,0.0,3000.0,0.0
1513265722299806914,,564478,,1513265720,510063616,'',0.750491578358,0.369068071189,0.000920550052195,-0.381423507168,0.001,550.0,3100.0,0.0,3000.0,0.0
1513265722309751739,,564479,,1513265720,520063616,'',0.750491578358,0.369080974231,0.000660731468701,-0.381410604127,0.001,550.0,3100.0,0.0,3000.0,0.0
1513265722319559426,,564480,,1513265720,530063616,'',0.750491578358,0.36908619936,-0.0054028129138,-0.381405378997,0.001,550.0,3100.0,0.0,3000.0,0.0
1513265722329977152,,564481,,1513265720,540063616,'',0.750491578358,0.369069021253,-0.00506323814821,-0.381422557105,0.001,550.0,3100.0,0.0,3000.0,0.0
1513265722339959310,,564482,,1513265720,550063616,'',0.750491578358,0.369070826065,0.000855974909611,-0.381420752293,0.001,550.0,3100.0,0.0,3000.0,0.0
1513265722349855690,,564483,,1513265720,560063616,'',0.750491578358,0.369051573861,-0.00471705242997,-0.381440004496,0.001,550.0,3100.0,0.0,3000.0,0.0
1513265722359801809,,564484,,1513265720,570063616,'',0.750491578358,0.369047418466,0.00728297054706,-0.381444159891,0.001,550.0,3100.0,0.0,3000.0,0.0
1513265722369762431,,564485,,1513265720,580063616,'',0.750491578358,0.369069514356,0.000882102322684,-0.381422064001,0.001,550.0,3100.0,0.0,3000.0,0.0
1513265722379789027,,564486,,1513265720,590063616,'',0.750491578358,0.369093135866,0.00040968584932,-0.381398442492,0.001,550.0,3100.0,0.0,3000.0,0.0
1513265722389689215,,564487,,1513265720,600063616,'',0.750491578358,0.369102327508,0.000222037537625,-0.381389250849,0.001,550.0,3100.0,0.0,3000.0,0.0
1513265722399572077,,564488,,1513265720,610063616,'',0.750491578358,0.369105235564,0.00612043378137,-0.381386342794,0.001,550.0,3100.0,0.0,3000.0,0.0
1513265722410015972,,564489,,1513265720,620063616,'',0.750491578358,0.369101360337,-0.00571103864252,-0.38139021802,0.001,550.0,3100.0,0.0,3000.0,0.0
1513265722420003880,,564490,,1513265720,630063616,'',0.750491578358,0.369103362279,0.000205076796239,-0.381388216078,0.001,550.0,3100.0,0.0,3000.0,0.0
1513265722429924990,,564491,,1513265720,640063616,'',0.750491578358,0.369115923677,-4.86012858752e-05,-0.38137565468,0.001,550.0,3100.0,0.0,3000.0,0.0
1513265722439862495,,564492,,1513265720,650063616,'',0.750491578358,0.369122307648,0.00577768281831,-0.38136927071,0.001,550.0,3100.0,0.0,3000.0,0.0
1513265722449723675,,564493,,1513265720,660063616,'',0.750491578358,0.369141802881,0.00538359035385,-0.381349775476,0.001,550.0,3100.0,0.0,3000.0,0.0
1513265722459857301,,564494,,1513265720,670063616,'',0.750491578358,0.369174611968,0.0106731680955,-0.38131696639,0.001,550.0,3100.0,0.0,3000.0,0.0
1513265722469904811,,564495,,1513265720,680063616,'',0.750491578358,0.369200213651,-0.00175422794108,-0.381291364707,0.001,550.0,3100.0,0.0,3000.0,0.0
1513265722479861529,,564496,,1513265720,690063616,'',0.750491578358,0.369237206663,-0.00249722354333,-0.381254371694,0.001,550.0,3100.0,0.0,3000.0,0.0
1513265722489828117,,564497,,1513265720,700063616,'',0.750491578358,0.369252025385,0.00316115931424,-0.381239552972,0.001,550.0,3100.0,0.0,3000.0,0.0
1513265722499680698,,564498,,1513265720,710063616,'',0.750491578358,0.369285240527,0.00249096879222,-0.381206337831,0.001,550.0,3100.0,0.0,3000.0,0.0
1513265722509759101,,564499,,1513265720,720063616,'',0.750491578358,0.369267929272,-0.00316270128961,-0.381223649086,0.001,550.0,3100.0,0.0,3000.0,0.0
1513265722519684235,,564500,,1513265720,730063616,'',0.750491578358,0.369272154066,0.00271575438624,-0.381219424292,0.001,550.0,3100.0,0.0,3000.0,0.0
1513265722529582913,,564501,,1513265720,740063616,'',0.750491578358,0.369286317051,0.00243370474312,-0.381205261307,0.001,550.0,3100.0,0.0,3000.0,0.0
1513265722539994089,,564502,,1513265720,750063616,'',0.750491578358,0.369308264934,-0.00396271599908,-0.381183313423,0.001,550.0,3100.0,0.0,3000.0,0.0
1513265722549962443,,564503,,1513265720,760063616,'',0.750491578358,0.369320376899,0.00175412638935,-0.381171201458,0.001,550.0,3100.0,0.0,3000.0,0.0
1513265722559877186,,564504,,1513265720,770063616,'',0.750491578358,0.369324809809,-0.0102407816933,-0.381166768549,0.001,550.0,3100.0,0.0,3000.0,0.0
1513265722569767339,,564505,,1513265720,780063616,'',0.750491578358,0.36931837575,-0.00415164892623,-0.381173202607,0.001,550.0,3100.0,0.0,3000.0,0.0
1513265722579700869,,564506,,1513265720,790063616,'',0.750491578358,0.369319183,0.00178754818002,-0.381172395358,0.001,550.0,3100.0,0.0,3000.0,0.0
1513265722589740513,,564507,,1513265720,800063616,'',0.750491578358,0.369313985831,0.00189498164146,-0.381177592526,0.001,550.0,3100.0,0.0,3000.0,0.0
1513265722599722037,,564508,,1513265720,810063616,'',0.750491578358,0.369330732427,0.00155747575803,-0.381160845931,0.001,550.0,3100.0,0.0,3000.0,0.0
1513265722609638381,,564509,,1513265720,820063616,'',0.750491578358,0.369345052864,0.00722517051309,-0.381146525493,0.001,550.0,3100.0,0.0,3000.0,0.0
1513265722620021289,,564510,,1513265720,830063616,'',0.750491578358,0.36935044065,-0.00479562327928,-0.381141137708,0.001,550.0,3100.0,0.0,3000.0,0.0
1513265722629992755,,564511,,1513265720,840063616,'',0.750491578358,0.369360947019,0.000952599411817,-0.381130631339,0.001,550.0,3100.0,0.0,3000.0,0.0
1513265722639794187,,564512,,1513265720,850063616,'',0.750491578358,0.369363897724,0.000892630072876,-0.381127680633,0.001,550.0,3100.0,0.0,3000.0,0.0
1513265722649785085,,564513,,1513265720,860063616,'',-0.25,0.369365996396,0.000851001906132,0.619365996396,0.001,-550.0,3100.0,0.0,3000.0,0.0
1513265722659863299,,564514,,1513265720,870063616,'',-0.25,0.369374096087,0.000694682234258,0.619374096087,0.001,-550.0,3100.0,0.0,3000.0,0.0
1513265722669848127,,564515,,1513265720,880063616,'',-0.25,0.369385090034,0.000472218699131,0.619385090034,0.001,-550.0,3100.0,0.0,3000.0,0.0
1513265722679796113,,564516,,1513265720,890063616,'',-0.25,0.369388849572,-0.00556134308961,0.619388849572,0.001,-550.0,3100.0,0.0,3000.0,0.0
1513265722689765563,,564517,,1513265720,900063616,'',-0.25,0.369264800875,-0.0328343578826,0.619264800875,0.001,-550.0,3100.0,0.0,3000.0,0.0
1513265722699665499,,564518,,1513265720,910063616,'',-0.25,0.368428458107,-0.135052216105,0.618428458107,0.001,-550.0,3100.0,0.0,3000.0,0.0
1513265722710161845,,564519,,1513265720,920063616,'',-0.25,0.366219084937,-0.292915752046,0.616219084937,0.001,-550.0,3100.0,0.0,3000.0,0.0
1513265722719959861,,564520,,1513265720,930063616,'',-0.25,0.36226826586,-0.475158871273,0.61226826586,0.001,-460.991615056,3100.0,0.0,3000.0,0.0
1513265722730019043,,564521,,1513265720,940063616,'',-0.25,0.356589166503,-0.640353355944,0.606589166503,0.001,50.2038288442,3100.0,0.0,3000.0,0.0
1513265722739843173,,564522,,1513265720,950063616,'',-0.25,0.349600597904,-0.725493080738,0.599600597904,0.001,323.843162323,3100.0,0.0,3000.0,0.0
1513265722749828435,,564523,,1513265720,960063616,'',-0.25,0.342308575203,-0.721114769558,0.592308575203,0.001,268.19467005,3100.0,0.0,3000.0,0.0
1513265722759859733,,564524,,1513265720,970063616,'',-0.25,0.335636444373,-0.628017022574,0.585636444373,0.001,76.1772680894,3100.0,0.0,3000.0,0.0
1513265722769750295,,564525,,1513265720,980063616,'',-0.25,0.32994739323,-0.519043509486,0.57994739323,0.001,-231.03806662,3100.0,0.0,3000.0,0.0
1513265722779629943,,564526,,1513265720,990063616,'',-0.25,0.325253325828,-0.430172566922,0.575253325828,0.001,-487.545735461,3100.0,0.0,3000.0,0.0
1513265722789619110,,564527,,1513265721,63616,'',-0.25,0.321247088767,-0.384975832283,0.571247088767,0.001,-550.0,3100.0,0.0,3000.0,0.0
1513265722800019013,,564528,,1513265721,10063616,'',-0.25,0.317342402692,-0.401391102551,0.567342402692,0.001,-550.0,3100.0,0.0,3000.0,0.0
1513265722810075428,,564529,,1513265721,20063616,'',-0.25,0.312848051054,-0.483316760726,0.562848051054,0.001,-287.283475966,3100.0,0.0,3000.0,0.0
1513265722819954384,,564530,,1513265721,30063616,'',-0.25,0.307483691741,-0.583396194936,0.557483691741,0.001,-6.34098583781,3100.0,0.0,3000.0,0.0
1513265722829848424,,564531,,1513265721,40063616,'',-0.25,0.301436442822,-0.622039232936,0.551436442822,0.001,165.996145175,3100.0,0.0,3000.0,0.0
1513265722839797991,,564532,,1513265721,50063616,'',-0.25,0.295330352215,-0.599940402727,0.545330352215,0.001,118.283708376,3100.0,0.0,3000.0,0.0
1513265722849821592,,564533,,1513265721,60063616,'',-0.25,0.289775087336,-0.529409536362,0.539775087336,0.001,-77.1504121594,3100.0,0.0,3000.0,0.0
1513265722859992630,,564534,,1513265721,70063616,'',-0.25,0.284942849313,-0.449659718703,0.534942849313,0.001,-265.892719094,3100.0,0.0,3000.0,0.0
1513265722869895554,,564535,,1513265721,80063616,'',-0.25,0.280776873448,-0.395279216319,0.530776873448,0.001,-453.366027202,3100.0,0.0,3000.0,0.0
1513265722879824352,,564536,,1513265721,90063616,'',-0.25,0.276890393022,-0.388238196602,0.526890393022,0.001,-465.082474948,3100.0,0.0,3000.0,0.0
1513265722889734094,,564537,,1513265721,100063616,'',-0.25,0.272761287323,-0.441805070283,0.522761287323,0.001,-314.063258479,3100.0,0.0,3000.0,0.0
1513265722899717122,,564538,,1513265721,110063616,'',-0.25,0.26803424993,-0.495207874127,0.51803424993,0.001,-105.004324751,3100.0,0.0,3000.0,0.0
1513265722909718455,,564539,,1513265721,120063616,'',-0.25,0.262831782742,-0.527096340795,0.512831782742,0.001,-6.70897657536,3100.0,0.0,3000.0,0.0
1513265722920092142,,564540,,1513265721,130063616,'',-0.25,0.257549519967,-0.521636207203,0.507549519967,0.001,-0.7061605148,3100.0,0.0,3000.0,0.0
1513265722930027380,,564541,,1513265721,140063616,'',-0.25,0.25255183203,-0.480234120894,0.50255183203,0.001,-110.040120528,3100.0,0.0,3000.0,0.0
1513265722940003344,,564542,,1513265721,150063616,'',-0.25,0.248037243841,-0.430722386646,0.498037243841,0.001,-247.806330784,3100.0,0.0,3000.0,0.0
1513265722950031865,,564543,,1513265721,160063616,'',-0.25,0.243992842972,-0.384756239638,0.493992842972,0.001,-378.319282806,3100.0,0.0,3000.0,0.0
1513265722959909862,,564544,,1513265721,170063616,'',-0.25,0.240286896854,-0.3634923385,0.490286896854,0.001,-448.145678371,3100.0,0.0,3000.0,0.0
1513265722969737239,,564545,,1513265721,180063616,'',-0.25,0.236675407193,-0.362002426984,0.486675407193,0.001,-418.326705817,3100.0,0.0,3000.0,0.0
1513265722979893794,,564546,,1513265721,190063616,'',-0.25,0.232884445339,-0.392624108397,0.482884445339,0.001,-313.208188577,3100.0,0.0,3000.0,0.0
1513265722989531196,,564547,,1513265721,200063616,'',-0.25,0.22872791021,-0.433724274547,0.47872791021,0.001,-205.222824651,3100.0,0.0,3000.0,0.0
1513265722999702575,,564548,,1513265721,210063616,'',-0.25,0.224346007624,-0.440494858928,0.474346007624,0.001,-147.491507305,3100.0,0.0,3000.0,0.0
1513265723009983878,,564549,,1513265721,220063616,'',-0.25,0.219926343361,-0.440548039505,0.469926343361,0.001,-125.674109398,3100.0,0.0,3000.0,0.0
1513265723019942999,,564550,,1513265721,230063616,'',-0.25,0.215531269173,-0.435141341347,0.465531269173,0.001,-160.130692982,3100.0,0.0,3000.0,0.0
1513265723029831190,,564551,,1513265721,240063616,'',-0.25,0.211257101614,-0.42026322986,0.461257101614,0.001,-191.953734189,3100.0,0.0,3000.0,0.0
1513265723039715254,,564552,,1513265721,250063616,'',-0.25,0.207169414459,-0.403200808917,0.457169414459,0.001,-202.749876817,3100.0,0.0,3000.0,0.0
1513265723049748245,,564553,,1513265721,260063616,'',-0.25,0.203212730211,-0.382823829507,0.453212730211,0.001,-247.146378376,3100.0,0.0,3000.0,0.0
1513265723060028081,,564554,,1513265721,270063616,'',-0.25,0.199399341766,-0.377257296232,0.449399341766,0.001,-255.703952433,3100.0,0.0,3000.0,0.0
1513265723069975046,,564555,,1513265721,280063616,'',-0.25,0.195667193702,-0.361421021358,0.445667193702,0.001,-295.015522145,3100.0,0.0,3000.0,0.0
1513265723079783213,,564556,,1513265721,290063616,'',-0.25,0.192016207366,-0.359137561955,0.442016207366,0.001,-286.158478338,3100.0,0.0,3000.0,0.0
1513265723089741249,,564557,,1513265721,300063616,'',-0.25,0.188470124266,-0.353012510519,0.438470124266,0.001,-319.656857072,3100.0,0.0,3000.0,0.0
1513265723099723828,,564558,,1513265721,310063616,'',-0.25,0.185089931369,-0.326418504422,0.435089931369,0.001,-362.501123983,3100.0,0.0,3000.0,0.0
1513265723109677785,,564559,,1513265721,320063616,'',-0.25,0.181903300501,-0.309691609763,0.431903300501,0.001,-409.655091687,3100.0,0.0,3000.0,0.0
1513265723119554629,,564560,,1513265721,330063616,'',-0.25,0.17897318264,-0.280278984292,0.42897318264,0.001,-482.954812913,3100.0,0.0,3000.0,0.0
1513265723130043772,,564561,,1513265721,340063616,'',-0.25,0.176258670398,-0.267134543118,0.426258670398,0.001,-517.542790439,3100.0,0.0,3000.0,0.0
1513265723140017543,,564562,,1513265721,350063616,'',-0.25,0.17375758751,-0.246387638569,0.42375758751,0.001,-550.0,3100.0,0.0,3000.0,0.0
1513265723149741549,,564563,,1513265721,360063616,'',-0.25,0.171436204554,-0.22331598699,0.421436204554,0.001,-550.0,3100.0,0.0,3000.0,0.0
1513265723159703237,,564564,,1513265721,370063616,'',-0.25,0.169314982705,-0.204287142097,0.419314982705,0.001,-550.0,3100.0,0.0,3000.0,0.0
1513265723169640203,,564565,,1513265721,380063616,'',-0.25,0.167385116665,-0.189123613101,0.417385116665,0.001,-550.0,3100.0,0.0,3000.0,0.0
1513265723179630698,,564566,,1513265721,390063616,'',-0.25,0.165576283076,-0.17045024816,0.415576283076,0.001,-550.0,3100.0,0.0,3000.0,0.0
1513265723190030772,,564567,,1513265721,400063616,'',-0.25,0.163914857922,-0.166666296636,0.413914857922,0.001,-550.0,3100.0,0.0,3000.0,0.0
1513265723200026088,,564568,,1513265721,410063616,'',-0.25,0.162376342271,-0.147495870561,0.412376342271,0.001,-550.0,3100.0,0.0,3000.0,0.0
1513265723209895199,,564569,,1513265721,420063616,'',-0.25,0.160996379523,-0.131530357976,0.410996379523,0.001,-550.0,3100.0,0.0,3000.0,0.0
1513265723219758012,,564570,,1513265721,430063616,'',-0.25,0.159733944693,-0.117939093857,0.409733944693,0.001,-550.0,3100.0,0.0,3000.0,0.0
1513265723229922961,,564571,,1513265721,440063616,'',-0.25,0.158631068962,-0.101615781218,0.408631068962,0.001,-550.0,3100.0,0.0,3000.0,0.0
1513265723239871960,,564572,,1513265721,450063616,'',-0.25,0.157685518521,-0.0884680291784,0.407685518521,0.001,-550.0,3100.0,0.0,3000.0,0.0
1513265723250270635,,564573,,1513265721,460063616,'',-0.25,0.156886799997,-0.0723338688157,0.406886799997,0.001,-550.0,3100.0,0.0,3000.0,0.0
1513265723259638207,,564574,,1513265721,470063616,'',-0.25,0.156221046279,-0.0588891362528,0.406221046279,0.001,-550.0,3100.0,0.0,3000.0,0.0
1513265723269596378,,564575,,1513265721,480063616,'',-0.25,0.155702295451,-0.0484093937321,0.405702295451,0.001,-550.0,3100.0,0.0,3000.0,0.0
1513265723279552068,,564576,,1513265721,490063616,'',-0.25,0.155278625295,-0.0338950069692,0.405278625295,0.001,-550.0,3100.0,0.0,3000.0,0.0
1513265723289693855,,564577,,1513265721,500063616,'',-0.25,0.154975825575,-0.0218230673694,0.404975825575,0.001,-550.0,3100.0,0.0,3000.0,0.0
1513265723299667751,,564578,,1513265721,510063616,'',-0.25,0.154802512265,-0.0123669920681,0.404802512265,0.001,-550.0,3100.0,0.0,3000.0,0.0
1513265723309980167,,564579,,1513265721,520063616,'',-0.25,0.154719349327,-0.00472986473355,0.404719349327,0.001,-550.0,3100.0,0.0,3000.0,0.0
1513265723319970899,,564580,,1513265721,530063616,'',-0.25,0.154677769768,-0.0038908365133,0.404677769768,0.001,-550.0,3100.0,0.0,3000.0,0.0
1513265723329716924,,564581,,1513265721,540063616,'',-0.25,0.154675154789,0.00211951221607,0.404675154789,0.001,-550.0,3100.0,0.0,3000.0,0.0
1513265723340038318,,564582,,1513265721,550063616,'',-0.25,0.154661888064,0.0023885442783,0.404661888064,0.001,-550.0,3100.0,0.0,3000.0,0.0
1513265723349988002,,564583,,1513265721,560063616,'',-0.25,0.154661692059,0.00239276547529,0.404661692059,0.001,-550.0,3100.0,0.0,3000.0,0.0
1513265723359966678,,564584,,1513265721,570063616,'',-0.25,0.154672615597,0.00217205265897,0.404672615597,0.001,-550.0,3100.0,0.0,3000.0,0.0
1513265723370063955,,564585,,1513265721,580063616,'',-0.25,0.154680782927,-0.00990783341321,0.404680782927,0.001,-550.0,3100.0,0.0,3000.0,0.0
1513265723379930059,,564586,,1513265721,590063616,'',-0.25,0.154693376707,0.00175045496498,0.404693376707,0.001,-550.0,3100.0,0.0,3000.0,0.0
1513265723389728779,,564587,,1513265721,600063616,'',-0.25,0.15471374765,0.0013363490818,0.40471374765,0.001,-550.0,3100.0,0.0,3000.0,0.0
1513265723399698512,,564588,,1513265721,610063616,'',-0.25,0.154709492185,-0.00452924234597,0.404709492185,0.001,-550.0,3100.0,0.0,3000.0,0.0
1513265723409707587,,564589,,1513265721,620063616,'',-0.25,0.154701634627,0.00158471240432,0.404701634627,0.001,-550.0,3100.0,0.0,3000.0,0.0
1513265723419581090,,564590,,1513265721,630063616,'',-0.25,0.154705105406,0.00151551617422,0.404705105406,0.001,-550.0,3100.0,0.0,3000.0,0.0
1513265723429649613,,564591,,1513265721,640063616,'',-0.25,0.154692643176,0.00176626151814,0.404692643176,0.001,-550.0,3100.0,0.0,3000.0,0.0
1513265723439555010,,564592,,1513265721,650063616,'',-0.25,0.154687802742,0.00186299017389,0.404687802742,0.001,-550.0,3100.0,0.0,3000.0,0.0
1513265723450010283,,564593,,1513265721,660063616,'',-0.25,0.154661073711,-0.0095115464704,0.404661073711,0.001,-550.0,3100.0,0.0,3000.0,0.0
1513265723459814786,,564594,,1513265721,670063616,'',-0.25,0.154645243136,-0.00323226070075,0.404645243136,0.001,-550.0,3100.0,0.0,3000.0,0.0
1513265723469691546,,564595,,1513265721,680063616,'',-0.25,0.154627254586,-0.00287065128877,0.404627254586,0.001,-550.0,3100.0,0.0,3000.0,0.0
1513265723479621484,,564596,,1513265721,690063616,'',-0.25,0.154606145379,-0.00840012989883,0.404606145379,0.001,-550.0,3100.0,0.0,3000.0,0.0
1513265723489557793,,564597,,1513265721,700063616,'',-0.25,0.154551292615,-0.00728938105595,0.404551292615,0.001,-550.0,3100.0,0.0,3000.0,0.0
1513265723500062837,,564598,,1513265721,710063616,'',-0.25,0.154502256705,-0.00629258149365,0.404502256705,0.001,-550.0,3100.0,0.0,3000.0,0.0
1513265723510034497,,564599,,1513265721,720063616,'',-0.25,0.154445706971,-0.00515151337258,0.404445706971,0.001,-550.0,3100.0,0.0,3000.0,0.0
1513265723520016737,,564600,,1513265721,730063616,'',-0.25,0.154404602795,-0.0043220708645,0.404404602795,0.001,-550.0,3100.0,0.0,3000.0,0.0
1513265723529815083,,564601,,1513265721,740063616,'',-0.25,0.154327846786,-0.00277631603426,0.404327846786,0.001,-550.0,3100.0,0.0,3000.0,0.0
1513265723539890223,,564602,,1513265721,750063616,'',-0.25,0.154227001061,-0.012647959347,0.404227001061,0.001,-550.0,3100.0,0.0,3000.0,0.0
1513265723549857657,,564603,,1513265721,760063616,'',-0.25,0.154113423056,-0.0103540409156,0.404113423056,0.001,-550.0,3100.0,0.0,3000.0,0.0
1513265723559787502,,564604,,1513265721,770063616,'',-0.25,0.153976545518,-0.0194988728777,0.403976545518,0.001,-550.0,3100.0,0.0,3000.0,0.0
1513265723569713453,,564605,,1513265721,780063616,'',-0.25,0.153837916413,-0.0167009488166,0.403837916413,0.001,-550.0,3100.0,0.0,3000.0,0.0
1513265723579696456,,564606,,1513265721,790063616,'',-0.25,0.153672093865,-0.0133526289758,0.403672093865,0.001,-550.0,3100.0,0.0,3000.0,0.0
1513265723589523987,,564607,,1513265721,800063616,'',-0.25,0.153518927446,-0.0162140549745,0.403518927446,0.001,-550.0,3100.0,0.0,3000.0,0.0
1513265723600055960,,564608,,1513265721,810063616,'',-0.25,0.153345859759,-0.0186725314127,0.403345859759,0.001,-550.0,3100.0,0.0,3000.0,0.0
1513265723609857931,,564609,,1513265721,820063616,'',-0.25,0.153142923866,-0.032440990134,0.403142923866,0.001,-550.0,3100.0,0.0,3000.0,0.0
1513265723619773688,,564610,,1513265721,830063616,'',-0.25,0.152600725473,-0.075091457845,0.402600725473,0.001,-550.0,3100.0,0.0,3000.0,0.0
1513265723629690099,,564611,,1513265721,840063616,'',-0.25,0.151167192368,-0.206934935258,0.401167192368,0.001,-550.0,3100.0,0.0,3000.0,0.0
1513265723639641775,,564612,,1513265721,850063616,'',-0.25,0.147952656547,-0.427885981547,0.397952656547,0.001,90.3779137131,3100.0,0.0,3000.0,0.0
1513265723650043465,,564613,,1513265721,860063616,'',-0.25,0.142448004827,-0.650198450062,0.392448004827,0.001,550.0,3100.0,0.0,3000.0,0.0
1513265723660054303,,564614,,1513265721,870063616,'',-0.25,0.135429061594,-0.716852937375,0.385429061594,0.001,550.0,3100.0,0.0,3000.0,0.0
1513265723669902760,,564615,,1513265721,880063616,'',-0.25,0.128803510667,-0.612787832417,0.378803510667,0.001,550.0,3100.0,0.0,3000.0,0.0
1513265723680067357,,564616,,1513265721,890063616,'',-0.25,0.123272427208,-0.507005963063,0.373272427208,0.001,377.682791264,3100.0,0.0,3000.0,0.0
1513265723690053374,,564617,,1513265721,900063616,'',-0.25,0.118706281291,-0.408806802644,0.368706281291,0.001,87.1850842721,3100.0,0.0,3000.0,0.0
1513265723699830064,,564618,,1513265721,910063616,'',-0.25,0.114973665165,-0.345315887755,0.364973665165,0.001,-90.0578759926,3100.0,0.0,3000.0,0.0
1513265723710001462,,564619,,1513265721,920063616,'',-0.25,0.111905997046,-0.271431518211,0.361905997046,0.001,-304.334207447,3100.0,0.0,3000.0,0.0
1513265723719755166,,564620,,1513265721,930063616,'',-0.25,0.109411180798,-0.226989200613,0.359411180798,0.001,-429.645022513,3100.0,0.0,3000.0,0.0
1513265723729636778,,564621,,1513265721,940063616,'',-0.25,0.107362753507,-0.185608505746,0.357362753507,0.001,-547.550037147,3100.0,0.0,3000.0,0.0
1513265723739642993,,564622,,1513265721,950063616,'',-0.25,0.105671481338,-0.15739754733,0.355671481338,0.001,-550.0,3100.0,0.0,3000.0,0.0
1513265723749641788,,564623,,1513265721,960063616,'',-0.25,0.104307368738,-0.123886435779,0.354307368738,0.001,-550.0,3100.0,0.0,3000.0,0.0
1513265723759576153,,564624,,1513265721,970063616,'',-0.25,0.103137533678,-0.124077115818,0.353137533678,0.001,-550.0,3100.0,0.0,3000.0,0.0
1513265723770106872,,564625,,1513265721,980063616,'',-0.25,0.101437958696,-0.238631364689,0.351437958696,0.001,-385.836510373,3100.0,0.0,3000.0,0.0
1513265723779956679,,564626,,1513265721,990063616,'',-0.25,0.0976548704182,-0.519550435121,0.347654870418,0.001,488.713364479,3100.0,0.0,3000.0,0.0
1513265723789885606,,564627,,1513265722,63616,'',-0.25,0.0907222203161,-0.814273888458,0.340722220316,0.001,550.0,3100.0,0.0,3000.0,0.0
1513265723799919013,,564628,,1513265722,10063616,'',-0.25,0.0821872653708,-0.826487520776,0.332187265371,0.001,550.0,3100.0,0.0,3000.0,0.0
1513265723809839201,,564629,,1513265722,20063616,'',-0.25,0.0747832186841,-0.676915107334,0.324783218684,0.001,550.0,3100.0,0.0,3000.0,0.0
1513265723819688289,,564630,,1513265722,30063616,'',-0.25,0.0686980002657,-0.553985968525,0.318698000266,0.001,550.0,3100.0,0.0,3000.0,0.0
1513265723829594312,,564631,,1513265722,40063616,'',-0.25,0.0637633080382,-0.442389417001,0.313763308038,0.001,362.393854692,3100.0,0.0,3000.0,0.0
1513265723840076583,,564632,,1513265722,50063616,'',-0.25,0.0597764453675,-0.361849175259,0.309776445367,0.001,108.694133048,3100.0,0.0,3000.0,0.0
1513265723849972850,,564633,,1513265722,60063616,'',-0.25,0.0565850527678,-0.279514599684,0.306585052768,0.001,-128.092075928,3100.0,0.0,3000.0,0.0
1513265723859886793,,564634,,1513265722,70063616,'',-0.25,0.0540665762486,-0.222683744573,0.304066576249,0.001,-257.72259938,3100.0,0.0,3000.0,0.0
1513265723869894761,,564635,,1513265722,80063616,'',-0.25,0.0521095280681,-0.177189549727,0.302109528068,0.001,-403.34944104,3100.0,0.0,3000.0,0.0
1513265723879821841,,564636,,1513265722,90063616,'',-0.25,0.050664277265,-0.124165763919,0.300664277265,0.001,-550.0,3100.0,0.0,3000.0,0.0
1513265723889770073,,564637,,1513265722,100063616,'',-0.25,0.0501956850933,0.0520563740738,0.300195685093,0.001,-550.0,3100.0,0.0,3000.0,0.0
1513265723899571940,,564638,,1513265722,110063616,'',-0.25,0.0522944134136,0.349136571007,0.302294413414,0.001,-550.0,3100.0,0.0,3000.0,0.0
1513265723909644878,,564639,,1513265722,120063616,'',-0.25,0.056695857277,0.444849257894,0.306695857277,0.001,-550.0,3100.0,0.0,3000.0,0.0
1513265723919625004,,564640,,1513265722,130063616,'',-0.25,0.0600288998236,0.228627171313,0.310028899824,0.001,-550.0,3100.0,0.0,3000.0,0.0
1513265723929927968,,564641,,1513265722,140063616,'',-0.25,0.0606613350663,-0.0938503196449,0.310661335066,0.001,-550.0,3100.0,0.0,3000.0,0.0
1513265723939895671,,564642,,1513265722,150063616,'',-0.25,0.0573848433988,-0.504120202965,0.307384843399,0.001,550.0,3100.0,0.0,3000.0,0.0
1513265723949827916,,564643,,1513265722,160063616,'',-0.25,0.0513452517247,-0.66798900107,0.301345251725,0.001,550.0,3100.0,0.0,3000.0,0.0
1513265723959860937,,564644,,1513265722,170063616,'',-0.25,0.0447270597601,-0.623627277212,0.29472705976,0.001,550.0,3100.0,0.0,3000.0,0.0
1513265723969825023,,564645,,1513265722,180063616,'',-0.25,0.0391567781143,-0.505143948272,0.289156778114,0.001,550.0,3100.0,0.0,3000.0,0.0
1513265723979703849,,564646,,1513265722,190063616,'',-0.25,0.0345866423353,-0.418776949633,0.284586642335,0.001,354.962447372,3100.0,0.0,3000.0,0.0
1513265723989701980,,564647,,1513265722,200063616,'',-0.25,0.0308255094243,-0.342796974388,0.280825509424,0.001,139.185655287,3100.0,0.0,3000.0,0.0
1513265723999991836,,564648,,1513265722,210063616,'',-0.25,0.0277534740187,-0.280737604539,0.277753474019,0.001,-14.6255953419,3100.0,0.0,3000.0,0.0
1513265724009909114,,564649,,1513265722,220063616,'',-0.25,0.0252598784326,-0.224407605995,0.275259878433,0.001,-175.267590756,3100.0,0.0,3000.0,0.0
1513265724019896518,,564650,,1513265722,230063616,'',-0.25,0.0232487989274,-0.18378114044,0.273248798927,0.001,-302.405420641,3100.0,0.0,3000.0,0.0
1513265724029776121,,564651,,1513265722,240063616,'',-0.25,0.0215885260138,-0.156195924963,0.271588526014,0.001,-381.828449909,3100.0,0.0,3000.0,0.0
1513265724039574961,,564652,,1513265722,250063616,'',-0.25,0.0202394320663,-0.122986593481,0.270239432066,0.001,-465.783925781,3100.0,0.0,3000.0,0.0
1513265724049651567,,564653,,1513265722,260063616,'',-0.25,0.0191356313188,-0.100688604626,0.269135631319,0.001,-531.03651166,3100.0,0.0,3000.0,0.0
1513265724060096946,,564654,,1513265722,270063616,'',-0.25,0.0182389100354,-0.0825726497941,0.268238910035,0.001,-550.0,3100.0,0.0,3000.0,0.0
1513265724070065266,,564655,,1513265722,280063616,'',-0.25,0.0175138713868,-0.0679239982983,0.267513871387,0.001,-550.0,3100.0,0.0,3000.0,0.0
1513265724079976264,,564656,,1513265722,290063616,'',-0.25,0.0168919784568,-0.0613186369838,0.266891978457,0.001,-550.0,3100.0,0.0,3000.0,0.0
1513265724089972838,,564657,,1513265722,300063616,'',-0.25,0.0160396321225,-0.121525966508,0.266039632122,0.001,-459.378830512,3100.0,0.0,3000.0,0.0
1513265724100005799,,564658,,1513265722,310063616,'',-0.25,0.0137617642705,-0.361508404026,0.26376176427,0.001,273.585425887,3100.0,0.0,3000.0,0.0
1513265724109810000,,564659,,1513265722,320063616,'',-0.25,0.00771406366983,-0.77748877983,0.25771406367,0.001,550.0,3100.0,0.0,3000.0,0.0
1513265724119932497,,564660,,1513265722,330063616,'',-0.25,-0.000784850788356,-0.837760563821,0.249215149212,0.001,550.0,3100.0,0.0,3000.0,0.0
1513265724129699779,,564661,,1513265722,340063616,'',-0.25,-0.00829017593128,-0.686144514888,0.241709824069,0.001,550.0,3100.0,0.0,3000.0,0.0
1513265724139723398,,564662,,1513265722,350063616,'',-0.25,-0.014403150545,-0.553376283324,0.235596849455,0.001,550.0,3100.0,0.0,3000.0,0.0
1513265724149673530,,564663,,1513265722,360063616,'',-0.25,-0.019310537505,-0.444961177893,0.230689462495,0.001,550.0,3100.0,0.0,3000.0,0.0
1513265724159724585,,564664,,1513265722,370063616,'',-0.25,-0.0232137980337,-0.356830908771,0.226786201966,0.001,372.786353567,3100.0,0.0,3000.0,0.0
1513265724170041737,,564665,,1513265722,380063616,'',-0.25,-0.0263909949538,-0.29264662127,0.223609005046,0.001,188.279332654,3100.0,0.0,3000.0,0.0
1513265724179778840,,564666,,1513265722,390063616,'',-0.25,-0.0289721144553,-0.240506189858,0.221027885545,0.001,25.5010711423,3100.0,0.0,3000.0,0.0
1513265724189625623,,564667,,1513265722,400063616,'',-0.25,-0.0310642611108,-0.188962417685,0.218935738889,0.001,-122.095484877,3100.0,0.0,3000.0,0.0
1513265724199661000,,564668,,1513265722,410063616,'',-0.25,-0.0327344297451,-0.145941725491,0.217265570255,0.001,-232.984729482,3100.0,0.0,3000.0,0.0
1513265724210006038,,564669,,1513265722,420063616,'',-0.25,-0.0340743607976,-0.118874910484,0.215925639202,0.001,-318.524610753,3100.0,0.0,3000.0,0.0
1513265724220113344,,564670,,1513265722,430063616,'',-0.25,-0.0351780356558,-0.0965804376344,0.214821964344,0.001,-365.972473627,3100.0,0.0,3000.0,0.0
1513265724230082669,,564671,,1513265722,440063616,'',-0.25,-0.0360520672355,-0.0789240859814,0.213947932765,0.001,-425.975794391,3100.0,0.0,3000.0,0.0
1513265724240067601,,564672,,1513265722,450063616,'',-0.25,-0.0367852975674,-0.0641138725285,0.213214702433,0.001,-467.676720621,3100.0,0.0,3000.0,0.0
1513265724250035681,,564673,,1513265722,460063616,'',-0.25,-0.0373597845731,-0.0525077806636,0.212640215427,0.001,-500.885558697,3100.0,0.0,3000.0,0.0
1513265724260041131,,564674,,1513265722,470063616,'',-0.25,-0.0378402304363,-0.0428024408241,0.212159769564,0.001,-529.152987878,3100.0,0.0,3000.0,0.0
1513265724270024963,,564675,,1513265722,480063616,'',-0.25,-0.0382495537259,-0.0345321804281,0.211750446274,0.001,-550.0,3100.0,0.0,3000.0,0.0
1513265724279946942,,564676,,1513265722,490063616,'',-0.25,-0.0385670133523,-0.0281145342308,0.211432986648,0.001,-550.0,3100.0,0.0,3000.0,0.0
1513265724289882938,,564677,,1513265722,500063616,'',-0.25,-0.0388813436156,-0.0403228756698,0.211118656384,0.001,-532.892937965,3100.0,0.0,3000.0,0.0
1513265724299866395,,564678,,1513265722,510063616,'',-0.25,-0.0399163050582,-0.186435943112,0.210083694942,0.001,-73.8288420433,3100.0,0.0,3000.0,0.0
1513265724309843731,,564679,,1513265722,520063616,'',-0.25,-0.043575184749,-0.539313605473,0.206424815251,0.001,550.0,3100.0,0.0,3000.0,0.0
1513265724319850785,,564680,,1513265722,530063616,'',-0.25,-0.0506790456231,-0.794783068578,0.199320954377,0.001,550.0,3100.0,0.0,3000.0,0.0
1513265724329664789,,564681,,1513265722,540063616,'',-0.25,-0.0581725443688,-0.689797654296,0.191827455631,0.001,550.0,3100.0,0.0,3000.0,0.0
1513265724339704929,,564682,,1513265722,550063616,'',-0.25,-0.0643493501446,-0.555739044231,0.185650649855,0.001,550.0,3100.0,0.0,3000.0,0.0
1513265724350039738,,564683,,1513265722,560063616,'',-0.25,-0.06937842937,-0.454147187566,0.18062157063,0.001,550.0,3100.0,0.0,3000.0,0.0
1513265724360101058,,564684,,1513265722,570063616,'',-0.25,-0.0734490422846,-0.371915160765,0.176550957715,0.001,550.0,3100.0,0.0,3000.0,0.0
1513265724370008039,,564685,,1513265722,580063616,'',-0.25,-0.0767155064166,-0.305925992861,0.173284493583,0.001,362.85622031,3100.0,0.0,3000.0,0.0
1513265724379993072,,564686,,1513265722,590063616,'',-0.25,-0.0793785798895,-0.242849444191,0.170621420111,0.001,202.557609772,3100.0,0.0,3000.0,0.0
1513265724389843446,,564687,,1513265722,600063616,'',-0.25,-0.0815507536684,-0.198969351106,0.168449246332,0.001,77.1195876077,3100.0,0.0,3000.0,0.0
1513265724399776219,,564688,,1513265722,610063616,'',-0.25,-0.0833244487354,-0.163136658828,0.166675551265,0.001,-35.2060342069,3100.0,0.0,3000.0,0.0
1513265724409946432,,564689,,1513265722,620063616,'',-0.25,-0.0847056894243,-0.125955344692,0.165294310576,0.001,-132.289800237,3100.0,0.0,3000.0,0.0
1513265724420119858,,564690,,1513265722,630063616,'',-0.25,-0.085811112247,-0.0943442212609,0.164188887753,0.001,-224.800632604,3100.0,0.0,3000.0,0.0
1513265724430061701,,564691,,1513265722,640063616,'',-0.25,-0.0867333690074,-0.0849947113153,0.163266630993,0.001,-250.111659077,3100.0,0.0,3000.0,0.0
1513265724439840292,,564692,,1513265722,650063616,'',-0.25,-0.0874697924081,-0.0608380693757,0.162530207592,0.001,-320.761410959,3100.0,0.0,3000.0,0.0
1513265724449785170,,564693,,1513265722,660063616,'',-0.25,-0.0880580596514,-0.0489552750398,0.161941940349,0.001,-354.839624571,3100.0,0.0,3000.0,0.0
1513265724459759387,,564694,,1513265722,670063616,'',-0.25,-0.0885381570273,-0.0392571101881,0.161461842973,0.001,-382.025890963,3100.0,0.0,3000.0,0.0
1513265724469721339,,564695,,1513265722,680063616,'',-0.25,-0.0889496975413,-0.0402193404499,0.161050302459,0.001,-378.215760273,3100.0,0.0,3000.0,0.0
1513265724479683799,,564696,,1513265722,690063616,'',-0.25,-0.0892693758867,-0.0337626746114,0.160730624113,0.001,-396.43822432,3100.0,0.0,3000.0,0.0
1513265724489596429,,564697,,1513265722,700063616,'',-0.25,-0.0895139422398,-0.0195416737707,0.16048605776,0.001,-438.517537029,3100.0,0.0,3000.0,0.0
1513265724499919211,,564698,,1513265722,710063616,'',-0.25,-0.08971292358,-0.0155240950554,0.16028707642,0.001,-450.121231359,3100.0,0.0,3000.0,0.0
1513265724509834849,,564699,,1513265722,720063616,'',-0.25,-0.0898686151848,-0.0123810471528,0.160131384815,0.001,-459.934898716,3100.0,0.0,3000.0,0.0
1513265724519825659,,564700,,1513265722,730063616,'',-0.25,-0.0899883642747,-0.00996875887415,0.160011635725,0.001,-465.998503191,3100.0,0.0,3000.0,0.0
1513265724529868503,,564701,,1513265722,740063616,'',-0.25,-0.0901126107708,-0.0167367931756,0.159887389229,0.001,-445.557258801,3100.0,0.0,3000.0,0.0
1513265724539785951,,564702,,1513265722,750063616,'',-0.25,-0.0907788812077,-0.133166246754,0.159221118792,0.001,-100.550563427,3100.0,0.0,3000.0,0.0
1513265724549653166,,564703,,1513265722,760063616,'',-0.25,-0.0936213742678,-0.437606183217,0.156378625732,0.001,550.0,3100.0,0.0,3000.0,0.0
1513265724559586838,,564704,,1513265722,770063616,'',-0.25,-0.0995643152354,-0.670133130889,0.150435684765,0.001,550.0,3100.0,0.0,3000.0,0.0
1513265724569565757,,564705,,1513265722,780063616,'',-0.25,-0.105908911943,-0.579074855131,0.144091088057,0.001,550.0,3100.0,0.0,3000.0,0.0
1513265724579998904,,564706,,1513265722,790063616,'',-0.25,-0.111156291624,-0.48235274922,0.138843708376,0.001,550.0,3100.0,0.0,3000.0,0.0
1513265724589960135,,564707,,1513265722,800063616,'',-0.25,-0.115429073539,-0.386757478579,0.134570926461,0.001,550.0,3100.0,0.0,3000.0,0.0
1513265724599916925,,564708,,1513265722,810063616,'',-0.25,-0.118823850394,-0.299620155518,0.131176149606,0.001,495.824178156,3100.0,0.0,3000.0,0.0
1513265724609959715,,564709,,1513265722,820063616,'',-0.25,-0.121509238657,-0.245371456153,0.128490761343,0.001,327.455769327,3100.0,0.0,3000.0,0.0
1513265724619680822,,564710,,1513265722,830063616,'',-0.25,-0.123674867695,-0.192343461892,0.126325132305,0.001,202.893185579,3100.0,0.0,3000.0,0.0
1513265724629705979,,564711,,1513265722,840063616,'',-0.25,-0.125437725441,-0.156733529547,0.124562274559,0.001,85.4880445397,3100.0,0.0,3000.0,0.0
1513265724639737980,,564712,,1513265722,850063616,'',-0.25,-0.126851810471,-0.128164831146,0.123148189529,0.001,-3.40324926795,3100.0,0.0,3000.0,0.0
1513265724649542492,,564713,,1513265722,860063616,'',-0.25,-0.127976829806,-0.105436581395,0.122023170194,0.001,-60.0008152123,3100.0,0.0,3000.0,0.0
1513265724660030868,,564714,,1513265722,870063616,'',-0.25,-0.128899110206,-0.0868007012165,0.121100889794,0.001,-113.632406216,3100.0,0.0,3000.0,0.0
1513265724670004151,,564715,,1513265722,880063616,'',-0.25,-0.129627088496,-0.062817289456,0.120372911504,0.001,-183.932232993,3100.0,0.0,3000.0,0.0
1513265724680011869,,564716,,1513265722,890063616,'',-0.25,-0.13021483102,-0.0509488524689,0.11978516898,0.001,-221.405958061,3100.0,0.0,3000.0,0.0
1513265724690007413,,564717,,1513265722,900063616,'',-0.25,-0.130672325904,-0.0417068370825,0.119327674096,0.001,-248.840686776,3100.0,0.0,3000.0,0.0
1513265724699562078,,564718,,1513265722,910063616,'',-0.25,-0.131046703227,-0.0341439088513,0.118953296773,0.001,-268.402636382,3100.0,0.0,3000.0,0.0
1513265724709936898,,564719,,1513265722,920063616,'',-0.25,-0.13135321906,-0.0279518744986,0.11864678094,0.001,-283.612288978,3100.0,0.0,3000.0,0.0
1513265724719831273,,564720,,1513265722,930063616,'',-0.25,-0.131603764362,-0.0228905205661,0.118396235638,0.001,-299.469628613,3100.0,0.0,3000.0,0.0
1513265724729787423,,564721,,1513265722,940063616,'',-0.25,-0.131809238869,-0.0187396576303,0.118190761131,0.001,-309.946380421,3100.0,0.0,3000.0,0.0
1513265724739591123,,564722,,1513265722,950063616,'',-0.25,-0.131969710669,-0.0154994294613,0.118030289331,0.001,-319.258044349,3100.0,0.0,3000.0,0.0
1513265724750030569,,564723,,1513265722,960063616,'',-0.25,-0.132108562538,-0.012694158949,0.117891437462,0.001,-328.148462236,3100.0,0.0,3000.0,0.0
1513265724759988028,,564724,,1513265722,970063616,'',-0.25,-0.132214112042,-0.0105623669341,0.117785887958,0.001,-333.418428736,3100.0,0.0,3000.0,0.0
1513265724770066503,,564725,,1513265722,980063616,'',-0.25,-0.132300972413,-0.00880834501842,0.117699027587,0.001,-338.34285764,3100.0,0.0,3000.0,0.0
1513265724779849767,,564726,,1513265722,990063616,'',-0.25,-0.132346118947,-0.00789935932087,0.117653881053,0.001,-340.949965763,3100.0,0.0,3000.0,0.0
1513265724789834522,,564727,,1513265723,63616,'',-0.25,-0.132400238817,-0.00680788918398,0.117599761183,0.001,-343.952420911,3100.0,0.0,3000.0,0.0
1513265724799716635,,564728,,1513265723,10063616,'',-0.25,-0.132470233898,-0.00539020515422,0.117529766102,0.001,-347.693000535,3100.0,0.0,3000.0,0.0
1513265724809784061,,564729,,1513265723,20063616,'',-0.25,-0.132794162787,-0.0637939763385,0.117205837213,0.001,-175.248227002,3100.0,0.0,3000.0,0.0
1513265724819715461,,564730,,1513265723,30063616,'',-0.25,-0.134318734963,-0.237115255328,0.115681265037,0.001,354.918766887,3100.0,0.0,3000.0,0.0
1513265724830005220,,564731,,1513265723,40063616,'',-0.25,-0.137950876023,-0.442089360134,0.112049123977,0.001,550.0,3100.0,0.0,3000.0,0.0
1513265724839864420,,564732,,1513265723,50063616,'',-0.25,-0.142333249087,-0.409233189433,0.107666750913,0.001,550.0,3100.0,0.0,3000.0,0.0
1513265724849884998,,564733,,1513265723,60063616,'',-0.25,-0.145975749716,-0.326373951218,0.104024250284,0.001,550.0,3100.0,0.0,3000.0,0.0
1513265724859783618,,564734,,1513265723,70063616,'',-0.25,-0.148947166351,-0.266349441583,0.101052833649,0.001,489.766667879,3100.0,0.0,3000.0,0.0
1513265724869684198,,564735,,1513265723,80063616,'',-0.25,-0.151286667596,-0.209809868281,0.0987133324036,0.001,323.372104118,3100.0,0.0,3000.0,0.0
1513265724879641504,,564736,,1513265723,90063616,'',-0.25,-0.153086107926,-0.164180311475,0.0969138920741,0.001,195.511717209,3100.0,0.0,3000.0,0.0
1513265724889498314,,564737,,1513265723,100063616,'',-0.25,-0.154530562184,-0.125721650857,0.0954694378156,0.001,74.3723933263,3100.0,0.0,3000.0,0.0
1513265724899476575,,564738,,1513265723,110063616,'',-0.25,-0.155666938223,-0.10276586405,0.0943330617768,0.001,18.3663402478,3100.0,0.0,3000.0,0.0
1513265724910075608,,564739,,1513265723,120063616,'',-0.25,-0.15660592971,-0.0837995253413,0.0933940702897,0.001,-38.089143189,3100.0,0.0,3000.0,0.0
1513265724920043677,,564740,,1513265723,130063616,'',-0.25,-0.157357978003,-0.0686066445952,0.0926420219971,0.001,-80.3512905815,3100.0,0.0,3000.0,0.0
1513265724929934540,,564741,,1513265723,140063616,'',-0.25,-0.157982216255,-0.0652766081273,0.0920177837447,0.001,-92.4226710821,3100.0,0.0,3000.0,0.0
1513265724939917963,,564742,,1513265723,150063616,'',-0.25,-0.158486593327,-0.0458098216321,0.0915134066728,0.001,-141.818350512,3100.0,0.0,3000.0,0.0
1513265724949887844,,564743,,1513265723,160063616,'',-0.25,-0.158887912975,-0.0377014602554,0.0911120870251,0.001,-168.79082403,3100.0,0.0,3000.0,0.0
1513265724959799935,,564744,,1513265723,170063616,'',-0.25,-0.15920013261,-0.022117896593,0.0907998673904,0.001,-216.218594421,3100.0,0.0,3000.0,0.0
1513265724969761107,,564745,,1513265723,180063616,'',-0.25,-0.159465267872,-0.0260378821149,0.0905347321276,0.001,-202.541623424,3100.0,0.0,3000.0,0.0
1513265724979758950,,564746,,1513265723,190063616,'',-0.25,-0.159665579695,-0.0219913239105,0.090334420305,0.001,-213.744683613,3100.0,0.0,3000.0,0.0
1513265724989590048,,564747,,1513265723,200063616,'',-0.25,-0.159821251844,-0.018843864467,0.0901787481562,0.001,-222.797935198,3100.0,0.0,3000.0,0.0
1513265725000148294,,564748,,1513265723,210063616,'',-0.25,-0.159948393885,-0.00699821233656,0.0900516061154,0.001,-258.279325373,3100.0,0.0,3000.0,0.0
1513265725009932328,,564749,,1513265723,220063616,'',-0.25,-0.160044992381,-0.00504837967581,0.089955007619,0.001,-263.603644586,3100.0,0.0,3000.0,0.0
1513265725019870490,,564750,,1513265723,230063616,'',-0.25,-0.160116191176,-0.0128842832618,0.0898838088239,0.001,-240.453613093,3100.0,0.0,3000.0,0.0
1513265725029638251,,564751,,1513265723,240063616,'',-0.25,-0.160197473937,-0.00196230349323,0.0898025260626,0.001,-272.471065542,3100.0,0.0,3000.0,0.0
1513265725039602330,,564752,,1513265723,250063616,'',-0.25,-0.160232162904,-0.00126136659239,0.0897678370959,0.001,-274.466056731,3100.0,0.0,3000.0,0.0
1513265725050014236,,564753,,1513265723,260063616,'',-0.25,-0.160259043182,-0.000717108855012,0.0897409568183,0.001,-276.031232669,3100.0,0.0,3000.0,0.0
1513265725060054420,,564754,,1513265723,270063616,'',-0.25,-0.160282213728,-0.000251163456226,0.0897177862723,0.001,-277.366052243,3100.0,0.0,3000.0,0.0
1513265725069982884,,564755,,1513265723,280063616,'',-0.25,-0.16031807101,-0.00880695209597,0.0896819289902,0.001,-252.124207976,3100.0,0.0,3000.0,0.0
1513265725079892918,,564756,,1513265723,290063616,'',-0.25,-0.160406949565,-0.016290481983,0.0895930504346,0.001,-228.720529532,3100.0,0.0,3000.0,0.0
1513265725089879500,,564757,,1513265723,300063616,'',-0.25,-0.160888242522,-0.0807947972075,0.0891117574779,0.001,-37.7919701485,3100.0,0.0,3000.0,0.0
1513265725099804787,,564758,,1513265723,310063616,'',-0.25,-0.162446641711,-0.216326299397,0.0875533582889,0.001,382.197380755,3100.0,0.0,3000.0,0.0
1513265725109742328,,564759,,1513265723,320063616,'',-0.25,-0.165266284066,-0.3078232595,0.084733715934,0.001,550.0,3100.0,0.0,3000.0,0.0
1513265725119803107,,564760,,1513265723,330063616,'',-0.25,-0.168024862339,-0.252095330878,0.081975137661,0.001,507.376583841,3100.0,0.0,3000.0,0.0
1513265725130060328,,564761,,1513265723,340063616,'',-0.25,-0.170297121292,-0.206191758927,0.0797028787075,0.001,374.718067056,3100.0,0.0,3000.0,0.0
1513265725140034169,,564762,,1513265723,350063616,'',-0.25,-0.172148947944,-0.168781761188,0.0778510520558,0.001,269.595388956,3100.0,0.0,3000.0,0.0
1513265725149988014,,564763,,1513265723,360063616,'',-0.25,-0.173550250393,-0.121911380519,0.0764497496074,0.001,121.324074566,3100.0,0.0,3000.0,0.0
1513265725159896892,,564764,,1513265723,370063616,'',-0.25,-0.174610657857,-0.0912112538496,0.075389342143,0.001,41.6280369522,3100.0,0.0,3000.0,0.0
1513265725169898385,,564765,,1513265723,380063616,'',-0.25,-0.175473223319,-0.0737816051909,0.0745267766807,0.001,-2.75040278281,3100.0,0.0,3000.0,0.0
1513265725179930662,,564766,,1513265723,390063616,'',-0.25,-0.17614161833,-0.0602856801012,0.0738583816696,0.001,-51.0325173969,3100.0,0.0,3000.0,0.0
1513265725189849823,,564767,,1513265723,400063616,'',-0.25,-0.17668282044,-0.0493528076,0.0733171795596,0.001,-79.091222954,3100.0,0.0,3000.0,0.0
1513265725199840775,,564768,,1513265723,410063616,'',-0.25,-0.177116875346,-0.0313061031288,0.0728831246542,0.001,-132.115501144,3100.0,0.0,3000.0,0.0
1513265725209760449,,564769,,1513265723,420063616,'',-0.25,-0.17745643672,-0.0337257634898,0.0725435632804,0.001,-121.157570649,3100.0,0.0,3000.0,0.0
1513265725219811471,,564770,,1513265723,430063616,'',-0.25,-0.177741859727,-0.0279616536526,0.0722581402725,0.001,-141.642793935,3100.0,0.0,3000.0,0.0
1513265725229740164,,564771,,1513265723,440063616,'',-0.25,-0.177935491663,-0.0240488403292,0.0720645083366,0.001,-150.897066077,3100.0,0.0,3000.0,0.0
1513265725239650536,,564772,,1513265723,450063616,'',-0.25,-0.178068044646,-0.012091942579,0.0719319553537,0.001,-186.603309376,3100.0,0.0,3000.0,0.0
1513265725249654670,,564773,,1513265723,460063616,'',-0.25,-0.178184508047,-0.00974073664263,0.0718154919535,0.001,-193.237566898,3100.0,0.0,3000.0,0.0
1513265725260054443,,564774,,1513265723,470063616,'',-0.25,-0.178280578056,-0.00780159350859,0.0717194219438,0.001,-198.864215448,3100.0,0.0,3000.0,0.0
1513265725269980473,,564775,,1513265723,480063616,'',-0.25,-0.178358223701,-0.00623048540926,0.0716417762988,0.001,-203.267023525,3100.0,0.0,3000.0,0.0
1513265725280036961,,564776,,1513265723,490063616,'',-0.25,-0.178430734589,-0.00476697269596,0.071569265411,0.001,-207.471561175,3100.0,0.0,3000.0,0.0
1513265725289958860,,564777,,1513265723,500063616,'',-0.25,-0.178481269829,-0.00374543002949,0.0715187301713,0.001,-210.431165966,3100.0,0.0,3000.0,0.0
1513265725299875173,,564778,,1513265723,510063616,'',-0.25,-0.178523764266,-0.00288858087828,0.0714762357337,0.001,-212.868443573,3100.0,0.0,3000.0,0.0
1513265725310027163,,564779,,1513265723,520063616,'',-0.25,-0.178558616092,-0.00218660253122,0.0714413839081,0.001,-215.056876806,3100.0,0.0,3000.0,0.0
1513265725320054885,,564780,,1513265723,530063616,'',-0.25,-0.178578204522,-0.00178994886554,0.0714217954778,0.001,-216.017309174,3100.0,0.0,3000.0,0.0
1513265725329948070,,564781,,1513265723,540063616,'',-0.25,-0.178636291119,-0.009892989452,0.071363708881,0.001,-191.464698306,3100.0,0.0,3000.0,0.0
1513265725339855399,,564782,,1513265723,550063616,'',-0.25,-0.17870039159,-0.00859547197088,0.0712996084098,0.001,-195.112927467,3100.0,0.0,3000.0,0.0
1513265725349850994,,564783,,1513265723,560063616,'',-0.25,-0.178907278907,-0.0322505677819,0.0710927210929,0.001,-123.150309038,3100.0,0.0,3000.0,0.0
1513265725359854780,,564784,,1513265723,570063616,'',-0.25,-0.17954928566,-0.0935072465762,0.07045071434,0.001,57.3154515692,3100.0,0.0,3000.0,0.0
1513265725370186074,,564785,,1513265723,580063616,'',-0.25,-0.181013373426,-0.184550416402,0.0689866265738,0.001,342.55836952,3100.0,0.0,3000.0,0.0
1513265725380241600,,564786,,1513265723,590063616,'',-0.25,-0.182932679765,-0.182891841807,0.0670673202353,0.001,344.035325455,3100.0,0.0,3000.0,0.0
1513265725390128093,,564787,,1513265723,600063616,'',-0.25,-0.18458695116,-0.149471378872,0.0654130488396,0.001,237.082768819,3100.0,0.0,3000.0,0.0
1513265725400013871,,564788,,1513265723,610063616,'',-0.25,-0.185929191536,-0.122356999602,0.0640708084635,0.001,170.378581435,3100.0,0.0,3000.0,0.0
1513265725410032351,,564789,,1513265723,620063616,'',-0.25,-0.1870279261,-0.10016400878,0.0629720738998,0.001,107.066123206,3100.0,0.0,3000.0,0.0
1513265725420022745,,564790,,1513265723,630063616,'',-0.25,-0.187919254478,-0.0821577646538,0.0620807455221,0.001,55.3118106571,3100.0,0.0,3000.0,0.0
1513265725429836060,,564791,,1513265723,640063616,'',-0.25,-0.188580065228,-0.0595279598623,0.0614199347725,0.001,-14.8765494142,3100.0,0.0,3000.0,0.0
1513265725439722401,,564792,,1513265723,650063616,'',-0.25,-0.189114480589,-0.048732500736,0.0608855194115,0.001,-41.8128646929,3100.0,0.0,3000.0,0.0
1513265725450174478,,564793,,1513265723,660063616,'',-0.25,-0.189526565275,-0.0404104839086,0.0604734347255,0.001,-65.6338623399,3100.0,0.0,3000.0,0.0
1513265725459541449,,564794,,1513265723,670063616,'',-0.25,-0.189828789709,-0.0250249197905,0.0601712102906,0.001,-111.07825753,3100.0,0.0,3000.0,0.0
1513265725470064091,,564795,,1513265723,680063616,'',-0.25,-0.19007055268,-0.0201383714297,0.0599294473201,0.001,-125.344667349,3100.0,0.0,3000.0,0.0
1513265725480106067,,564796,,1513265723,690063616,'',-0.25,-0.190250657589,-0.0165024745546,0.0597493424108,0.001,-135.4647832,3100.0,0.0,3000.0,0.0
1513265725489842001,,564797,,1513265723,700063616,'',-0.25,-0.19039857598,-0.0135145654824,0.0596014240196,0.001,-144.054424646,3100.0,0.0,3000.0,0.0
1513265725499876791,,564798,,1513265723,710063616,'',-0.25,-0.190519918887,-0.0110634735709,0.0594800811128,0.001,-151.093672696,3100.0,0.0,3000.0,0.0
1513265725509671918,,564799,,1513265723,720063616,'',-0.25,-0.190619264923,-0.00905671213734,0.0593807350766,0.001,-156.851051998,3100.0,0.0,3000.0,0.0
1513265725519595170,,564800,,1513265723,730063616,'',-0.25,-0.190700412401,-0.00741755636374,0.0592995875989,0.001,-162.004536376,3100.0,0.0,3000.0,0.0
1513265725529729567,,564801,,1513265723,740063616,'',-0.25,-0.190759208413,-0.00622781723258,0.059240791587,0.001,-164.407350311,3100.0,0.0,3000.0,0.0
1513265725540082273,,564802,,1513265723,750063616,'',-0.25,-0.190814162453,-0.00511781254583,0.0591858375469,0.001,-168.068381404,3100.0,0.0,3000.0,0.0
1513265725550076336,,564803,,1513265723,760063616,'',-0.25,-0.190860057602,-0.00419111045092,0.0591399423981,0.001,-170.958348193,3100.0,0.0,3000.0,0.0
1513265725560078052,,564804,,1513265723,770063616,'',-0.25,-0.19089771041,-0.00343083541241,0.0591022895901,0.001,-172.865886137,3100.0,0.0,3000.0,0.0
1513265725570069205,,564805,,1513265723,780063616,'',-0.25,-0.190954344485,-0.0115651286264,0.0590456555147,0.001,-148.301880131,3100.0,0.0,3000.0,0.0
1513265725579869434,,564806,,1513265723,790063616,'',-0.25,-0.191067135245,-0.0185657975573,0.0589328647554,0.001,-126.700761442,3100.0,0.0,3000.0,0.0
1513265725589950828,,564807,,1513265723,800063616,'',-0.25,-0.191389941075,-0.0491608040405,0.0586100589253,0.001,-33.4783643521,3100.0,0.0,3000.0,0.0
1513265725599731733,,564808,,1513265723,810063616,'',-0.25,-0.192122930858,-0.0992997364901,0.0578770691418,0.001,113.656034239,3100.0,0.0,3000.0,0.0
1513265725609599179,,564809,,1513265723,820063616,'',-0.25,-0.193265299539,-0.113335415852,0.0567347004612,0.001,176.14917931,3100.0,0.0,3000.0,0.0
1513265725620110218,,564810,,1513265723,830063616,'',-0.25,-0.194373702851,-0.109499006989,0.0556262971494,0.001,156.75455206,3100.0,0.0,3000.0,0.0
1513265725630109635,,564811,,1513265723,840063616,'',-0.25,-0.19528007163,-0.0819107944963,0.0547199283704,0.001,72.3658955144,3100.0,0.0,3000.0,0.0
1513265725640042588,,564812,,1513265723,850063616,'',-0.25,-0.196081506896,-0.0749987494429,0.0539184931036,0.001,58.5489618421,3100.0,0.0,3000.0,0.0
1513265725649903782,,564813,,1513265723,860063616,'',-0.25,-0.196705554897,-0.0623932105792,0.053294445103,0.001,23.3144488884,3100.0,0.0,3000.0,0.0
1513265725659721578,,564814,,1513265723,870063616,'',-0.25,-0.197231097797,-0.0517791355767,0.0527689022032,0.001,-10.9119096087,3100.0,0.0,3000.0,0.0
1513265725669673585,,564815,,1513265723,880063616,'',-0.25,-0.197679960248,-0.0427135488244,0.0523200397522,0.001,-36.3796724823,3100.0,0.0,3000.0,0.0
1513265725679601792,,564816,,1513265723,890063616,'',-0.25,-0.198039489879,-0.0354575376816,0.051960510121,0.001,-53.8934842674,3100.0,0.0,3000.0,0.0
1513265725690026665,,564817,,1513265723,900063616,'',-0.25,-0.198350129368,-0.0291766521744,0.0516498706318,0.001,-70.2180839437,3100.0,0.0,3000.0,0.0
1513265725699583015,,564818,,1513265723,910063616,'',-0.25,-0.19860226358,-0.0240847008349,0.0513977364196,0.001,-86.8021656595,3100.0,0.0,3000.0,0.0
1513265725710058833,,564819,,1513265723,920063616,'',-0.25,-0.198801694854,-0.0200580959316,0.0511983051457,0.001,-98.3768084159,3100.0,0.0,3000.0,0.0
1513265725719989564,,564820,,1513265723,930063616,'',-0.25,-0.198937958064,-0.00802347837519,0.0510620419363,0.001,-134.13492005,3100.0,0.0,3000.0,0.0
1513265725730067123,,564821,,1513265723,940063616,'',-0.25,-0.199052924014,-0.014978049393,0.0509470759863,0.001,-113.724658728,3100.0,0.0,3000.0,0.0
1513265725739874086,,564822,,1513265723,950063616,'',-0.25,-0.199144974351,-0.00383912361919,0.0508550256494,0.001,-146.067447813,3100.0,0.0,3000.0,0.0
1513265725749807334,,564823,,1513265723,960063616,'',-0.25,-0.199203733082,-0.00265171834245,0.0507962669179,0.001,-149.498137424,3100.0,0.0,3000.0,0.0
1513265725759829260,,564824,,1513265723,970063616,'',-0.25,-0.199292928742,-0.0101269352026,0.0507070712578,0.001,-127.26443459,3100.0,0.0,3000.0,0.0
1513265725769921221,,564825,,1513265723,980063616,'',-0.25,-0.199359853781,-0.00877343497457,0.0506401462194,0.001,-130.525889247,3100.0,0.0,3000.0,0.0
1513265725779762501,,564826,,1513265723,990063616,'',-0.25,-0.199413150184,-0.00769603344836,0.0505868498165,0.001,-133.578931486,3100.0,0.0,3000.0,0.0
1513265725789673563,,564827,,1513265724,63616,'',-0.25,-0.199500193988,-0.0152167766814,0.0504998060117,0.001,-110.664418321,3100.0,0.0,3000.0,0.0
1513265725799578074,,564828,,1513265724,10063616,'',-0.25,-0.199798898621,-0.0370179449674,0.0502011013792,0.001,-46.3626576471,3100.0,0.0,3000.0,0.0
1513265725810109933,,564829,,1513265724,20063616,'',-0.25,-0.200439159029,-0.0797573389056,0.0495608409715,0.001,86.8235851793,3100.0,0.0,3000.0,0.0
1513265725820028250,,564830,,1513265724,30063616,'',-0.25,-0.201275242096,-0.0814240025394,0.0487247579038,0.001,95.2056770308,3100.0,0.0,3000.0,0.0
1513265725830013728,,564831,,1513265724,40063616,'',-0.25,-0.20207982624,-0.0744490198893,0.0479201737602,0.001,70.2585830971,3100.0,0.0,3000.0,0.0
1513265725839983874,,564832,,1513265724,50063616,'',-0.25,-0.202756408843,-0.0607793740498,0.0472435911566,0.001,37.3653328932,3100.0,0.0,3000.0,0.0
1513265725850507047,,564833,,1513265724,60063616,'',-0.25,-0.203309674782,-0.0496010536557,0.0466903252181,0.001,4.52559804811,3100.0,0.0,3000.0,0.0
1513265725859816435,,564834,,1513265724,70063616,'',-0.25,-0.203795330952,-0.0397913427001,0.046204669048,0.001,-25.5324211728,3100.0,0.0,3000.0,0.0
1513265725869950008,,564835,,1513265724,80063616,'',-0.25,-0.204220163442,-0.0404896890102,0.0457798365578,0.001,-22.4192392879,3100.0,0.0,3000.0,0.0
1513265725879822713,,564836,,1513265724,90063616,'',-0.25,-0.204542054005,-0.0247061288633,0.0454579459952,0.001,-66.4981068138,3100.0,0.0,3000.0,0.0
1513265725889692589,,564837,,1513265724,100063616,'',-0.25,-0.204829825219,-0.0281704657858,0.0451701747813,0.001,-56.634338405,3100.0,0.0,3000.0,0.0
1513265725899625508,,564838,,1513265724,110063616,'',-0.25,-0.205082716517,-0.0230621615872,0.0449172834834,0.001,-69.639634803,3100.0,0.0,3000.0,0.0
1513265725909607797,,564839,,1513265724,120063616,'',-0.25,-0.205273143983,-0.0192175404428,0.0447268560169,0.001,-80.7141552542,3100.0,0.0,3000.0,0.0
1513265725920053432,,564840,,1513265724,130063616,'',-0.25,-0.20542912574,-0.016068773119,0.0445708742603,0.001,-89.533505948,3100.0,0.0,3000.0,0.0
1513265725930023649,,564841,,1513265724,140063616,'',-0.25,-0.205548093286,-0.0136651184112,0.0444519067136,0.001,-96.6078948897,3100.0,0.0,3000.0,0.0
1513265725940017265,,564842,,1513265724,150063616,'',-0.25,-0.205654419508,-0.01151726543,0.0443455804925,0.001,-102.712597696,3100.0,0.0,3000.0,0.0
1513265725949973036,,564843,,1513265724,160063616,'',-0.25,-0.205757791526,-0.00942859703812,0.0442422084737,0.001,-108.695672154,3100.0,0.0,3000.0,0.0
1513265725959922649,,564844,,1513265724,170063616,'',-0.25,-0.205807788467,0.000860472842375,0.0441922115329,0.001,-139.594463468,3100.0,0.0,3000.0,0.0
1513265725969799266,,564845,,1513265724,180063616,'',-0.25,-0.205883338729,-0.0068924093477,0.0441166612709,0.001,-116.007031043,3100.0,0.0,3000.0,0.0
1513265725979827173,,564846,,1513265724,190063616,'',-0.25,-0.205927327495,0.00327505017423,0.044072672505,0.001,-146.50392272,3100.0,0.0,3000.0,0.0
1513265725989640498,,564847,,1513265724,200063616,'',-0.25,-0.205973585835,-0.00506736820707,0.0440264141645,0.001,-121.266186435,3100.0,0.0,3000.0,0.0
1513265725999566007,,564848,,1513265724,210063616,'',-0.25,-0.206104957292,-0.0209709346936,0.0438950427077,0.001,-72.8954950746,3100.0,0.0,3000.0,0.0
1513265726010047831,,564849,,1513265724,220063616,'',-0.25,-0.206414050427,-0.0425615110979,0.0435859495727,0.001,-6.67253605609,3100.0,0.0,3000.0,0.0
1513265726019972922,,564850,,1513265724,230063616,'',-0.25,-0.206899377738,-0.0513127044976,0.0431006222619,0.001,21.2829430193,3100.0,0.0,3000.0,0.0
1513265726029948725,,564851,,1513265724,240063616,'',-0.25,-0.207426803875,-0.0499386802736,0.042573196125,0.001,17.9697821941,3100.0,0.0,3000.0,0.0
1513265726039963222,,564852,,1513265724,250063616,'',-0.25,-0.207884056184,-0.0406994144151,0.0421159438156,0.001,-11.0533017598,3100.0,0.0,3000.0,0.0
1513265726049941297,,564853,,1513265724,260063616,'',-0.25,-0.208299532382,-0.0415927945945,0.041700467618,0.001,-6.53539032225,3100.0,0.0,3000.0,0.0
1513265726059845127,,564854,,1513265724,270063616,'',-0.25,-0.208631670214,-0.0348786705559,0.0413683297864,0.001,-22.5370934669,3100.0,0.0,3000.0,0.0
1513265726069692462,,564855,,1513265724,280063616,'',-0.25,-0.208944733973,-0.0285539310008,0.0410552660266,0.001,-41.2503567455,3100.0,0.0,3000.0,0.0
1513265726080106785,,564856,,1513265724,290063616,'',-0.25,-0.209192902327,-0.0235408965736,0.0408070976731,0.001,-56.8773890256,3100.0,0.0,3000.0,0.0
1513265726090133276,,564857,,1513265724,300063616,'',-0.25,-0.209404194807,-0.0192720974093,0.0405958051932,0.001,-67.8037879545,3100.0,0.0,3000.0,0.0
1513265726100076346,,564858,,1513265724,310063616,'',-0.25,-0.209586349964,-0.0248709405522,0.0404136500357,0.001,-50.2319121817,3100.0,0.0,3000.0,0.0
1513265726110017634,,564859,,1513265724,320063616,'',-0.25,-0.209734023805,-0.0126103377988,0.0402659761949,0.001,-86.923518908,3100.0,0.0,3000.0,0.0
1513265726119828098,,564860,,1513265724,330063616,'',-0.25,-0.209846632141,-0.00105392931937,0.0401533678588,0.001,-121.294603419,3100.0,0.0,3000.0,0.0
1513265726129728384,,564861,,1513265724,340063616,'',-0.25,-0.209947149769,-0.0083037451561,0.040052850231,0.001,-99.1281935207,3100.0,0.0,3000.0,0.0
1513265726139763762,,564862,,1513265724,350063616,'',-0.25,-0.210047223969,-0.0062833421548,0.0399527760308,0.001,-105.300159333,3100.0,0.0,3000.0,0.0
1513265726149736435,,564863,,1513265724,360063616,'',-0.25,-0.210120173133,-0.00481289286039,0.039879826867,0.001,-109.208916768,3100.0,0.0,3000.0,0.0
1513265726159639254,,564864,,1513265724,370063616,'',-0.25,-0.210196409356,-0.00326793524605,0.0398035906437,0.001,-113.5499897,3100.0,0.0,3000.0,0.0
1513265726170072290,,564865,,1513265724,380063616,'',-0.25,-0.210267582865,-0.0111068141043,0.0397324171355,0.001,-90.3571402155,3100.0,0.0,3000.0,0.0
1513265726180056155,,564866,,1513265724,390063616,'',-0.25,-0.21036813744,-0.0090781678108,0.0396318625604,0.001,-95.4696193122,3100.0,0.0,3000.0,0.0
