rosbagTimestamp,header,seq,stamp,secs,nsecs,frame_id,set_point,process_value,process_value_dot,error,time_step,command,p,i,d,i_clamp
1513265720979977712,,564364,,1513265719,190063616,'',1.27409035396,1.24647096837,5.43467575377e-05,-0.0276193855857,0.001,-138.096927928,-5000.0,0.0,0.0,0.0
1513265720989822859,,564365,,1513265719,200063616,'',1.27409035396,1.24647096837,2.32247194363e-05,-0.0276193855857,0.001,-138.096927928,-5000.0,0.0,0.0,0.0
1513265720999607801,,564366,,1513265719,210063616,'',1.27409035396,1.24782044975,0.0272076253509,-0.0262699042053,0.001,-131.349521026,-5000.0,0.0,0.0,0.0
1513265721009550165,,564367,,1513265719,220063616,'',1.27409035396,1.24647096837,-0.00151111366204,-0.0276193855857,0.001,-138.096927928,-5000.0,0.0,0.0,0.0
1513265721019534368,,564368,,1513265719,230063616,'',1.27409035396,1.24647096837,-0.000758977082799,-0.0276193855857,0.001,-138.096927928,-5000.0,0.0,0.0,0.0
1513265721029556248,,564369,,1513265719,240063616,'',1.27409035396,1.24647096837,-0.00204621400283,-0.0276193855857,0.001,-138.096927928,-5000.0,0.0,0.0,0.0
1513265721039531689,,564370,,1513265719,250063616,'',1.27409035396,1.24647096837,-0.00356098000215,-0.0276193855857,0.001,-138.096927928,-5000.0,0.0,0.0,0.0
1513265721049442852,,564371,,1513265719,260063616,'',1.27409035396,1.24647096837,-0.00391595181715,-0.0276193855857,0.001,-138.096927928,-5000.0,0.0,0.0,0.0
1513265721059487278,,564372,,1513265719,270063616,'',1.27409035396,1.24647096837,-0.00227705911461,-0.0276193855857,0.001,-138.096927928,-5000.0,0.0,0.0,0.0
1513265721069858522,,564373,,1513265719,280063616,'',1.27409035396,1.24782044975,0.0248764806569,-0.0262699042053,0.001,-131.349521026,-5000.0,0.0,0.0,0.0
1513265721079963790,,564374,,1513265719,290063616,'',1.27409035396,1.24782044975,0.0252040710229,-0.0262699042053,0.001,-131.349521026,-5000.0,0.0,0.0,0.0
1513265721089847509,,564375,,1513265719,300063616,'',1.27409035396,1.24512148699,-0.0304404773351,-0.0289688669661,0.001,-144.84433483,-5000.0,0.0,0.0,0.0
1513265721099697816,,564376,,1513265719,310063616,'',1.27409035396,1.24782044975,0.0251220876932,-0.0262699042053,0.001,-131.349521026,-5000.0,0.0,0.0,0.0
1513265721109699736,,564377,,1513265719,320063616,'',1.27409035396,1.24782044975,0.0259100454002,-0.0262699042053,0.001,-131.349521026,-5000.0,0.0,0.0,0.0
1513265721119666787,,564378,,1513265719,330063616,'',1.27409035396,1.24782044975,0.0256535759955,-0.0262699042053,0.001,-131.349521026,-5000.0,0.0,0.0,0.0
1513265721129725821,,564379,,1513265719,340063616,'',1.27409035396,1.24647096837,-0.0012485110411,-0.0276193855857,0.001,-138.096927928,-5000.0,0.0,0.0,0.0
1513265721139864024,,564380,,1513265719,350063616,'',1.27409035396,1.24647096837,-0.00249512964929,-0.0276193855857,0.001,-138.096927928,-5000.0,0.0,0.0,0.0
1513265721149807189,,564381,,1513265719,360063616,'',1.27409035396,1.24647096837,-0.00154299258135,-0.0276193855857,0.001,-138.096927928,-5000.0,0.0,0.0,0.0
1513265721159693374,,564382,,1513265719,370063616,'',1.27409035396,1.24647096837,-0.00222487337402,-0.0276193855857,0.001,-138.096927928,-5000.0,0.0,0.0,0.0
1513265721169803217,,564383,,1513265719,380063616,'',1.27409035396,1.24647096837,-0.00239728524009,-0.0276193855857,0.001,-138.096927928,-5000.0,0.0,0.0,0.0
1513265721179478637,,564384,,1513265719,390063616,'',1.27409035396,1.24647096837,-0.00100833865842,-0.0276193855857,0.001,-138.096927928,-5000.0,0.0,0.0,0.0
1513265721189496147,,564385,,1513265719,400063616,'',1.27409035396,1.24647096837,-0.00134713162788,-0.0276193855857,0.001,-138.096927928,-5000.0,0.0,0.0,0.0
1513265721199931686,,564386,,1513265719,410063616,'',1.27409035396,1.24647096837,-0.00210403577342,-0.0276193855857,0.001,-138.096927928,-5000.0,0.0,0.0,0.0
1513265721209891760,,564387,,1513265719,420063616,'',1.27409035396,1.24647096837,-0.00225536511436,-0.0276193855857,0.001,-138.096927928,-5000.0,0.0,0.0,0.0
1513265721219904355,,564388,,1513265719,430063616,'',1.27409035396,1.24782044975,0.0239350067243,-0.0262699042053,0.001,-131.349521026,-5000.0,0.0,0.0,0.0
1513265721229798313,,564389,,1513265719,440063616,'',1.27409035396,1.24647096837,-0.00316731027538,-0.0276193855857,0.001,-138.096927928,-5000.0,0.0,0.0,0.0
1513265721239539719,,564390,,1513265719,450063616,'',1.27409035396,1.24512148699,-0.0288312172791,-0.0289688669661,0.001,-144.84433483,-5000.0,0.0,0.0,0.0
1513265721249427910,,564391,,1513265719,460063616,'',1.27409035396,1.24647096837,-0.00116739142874,-0.0276193855857,0.001,-138.096927928,-5000.0,0.0,0.0,0.0
1513265721259404743,,564392,,1513265719,470063616,'',1.27409035396,1.24647096837,-0.00197535608426,-0.0276193855857,0.001,-138.096927928,-5000.0,0.0,0.0,0.0
1513265721269998270,,564393,,1513265719,480063616,'',1.27409035396,1.24782044975,0.0241422731379,-0.0262699042053,0.001,-131.349521026,-5000.0,0.0,0.0,0.0
1513265721279673249,,564394,,1513265719,490063616,'',1.27409035396,1.24512148699,-0.0288041507793,-0.0289688669661,0.001,-144.84433483,-5000.0,0.0,0.0,0.0
1513265721289525891,,564395,,1513265719,500063616,'',1.27409035396,1.24647096837,-0.0017031152862,-0.0276193855857,0.001,-138.096927928,-5000.0,0.0,0.0,0.0
1513265721299417572,,564396,,1513265719,510063616,'',1.27409035396,1.24647096837,-0.00191840506876,-0.0276193855857,0.001,-138.096927928,-5000.0,0.0,0.0,0.0
1513265721310003820,,564397,,1513265719,520063616,'',1.27409035396,1.24647096837,-0.00251921981378,-0.0276193855857,0.001,-138.096927928,-5000.0,0.0,0.0,0.0
1513265721319912489,,564398,,1513265719,530063616,'',1.27409035396,1.24647096837,-0.00258207173165,-0.0276193855857,0.001,-138.096927928,-5000.0,0.0,0.0,0.0
1513265721329782745,,564399,,1513265719,540063616,'',1.27409035396,1.24647096837,-0.0021270449408,-0.0276193855857,0.001,-138.096927928,-5000.0,0.0,0.0,0.0
1513265721339792111,,564400,,1513265719,550063616,'',1.27409035396,1.24647096837,-0.00367515915015,-0.0276193855857,0.001,-138.096927928,-5000.0,0.0,0.0,0.0
1513265721349896045,,564401,,1513265719,560063616,'',1.27409035396,1.24647096837,-0.00341917877763,-0.0276193855857,0.001,-138.096927928,-5000.0,0.0,0.0,0.0
1513265721359898093,,564402,,1513265719,570063616,'',1.27409035396,1.24647096837,-0.00284022398587,-0.0276193855857,0.001,-138.096927928,-5000.0,0.0,0.0,0.0
1513265721369754505,,564403,,1513265719,580063616,'',1.27409035396,1.24647096837,-0.00287443607134,-0.0276193855857,0.001,-138.096927928,-5000.0,0.0,0.0,0.0
1513265721379785589,,564404,,1513265719,590063616,'',1.27409035396,1.24782044975,0.0248242814658,-0.0262699042053,0.001,-131.349521026,-5000.0,0.0,0.0,0.0
1513265721389785370,,564405,,1513265719,600063616,'',1.27409035396,1.24782044975,0.0222660035217,-0.0262699042053,0.001,-131.349521026,-5000.0,0.0,0.0,0.0
1513265721399650983,,564406,,1513265719,610063616,'',1.27409035396,1.24647096837,-0.00364570963359,-0.0276193855857,0.001,-138.096927928,-5000.0,0.0,0.0,0.0
1513265721409730133,,564407,,1513265719,620063616,'',1.27409035396,1.24782044975,0.0237356509049,-0.0262699042053,0.001,-131.349521026,-5000.0,0.0,0.0,0.0
1513265721419615448,,564408,,1513265719,630063616,'',1.27409035396,1.24647096837,-0.00384963834324,-0.0276193855857,0.001,-138.096927928,-5000.0,0.0,0.0,0.0
1513265721429610344,,564409,,1513265719,640063616,'',1.27409035396,1.24647096837,-0.00318294513152,-0.0276193855857,0.001,-138.096927928,-5000.0,0.0,0.0,0.0
1513265721439567647,,564410,,1513265719,650063616,'',1.27409035396,1.24647096837,-0.00220132353232,-0.0276193855857,0.001,-138.096927928,-5000.0,0.0,0.0,0.0
1513265721449522438,,564411,,1513265719,660063616,'',1.27409035396,1.24647096837,-0.00225443400458,-0.0276193855857,0.001,-138.096927928,-5000.0,0.0,0.0,0.0
1513265721459906786,,564412,,1513265719,670063616,'',1.27409035396,1.24647096837,-0.00184640861316,-0.0276193855857,0.001,-138.096927928,-5000.0,0.0,0.0,0.0
1513265721469909906,,564413,,1513265719,680063616,'',1.27409035396,1.24647096837,-0.00340710949024,-0.0276193855857,0.001,-138.096927928,-5000.0,0.0,0.0,0.0
1513265721479694715,,564414,,1513265719,690063616,'',1.27409035396,1.24647096837,-0.00381619465582,-0.0276193855857,0.001,-138.096927928,-5000.0,0.0,0.0,0.0
1513265721489652323,,564415,,1513265719,700063616,'',1.27409035396,1.24647096837,-0.0046139962915,-0.0276193855857,0.001,-138.096927928,-5000.0,0.0,0.0,0.0
1513265721499515046,,564416,,1513265719,710063616,'',1.27409035396,1.24647096837,-0.00477763776764,-0.0276193855857,0.001,-138.096927928,-5000.0,0.0,0.0,0.0
1513265721509758673,,564417,,1513265719,720063616,'',1.27409035396,1.24512148699,-0.0311284249753,-0.0289688669661,0.001,-144.84433483,-5000.0,0.0,0.0,0.0
1513265721519749959,,564418,,1513265719,730063616,'',1.27409035396,1.24647096837,-0.00363970096308,-0.0276193855857,0.001,-138.096927928,-5000.0,0.0,0.0,0.0
1513265721529668709,,564419,,1513265719,740063616,'',1.27409035396,1.24782044975,0.0242068020792,-0.0262699042053,0.001,-131.349521026,-5000.0,0.0,0.0,0.0
1513265721539564857,,564420,,1513265719,750063616,'',1.27409035396,1.24647096837,-0.00293596498571,-0.0276193855857,0.001,-138.096927928,-5000.0,0.0,0.0,0.0
1513265721549654077,,564421,,1513265719,760063616,'',1.27409035396,1.24647096837,-0.00192776666013,-0.0276193855857,0.001,-138.096927928,-5000.0,0.0,0.0,0.0
1513265721559960842,,564422,,1513265719,770063616,'',1.27409035396,1.24782044975,0.0251415318608,-0.0262699042053,0.001,-131.349521026,-5000.0,0.0,0.0,0.0
1513265721569814763,,564423,,1513265719,780063616,'',1.27409035396,1.24782044975,0.0240275809873,-0.0262699042053,0.001,-131.349521026,-5000.0,0.0,0.0,0.0
1513265721579798858,,564424,,1513265719,790063616,'',1.27409035396,1.24647096837,-0.00369741129878,-0.0276193855857,0.001,-138.096927928,-5000.0,0.0,0.0,0.0
1513265721589815709,,564425,,1513265719,800063616,'',1.27409035396,1.24782044975,0.0226782745931,-0.0262699042053,0.001,-131.349521026,-5000.0,0.0,0.0,0.0
1513265721599759115,,564426,,1513265719,810063616,'',1.27409035396,1.24647096837,-0.00528365818468,-0.0276193855857,0.001,-138.096927928,-5000.0,0.0,0.0,0.0
1513265721609625485,,564427,,1513265719,820063616,'',1.27409035396,1.24647096837,-0.00529713790925,-0.0276193855857,0.001,-138.096927928,-5000.0,0.0,0.0,0.0
1513265721619630194,,564428,,1513265719,830063616,'',1.27409035396,1.24782044975,0.0223033888651,-0.0262699042053,0.001,-131.349521026,-5000.0,0.0,0.0,0.0
1513265721629584022,,564429,,1513265719,840063616,'',1.27409035396,1.24647096837,-0.00456584107465,-0.0276193855857,0.001,-138.096927928,-5000.0,0.0,0.0,0.0
1513265721639613960,,564430,,1513265719,850063616,'',1.27409035396,1.24512148699,-0.0304133409266,-0.0289688669661,0.001,-144.84433483,-5000.0,0.0,0.0,0.0
1513265721649749176,,564431,,1513265719,860063616,'',1.27409035396,1.24647096837,-0.00318473088929,-0.0276193855857,0.001,-138.096927928,-5000.0,0.0,0.0,0.0
1513265721659949540,,564432,,1513265719,870063616,'',1.27409035396,1.24647096837,-0.00260723870033,-0.0276193855857,0.001,-138.096927928,-5000.0,0.0,0.0,0.0
1513265721669961741,,564433,,1513265719,880063616,'',1.27409035396,1.24647096837,-0.00265598696259,-0.0276193855857,0.001,-138.096927928,-5000.0,0.0,0.0,0.0
1513265721679846662,,564434,,1513265719,890063616,'',1.27409035396,1.24782044975,0.0226734224965,-0.0262699042053,0.001,-131.349521026,-5000.0,0.0,0.0,0.0
1513265721689626562,,564435,,1513265719,900063616,'',1.27409035396,1.24782044975,0.0220081670552,-0.0262699042053,0.001,-131.349521026,-5000.0,0.0,0.0,0.0
1513265721699584902,,564436,,1513265719,910063616,'',1.27409035396,1.24647096837,-0.00679389761958,-0.0276193855857,0.001,-138.096927928,-5000.0,0.0,0.0,0.0
1513265721709543369,,564437,,1513265719,920063616,'',1.27409035396,1.24647096837,-0.00511032522887,-0.0276193855857,0.001,-138.096927928,-5000.0,0.0,0.0,0.0
1513265721719512847,,564438,,1513265719,930063616,'',1.27409035396,1.24782044975,0.0234825628313,-0.0262699042053,0.001,-131.349521026,-5000.0,0.0,0.0,0.0
1513265721729881556,,564439,,1513265719,940063616,'',1.27409035396,1.24647096837,-0.00349969086891,-0.0276193855857,0.001,-138.096927928,-5000.0,0.0,0.0,0.0
1513265721740040865,,564440,,1513265719,950063616,'',1.27409035396,1.24647096837,-0.00334599504134,-0.0276193855857,0.001,-138.096927928,-5000.0,0.0,0.0,0.0
1513265721749908146,,564441,,1513265719,960063616,'',1.27409035396,1.24782044975,0.023524914789,-0.0262699042053,0.001,-131.349521026,-5000.0,0.0,0.0,0.0
1513265721759841588,,564442,,1513265719,970063616,'',1.27409035396,1.24782044975,0.0212009655324,-0.0262699042053,0.001,-131.349521026,-5000.0,0.0,0.0,0.0
1513265721769853571,,564443,,1513265719,980063616,'',1.27409035396,1.24647096837,-0.00542442657739,-0.0276193855857,0.001,-138.096927928,-5000.0,0.0,0.0,0.0
1513265721779767782,,564444,,1513265719,990063616,'',1.27409035396,1.24782044975,0.0222233406872,-0.0262699042053,0.001,-131.349521026,-5000.0,0.0,0.0,0.0
1513265721789702787,,564445,,1513265720,63616,'',1.27409035396,1.24782044975,0.0229685071069,-0.0262699042053,0.001,-131.349521026,-5000.0,0.0,0.0,0.0
1513265721799656491,,564446,,1513265720,10063616,'',1.27409035396,1.24512148699,-0.0317163884824,-0.0289688669661,0.001,-144.84433483,-5000.0,0.0,0.0,0.0
1513265721809601758,,564447,,1513265720,20063616,'',1.27409035396,1.24647096837,-0.00461103566189,-0.0276193855857,0.001,-138.096927928,-5000.0,0.0,0.0,0.0
1513265721819601644,,564448,,1513265720,30063616,'',1.27409035396,1.24782044975,0.0210024961254,-0.0262699042053,0.001,-131.349521026,-5000.0,0.0,0.0,0.0
1513265721829543969,,564449,,1513265720,40063616,'',1.27409035396,1.24647096837,-0.00704830938818,-0.0276193855857,0.001,-138.096927928,-5000.0,0.0,0.0,0.0
1513265721840040243,,564450,,1513265720,50063616,'',1.27409035396,1.24647096837,-0.00628512741118,-0.0276193855857,0.001,-138.096927928,-5000.0,0.0,0.0,0.0
1513265721849875040,,564451,,1513265720,60063616,'',1.27409035396,1.24782044975,0.0215804866088,-0.0262699042053,0.001,-131.349521026,-5000.0,0.0,0.0,0.0
1513265721859876353,,564452,,1513265720,70063616,'',1.27409035396,1.24782044975,0.0211199370684,-0.0262699042053,0.001,-131.349521026,-5000.0,0.0,0.0,0.0
1513265721869715721,,564453,,1513265720,80063616,'',1.27409035396,1.24647096837,-0.00751394185919,-0.0276193855857,0.001,-138.096927928,-5000.0,0.0,0.0,0.0
1513265721879663781,,564454,,1513265720,90063616,'',1.27409035396,1.24647096837,-0.00657780770247,-0.0276193855857,0.001,-138.096927928,-5000.0,0.0,0.0,0.0
1513265721889774217,,564455,,1513265720,100063616,'',1.27409035396,1.24647096837,-0.00784445456372,-0.0276193855857,0.001,-138.096927928,-5000.0,0.0,0.0,0.0
1513265721899568697,,564456,,1513265720,110063616,'',1.27409035396,1.24782044975,0.0198436225657,-0.0262699042053,0.001,-131.349521026,-5000.0,0.0,0.0,0.0
1513265721909641013,,564457,,1513265720,120063616,'',1.27409035396,1.24647096837,-0.00653832546264,-0.0276193855857,0.001,-138.096927928,-5000.0,0.0,0.0,0.0
1513265721919635000,,564458,,1513265720,130063616,'',1.27409035396,1.24647096837,-0.00632931318473,-0.0276193855857,0.001,-138.096927928,-5000.0,0.0,0.0,0.0
1513265721929531413,,564459,,1513265720,140063616,'',1.27409035396,1.24647096837,-0.00467715921567,-0.0276193855857,0.001,-138.096927928,-5000.0,0.0,0.0,0.0
1513265721939509290,,564460,,1513265720,150063616,'',1.27409035396,1.24647096837,-0.00427928780487,-0.0276193855857,0.001,-138.096927928,-5000.0,0.0,0.0,0.0
1513265721949504670,,564461,,1513265720,160063616,'',1.27409035396,1.24647096837,-0.00438396762122,-0.0276193855857,0.001,-138.096927928,-5000.0,0.0,0.0,0.0
1513265721960047601,,564462,,1513265720,170063616,'',1.27409035396,1.24647096837,-0.0016649522654,-0.0276193855857,0.001,-138.096927928,-5000.0,0.0,0.0,0.0
1513265721969952065,,564463,,1513265720,180063616,'',1.27409035396,1.24512148699,-0.0300724325281,-0.0289688669661,0.001,-144.84433483,-5000.0,0.0,0.0,0.0
1513265721979838283,,564464,,1513265720,190063616,'',1.27409035396,1.24647096837,-0.00233205800196,-0.0276193855857,0.001,-138.096927928,-5000.0,0.0,0.0,0.0
1513265721989794397,,564465,,1513265720,200063616,'',1.27409035396,1.24512148699,-0.0300442419206,-0.0289688669661,0.001,-144.84433483,-5000.0,0.0,0.0,0.0
1513265721999744729,,564466,,1513265720,210063616,'',1.27409035396,1.24512148699,-0.0295426787978,-0.0289688669661,0.001,-144.84433483,-5000.0,0.0,0.0,0.0
1513265722009752081,,564467,,1513265720,220063616,'',1.27409035396,1.24647096837,-0.00234240364141,-0.0276193855857,0.001,-138.096927928,-5000.0,0.0,0.0,0.0
1513265722019706298,,564468,,1513265720,230063616,'',1.27409035396,1.24647096837,-0.000943314945529,-0.0276193855857,0.001,-138.096927928,-5000.0,0.0,0.0,0.0
1513265722029641103,,564469,,1513265720,240063616,'',1.27409035396,1.24647096837,-0.00122951800507,-0.0276193855857,0.001,-138.096927928,-5000.0,0.0,0.0,0.0
1513265722039528809,,564470,,1513265720,250063616,'',1.27409035396,1.24647096837,-0.00146854993443,-0.0276193855857,0.001,-138.096927928,-5000.0,0.0,0.0,0.0
1513265722049558742,,564471,,1513265720,260063616,'',1.27409035396,1.24647096837,-0.00120215231236,-0.0276193855857,0.001,-138.096927928,-5000.0,0.0,0.0,0.0
1513265722059962469,,564472,,1513265720,270063616,'',1.27409035396,1.24647096837,-0.00098451619752,-0.0276193855857,0.001,-138.096927928,-5000.0,0.0,0.0,0.0
1513265722069933208,,564473,,1513265720,280063616,'',1.27409035396,1.24647096837,-0.00142682253218,-0.0276193855857,0.001,-138.096927928,-5000.0,0.0,0.0,0.0
1513265722079918921,,564474,,1513265720,290063616,'',1.27409035396,1.24647096837,-0.0022711666745,-0.0276193855857,0.001,-138.096927928,-5000.0,0.0,0.0,0.0
1513265722089818413,,564475,,1513265720,300063616,'',1.27409035396,1.24647096837,-0.00135307316336,-0.0276193855857,0.001,-138.096927928,-5000.0,0.0,0.0,0.0
1513265722099827758,,564476,,1513265720,310063616,'',1.27409035396,1.24512148699,-0.0288177190993,-0.0289688669661,0.001,-144.84433483,-5000.0,0.0,0.0,0.0
1513265722109674055,,564477,,1513265720,320063616,'',1.27409035396,1.24647096837,-0.00272732893396,-0.0276193855857,0.001,-138.096927928,-5000.0,0.0,0.0,0.0
1513265722119633001,,564478,,1513265720,330063616,'',1.27409035396,1.24782044975,0.0249885316321,-0.0262699042053,0.001,-131.349521026,-5000.0,0.0,0.0,0.0
1513265722129556677,,564479,,1513265720,340063616,'',1.27409035396,1.24647096837,-0.00135679167547,-0.0276193855857,0.001,-138.096927928,-5000.0,0.0,0.0,0.0
1513265722139538442,,564480,,1513265720,350063616,'',1.27409035396,1.24647096837,-0.00153787387745,-0.0276193855857,0.001,-138.096927928,-5000.0,0.0,0.0,0.0
1513265722149528413,,564481,,1513265720,360063616,'',1.27409035396,1.24647096837,-0.00171197897953,-0.0276193855857,0.001,-138.096927928,-5000.0,0.0,0.0,0.0
1513265722159921563,,564482,,1513265720,370063616,'',1.27409035396,1.24647096837,-0.000945772474828,-0.0276193855857,0.001,-138.096927928,-5000.0,0.0,0.0,0.0
1513265722170046472,,564483,,1513265720,380063616,'',1.27409035396,1.24647096837,-0.000776927192534,-0.0276193855857,0.001,-138.096927928,-5000.0,0.0,0.0,0.0
1513265722179802951,,564484,,1513265720,390063616,'',1.27409035396,1.24647096837,-0.00122252313777,-0.0276193855857,0.001,-138.096927928,-5000.0,0.0,0.0,0.0
1513265722189691383,,564485,,1513265720,400063616,'',1.27409035396,1.24647096837,-0.00203008752412,-0.0276193855857,0.001,-138.096927928,-5000.0,0.0,0.0,0.0
1513265722199663872,,564486,,1513265720,410063616,'',1.27409035396,1.24647096837,-0.00112589912614,-0.0276193855857,0.001,-138.096927928,-5000.0,0.0,0.0,0.0
1513265722209731943,,564487,,1513265720,420063616,'',1.27409035396,1.24647096837,-0.00140302172254,-0.0276193855857,0.001,-138.096927928,-5000.0,0.0,0.0,0.0
1513265722219497966,,564488,,1513265720,430063616,'',1.27409035396,1.24647096837,-0.00264903253601,-0.0276193855857,0.001,-138.096927928,-5000.0,0.0,0.0,0.0
1513265722229948908,,564489,,1513265720,440063616,'',1.27409035396,1.24647096837,-0.00314639047842,-0.0276193855857,0.001,-138.096927928,-5000.0,0.0,0.0,0.0
1513265722239891629,,564490,,1513265720,450063616,'',1.27409035396,1.24647096837,-0.0034998292357,-0.0276193855857,0.001,-138.096927928,-5000.0,0.0,0.0,0.0
1513265722249879899,,564491,,1513265720,460063616,'',1.27409035396,1.24782044975,0.0234079660161,-0.0262699042053,0.001,-131.349521026,-5000.0,0.0,0.0,0.0
1513265722259854404,,564492,,1513265720,470063616,'',1.27409035396,1.24782044975,0.0220736589269,-0.0262699042053,0.001,-131.349521026,-5000.0,0.0,0.0,0.0
1513265722270003971,,564493,,1513265720,480063616,'',1.27409035396,1.24647096837,-0.00479815968497,-0.0276193855857,0.001,-138.096927928,-5000.0,0.0,0.0,0.0
1513265722279471706,,564494,,1513265720,490063616,'',1.27409035396,1.24647096837,-0.00398921728158,-0.0276193855857,0.001,-138.096927928,-5000.0,0.0,0.0,0.0
1513265722289971356,,564495,,1513265720,500063616,'',1.27409035396,1.24782044975,0.0234735453975,-0.0262699042053,0.001,-131.349521026,-5000.0,0.0,0.0,0.0
1513265722299810618,,564496,,1513265720,510063616,'',1.27409035396,1.24647096837,-0.00264021229525,-0.0276193855857,0.001,-138.096927928,-5000.0,0.0,0.0,0.0
1513265722309743973,,564497,,1513265720,520063616,'',1.27409035396,1.24647096837,-0.00262195162232,-0.0276193855857,0.001,-138.096927928,-5000.0,0.0,0.0,0.0
1513265722319557063,,564498,,1513265720,530063616,'',1.27409035396,1.24647096837,-0.00407451188769,-0.0276193855857,0.001,-138.096927928,-5000.0,0.0,0.0,0.0
1513265722329584804,,564499,,1513265720,540063616,'',1.27409035396,1.24647096837,-0.00331649739488,-0.0276193855857,0.001,-138.096927928,-5000.0,0.0,0.0,0.0
1513265722339561203,,564500,,1513265720,550063616,'',1.27409035396,1.24647096837,-0.00410517478276,-0.0276193855857,0.001,-138.096927928,-5000.0,0.0,0.0,0.0
1513265722349844309,,564501,,1513265720,560063616,'',1.27409035396,1.24647096837,-0.00487977888224,-0.0276193855857,0.001,-138.096927928,-5000.0,0.0,0.0,0.0
1513265722359701556,,564502,,1513265720,570063616,'',1.27409035396,1.24782044975,0.0216813301827,-0.0262699042053,0.001,-131.349521026,-5000.0,0.0,0.0,0.0
1513265722369600366,,564503,,1513265720,580063616,'',1.27409035396,1.24647096837,-0.00462005982592,-0.0276193855857,0.001,-138.096927928,-5000.0,0.0,0.0,0.0
1513265722379535545,,564504,,1513265720,590063616,'',1.27409035396,1.24512148699,-0.0310573109561,-0.0289688669661,0.001,-144.84433483,-5000.0,0.0,0.0,0.0
1513265722389501038,,564505,,1513265720,600063616,'',1.27409035396,1.24647096837,-0.00313535315468,-0.0276193855857,0.001,-138.096927928,-5000.0,0.0,0.0,0.0
1513265722399449121,,564506,,1513265720,610063616,'',1.27409035396,1.24647096837,-0.00259917750055,-0.0276193855857,0.001,-138.096927928,-5000.0,0.0,0.0,0.0
1513265722409937242,,564507,,1513265720,620063616,'',1.27409035396,1.24647096837,-0.00306476699311,-0.0276193855857,0.001,-138.096927928,-5000.0,0.0,0.0,0.0
1513265722419759625,,564508,,1513265720,630063616,'',1.27409035396,1.24647096837,-0.00298072870431,-0.0276193855857,0.001,-138.096927928,-5000.0,0.0,0.0,0.0
1513265722429767745,,564509,,1513265720,640063616,'',1.27409035396,1.24647096837,-0.00340903396134,-0.0276193855857,0.001,-138.096927928,-5000.0,0.0,0.0,0.0
1513265722439640273,,564510,,1513265720,650063616,'',1.27409035396,1.24782044975,0.0239545460844,-0.0262699042053,0.001,-131.349521026,-5000.0,0.0,0.0,0.0
1513265722449627796,,564511,,1513265720,660063616,'',1.27409035396,1.24647096837,-0.00372231219126,-0.0276193855857,0.001,-138.096927928,-5000.0,0.0,0.0,0.0
1513265722459562600,,564512,,1513265720,670063616,'',1.27409035396,1.24647096837,-0.0045025648824,-0.0276193855857,0.001,-138.096927928,-5000.0,0.0,0.0,0.0
1513265722469487803,,564513,,1513265720,680063616,'',1.27409035396,1.24782044975,0.0210836273008,-0.0262699042053,0.001,-131.349521026,-5000.0,0.0,0.0,0.0
1513265722479999621,,564514,,1513265720,690063616,'',1.27409035396,1.24647096837,-0.00457142444096,-0.0276193855857,0.001,-138.096927928,-5000.0,0.0,0.0,0.0
1513265722489927207,,564515,,1513265720,700063616,'',1.27409035396,1.24647096837,-0.00473425685477,-0.0276193855857,0.001,-138.096927928,-5000.0,0.0,0.0,0.0
1513265722499880293,,564516,,1513265720,710063616,'',1.27409035396,1.24647096837,-0.00488881970916,-0.0276193855857,0.001,-138.096927928,-5000.0,0.0,0.0,0.0
1513265722509900494,,564517,,1513265720,720063616,'',1.27409035396,1.24647096837,-0.00494973228123,-0.0276193855857,0.001,-138.096927928,-5000.0,0.0,0.0,0.0
1513265722520009181,,564518,,1513265720,730063616,'',1.27409035396,1.24782044975,0.0202823917975,-0.0262699042053,0.001,-131.349521026,-5000.0,0.0,0.0,0.0
1513265722529916931,,564519,,1513265720,740063616,'',1.27409035396,1.24782044975,0.019109829907,-0.0262699042053,0.001,-131.349521026,-5000.0,0.0,0.0,0.0
1513265722539899813,,564520,,1513265720,750063616,'',1.27409035396,1.24647096837,-0.00766236259035,-0.0276193855857,0.001,-138.096927928,-5000.0,0.0,0.0,0.0
1513265722549863711,,564521,,1513265720,760063616,'',1.27409035396,1.24647096837,-0.00678784305924,-0.0276193855857,0.001,-138.096927928,-5000.0,0.0,0.0,0.0
1513265722559761049,,564522,,1513265720,770063616,'',1.27409035396,1.24782044975,0.0195958828851,-0.0262699042053,0.001,-131.349521026,-5000.0,0.0,0.0,0.0
1513265722569621716,,564523,,1513265720,780063616,'',1.27409035396,1.24647096837,-0.00780931673837,-0.0276193855857,0.001,-138.096927928,-5000.0,0.0,0.0,0.0
1513265722579684017,,564524,,1513265720,790063616,'',1.27409035396,1.24512148699,-0.033638890419,-0.0289688669661,0.001,-144.84433483,-5000.0,0.0,0.0,0.0
1513265722589720870,,564525,,1513265720,800063616,'',1.27409035396,1.24647096837,-0.00668504772171,-0.0276193855857,0.001,-138.096927928,-5000.0,0.0,0.0,0.0
1513265722599709832,,564526,,1513265720,810063616,'',1.27409035396,1.24647096837,-0.00734244692765,-0.0276193855857,0.001,-138.096927928,-5000.0,0.0,0.0,0.0
1513265722609626771,,564527,,1513265720,820063616,'',1.27409035396,1.24647096837,-0.00793840869653,-0.0276193855857,0.001,-138.096927928,-5000.0,0.0,0.0,0.0
1513265722619567900,,564528,,1513265720,830063616,'',1.27409035396,1.24647096837,-0.00845325362038,-0.0276193855857,0.001,-138.096927928,-5000.0,0.0,0.0,0.0
1513265722629594389,,564529,,1513265720,840063616,'',1.27409035396,1.24647096837,-0.00833796708651,-0.0276193855857,0.001,-138.096927928,-5000.0,0.0,0.0,0.0
1513265722639430282,,564530,,1513265720,850063616,'',1.27409035396,1.24647096837,-0.00774058180898,-0.0276193855857,0.001,-138.096927928,-5000.0,0.0,0.0,0.0
1513265722649609661,,564531,,1513265720,860063616,'',1.27409035396,1.24782044975,0.0174877490934,-0.0262699042053,0.001,-131.349521026,-5000.0,0.0,0.0,0.0
1513265722659548315,,564532,,1513265720,870063616,'',1.27409035396,1.24782044975,0.0177872653423,-0.0262699042053,0.001,-131.349521026,-5000.0,0.0,0.0,0.0
1513265722669452732,,564533,,1513265720,880063616,'',1.27409035396,1.24647096837,-0.00979487820822,-0.0276193855857,0.001,-138.096927928,-5000.0,0.0,0.0,0.0
1513265722680008125,,564534,,1513265720,890063616,'',1.27409035396,1.24647096837,-0.00894247397033,-0.0276193855857,0.001,-138.096927928,-5000.0,0.0,0.0,0.0
1513265722689994510,,564535,,1513265720,900063616,'',1.27409035396,1.24647096837,-0.00877726918944,-0.0276193855857,0.001,-138.096927928,-5000.0,0.0,0.0,0.0
1513265722699858831,,564536,,1513265720,910063616,'',1.27409035396,1.24782044975,0.0189738511836,-0.0262699042053,0.001,-131.349521026,-5000.0,0.0,0.0,0.0
1513265722710096110,,564537,,1513265720,920063616,'',1.27409035396,1.24647096837,-0.00872779594218,-0.0276193855857,0.001,-138.096927928,-5000.0,0.0,0.0,0.0
1513265722719848649,,564538,,1513265720,930063616,'',1.27409035396,1.24782044975,0.0171998019405,-0.0262699042053,0.001,-131.349521026,-5000.0,0.0,0.0,0.0
1513265722729832110,,564539,,1513265720,940063616,'',1.27409035396,1.24782044975,0.0160470113091,-0.0262699042053,0.001,-131.349521026,-5000.0,0.0,0.0,0.0
1513265722739679198,,564540,,1513265720,950063616,'',1.27409035396,1.24782044975,0.0141385995333,-0.0262699042053,0.001,-131.349521026,-5000.0,0.0,0.0,0.0
1513265722749666800,,564541,,1513265720,960063616,'',1.27409035396,1.24916993113,0.0377425381504,-0.0249204228249,0.001,-124.602114124,-5000.0,0.0,0.0,0.0
1513265722759478732,,564542,,1513265720,970063616,'',1.27409035396,1.24916993113,0.0312940515288,-0.0249204228249,0.001,-124.602114124,-5000.0,0.0,0.0,0.0
1513265722769956259,,564543,,1513265720,980063616,'',1.27409035396,1.24916993113,0.0250825166208,-0.0249204228249,0.001,-124.602114124,-5000.0,0.0,0.0,0.0
1513265722779872284,,564544,,1513265720,990063616,'',1.27409035396,1.24782044975,-0.00719133232651,-0.0262699042053,0.001,-131.349521026,-5000.0,0.0,0.0,0.0
1513265722789804852,,564545,,1513265721,63616,'',1.27409035396,1.24916993113,0.0158710851933,-0.0249204228249,0.001,-124.602114124,-5000.0,0.0,0.0,0.0
1513265722799772029,,564546,,1513265721,10063616,'',1.27409035396,1.24916993113,0.011031959393,-0.0249204228249,0.001,-124.602114124,-5000.0,0.0,0.0,0.0
1513265722809731799,,564547,,1513265721,20063616,'',1.27409035396,1.25051941251,0.0347358295481,-0.0235709414445,0.001,-117.854707222,-5000.0,0.0,0.0,0.0
1513265722819638223,,564548,,1513265721,30063616,'',1.27409035396,1.24916993113,0.00418964270676,-0.0249204228249,0.001,-124.602114124,-5000.0,0.0,0.0,0.0
1513265722829656257,,564549,,1513265721,40063616,'',1.27409035396,1.25186889389,0.0519573992182,-0.0222214600641,0.001,-111.10730032,-5000.0,0.0,0.0,0.0
1513265722839504822,,564550,,1513265721,50063616,'',1.27409035396,1.25186889389,0.0449662321921,-0.0222214600641,0.001,-111.10730032,-5000.0,0.0,0.0,0.0
1513265722849960866,,564551,,1513265721,60063616,'',1.27409035396,1.25186889389,0.0372944005324,-0.0222214600641,0.001,-111.10730032,-5000.0,0.0,0.0,0.0
1513265722859927654,,564552,,1513265721,70063616,'',1.27409035396,1.25321837527,0.0566667540119,-0.0208719786836,0.001,-104.359893418,-5000.0,0.0,0.0,0.0
1513265722869853343,,564553,,1513265721,80063616,'',1.27409035396,1.25051941251,-0.00263192310377,-0.0235709414445,0.001,-117.854707222,-5000.0,0.0,0.0,0.0
1513265722879811597,,564554,,1513265721,90063616,'',1.27409035396,1.25321837527,0.045888717697,-0.0208719786836,0.001,-104.359893418,-5000.0,0.0,0.0,0.0
1513265722889717573,,564555,,1513265721,100063616,'',1.27409035396,1.25321837527,0.040014538932,-0.0208719786836,0.001,-104.359893418,-5000.0,0.0,0.0,0.0
1513265722899562788,,564556,,1513265721,110063616,'',1.27409035396,1.25321837527,0.0351332459989,-0.0208719786836,0.001,-104.359893418,-5000.0,0.0,0.0,0.0
1513265722909632006,,564557,,1513265721,120063616,'',1.27409035396,1.25321837527,0.0276955969247,-0.0208719786836,0.001,-104.359893418,-5000.0,0.0,0.0,0.0
1513265722920083305,,564558,,1513265721,130063616,'',1.27409035396,1.25456785665,0.0469601823547,-0.0195224973032,0.001,-97.6124865162,-5000.0,0.0,0.0,0.0
1513265722929994170,,564559,,1513265721,140063616,'',1.27409035396,1.25591733803,0.0657111011367,-0.0181730159228,0.001,-90.8650796141,-5000.0,0.0,0.0,0.0
1513265722940003382,,564560,,1513265721,150063616,'',1.27409035396,1.25591733803,0.0552456623791,-0.0181730159228,0.001,-90.8650796141,-5000.0,0.0,0.0,0.0
1513265722949894478,,564561,,1513265721,160063616,'',1.27409035396,1.25591733803,0.0457449467988,-0.0181730159228,0.001,-90.8650796141,-5000.0,0.0,0.0,0.0
1513265722959958485,,564562,,1513265721,170063616,'',1.27409035396,1.25591733803,0.0354101435548,-0.0181730159228,0.001,-90.8650796141,-5000.0,0.0,0.0,0.0
1513265722969919390,,564563,,1513265721,180063616,'',1.27409035396,1.25726681941,0.0532688547162,-0.0168235345424,0.001,-84.1176727121,-5000.0,0.0,0.0,0.0
1513265722979997437,,564564,,1513265721,190063616,'',1.27409035396,1.25591733803,0.0178716202529,-0.0181730159228,0.001,-90.8650796141,-5000.0,0.0,0.0,0.0
1513265722989784941,,564565,,1513265721,200063616,'',1.27409035396,1.25861630079,0.063121464779,-0.015474053162,0.001,-77.3702658101,-5000.0,0.0,0.0,0.0
1513265722999801688,,564566,,1513265721,210063616,'',1.27409035396,1.25726681941,0.0258989990913,-0.0168235345424,0.001,-84.1176727121,-5000.0,0.0,0.0,0.0
1513265723009661842,,564567,,1513265721,220063616,'',1.27409035396,1.25996578217,0.0683296638831,-0.0141245717816,0.001,-70.622858908,-5000.0,0.0,0.0,0.0
1513265723019659648,,564568,,1513265721,230063616,'',1.27409035396,1.25996578217,0.0560079218526,-0.0141245717816,0.001,-70.622858908,-5000.0,0.0,0.0,0.0
1513265723029555810,,564569,,1513265721,240063616,'',1.27409035396,1.26131526355,0.0711313285333,-0.0127750904012,0.001,-63.875452006,-5000.0,0.0,0.0,0.0
1513265723039982295,,564570,,1513265721,250063616,'',1.27409035396,1.26266474494,0.0848514831751,-0.0114256090208,0.001,-57.1280451039,-5000.0,0.0,0.0,0.0
1513265723050065890,,564571,,1513265721,260063616,'',1.27409035396,1.26266474494,0.0723967281839,-0.0114256090208,0.001,-57.1280451039,-5000.0,0.0,0.0,0.0
1513265723059869735,,564572,,1513265721,270063616,'',1.27409035396,1.26266474494,0.0612242225377,-0.0114256090208,0.001,-57.1280451039,-5000.0,0.0,0.0,0.0
1513265723069657515,,564573,,1513265721,280063616,'',1.27409035396,1.26266474494,0.0510594161899,-0.0114256090208,0.001,-57.1280451039,-5000.0,0.0,0.0,0.0
1513265723079976851,,564574,,1513265721,290063616,'',1.27409035396,1.26266474494,0.0417992553623,-0.0114256090208,0.001,-57.1280451039,-5000.0,0.0,0.0,0.0
1513265723089968433,,564575,,1513265721,300063616,'',1.27409035396,1.26266474494,0.0337231216021,-0.0114256090208,0.001,-57.1280451039,-5000.0,0.0,0.0,0.0
1513265723099882371,,564576,,1513265721,310063616,'',1.27409035396,1.26266474494,0.025121163757,-0.0114256090208,0.001,-57.1280451039,-5000.0,0.0,0.0,0.0
1513265723109942659,,564577,,1513265721,320063616,'',1.27409035396,1.26401422632,0.0463060093907,-0.0100761276404,0.001,-50.3806382019,-5000.0,0.0,0.0,0.0
1513265723119871190,,564578,,1513265721,330063616,'',1.27409035396,1.26266474494,0.0142635475024,-0.0114256090208,0.001,-57.1280451039,-5000.0,0.0,0.0,0.0
1513265723129775571,,564579,,1513265721,340063616,'',1.27409035396,1.26266474494,0.0093035957945,-0.0114256090208,0.001,-57.1280451039,-5000.0,0.0,0.0,0.0
1513265723139751563,,564580,,1513265721,350063616,'',1.27409035396,1.26401422632,0.0308721043558,-0.0100761276404,0.001,-50.3806382019,-5000.0,0.0,0.0,0.0
1513265723149846509,,564581,,1513265721,360063616,'',1.27409035396,1.2653637077,0.0544057448897,-0.00872664625997,0.001,-43.6332312999,-5000.0,0.0,0.0,0.0
1513265723159624616,,564582,,1513265721,370063616,'',1.27409035396,1.26401422632,0.0222366306592,-0.0100761276404,0.001,-50.3806382019,-5000.0,0.0,0.0,0.0
1513265723169519410,,564583,,1513265721,380063616,'',1.27409035396,1.26266474494,-0.00751636569324,-0.0114256090208,0.001,-57.1280451039,-5000.0,0.0,0.0,0.0
1513265723179940628,,564584,,1513265721,390063616,'',1.27409035396,1.26401422632,0.0171578865883,-0.0100761276404,0.001,-50.3806382019,-5000.0,0.0,0.0,0.0
1513265723189815429,,564585,,1513265721,400063616,'',1.27409035396,1.26266474494,-0.0136223648238,-0.0114256090208,0.001,-57.1280451039,-5000.0,0.0,0.0,0.0
1513265723199828157,,564586,,1513265721,410063616,'',1.27409035396,1.26401422632,0.0116812054717,-0.0100761276404,0.001,-50.3806382019,-5000.0,0.0,0.0,0.0
1513265723209729079,,564587,,1513265721,420063616,'',1.27409035396,1.26401422632,0.0115045178193,-0.0100761276404,0.001,-50.3806382019,-5000.0,0.0,0.0,0.0
1513265723219556827,,564588,,1513265721,430063616,'',1.27409035396,1.26401422632,0.00999973046901,-0.0100761276404,0.001,-50.3806382019,-5000.0,0.0,0.0,0.0
1513265723229504535,,564589,,1513265721,440063616,'',1.27409035396,1.2653637077,0.0350217416831,-0.00872664625997,0.001,-43.6332312999,-5000.0,0.0,0.0,0.0
1513265723240003207,,564590,,1513265721,450063616,'',1.27409035396,1.26266474494,-0.0203518592674,-0.0114256090208,0.001,-57.1280451039,-5000.0,0.0,0.0,0.0
1513265723249952189,,564591,,1513265721,460063616,'',1.27409035396,1.26401422632,0.00518427200361,-0.0100761276404,0.001,-50.3806382019,-5000.0,0.0,0.0,0.0
1513265723259991056,,564592,,1513265721,470063616,'',1.27409035396,1.2653637077,0.030497722811,-0.00872664625997,0.001,-43.6332312999,-5000.0,0.0,0.0,0.0
1513265723269984294,,564593,,1513265721,480063616,'',1.27409035396,1.26401422632,0.00167750829548,-0.0100761276404,0.001,-50.3806382019,-5000.0,0.0,0.0,0.0
1513265723279922141,,564594,,1513265721,490063616,'',1.27409035396,1.26401422632,-0.000590307183634,-0.0100761276404,0.001,-50.3806382019,-5000.0,0.0,0.0,0.0
1513265723289873348,,564595,,1513265721,500063616,'',1.27409035396,1.26401422632,-0.00137186364606,-0.0100761276404,0.001,-50.3806382019,-5000.0,0.0,0.0,0.0
1513265723299665108,,564596,,1513265721,510063616,'',1.27409035396,1.2653637077,0.0255064503298,-0.00872664625997,0.001,-43.6332312999,-5000.0,0.0,0.0,0.0
1513265723309616556,,564597,,1513265721,520063616,'',1.27409035396,1.26266474494,-0.0287280033163,-0.0114256090208,0.001,-57.1280451039,-5000.0,0.0,0.0,0.0
1513265723319507836,,564598,,1513265721,530063616,'',1.27409035396,1.26266474494,-0.0299112110434,-0.0114256090208,0.001,-57.1280451039,-5000.0,0.0,0.0,0.0
1513265723329971766,,564599,,1513265721,540063616,'',1.27409035396,1.2653637077,0.023232115091,-0.00872664625997,0.001,-43.6332312999,-5000.0,0.0,0.0,0.0
1513265723339975386,,564600,,1513265721,550063616,'',1.27409035396,1.2653637077,0.0230060711429,-0.00872664625997,0.001,-43.6332312999,-5000.0,0.0,0.0,0.0
1513265723349990176,,564601,,1513265721,560063616,'',1.27409035396,1.26671318908,0.0500225625496,-0.00737716487956,0.001,-36.8858243978,-5000.0,0.0,0.0,0.0
1513265723359861282,,564602,,1513265721,570063616,'',1.27409035396,1.26401422632,-0.00370400276542,-0.0100761276404,0.001,-50.3806382019,-5000.0,0.0,0.0,0.0
1513265723369984010,,564603,,1513265721,580063616,'',1.27409035396,1.26401422632,-0.00649628022907,-0.0100761276404,0.001,-50.3806382019,-5000.0,0.0,0.0,0.0
1513265723379875034,,564604,,1513265721,590063616,'',1.27409035396,1.26266474494,-0.0339806422588,-0.0114256090208,0.001,-57.1280451039,-5000.0,0.0,0.0,0.0
1513265723389998320,,564605,,1513265721,600063616,'',1.27409035396,1.26401422632,-0.00596156484099,-0.0100761276404,0.001,-50.3806382019,-5000.0,0.0,0.0,0.0
1513265723399922995,,564606,,1513265721,610063616,'',1.27409035396,1.26401422632,-0.00682004843638,-0.0100761276404,0.001,-50.3806382019,-5000.0,0.0,0.0,0.0
1513265723409875564,,564607,,1513265721,620063616,'',1.27409035396,1.26401422632,-0.00505169093879,-0.0100761276404,0.001,-50.3806382019,-5000.0,0.0,0.0,0.0
1513265723419711841,,564608,,1513265721,630063616,'',1.27409035396,1.26401422632,-0.00415149250627,-0.0100761276404,0.001,-50.3806382019,-5000.0,0.0,0.0,0.0
1513265723429629220,,564609,,1513265721,640063616,'',1.27409035396,1.26401422632,-0.0042779275525,-0.0100761276404,0.001,-50.3806382019,-5000.0,0.0,0.0,0.0
1513265723440012118,,564610,,1513265721,650063616,'',1.27409035396,1.26401422632,-0.00398339345179,-0.0100761276404,0.001,-50.3806382019,-5000.0,0.0,0.0,0.0
1513265723449958812,,564611,,1513265721,660063616,'',1.27409035396,1.26401422632,-0.00368374827481,-0.0100761276404,0.001,-50.3806382019,-5000.0,0.0,0.0,0.0
1513265723459848337,,564612,,1513265721,670063616,'',1.27409035396,1.26401422632,-0.00485176312041,-0.0100761276404,0.001,-50.3806382019,-5000.0,0.0,0.0,0.0
1513265723469833188,,564613,,1513265721,680063616,'',1.27409035396,1.26266474494,-0.0335516564633,-0.0114256090208,0.001,-57.1280451039,-5000.0,0.0,0.0,0.0
1513265723479795177,,564614,,1513265721,690063616,'',1.27409035396,1.26401422632,-0.00519164241258,-0.0100761276404,0.001,-50.3806382019,-5000.0,0.0,0.0,0.0
1513265723489690884,,564615,,1513265721,700063616,'',1.27409035396,1.26671318908,0.0482944795909,-0.00737716487956,0.001,-36.8858243978,-5000.0,0.0,0.0,0.0
1513265723499695615,,564616,,1513265721,710063616,'',1.27409035396,1.26401422632,-0.00510424095578,-0.0100761276404,0.001,-50.3806382019,-5000.0,0.0,0.0,0.0
1513265723509647800,,564617,,1513265721,720063616,'',1.27409035396,1.2653637077,0.0220344078417,-0.00872664625997,0.001,-43.6332312999,-5000.0,0.0,0.0,0.0
1513265723519597533,,564618,,1513265721,730063616,'',1.27409035396,1.26266474494,-0.0300236253494,-0.0114256090208,0.001,-57.1280451039,-5000.0,0.0,0.0,0.0
1513265723529522839,,564619,,1513265721,740063616,'',1.27409035396,1.2653637077,0.0240627037843,-0.00872664625997,0.001,-43.6332312999,-5000.0,0.0,0.0,0.0
1513265723539871130,,564620,,1513265721,750063616,'',1.27409035396,1.2653637077,0.0241848658141,-0.00872664625997,0.001,-43.6332312999,-5000.0,0.0,0.0,0.0
1513265723549855218,,564621,,1513265721,760063616,'',1.27409035396,1.2653637077,0.0237752928846,-0.00872664625997,0.001,-43.6332312999,-5000.0,0.0,0.0,0.0
1513265723559817381,,564622,,1513265721,770063616,'',1.27409035396,1.26401422632,-0.00450218190983,-0.0100761276404,0.001,-50.3806382019,-5000.0,0.0,0.0,0.0
1513265723569697232,,564623,,1513265721,780063616,'',1.27409035396,1.26401422632,-0.00563808030638,-0.0100761276404,0.001,-50.3806382019,-5000.0,0.0,0.0,0.0
1513265723579655551,,564624,,1513265721,790063616,'',1.27409035396,1.26266474494,-0.0333234773651,-0.0114256090208,0.001,-57.1280451039,-5000.0,0.0,0.0,0.0
1513265723589526431,,564625,,1513265721,800063616,'',1.27409035396,1.26266474494,-0.0322010338819,-0.0114256090208,0.001,-57.1280451039,-5000.0,0.0,0.0,0.0
1513265723600013583,,564626,,1513265721,810063616,'',1.27409035396,1.26401422632,-0.00557614144239,-0.0100761276404,0.001,-50.3806382019,-5000.0,0.0,0.0,0.0
1513265723609889016,,564627,,1513265721,820063616,'',1.27409035396,1.26401422632,-0.00363794577376,-0.0100761276404,0.001,-50.3806382019,-5000.0,0.0,0.0,0.0
1513265723619952449,,564628,,1513265721,830063616,'',1.27409035396,1.2653637077,0.0242635449528,-0.00872664625997,0.001,-43.6332312999,-5000.0,0.0,0.0,0.0
1513265723629985754,,564629,,1513265721,840063616,'',1.27409035396,1.26401422632,-0.00191664904968,-0.0100761276404,0.001,-50.3806382019,-5000.0,0.0,0.0,0.0
1513265723639838749,,564630,,1513265721,850063616,'',1.27409035396,1.2653637077,0.0246509400512,-0.00872664625997,0.001,-43.6332312999,-5000.0,0.0,0.0,0.0
1513265723649738507,,564631,,1513265721,860063616,'',1.27409035396,1.26401422632,-0.0011251592682,-0.0100761276404,0.001,-50.3806382019,-5000.0,0.0,0.0,0.0
1513265723659632572,,564632,,1513265721,870063616,'',1.27409035396,1.26401422632,0.000497410784573,-0.0100761276404,0.001,-50.3806382019,-5000.0,0.0,0.0,0.0
1513265723669618276,,564633,,1513265721,880063616,'',1.27409035396,1.26401422632,-8.5163359444e-05,-0.0100761276404,0.001,-50.3806382019,-5000.0,0.0,0.0,0.0
1513265723679609695,,564634,,1513265721,890063616,'',1.27409035396,1.26266474494,-0.0259036813689,-0.0114256090208,0.001,-57.1280451039,-5000.0,0.0,0.0,0.0
1513265723689577901,,564635,,1513265721,900063616,'',1.27409035396,1.26401422632,0.00159058079448,-0.0100761276404,0.001,-50.3806382019,-5000.0,0.0,0.0,0.0
1513265723699898506,,564636,,1513265721,910063616,'',1.27409035396,1.26401422632,0.00181715508802,-0.0100761276404,0.001,-50.3806382019,-5000.0,0.0,0.0,0.0
1513265723709853906,,564637,,1513265721,920063616,'',1.27409035396,1.26401422632,0.000962432095493,-0.0100761276404,0.001,-50.3806382019,-5000.0,0.0,0.0,0.0
1513265723719836122,,564638,,1513265721,930063616,'',1.27409035396,1.26401422632,0.0013435774542,-0.0100761276404,0.001,-50.3806382019,-5000.0,0.0,0.0,0.0
1513265723729736700,,564639,,1513265721,940063616,'',1.27409035396,1.26401422632,0.00261097385222,-0.0100761276404,0.001,-50.3806382019,-5000.0,0.0,0.0,0.0
1513265723739858804,,564640,,1513265721,950063616,'',1.27409035396,1.26401422632,0.00116887214517,-0.0100761276404,0.001,-50.3806382019,-5000.0,0.0,0.0,0.0
1513265723749978350,,564641,,1513265721,960063616,'',1.27409035396,1.26401422632,0.000466321000923,-0.0100761276404,0.001,-50.3806382019,-5000.0,0.0,0.0,0.0
1513265723759916749,,564642,,1513265721,970063616,'',1.27409035396,1.2653637077,0.0265504720288,-0.00872664625997,0.001,-43.6332312999,-5000.0,0.0,0.0,0.0
1513265723769724840,,564643,,1513265721,980063616,'',1.27409035396,1.26266474494,-0.0268926664204,-0.0114256090208,0.001,-57.1280451039,-5000.0,0.0,0.0,0.0
1513265723779691530,,564644,,1513265721,990063616,'',1.27409035396,1.26401422632,0.00132579248052,-0.0100761276404,0.001,-50.3806382019,-5000.0,0.0,0.0,0.0
1513265723789724202,,564645,,1513265722,63616,'',1.27409035396,1.2653637077,0.0263068907227,-0.00872664625997,0.001,-43.6332312999,-5000.0,0.0,0.0,0.0
1513265723799667038,,564646,,1513265722,10063616,'',1.27409035396,1.26401422632,0.000253941702855,-0.0100761276404,0.001,-50.3806382019,-5000.0,0.0,0.0,0.0
1513265723809610564,,564647,,1513265722,20063616,'',1.27409035396,1.26266474494,-0.0255993457117,-0.0114256090208,0.001,-57.1280451039,-5000.0,0.0,0.0,0.0
1513265723819664081,,564648,,1513265722,30063616,'',1.27409035396,1.26401422632,0.00196718084032,-0.0100761276404,0.001,-50.3806382019,-5000.0,0.0,0.0,0.0
1513265723830063020,,564649,,1513265722,40063616,'',1.27409035396,1.26401422632,0.000635744652018,-0.0100761276404,0.001,-50.3806382019,-5000.0,0.0,0.0,0.0
1513265723840050179,,564650,,1513265722,50063616,'',1.27409035396,1.2653637077,0.0263061414749,-0.00872664625997,0.001,-43.6332312999,-5000.0,0.0,0.0,0.0
1513265723849865410,,564651,,1513265722,60063616,'',1.27409035396,1.2653637077,0.0239444284888,-0.00872664625997,0.001,-43.6332312999,-5000.0,0.0,0.0,0.0
1513265723859777052,,564652,,1513265722,70063616,'',1.27409035396,1.26401422632,-0.00366786815372,-0.0100761276404,0.001,-50.3806382019,-5000.0,0.0,0.0,0.0
1513265723869746410,,564653,,1513265722,80063616,'',1.27409035396,1.26671318908,0.0440380271191,-0.00737716487956,0.001,-36.8858243978,-5000.0,0.0,0.0,0.0
1513265723879620462,,564654,,1513265722,90063616,'',1.27409035396,1.26806267046,0.0592346881358,-0.00602768349916,0.001,-30.1384174958,-5000.0,0.0,0.0,0.0
1513265723889499973,,564655,,1513265722,100063616,'',1.27409035396,1.26941215184,0.0727013611457,-0.00467820211875,0.001,-23.3910105937,-5000.0,0.0,0.0,0.0
1513265723899897396,,564656,,1513265722,110063616,'',1.27409035396,1.26941215184,0.0600264831305,-0.00467820211875,0.001,-23.3910105937,-5000.0,0.0,0.0,0.0
1513265723909934036,,564657,,1513265722,120063616,'',1.27409035396,1.26941215184,0.0516354403169,-0.00467820211875,0.001,-23.3910105937,-5000.0,0.0,0.0,0.0
1513265723919942946,,564658,,1513265722,130063616,'',1.27409035396,1.26941215184,0.043779407368,-0.00467820211875,0.001,-23.3910105937,-5000.0,0.0,0.0,0.0
1513265723929843143,,564659,,1513265722,140063616,'',1.27409035396,1.26941215184,0.0372580423432,-0.00467820211875,0.001,-23.3910105937,-5000.0,0.0,0.0,0.0
1513265723939825892,,564660,,1513265722,150063616,'',1.27409035396,1.27076163322,0.0552251150191,-0.00332872073834,0.001,-16.6436036917,-5000.0,0.0,0.0,0.0
1513265723949763446,,564661,,1513265722,160063616,'',1.27409035396,1.27481007736,0.118871418893,0.000719723402884,0.001,3.59861701442,-5000.0,0.0,0.0,0.0
1513265723959640382,,564662,,1513265722,170063616,'',1.27409035396,1.27750904012,0.144845997996,0.0034186861637,0.001,17.0934308185,-5000.0,0.0,0.0,0.0
1513265723969645549,,564663,,1513265722,180063616,'',1.27409035396,1.28290696564,0.217909059554,0.0,0.001,0.0,-5000.0,0.0,0.0,0.0
1513265723980034614,,564664,,1513265722,190063616,'',1.27409035396,1.28425644702,0.205141910493,0.0,0.001,0.0,-5000.0,0.0,0.0,0.0
1513265723989981511,,564665,,1513265722,200063616,'',1.27409035396,1.28695540978,0.21830919481,0.0,0.001,0.0,-5000.0,0.0,0.0,0.0
1513265723999990358,,564666,,1513265722,210063616,'',1.27409035396,1.28830489116,0.202378452364,0.0,0.001,0.0,-5000.0,0.0,0.0,0.0
1513265724009899891,,564667,,1513265722,220063616,'',1.27409035396,1.28965437254,0.188370373274,0.0155640185874,0.001,77.8200929369,-5000.0,0.0,0.0,0.0
1513265724019843634,,564668,,1513265722,230063616,'',1.27409035396,1.29100385392,0.178459909976,0.0169134999678,0.001,84.5674998389,-5000.0,0.0,0.0,0.0
1513265724029748317,,564669,,1513265722,240063616,'',1.27409035396,1.29100385392,0.144606926328,0.0169134999678,0.001,84.5674998389,-5000.0,0.0,0.0,0.0
1513265724039756825,,564670,,1513265722,250063616,'',1.27409035396,1.29370281668,0.166945515315,0.0196124627286,0.001,98.062313643,-5000.0,0.0,0.0,0.0
1513265724049645046,,564671,,1513265722,260063616,'',1.27409035396,1.2923533353,0.113379354013,0.0182629813482,0.001,91.3149067409,-5000.0,0.0,0.0,0.0
1513265724060084177,,564672,,1513265722,270063616,'',1.27409035396,1.29370281668,0.118649454301,0.0196124627286,0.001,98.062313643,-5000.0,0.0,0.0,0.0
1513265724070049544,,564673,,1513265722,280063616,'',1.27409035396,1.29370281668,0.0986459819869,0.0196124627286,0.001,98.062313643,-5000.0,0.0,0.0,0.0
1513265724080021804,,564674,,1513265722,290063616,'',1.27409035396,1.29370281668,0.0797932671873,0.0196124627286,0.001,98.062313643,-5000.0,0.0,0.0,0.0
1513265724089904039,,564675,,1513265722,300063616,'',1.27409035396,1.29370281668,0.0643212041154,0.0196124627286,0.001,98.062313643,-5000.0,0.0,0.0,0.0
1513265724099954944,,564676,,1513265722,310063616,'',1.27409035396,1.29370281668,0.0517205540174,0.0196124627286,0.001,98.062313643,-5000.0,0.0,0.0,0.0
1513265724109805470,,564677,,1513265722,320063616,'',1.27409035396,1.29370281668,0.0423113128922,0.0196124627286,0.001,98.062313643,-5000.0,0.0,0.0,0.0
1513265724119845428,,564678,,1513265722,330063616,'',1.27409035396,1.29370281668,0.0327453463085,0.0196124627286,0.001,98.062313643,-5000.0,0.0,0.0,0.0
1513265724129681991,,564679,,1513265722,340063616,'',1.27409035396,1.29640177945,0.0782353423341,0.0223114254894,0.001,111.557127447,-5000.0,0.0,0.0,0.0
1513265724139709739,,564680,,1513265722,350063616,'',1.27409035396,1.29370281668,0.017488876817,0.0196124627286,0.001,98.062313643,-5000.0,0.0,0.0,0.0
1513265724149958780,,564681,,1513265722,360063616,'',1.27409035396,1.29505229806,0.0396589949293,0.020961944109,0.001,104.809720545,-5000.0,0.0,0.0,0.0
1513265724159859026,,564682,,1513265722,370063616,'',1.27409035396,1.29370281668,0.00917531435419,0.0196124627286,0.001,98.062313643,-5000.0,0.0,0.0,0.0
1513265724169845816,,564683,,1513265722,380063616,'',1.27409035396,1.29370281668,0.00552014776273,0.0196124627286,0.001,98.062313643,-5000.0,0.0,0.0,0.0
1513265724179736829,,564684,,1513265722,390063616,'',1.27409035396,1.29505229806,0.0287449990928,0.020961944109,0.001,104.809720545,-5000.0,0.0,0.0,0.0
1513265724189619474,,564685,,1513265722,400063616,'',1.27409035396,1.29505229806,0.0255133252765,0.020961944109,0.001,104.809720545,-5000.0,0.0,0.0,0.0
1513265724200042579,,564686,,1513265722,410063616,'',1.27409035396,1.29370281668,-0.00343377625153,0.0196124627286,0.001,98.062313643,-5000.0,0.0,0.0,0.0
1513265724209994742,,564687,,1513265722,420063616,'',1.27409035396,1.29370281668,-0.00525851138204,0.0196124627286,0.001,98.062313643,-5000.0,0.0,0.0,0.0
1513265724219774678,,564688,,1513265722,430063616,'',1.27409035396,1.29370281668,-0.00469090465391,0.0196124627286,0.001,98.062313643,-5000.0,0.0,0.0,0.0
1513265724229726281,,564689,,1513265722,440063616,'',1.27409035396,1.2923533353,-0.0310292554061,0.0182629813482,0.001,91.3149067409,-5000.0,0.0,0.0,0.0
1513265724239719042,,564690,,1513265722,450063616,'',1.27409035396,1.29370281668,-0.00402751132393,0.0196124627286,0.001,98.062313643,-5000.0,0.0,0.0,0.0
1513265724249644949,,564691,,1513265722,460063616,'',1.27409035396,1.29370281668,-0.00372328692384,0.0196124627286,0.001,98.062313643,-5000.0,0.0,0.0,0.0
1513265724259639435,,564692,,1513265722,470063616,'',1.27409035396,1.29505229806,0.0222450785722,0.020961944109,0.001,104.809720545,-5000.0,0.0,0.0,0.0
1513265724270082671,,564693,,1513265722,480063616,'',1.27409035396,1.29370281668,-0.00561459018425,0.0196124627286,0.001,98.062313643,-5000.0,0.0,0.0,0.0
1513265724279839732,,564694,,1513265722,490063616,'',1.27409035396,1.29370281668,-0.0051137208642,0.0196124627286,0.001,98.062313643,-5000.0,0.0,0.0,0.0
1513265724289757811,,564695,,1513265722,500063616,'',1.27409035396,1.29505229806,0.021478455979,0.020961944109,0.001,104.809720545,-5000.0,0.0,0.0,0.0
1513265724299759137,,564696,,1513265722,510063616,'',1.27409035396,1.29370281668,-0.00620489567003,0.0196124627286,0.001,98.062313643,-5000.0,0.0,0.0,0.0
1513265724309807409,,564697,,1513265722,520063616,'',1.27409035396,1.29505229806,0.0191834606547,0.020961944109,0.001,104.809720545,-5000.0,0.0,0.0,0.0
1513265724319699832,,564698,,1513265722,530063616,'',1.27409035396,1.29370281668,-0.00850830735484,0.0196124627286,0.001,98.062313643,-5000.0,0.0,0.0,0.0
1513265724329556913,,564699,,1513265722,540063616,'',1.27409035396,1.29370281668,-0.00750395532386,0.0196124627286,0.001,98.062313643,-5000.0,0.0,0.0,0.0
1513265724339987025,,564700,,1513265722,550063616,'',1.27409035396,1.29370281668,-0.00807437958715,0.0196124627286,0.001,98.062313643,-5000.0,0.0,0.0,0.0
1513265724349968209,,564701,,1513265722,560063616,'',1.27409035396,1.29505229806,0.0192441460266,0.020961944109,0.001,104.809720545,-5000.0,0.0,0.0,0.0
1513265724360089414,,564702,,1513265722,570063616,'',1.27409035396,1.29640177945,0.0463856373671,0.0223114254894,0.001,111.557127447,-5000.0,0.0,0.0,0.0
1513265724369974461,,564703,,1513265722,580063616,'',1.27409035396,1.29370281668,-0.00910565394214,0.0196124627286,0.001,98.062313643,-5000.0,0.0,0.0,0.0
1513265724379912794,,564704,,1513265722,590063616,'',1.27409035396,1.29370281668,-0.0104068234913,0.0196124627286,0.001,98.062313643,-5000.0,0.0,0.0,0.0
1513265724389841166,,564705,,1513265722,600063616,'',1.27409035396,1.29370281668,-0.0109261553214,0.0196124627286,0.001,98.062313643,-5000.0,0.0,0.0,0.0
1513265724399743602,,564706,,1513265722,610063616,'',1.27409035396,1.29370281668,-0.00988409396083,0.0196124627286,0.001,98.062313643,-5000.0,0.0,0.0,0.0
1513265724409845665,,564707,,1513265722,620063616,'',1.27409035396,1.29370281668,-0.0095953006263,0.0196124627286,0.001,98.062313643,-5000.0,0.0,0.0,0.0
1513265724419710644,,564708,,1513265722,630063616,'',1.27409035396,1.29505229806,0.0154478723885,0.020961944109,0.001,104.809720545,-5000.0,0.0,0.0,0.0
1513265724429670782,,564709,,1513265722,640063616,'',1.27409035396,1.29505229806,0.0136046914678,0.020961944109,0.001,104.809720545,-5000.0,0.0,0.0,0.0
1513265724439521400,,564710,,1513265722,650063616,'',1.27409035396,1.29370281668,-0.0141039316745,0.0196124627286,0.001,98.062313643,-5000.0,0.0,0.0,0.0
1513265724449514681,,564711,,1513265722,660063616,'',1.27409035396,1.29370281668,-0.0125241080086,0.0196124627286,0.001,98.062313643,-5000.0,0.0,0.0,0.0
1513265724460045884,,564712,,1513265722,670063616,'',1.27409035396,1.29505229806,0.0140190761173,0.020961944109,0.001,104.809720545,-5000.0,0.0,0.0,0.0
1513265724470016993,,564713,,1513265722,680063616,'',1.27409035396,1.29505229806,0.0139013895538,0.020961944109,0.001,104.809720545,-5000.0,0.0,0.0,0.0
1513265724479963792,,564714,,1513265722,690063616,'',1.27409035396,1.29370281668,-0.0113998795657,0.0196124627286,0.001,98.062313643,-5000.0,0.0,0.0,0.0
1513265724489794500,,564715,,1513265722,700063616,'',1.27409035396,1.29370281668,-0.0108287091426,0.0196124627286,0.001,98.062313643,-5000.0,0.0,0.0,0.0
1513265724499701830,,564716,,1513265722,710063616,'',1.27409035396,1.29370281668,-0.0103179347978,0.0196124627286,0.001,98.062313643,-5000.0,0.0,0.0,0.0
1513265724509658471,,564717,,1513265722,720063616,'',1.27409035396,1.29505229806,0.0157897200898,0.020961944109,0.001,104.809720545,-5000.0,0.0,0.0,0.0
1513265724519609613,,564718,,1513265722,730063616,'',1.27409035396,1.29505229806,0.0153838067135,0.020961944109,0.001,104.809720545,-5000.0,0.0,0.0,0.0
1513265724529652437,,564719,,1513265722,740063616,'',1.27409035396,1.2923533353,-0.0369124604951,0.0182629813482,0.001,91.3149067409,-5000.0,0.0,0.0,0.0
1513265724539569084,,564720,,1513265722,750063616,'',1.27409035396,1.29370281668,-0.0103267902682,0.0196124627286,0.001,98.062313643,-5000.0,0.0,0.0,0.0
1513265724549987478,,564721,,1513265722,760063616,'',1.27409035396,1.29370281668,-0.00748789392963,0.0196124627286,0.001,98.062313643,-5000.0,0.0,0.0,0.0
1513265724560067445,,564722,,1513265722,770063616,'',1.27409035396,1.29370281668,-0.00666196095109,0.0196124627286,0.001,98.062313643,-5000.0,0.0,0.0,0.0
1513265724569966644,,564723,,1513265722,780063616,'',1.27409035396,1.29505229806,0.0193050314251,0.020961944109,0.001,104.809720545,-5000.0,0.0,0.0,0.0
1513265724579842104,,564724,,1513265722,790063616,'',1.27409035396,1.29370281668,-0.00649567458103,0.0196124627286,0.001,98.062313643,-5000.0,0.0,0.0,0.0
1513265724589947700,,564725,,1513265722,800063616,'',1.27409035396,1.29370281668,-0.00680041462943,0.0196124627286,0.001,98.062313643,-5000.0,0.0,0.0,0.0
1513265724599898590,,564726,,1513265722,810063616,'',1.27409035396,1.29370281668,-0.00602384670599,0.0196124627286,0.001,98.062313643,-5000.0,0.0,0.0,0.0
1513265724609848364,,564727,,1513265722,820063616,'',1.27409035396,1.29370281668,-0.0063567494951,0.0196124627286,0.001,98.062313643,-5000.0,0.0,0.0,0.0
1513265724620041772,,564728,,1513265722,830063616,'',1.27409035396,1.29505229806,0.0204877192601,0.020961944109,0.001,104.809720545,-5000.0,0.0,0.0,0.0
1513265724629958199,,564729,,1513265722,840063616,'',1.27409035396,1.29505229806,0.0196625209058,0.020961944109,0.001,104.809720545,-5000.0,0.0,0.0,0.0
1513265724639922437,,564730,,1513265722,850063616,'',1.27409035396,1.29370281668,-0.00816516812898,0.0196124627286,0.001,98.062313643,-5000.0,0.0,0.0,0.0
1513265724649923748,,564731,,1513265722,860063616,'',1.27409035396,1.29370281668,-0.00808505835269,0.0196124627286,0.001,98.062313643,-5000.0,0.0,0.0,0.0
1513265724659858695,,564732,,1513265722,870063616,'',1.27409035396,1.29370281668,-0.00762066486174,0.0196124627286,0.001,98.062313643,-5000.0,0.0,0.0,0.0
1513265724669946696,,564733,,1513265722,880063616,'',1.27409035396,1.29370281668,-0.00726451237777,0.0196124627286,0.001,98.062313643,-5000.0,0.0,0.0,0.0
1513265724679900954,,564734,,1513265722,890063616,'',1.27409035396,1.29370281668,-0.00692176577088,0.0196124627286,0.001,98.062313643,-5000.0,0.0,0.0,0.0
1513265724689790888,,564735,,1513265722,900063616,'',1.27409035396,1.29370281668,-0.00615774211823,0.0196124627286,0.001,98.062313643,-5000.0,0.0,0.0,0.0
1513265724699756885,,564736,,1513265722,910063616,'',1.27409035396,1.29505229806,0.0212693320585,0.020961944109,0.001,104.809720545,-5000.0,0.0,0.0,0.0
1513265724709683359,,564737,,1513265722,920063616,'',1.27409035396,1.29370281668,-0.00485968176647,0.0196124627286,0.001,98.062313643,-5000.0,0.0,0.0,0.0
1513265724719635252,,564738,,1513265722,930063616,'',1.27409035396,1.29370281668,-0.00596193610939,0.0196124627286,0.001,98.062313643,-5000.0,0.0,0.0,0.0
1513265724729585623,,564739,,1513265722,940063616,'',1.27409035396,1.29505229806,0.0214315228551,0.020961944109,0.001,104.809720545,-5000.0,0.0,0.0,0.0
1513265724740010617,,564740,,1513265722,950063616,'',1.27409035396,1.29505229806,0.0210084240538,0.020961944109,0.001,104.809720545,-5000.0,0.0,0.0,0.0
1513265724749970590,,564741,,1513265722,960063616,'',1.27409035396,1.29370281668,-0.00461028759835,0.0196124627286,0.001,98.062313643,-5000.0,0.0,0.0,0.0
1513265724759938938,,564742,,1513265722,970063616,'',1.27409035396,1.29505229806,0.0219773331515,0.020961944109,0.001,104.809720545,-5000.0,0.0,0.0,0.0
1513265724769894713,,564743,,1513265722,980063616,'',1.27409035396,1.29505229806,0.0218677609603,0.020961944109,0.001,104.809720545,-5000.0,0.0,0.0,0.0
1513265724779748504,,564744,,1513265722,990063616,'',1.27409035396,1.29505229806,0.0198349257494,0.020961944109,0.001,104.809720545,-5000.0,0.0,0.0,0.0
1513265724789627175,,564745,,1513265723,63616,'',1.27409035396,1.29505229806,0.0201277037353,0.020961944109,0.001,104.809720545,-5000.0,0.0,0.0,0.0
1513265724799697580,,564746,,1513265723,10063616,'',1.27409035396,1.29370281668,-0.00633519770254,0.0196124627286,0.001,98.062313643,-5000.0,0.0,0.0,0.0
1513265724809760447,,564747,,1513265723,20063616,'',1.27409035396,1.29370281668,-0.00719850611986,0.0196124627286,0.001,98.062313643,-5000.0,0.0,0.0,0.0
1513265724819666516,,564748,,1513265723,30063616,'',1.27409035396,1.29370281668,-0.00734698599852,0.0196124627286,0.001,98.062313643,-5000.0,0.0,0.0,0.0
1513265724829651286,,564749,,1513265723,40063616,'',1.27409035396,1.29370281668,-0.00750363251026,0.0196124627286,0.001,98.062313643,-5000.0,0.0,0.0,0.0
1513265724839612248,,564750,,1513265723,50063616,'',1.27409035396,1.29370281668,-0.00617838650347,0.0196124627286,0.001,98.062313643,-5000.0,0.0,0.0,0.0
1513265724849526294,,564751,,1513265723,60063616,'',1.27409035396,1.29370281668,-0.00555519172923,0.0196124627286,0.001,98.062313643,-5000.0,0.0,0.0,0.0
1513265724859906401,,564752,,1513265723,70063616,'',1.27409035396,1.29505229806,0.0206908152725,0.020961944109,0.001,104.809720545,-5000.0,0.0,0.0,0.0
1513265724869918988,,564753,,1513265723,80063616,'',1.27409035396,1.29370281668,-0.00584848004561,0.0196124627286,0.001,98.062313643,-5000.0,0.0,0.0,0.0
1513265724879856290,,564754,,1513265723,90063616,'',1.27409035396,1.2923533353,-0.0335032977555,0.0182629813482,0.001,91.3149067409,-5000.0,0.0,0.0,0.0
1513265724889905590,,564755,,1513265723,100063616,'',1.27409035396,1.29370281668,-0.00660847664368,0.0196124627286,0.001,98.062313643,-5000.0,0.0,0.0,0.0
1513265724899766624,,564756,,1513265723,110063616,'',1.27409035396,1.29370281668,-0.00683878209234,0.0196124627286,0.001,98.062313643,-5000.0,0.0,0.0,0.0
1513265724909978950,,564757,,1513265723,120063616,'',1.27409035396,1.29370281668,-0.00511448558055,0.0196124627286,0.001,98.062313643,-5000.0,0.0,0.0,0.0
1513265724919865551,,564758,,1513265723,130063616,'',1.27409035396,1.29370281668,-0.00469300620976,0.0196124627286,0.001,98.062313643,-5000.0,0.0,0.0,0.0
1513265724929895285,,564759,,1513265723,140063616,'',1.27409035396,1.29505229806,0.0219097958103,0.020961944109,0.001,104.809720545,-5000.0,0.0,0.0,0.0
1513265724940075400,,564760,,1513265723,150063616,'',1.27409035396,1.29505229806,0.0203957848883,0.020961944109,0.001,104.809720545,-5000.0,0.0,0.0,0.0
1513265724949879458,,564761,,1513265723,160063616,'',1.27409035396,1.29370281668,-0.00657179810186,0.0196124627286,0.001,98.062313643,-5000.0,0.0,0.0,0.0
1513265724959761400,,564762,,1513265723,170063616,'',1.27409035396,1.29505229806,0.020894862511,0.020961944109,0.001,104.809720545,-5000.0,0.0,0.0,0.0
1513265724969751731,,564763,,1513265723,180063616,'',1.27409035396,1.2923533353,-0.0329243053912,0.0182629813482,0.001,91.3149067409,-5000.0,0.0,0.0,0.0
1513265724979527784,,564764,,1513265723,190063616,'',1.27409035396,1.2923533353,-0.0314507403143,0.0182629813482,0.001,91.3149067409,-5000.0,0.0,0.0,0.0
1513265724990018980,,564765,,1513265723,200063616,'',1.27409035396,1.29370281668,-0.00295718684485,0.0196124627286,0.001,98.062313643,-5000.0,0.0,0.0,0.0
1513265724999974666,,564766,,1513265723,210063616,'',1.27409035396,1.29370281668,-0.0034658550245,0.0196124627286,0.001,98.062313643,-5000.0,0.0,0.0,0.0
1513265725009985106,,564767,,1513265723,220063616,'',1.27409035396,1.29505229806,0.0243382586273,0.020961944109,0.001,104.809720545,-5000.0,0.0,0.0,0.0
1513265725019878216,,564768,,1513265723,230063616,'',1.27409035396,1.29370281668,-0.00385693996574,0.0196124627286,0.001,98.062313643,-5000.0,0.0,0.0,0.0
1513265725029813372,,564769,,1513265723,240063616,'',1.27409035396,1.29370281668,-0.00406995582128,0.0196124627286,0.001,98.062313643,-5000.0,0.0,0.0,0.0
1513265725039819113,,564770,,1513265723,250063616,'',1.27409035396,1.29505229806,0.0234470274107,0.020961944109,0.001,104.809720545,-5000.0,0.0,0.0,0.0
1513265725049667281,,564771,,1513265723,260063616,'',1.27409035396,1.29370281668,-0.0041449925322,0.0196124627286,0.001,98.062313643,-5000.0,0.0,0.0,0.0
1513265725059636574,,564772,,1513265723,270063616,'',1.27409035396,1.29370281668,-0.0039067392958,0.0196124627286,0.001,98.062313643,-5000.0,0.0,0.0,0.0
1513265725070064962,,564773,,1513265723,280063616,'',1.27409035396,1.29370281668,-0.00323159229873,0.0196124627286,0.001,98.062313643,-5000.0,0.0,0.0,0.0
1513265725080040903,,564774,,1513265723,290063616,'',1.27409035396,1.29370281668,-0.00211428831782,0.0196124627286,0.001,98.062313643,-5000.0,0.0,0.0,0.0
1513265725089943790,,564775,,1513265723,300063616,'',1.27409035396,1.29505229806,0.0239879553062,0.020961944109,0.001,104.809720545,-5000.0,0.0,0.0,0.0
1513265725099926112,,564776,,1513265723,310063616,'',1.27409035396,1.29370281668,-0.00308626708007,0.0196124627286,0.001,98.062313643,-5000.0,0.0,0.0,0.0
1513265725109739861,,564777,,1513265723,320063616,'',1.27409035396,1.29370281668,-0.00400588623269,0.0196124627286,0.001,98.062313643,-5000.0,0.0,0.0,0.0
1513265725119791106,,564778,,1513265723,330063616,'',1.27409035396,1.29370281668,-0.00418389641654,0.0196124627286,0.001,98.062313643,-5000.0,0.0,0.0,0.0
1513265725130044556,,564779,,1513265723,340063616,'',1.27409035396,1.29370281668,-0.00341779498454,0.0196124627286,0.001,98.062313643,-5000.0,0.0,0.0,0.0
1513265725140022662,,564780,,1513265723,350063616,'',1.27409035396,1.29505229806,0.0234071971649,0.020961944109,0.001,104.809720545,-5000.0,0.0,0.0,0.0
1513265725149923056,,564781,,1513265723,360063616,'',1.27409035396,1.29505229806,0.0220887146703,0.020961944109,0.001,104.809720545,-5000.0,0.0,0.0,0.0
1513265725159896489,,564782,,1513265723,370063616,'',1.27409035396,1.29505229806,0.0219678794662,0.020961944109,0.001,104.809720545,-5000.0,0.0,0.0,0.0
1513265725169761291,,564783,,1513265723,380063616,'',1.27409035396,1.29505229806,0.019891017202,0.020961944109,0.001,104.809720545,-5000.0,0.0,0.0,0.0
1513265725179879442,,564784,,1513265723,390063616,'',1.27409035396,1.2923533353,-0.0342785621786,0.0182629813482,0.001,91.3149067409,-5000.0,0.0,0.0,0.0
1513265725189723278,,564785,,1513265723,400063616,'',1.27409035396,1.29505229806,0.0184918539973,0.020961944109,0.001,104.809720545,-5000.0,0.0,0.0,0.0
1513265725199806854,,564786,,1513265723,410063616,'',1.27409035396,1.29370281668,-0.00766310210957,0.0196124627286,0.001,98.062313643,-5000.0,0.0,0.0,0.0
1513265725209698894,,564787,,1513265723,420063616,'',1.27409035396,1.29370281668,-0.00827903177982,0.0196124627286,0.001,98.062313643,-5000.0,0.0,0.0,0.0
1513265725219670062,,564788,,1513265723,430063616,'',1.27409035396,1.29505229806,0.0189450151508,0.020961944109,0.001,104.809720545,-5000.0,0.0,0.0,0.0
1513265725229722479,,564789,,1513265723,440063616,'',1.27409035396,1.29370281668,-0.00825843086702,0.0196124627286,0.001,98.062313643,-5000.0,0.0,0.0,0.0
1513265725239631726,,564790,,1513265723,450063616,'',1.27409035396,1.29370281668,-0.00968660664423,0.0196124627286,0.001,98.062313643,-5000.0,0.0,0.0,0.0
1513265725250027319,,564791,,1513265723,460063616,'',1.27409035396,1.29505229806,0.0172889010765,0.020961944109,0.001,104.809720545,-5000.0,0.0,0.0,0.0
1513265725259973772,,564792,,1513265723,470063616,'',1.27409035396,1.29505229806,0.0165774099462,0.020961944109,0.001,104.809720545,-5000.0,0.0,0.0,0.0
1513265725269969289,,564793,,1513265723,480063616,'',1.27409035396,1.29370281668,-0.010656791378,0.0196124627286,0.001,98.062313643,-5000.0,0.0,0.0,0.0
1513265725279808528,,564794,,1513265723,490063616,'',1.27409035396,1.29370281668,-0.0116360652134,0.0196124627286,0.001,98.062313643,-5000.0,0.0,0.0,0.0
1513265725289626188,,564795,,1513265723,500063616,'',1.27409035396,1.29505229806,0.0142523838726,0.020961944109,0.001,104.809720545,-5000.0,0.0,0.0,0.0
1513265725299558894,,564796,,1513265723,510063616,'',1.27409035396,1.29370281668,-0.0126815563101,0.0196124627286,0.001,98.062313643,-5000.0,0.0,0.0,0.0
1513265725310128614,,564797,,1513265723,520063616,'',1.27409035396,1.29505229806,0.01436526206,0.020961944109,0.001,104.809720545,-5000.0,0.0,0.0,0.0
1513265725320067751,,564798,,1513265723,530063616,'',1.27409035396,1.29505229806,0.0152077614999,0.020961944109,0.001,104.809720545,-5000.0,0.0,0.0,0.0
1513265725330016131,,564799,,1513265723,540063616,'',1.27409035396,1.29370281668,-0.0103542260668,0.0196124627286,0.001,98.062313643,-5000.0,0.0,0.0,0.0
1513265725339874768,,564800,,1513265723,550063616,'',1.27409035396,1.29370281668,-0.00992176224608,0.0196124627286,0.001,98.062313643,-5000.0,0.0,0.0,0.0
1513265725349913336,,564801,,1513265723,560063616,'',1.27409035396,1.29505229806,0.0166532743627,0.020961944109,0.001,104.809720545,-5000.0,0.0,0.0,0.0
1513265725359850831,,564802,,1513265723,570063616,'',1.27409035396,1.29505229806,0.0155852677284,0.020961944109,0.001,104.809720545,-5000.0,0.0,0.0,0.0
1513265725369934420,,564803,,1513265723,580063616,'',1.27409035396,1.29505229806,0.0170982001053,0.020961944109,0.001,104.809720545,-5000.0,0.0,0.0,0.0
1513265725379757121,,564804,,1513265723,590063616,'',1.27409035396,1.29370281668,-0.00836733538488,0.0196124627286,0.001,98.062313643,-5000.0,0.0,0.0,0.0
1513265725389679481,,564805,,1513265723,600063616,'',1.27409035396,1.29370281668,-0.00977497054906,0.0196124627286,0.001,98.062313643,-5000.0,0.0,0.0,0.0
1513265725400122185,,564806,,1513265723,610063616,'',1.27409035396,1.29370281668,-0.0100252721374,0.0196124627286,0.001,98.062313643,-5000.0,0.0,0.0,0.0
1513265725410049150,,564807,,1513265723,620063616,'',1.27409035396,1.29370281668,-0.00921013324512,0.0196124627286,0.001,98.062313643,-5000.0,0.0,0.0,0.0
1513265725419916263,,564808,,1513265723,630063616,'',1.27409035396,1.29370281668,-0.0090171394854,0.0196124627286,0.001,98.062313643,-5000.0,0.0,0.0,0.0
1513265725429973753,,564809,,1513265723,640063616,'',1.27409035396,1.29370281668,-0.00984961054442,0.0196124627286,0.001,98.062313643,-5000.0,0.0,0.0,0.0
1513265725439741993,,564810,,1513265723,650063616,'',1.27409035396,1.29505229806,0.0162518179919,0.020961944109,0.001,104.809720545,-5000.0,0.0,0.0,0.0
1513265725449687789,,564811,,1513265723,660063616,'',1.27409035396,1.29370281668,-0.0104400744012,0.0196124627286,0.001,98.062313643,-5000.0,0.0,0.0,0.0
1513265725459629575,,564812,,1513265723,670063616,'',1.27409035396,1.29370281668,-0.0110080022621,0.0196124627286,0.001,98.062313643,-5000.0,0.0,0.0,0.0
1513265725469691354,,564813,,1513265723,680063616,'',1.27409035396,1.29505229806,0.0172299369602,0.020961944109,0.001,104.809720545,-5000.0,0.0,0.0,0.0
1513265725479654815,,564814,,1513265723,690063616,'',1.27409035396,1.29370281668,-0.00977881371478,0.0196124627286,0.001,98.062313643,-5000.0,0.0,0.0,0.0
1513265725489568006,,564815,,1513265723,700063616,'',1.27409035396,1.29370281668,-0.00902439050621,0.0196124627286,0.001,98.062313643,-5000.0,0.0,0.0,0.0
1513265725500014057,,564816,,1513265723,710063616,'',1.27409035396,1.29370281668,-0.00741351258488,0.0196124627286,0.001,98.062313643,-5000.0,0.0,0.0,0.0
1513265725509845058,,564817,,1513265723,720063616,'',1.27409035396,1.29370281668,-0.00754938739877,0.0196124627286,0.001,98.062313643,-5000.0,0.0,0.0,0.0
1513265725519777595,,564818,,1513265723,730063616,'',1.27409035396,1.29370281668,-0.00715979783124,0.0196124627286,0.001,98.062313643,-5000.0,0.0,0.0,0.0
1513265725529697608,,564819,,1513265723,740063616,'',1.27409035396,1.29370281668,-0.00778230405062,0.0196124627286,0.001,98.062313643,-5000.0,0.0,0.0,0.0
1513265725539589977,,564820,,1513265723,750063616,'',1.27409035396,1.29370281668,-0.00775400557278,0.0196124627286,0.001,98.062313643,-5000.0,0.0,0.0,0.0
1513265725549683260,,564821,,1513265723,760063616,'',1.27409035396,1.29640177945,0.0466526595579,0.0223114254894,0.001,111.557127447,-5000.0,0.0,0.0,0.0
1513265725560062207,,564822,,1513265723,770063616,'',1.27409035396,1.29505229806,0.0188354053933,0.020961944109,0.001,104.809720545,-5000.0,0.0,0.0,0.0
1513265725570081564,,564823,,1513265723,780063616,'',1.27409035396,1.29505229806,0.0158610990417,0.020961944109,0.001,104.809720545,-5000.0,0.0,0.0,0.0
1513265725580048020,,564824,,1513265723,790063616,'',1.27409035396,1.29370281668,-0.0107514863804,0.0196124627286,0.001,98.062313643,-5000.0,0.0,0.0,0.0
1513265725589950825,,564825,,1513265723,800063616,'',1.27409035396,1.29505229806,0.0164006562716,0.020961944109,0.001,104.809720545,-5000.0,0.0,0.0,0.0
1513265725599961757,,564826,,1513265723,810063616,'',1.27409035396,1.29370281668,-0.0108224177296,0.0196124627286,0.001,98.062313643,-5000.0,0.0,0.0,0.0
1513265725609861251,,564827,,1513265723,820063616,'',1.27409035396,1.29505229806,0.0149696128951,0.020961944109,0.001,104.809720545,-5000.0,0.0,0.0,0.0
1513265725619689405,,564828,,1513265723,830063616,'',1.27409035396,1.29370281668,-0.0119835447574,0.0196124627286,0.001,98.062313643,-5000.0,0.0,0.0,0.0
1513265725629654602,,564829,,1513265723,840063616,'',1.27409035396,1.29370281668,-0.0103346891932,0.0196124627286,0.001,98.062313643,-5000.0,0.0,0.0,0.0
1513265725639951874,,564830,,1513265723,850063616,'',1.27409035396,1.29505229806,0.0153188108614,0.020961944109,0.001,104.809720545,-5000.0,0.0,0.0,0.0
1513265725649799793,,564831,,1513265723,860063616,'',1.27409035396,1.29505229806,0.0159300465367,0.020961944109,0.001,104.809720545,-5000.0,0.0,0.0,0.0
1513265725659607257,,564832,,1513265723,870063616,'',1.27409035396,1.29505229806,0.0160633557096,0.020961944109,0.001,104.809720545,-5000.0,0.0,0.0,0.0
1513265725669693566,,564833,,1513265723,880063616,'',1.27409035396,1.29370281668,-0.0106016454292,0.0196124627286,0.001,98.062313643,-5000.0,0.0,0.0,0.0
1513265725679599077,,564834,,1513265723,890063616,'',1.27409035396,1.29370281668,-0.0101551102224,0.0196124627286,0.001,98.062313643,-5000.0,0.0,0.0,0.0
1513265725689635801,,564835,,1513265723,900063616,'',1.27409035396,1.29370281668,-0.0106405922812,0.0196124627286,0.001,98.062313643,-5000.0,0.0,0.0,0.0
1513265725699574205,,564836,,1513265723,910063616,'',1.27409035396,1.29505229806,0.0155917034478,0.020961944109,0.001,104.809720545,-5000.0,0.0,0.0,0.0
1513265725709677194,,564837,,1513265723,920063616,'',1.27409035396,1.29370281668,-0.0105701309194,0.0196124627286,0.001,98.062313643,-5000.0,0.0,0.0,0.0
1513265725720050008,,564838,,1513265723,930063616,'',1.27409035396,1.29370281668,-0.0106583251743,0.0196124627286,0.001,98.062313643,-5000.0,0.0,0.0,0.0
1513265725730059847,,564839,,1513265723,940063616,'',1.27409035396,1.29370281668,-0.00923828871594,0.0196124627286,0.001,98.062313643,-5000.0,0.0,0.0,0.0
1513265725739957902,,564840,,1513265723,950063616,'',1.27409035396,1.29505229806,0.0172215100006,0.020961944109,0.001,104.809720545,-5000.0,0.0,0.0,0.0
1513265725749982290,,564841,,1513265723,960063616,'',1.27409035396,1.29370281668,-0.00822061806665,0.0196124627286,0.001,98.062313643,-5000.0,0.0,0.0,0.0
1513265725759894507,,564842,,1513265723,970063616,'',1.27409035396,1.29505229806,0.0184191680898,0.020961944109,0.001,104.809720545,-5000.0,0.0,0.0,0.0
1513265725769910869,,564843,,1513265723,980063616,'',1.27409035396,1.29370281668,-0.00925905864613,0.0196124627286,0.001,98.062313643,-5000.0,0.0,0.0,0.0
1513265725779751767,,564844,,1513265723,990063616,'',1.27409035396,1.29370281668,-0.00857174536936,0.0196124627286,0.001,98.062313643,-5000.0,0.0,0.0,0.0
1513265725789664988,,564845,,1513265724,63616,'',1.27409035396,1.29370281668,-0.00647474768417,0.0196124627286,0.001,98.062313643,-5000.0,0.0,0.0,0.0
1513265725799560364,,564846,,1513265724,10063616,'',1.27409035396,1.29370281668,-0.00724923773172,0.0196124627286,0.001,98.062313643,-5000.0,0.0,0.0,0.0
1513265725810013349,,564847,,1513265724,20063616,'',1.27409035396,1.29505229806,0.0178131623506,0.020961944109,0.001,104.809720545,-5000.0,0.0,0.0,0.0
1513265725819943177,,564848,,1513265724,30063616,'',1.27409035396,1.29370281668,-0.00966164526,0.0196124627286,0.001,98.062313643,-5000.0,0.0,0.0,0.0
1513265725830094020,,564849,,1513265724,40063616,'',1.27409035396,1.29370281668,-0.00986830554107,0.0196124627286,0.001,98.062313643,-5000.0,0.0,0.0,0.0
1513265725839839882,,564850,,1513265724,50063616,'',1.27409035396,1.29505229806,0.0162175275603,0.020961944109,0.001,104.809720545,-5000.0,0.0,0.0,0.0
1513265725850641702,,564851,,1513265724,60063616,'',1.27409035396,1.29505229806,0.0162534905791,0.020961944109,0.001,104.809720545,-5000.0,0.0,0.0,0.0
1513265725859699571,,564852,,1513265724,70063616,'',1.27409035396,1.29505229806,0.0162587315687,0.020961944109,0.001,104.809720545,-5000.0,0.0,0.0,0.0
1513265725869606997,,564853,,1513265724,80063616,'',1.27409035396,1.29370281668,-0.0115608801453,0.0196124627286,0.001,98.062313643,-5000.0,0.0,0.0,0.0
1513265725879606210,,564854,,1513265724,90063616,'',1.27409035396,1.29370281668,-0.0104854534529,0.0196124627286,0.001,98.062313643,-5000.0,0.0,0.0,0.0
1513265725890009922,,564855,,1513265724,100063616,'',1.27409035396,1.29505229806,0.0191476683378,0.020961944109,0.001,104.809720545,-5000.0,0.0,0.0,0.0
1513265725899986872,,564856,,1513265724,110063616,'',1.27409035396,1.2923533353,-0.0358287465451,0.0182629813482,0.001,91.3149067409,-5000.0,0.0,0.0,0.0
1513265725909919654,,564857,,1513265724,120063616,'',1.27409035396,1.29370281668,-0.00849095037344,0.0196124627286,0.001,98.062313643,-5000.0,0.0,0.0,0.0
1513265725919950245,,564858,,1513265724,130063616,'',1.27409035396,1.29505229806,0.0187639974314,0.020961944109,0.001,104.809720545,-5000.0,0.0,0.0,0.0
1513265725929789550,,564859,,1513265724,140063616,'',1.27409035396,1.29505229806,0.0183068715864,0.020961944109,0.001,104.809720545,-5000.0,0.0,0.0,0.0
1513265725939662495,,564860,,1513265724,150063616,'',1.27409035396,1.29505229806,0.017946761935,0.020961944109,0.001,104.809720545,-5000.0,0.0,0.0,0.0
1513265725949656833,,564861,,1513265724,160063616,'',1.27409035396,1.29370281668,-0.00813381743345,0.0196124627286,0.001,98.062313643,-5000.0,0.0,0.0,0.0
1513265725959661503,,564862,,1513265724,170063616,'',1.27409035396,1.29640177945,0.0457917474694,0.0223114254894,0.001,111.557127447,-5000.0,0.0,0.0,0.0
1513265725970021473,,564863,,1513265724,180063616,'',1.27409035396,1.29370281668,-0.0100311317695,0.0196124627286,0.001,98.062313643,-5000.0,0.0,0.0,0.0
1513265725979907285,,564864,,1513265724,190063616,'',1.27409035396,1.29370281668,-0.00975770673822,0.0196124627286,0.001,98.062313643,-5000.0,0.0,0.0,0.0
1513265725989890469,,564865,,1513265724,200063616,'',1.27409035396,1.29370281668,-0.00937962016744,0.0196124627286,0.001,98.062313643,-5000.0,0.0,0.0,0.0
1513265725999874895,,564866,,1513265724,210063616,'',1.27409035396,1.29505229806,0.0190691584328,0.020961944109,0.001,104.809720545,-5000.0,0.0,0.0,0.0
1513265726009917078,,564867,,1513265724,220063616,'',1.27409035396,1.29505229806,0.0199834320112,0.020961944109,0.001,104.809720545,-5000.0,0.0,0.0,0.0
1513265726019779322,,564868,,1513265724,230063616,'',1.27409035396,1.29370281668,-0.00594801832608,0.0196124627286,0.001,98.062313643,-5000.0,0.0,0.0,0.0
1513265726029755481,,564869,,1513265724,240063616,'',1.27409035396,1.29370281668,-0.00642204832518,0.0196124627286,0.001,98.062313643,-5000.0,0.0,0.0,0.0
1513265726039713525,,564870,,1513265724,250063616,'',1.27409035396,1.29370281668,-0.00669003313673,0.0196124627286,0.001,98.062313643,-5000.0,0.0,0.0,0.0
1513265726049612131,,564871,,1513265724,260063616,'',1.27409035396,1.29505229806,0.0198525097786,0.020961944109,0.001,104.809720545,-5000.0,0.0,0.0,0.0
1513265726060004321,,564872,,1513265724,270063616,'',1.27409035396,1.29505229806,0.0191141859904,0.020961944109,0.001,104.809720545,-5000.0,0.0,0.0,0.0
1513265726069786798,,564873,,1513265724,280063616,'',1.27409035396,1.29505229806,0.0191291606373,0.020961944109,0.001,104.809720545,-5000.0,0.0,0.0,0.0
1513265726079869055,,564874,,1513265724,290063616,'',1.27409035396,1.29370281668,-0.0086418308793,0.0196124627286,0.001,98.062313643,-5000.0,0.0,0.0,0.0
1513265726089782727,,564875,,1513265724,300063616,'',1.27409035396,1.2923533353,-0.0357319946359,0.0182629813482,0.001,91.3149067409,-5000.0,0.0,0.0,0.0
1513265726099669508,,564876,,1513265724,310063616,'',1.27409035396,1.29370281668,-0.008379430967,0.0196124627286,0.001,98.062313643,-5000.0,0.0,0.0,0.0
1513265726109636501,,564877,,1513265724,320063616,'',1.27409035396,1.29370281668,-0.00823558748537,0.0196124627286,0.001,98.062313643,-5000.0,0.0,0.0,0.0
1513265726119571431,,564878,,1513265724,330063616,'',1.27409035396,1.29370281668,-0.00919373016843,0.0196124627286,0.001,98.062313643,-5000.0,0.0,0.0,0.0
1513265726130000696,,564879,,1513265724,340063616,'',1.27409035396,1.29505229806,0.0181821623601,0.020961944109,0.001,104.809720545,-5000.0,0.0,0.0,0.0
1513265726139870570,,564880,,1513265724,350063616,'',1.27409035396,1.29370281668,-0.00889109482325,0.0196124627286,0.001,98.062313643,-5000.0,0.0,0.0,0.0
1513265726150012583,,564881,,1513265724,360063616,'',1.27409035396,1.29505229806,0.0180093404882,0.020961944109,0.001,104.809720545,-5000.0,0.0,0.0,0.0
1513265726159922587,,564882,,1513265724,370063616,'',1.27409035396,1.29505229806,0.018147704814,0.020961944109,0.001,104.809720545,-5000.0,0.0,0.0,0.0
1513265726169709086,,564883,,1513265724,380063616,'',1.27409035396,1.29505229806,0.0167863607044,0.020961944109,0.001,104.809720545,-5000.0,0.0,0.0,0.0
1513265726179646825,,564884,,1513265724,390063616,'',1.27409035396,1.29370281668,-0.0115385622592,0.0196124627286,0.001,98.062313643,-5000.0,0.0,0.0,0.0
