rosbagTimestamp,header,seq,stamp,secs,nsecs,frame_id,set_point,process_value,process_value_dot,error,time_step,command,p,i,d,i_clamp
1513265748800184618,,567152,,1513265747,10063616,'',0.366519142919,0.336380126354,-0.00374663641446,-0.030139016565,0.001,-197.06024786,-6500.0,0.0,-300.0,0.0
1513265748809976639,,567153,,1513265747,20063616,'',0.366519142919,0.336416789016,0.0145480406755,-0.0301023539027,0.001,-191.271441926,-6500.0,0.0,-300.0,0.0
1513265748820321575,,567154,,1513265747,30063616,'',0.366519142919,0.336442021714,-0.00499339597958,-0.0300771212051,0.001,-196.996289942,-6500.0,0.0,-300.0,0.0
1513265748830332942,,567155,,1513265747,40063616,'',0.366519142919,0.336482496169,0.0132137532033,-0.0300366467495,0.001,-191.361595621,-6500.0,0.0,-300.0,0.0
1513265748840233952,,567156,,1513265747,50063616,'',0.366519142919,0.336496358836,-0.00609097122156,-0.0300227840826,0.001,-196.976287238,-6500.0,0.0,-300.0,0.0
1513265748850155868,,567157,,1513265747,60063616,'',0.366519142919,0.336504066878,-0.00635789173995,-0.0300150760413,0.001,-196.973041622,-6500.0,0.0,-300.0,0.0
1513265748860040923,,567158,,1513265747,70063616,'',0.366519142919,0.33644813513,-0.00520500537506,-0.030071007789,0.001,-196.999541196,-6500.0,0.0,-300.0,0.0
1513265748870177159,,567159,,1513265747,80063616,'',0.366519142919,0.336452135607,-0.0052713597959,-0.0300670073116,0.001,-196.993410721,-6500.0,0.0,-300.0,0.0
1513265748880238648,,567160,,1513265747,90063616,'',0.366519142919,0.336458977993,-0.00539335592975,-0.0300601649254,0.001,-196.996639782,-6500.0,0.0,-300.0,0.0
1513265748890215318,,567161,,1513265747,100063616,'',0.366519142919,0.336429920416,0.0142315649261,-0.030089222503,0.001,-191.279584503,-6500.0,0.0,-300.0,0.0
1513265748900506796,,567162,,1513265747,110063616,'',0.366519142919,0.33642147008,-0.0046120492421,-0.0300976728392,0.001,-197.010457672,-6500.0,0.0,-300.0,0.0
1513265748910480016,,567163,,1513265747,120063616,'',0.366519142919,0.336451851582,0.013811840908,-0.0300672913365,0.001,-191.266348051,-6500.0,0.0,-300.0,0.0
1513265748920502520,,567164,,1513265747,130063616,'',0.366519142919,0.336442217164,0.0140163666546,-0.0300769257552,0.001,-191.346426311,-6500.0,0.0,-300.0,0.0
1513265748930421700,,567165,,1513265747,140063616,'',0.366519142919,0.336483143726,0.013194336124,-0.0300359991932,0.001,-191.24094157,-6500.0,0.0,-300.0,0.0
1513265748940186737,,567166,,1513265747,150063616,'',0.366519142919,0.3364649109,-0.00545525991235,-0.030054232019,0.001,-196.997783119,-6500.0,0.0,-300.0,0.0
1513265748950136898,,567167,,1513265747,160063616,'',0.366519142919,0.336431697844,-0.00478445764579,-0.0300874450751,0.001,-196.967344227,-6500.0,0.0,-300.0,0.0
1513265748960121762,,567168,,1513265747,170063616,'',0.366519142919,0.336404284546,-0.00423089261428,-0.0301148583724,0.001,-197.024194016,-6500.0,0.0,-300.0,0.0
1513265748970194018,,567169,,1513265747,180063616,'',0.366519142919,0.336417055718,-0.00448233605365,-0.0301020872012,0.001,-197.0135577,-6500.0,0.0,-300.0,0.0
1513265748980600149,,567170,,1513265747,190063616,'',0.366519142919,0.336461987861,0.0136200193775,-0.0300571550583,0.001,-191.258196336,-6500.0,0.0,-300.0,0.0
1513265748990329957,,567171,,1513265747,200063616,'',0.366519142919,0.336431409941,-0.00478397661131,-0.030087732978,0.001,-196.97198128,-6500.0,0.0,-300.0,0.0
1513265749000184364,,567172,,1513265747,210063616,'',0.366519142919,0.336424621401,-0.00464747508595,-0.0300945215176,0.001,-197.01217581,-6500.0,0.0,-300.0,0.0
1513265749010113194,,567173,,1513265747,220063616,'',0.366519142919,0.336468596655,0.0134929774675,-0.0300505462643,0.001,-191.250610344,-6500.0,0.0,-300.0,0.0
1513265749020153948,,567174,,1513265747,230063616,'',0.366519142919,0.336470182336,-0.00555674323131,-0.030048960583,0.001,-196.951652121,-6500.0,0.0,-300.0,0.0
1513265749030586393,,567175,,1513265747,240063616,'',0.366519142919,0.336502767185,-0.00621721913936,-0.0300163757339,0.001,-196.93056332,-6500.0,0.0,-300.0,0.0
1513265749040022231,,567176,,1513265747,250063616,'',0.366519142919,0.336514141826,-0.0064492610054,-0.0300050010931,0.001,-196.97484309,-6500.0,0.0,-300.0,0.0
1513265749050415689,,567177,,1513265747,260063616,'',0.366519142919,0.336541790843,0.0120152013211,-0.0299773520759,0.001,-191.225525582,-6500.0,0.0,-300.0,0.0
1513265749060411592,,567178,,1513265747,270063616,'',0.366519142919,0.336497566412,0.0129108804291,-0.0300215765067,0.001,-191.254835845,-6500.0,0.0,-300.0,0.0
1513265749070357401,,567179,,1513265747,280063616,'',0.366519142919,0.336510209362,-0.00636375669575,-0.0300089335567,0.001,-196.931894557,-6500.0,0.0,-300.0,0.0
1513265749080380234,,567180,,1513265747,290063616,'',0.366519142919,0.336503719098,-0.00623548772442,-0.0300154238204,0.001,-196.980832843,-6500.0,0.0,-300.0,0.0
1513265749090221382,,567181,,1513265747,300063616,'',0.366519142919,0.336531909867,-0.00680790447689,-0.0299872330515,0.001,-196.916172341,-6500.0,0.0,-300.0,0.0
1513265749100183489,,567182,,1513265747,310063616,'',0.366519142919,0.336524232353,0.0123656931625,-0.0299949105655,0.001,-191.315023441,-6500.0,0.0,-300.0,0.0
1513265749110251280,,567183,,1513265747,320063616,'',0.366519142919,0.336536036706,0.0121272910014,-0.0299831062126,0.001,-191.312115068,-6500.0,0.0,-300.0,0.0
1513265749120512263,,567184,,1513265747,330063616,'',0.366519142919,0.336507542067,-0.00632252679456,-0.0300116008516,0.001,-196.973399363,-6500.0,0.0,-300.0,0.0
1513265749130490039,,567185,,1513265747,340063616,'',0.366519142919,0.336504838285,0.0127556186648,-0.0300143046341,0.001,-191.251731433,-6500.0,0.0,-300.0,0.0
1513265749140502659,,567186,,1513265747,350063616,'',0.366519142919,0.33651761228,0.0124885711554,-0.0300015306388,0.001,-191.387323885,-6500.0,0.0,-300.0,0.0
1513265749150386583,,567187,,1513265747,360063616,'',0.366519142919,0.336527033735,0.0122971966909,-0.0299921091834,0.001,-191.246709619,-6500.0,0.0,-300.0,0.0
1513265749160329779,,567188,,1513265747,370063616,'',0.366519142919,0.336514621556,-0.00647455071817,-0.0300045213629,0.001,-196.960682718,-6500.0,0.0,-300.0,0.0
1513265749170250903,,567189,,1513265747,380063616,'',0.366519142919,0.336491789018,-0.00600188517552,-0.030027353901,0.001,-196.983398749,-6500.0,0.0,-300.0,0.0
1513265749180166706,,567190,,1513265747,390063616,'',0.366519142919,0.336509210604,0.0126769599815,-0.0300099323153,0.001,-191.242530819,-6500.0,0.0,-300.0,0.0
1513265749190170760,,567191,,1513265747,400063616,'',0.366519142919,0.336487906806,0.0131120201825,-0.0300312361124,0.001,-191.271281005,-6500.0,0.0,-300.0,0.0
1513265749200242399,,567192,,1513265747,410063616,'',0.366519142919,0.336451659459,-0.00517469154475,-0.0300674834601,0.001,-196.962230589,-6500.0,0.0,-300.0,0.0
1513265749210197644,,567193,,1513265747,420063616,'',0.366519142919,0.336456841419,-0.00528177754753,-0.0300623014997,0.001,-196.995976905,-6500.0,0.0,-300.0,0.0
1513265749220036648,,567194,,1513265747,430063616,'',0.366519142919,0.336409468038,-0.00432392154574,-0.0301096748805,0.001,-197.015371219,-6500.0,0.0,-300.0,0.0
1513265749230453291,,567195,,1513265747,440063616,'',0.366519142919,0.336441300389,0.0140577231167,-0.0300778425298,0.001,-191.283935386,-6500.0,0.0,-300.0,0.0
1513265749240375176,,567196,,1513265747,450063616,'',0.366519142919,0.336428701187,-0.00470858316545,-0.0300904417313,0.001,-197.007497309,-6500.0,0.0,-300.0,0.0
1513265749250305404,,567197,,1513265747,460063616,'',0.366519142919,0.336485692994,-0.00586580040797,-0.0300334499245,0.001,-196.936336011,-6500.0,0.0,-300.0,0.0
1513265749260439825,,567198,,1513265747,470063616,'',0.366519142919,0.336501839238,-0.00619536866462,-0.0300173036805,0.001,-196.979342939,-6500.0,0.0,-300.0,0.0
1513265749270330871,,567199,,1513265747,480063616,'',0.366519142919,0.3364463198,-0.00507212215843,-0.030072823119,0.001,-196.997357118,-6500.0,0.0,-300.0,0.0
1513265749280187857,,567200,,1513265747,490063616,'',0.366519142919,0.336452043464,-0.00519416992204,-0.0300670994544,0.001,-196.997941153,-6500.0,0.0,-300.0,0.0
1513265749290173495,,567201,,1513265747,500063616,'',0.366519142919,0.336492581905,-0.00600983515228,-0.0300265610139,0.001,-196.939744616,-6500.0,0.0,-300.0,0.0
1513265749300059024,,567202,,1513265747,510063616,'',0.366519142919,0.336472669562,-0.0056085353118,-0.0300464733566,0.001,-196.984240287,-6500.0,0.0,-300.0,0.0
1513265749310038998,,567203,,1513265747,520063616,'',0.366519142919,0.336458758447,0.013703049053,-0.0300603844719,0.001,-191.275364676,-6500.0,0.0,-300.0,0.0
1513265749320094883,,567204,,1513265747,530063616,'',0.366519142919,0.336494518372,-0.00604398039596,-0.0300246245472,0.001,-196.982733579,-6500.0,0.0,-300.0,0.0
1513265749330518561,,567205,,1513265747,540063616,'',0.366519142919,0.336476476787,-0.00567784359003,-0.0300426661319,0.001,-196.976051171,-6500.0,0.0,-300.0,0.0
1513265749340013159,,567206,,1513265747,550063616,'',0.366519142919,0.336460105957,-0.00534172745163,-0.030059036962,0.001,-196.996570632,-6500.0,0.0,-300.0,0.0
1513265749350464707,,567207,,1513265747,560063616,'',0.366519142919,0.336448493911,-0.0051042028997,-0.0300706490075,0.001,-197.007145547,-6500.0,0.0,-300.0,0.0
1513265749360518990,,567208,,1513265747,570063616,'',0.366519142919,0.336420333191,-0.00453182484828,-0.0300988097275,0.001,-197.015187053,-6500.0,0.0,-300.0,0.0
1513265749370500730,,567209,,1513265747,580063616,'',0.366519142919,0.336466606666,-0.0054646423579,-0.0300525362531,0.001,-196.95559882,-6500.0,0.0,-300.0,0.0
1513265749380461040,,567210,,1513265747,590063616,'',0.366519142919,0.336435382029,0.0141811365673,-0.0300837608902,0.001,-191.458546189,-6500.0,0.0,-300.0,0.0
1513265749390414945,,567211,,1513265747,600063616,'',0.366519142919,0.336442928926,-0.00499898113943,-0.0300762139931,0.001,-196.998423958,-6500.0,0.0,-300.0,0.0
1513265749400630867,,567212,,1513265747,610063616,'',0.366519142919,0.336447759432,-0.00509041020642,-0.0300713834868,0.001,-197.001167081,-6500.0,0.0,-300.0,0.0
1513265749410216441,,567213,,1513265747,620063616,'',0.366519142919,0.336420540111,-0.00453664439507,-0.0300986028074,0.001,-196.98064254,-6500.0,0.0,-300.0,0.0
1513265749420191110,,567214,,1513265747,630063616,'',0.366519142919,0.336467120008,0.0135506743574,-0.0300520229105,0.001,-191.256095273,-6500.0,0.0,-300.0,0.0
1513265749430251699,,567215,,1513265747,640063616,'',0.366519142919,0.336452260554,-0.00517496372885,-0.0300668823649,0.001,-196.992982817,-6500.0,0.0,-300.0,0.0
1513265749440304302,,567216,,1513265747,650063616,'',0.366519142919,0.336474830096,-0.0056346710937,-0.0300443128228,0.001,-197.000839156,-6500.0,0.0,-300.0,0.0
1513265749450211770,,567217,,1513265747,660063616,'',0.366519142919,0.336476756755,0.01334558988,-0.0300423861638,0.001,-191.263719629,-6500.0,0.0,-300.0,0.0
1513265749460278132,,567218,,1513265747,670063616,'',0.366519142919,0.336509895996,0.0126703422745,-0.0300092469229,0.001,-191.314578618,-6500.0,0.0,-300.0,0.0
1513265749470140441,,567219,,1513265747,680063616,'',0.366519142919,0.336519545444,0.012473321093,-0.0299995974747,0.001,-191.238239474,-6500.0,0.0,-300.0,0.0
1513265749480132048,,567220,,1513265747,690063616,'',0.366519142919,0.336531498294,0.0122333380104,-0.0299876446244,0.001,-191.233276283,-6500.0,0.0,-300.0,0.0
1513265749490162313,,567221,,1513265747,700063616,'',0.366519142919,0.336518834528,-0.00653082700329,-0.0300003083913,0.001,-196.966823424,-6500.0,0.0,-300.0,0.0
1513265749500049447,,567222,,1513265747,710063616,'',0.366519142919,0.336494594947,-0.00604080535302,-0.0300245479722,0.001,-196.93689381,-6500.0,0.0,-300.0,0.0
1513265749510026303,,567223,,1513265747,720063616,'',0.366519142919,0.33649070027,-0.00595053902183,-0.0300284426492,0.001,-196.982115341,-6500.0,0.0,-300.0,0.0
1513265749520004561,,567224,,1513265747,730063616,'',0.366519142919,0.336522088683,-0.00658620685127,-0.0299970542357,0.001,-196.973077255,-6500.0,0.0,-300.0,0.0
1513265749530514924,,567225,,1513265747,740063616,'',0.366519142919,0.336531602356,0.0122432562175,-0.0299875405627,0.001,-191.22527608,-6500.0,0.0,-300.0,0.0
1513265749540499441,,567226,,1513265747,750063616,'',0.366519142919,0.336488441179,-0.00591097545364,-0.0300307017397,0.001,-196.947146368,-6500.0,0.0,-300.0,0.0
1513265749550363489,,567227,,1513265747,760063616,'',0.366519142919,0.336451649699,-0.00516457311046,-0.0300674932201,0.001,-196.96186243,-6500.0,0.0,-300.0,0.0
1513265749560157555,,567228,,1513265747,770063616,'',0.366519142919,0.336454313887,-0.00523370215906,-0.030064829032,0.001,-196.997389242,-6500.0,0.0,-300.0,0.0
1513265749570064531,,567229,,1513265747,780063616,'',0.366519142919,0.336407398877,-0.00428456468034,-0.0301117440421,0.001,-197.019000345,-6500.0,0.0,-300.0,0.0
1513265749580090579,,567230,,1513265747,790063616,'',0.366519142919,0.336402611189,-0.0041892583383,-0.0301165317296,0.001,-196.987671633,-6500.0,0.0,-300.0,0.0
1513265749590482919,,567231,,1513265747,800063616,'',0.366519142919,0.336419130422,-0.00452092506984,-0.0301000124973,0.001,-197.007500859,-6500.0,0.0,-300.0,0.0
1513265749600508453,,567232,,1513265747,810063616,'',0.366519142919,0.336446144106,-0.00506670408405,-0.030072998813,0.001,-196.970012681,-6500.0,0.0,-300.0,0.0
1513265749610403465,,567233,,1513265747,820063616,'',0.366519142919,0.336466812837,-0.00548519652979,-0.0300523300814,0.001,-196.958652011,-6500.0,0.0,-300.0,0.0
1513265749620301383,,567234,,1513265747,830063616,'',0.366519142919,0.336468791831,-0.0055314765616,-0.0300503510881,0.001,-196.995869197,-6500.0,0.0,-300.0,0.0
1513265749630270829,,567235,,1513265747,840063616,'',0.366519142919,0.33645536075,0.0137683080868,-0.0300637821685,0.001,-191.240005253,-6500.0,0.0,-300.0,0.0
1513265749640275911,,567236,,1513265747,850063616,'',0.366519142919,0.336443007756,0.0140242104099,-0.0300761351632,0.001,-191.261912946,-6500.0,0.0,-300.0,0.0
1513265749650250449,,567237,,1513265747,860063616,'',0.366519142919,0.336416472802,-0.00446604213703,-0.0301026701164,0.001,-197.020885175,-6500.0,0.0,-300.0,0.0
1513265749660399750,,567238,,1513265747,870063616,'',0.366519142919,0.336394553597,-0.00402538002706,-0.0301245893215,0.001,-197.019154253,-6500.0,0.0,-300.0,0.0
1513265749670237881,,567239,,1513265747,880063616,'',0.366519142919,0.33639560496,0.0149795753285,-0.0301235379587,0.001,-191.279959924,-6500.0,0.0,-300.0,0.0
1513265749680036655,,567240,,1513265747,890063616,'',0.366519142919,0.336411623796,-0.0043713476994,-0.0301075191228,0.001,-197.013227584,-6500.0,0.0,-300.0,0.0
1513265749690089887,,567241,,1513265747,900063616,'',0.366519142919,0.336420361183,-0.00454577693092,-0.0300987817362,0.001,-197.013863949,-6500.0,0.0,-300.0,0.0
1513265749700526593,,567242,,1513265747,910063616,'',0.366519142919,0.336465889064,-0.00546384492564,-0.0300532538551,0.001,-196.95756617,-6500.0,0.0,-300.0,0.0
1513265749710429904,,567243,,1513265747,920063616,'',0.366519142919,0.336502558862,0.01282503832,-0.0300165840573,0.001,-191.252704535,-6500.0,0.0,-300.0,0.0
1513265749720456231,,567244,,1513265747,930063616,'',0.366519142919,0.336516273521,0.0125431058967,-0.0300028693979,0.001,-191.232346225,-6500.0,0.0,-300.0,0.0
1513265749730227874,,567245,,1513265747,940063616,'',0.366519142919,0.336476883159,0.0133397713336,-0.0300422597595,0.001,-191.248242378,-6500.0,0.0,-300.0,0.0
1513265749740242114,,567246,,1513265747,950063616,'',0.366519142919,0.336475833199,0.0133609363608,-0.0300433097201,0.001,-191.261217528,-6500.0,0.0,-300.0,0.0
1513265749750124889,,567247,,1513265747,960063616,'',0.366519142919,0.33644071543,-0.00495791395819,-0.0300784274884,0.001,-196.965383575,-6500.0,0.0,-300.0,0.0
1513265749760195532,,567248,,1513265747,970063616,'',0.366519142919,0.336448399445,0.0139178657077,-0.0300707434734,0.001,-191.255714801,-6500.0,0.0,-300.0,0.0
1513265749770202874,,567249,,1513265747,980063616,'',0.366519142919,0.336435458011,-0.00484914285407,-0.0300836849081,0.001,-197.0005305,-6500.0,0.0,-300.0,0.0
1513265749780085283,,567250,,1513265747,990063616,'',0.366519142919,0.336459663664,-0.00532112056503,-0.0300594792544,0.001,-196.993279951,-6500.0,0.0,-300.0,0.0
1513265749790616480,,567251,,1513265748,63616,'',0.366519142919,0.336465915658,0.0135871614039,-0.0300532272607,0.001,-191.264428028,-6500.0,0.0,-300.0,0.0
1513265749800476435,,567252,,1513265748,10063616,'',0.366519142919,0.336485905476,-0.00584342110913,-0.0300332374431,0.001,-196.939601763,-6500.0,0.0,-300.0,0.0
1513265749810305067,,567253,,1513265748,20063616,'',0.366519142919,0.336504646677,0.0128030609772,-0.0300144962415,0.001,-191.244425901,-6500.0,0.0,-300.0,0.0
1513265749820270424,,567254,,1513265748,30063616,'',0.366519142919,0.336501812462,0.0128547536517,-0.0300173304568,0.001,-191.253950711,-6500.0,0.0,-300.0,0.0
1513265749830164037,,567255,,1513265748,40063616,'',0.366519142919,0.336497262778,-0.00608021368414,-0.0300218801412,0.001,-196.975906616,-6500.0,0.0,-300.0,0.0
1513265749840163069,,567256,,1513265748,50063616,'',0.366519142919,0.336491981139,-0.0059827459597,-0.0300271617799,0.001,-196.983321218,-6500.0,0.0,-300.0,0.0
1513265749850156150,,567257,,1513265748,60063616,'',0.366519142919,0.336521095578,-0.00657162638692,-0.029998047341,0.001,-196.961596136,-6500.0,0.0,-300.0,0.0
1513265749860171661,,567258,,1513265748,70063616,'',0.366519142919,0.3365128625,-0.00640201714894,-0.0300062804193,0.001,-196.973042287,-6500.0,0.0,-300.0,0.0
1513265749870424644,,567259,,1513265748,80063616,'',0.366519142919,0.336490989639,0.0130677673373,-0.0300281532802,0.001,-191.257643514,-6500.0,0.0,-300.0,0.0
1513265749880366106,,567260,,1513265748,90063616,'',0.366519142919,0.336473468476,0.0134217556852,-0.0300456744432,0.001,-191.26899899,-6500.0,0.0,-300.0,0.0
1513265749890297720,,567261,,1513265748,100063616,'',0.366519142919,0.336490361733,0.0130786267786,-0.0300287811862,0.001,-191.34098789,-6500.0,0.0,-300.0,0.0
1513265749900249822,,567262,,1513265748,110063616,'',0.366519142919,0.336455623036,0.0137781518036,-0.030063519883,0.001,-191.268761931,-6500.0,0.0,-300.0,0.0
1513265749910189056,,567263,,1513265748,120063616,'',0.366519142919,0.336459297003,-0.00532436668713,-0.030059845916,0.001,-196.990353473,-6500.0,0.0,-300.0,0.0
1513265749920239338,,567264,,1513265748,130063616,'',0.366519142919,0.3364271505,-0.00467145216707,-0.0300919924191,0.001,-197.006780418,-6500.0,0.0,-300.0,0.0
1513265749930140792,,567265,,1513265748,140063616,'',0.366519142919,0.336436872817,-0.00483883930772,-0.0300822701014,0.001,-196.90105095,-6500.0,0.0,-300.0,0.0
1513265749940132100,,567266,,1513265748,150063616,'',0.366519142919,0.336425892448,-0.00461780495668,-0.030093250471,0.001,-197.043946504,-6500.0,0.0,-300.0,0.0
1513265749950052425,,567267,,1513265748,160063616,'',0.366519142919,0.336400448041,-0.00411401194342,-0.0301186948773,0.001,-197.004117604,-6500.0,0.0,-300.0,0.0
1513265749960559852,,567268,,1513265748,170063616,'',0.366519142919,0.33645045462,0.0139025777943,-0.0300686882989,0.001,-191.249884436,-6500.0,0.0,-300.0,0.0
1513265749970398837,,567269,,1513265748,180063616,'',0.366519142919,0.336473401484,0.0134254477908,-0.0300457414344,0.001,-191.26127598,-6500.0,0.0,-300.0,0.0
1513265749980337861,,567270,,1513265748,190063616,'',0.366519142919,0.336473997339,-0.00561047702971,-0.03004514558,0.001,-196.994235611,-6500.0,0.0,-300.0,0.0
1513265749990280419,,567271,,1513265748,200063616,'',0.366519142919,0.336441525885,-0.00495346424387,-0.0300776170334,0.001,-196.999016782,-6500.0,0.0,-300.0,0.0
1513265750000281004,,567272,,1513265748,210063616,'',0.366519142919,0.336412501637,-0.00436909896265,-0.0301066412816,0.001,-197.022360232,-6500.0,0.0,-300.0,0.0
1513265750010135407,,567273,,1513265748,220063616,'',0.366519142919,0.336408483546,-0.00429516139486,-0.0301106593733,0.001,-197.010803403,-6500.0,0.0,-300.0,0.0
1513265750020062436,,567274,,1513265748,230063616,'',0.366519142919,0.336436121204,0.0141703297467,-0.0300830217153,0.001,-191.281067222,-6500.0,0.0,-300.0,0.0
1513265750030445503,,567275,,1513265748,240063616,'',0.366519142919,0.336427460033,0.01433876032,-0.0300916828858,0.001,-191.384202803,-6500.0,0.0,-300.0,0.0
1513265750040431397,,567276,,1513265748,250063616,'',0.366519142919,0.336484916996,-0.00584625200663,-0.0300342259228,0.001,-196.98448297,-6500.0,0.0,-300.0,0.0
1513265750050200778,,567277,,1513265748,260063616,'',0.366519142919,0.336464108972,-0.00542458271068,-0.0300550339469,0.001,-196.993001622,-6500.0,0.0,-300.0,0.0
1513265750060193464,,567278,,1513265748,270063616,'',0.366519142919,0.33645006022,-0.00514124938655,-0.0300690826993,0.001,-196.999124453,-6500.0,0.0,-300.0,0.0
1513265750070065498,,567279,,1513265748,280063616,'',0.366519142919,0.33642021703,-0.0045452858227,-0.0300989258888,0.001,-196.978196851,-6500.0,0.0,-300.0,0.0
1513265750080587408,,567280,,1513265748,290063616,'',0.366519142919,0.336396128138,-0.00405354294308,-0.0301230147806,0.001,-197.02229578,-6500.0,0.0,-300.0,0.0
1513265750090465875,,567281,,1513265748,300063616,'',0.366519142919,0.336396231005,0.0149673086564,-0.0301229119134,0.001,-191.252663687,-6500.0,0.0,-300.0,0.0
1513265750100367232,,567282,,1513265748,310063616,'',0.366519142919,0.33646381351,0.0135990966404,-0.0300553294089,0.001,-191.149285093,-6500.0,0.0,-300.0,0.0
1513265750110377460,,567283,,1513265748,320063616,'',0.366519142919,0.33646415972,-0.00543461251411,-0.030054983199,0.001,-196.984750247,-6500.0,0.0,-300.0,0.0
1513265750120435748,,567284,,1513265748,330063616,'',0.366519142919,0.336449860323,-0.00514711125803,-0.0300692825961,0.001,-197.001803629,-6500.0,0.0,-300.0,0.0
1513265750130434080,,567285,,1513265748,340063616,'',0.366519142919,0.336438117001,-0.00490636584993,-0.0300810259182,0.001,-197.003642545,-6500.0,0.0,-300.0,0.0
1513265750140398630,,567286,,1513265748,350063616,'',0.366519142919,0.33644621073,-0.00505842990187,-0.0300729321888,0.001,-196.997037303,-6500.0,0.0,-300.0,0.0
1513265750150271582,,567287,,1513265748,360063616,'',0.366519142919,0.336417658434,-0.00448564749163,-0.0301014844847,0.001,-197.013314471,-6500.0,0.0,-300.0,0.0
1513265750160116726,,567288,,1513265748,370063616,'',0.366519142919,0.336444571146,-0.0050273950818,-0.0300745717724,0.001,-196.967578257,-6500.0,0.0,-300.0,0.0
1513265750170111019,,567289,,1513265748,380063616,'',0.366519142919,0.336417779837,-0.00448634077531,-0.0301013630822,0.001,-197.009374407,-6500.0,0.0,-300.0,0.0
1513265750180046445,,567290,,1513265748,390063616,'',0.366519142919,0.336462797415,0.0136371216032,-0.030056345504,0.001,-191.265741023,-6500.0,0.0,-300.0,0.0
1513265750190534263,,567291,,1513265748,400063616,'',0.366519142919,0.336429967524,-0.00472200367355,-0.0300891753952,0.001,-197.035716635,-6500.0,0.0,-300.0,0.0
1513265750200469926,,567292,,1513265748,410063616,'',0.366519142919,0.336423234795,-0.00459248763099,-0.0300959081235,0.001,-196.974860754,-6500.0,0.0,-300.0,0.0
1513265750210437597,,567293,,1513265748,420063616,'',0.366519142919,0.336502770706,0.0128297040265,-0.0300163722125,0.001,-191.431276241,-6500.0,0.0,-300.0,0.0
1513265750220364751,,567294,,1513265748,430063616,'',0.366519142919,0.336726218298,0.0463638600203,-0.0297929246204,0.001,-179.67867503,-6500.0,0.0,-300.0,0.0
1513265750230283694,,567295,,1513265748,440063616,'',0.366519142919,0.337183628334,0.0561456035137,-0.0293355145849,0.001,-173.78818792,-6500.0,0.0,-300.0,0.0
1513265750240345884,,567296,,1513265748,450063616,'',0.366519142919,0.338036563692,0.0959847530478,-0.0284825792271,0.001,-156.164861628,-6500.0,0.0,-300.0,0.0
1513265750250211749,,567297,,1513265748,460063616,'',0.366519142919,0.33914401094,0.111660951851,-0.0273751319788,0.001,-145.355457604,-6500.0,0.0,-300.0,0.0
1513265750260367051,,567298,,1513265748,470063616,'',0.366519142919,0.340495341839,0.141433784833,-0.0260238010796,0.001,-126.473687131,-6500.0,0.0,-300.0,0.0
1513265750270172926,,567299,,1513265748,480063616,'',0.366519142919,0.341953790922,0.150017481135,-0.0245653519966,0.001,-115.486402398,-6500.0,0.0,-300.0,0.0
1513265750280123268,,567300,,1513265748,490063616,'',0.366519142919,0.34319774831,0.124888480623,-0.0233213946084,0.001,-113.972959584,-6500.0,0.0,-300.0,0.0
1513265750290485907,,567301,,1513265748,500063616,'',0.366519142919,0.344336420179,0.101888928236,-0.0221827227399,0.001,-113.559033883,-6500.0,0.0,-300.0,0.0
1513265750300451976,,567302,,1513265748,510063616,'',0.366519142919,0.345287065316,0.0826773604062,-0.0212320776027,0.001,-112.956067099,-6500.0,0.0,-300.0,0.0
1513265750310420406,,567303,,1513265748,520063616,'',0.366519142919,0.346097412854,0.0853220497698,-0.0204217300649,0.001,-107.605822272,-6500.0,0.0,-300.0,0.0
1513265750320456605,,567304,,1513265748,530063616,'',0.366519142919,0.346900163967,0.0881279855612,-0.0196189789517,0.001,-100.9179381,-6500.0,0.0,-300.0,0.0
1513265750330447328,,567305,,1513265748,540063616,'',0.366519142919,0.347763394795,0.089720567629,-0.0187557481236,0.001,-94.8347740572,-6500.0,0.0,-300.0,0.0
1513265750340243073,,567306,,1513265748,550063616,'',0.366519142919,0.348691227565,0.0899989355788,-0.0178279153542,0.001,-88.8232164002,-6500.0,0.0,-300.0,0.0
1513265750350214414,,567307,,1513265748,560063616,'',0.366519142919,0.34974388841,0.106777698204,-0.0167752545085,0.001,-76.9663280293,-6500.0,0.0,-300.0,0.0
1513265750360227277,,567308,,1513265748,570063616,'',0.366519142919,0.350805449109,0.104396984738,-0.0157136938096,0.001,-71.4641815054,-6500.0,0.0,-300.0,0.0
1513265750370262446,,567309,,1513265748,580063616,'',0.366519142919,0.351761214462,0.104109148218,-0.0147579284569,0.001,-64.5155779471,-6500.0,0.0,-300.0,0.0
1513265750380126450,,567310,,1513265748,590063616,'',0.366519142919,0.352664500988,0.0858537772682,-0.0138546419309,0.001,-63.6051763359,-6500.0,0.0,-300.0,0.0
1513265750390534226,,567311,,1513265748,600063616,'',0.366519142919,0.353520757254,0.0875773691834,-0.0129983856646,0.001,-58.1971867285,-6500.0,0.0,-300.0,0.0
1513265750400441233,,567312,,1513265748,610063616,'',0.366519142919,0.35428852828,0.072062028811,-0.0122306146392,0.001,-58.233341211,-6500.0,0.0,-300.0,0.0
1513265750410471365,,567313,,1513265748,620063616,'',0.366519142919,0.355038684612,0.075934652188,-0.0114804583065,0.001,-51.7270537228,-6500.0,0.0,-300.0,0.0
1513265750420337529,,567314,,1513265748,630063616,'',0.366519142919,0.355861635404,0.0783362959308,-0.0106575075147,0.001,-45.6373200338,-6500.0,0.0,-300.0,0.0
1513265750430269687,,567315,,1513265748,640063616,'',0.366519142919,0.356753973526,0.0983531307334,-0.00976516939297,0.001,-33.9085539664,-6500.0,0.0,-300.0,0.0
1513265750440265496,,567316,,1513265748,650063616,'',0.366519142919,0.357656758172,0.0991380643651,-0.00886238474715,0.001,-27.6607255234,-6500.0,0.0,-300.0,0.0
1513265750450062435,,567317,,1513265748,660063616,'',0.366519142919,0.358546520404,0.0811623665036,-0.00797262251431,0.001,-27.3537623999,-6500.0,0.0,-300.0,0.0
1513265750460503263,,567318,,1513265748,670063616,'',0.366519142919,0.359415136724,0.0826386290964,-0.00710400619484,0.001,-22.342639383,-6500.0,0.0,-300.0,0.0
1513265750470439512,,567319,,1513265748,680063616,'',0.366519142919,0.360189944416,0.0669889138554,-0.00632919850262,0.001,-21.4484572812,-6500.0,0.0,-300.0,0.0
1513265750480324816,,567320,,1513265748,690063616,'',0.366519142919,0.360948421433,0.0706855300587,-0.005570721486,0.001,-14.8735597972,-6500.0,0.0,-300.0,0.0
1513265750490193472,,567321,,1513265748,700063616,'',0.366519142919,0.361722217892,0.0740798777431,-0.00479692502687,0.001,-9.00183071595,-6500.0,0.0,-300.0,0.0
1513265750500045338,,567322,,1513265748,710063616,'',0.366519142919,0.362510284863,0.0771839704478,-0.00400885805622,0.001,-2.81063651654,-6500.0,0.0,-300.0,0.0
1513265750510124368,,567323,,1513265748,720063616,'',0.366519142919,0.363341093144,0.079424305282,-0.00317804977471,0.001,2.78835472869,-6500.0,0.0,-300.0,0.0
1513265750520482824,,567324,,1513265748,730063616,'',0.366519142919,0.36417641012,0.081575801258,-0.00234273279899,0.001,9.34154145434,-6500.0,0.0,-300.0,0.0
1513265750530428267,,567325,,1513265748,740063616,'',0.366519142919,0.365014557685,0.0836643106617,-0.00150458523359,0.001,15.3411657926,-6500.0,0.0,-300.0,0.0
1513265750540569837,,567326,,1513265748,750063616,'',0.366519142919,0.365905406708,0.103714400959,-0.000613736211206,0.001,27.2874678292,-6500.0,0.0,-300.0,0.0
1513265750550441968,,567327,,1513265748,760063616,'',0.366519142919,0.36671940416,0.0872697413585,0.0,0.001,0.0,-6500.0,0.0,-300.0,0.0
1513265750560499747,,567328,,1513265748,770063616,'',0.366519142919,0.36748637298,0.0717797382619,0.0,0.001,0.0,-6500.0,0.0,-300.0,0.0
1513265750570422629,,567329,,1513265748,780063616,'',0.366519142919,0.368182798999,0.0577083048325,0.0,0.001,0.0,-6500.0,0.0,-300.0,0.0
1513265750580493154,,567330,,1513265748,790063616,'',0.366519142919,0.368873299604,0.0627781249321,0.0,0.001,0.0,-6500.0,0.0,-300.0,0.0
1513265750590330139,,567331,,1513265748,800063616,'',0.366519142919,0.369455310734,0.0510218689214,0.0,0.001,0.0,-6500.0,0.0,-300.0,0.0
1513265750600383451,,567332,,1513265748,810063616,'',0.366519142919,0.370051507704,0.0580067063316,0.0,0.001,0.0,-6500.0,0.0,-300.0,0.0
1513265750610179189,,567333,,1513265748,820063616,'',0.366519142919,0.370659907611,0.0647408660575,0.0,0.001,0.0,-6500.0,0.0,-300.0,0.0
1513265750620163849,,567334,,1513265748,830063616,'',0.366519142919,0.371225274351,0.0533190265802,0.0,0.001,0.0,-6500.0,0.0,-300.0,0.0
1513265750630391368,,567335,,1513265748,840063616,'',0.366519142919,0.371737632381,0.0429653388718,0.0,0.001,0.0,-6500.0,0.0,-300.0,0.0
1513265750640437656,,567336,,1513265748,850063616,'',0.366519142919,0.372275728568,0.0511205598825,0.0,0.001,0.0,-6500.0,0.0,-300.0,0.0
1513265750650248642,,567337,,1513265748,860063616,'',0.366519142919,0.372809518261,0.0593783558078,0.0,0.001,0.0,-6500.0,0.0,-300.0,0.0
1513265750660255053,,567338,,1513265748,870063616,'',0.366519142919,0.373339576255,0.0486675456254,0.0,0.001,0.0,-6500.0,0.0,-300.0,0.0
1513265750670114355,,567339,,1513265748,880063616,'',0.366519142919,0.373811575856,0.0391275163433,0.0,0.001,0.0,-6500.0,0.0,-300.0,0.0
1513265750680544664,,567340,,1513265748,890063616,'',0.366519142919,0.374229598161,0.0306771382889,0.0,0.001,0.0,-6500.0,0.0,-300.0,0.0
1513265750690439363,,567341,,1513265748,900063616,'',0.366519142919,0.374675790754,0.0406888251286,0.0,0.001,0.0,-6500.0,0.0,-300.0,0.0
1513265750700499676,,567342,,1513265748,910063616,'',0.366519142919,0.375058319049,0.0329634478515,0.0,0.001,0.0,-6500.0,0.0,-300.0,0.0
1513265750710389415,,567343,,1513265748,920063616,'',0.366519142919,0.375372149497,0.0266219773698,0.0,0.001,0.0,-6500.0,0.0,-300.0,0.0
1513265750720288887,,567344,,1513265748,930063616,'',0.366519142919,0.375663684871,0.039755202476,0.0,0.001,0.0,-6500.0,0.0,-300.0,0.0
1513265750730250369,,567345,,1513265748,940063616,'',0.366519142919,0.375987926091,0.0331971845406,0.0,0.001,0.0,-6500.0,0.0,-300.0,0.0
1513265750740185688,,567346,,1513265748,950063616,'',0.366519142919,0.376285397961,0.0271887644813,0.0,0.001,0.0,-6500.0,0.0,-300.0,0.0
1513265750750349858,,567347,,1513265748,960063616,'',0.366519142919,0.376547811642,0.0409089599977,0.0,0.001,0.0,-6500.0,0.0,-300.0,0.0
1513265750760214476,,567348,,1513265748,970063616,'',0.366519142919,0.376798295073,0.0358441502384,0.0,0.001,0.0,-6500.0,0.0,-300.0,0.0
1513265750770257569,,567349,,1513265748,980063616,'',0.366519142919,0.377032800743,0.0120861276616,0.0,0.001,0.0,-6500.0,0.0,-300.0,0.0
1513265750780554250,,567350,,1513265748,990063616,'',0.366519142919,0.377292997924,0.0258499139602,0.0107738550055,0.001,77.7974642114,-6500.0,0.0,-300.0,0.0
1513265750790460514,,567351,,1513265749,63616,'',0.366519142919,0.377524766866,0.0211700786469,0.0110056239467,0.001,77.7876090618,-6500.0,0.0,-300.0,0.0
1513265750800353402,,567352,,1513265749,10063616,'',0.366519142919,0.37771483865,0.0173321845545,0.0111956957314,0.001,77.9850245692,-6500.0,0.0,-300.0,0.0
1513265750810291793,,567353,,1513265749,20063616,'',0.366519142919,0.377939419956,0.0128001423973,0.011420277037,0.001,78.0883000405,-6500.0,0.0,-300.0,0.0
1513265750820184193,,567354,,1513265749,30063616,'',0.366519142919,0.378174770468,0.00804229266845,0.0116556275494,0.001,78.1912588033,-6500.0,0.0,-300.0,0.0
1513265750830060755,,567355,,1513265749,40063616,'',0.366519142919,0.37843561552,0.0408200012642,0.0119164726013,0.001,89.4804190872,-6500.0,0.0,-300.0,0.0
1513265750840511220,,567356,,1513265749,50063616,'',0.366519142919,0.378664950431,0.017160703069,0.0121458075123,0.001,84.134625768,-6500.0,0.0,-300.0,0.0
1513265750850368795,,567357,,1513265749,60063616,'',0.366519142919,0.378937863465,0.0306710387013,0.0124187205464,0.001,89.9543691472,-6500.0,0.0,-300.0,0.0
1513265750860346089,,567358,,1513265749,70063616,'',0.366519142919,0.379213323332,0.025108334153,0.0126941804127,0.001,90.0467669513,-6500.0,0.0,-300.0,0.0
1513265750870328091,,567359,,1513265749,80063616,'',0.366519142919,0.379438887048,0.0205532447651,0.0129197441296,0.001,90.1905881444,-6500.0,0.0,-300.0,0.0
1513265750880153065,,567360,,1513265749,90063616,'',0.366519142919,0.379655188116,0.0161775182072,0.0131360451976,0.001,90.1523262971,-6500.0,0.0,-300.0,0.0
1513265750890194908,,567361,,1513265749,100063616,'',0.366519142919,0.379869700946,0.0118533722699,0.0133505580276,0.001,90.3356005013,-6500.0,0.0,-300.0,0.0
1513265750900294527,,567362,,1513265749,110063616,'',0.366519142919,0.380009745881,0.00901626146807,0.013490602962,0.001,90.4083145816,-6500.0,0.0,-300.0,0.0
1513265750910612544,,567363,,1513265749,120063616,'',0.366519142919,0.380107794718,0.00703840812912,0.0135886517993,0.001,90.4490274796,-6500.0,0.0,-300.0,0.0
1513265750920593244,,567364,,1513265749,130063616,'',0.366519142919,0.380170930456,0.00576465101365,0.0136517875373,0.001,90.4331328964,-6500.0,0.0,-300.0,0.0
1513265750930045809,,567365,,1513265749,140063616,'',0.366519142919,0.380051976105,-0.0108597577101,0.0135328331861,0.001,84.7646356956,-6500.0,0.0,-300.0,0.0
1513265750940202467,,567366,,1513265749,150063616,'',0.366519142919,0.379903464612,-0.00785960872049,0.0133843216936,0.001,84.6220987116,-6500.0,0.0,-300.0,0.0
1513265750950183732,,567367,,1513265749,160063616,'',0.366519142919,0.379748669236,-0.00472827155199,0.0132295263168,0.001,84.5728019394,-6500.0,0.0,-300.0,0.0
1513265750960109223,,567368,,1513265749,170063616,'',0.366519142919,0.379550974321,-0.0197628348912,0.0130318314027,0.001,78.7332059853,-6500.0,0.0,-300.0,0.0
1513265750970636963,,567369,,1513265749,180063616,'',0.366519142919,0.379288031304,-0.0334752600639,0.0127688883852,0.001,73.121160764,-6500.0,0.0,-300.0,0.0
1513265750980525298,,567370,,1513265749,190063616,'',0.366519142919,0.379019355073,-0.0280445855884,0.0125002121541,0.001,72.7964184181,-6500.0,0.0,-300.0,0.0
1513265750990551477,,567371,,1513265749,200063616,'',0.366519142919,0.378714887356,-0.0218889845361,0.0121957444368,0.001,72.6595654579,-6500.0,0.0,-300.0,0.0
1513265751000610433,,567372,,1513265749,210063616,'',0.366519142919,0.378347732318,-0.0334959980504,0.0118285893992,0.001,66.816850862,-6500.0,0.0,-300.0,0.0
1513265751010596425,,567373,,1513265749,220063616,'',0.366519142919,0.378010851898,-0.0457150427156,0.0114917089791,0.001,61.2047989475,-6500.0,0.0,-300.0,0.0
1513265751020532336,,567374,,1513265749,230063616,'',0.366519142919,0.377635369512,-0.0191094208535,0.0111162265935,0.001,66.5486181776,-6500.0,0.0,-300.0,0.0
1513265751030297836,,567375,,1513265749,240063616,'',0.366519142919,0.377257631188,-0.0305029669585,0.0107384882695,0.001,60.6058599692,-6500.0,0.0,-300.0,0.0
1513265751040445092,,567376,,1513265749,250063616,'',0.366519142919,0.376914714931,-0.0426037833212,0.0103955720122,0.001,54.6897925346,-6500.0,0.0,-300.0,0.0
1513265751050300093,,567377,,1513265749,260063616,'',0.366519142919,0.376581730259,-0.0358681831146,0.0100625873397,0.001,54.85513673,-6500.0,0.0,-300.0,0.0
1513265751060390092,,567378,,1513265749,270063616,'',0.366519142919,0.376277221159,-0.029720377981,0.00975807823973,0.001,54.432315514,-6500.0,0.0,-300.0,0.0
1513265751070486599,,567379,,1513265749,280063616,'',0.366519142919,0.376043132068,-0.0249889094904,0.00952398914925,0.001,54.3964461353,-6500.0,0.0,-300.0,0.0
1513265751080424903,,567380,,1513265749,290063616,'',0.366519142919,0.375818791025,-0.0204562661473,0.00929964810581,0.001,54.2870467088,-6500.0,0.0,-300.0,0.0
1513265751090346470,,567381,,1513265749,300063616,'',0.366519142919,0.375635509981,-0.0167532094647,0.00911636706267,0.001,54.2000504919,-6500.0,0.0,-300.0,0.0
1513265751100337432,,567382,,1513265749,310063616,'',0.366519142919,0.375469217381,-0.0133963433628,0.00895007446246,0.001,54.1254444703,-6500.0,0.0,-300.0,0.0
1513265751110341107,,567383,,1513265749,320063616,'',0.366519142919,0.375314924125,-0.0102762731999,0.00879578120606,0.001,54.0815372248,-6500.0,0.0,-300.0,0.0
1513265751120346497,,567384,,1513265749,330063616,'',0.366519142919,0.375134025521,-0.025651317329,0.00861488260234,0.001,48.389242181,-6500.0,0.0,-300.0,0.0
1513265751130389428,,567385,,1513265749,340063616,'',0.366519142919,0.374972426959,-0.0223814143846,0.00845328404048,0.001,48.2119021426,-6500.0,0.0,-300.0,0.0
1513265751140342453,,567386,,1513265749,350063616,'',0.366519142919,0.374825502172,-0.00039212918179,0.00830635925281,0.001,53.8747145743,-6500.0,0.0,-300.0,0.0
1513265751150407440,,567387,,1513265749,360063616,'',0.366519142919,0.374700065303,-0.0168821931218,0.00818092238469,0.001,48.199625673,-6500.0,0.0,-300.0,0.0
1513265751160189182,,567388,,1513265749,370063616,'',0.366519142919,0.374548522224,-0.0138199962581,0.00802937930479,0.001,48.0204321511,-6500.0,0.0,-300.0,0.0
1513265751170201913,,567389,,1513265749,380063616,'',0.366519142919,0.374440187682,-0.0116308821077,0.00792104476358,0.001,47.9768713961,-6500.0,0.0,-300.0,0.0
1513265751180143969,,567390,,1513265749,390063616,'',0.366519142919,0.374351563646,-0.0098436611384,0.0078324207267,0.001,48.0044817957,-6500.0,0.0,-300.0,0.0
1513265751190152119,,567391,,1513265749,400063616,'',0.366519142919,0.374263258669,-0.00805865637827,0.00774411575039,0.001,47.9697199804,-6500.0,0.0,-300.0,0.0
1513265751200202684,,567392,,1513265749,410063616,'',0.366519142919,0.374140618681,-0.00558179046379,0.00762147576228,0.001,47.8600421328,-6500.0,0.0,-300.0,0.0
1513265751210568462,,567393,,1513265749,420063616,'',0.366519142919,0.374074263002,-0.00424057854353,0.00755512008303,0.001,47.8312651258,-6500.0,0.0,-300.0,0.0
1513265751220456477,,567394,,1513265749,430063616,'',0.366519142919,0.374036294036,-0.00347265436314,0.00751715111719,0.001,47.8357655949,-6500.0,0.0,-300.0,0.0
1513265751230418844,,567395,,1513265749,440063616,'',0.366519142919,0.373970503661,-0.00214012078434,0.0074513607421,0.001,47.7907963149,-6500.0,0.0,-300.0,0.0
1513265751240442911,,567396,,1513265749,450063616,'',0.366519142919,0.373951294649,-0.00175196582278,0.00743215173015,0.001,47.7814289619,-6500.0,0.0,-300.0,0.0
1513265751250319888,,567397,,1513265749,460063616,'',0.366519142919,0.373935574325,-0.00143430650129,0.00741643140629,0.001,47.7753157893,-6500.0,0.0,-300.0,0.0
1513265751260437139,,567398,,1513265749,470063616,'',0.366519142919,0.373922723746,-0.00117463588832,0.00740358082752,0.001,47.7766060013,-6500.0,0.0,-300.0,0.0
1513265751270358147,,567399,,1513265749,480063616,'',0.366519142919,0.373912179925,-0.000961577732908,0.00739303700595,0.001,47.7646316822,-6500.0,0.0,-300.0,0.0
1513265751280179429,,567400,,1513265749,490063616,'',0.366519142919,0.373990897679,-0.00255717883176,0.0074717547601,0.001,47.77556125,-6500.0,0.0,-300.0,0.0
1513265751290178873,,567401,,1513265749,500063616,'',0.366519142919,0.374123567615,0.0137856599442,0.00760442469606,0.001,53.5881202383,-6500.0,0.0,-300.0,0.0
1513265751300156517,,567402,,1513265749,510063616,'',0.366519142919,0.374381546066,0.0275964878221,0.00786240314675,0.001,59.2529349204,-6500.0,0.0,-300.0,0.0
1513265751310630505,,567403,,1513265749,520063616,'',0.366519142919,0.374458578871,0.00701324564711,0.00793943595183,0.001,53.7222447159,-6500.0,0.0,-300.0,0.0
1513265751320396121,,567404,,1513265749,530063616,'',0.366519142919,0.374487671915,0.0064163334822,0.0079685289962,0.001,53.7343250442,-6500.0,0.0,-300.0,0.0
1513265751330319307,,567405,,1513265749,540063616,'',0.366519142919,0.374374675955,-0.0103224367668,0.00785553303592,0.001,47.9572299239,-6500.0,0.0,-300.0,0.0
1513265751340397022,,567406,,1513265749,550063616,'',0.366519142919,0.374368476472,0.0088255194322,0.00784933355361,0.001,53.6899438475,-6500.0,0.0,-300.0,0.0
1513265751350101454,,567407,,1513265749,560063616,'',0.366519142919,0.374466553678,0.0258724177475,0.0079474107596,0.001,59.4482504267,-6500.0,0.0,-300.0,0.0
1513265751360072841,,567408,,1513265749,570063616,'',0.366519142919,0.374649332982,0.022179180325,0.00813019006322,0.001,59.5252130991,-6500.0,0.0,-300.0,0.0
1513265751370598759,,567409,,1513265749,580063616,'',0.366519142919,0.375160393833,0.0499046546698,0.00864125091382,0.001,71.1861541224,-6500.0,0.0,-300.0,0.0
1513265751380450438,,567410,,1513265749,590063616,'',0.366519142919,0.37577965904,0.056423042282,0.00926051612086,0.001,77.2975163058,-6500.0,0.0,-300.0,0.0
1513265751390475086,,567411,,1513265749,600063616,'',0.366519142919,0.376408687194,0.062739045555,0.0098895442748,0.001,83.1465997959,-6500.0,0.0,-300.0,0.0
1513265751400530007,,567412,,1513265749,610063616,'',0.366519142919,0.376989451368,0.0510132002083,0.0104703084495,0.001,83.1144562007,-6500.0,0.0,-300.0,0.0
1513265751410392225,,567413,,1513265749,620063616,'',0.366519142919,0.377536111498,0.0589926966607,0.011016968579,0.001,89.3811853759,-6500.0,0.0,-300.0,0.0
1513265751420337305,,567414,,1513265749,630063616,'',0.366519142919,0.378016245682,0.0492908812775,0.0114971027634,0.001,89.5841137443,-6500.0,0.0,-300.0,0.0
1513265751430280802,,567415,,1513265749,640063616,'',0.366519142919,0.378476101026,0.0400029454272,0.0119569581067,0.001,89.5662942077,-6500.0,0.0,-300.0,0.0
1513265751440284467,,567416,,1513265749,650063616,'',0.366519142919,0.379005924124,0.0483298726108,0.012486781205,0.001,95.707705255,-6500.0,0.0,-300.0,0.0
1513265751450263784,,567417,,1513265749,660063616,'',0.366519142919,0.379458503404,0.0582120285678,0.0129393604855,0.001,101.622950179,-6500.0,0.0,-300.0,0.0
1513265751460151875,,567418,,1513265749,670063616,'',0.366519142919,0.379945399439,0.0293506135435,0.0134262565204,0.001,96.1393413082,-6500.0,0.0,-300.0,0.0
1513265751470658805,,567419,,1513265749,680063616,'',0.366519142919,0.380379683323,0.0396026744088,0.0138605404045,0.001,101.976496415,-6500.0,0.0,-300.0,0.0
1513265751480684807,,567420,,1513265749,690063616,'',0.366519142919,0.380789973052,0.0503363530928,0.0142708301336,0.001,108.366651946,-6500.0,0.0,-300.0,0.0
1513265751490563954,,567421,,1513265749,700063616,'',0.366519142919,0.381137285239,0.0242990825851,0.0146181423206,0.001,102.357922398,-6500.0,0.0,-300.0,0.0
1513265751500516745,,567422,,1513265749,710063616,'',0.366519142919,0.381492944724,0.0361336661786,0.0149738018049,0.001,108.183381258,-6500.0,0.0,-300.0,0.0
1513265751510258898,,567423,,1513265749,720063616,'',0.366519142919,0.381765990548,0.0306174644485,0.0152468476293,0.001,108.162186947,-6500.0,0.0,-300.0,0.0
1513265751520193111,,567424,,1513265749,730063616,'',0.366519142919,0.382059604168,0.0437121647183,0.015540461249,0.001,114.208607543,-6500.0,0.0,-300.0,0.0
1513265751530084372,,567425,,1513265749,740063616,'',0.366519142919,0.382281314747,0.0202083011894,0.0157621718278,0.001,108.542067108,-6500.0,0.0,-300.0,0.0
1513265751540228556,,567426,,1513265749,750063616,'',0.366519142919,0.382516122438,0.0344911149581,0.0159969795193,0.001,114.399647694,-6500.0,0.0,-300.0,0.0
1513265751550235780,,567427,,1513265749,760063616,'',0.366519142919,0.38270620257,0.0116295920224,0.0161870596507,0.001,108.722694443,-6500.0,0.0,-300.0,0.0
1513265751560693236,,567428,,1513265749,770063616,'',0.366519142919,0.382930959761,0.0261146967659,0.0164118168418,0.001,114.566521832,-6500.0,0.0,-300.0,0.0
1513265751570495411,,567429,,1513265749,780063616,'',0.366519142919,0.38313250388,0.0220508052601,0.0166133609611,0.001,114.619313128,-6500.0,0.0,-300.0,0.0
1513265751580436767,,567430,,1513265749,790063616,'',0.366519142919,0.383313419681,0.0183914058072,0.0167942767626,0.001,114.583932008,-6500.0,0.0,-300.0,0.0
1513265751590472138,,567431,,1513265749,800063616,'',0.366519142919,0.383408203116,-0.00255227968344,0.016889060197,0.001,109.010908035,-6500.0,0.0,-300.0,0.0
1513265751600281001,,567432,,1513265749,810063616,'',0.366519142919,0.383522420184,0.0141613524487,0.0170032772653,0.001,114.795774872,-6500.0,0.0,-300.0,0.0
1513265751610188878,,567433,,1513265749,820063616,'',0.366519142919,0.383616467088,0.0122658799558,0.0170973241687,0.001,114.823094962,-6500.0,0.0,-300.0,0.0
1513265751620385073,,567434,,1513265749,830063616,'',0.366519142919,0.383694731956,0.0106849952385,0.0171755890375,0.001,114.862224589,-6500.0,0.0,-300.0,0.0
1513265751630210148,,567435,,1513265749,840063616,'',0.366519142919,0.383757118693,0.00942617882474,0.0172379757739,0.001,114.890488483,-6500.0,0.0,-300.0,0.0
1513265751640238042,,567436,,1513265749,850063616,'',0.366519142919,0.383705099023,-0.00854041627204,0.0171859561037,0.001,109.130795137,-6500.0,0.0,-300.0,0.0
1513265751650578174,,567437,,1513265749,860063616,'',0.366519142919,0.383662779021,0.0113389699554,0.017143636102,0.001,114.849143292,-6500.0,0.0,-300.0,0.0
1513265751660574630,,567438,,1513265749,870063616,'',0.366519142919,0.383627613997,-0.00698619614032,0.0171084710783,0.001,109.151546975,-6500.0,0.0,-300.0,0.0
1513265751670501832,,567439,,1513265749,880063616,'',0.366519142919,0.383580620327,-0.00603221105255,0.0170614774078,0.001,109.096404375,-6500.0,0.0,-300.0,0.0
1513265751680408824,,567440,,1513265749,890063616,'',0.366519142919,0.383508565736,-0.0045728658951,0.0169894228176,0.001,109.047688427,-6500.0,0.0,-300.0,0.0
1513265751690311533,,567441,,1513265749,900063616,'',0.366519142919,0.383485076663,-0.00409610179356,0.0169659337442,0.001,109.038049797,-6500.0,0.0,-300.0,0.0
1513265751700216398,,567442,,1513265749,910063616,'',0.366519142919,0.383466954339,0.01529327013,0.0169478114204,0.001,114.768974107,-6500.0,0.0,-300.0,0.0
1513265751710213703,,567443,,1513265749,920063616,'',0.366519142919,0.383433386099,-0.00305506501135,0.0169142431804,0.001,109.02309682,-6500.0,0.0,-300.0,0.0
1513265751720118340,,567444,,1513265749,930063616,'',0.366519142919,0.383405954676,-0.00250207539958,0.0168868117567,0.001,109.024990303,-6500.0,0.0,-300.0,0.0
1513265751730552164,,567445,,1513265749,940063616,'',0.366519142919,0.383383445899,-0.00204832135242,0.0168643029804,0.001,108.998371189,-6500.0,0.0,-300.0,0.0
1513265751740457194,,567446,,1513265749,950063616,'',0.366519142919,0.383383476015,-0.00204818721472,0.0168643330966,0.001,109.001053491,-6500.0,0.0,-300.0,0.0
1513265751750498802,,567447,,1513265749,960063616,'',0.366519142919,0.383383004633,-0.00203956095866,0.016863861714,0.001,108.981503418,-6500.0,0.0,-300.0,0.0
1513265751760583204,,567448,,1513265749,970063616,'',0.366519142919,0.383364740846,-0.0016713571888,0.0168455979268,0.001,108.992422997,-6500.0,0.0,-300.0,0.0
1513265751770368482,,567449,,1513265749,980063616,'',0.366519142919,0.383349657392,-0.00136726995496,0.016830514473,0.001,108.97280387,-6500.0,0.0,-300.0,0.0
1513265751780358385,,567450,,1513265749,990063616,'',0.366519142919,0.383318901345,-0.000755350073065,0.0167997584263,0.001,108.973391881,-6500.0,0.0,-300.0,0.0
1513265751790412833,,567451,,1513265750,63616,'',0.366519142919,0.383313192074,0.0183870500217,0.0167940491553,0.001,114.573183266,-6500.0,0.0,-300.0,0.0
1513265751800293116,,567452,,1513265750,10063616,'',0.366519142919,0.383289912267,-0.000162863411791,0.0167707693487,0.001,108.960714659,-6500.0,0.0,-300.0,0.0
1513265751810276166,,567453,,1513265750,20063616,'',0.366519142919,0.383288447906,-0.000133327958045,0.016769304987,0.001,108.960259824,-6500.0,0.0,-300.0,0.0
1513265751820356371,,567454,,1513265750,30063616,'',0.366519142919,0.383271544351,0.000203798903069,0.0167524014321,0.001,108.951919186,-6500.0,0.0,-300.0,0.0
1513265751830199550,,567455,,1513265750,40063616,'',0.366519142919,0.38323885763,-0.0181582315855,0.016719714711,0.001,103.226544801,-6500.0,0.0,-300.0,0.0
1513265751840316039,,567456,,1513265750,50063616,'',0.366519142919,0.383194349902,-0.0172583713113,0.016675206983,0.001,103.191011718,-6500.0,0.0,-300.0,0.0
1513265751850125891,,567457,,1513265750,60063616,'',0.366519142919,0.383175576314,0.00215114720345,0.0166564333948,0.001,108.898506733,-6500.0,0.0,-300.0,0.0
1513265751860526313,,567458,,1513265750,70063616,'',0.366519142919,0.383143016363,-0.0162148257614,0.016623873444,0.001,103.145086199,-6500.0,0.0,-300.0,0.0
1513265751870458348,,567459,,1513265750,80063616,'',0.366519142919,0.383134660263,0.00300646096269,0.0166155173438,0.001,108.780340534,-6500.0,0.0,-300.0,0.0
1513265751880827969,,567460,,1513265750,90063616,'',0.366519142919,0.383108750516,-0.0154974566677,0.0165896075976,0.001,103.155468216,-6500.0,0.0,-300.0,0.0
1513265751890315344,,567461,,1513265750,100063616,'',0.366519142919,0.383121457067,-0.0157581321607,0.0166023141478,0.001,103.169867327,-6500.0,0.0,-300.0,0.0
1513265751900253365,,567462,,1513265750,110063616,'',0.366519142919,0.383101086839,0.00367450563601,0.0165819439206,0.001,108.891168163,-6500.0,0.0,-300.0,0.0
1513265751910492306,,567463,,1513265750,120063616,'',0.366519142919,0.383099997328,0.00369106260162,0.0165808544096,0.001,108.880947747,-6500.0,0.0,-300.0,0.0
1513265751920681386,,567464,,1513265750,130063616,'',0.366519142919,0.383099058328,0.0037044208567,0.0165799154096,0.001,108.883753646,-6500.0,0.0,-300.0,0.0
1513265751930456205,,567465,,1513265750,140063616,'',0.366519142919,0.38310001391,0.00368768245991,0.016580870991,0.001,108.880954729,-6500.0,0.0,-300.0,0.0
1513265751940462812,,567466,,1513265750,150063616,'',0.366519142919,0.383098275135,0.00371669424736,0.0165791322159,0.001,108.854241424,-6500.0,0.0,-300.0,0.0
1513265751950283255,,567467,,1513265750,160063616,'',0.366519142919,0.383097964013,0.00372968760227,0.0165788210946,0.001,108.91606372,-6500.0,0.0,-300.0,0.0
1513265751960126763,,567468,,1513265750,170063616,'',0.366519142919,0.383029480608,0.00511787909914,0.0165103376892,0.001,108.857516951,-6500.0,0.0,-300.0,0.0
1513265751970698937,,567469,,1513265750,180063616,'',0.366519142919,0.382988875981,-0.0131166026232,0.0164697330624,0.001,102.580424172,-6500.0,0.0,-300.0,0.0
1513265751980155746,,567470,,1513265750,190063616,'',0.366519142919,0.382970743914,-0.0126161578776,0.0164516009954,0.001,103.0944819,-6500.0,0.0,-300.0,0.0
1513265751990160461,,567471,,1513265750,200063616,'',0.366519142919,0.382992240677,0.0059563238397,0.0164730977581,0.001,108.83895617,-6500.0,0.0,-300.0,0.0
1513265752000617518,,567472,,1513265750,210063616,'',0.366519142919,0.382993966197,0.00590650587196,0.0164748232785,0.001,108.841763429,-6500.0,0.0,-300.0,0.0
1513265752010500186,,567473,,1513265750,220063616,'',0.366519142919,0.382981164101,0.0251866709475,0.0164620211825,0.001,114.586415623,-6500.0,0.0,-300.0,0.0
1513265752020487981,,567474,,1513265750,230063616,'',0.366519142919,0.382965409663,-0.0125609554076,0.016446266744,0.001,103.099599188,-6500.0,0.0,-300.0,0.0
1513265752030559300,,567475,,1513265750,240063616,'',0.366519142919,0.382954220371,-0.0123469491585,0.0164350774522,0.001,103.098472845,-6500.0,0.0,-300.0,0.0
1513265752040475634,,567476,,1513265750,250063616,'',0.366519142919,0.382978143154,0.00617638499102,0.0164590002348,0.001,108.79241393,-6500.0,0.0,-300.0,0.0
1513265752050242003,,567477,,1513265750,260063616,'',0.366519142919,0.383014858495,0.00542707048506,0.0164957155761,0.001,108.847046736,-6500.0,0.0,-300.0,0.0
1513265752060503202,,567478,,1513265750,270063616,'',0.366519142919,0.383027319561,0.00516638213663,0.0165081766421,0.001,108.853317207,-6500.0,0.0,-300.0,0.0
1513265752070429836,,567479,,1513265750,280063616,'',0.366519142919,0.382918169566,-0.0116618181292,0.0163990266467,0.001,103.047645404,-6500.0,0.0,-300.0,0.0
1513265752080506650,,567480,,1513265750,290063616,'',0.366519142919,0.382913677899,-0.0115666420304,0.0163945349799,0.001,103.067770866,-6500.0,0.0,-300.0,0.0
1513265752090201096,,567481,,1513265750,300063616,'',0.366519142919,0.382842181963,-0.0101221278616,0.0163230390446,0.001,103.06309921,-6500.0,0.0,-300.0,0.0
1513265752100140281,,567482,,1513265750,310063616,'',0.366519142919,0.382798967978,-0.00925254283153,0.0162798250588,0.001,103.0100932,-6500.0,0.0,-300.0,0.0
1513265752110107753,,567483,,1513265750,320063616,'',0.366519142919,0.382731559478,-0.00789687601629,0.0162124165596,0.001,103.046828658,-6500.0,0.0,-300.0,0.0
1513265752120023934,,567484,,1513265750,330063616,'',0.366519142919,0.382676509465,-0.00678708242559,0.0161573665467,0.001,102.975988415,-6500.0,0.0,-300.0,0.0
1513265752130575834,,567485,,1513265750,340063616,'',0.366519142919,0.382632721207,-0.00590848393432,0.0161135782879,0.001,102.95951444,-6500.0,0.0,-300.0,0.0
1513265752140583239,,567486,,1513265750,350063616,'',0.366519142919,0.382612856559,-0.00551104656055,0.0160937136402,0.001,102.947965447,-6500.0,0.0,-300.0,0.0
1513265752150428557,,567487,,1513265750,360063616,'',0.366519142919,0.382614930267,0.0134665460155,0.0160957873485,0.001,108.578416448,-6500.0,0.0,-300.0,0.0
1513265752160412976,,567488,,1513265750,370063616,'',0.366519142919,0.382581022574,-0.00487277650122,0.0160618796547,0.001,102.930361642,-6500.0,0.0,-300.0,0.0
1513265752170349735,,567489,,1513265750,380063616,'',0.366519142919,0.382570559743,-0.00466117832003,0.016051416824,0.001,102.934685517,-6500.0,0.0,-300.0,0.0
1513265752180140313,,567490,,1513265750,390063616,'',0.366519142919,0.382544758123,-0.00414346105913,0.016025615204,0.001,102.946365687,-6500.0,0.0,-300.0,0.0
1513265752190779116,,567491,,1513265750,400063616,'',0.366519142919,0.382578309533,-0.00481245456257,0.0160591666144,0.001,102.965799897,-6500.0,0.0,-300.0,0.0
1513265752200735068,,567492,,1513265750,410063616,'',0.366519142919,0.382535471502,-0.00394293911453,0.0160163285828,0.001,102.918565618,-6500.0,0.0,-300.0,0.0
1513265752210569248,,567493,,1513265750,420063616,'',0.366519142919,0.382516919451,-0.00357827646861,0.0159977765322,0.001,102.908431441,-6500.0,0.0,-300.0,0.0
1513265752220721938,,567494,,1513265750,430063616,'',0.366519142919,0.382536510898,-0.00396810779897,0.0160173679789,0.001,102.945368573,-6500.0,0.0,-300.0,0.0
1513265752230300113,,567495,,1513265750,440063616,'',0.366519142919,0.38250089395,-0.00324848720973,0.0159817510315,0.001,102.929577308,-6500.0,0.0,-300.0,0.0
1513265752240563858,,567496,,1513265750,450063616,'',0.366519142919,0.382504573388,-0.00332354230549,0.015985430469,0.001,102.904595258,-6500.0,0.0,-300.0,0.0
1513265752250487711,,567497,,1513265750,460063616,'',0.366519142919,0.382492335766,-0.00307628591272,0.0159731928472,0.001,102.895736728,-6500.0,0.0,-300.0,0.0
1513265752260347637,,567498,,1513265750,470063616,'',0.366519142919,0.382483488574,0.0161273147669,0.015964345655,0.001,108.62135511,-6500.0,0.0,-300.0,0.0
1513265752270848959,,567499,,1513265750,480063616,'',0.366519142919,0.382474346853,-0.00270748299934,0.0159552039338,0.001,102.899292582,-6500.0,0.0,-300.0,0.0
1513265752280584039,,567500,,1513265750,490063616,'',0.366519142919,0.382449992418,-0.00221625612679,0.0159308494989,0.001,102.879205128,-6500.0,0.0,-300.0,0.0
1513265752290415001,,567501,,1513265750,500063616,'',0.366519142919,0.382430109021,-0.00181520971468,0.0159109661024,0.001,102.873149948,-6500.0,0.0,-300.0,0.0
1513265752300595178,,567502,,1513265750,510063616,'',0.366519142919,0.382413788168,-0.00148601949339,0.015894645249,0.001,102.866898438,-6500.0,0.0,-300.0,0.0
1513265752310546310,,567503,,1513265750,520063616,'',0.366519142919,0.382433658998,-0.00189759931556,0.0159145160792,0.001,102.87282827,-6500.0,0.0,-300.0,0.0
1513265752320631574,,567504,,1513265750,530063616,'',0.366519142919,0.382449656676,-0.00221827855095,0.0159305137571,0.001,102.895219517,-6500.0,0.0,-300.0,0.0
1513265752330459466,,567505,,1513265750,540063616,'',0.366519142919,0.382447523147,-0.00217367812475,0.015928380228,0.001,102.898616221,-6500.0,0.0,-300.0,0.0
1513265752340399004,,567506,,1513265750,550063616,'',0.366519142919,0.382444314467,-0.00210356128973,0.0159251715479,0.001,102.854774476,-6500.0,0.0,-300.0,0.0
1513265752350340871,,567507,,1513265750,560063616,'',0.366519142919,0.382444370051,-0.00209476245814,0.0159252271322,0.001,102.896178729,-6500.0,0.0,-300.0,0.0
1513265752360307874,,567508,,1513265750,570063616,'',0.366519142919,0.382425459689,-0.00171480963207,0.01590631677,0.001,102.870125411,-6500.0,0.0,-300.0,0.0
1513265752370705384,,567509,,1513265750,580063616,'',0.366519142919,0.382428455876,-0.00176210676436,0.0159093129574,0.001,102.870925827,-6500.0,0.0,-300.0,0.0
1513265752380263963,,567510,,1513265750,590063616,'',0.366519142919,0.382428978113,-0.00178103837629,0.0159098351946,0.001,102.874891829,-6500.0,0.0,-300.0,0.0
1513265752390248340,,567511,,1513265750,600063616,'',0.366519142919,0.382463142318,0.0165428933,0.0159439993994,0.001,108.617567518,-6500.0,0.0,-300.0,0.0
1513265752400117605,,567512,,1513265750,610063616,'',0.366519142919,0.382523955316,0.0153020178833,0.0160048123973,0.001,108.647243585,-6500.0,0.0,-300.0,0.0
1513265752410575121,,567513,,1513265750,620063616,'',0.366519142919,0.382508072414,-0.00339486491454,0.0159889294952,0.001,102.929576306,-6500.0,0.0,-300.0,0.0
1513265752420537092,,567514,,1513265750,630063616,'',0.366519142919,0.382477612816,-0.0027792025349,0.0159584698972,0.001,102.892597653,-6500.0,0.0,-300.0,0.0
1513265752430572329,,567515,,1513265750,640063616,'',0.366519142919,0.382452677099,-0.00227519118563,0.0159335341798,0.001,102.885182024,-6500.0,0.0,-300.0,0.0
1513265752440432492,,567516,,1513265750,650063616,'',0.366519142919,0.382465360786,-0.00254060595154,0.0159462178676,0.001,102.887398956,-6500.0,0.0,-300.0,0.0
1513265752450369523,,567517,,1513265750,660063616,'',0.366519142919,0.382442692467,-0.00208078688577,0.0159235495485,0.001,102.891474121,-6500.0,0.0,-300.0,0.0
1513265752460312146,,567518,,1513265750,670063616,'',0.366519142919,0.382457767008,-0.00237836772263,0.015938624089,0.001,102.882927392,-6500.0,0.0,-300.0,0.0
1513265752470226181,,567519,,1513265750,680063616,'',0.366519142919,0.382436418868,-0.00194681610247,0.0159172759489,0.001,102.870953609,-6500.0,0.0,-300.0,0.0
1513265752480193171,,567520,,1513265750,690063616,'',0.366519142919,0.382434870161,-0.00191918654869,0.0159157272419,0.001,102.875652331,-6500.0,0.0,-300.0,0.0
1513265752490253714,,567521,,1513265750,700063616,'',0.366519142919,0.38246663842,-0.00255880245545,0.0159474955008,0.001,102.902691036,-6500.0,0.0,-300.0,0.0
1513265752500218982,,567522,,1513265750,710063616,'',0.366519142919,0.382443697366,-0.00209485079541,0.0159245544472,0.001,102.879317658,-6500.0,0.0,-300.0,0.0
1513265752510084546,,567523,,1513265750,720063616,'',0.366519142919,0.382440644053,-0.0020317947757,0.0159215011343,0.001,102.877316182,-6500.0,0.0,-300.0,0.0
1513265752520100488,,567524,,1513265750,730063616,'',0.366519142919,0.382454662452,-0.00231507036317,0.0159355195329,0.001,102.881697192,-6500.0,0.0,-300.0,0.0
1513265752530503258,,567525,,1513265750,740063616,'',0.366519142919,0.382468857905,0.01641793829,0.0159497149863,0.001,108.520289319,-6500.0,0.0,-300.0,0.0
1513265752540471162,,567526,,1513265750,750063616,'',0.366519142919,0.3824455099,-0.00213463367748,0.0159263669814,0.001,102.879454955,-6500.0,0.0,-300.0,0.0
1513265752550417719,,567527,,1513265750,760063616,'',0.366519142919,0.382477289089,-0.00277566366466,0.0159581461698,0.001,102.894066816,-6500.0,0.0,-300.0,0.0
1513265752560384983,,567528,,1513265750,770063616,'',0.366519142919,0.382469015841,-0.00260788722603,0.0159498729225,0.001,102.889078115,-6500.0,0.0,-300.0,0.0
1513265752570346852,,567529,,1513265750,780063616,'',0.366519142919,0.38244564322,-0.00213502553429,0.0159265003012,0.001,102.880741727,-6500.0,0.0,-300.0,0.0
1513265752580372293,,567530,,1513265750,790063616,'',0.366519142919,0.382459762722,-0.00242308871938,0.0159406198029,0.001,102.900654614,-6500.0,0.0,-300.0,0.0
1513265752590399103,,567531,,1513265750,800063616,'',0.366519142919,0.382438064138,-0.00198365899106,0.0159189212192,0.001,102.87583485,-6500.0,0.0,-300.0,0.0
1513265752600183175,,567532,,1513265750,810063616,'',0.366519142919,0.382420302145,-0.00162395128763,0.0159011592263,0.001,102.869603242,-6500.0,0.0,-300.0,0.0
1513265752610120327,,567533,,1513265750,820063616,'',0.366519142919,0.382422294339,-0.00166431894625,0.0159031514205,0.001,102.858313037,-6500.0,0.0,-300.0,0.0
1513265752620555353,,567534,,1513265750,830063616,'',0.366519142919,0.382461411806,0.0165671911913,0.0159422688875,0.001,108.612059271,-6500.0,0.0,-300.0,0.0
1513265752630524416,,567535,,1513265750,840063616,'',0.366519142919,0.382439455836,-0.00201031101335,0.0159203129177,0.001,102.892197239,-6500.0,0.0,-300.0,0.0
1513265752640413809,,567536,,1513265750,850063616,'',0.366519142919,0.382421438377,-0.0016457075734,0.0159022954581,0.001,102.86960025,-6500.0,0.0,-300.0,0.0
1513265752650309716,,567537,,1513265750,860063616,'',0.366519142919,0.382406688684,-0.0013472310499,0.0158875457655,0.001,102.862784455,-6500.0,0.0,-300.0,0.0
1513265752660238346,,567538,,1513265750,870063616,'',0.366519142919,0.382394616174,-0.00110293029602,0.0158754732547,0.001,102.858619437,-6500.0,0.0,-300.0,0.0
1513265752670223562,,567539,,1513265750,880063616,'',0.366519142919,0.382384752416,-0.000903326123607,0.0158656094967,0.001,102.86109508,-6500.0,0.0,-300.0,0.0
1513265752680200713,,567540,,1513265750,890063616,'',0.366519142919,0.382376655637,-0.00073947875648,0.0158575127182,0.001,102.851266526,-6500.0,0.0,-300.0,0.0
1513265752690250292,,567541,,1513265750,900063616,'',0.366519142919,0.382370028612,-0.000605373493864,0.0158508856931,0.001,102.84798583,-6500.0,0.0,-300.0,0.0
1513265752700084582,,567542,,1513265750,910063616,'',0.366519142919,0.382380538539,-0.000820924885038,0.0158613956206,0.001,102.852856157,-6500.0,0.0,-300.0,0.0
1513265752710585107,,567543,,1513265750,920063616,'',0.366519142919,0.382389460113,-0.00100105912207,0.0158703171941,0.001,102.863781316,-6500.0,0.0,-300.0,0.0
1513265752720420387,,567544,,1513265750,930063616,'',0.366519142919,0.382380529479,-0.000819891211173,0.0158613865605,0.001,102.852852448,-6500.0,0.0,-300.0,0.0
1513265752730433814,,567545,,1513265750,940063616,'',0.366519142919,0.382406482971,-0.00134719029165,0.0158873400517,0.001,102.863090132,-6500.0,0.0,-300.0,0.0
1513265752740386697,,567546,,1513265750,950063616,'',0.366519142919,0.382394442322,-0.00110278649475,0.0158752994036,0.001,102.857200171,-6500.0,0.0,-300.0,0.0
1513265752750558243,,567547,,1513265750,960063616,'',0.366519142919,0.382384609179,-0.000903191119784,0.0158654662598,0.001,102.861015538,-6500.0,0.0,-300.0,0.0
1513265752760235318,,567548,,1513265750,970063616,'',0.366519142919,0.382376536123,-0.000739322408809,0.015857393204,0.001,102.849835317,-6500.0,0.0,-300.0,0.0
1513265752770338765,,567549,,1513265750,980063616,'',0.366519142919,0.382369934327,-0.000605317655196,0.0158507914077,0.001,102.84829724,-6500.0,0.0,-300.0,0.0
1513265752780251995,,567550,,1513265750,990063616,'',0.366519142919,0.382381253473,-0.000825286518727,0.0158621105546,0.001,102.858431835,-6500.0,0.0,-300.0,0.0
1513265752790296421,,567551,,1513265751,63616,'',0.366519142919,0.382373790538,-0.000675578047152,0.0158546476193,0.001,102.85481128,-6500.0,0.0,-300.0,0.0
1513265752800325795,,567552,,1513265751,10063616,'',0.366519142919,0.382367680998,-0.000553019052836,0.0158485380796,0.001,102.847109519,-6500.0,0.0,-300.0,0.0
1513265752810413138,,567553,,1513265751,20063616,'',0.366519142919,0.382362682395,-0.000452745727257,0.0158435394757,0.001,102.845545983,-6500.0,0.0,-300.0,0.0
1513265752820364640,,567554,,1513265751,30063616,'',0.366519142919,0.382358597186,-0.000370795365148,0.0158394542677,0.001,102.849077983,-6500.0,0.0,-300.0,0.0
1513265752830124993,,567555,,1513265751,40063616,'',0.366519142919,0.382355245081,-0.000303551229486,0.0158361021619,0.001,102.842589544,-6500.0,0.0,-300.0,0.0
1513265752840303171,,567556,,1513265751,50063616,'',0.366519142919,0.382352500115,-0.000248486485812,0.0158333571962,0.001,102.843329515,-6500.0,0.0,-300.0,0.0
1513265752850566883,,567557,,1513265751,60063616,'',0.366519142919,0.382350258218,-0.000203513425865,0.0158311152987,0.001,102.841762387,-6500.0,0.0,-300.0,0.0
1513265752860509818,,567558,,1513265751,70063616,'',0.366519142919,0.382348418551,-0.00016660922642,0.0158292756323,0.001,102.839609491,-6500.0,0.0,-300.0,0.0
1513265752870457984,,567559,,1513265751,80063616,'',0.366519142919,0.382346912611,-0.000136399668323,0.0158277696923,0.001,102.839248731,-6500.0,0.0,-300.0,0.0
1513265752880433656,,567560,,1513265751,90063616,'',0.366519142919,0.382345679303,-0.00011165918319,0.0158265363844,0.001,102.838585042,-6500.0,0.0,-300.0,0.0
1513265752890523574,,567561,,1513265751,100063616,'',0.366519142919,0.382344669956,-9.14114145289e-05,0.0158255270374,0.001,102.83822503,-6500.0,0.0,-300.0,0.0
1513265752900428562,,567562,,1513265751,110063616,'',0.366519142919,0.382343845134,-7.48652649564e-05,0.0158247022154,0.001,102.83831339,-6500.0,0.0,-300.0,0.0
1513265752910244470,,567563,,1513265751,120063616,'',0.366519142919,0.382326889968,0.000264245794724,0.0158077470488,0.001,102.828963297,-6500.0,0.0,-300.0,0.0
1513265752920262240,,567564,,1513265751,130063616,'',0.366519142919,0.382329288206,0.000216320411482,0.0158101452875,0.001,102.831937847,-6500.0,0.0,-300.0,0.0
1513265752930553098,,567565,,1513265751,140063616,'',0.366519142919,0.382331250766,0.000177101451695,0.0158121078472,0.001,102.832729846,-6500.0,0.0,-300.0,0.0
1513265752940542217,,567566,,1513265751,150063616,'',0.366519142919,0.382332861906,0.000144905123178,0.0158137189868,0.001,102.834586902,-6500.0,0.0,-300.0,0.0
1513265752950517444,,567567,,1513265751,160063616,'',0.366519142919,0.382334171087,0.00011874300641,0.0158150281678,0.001,102.83299793,-6500.0,0.0,-300.0,0.0
1513265752960455835,,567568,,1513265751,170063616,'',0.366519142919,0.382301358605,0.000778524970124,0.0157822156867,0.001,102.820440475,-6500.0,0.0,-300.0,0.0
1513265752970506700,,567569,,1513265751,180063616,'',0.366519142919,0.382238135929,-0.0169645937214,0.0157189930098,0.001,97.0686889845,-6500.0,0.0,-300.0,0.0
1513265752980372036,,567570,,1513265751,190063616,'',0.366519142919,0.382138606518,-0.0149475756271,0.015619463599,0.001,97.0181373127,-6500.0,0.0,-300.0,0.0
1513265752990279631,,567571,,1513265751,200063616,'',0.366519142919,0.382004355668,-0.0122365834192,0.0154852127488,0.001,96.9667137331,-6500.0,0.0,-300.0,0.0
1513265753000483223,,567572,,1513265751,210063616,'',0.366519142919,0.381772887917,-0.0265790395119,0.0152537449984,0.001,91.3190446776,-6500.0,0.0,-300.0,0.0
1513265753010273372,,567573,,1513265751,220063616,'',0.366519142919,0.381517957038,-0.0214229018685,0.0149988141191,0.001,91.0268253067,-6500.0,0.0,-300.0,0.0
1513265753020306907,,567574,,1513265751,230063616,'',0.366519142919,0.381186991354,-0.0337644069975,0.0146678484351,0.001,85.1669674553,-6500.0,0.0,-300.0,0.0
1513265753030120940,,567575,,1513265751,240063616,'',0.366519142919,0.380899815177,-0.0279701250273,0.0143806722585,0.001,85.2599023822,-6500.0,0.0,-300.0,0.0
1513265753040306684,,567576,,1513265751,250063616,'',0.366519142919,0.380493489391,-0.038787009867,0.0139743464727,0.001,79.1039836149,-6500.0,0.0,-300.0,0.0
1513265753050434006,,567577,,1513265751,260063616,'',0.366519142919,0.380145238165,-0.0317527927745,0.0136260952457,0.001,78.9835736057,-6500.0,0.0,-300.0,0.0
1513265753060471812,,567578,,1513265751,270063616,'',0.366519142919,0.379806356205,-0.0439388174671,0.0132872132866,0.001,73.476066894,-6500.0,0.0,-300.0,0.0
1513265753070309479,,567579,,1513265751,280063616,'',0.366519142919,0.379478457885,-0.0373176236185,0.0129593149665,0.001,73.2559078765,-6500.0,0.0,-300.0,0.0
1513265753080175140,,567580,,1513265751,290063616,'',0.366519142919,0.379161037793,-0.0309005588656,0.0126418948746,0.001,73.0439366755,-6500.0,0.0,-300.0,0.0
1513265753090139737,,567581,,1513265751,300063616,'',0.366519142919,0.378883599119,-0.0252956239046,0.0123644561997,0.001,72.7191081115,-6500.0,0.0,-300.0,0.0
1513265753100595268,,567582,,1513265751,310063616,'',0.366519142919,0.378590195639,-0.0193605169161,0.0120710527202,0.001,72.7402654249,-6500.0,0.0,-300.0,0.0
1513265753110513370,,567583,,1513265751,320063616,'',0.366519142919,0.378295298446,-0.0324337227609,0.0117761555272,0.001,67.0310753198,-6500.0,0.0,-300.0,0.0
1513265753120562824,,567584,,1513265751,330063616,'',0.366519142919,0.378054641217,-0.0275726963011,0.0115354982981,0.001,66.66782367,-6500.0,0.0,-300.0,0.0
1513265753130554400,,567585,,1513265751,340063616,'',0.366519142919,0.377807098438,-0.0225719278362,0.0112879555195,0.001,66.5795276738,-6500.0,0.0,-300.0,0.0
1513265753140629826,,567586,,1513265751,350063616,'',0.366519142919,0.3776047963,-0.018485094208,0.0110856533815,0.001,66.4823249295,-6500.0,0.0,-300.0,0.0
1513265753150616892,,567587,,1513265751,360063616,'',0.366519142919,0.377438811828,-0.015131936741,0.0109196689089,0.001,66.4058679879,-6500.0,0.0,-300.0,0.0
1513265753160324032,,567588,,1513265751,370063616,'',0.366519142919,0.377284244892,-0.0310344556531,0.0107651019727,0.001,60.6167554237,-6500.0,0.0,-300.0,0.0
1513265753170319910,,567589,,1513265751,380063616,'',0.366519142919,0.377087329858,-0.0270526158938,0.0105681869396,0.001,60.7315694886,-6500.0,0.0,-300.0,0.0
1513265753180094502,,567590,,1513265751,390063616,'',0.366519142919,0.37699785246,-0.00622798171642,0.0104787095411,0.001,66.2369807749,-6500.0,0.0,-300.0,0.0
1513265753190286422,,567591,,1513265751,400063616,'',0.366519142919,0.376874672865,-0.00374594924994,0.0103555299467,0.001,66.1879917748,-6500.0,0.0,-300.0,0.0
1513265753200252871,,567592,,1513265751,410063616,'',0.366519142919,0.376721282887,-0.0196602346369,0.0102021399677,0.001,60.5112604362,-6500.0,0.0,-300.0,0.0
1513265753210533552,,567593,,1513265751,420063616,'',0.366519142919,0.376628869116,-0.0177937173481,0.0101097261976,0.001,60.3690184413,-6500.0,0.0,-300.0,0.0
1513265753220464071,,567594,,1513265751,430063616,'',0.366519142919,0.376551320282,-0.0162227315361,0.0100321773636,0.001,60.3213911413,-6500.0,0.0,-300.0,0.0
1513265753230339190,,567595,,1513265751,440063616,'',0.366519142919,0.376454956774,-0.014275166228,0.00993581385475,0.001,60.3030439214,-6500.0,0.0,-300.0,0.0
1513265753240302149,,567596,,1513265751,450063616,'',0.366519142919,0.376362080344,-0.0123934893279,0.00984293742549,0.001,60.3144955811,-6500.0,0.0,-300.0,0.0
1513265753250915241,,567597,,1513265751,460063616,'',0.366519142919,0.376298562266,-0.0111158849318,0.00977941934751,0.001,60.2164382259,-6500.0,0.0,-300.0,0.0
1513265753260295281,,567598,,1513265751,470063616,'',0.366519142919,0.376215621786,-0.00944184906653,0.0096964788674,0.001,60.1703967563,-6500.0,0.0,-300.0,0.0
1513265753270253554,,567599,,1513265751,480063616,'',0.366519142919,0.376148081764,-0.00807530551633,0.00962893884531,0.001,60.1562895353,-6500.0,0.0,-300.0,0.0
1513265753280255655,,567600,,1513265751,490063616,'',0.366519142919,0.376091083193,-0.00692849597537,0.00957194027436,0.001,60.1197717746,-6500.0,0.0,-300.0,0.0
1513265753290596921,,567601,,1513265751,500063616,'',0.366519142919,0.376078242728,-0.00667280195482,0.00955909980963,0.001,60.1210992027,-6500.0,0.0,-300.0,0.0
1513265753300710445,,567602,,1513265751,510063616,'',0.366519142919,0.376054682074,0.0128288729576,0.00953553915521,0.001,65.9426985868,-6500.0,0.0,-300.0,0.0
1513265753310600976,,567603,,1513265751,520063616,'',0.366519142919,0.376031040014,-0.00572271146849,0.00951189709552,0.001,60.1020503407,-6500.0,0.0,-300.0,0.0
1513265753320478252,,567604,,1513265751,530063616,'',0.366519142919,0.375998236305,-0.00505468559242,0.00947909338613,0.001,60.1224013327,-6500.0,0.0,-300.0,0.0
1513265753330522012,,567605,,1513265751,540063616,'',0.366519142919,0.375986034376,-0.00480962545117,0.00946689145709,0.001,60.0866670171,-6500.0,0.0,-300.0,0.0
1513265753340725908,,567606,,1513265751,550063616,'',0.366519142919,0.375960287348,-0.00428025362141,0.00944114442915,0.001,60.0759760579,-6500.0,0.0,-300.0,0.0
1513265753350844372,,567607,,1513265751,560063616,'',0.366519142919,0.375921796464,-0.00350402505375,0.00940265354495,0.001,60.0876285488,-6500.0,0.0,-300.0,0.0
1513265753360371350,,567608,,1513265751,570063616,'',0.366519142919,0.375872350936,-0.00251012962398,0.00935320801766,0.001,60.0372849065,-6500.0,0.0,-300.0,0.0
1513265753370243115,,567609,,1513265751,580063616,'',0.366519142919,0.375849809355,-0.00205495412938,0.00933066643668,0.001,60.0281712185,-6500.0,0.0,-300.0,0.0
1513265753380511520,,567610,,1513265751,590063616,'',0.366519142919,0.375831340268,-0.00168201328442,0.00931219734871,0.001,60.0167185599,-6500.0,0.0,-300.0,0.0
1513265753390538399,,567611,,1513265751,600063616,'',0.366519142919,0.375816246431,-0.00137722790657,0.00929710351269,0.001,60.0165640112,-6500.0,0.0,-300.0,0.0
1513265753400571389,,567612,,1513265751,610063616,'',0.366519142919,0.375803900956,-0.00112793935705,0.00928475803695,0.001,60.0178865316,-6500.0,0.0,-300.0,0.0
1513265753410334767,,567613,,1513265751,620063616,'',0.366519142919,0.375793766332,-0.000923293890047,0.00927462341322,0.001,60.0068314018,-6500.0,0.0,-300.0,0.0
1513265753420257310,,567614,,1513265751,630063616,'',0.366519142919,0.375785474926,-0.000755867973454,0.00926633200716,0.001,60.0031153811,-6500.0,0.0,-300.0,0.0
1513265753430171764,,567615,,1513265751,640063616,'',0.366519142919,0.375778687192,-0.000618805262119,0.0092595442731,0.001,60.0007937113,-6500.0,0.0,-300.0,0.0
1513265753440634731,,567616,,1513265751,650063616,'',0.366519142919,0.375755131929,-0.000142943543383,0.00923598901057,0.001,59.9917926967,-6500.0,0.0,-300.0,0.0
1513265753450992268,,567617,,1513265751,660063616,'',0.366519142919,0.375771479263,-0.000473246314934,0.00925233634415,0.001,59.9974402948,-6500.0,0.0,-300.0,0.0
1513265753460269328,,567618,,1513265751,670063616,'',0.366519142919,0.375767228927,-0.00038742259006,0.00924808600791,0.001,59.9955882211,-6500.0,0.0,-300.0,0.0
1513265753470207509,,567619,,1513265751,680063616,'',0.366519142919,0.375747478114,1.15516911961e-05,0.00922833519483,0.001,59.9876036979,-6500.0,0.0,-300.0,0.0
1513265753480805575,,567620,,1513265751,690063616,'',0.366519142919,0.375747580218,9.46074871004e-06,0.00922843729885,0.001,59.9875968762,-6500.0,0.0,-300.0,0.0
1513265753490193395,,567621,,1513265751,700063616,'',0.366519142919,0.375731416499,0.000336289705031,0.00921227357987,0.001,59.9812572932,-6500.0,0.0,-300.0,0.0
1513265753500540143,,567622,,1513265751,710063616,'',0.366519142919,0.375716798574,0.00063169939603,0.00919765565542,0.001,59.9752824342,-6500.0,0.0,-300.0,0.0
1513265753510242573,,567623,,1513265751,720063616,'',0.366519142919,0.375672969226,0.00152096048953,0.00915382630674,0.001,59.9553579077,-6500.0,0.0,-300.0,0.0
1513265753520151762,,567624,,1513265751,730063616,'',0.366519142919,0.37568658379,0.00124513267962,0.00916744087104,0.001,59.9627744141,-6500.0,0.0,-300.0,0.0
1513265753530539362,,567625,,1513265751,740063616,'',0.366519142919,0.375697710142,0.00101971545414,0.00917856722306,0.001,59.9617310681,-6500.0,0.0,-300.0,0.0
1513265753540538136,,567626,,1513265751,750063616,'',0.366519142919,0.375655623538,0.00187271368668,0.00913648061909,0.001,59.9500098125,-6500.0,0.0,-300.0,0.0
1513265753550600031,,567627,,1513265751,760063616,'',0.366519142919,0.375656072972,0.00185865756366,0.00913693005325,0.001,59.9485830453,-6500.0,0.0,-300.0,0.0
1513265753560443739,,567628,,1513265751,770063616,'',0.366519142919,0.375604731244,0.00289777366311,0.00908558832522,0.001,59.9302207441,-6500.0,0.0,-300.0,0.0
1513265753570359815,,567629,,1513265751,780063616,'',0.366519142919,0.3756306688,0.00237331154502,0.00911152588168,0.001,59.9240362068,-6500.0,0.0,-300.0,0.0
1513265753580387783,,567630,,1513265751,790063616,'',0.366519142919,0.375580802612,-0.0156422653264,0.00906165969309,0.001,54.2775098422,-6500.0,0.0,-300.0,0.0
1513265753590273070,,567631,,1513265751,800063616,'',0.366519142919,0.37559348851,0.00312168538818,0.00907434559144,0.001,59.9236698798,-6500.0,0.0,-300.0,0.0
1513265753600589676,,567632,,1513265751,810063616,'',0.366519142919,0.375587915032,0.00323861906671,0.0090687721135,0.001,59.92042077,-6500.0,0.0,-300.0,0.0
1513265753610622987,,567633,,1513265751,820063616,'',0.366519142919,0.375616894244,0.00265250598151,0.00909775132559,0.001,59.9175044567,-6500.0,0.0,-300.0,0.0
1513265753620502704,,567634,,1513265751,830063616,'',0.366519142919,0.375608456865,0.00282241465759,0.00908931394643,0.001,59.9323300129,-6500.0,0.0,-300.0,0.0
1513265753630513879,,567635,,1513265751,840063616,'',0.366519142919,0.375598924521,0.0030102371925,0.00907978160204,0.001,59.9239683509,-6500.0,0.0,-300.0,0.0
1513265753640471498,,567636,,1513265751,850063616,'',0.366519142919,0.375609034471,0.00280640443957,0.00908989155208,0.001,59.9327626333,-6500.0,0.0,-300.0,0.0
1513265753650312277,,567637,,1513265751,860063616,'',0.366519142919,0.375615875147,-0.0163522068295,0.00909673222792,0.001,54.3114703782,-6500.0,0.0,-300.0,0.0
1513265753660487050,,567638,,1513265751,870063616,'',0.366519142919,0.375639848426,0.00218928221697,0.00912070550769,0.001,59.9437095128,-6500.0,0.0,-300.0,0.0
1513265753670344330,,567639,,1513265751,880063616,'',0.366519142919,0.375641841502,0.00215289489994,0.00912269858349,0.001,59.941887553,-6500.0,0.0,-300.0,0.0
1513265753680336811,,567640,,1513265751,890063616,'',0.366519142919,0.375642367604,-0.0168841112654,0.00912322468529,0.001,54.2089092772,-6500.0,0.0,-300.0,0.0
1513265753690657279,,567641,,1513265751,900063616,'',0.366519142919,0.375628839167,0.00240667641368,0.00910969624802,0.001,59.9353910229,-6500.0,0.0,-300.0,0.0
1513265753700604039,,567642,,1513265751,910063616,'',0.366519142919,0.375598841202,-0.0160152777858,0.00907969828316,0.001,54.195716766,-6500.0,0.0,-300.0,0.0
1513265753710622773,,567643,,1513265751,920063616,'',0.366519142919,0.375575726418,0.00347369822586,0.00905658349954,0.001,59.912270676,-6500.0,0.0,-300.0,0.0
1513265753720495753,,567644,,1513265751,930063616,'',0.366519142919,0.375573416052,0.00351837707556,0.00905427313338,0.001,59.9173741868,-6500.0,0.0,-300.0,0.0
1513265753730697018,,567645,,1513265751,940063616,'',0.366519142919,0.375605084691,0.00288031563354,0.00908594177204,0.001,59.92931958,-6500.0,0.0,-300.0,0.0
1513265753740605964,,567646,,1513265751,950063616,'',0.366519142919,0.375563126952,0.00374162344524,0.00904398403336,0.001,59.9143015813,-6500.0,0.0,-300.0,0.0
1513265753750626933,,567647,,1513265751,960063616,'',0.366519142919,0.375559536489,-0.0152124719476,0.00904039356979,0.001,54.188190808,-6500.0,0.0,-300.0,0.0
1513265753760455650,,567648,,1513265751,970063616,'',0.366519142919,0.375559975715,0.00379948713021,0.00904083279598,0.001,59.9061861025,-6500.0,0.0,-300.0,0.0
1513265753770465680,,567649,,1513265751,980063616,'',0.366519142919,0.375562154607,0.00375932366131,0.00904301168813,0.001,59.8903146342,-6500.0,0.0,-300.0,0.0
1513265753780323398,,567650,,1513265751,990063616,'',0.366519142919,0.375546013744,0.00408415145988,0.00902687082505,0.001,59.91368823,-6500.0,0.0,-300.0,0.0
1513265753790535362,,567651,,1513265752,63616,'',0.366519142919,0.375531251265,-0.0146442390103,0.00901210834615,0.001,54.1538961461,-6500.0,0.0,-300.0,0.0
1513265753800210604,,567652,,1513265752,10063616,'',0.366519142919,0.375504143593,0.00492131337734,0.00898500067454,0.001,59.9221772395,-6500.0,0.0,-300.0,0.0
1513265753810164201,,567653,,1513265752,20063616,'',0.366519142919,0.375465101543,0.00571150113044,0.00894595862466,0.001,59.8307246435,-6500.0,0.0,-300.0,0.0
1513265753820115554,,567654,,1513265752,30063616,'',0.366519142919,0.375428083023,-0.0125602890286,0.00890894010463,0.001,54.1175527112,-6500.0,0.0,-300.0,0.0
1513265753830583909,,567655,,1513265752,40063616,'',0.366519142919,0.375419525242,0.00663655115739,0.00890038232346,0.001,59.8533529057,-6500.0,0.0,-300.0,0.0
1513265753840579559,,567656,,1513265752,50063616,'',0.366519142919,0.375442687025,-0.0128605242337,0.00892354410643,0.001,54.1234462201,-6500.0,0.0,-300.0,0.0
1513265753850535538,,567657,,1513265752,60063616,'',0.366519142919,0.375446529372,-0.0129470644985,0.00892738645358,0.001,54.1165866663,-6500.0,0.0,-300.0,0.0
1513265753860436873,,567658,,1513265752,70063616,'',0.366519142919,0.375467204918,0.00565985622906,0.00894806199918,0.001,59.8749221244,-6500.0,0.0,-300.0,0.0
1513265753870400686,,567659,,1513265752,80063616,'',0.366519142919,0.375482456902,0.00535340493587,0.00896331398351,0.001,59.8756280155,-6500.0,0.0,-300.0,0.0
1513265753880309614,,567660,,1513265752,90063616,'',0.366519142919,0.375461716115,-0.0132416601649,0.00894257319612,0.001,54.1349518854,-6500.0,0.0,-300.0,0.0
1513265753890258561,,567661,,1513265752,100063616,'',0.366519142919,0.37547766986,-0.0135573960875,0.00895852694107,0.001,54.2365090728,-6500.0,0.0,-300.0,0.0
1513265753900196388,,567662,,1513265752,110063616,'',0.366519142919,0.375510149553,0.00481489589928,0.00899100663435,0.001,59.8963567624,-6500.0,0.0,-300.0,0.0
1513265753910171033,,567663,,1513265752,120063616,'',0.366519142919,0.37548432935,0.00533084865656,0.00896518643124,0.001,59.8752645263,-6500.0,0.0,-300.0,0.0
1513265753920108142,,567664,,1513265752,130063616,'',0.366519142919,0.375482067994,-0.0136499289054,0.00896292507534,0.001,54.1304615791,-6500.0,0.0,-300.0,0.0
1513265753930695199,,567665,,1513265752,140063616,'',0.366519142919,0.375495600507,0.00509875150971,0.00897645758802,0.001,59.8520805666,-6500.0,0.0,-300.0,0.0
1513265753940241741,,567666,,1513265752,150063616,'',0.366519142919,0.375471256663,-0.0134398180696,0.00895211374462,0.001,54.1388577158,-6500.0,0.0,-300.0,0.0
1513265753950608691,,567667,,1513265752,160063616,'',0.366519142919,0.37545304192,0.00595160776011,0.00893389900119,0.001,59.8580328959,-6500.0,0.0,-300.0,0.0
1513265753960245448,,567668,,1513265752,170063616,'',0.366519142919,0.375442347854,0.00616847391928,0.0089232049351,0.001,59.8649272284,-6500.0,0.0,-300.0,0.0
