rosbagTimestamp,header,seq,stamp,secs,nsecs,frame_id,set_point,process_value,process_value_dot,error,time_step,command,p,i,d,i_clamp
1513265748800431383,,567140,,1513265747,10063616,'',0.733038285838,0.781382982317,-0.00210915932321,0.0483446964797,0.001,-347.19047674,7200.0,0.0,410.0,0.0
1513265748810344568,,567141,,1513265747,20063616,'',0.733038285838,0.781390416413,-0.00225878263897,0.0483521305749,0.001,-347.206336432,7200.0,0.0,410.0,0.0
1513265748820314865,,567142,,1513265747,30063616,'',0.733038285838,0.781370206113,-0.0018492646241,0.0483319202755,0.001,-347.233073814,7200.0,0.0,410.0,0.0
1513265748830275336,,567143,,1513265747,40063616,'',0.733038285838,0.781380635354,-0.00204975374395,0.048342349516,0.001,-347.242167277,7200.0,0.0,410.0,0.0
1513265748840112453,,567144,,1513265747,50063616,'',0.733038285838,0.781337814272,-0.00119803049227,0.0482995284349,0.001,-347.26750356,7200.0,0.0,410.0,0.0
1513265748850096164,,567145,,1513265747,60063616,'',0.733038285838,0.78132713777,-0.000980766382413,0.0482888519326,0.001,-347.279331764,7200.0,0.0,410.0,0.0
1513265748860564723,,567146,,1513265747,70063616,'',0.733038285838,0.781291076909,-0.0279902661845,0.0482527910717,0.001,-335.889856743,7200.0,0.0,410.0,0.0
1513265748870489197,,567147,,1513265747,80063616,'',0.733038285838,0.781288876467,-0.00020496671167,0.0482505906297,0.001,-347.321799672,7200.0,0.0,410.0,0.0
1513265748880556172,,567148,,1513265747,90063616,'',0.733038285838,0.781260904868,0.000367279597004,0.0482226190301,0.001,-347.353141131,7200.0,0.0,410.0,0.0
1513265748890383819,,567149,,1513265747,100063616,'',0.733038285838,0.781239431761,0.000800088389122,0.0482011459233,0.001,-347.376498845,7200.0,0.0,410.0,0.0
1513265748900254405,,567150,,1513265747,110063616,'',0.733038285838,0.781246598266,0.0006549665194,0.0482083124285,0.001,-347.369075399,7200.0,0.0,410.0,0.0
1513265748910190265,,567151,,1513265747,120063616,'',0.733038285838,0.781227746042,0.00103002330627,0.0481894602042,0.001,-347.38985361,7200.0,0.0,410.0,0.0
1513265748920117025,,567152,,1513265747,130063616,'',0.733038285838,0.781261302966,0.00035856514248,0.0482230171284,0.001,-347.349770684,7200.0,0.0,410.0,0.0
1513265748930505661,,567153,,1513265747,140063616,'',0.733038285838,0.781264502146,0.000293533372009,0.0482262163087,0.001,-347.349213723,7200.0,0.0,410.0,0.0
1513265748940512597,,567154,,1513265747,150063616,'',0.733038285838,0.781243866043,0.00071530907891,0.0482055802059,0.001,-347.373055557,7200.0,0.0,410.0,0.0
1513265748950146767,,567155,,1513265747,160063616,'',0.733038285838,0.781225431196,0.00108527783627,0.048187145358,0.001,-347.380805244,7200.0,0.0,410.0,0.0
1513265748960061246,,567156,,1513265747,170063616,'',0.733038285838,0.781235118979,0.000888796288756,0.0481968331417,0.001,-347.383899405,7200.0,0.0,410.0,0.0
1513265748970594265,,567157,,1513265747,180063616,'',0.733038285838,0.781243064839,0.000727643358512,0.0482047790009,0.001,-347.373332636,7200.0,0.0,410.0,0.0
1513265748980600152,,567158,,1513265747,190063616,'',0.733038285838,0.781249571247,0.000595684457964,0.0482112854098,0.001,-347.365734274,7200.0,0.0,410.0,0.0
1513265748990420318,,567159,,1513265747,200063616,'',0.733038285838,0.781254887162,0.000487870422052,0.048216601324,0.001,-347.354962906,7200.0,0.0,410.0,0.0
1513265749000390019,,567160,,1513265747,210063616,'',0.733038285838,0.781282468263,-7.03423805904e-05,0.0482441824255,0.001,-347.328700317,7200.0,0.0,410.0,0.0
1513265749010285073,,567161,,1513265747,220063616,'',0.733038285838,0.781281828874,-5.75868130808e-05,0.0482435430362,0.001,-347.329453394,7200.0,0.0,410.0,0.0
1513265749020296855,,567162,,1513265747,230063616,'',0.733038285838,0.781281306432,-4.716429377e-05,0.0482430205941,0.001,-347.330526654,7200.0,0.0,410.0,0.0
1513265749030261106,,567163,,1513265747,240063616,'',0.733038285838,0.781280877641,-3.86100781531e-05,0.048242591803,0.001,-347.330952606,7200.0,0.0,410.0,0.0
1513265749040248627,,567164,,1513265747,250063616,'',0.733038285838,0.781253724259,0.000509933270952,0.0482154384215,0.001,-347.361318512,7200.0,0.0,410.0,0.0
1513265749050253394,,567165,,1513265747,260063616,'',0.733038285838,0.781235015298,0.000893486038714,0.0481967294607,0.001,-347.382092687,7200.0,0.0,410.0,0.0
1513265749060149769,,567166,,1513265747,270063616,'',0.733038285838,0.781218171669,0.00122955437224,0.0481798858317,0.001,-347.399567458,7200.0,0.0,410.0,0.0
1513265749070476568,,567167,,1513265747,280063616,'',0.733038285838,0.781252272248,0.000538928194771,0.0482139864102,0.001,-347.357805546,7200.0,0.0,410.0,0.0
1513265749080266136,,567168,,1513265747,290063616,'',0.733038285838,0.781257108883,0.000441192990809,0.0482188230455,0.001,-347.357655225,7200.0,0.0,410.0,0.0
1513265749090260998,,567169,,1513265747,300063616,'',0.733038285838,0.781264018927,0.0280382705917,0.0482257330895,0.001,-358.501928734,7200.0,0.0,410.0,0.0
1513265749100193104,,567170,,1513265747,310063616,'',0.733038285838,0.781266829334,-0.0274850975702,0.0482285434966,0.001,-336.166808236,7200.0,0.0,410.0,0.0
1513265749110297107,,567171,,1513265747,320063616,'',0.733038285838,0.781295731769,0.0274025650575,0.0482574459313,0.001,-358.483429809,7200.0,0.0,410.0,0.0
1513265749120525028,,567172,,1513265747,330063616,'',0.733038285838,0.781268975265,0.000197584169252,0.0482306894273,0.001,-347.343847931,7200.0,0.0,410.0,0.0
1513265749130497202,,567173,,1513265747,340063616,'',0.733038285838,0.781270782635,0.000161755154246,0.048232496797,0.001,-347.341700971,7200.0,0.0,410.0,0.0
1513265749140388966,,567174,,1513265747,350063616,'',0.733038285838,0.781272259843,0.000132471208307,0.0482339740053,0.001,-347.337997677,7200.0,0.0,410.0,0.0
1513265749150474286,,567175,,1513265747,360063616,'',0.733038285838,0.781273474002,0.000108401916337,0.0482351881639,0.001,-347.338686218,7200.0,0.0,410.0,0.0
1513265749160422572,,567176,,1513265747,370063616,'',0.733038285838,0.781274463541,8.87854390867e-05,0.0482361777035,0.001,-347.337536234,7200.0,0.0,410.0,0.0
1513265749170307195,,567177,,1513265747,380063616,'',0.733038285838,0.781275275902,7.26813322161e-05,0.0482369900639,0.001,-347.336875865,7200.0,0.0,410.0,0.0
1513265749180268936,,567178,,1513265747,390063616,'',0.733038285838,0.781274431221,8.91678049108e-05,0.048236145383,0.001,-347.337759896,7200.0,0.0,410.0,0.0
1513265749190175564,,567179,,1513265747,400063616,'',0.733038285838,0.781225552874,0.0010789847201,0.0481872670367,0.001,-347.390064575,7200.0,0.0,410.0,0.0
1513265749200268442,,567180,,1513265747,410063616,'',0.733038285838,0.781235216753,0.000883680417487,0.0481969309149,0.001,-347.373495054,7200.0,0.0,410.0,0.0
1513265749210101402,,567181,,1513265747,420063616,'',0.733038285838,0.781219482807,0.00119765738379,0.0481811969692,0.001,-347.399548567,7200.0,0.0,410.0,0.0
1513265749220482015,,567182,,1513265747,430063616,'',0.733038285838,0.781253528632,0.000515930815175,0.0482152427943,0.001,-347.361286846,7200.0,0.0,410.0,0.0
1513265749230455200,,567183,,1513265747,440063616,'',0.733038285838,0.781258137421,0.000422366210574,0.048219851583,0.001,-347.355401881,7200.0,0.0,410.0,0.0
1513265749240373938,,567184,,1513265747,450063616,'',0.733038285838,0.781261910401,0.000345769646991,0.048223624563,0.001,-347.351867163,7200.0,0.0,410.0,0.0
1513265749250362683,,567185,,1513265747,460063616,'',0.733038285838,0.781264992763,0.000283193558111,0.0482267069249,0.001,-347.34525969,7200.0,0.0,410.0,0.0
1513265749260256553,,567186,,1513265747,470063616,'',0.733038285838,0.781290938847,-0.000228639789727,0.0482526530094,0.001,-347.319148402,7200.0,0.0,410.0,0.0
1513265749270300936,,567187,,1513265747,480063616,'',0.733038285838,0.781288763815,-0.000187186430147,0.0482504779776,0.001,-347.321845216,7200.0,0.0,410.0,0.0
1513265749280172056,,567188,,1513265747,490063616,'',0.733038285838,0.781286982512,-0.00015323704824,0.0482486966749,0.001,-347.32369037,7200.0,0.0,410.0,0.0
1513265749290165442,,567189,,1513265747,500063616,'',0.733038285838,0.781285527292,-0.0001255023904,0.0482472414548,0.001,-347.326586492,7200.0,0.0,410.0,0.0
1513265749300017746,,567190,,1513265747,510063616,'',0.733038285838,0.781284333321,-0.000102746807123,0.0482460474836,0.001,-347.326807404,7200.0,0.0,410.0,0.0
1513265749310550739,,567191,,1513265747,520063616,'',0.733038285838,0.781258606,0.000414812361392,0.0482203201624,0.001,-347.354931729,7200.0,0.0,410.0,0.0
1513265749320440221,,567192,,1513265747,530063616,'',0.733038285838,0.781262294638,0.000339572742511,0.0482240088001,0.001,-347.351601384,7200.0,0.0,410.0,0.0
1513265749330401252,,567193,,1513265747,540063616,'',0.733038285838,0.781289925044,-0.000225767522538,0.0482516392064,0.001,-347.321018742,7200.0,0.0,410.0,0.0
1513265749340391813,,567194,,1513265747,550063616,'',0.733038285838,0.781337457856,0.0265535343313,0.0482991720181,0.001,-358.709307939,7200.0,0.0,410.0,0.0
1513265749350247727,,567195,,1513265747,560063616,'',0.733038285838,0.781326839366,-0.000970810316738,0.0482885535286,0.001,-347.276891569,7200.0,0.0,410.0,0.0
1513265749360140675,,567196,,1513265747,570063616,'',0.733038285838,0.781270195114,0.000175609530902,0.0482319092767,0.001,-347.342783385,7200.0,0.0,410.0,0.0
1513265749370531592,,567197,,1513265747,580063616,'',0.733038285838,0.781271778687,0.000143817406358,0.0482334928489,0.001,-347.339462555,7200.0,0.0,410.0,0.0
1513265749380545772,,567198,,1513265747,590063616,'',0.733038285838,0.78127307792,0.000117733720433,0.0482347920826,0.001,-347.337153641,7200.0,0.0,410.0,0.0
1513265749390517781,,567199,,1513265747,600063616,'',0.733038285838,0.781247198997,0.000638440087054,0.0482089131592,0.001,-347.367830421,7200.0,0.0,410.0,0.0
1513265749400693024,,567200,,1513265747,610063616,'',0.733038285838,0.781252955176,0.000522668264109,0.0482146693384,0.001,-347.362138663,7200.0,0.0,410.0,0.0
1513265749410225221,,567201,,1513265747,620063616,'',0.733038285838,0.781257658221,0.000428077729531,0.0482193723831,0.001,-347.352740816,7200.0,0.0,410.0,0.0
1513265749420212967,,567202,,1513265747,630063616,'',0.733038285838,0.781261269082,0.00036236366217,0.0482229832441,0.001,-347.352587896,7200.0,0.0,410.0,0.0
1513265749430035153,,567203,,1513265747,640063616,'',0.733038285838,0.781291060038,-0.000217363394659,0.0482527742007,0.001,-347.319422145,7200.0,0.0,410.0,0.0
1513265749440054203,,567204,,1513265747,650063616,'',0.733038285838,0.781288860858,-0.000177915463969,0.0482505750206,0.001,-347.32098584,7200.0,0.0,410.0,0.0
1513265749450566647,,567205,,1513265747,660063616,'',0.733038285838,0.781287063233,-0.000145670446797,0.0482487773953,0.001,-347.323794038,7200.0,0.0,410.0,0.0
1513265749460023966,,567206,,1513265747,670063616,'',0.733038285838,0.781285593276,-0.000119303006654,0.0482473074386,0.001,-347.326352573,7200.0,0.0,410.0,0.0
1513265749470332410,,567207,,1513265747,680063616,'',0.733038285838,0.781309137945,-0.000596917005283,0.048270852107,0.001,-347.299032356,7200.0,0.0,410.0,0.0
1513265749480325784,,567208,,1513265747,690063616,'',0.733038285838,0.781327846414,-0.000976768420049,0.0482895605766,0.001,-347.278156487,7200.0,0.0,410.0,0.0
1513265749490305579,,567209,,1513265747,700063616,'',0.733038285838,0.781322493897,-0.000875138865209,0.0482842080595,0.001,-347.284476584,7200.0,0.0,410.0,0.0
1513265749500270410,,567210,,1513265747,710063616,'',0.733038285838,0.781288852284,-0.000196533870093,0.0482505664468,0.001,-347.323565369,7200.0,0.0,410.0,0.0
1513265749510225633,,567211,,1513265747,720063616,'',0.733038285838,0.781238590113,0.000823649621704,0.0482003042757,0.001,-347.378075202,7200.0,0.0,410.0,0.0
1513265749520181744,,567212,,1513265747,730063616,'',0.733038285838,0.781221166487,0.00117364092501,0.0481828806494,0.001,-347.398578388,7200.0,0.0,410.0,0.0
1513265749530122551,,567213,,1513265747,740063616,'',0.733038285838,0.781207464651,0.00144986127745,0.0481691788134,0.001,-347.413767831,7200.0,0.0,410.0,0.0
1513265749540107303,,567214,,1513265747,750063616,'',0.733038285838,0.78119671736,0.0016668326032,0.0481584315221,0.001,-347.411358481,7200.0,0.0,410.0,0.0
1513265749550190780,,567215,,1513265747,760063616,'',0.733038285838,0.781236372197,0.000864854247931,0.0481980863591,0.001,-347.372332864,7200.0,0.0,410.0,0.0
1513265749560460848,,567216,,1513265747,770063616,'',0.733038285838,0.781244090329,0.000708052519908,0.0482058044915,0.001,-347.371963415,7200.0,0.0,410.0,0.0
1513265749570562781,,567217,,1513265747,780063616,'',0.733038285838,0.781223740982,0.00112010738998,0.0481854551447,0.001,-347.395754125,7200.0,0.0,410.0,0.0
1513265749580569412,,567218,,1513265747,790063616,'',0.733038285838,0.781209006118,0.00142524772416,0.0481707202808,0.001,-347.397236147,7200.0,0.0,410.0,0.0
1513265749590483666,,567219,,1513265747,800063616,'',0.733038285838,0.781171240256,0.00217994053827,0.0481329544182,0.001,-347.451187041,7200.0,0.0,410.0,0.0
1513265749600541647,,567220,,1513265747,810063616,'',0.733038285838,0.781190735124,0.00178535500001,0.0481524492864,0.001,-347.417255213,7200.0,0.0,410.0,0.0
1513265749610448813,,567221,,1513265747,820063616,'',0.733038285838,0.781206727106,0.00146166956749,0.0481684412685,0.001,-347.401786092,7200.0,0.0,410.0,0.0
1513265749620363186,,567222,,1513265747,830063616,'',0.733038285838,0.781219824529,0.00119657140664,0.0481815386916,0.001,-347.400579652,7200.0,0.0,410.0,0.0
1513265749630293955,,567223,,1513265747,840063616,'',0.733038285838,0.781253825553,0.000504974298023,0.0482155397157,0.001,-347.362005328,7200.0,0.0,410.0,0.0
1513265749640313429,,567224,,1513265747,850063616,'',0.733038285838,0.781258378044,0.000413445953175,0.0482200922061,0.001,-347.356001013,7200.0,0.0,410.0,0.0
1513265749650190577,,567225,,1513265747,860063616,'',0.733038285838,0.781262108751,0.000338439651989,0.0482238229135,0.001,-347.352517338,7200.0,0.0,410.0,0.0
1513265749660449288,,567226,,1513265747,870063616,'',0.733038285838,0.781291461692,-0.000258524013203,0.0482531758541,0.001,-347.318856312,7200.0,0.0,410.0,0.0
1513265749670204900,,567227,,1513265747,880063616,'',0.733038285838,0.781266348362,0.000248957460906,0.0482280625246,0.001,-347.347005256,7200.0,0.0,410.0,0.0
1513265749680569794,,567228,,1513265747,890063616,'',0.733038285838,0.78126863164,0.00020382139362,0.0482303458024,0.001,-347.344231365,7200.0,0.0,410.0,0.0
1513265749690533920,,567229,,1513265747,900063616,'',0.733038285838,0.781270501844,0.000166851005483,0.0482322160067,0.001,-347.34236337,7200.0,0.0,410.0,0.0
1513265749700482295,,567230,,1513265747,910063616,'',0.733038285838,0.781272029326,0.000136655590333,0.0482337434885,0.001,-347.339281998,7200.0,0.0,410.0,0.0
1513265749710487321,,567231,,1513265747,920063616,'',0.733038285838,0.781273282994,0.00011187295301,0.0482349971566,0.001,-347.33895084,7200.0,0.0,410.0,0.0
1513265749720456224,,567232,,1513265747,930063616,'',0.733038285838,0.781274309308,9.15846734463e-05,0.0482360234706,0.001,-347.337969864,7200.0,0.0,410.0,0.0
1513265749730229385,,567233,,1513265747,940063616,'',0.733038285838,0.781223223243,0.00112983401647,0.048184937405,0.001,-347.395789534,7200.0,0.0,410.0,0.0
1513265749740129864,,567234,,1513265747,950063616,'',0.733038285838,0.781257482369,0.000435682113237,0.0482191965311,0.001,-347.356458267,7200.0,0.0,410.0,0.0
1513265749750130804,,567235,,1513265747,960063616,'',0.733038285838,0.781286564318,-0.00015197919266,0.0482482784801,0.001,-347.325741163,7200.0,0.0,410.0,0.0
1513265749760195400,,567236,,1513265747,970063616,'',0.733038285838,0.781208449343,-0.0262968859963,0.0481701635055,0.001,-335.961929381,7200.0,0.0,410.0,0.0
1513265749770208140,,567237,,1513265747,980063616,'',0.733038285838,0.781221230007,0.00118068242894,0.0481829441692,0.001,-347.396203611,7200.0,0.0,410.0,0.0
1513265749780560463,,567238,,1513265747,990063616,'',0.733038285838,0.781231697087,0.000966545973323,0.0481934112493,0.001,-347.385444832,7200.0,0.0,410.0,0.0
1513265749790554958,,567239,,1513265748,63616,'',0.733038285838,0.781216613914,0.0012703194532,0.0481783280768,0.001,-347.401778111,7200.0,0.0,410.0,0.0
1513265749800502097,,567240,,1513265748,10063616,'',0.733038285838,0.781251626813,0.000565811506102,0.0482133409751,0.001,-347.357704489,7200.0,0.0,410.0,0.0
1513265749810312587,,567241,,1513265748,20063616,'',0.733038285838,0.781256580498,0.000463200984905,0.0482182946608,0.001,-347.357678647,7200.0,0.0,410.0,0.0
1513265749820277663,,567242,,1513265748,30063616,'',0.733038285838,0.781285803161,-0.000134875044901,0.048247517323,0.001,-347.325193668,7200.0,0.0,410.0,0.0
1513265749830263938,,567243,,1513265748,40063616,'',0.733038285838,0.781284006358,-9.91119541292e-05,0.0482457205205,0.001,-347.327115872,7200.0,0.0,410.0,0.0
1513265749840193739,,567244,,1513265748,50063616,'',0.733038285838,0.78128308964,-8.11704010898e-05,0.0482448038019,0.001,-347.328032206,7200.0,0.0,410.0,0.0
1513265749850284967,,567245,,1513265748,60063616,'',0.733038285838,0.781309549908,0.0271219919013,0.0482712640706,0.001,-358.682039094,7200.0,0.0,410.0,0.0
1513265749860173904,,567246,,1513265748,70063616,'',0.733038285838,0.781303999179,-0.000506772558418,0.048265713341,0.001,-347.304566529,7200.0,0.0,410.0,0.0
1513265749870514128,,567247,,1513265748,80063616,'',0.733038285838,0.781276776766,4.95529810587e-05,0.0482384909281,0.001,-347.335108062,7200.0,0.0,410.0,0.0
1513265749880495075,,567248,,1513265748,90063616,'',0.733038285838,0.781277168525,4.05883591681e-05,0.0482388826875,0.001,-347.334663016,7200.0,0.0,410.0,0.0
1513265749890375061,,567249,,1513265748,100063616,'',0.733038285838,0.781250810529,-0.0271605767198,0.0482125246918,0.001,-336.203324087,7200.0,0.0,410.0,0.0
1513265749900402582,,567250,,1513265748,110063616,'',0.733038285838,0.781255911261,0.000474444927126,0.048217625423,0.001,-347.35824166,7200.0,0.0,410.0,0.0
1513265749910285856,,567251,,1513265748,120063616,'',0.733038285838,0.781234379962,0.000902511045164,0.0481960941242,0.001,-347.381740054,7200.0,0.0,410.0,0.0
1513265749920289254,,567252,,1513265748,130063616,'',0.733038285838,0.781242460513,0.000738857318318,0.0482041746749,0.001,-347.37343445,7200.0,0.0,410.0,0.0
1513265749930145904,,567253,,1513265748,140063616,'',0.733038285838,0.781249063412,0.000605130160615,0.0482107775743,0.001,-347.348854376,7200.0,0.0,410.0,0.0
1513265749940134778,,567254,,1513265748,150063616,'',0.733038285838,0.781255882906,0.000476907165919,0.0482175970683,0.001,-347.36347194,7200.0,0.0,410.0,0.0
1513265749950496337,,567255,,1513265748,160063616,'',0.733038285838,0.781260055291,0.00039061506562,0.048221769453,0.001,-347.352068502,7200.0,0.0,410.0,0.0
1513265749960074026,,567256,,1513265748,170063616,'',0.733038285838,0.781240661304,0.000781718921597,0.0482023754662,0.001,-347.376740246,7200.0,0.0,410.0,0.0
1513265749970153359,,567257,,1513265748,180063616,'',0.733038285838,0.781247600458,0.000640017445356,0.0482093146204,0.001,-347.36744897,7200.0,0.0,410.0,0.0
1513265749980565459,,567258,,1513265748,190063616,'',0.733038285838,0.781253274048,0.000524159504274,0.0482149882106,0.001,-347.362238588,7200.0,0.0,410.0,0.0
1513265749990445054,,567259,,1513265748,200063616,'',0.733038285838,0.781257928505,0.000429112848839,0.0482196426674,0.001,-347.355964895,7200.0,0.0,410.0,0.0
1513265750000359111,,567260,,1513265748,210063616,'',0.733038285838,0.781261748393,0.000351108563123,0.0482234625554,0.001,-347.352941009,7200.0,0.0,410.0,0.0
1513265750010303241,,567261,,1513265748,220063616,'',0.733038285838,0.781241647204,0.000762006883212,0.048203361366,0.001,-347.373449305,7200.0,0.0,410.0,0.0
1513265750020322859,,567262,,1513265748,230063616,'',0.733038285838,0.781248410702,0.000623816120743,0.0482101248644,0.001,-347.366307726,7200.0,0.0,410.0,0.0
1513265750030258022,,567263,,1513265748,240063616,'',0.733038285838,0.78122706999,0.00104588842577,0.0481887841522,0.001,-347.37984989,7200.0,0.0,410.0,0.0
1513265750040089235,,567264,,1513265748,250063616,'',0.733038285838,0.781284344025,-0.000111727834748,0.0482460581875,0.001,-347.326655581,7200.0,0.0,410.0,0.0
1513265750050123884,,567265,,1513265748,260063616,'',0.733038285838,0.781283364683,-9.14715425738e-05,0.0482450788459,0.001,-347.327756195,7200.0,0.0,410.0,0.0
1513265750060196477,,567266,,1513265748,270063616,'',0.733038285838,0.781282562517,-7.48798670272e-05,0.0482442766794,0.001,-347.328650472,7200.0,0.0,410.0,0.0
1513265750070071110,,567267,,1513265748,280063616,'',0.733038285838,0.781256149954,0.000458536094027,0.0482178641169,0.001,-347.353795574,7200.0,0.0,410.0,0.0
1513265750080020765,,567268,,1513265748,290063616,'',0.733038285838,0.781287636587,0.0275624079236,0.0482493507494,0.001,-358.765795482,7200.0,0.0,410.0,0.0
1513265750090505715,,567269,,1513265748,300063616,'',0.733038285838,0.781283553244,-0.000105172061722,0.0482452674063,0.001,-347.327268336,7200.0,0.0,410.0,0.0
1513265750100482041,,567270,,1513265748,310063616,'',0.733038285838,0.781305431102,-0.000545672566958,0.0482671452647,0.001,-347.297143596,7200.0,0.0,410.0,0.0
1513265750110443094,,567271,,1513265748,320063616,'',0.733038285838,0.781300641286,-0.000447001919911,0.0482623554488,0.001,-347.309249139,7200.0,0.0,410.0,0.0
1513265750120439760,,567272,,1513265748,330063616,'',0.733038285838,0.7812967136,-0.000366091229882,0.0482584277629,0.001,-347.312470684,7200.0,0.0,410.0,0.0
1513265750130358099,,567273,,1513265748,340063616,'',0.733038285838,0.781293491027,-0.000299705910559,0.0482552051889,0.001,-347.316375906,7200.0,0.0,410.0,0.0
1513265750140210166,,567274,,1513265748,350063616,'',0.733038285838,0.781315131737,-0.000735330329018,0.0482768458998,0.001,-347.292705103,7200.0,0.0,410.0,0.0
1513265750150103805,,567275,,1513265748,360063616,'',0.733038285838,0.781282894658,-8.24982357812e-05,0.0482446088205,0.001,-347.328252888,7200.0,0.0,410.0,0.0
1513265750160065045,,567276,,1513265748,370063616,'',0.733038285838,0.781306893409,-0.000561501183025,0.0482686075719,0.001,-347.306442223,7200.0,0.0,410.0,0.0
1513265750170019828,,567277,,1513265748,380063616,'',0.733038285838,0.781301825312,-0.000459689878966,0.0482635394741,0.001,-347.307374742,7200.0,0.0,410.0,0.0
1513265750180541740,,567278,,1513265748,390063616,'',0.733038285838,0.781297675446,-0.00037632462824,0.0482593896083,0.001,-347.311972265,7200.0,0.0,410.0,0.0
1513265750190571984,,567279,,1513265748,400063616,'',0.733038285838,0.781294270194,-0.000307917672232,0.0482559843564,0.001,-347.312931441,7200.0,0.0,410.0,0.0
1513265750200227574,,567280,,1513265748,410063616,'',0.733038285838,0.781315240616,-0.000737492897278,0.0482769547783,0.001,-347.299533705,7200.0,0.0,410.0,0.0
1513265750210158399,,567281,,1513265748,420063616,'',0.733038285838,0.781282651238,-0.0278043133846,0.0482443654008,0.001,-336.462042331,7200.0,0.0,410.0,0.0
1513265750220569450,,567282,,1513265748,430063616,'',0.733038285838,0.781051781674,-0.050875871084,0.0480134958362,0.001,-324.729551698,7200.0,0.0,410.0,0.0
1513265750230498885,,567283,,1513265748,440063616,'',0.733038285838,0.780489681425,-0.0672562889379,0.047451395587,0.001,-313.985162411,7200.0,0.0,410.0,0.0
1513265750240532511,,567284,,1513265748,450063616,'',0.733038285838,0.779503254728,-0.130544373956,0.0464649688905,0.001,-280.688446113,7200.0,0.0,410.0,0.0
1513265750250424107,,567285,,1513265748,460063616,'',0.733038285838,0.777998236212,-0.15563170862,0.044959950374,0.001,-261.644360488,7200.0,0.0,410.0,0.0
1513265750260371145,,567286,,1513265748,470063616,'',0.733038285838,0.776292494008,-0.176655919457,0.0432542081705,0.001,-238.57455399,7200.0,0.0,410.0,0.0
1513265750270307567,,567287,,1513265748,480063616,'',0.733038285838,0.774530338009,-0.168802668771,0.0414920521709,0.001,-230.795057227,7200.0,0.0,410.0,0.0
1513265750280251608,,567288,,1513265748,490063616,'',0.733038285838,0.773015112367,-0.138190124425,0.0399768265297,0.001,-230.952887106,7200.0,0.0,410.0,0.0
1513265750290205136,,567289,,1513265748,500063616,'',0.733038285838,0.771727227235,-0.112171526978,0.0386889413972,0.001,-232.478571097,7200.0,0.0,410.0,0.0
1513265750300090384,,567290,,1513265748,510063616,'',0.733038285838,0.770643123002,-0.0902702649309,0.0376048371646,0.001,-233.376855133,7200.0,0.0,410.0,0.0
1513265750310523306,,567291,,1513265748,520063616,'',0.733038285838,0.769785365741,-0.0729313712599,0.0367470799036,0.001,-235.219176456,7200.0,0.0,410.0,0.0
1513265750320460334,,567292,,1513265748,530063616,'',0.733038285838,0.768851488407,-0.109543545107,0.035813202569,0.001,-212.664970781,7200.0,0.0,410.0,0.0
1513265750330358052,,567293,,1513265748,540063616,'',0.733038285838,0.767764230289,-0.11531894074,0.0347259444511,0.001,-202.466168016,7200.0,0.0,410.0,0.0
1513265750340221643,,567294,,1513265748,550063616,'',0.733038285838,0.76644872648,-0.144215539803,0.033410440642,0.001,-181.302531,7200.0,0.0,410.0,0.0
1513265750350227064,,567295,,1513265748,560063616,'',0.733038285838,0.764972569305,-0.142133514745,0.031934283467,0.001,-171.585915952,7200.0,0.0,410.0,0.0
1513265750360118953,,567296,,1513265748,570063616,'',0.733038285838,0.763446393878,-0.166781112375,0.03040810804,0.001,-151.946789796,7200.0,0.0,410.0,0.0
1513265750370565159,,567297,,1513265748,580063616,'',0.733038285838,0.762094772189,-0.111735307086,0.0290564863515,0.001,-163.122160068,7200.0,0.0,410.0,0.0
1513265750380536556,,567298,,1513265748,590063616,'',0.733038285838,0.760863215545,-0.114594890237,0.027824929707,0.001,-152.079874548,7200.0,0.0,410.0,0.0
1513265750390476670,,567299,,1513265748,600063616,'',0.733038285838,0.759756181905,-0.119970991881,0.0267178960674,0.001,-143.137381983,7200.0,0.0,410.0,0.0
1513265750400452892,,567300,,1513265748,610063616,'',0.733038285838,0.75870757419,-0.0987729416535,0.0256692883521,0.001,-144.972671394,7200.0,0.0,410.0,0.0
1513265750410368768,,567301,,1513265748,620063616,'',0.733038285838,0.757536269607,-0.130601405806,0.024497983769,0.001,-122.559450467,7200.0,0.0,410.0,0.0
1513265750420440213,,567302,,1513265748,630063616,'',0.733038285838,0.756174959747,-0.15857579151,0.0231366739094,0.001,-101.181129553,7200.0,0.0,410.0,0.0
1513265750430250720,,567303,,1513265748,640063616,'',0.733038285838,0.754448594351,-0.179179646182,0.0214103085132,0.001,-80.5377415858,7200.0,0.0,410.0,0.0
1513265750440253107,,567304,,1513265748,650063616,'',0.733038285838,0.752590375127,-0.169373229888,0.0195520892894,0.001,-70.8507306041,7200.0,0.0,410.0,0.0
1513265750450141475,,567305,,1513265748,660063616,'',0.733038285838,0.750814562695,-0.188982897477,0.0177762768571,0.001,-50.1217769233,7200.0,0.0,410.0,0.0
1513265750460098539,,567306,,1513265748,670063616,'',0.733038285838,0.749037457276,-0.180840712272,0.0159991714385,0.001,-43.919929487,7200.0,0.0,410.0,0.0
1513265750470536524,,567307,,1513265748,680063616,'',0.733038285838,0.747440771424,-0.148573553189,0.0144024855862,0.001,-44.0093392866,7200.0,0.0,410.0,0.0
1513265750480418497,,567308,,1513265748,690063616,'',0.733038285838,0.745904160206,-0.145269081873,0.012865874368,0.001,-32.7100541557,7200.0,0.0,410.0,0.0
1513265750490400970,,567309,,1513265748,700063616,'',0.733038285838,0.744268313501,-0.167695283821,0.011230027663,0.001,-12.2418627968,7200.0,0.0,410.0,0.0
1513265750500308823,,567310,,1513265748,710063616,'',0.733038285838,0.742403649154,-0.213249161414,0.00936536331611,0.001,20.3461919764,7200.0,0.0,410.0,0.0
1513265750510400978,,567311,,1513265748,720063616,'',0.733038285838,0.740284237791,-0.225915774066,0.00724595195295,0.001,38.9668684674,7200.0,0.0,410.0,0.0
1513265750520300982,,567312,,1513265748,730063616,'',0.733038285838,0.738077581763,-0.209073650327,0.00503929592508,0.001,49.7737745137,7200.0,0.0,410.0,0.0
1513265750530161702,,567313,,1513265748,740063616,'',0.733038285838,0.735796583693,-0.218460181127,0.00275829785515,0.001,69.7846740003,7200.0,0.0,410.0,0.0
1513265750540596643,,567314,,1513265748,750063616,'',0.733038285838,0.733706152162,-0.20396169806,0.000667866324293,0.001,79.2514355424,7200.0,0.0,410.0,0.0
1513265750550441965,,567315,,1513265748,760063616,'',0.733038285838,0.731769343967,-0.192581266233,-0.00126894187045,0.001,88.578960486,7200.0,0.0,410.0,0.0
1513265750560565968,,567316,,1513265748,770063616,'',0.733038285838,0.730041085736,-0.157666221071,0.0,0.001,0.0,7200.0,0.0,410.0,0.0
1513265750570520817,,567317,,1513265748,780063616,'',0.733038285838,0.72857789721,-0.155826067214,0.0,0.001,0.0,7200.0,0.0,410.0,0.0
1513265750580499480,,567318,,1513265748,790063616,'',0.733038285838,0.727179069676,-0.127569884892,0.0,0.001,0.0,7200.0,0.0,410.0,0.0
1513265750590383355,,567319,,1513265748,800063616,'',0.733038285838,0.725982902194,-0.10340139533,0.0,0.001,0.0,7200.0,0.0,410.0,0.0
1513265750600408485,,567320,,1513265748,810063616,'',0.733038285838,0.72480419275,-0.107330425326,0.0,0.001,0.0,7200.0,0.0,410.0,0.0
1513265750610203823,,567321,,1513265748,820063616,'',0.733038285838,0.723738251063,-0.113545766522,0.0,0.001,0.0,7200.0,0.0,410.0,0.0
1513265750620163845,,567322,,1513265748,830063616,'',0.733038285838,0.722694907551,-0.0924651521979,0.0,0.001,0.0,7200.0,0.0,410.0,0.0
1513265750630323627,,567323,,1513265748,840063616,'',0.733038285838,0.721662948898,-0.0993596027397,0.0,0.001,0.0,7200.0,0.0,410.0,0.0
1513265750640441253,,567324,,1513265748,850063616,'',0.733038285838,0.720743708544,-0.108529269364,0.0,0.001,0.0,7200.0,0.0,410.0,0.0
1513265750650319266,,567325,,1513265748,860063616,'',0.733038285838,0.719913454845,-0.0639924661879,0.0,0.001,0.0,7200.0,0.0,410.0,0.0
1513265750660566358,,567326,,1513265748,870063616,'',0.733038285838,0.719116864162,-0.075641129908,0.0,0.001,0.0,7200.0,0.0,410.0,0.0
1513265750670472549,,567327,,1513265748,880063616,'',0.733038285838,0.71843756249,-0.0619223490909,0.0,0.001,0.0,7200.0,0.0,410.0,0.0
1513265750680348151,,567328,,1513265748,890063616,'',0.733038285838,0.717905914579,-0.0511836323704,0.0,0.001,0.0,7200.0,0.0,410.0,0.0
1513265750690346275,,567329,,1513265748,900063616,'',0.733038285838,0.717446238816,-0.041900626752,0.0,0.001,0.0,7200.0,0.0,410.0,0.0
1513265750700173523,,567330,,1513265748,910063616,'',0.733038285838,0.717019764541,-0.0332867542158,0.0,0.001,0.0,7200.0,0.0,410.0,0.0
1513265750710637261,,567331,,1513265748,920063616,'',0.733038285838,0.716720858348,-0.0272506855327,-0.01631742749,0.001,128.446300822,7200.0,0.0,410.0,0.0
1513265750720552876,,567332,,1513265748,930063616,'',0.733038285838,0.716453219598,-0.0218478648241,-0.0165850662393,0.001,128.425957265,7200.0,0.0,410.0,0.0
1513265750730360260,,567333,,1513265748,940063616,'',0.733038285838,0.716234139299,-0.0174295095762,-0.0168041465388,0.001,128.134978997,7200.0,0.0,410.0,0.0
1513265750740259692,,567334,,1513265748,950063616,'',0.733038285838,0.716026973233,-0.0132505581842,-0.0170113126043,0.001,127.807560276,7200.0,0.0,410.0,0.0
1513265750750282100,,567335,,1513265748,960063616,'',0.733038285838,0.715759418105,-0.0355850342036,-0.0172788677326,0.001,138.71563819,7200.0,0.0,410.0,0.0
1513265750760228093,,567336,,1513265748,970063616,'',0.733038285838,0.715543738239,-0.00347985790119,-0.0174945475989,0.001,127.396941829,7200.0,0.0,410.0,0.0
1513265750770272309,,567337,,1513265748,980063616,'',0.733038285838,0.715391011173,-0.00041357334119,-0.0176472746647,0.001,127.227065343,7200.0,0.0,410.0,0.0
1513265750780561767,,567338,,1513265748,990063616,'',0.733038285838,0.715362749366,0.000163297568894,-0.0176755364718,0.001,127.19209849,7200.0,0.0,410.0,0.0
1513265750790352108,,567339,,1513265749,63616,'',0.733038285838,0.715443628889,0.0262715832788,-0.0175946569488,0.001,116.081782369,7200.0,0.0,410.0,0.0
1513265750800399328,,567340,,1513265749,10063616,'',0.733038285838,0.715683150303,0.0214372501978,-0.017355135535,0.001,116.14807019,7200.0,0.0,410.0,0.0
1513265750810299063,,567341,,1513265749,20063616,'',0.733038285838,0.716254859474,0.065366656357,-0.0167834263633,0.001,93.9325233474,7200.0,0.0,410.0,0.0
1513265750820312145,,567342,,1513265749,30063616,'',0.733038285838,0.717101763163,0.10373624512,-0.0159365226746,0.001,71.9488019033,7200.0,0.0,410.0,0.0
1513265750830210997,,567343,,1513265749,40063616,'',0.733038285838,0.718083032509,0.111645824523,-0.0149552533283,0.001,62.7426907267,7200.0,0.0,410.0,0.0
1513265750840067986,,567344,,1513265749,50063616,'',0.733038285838,0.719265381613,0.115489346768,-0.0137729042246,0.001,51.4818511087,7200.0,0.0,410.0,0.0
1513265750850432411,,567345,,1513265749,60063616,'',0.733038285838,0.720629572979,0.143410534287,-0.0124087128586,0.001,30.3610369797,7200.0,0.0,410.0,0.0
1513265750860728185,,567346,,1513265749,70063616,'',0.733038285838,0.722070490691,0.142030753497,-0.0109677951468,0.001,20.732396725,7200.0,0.0,410.0,0.0
1513265750870496191,,567347,,1513265749,80063616,'',0.733038285838,0.72350285942,0.140842609507,-0.00953542641755,0.001,10.4931941329,7200.0,0.0,410.0,0.0
1513265750880390201,,567348,,1513265749,90063616,'',0.733038285838,0.724967075479,0.139004142681,-0.00807121035839,0.001,2.16579137783,7200.0,0.0,410.0,0.0
1513265750890336358,,567349,,1513265749,100063616,'',0.733038285838,0.726368042381,0.138454937296,-0.00667024345654,0.001,-8.73305197392,7200.0,0.0,410.0,0.0
1513265750900322606,,567350,,1513265749,110063616,'',0.733038285838,0.727587730901,0.113810230241,-0.00545055493697,0.001,-7.60444531458,7200.0,0.0,410.0,0.0
1513265750910327948,,567351,,1513265749,120063616,'',0.733038285838,0.728759271298,0.11787729502,-0.00427901453949,0.001,-17.7154572394,7200.0,0.0,410.0,0.0
1513265750920302409,,567352,,1513265749,130063616,'',0.733038285838,0.729790907606,0.0970342964532,-0.00324737823209,0.001,-15.596803268,7200.0,0.0,410.0,0.0
1513265750930136062,,567353,,1513265749,140063616,'',0.733038285838,0.730661568722,0.079456604013,-0.00237671711565,0.001,-14.9025758409,7200.0,0.0,410.0,0.0
1513265750940015593,,567354,,1513265749,150063616,'',0.733038285838,0.731504012842,0.0901737817414,-0.00153427299598,0.001,-26.2579888087,7200.0,0.0,410.0,0.0
1513265750950582619,,567355,,1513265749,160063616,'',0.733038285838,0.73219487406,0.0762213771122,0.0,0.001,-377.103780469,7200.0,0.0,410.0,0.0
1513265750960764824,,567356,,1513265749,170063616,'',0.733038285838,0.732879354825,0.062392300915,0.0,0.001,0.0,7200.0,0.0,410.0,0.0
1513265750970146843,,567357,,1513265749,180063616,'',0.733038285838,0.733543573881,0.0767120374728,0.0,0.001,0.0,7200.0,0.0,410.0,0.0
1513265750980199188,,567358,,1513265749,190063616,'',0.733038285838,0.734209154277,0.0632646262284,0.0,0.001,0.0,7200.0,0.0,410.0,0.0
1513265750990098848,,567359,,1513265749,200063616,'',0.733038285838,0.734754103717,0.0522506167979,0.0,0.001,0.0,7200.0,0.0,410.0,0.0
1513265751000083219,,567360,,1513265749,210063616,'',0.733038285838,0.735248304851,0.0422634251154,0.0,0.001,0.0,7200.0,0.0,410.0,0.0
1513265751010058142,,567361,,1513265749,220063616,'',0.733038285838,0.735726223459,0.0603498751128,0.0,0.001,0.0,7200.0,0.0,410.0,0.0
1513265751020566370,,567362,,1513265749,230063616,'',0.733038285838,0.736141124286,0.0519616509946,0.0,0.001,0.0,7200.0,0.0,410.0,0.0
1513265751030377052,,567363,,1513265749,240063616,'',0.733038285838,0.736461817478,0.0454837280659,0.0,0.001,0.0,7200.0,0.0,410.0,0.0
1513265751040336754,,567364,,1513265749,250063616,'',0.733038285838,0.73667542605,0.0411702323774,0.0,0.001,0.0,7200.0,0.0,410.0,0.0
1513265751050163851,,567365,,1513265749,260063616,'',0.733038285838,0.736872984742,0.0371787593941,0.0,0.001,0.0,7200.0,0.0,410.0,0.0
1513265751060093702,,567366,,1513265749,270063616,'',0.733038285838,0.736981509303,0.0072499559828,0.0,0.001,0.0,7200.0,0.0,410.0,0.0
1513265751070491364,,567367,,1513265749,280063616,'',0.733038285838,0.737119249311,0.0044640541428,0.0,0.001,0.0,7200.0,0.0,410.0,0.0
1513265751080338470,,567368,,1513265749,290063616,'',0.733038285838,0.737236389541,0.0298447231339,0.0,0.001,0.0,7200.0,0.0,410.0,0.0
1513265751090189901,,567369,,1513265749,300063616,'',0.733038285838,0.737354318969,0.0274627825793,0.0,0.001,0.0,7200.0,0.0,410.0,0.0
1513265751100255797,,567370,,1513265749,310063616,'',0.733038285838,0.737455162064,-0.00231577628861,0.0,0.001,0.0,7200.0,0.0,410.0,0.0
1513265751110221856,,567371,,1513265749,320063616,'',0.733038285838,0.737506880436,-0.00335851158183,0.0,0.001,0.0,7200.0,0.0,410.0,0.0
1513265751120109437,,567372,,1513265749,330063616,'',0.733038285838,0.737573473048,-0.00469684440769,0.0,0.001,0.0,7200.0,0.0,410.0,0.0
1513265751130115112,,567373,,1513265749,340063616,'',0.733038285838,0.737580176124,-0.00482913611933,0.0,0.001,0.0,7200.0,0.0,410.0,0.0
1513265751140423824,,567374,,1513265749,350063616,'',0.733038285838,0.737561854769,-0.00446803598392,0.0,0.001,0.0,7200.0,0.0,410.0,0.0
1513265751150462371,,567375,,1513265749,360063616,'',0.733038285838,0.737573608025,0.0230207669268,0.0,0.001,0.0,7200.0,0.0,410.0,0.0
1513265751160402038,,567376,,1513265749,370063616,'',0.733038285838,0.737554984456,-0.00433752795941,0.0,0.001,0.0,7200.0,0.0,410.0,0.0
1513265751170277156,,567377,,1513265749,380063616,'',0.733038285838,0.737614865976,0.022203725962,0.0,0.001,0.0,7200.0,0.0,410.0,0.0
1513265751180273051,,567378,,1513265749,390063616,'',0.733038285838,0.737587954186,-0.0049986605931,0.0,0.001,0.0,7200.0,0.0,410.0,0.0
1513265751190155531,,567379,,1513265749,400063616,'',0.733038285838,0.737616859413,0.0221667772958,0.0,0.001,0.0,7200.0,0.0,410.0,0.0
1513265751200026785,,567380,,1513265749,410063616,'',0.733038285838,0.737566752162,-0.00456304935699,0.0,0.001,0.0,7200.0,0.0,410.0,0.0
1513265751210576192,,567381,,1513265749,420063616,'',0.733038285838,0.737525739759,-0.00373560673088,0.0,0.001,0.0,7200.0,0.0,410.0,0.0
1513265751220458987,,567382,,1513265749,430063616,'',0.733038285838,0.737418540595,-0.00156519914788,0.0,0.001,0.0,7200.0,0.0,410.0,0.0
1513265751230423667,,567383,,1513265749,440063616,'',0.733038285838,0.737379681726,-0.000781979484965,0.0,0.001,0.0,7200.0,0.0,410.0,0.0
1513265751240352187,,567384,,1513265749,450063616,'',0.733038285838,0.737324042328,0.000345260265781,0.0,0.001,0.0,7200.0,0.0,410.0,0.0
1513265751250257089,,567385,,1513265749,460063616,'',0.733038285838,0.737020596359,-0.0490000839886,0.0,0.001,0.0,7200.0,0.0,410.0,0.0
1513265751260273590,,567386,,1513265749,470063616,'',0.733038285838,0.736562311037,-0.0397364534561,0.0,0.001,0.0,7200.0,0.0,410.0,0.0
1513265751270355795,,567387,,1513265749,480063616,'',0.733038285838,0.736381240904,-0.00836982487756,0.0,0.001,0.0,7200.0,0.0,410.0,0.0
1513265751280165485,,567388,,1513265749,490063616,'',0.733038285838,0.736310933175,0.0208045726328,0.0,0.001,0.0,7200.0,0.0,410.0,0.0
1513265751290069858,,567389,,1513265749,500063616,'',0.733038285838,0.736602760502,0.0426420607054,0.0,0.001,0.0,7200.0,0.0,410.0,0.0
1513265751300542560,,567390,,1513265749,510063616,'',0.733038285838,0.737089778496,0.0605430411848,0.0,0.001,0.0,7200.0,0.0,410.0,0.0
1513265751310642132,,567391,,1513265749,520063616,'',0.733038285838,0.737866230489,0.0725754430951,0.0,0.001,0.0,7200.0,0.0,410.0,0.0
1513265751320468952,,567392,,1513265749,530063616,'',0.733038285838,0.738615992656,0.029710559399,0.0,0.001,0.0,7200.0,0.0,410.0,0.0
1513265751330435944,,567393,,1513265749,540063616,'',0.733038285838,0.738585384446,-0.108364974964,0.0,0.001,0.0,7200.0,0.0,410.0,0.0
1513265751340404099,,567394,,1513265749,550063616,'',0.733038285838,0.735035980264,-0.480475333388,0.0,0.001,0.0,7200.0,0.0,410.0,0.0
1513265751350289819,,567395,,1513265749,560063616,'',0.733038285838,0.730451100673,-0.415588967406,0.0,0.001,0.0,7200.0,0.0,410.0,0.0
1513265751360263661,,567396,,1513265749,570063616,'',0.733038285838,0.726722152362,-0.368002248396,0.0,0.001,0.0,7200.0,0.0,410.0,0.0
1513265751370364732,,567397,,1513265749,580063616,'',0.733038285838,0.723565586428,-0.276494025463,0.0,0.001,0.0,7200.0,0.0,410.0,0.0
1513265751380196538,,567398,,1513265749,590063616,'',0.733038285838,0.720880920452,-0.250003582702,0.0,0.001,0.0,7200.0,0.0,410.0,0.0
1513265751390323293,,567399,,1513265749,600063616,'',0.733038285838,0.718637349854,-0.2046778532,0.0,0.001,0.0,7200.0,0.0,410.0,0.0
1513265751400329391,,567400,,1513265749,610063616,'',0.733038285838,0.716700195917,-0.165543368271,0.0,0.001,0.0,7200.0,0.0,410.0,0.0
1513265751410481148,,567401,,1513265749,620063616,'',0.733038285838,0.715037907173,-0.159710522451,0.0,0.001,0.0,7200.0,0.0,410.0,0.0
1513265751420435645,,567402,,1513265749,630063616,'',0.733038285838,0.713628387876,-0.131233730342,-0.0194098979612,0.001,550.0,7200.0,0.0,410.0,0.0
1513265751430285670,,567403,,1513265749,640063616,'',0.733038285838,0.712502690425,-0.108492275382,-0.0205355954122,0.001,191.749804801,7200.0,0.0,410.0,0.0
1513265751440406136,,567404,,1513265749,650063616,'',0.733038285838,0.711529135946,-0.0888221676179,-0.021509149892,0.001,191.388733785,7200.0,0.0,410.0,0.0
1513265751450273288,,567405,,1513265749,660063616,'',0.733038285838,0.710680959854,-0.0716797911038,-0.0223573259838,0.001,190.449062765,7200.0,0.0,410.0,0.0
1513265751460610409,,567406,,1513265749,670063616,'',0.733038285838,0.709960237566,-0.0848527288485,-0.0230780482716,0.001,201.200351181,7200.0,0.0,410.0,0.0
1513265751470667916,,567407,,1513265749,680063616,'',0.733038285838,0.709447508085,-0.0467558460212,-0.0235907777526,0.001,189.027156535,7200.0,0.0,410.0,0.0
1513265751480599084,,567408,,1513265749,690063616,'',0.733038285838,0.709027536779,-0.0382720607299,-0.0240107490589,0.001,189.093578902,7200.0,0.0,410.0,0.0
1513265751490320888,,567409,,1513265749,700063616,'',0.733038285838,0.708684700728,-0.0313464746237,-0.0243535851095,0.001,188.286986692,7200.0,0.0,410.0,0.0
1513265751500420808,,567410,,1513265749,710063616,'',0.733038285838,0.708483585412,0.000454663545123,-0.0245547004259,0.001,176.607688725,7200.0,0.0,410.0,0.0
1513265751510332060,,567411,,1513265749,720063616,'',0.733038285838,0.708565874606,0.0265352885505,-0.0244724112321,0.001,165.477123768,7200.0,0.0,410.0,0.0
1513265751520116158,,567412,,1513265749,730063616,'',0.733038285838,0.70885637318,0.0483929655534,-0.0241819126577,0.001,154.143562723,7200.0,0.0,410.0,0.0
1513265751530078165,,567413,,1513265749,740063616,'',0.733038285838,0.709418155643,0.0370352296262,-0.0236201301949,0.001,154.813439277,7200.0,0.0,410.0,0.0
1513265751540615428,,567414,,1513265749,750063616,'',0.733038285838,0.710128903129,0.0781522482032,-0.022909382709,0.001,132.677352171,7200.0,0.0,410.0,0.0
1513265751550478318,,567415,,1513265749,760063616,'',0.733038285838,0.710958578961,0.0891335647326,-0.0220797068762,0.001,122.233480868,7200.0,0.0,410.0,0.0
1513265751560649397,,567416,,1513265749,770063616,'',0.733038285838,0.711987736817,0.0960841859518,-0.021050549021,0.001,111.884252277,7200.0,0.0,410.0,0.0
1513265751570369508,,567417,,1513265749,780063616,'',0.733038285838,0.713099289544,0.101370171033,-0.0199389962937,0.001,101.869692515,7200.0,0.0,410.0,0.0
1513265751580275640,,567418,,1513265749,790063616,'',0.733038285838,0.714209756281,0.106672935053,-0.0188285295568,0.001,92.5772611241,7200.0,0.0,410.0,0.0
1513265751590267355,,567419,,1513265749,800063616,'',0.733038285838,0.715571995771,0.134633937353,-0.0174662900666,0.001,70.4004654866,7200.0,0.0,410.0,0.0
1513265751600156033,,567420,,1513265749,810063616,'',0.733038285838,0.716857272173,0.13640303607,-0.0161810136642,0.001,60.2421400062,7200.0,0.0,410.0,0.0
1513265751610167348,,567421,,1513265749,820063616,'',0.733038285838,0.718158336059,0.137865994913,-0.014879949779,0.001,50.4378642404,7200.0,0.0,410.0,0.0
1513265751620373704,,567422,,1513265749,830063616,'',0.733038285838,0.719248950531,0.115829461145,-0.0137893353063,0.001,51.5546263691,7200.0,0.0,410.0,0.0
1513265751630210153,,567423,,1513265749,840063616,'',0.733038285838,0.720316338257,0.122007132718,-0.0127219475807,0.001,41.2767663157,7200.0,0.0,410.0,0.0
1513265751640556289,,567424,,1513265749,850063616,'',0.733038285838,0.72120988261,0.0762162654792,-0.0118284032273,0.001,53.7583807567,7200.0,0.0,410.0,0.0
1513265751650555850,,567425,,1513265749,860063616,'',0.733038285838,0.722066352311,0.0589055281682,-0.0109719335264,0.001,54.7209071397,7200.0,0.0,410.0,0.0
1513265751660512342,,567426,,1513265749,870063616,'',0.733038285838,0.722821178582,0.0714049147006,-0.0102171072558,0.001,44.8730913491,7200.0,0.0,410.0,0.0
1513265751670502496,,567427,,1513265749,880063616,'',0.733038285838,0.723540343136,0.084617885849,-0.00949794270145,0.001,33.836432282,7200.0,0.0,410.0,0.0
1513265751680450946,,567428,,1513265749,890063616,'',0.733038285838,0.724201372391,0.0712656471792,-0.00883691344633,0.001,34.20554713,7200.0,0.0,410.0,0.0
1513265751690484881,,567429,,1513265749,900063616,'',0.733038285838,0.724791248534,0.0593516358267,-0.00824703730335,0.001,34.8720205865,7200.0,0.0,410.0,0.0
1513265751700515333,,567430,,1513265749,910063616,'',0.733038285838,0.725324071012,0.0485872265161,-0.00771421482574,0.001,35.5235648542,7200.0,0.0,410.0,0.0
1513265751710375347,,567431,,1513265749,920063616,'',0.733038285838,0.725760182139,0.0397766397442,-0.00727810369901,0.001,36.0765153524,7200.0,0.0,410.0,0.0
1513265751720400011,,567432,,1513265749,930063616,'',0.733038285838,0.726116565109,0.0325767705146,-0.00692172072892,0.001,36.7100462897,7200.0,0.0,410.0,0.0
1513265751730202058,,567433,,1513265749,940063616,'',0.733038285838,0.726408994137,0.0266689383737,-0.00662929170027,0.001,36.7296679965,7200.0,0.0,410.0,0.0
1513265751740326344,,567434,,1513265749,950063616,'',0.733038285838,0.726698899044,0.0208037527821,-0.00633938679383,0.001,37.0953507906,7200.0,0.0,410.0,0.0
1513265751750401136,,567435,,1513265749,960063616,'',0.733038285838,0.726886227734,0.0170207406007,-0.00615205810377,0.001,37.0807222916,7200.0,0.0,410.0,0.0
1513265751760394966,,567436,,1513265749,970063616,'',0.733038285838,0.72703838635,0.0139479710282,-0.0059998994875,0.001,37.4611854713,7200.0,0.0,410.0,0.0
1513265751770580098,,567437,,1513265749,980063616,'',0.733038285838,0.727186973694,0.0109541516891,-0.00585131214353,0.001,37.4808626971,7200.0,0.0,410.0,0.0
1513265751780527554,,567438,,1513265749,990063616,'',0.733038285838,0.7272850078,0.00897316521227,-0.00575327803767,0.001,37.7388392684,7200.0,0.0,410.0,0.0
1513265751790420749,,567439,,1513265750,63616,'',0.733038285838,0.727390621873,0.00683141034255,-0.00564766396434,0.001,37.9135112487,7200.0,0.0,410.0,0.0
1513265751800408279,,567440,,1513265750,10063616,'',0.733038285838,0.72752635063,0.0318255141357,-0.00551193520795,0.001,26.5410306323,7200.0,0.0,410.0,0.0
1513265751810161509,,567441,,1513265750,20063616,'',0.733038285838,0.727638193294,0.0295640630522,-0.00540009254402,0.001,26.7066933562,7200.0,0.0,410.0,0.0
1513265751820552120,,567442,,1513265750,30063616,'',0.733038285838,0.727801718524,-0.00146543360632,-0.00523656731362,0.001,38.2946899712,7200.0,0.0,410.0,0.0
1513265751830575256,,567443,,1513265750,40063616,'',0.733038285838,0.727963279256,0.0229981662931,-0.00507500658198,0.001,27.0989717373,7200.0,0.0,410.0,0.0
1513265751840544040,,567444,,1513265750,50063616,'',0.733038285838,0.728169813085,0.0188274242625,-0.00486847275225,0.001,27.2999019536,7200.0,0.0,410.0,0.0
1513265751850340660,,567445,,1513265750,60063616,'',0.733038285838,0.728289571706,0.0164053716801,-0.00474871413113,0.001,27.5890979165,7200.0,0.0,410.0,0.0
1513265751860327619,,567446,,1513265750,70063616,'',0.733038285838,0.728259248093,-0.0107253716746,-0.00477903774473,0.001,38.8401843582,7200.0,0.0,410.0,0.0
1513265751870484859,,567447,,1513265750,80063616,'',0.733038285838,0.728308988066,-0.0117586327994,-0.00472929777199,0.001,38.2484770627,7200.0,0.0,410.0,0.0
1513265751880933944,,567448,,1513265750,90063616,'',0.733038285838,0.72838030856,0.0145502577281,-0.00465797727794,0.001,27.5347835871,7200.0,0.0,410.0,0.0
1513265751890567020,,567449,,1513265750,100063616,'',0.733038285838,0.728432896519,0.0134862707232,-0.00460538931826,0.001,27.6041431834,7200.0,0.0,410.0,0.0
1513265751900494148,,567450,,1513265750,110063616,'',0.733038285838,0.728482207784,0.0125075226547,-0.00455607805353,0.001,27.6076778711,7200.0,0.0,410.0,0.0
1513265751910622404,,567451,,1513265750,120063616,'',0.733038285838,0.728521294802,0.0117344448283,-0.00451699103556,0.001,27.6967376378,7200.0,0.0,410.0,0.0
1513265751920530683,,567452,,1513265750,130063616,'',0.733038285838,0.728601616411,0.010110757348,-0.00443666942618,0.001,27.7737429571,7200.0,0.0,410.0,0.0
1513265751930484083,,567453,,1513265750,140063616,'',0.733038285838,0.728668165165,0.00876749648153,-0.0043701206728,0.001,27.859451283,7200.0,0.0,410.0,0.0
1513265751940530995,,567454,,1513265750,150063616,'',0.733038285838,0.728721031851,0.00770017590667,-0.00431725398616,0.001,27.9917411221,7200.0,0.0,410.0,0.0
1513265751950327197,,567455,,1513265750,160063616,'',0.733038285838,0.728741538797,0.00728168923509,-0.00429674704084,0.001,27.8443263189,7200.0,0.0,410.0,0.0
1513265751960280417,,567456,,1513265750,170063616,'',0.733038285838,0.728781554727,0.00647442117507,-0.00425673111088,0.001,27.9742012587,7200.0,0.0,410.0,0.0
1513265751970705487,,567457,,1513265750,180063616,'',0.733038285838,0.728767260388,0.00676935173096,-0.0042710254496,0.001,27.5960130898,7200.0,0.0,410.0,0.0
1513265751980164288,,567458,,1513265750,190063616,'',0.733038285838,0.728827167887,0.00555836883265,-0.00421111795071,0.001,28.0312181542,7200.0,0.0,410.0,0.0
1513265751990165572,,567459,,1513265750,200063616,'',0.733038285838,0.72880538179,0.0060029787066,-0.0042329040478,0.001,28.0067342837,7200.0,0.0,410.0,0.0
1513265752000629283,,567460,,1513265750,210063616,'',0.733038285838,0.728785472335,0.00639858515148,-0.00425281350305,0.001,27.981201068,7200.0,0.0,410.0,0.0
1513265752010291416,,567461,,1513265750,220063616,'',0.733038285838,0.728744598245,0.00721057956037,-0.0042936875925,0.001,27.9320049784,7200.0,0.0,410.0,0.0
1513265752020121956,,567462,,1513265750,230063616,'',0.733038285838,0.728760407696,0.00689766170346,-0.004277878142,0.001,27.9616442519,7200.0,0.0,410.0,0.0
1513265752030597294,,567463,,1513265750,240063616,'',0.733038285838,0.72877266325,0.00664349201283,-0.00426562258733,0.001,27.9778505888,7200.0,0.0,410.0,0.0
1513265752040478949,,567464,,1513265750,250063616,'',0.733038285838,0.728805505189,0.00597632746815,-0.00423278064871,0.001,28.0612980496,7200.0,0.0,410.0,0.0
1513265752050503687,,567465,,1513265750,260063616,'',0.733038285838,0.728756319975,-0.0207643805155,-0.00428196586311,0.001,39.3746821523,7200.0,0.0,410.0,0.0
1513265752060326271,,567466,,1513265750,270063616,'',0.733038285838,0.728794694801,0.00619998264952,-0.00424359103627,0.001,27.9947239249,7200.0,0.0,410.0,0.0
1513265752070315674,,567467,,1513265750,280063616,'',0.733038285838,0.728826764537,0.00555418137976,-0.00421152130025,0.001,28.0142846709,7200.0,0.0,410.0,0.0
1513265752080372754,,567468,,1513265750,290063616,'',0.733038285838,0.728826603803,-0.0221805618551,-0.00421168203417,0.001,39.46857365,7200.0,0.0,410.0,0.0
1513265752090632217,,567469,,1513265750,300063616,'',0.733038285838,0.72877743731,0.00655165926821,-0.0042608485272,0.001,27.9941112785,7200.0,0.0,410.0,0.0
1513265752100112663,,567470,,1513265750,310063616,'',0.733038285838,0.728787388412,0.00634816835366,-0.00425089742552,0.001,27.9733273852,7200.0,0.0,410.0,0.0
1513265752110558653,,567471,,1513265750,320063616,'',0.733038285838,0.72874670419,0.00716412269665,-0.00429158164754,0.001,28.0031694157,7200.0,0.0,410.0,0.0
1513265752120648669,,567472,,1513265750,330063616,'',0.733038285838,0.728685314127,-0.0193368893703,-0.00435297171039,0.001,39.29340114,7200.0,0.0,410.0,0.0
1513265752130430276,,567473,,1513265750,340063616,'',0.733038285838,0.728684523759,0.00841311384695,-0.00435376207898,0.001,27.8775745202,7200.0,0.0,410.0,0.0
1513265752140651870,,567474,,1513265750,350063616,'',0.733038285838,0.728689887476,0.0083026065129,-0.00434839836181,0.001,27.8769383035,7200.0,0.0,410.0,0.0
1513265752150438299,,567475,,1513265750,360063616,'',0.733038285838,0.728688266422,0.00833599232984,-0.00435001941568,0.001,27.9650797955,7200.0,0.0,410.0,0.0
1513265752160388236,,567476,,1513265750,370063616,'',0.733038285838,0.728666068862,-0.0189569277646,-0.0043722169752,0.001,39.3037009658,7200.0,0.0,410.0,0.0
1513265752170238638,,567477,,1513265750,380063616,'',0.733038285838,0.728645685817,0.00919938365307,-0.00439260002107,0.001,27.8381888651,7200.0,0.0,410.0,0.0
1513265752180206349,,567478,,1513265750,390063616,'',0.733038285838,0.728675259969,-0.0191300803596,-0.00436302586847,0.001,39.1236760105,7200.0,0.0,410.0,0.0
1513265752190891951,,567479,,1513265750,400063616,'',0.733038285838,0.728626652077,-0.0181471688476,-0.00441163376037,0.001,39.0704209704,7200.0,0.0,410.0,0.0
1513265752200829010,,567480,,1513265750,410063616,'',0.733038285838,0.728562801022,0.0108787725537,-0.00447548481527,0.001,27.7427212404,7200.0,0.0,410.0,0.0
1513265752210575038,,567481,,1513265750,420063616,'',0.733038285838,0.728584813155,0.0104298615753,-0.00445347268253,0.001,27.7578206961,7200.0,0.0,410.0,0.0
1513265752220729827,,567482,,1513265750,430063616,'',0.733038285838,0.728579293639,-0.0171861587451,-0.0044589921989,0.001,39.0123256722,7200.0,0.0,410.0,0.0
1513265752230463158,,567483,,1513265750,440063616,'',0.733038285838,0.72854962591,-0.0165653108413,-0.00448865992731,0.001,38.9570896794,7200.0,0.0,410.0,0.0
1513265752240574711,,567484,,1513265750,450063616,'',0.733038285838,0.728526199429,0.0116466317951,-0.00451208640845,0.001,27.6975760929,7200.0,0.0,410.0,0.0
1513265752250519778,,567485,,1513265750,460063616,'',0.733038285838,0.728529960293,-0.0161610464712,-0.00450832554501,0.001,39.1472084697,7200.0,0.0,410.0,0.0
1513265752260407572,,567486,,1513265750,470063616,'',0.733038285838,0.728584691304,0.0104706347817,-0.00445359453348,0.001,27.766972883,7200.0,0.0,410.0,0.0
1513265752270257647,,567487,,1513265750,480063616,'',0.733038285838,0.728578335734,-0.0171592556659,-0.00445995010327,0.001,39.1113558479,7200.0,0.0,410.0,0.0
1513265752280206913,,567488,,1513265750,490063616,'',0.733038285838,0.728575917943,0.0106291383939,-0.00446236789432,0.001,27.7352097875,7200.0,0.0,410.0,0.0
1513265752290071522,,567489,,1513265750,500063616,'',0.733038285838,0.728598116179,0.0101946442236,-0.00444016965844,0.001,27.773802963,7200.0,0.0,410.0,0.0
1513265752300644698,,567490,,1513265750,510063616,'',0.733038285838,0.728635472626,-0.018301295383,-0.0044028132117,0.001,39.2377854396,7200.0,0.0,410.0,0.0
1513265752310511748,,567491,,1513265750,520063616,'',0.733038285838,0.728644602546,-0.0184935965376,-0.00439368329152,0.001,39.2790198055,7200.0,0.0,410.0,0.0
1513265752320518563,,567492,,1513265750,530063616,'',0.733038285838,0.728630857155,0.00951797084984,-0.0044074286828,0.001,27.8933080569,7200.0,0.0,410.0,0.0
1513265752330499836,,567493,,1513265750,540063616,'',0.733038285838,0.728614133832,-0.0178797296891,-0.00442415200594,0.001,39.0145347893,7200.0,0.0,410.0,0.0
1513265752340402098,,567494,,1513265750,550063616,'',0.733038285838,0.728530311194,0.0115572363021,-0.00450797464376,0.001,27.516170724,7200.0,0.0,410.0,0.0
1513265752350390671,,567495,,1513265750,560063616,'',0.733038285838,0.728410899053,-0.0137493786077,-0.0046273867842,0.001,38.8389889593,7200.0,0.0,410.0,0.0
1513265752360310130,,567496,,1513265750,570063616,'',0.733038285838,0.728359778845,-0.0127142508988,-0.00467850699252,0.001,38.9465076222,7200.0,0.0,410.0,0.0
1513265752370387710,,567497,,1513265750,580063616,'',0.733038285838,0.7283148919,-0.0118121535104,-0.00472339393753,0.001,38.8987623227,7200.0,0.0,410.0,0.0
1513265752380381890,,567498,,1513265750,590063616,'',0.733038285838,0.728306779669,-0.0116452404053,-0.00473150616864,0.001,38.8560328615,7200.0,0.0,410.0,0.0
1513265752390312605,,567499,,1513265750,600063616,'',0.733038285838,0.728324275243,-0.0120099457373,-0.00471401059449,0.001,38.8905354579,7200.0,0.0,410.0,0.0
1513265752400187236,,567500,,1513265750,610063616,'',0.733038285838,0.72833955835,-0.0123237025087,-0.00469872748774,0.001,38.9124601266,7200.0,0.0,410.0,0.0
1513265752410100130,,567501,,1513265750,620063616,'',0.733038285838,0.728355910149,0.0150958819668,-0.00468237568851,0.001,27.6504215213,7200.0,0.0,410.0,0.0
1513265752420085808,,567502,,1513265750,630063616,'',0.733038285838,0.728267941347,-0.0108716183311,-0.00477034449055,0.001,38.831974787,7200.0,0.0,410.0,0.0
1513265752430503185,,567503,,1513265750,640063616,'',0.733038285838,0.728219423977,-0.00989546128854,-0.00481886186035,0.001,38.760822048,7200.0,0.0,410.0,0.0
1513265752440376914,,567504,,1513265750,650063616,'',0.733038285838,0.728255125654,-0.0106034296629,-0.00478316018322,0.001,38.8186214696,7200.0,0.0,410.0,0.0
1513265752450290491,,567505,,1513265750,660063616,'',0.733038285838,0.72828522013,-0.0112035927641,-0.00475306570713,0.001,38.7537890595,7200.0,0.0,410.0,0.0
1513265752460315816,,567506,,1513265750,670063616,'',0.733038285838,0.728284366647,0.0165365021923,-0.00475391919041,0.001,27.4065203907,7200.0,0.0,410.0,0.0
1513265752470183263,,567507,,1513265750,680063616,'',0.733038285838,0.728331088485,-0.0121600896637,-0.00470719735229,0.001,38.9437741718,7200.0,0.0,410.0,0.0
1513265752480197753,,567508,,1513265750,690063616,'',0.733038285838,0.728293148131,-0.0113878359104,-0.00474513770634,0.001,38.8558022319,7200.0,0.0,410.0,0.0
1513265752490253717,,567509,,1513265750,700063616,'',0.733038285838,0.728265364932,-0.0108200862334,-0.00477292090595,0.001,38.7445838079,7200.0,0.0,410.0,0.0
1513265752500588763,,567510,,1513265750,710063616,'',0.733038285838,0.728193804429,-0.00938249798511,-0.00484448140895,0.001,38.7449494393,7200.0,0.0,410.0,0.0
1513265752510488415,,567511,,1513265750,720063616,'',0.733038285838,0.728234671494,-0.0102134552504,-0.0048036143434,0.001,38.7955936694,7200.0,0.0,410.0,0.0
1513265752520486386,,567512,,1513265750,730063616,'',0.733038285838,0.728296517225,0.016286291245,-0.00474176861251,0.001,27.4203937133,7200.0,0.0,410.0,0.0
1513265752530409683,,567513,,1513265750,740063616,'',0.733038285838,0.728270055753,0.0168151291714,-0.00476823008438,0.001,27.5511488283,7200.0,0.0,410.0,0.0
1513265752540400170,,567514,,1513265750,750063616,'',0.733038285838,0.728268415085,-0.0108968838785,-0.00476987075291,0.001,38.8325071876,7200.0,0.0,410.0,0.0
1513265752550421628,,567515,,1513265750,760063616,'',0.733038285838,0.728267438747,-0.010884025763,-0.00477084709014,0.001,38.8228189002,7200.0,0.0,410.0,0.0
1513265752560312380,,567516,,1513265750,770063616,'',0.733038285838,0.728317627515,-0.0119021213056,-0.00472065832258,0.001,38.8878135955,7200.0,0.0,410.0,0.0
1513265752570249956,,567517,,1513265750,780063616,'',0.733038285838,0.728288083129,-0.0112981386444,-0.00475020270875,0.001,38.8456902439,7200.0,0.0,410.0,0.0
1513265752580238768,,567518,,1513265750,790063616,'',0.733038285838,0.728259838248,-0.0107195620671,-0.00477844758923,0.001,38.7297186286,7200.0,0.0,410.0,0.0
1513265752590321236,,567519,,1513265750,800063616,'',0.733038285838,0.728234338116,-0.010205516297,-0.00480394772178,0.001,38.7982420053,7200.0,0.0,410.0,0.0
1513265752600520926,,567520,,1513265750,810063616,'',0.733038285838,0.728242294195,0.0173775442251,-0.00479599164296,0.001,27.3807800884,7200.0,0.0,410.0,0.0
1513265752610524734,,567521,,1513265750,820063616,'',0.733038285838,0.728226208547,-0.0100403977216,-0.00481207729102,0.001,38.8812873771,7200.0,0.0,410.0,0.0
1513265752620393600,,567522,,1513265750,830063616,'',0.733038285838,0.728213025275,-0.00977365240715,-0.00482526056262,0.001,38.762535707,7200.0,0.0,410.0,0.0
1513265752630414925,,567523,,1513265750,840063616,'',0.733038285838,0.728176537146,-0.00902405177754,-0.00486174869146,0.001,38.6355547446,7200.0,0.0,410.0,0.0
1513265752640270218,,567524,,1513265750,850063616,'',0.733038285838,0.728120077402,-0.00788732925911,-0.00491820843578,0.001,38.6658008427,7200.0,0.0,410.0,0.0
1513265752650197922,,567525,,1513265750,860063616,'',0.733038285838,0.728099218279,-0.00747311124657,-0.00493906755835,0.001,38.6482656345,7200.0,0.0,410.0,0.0
1513265752660143673,,567526,,1513265750,870063616,'',0.733038285838,0.728132999749,0.0195701370155,-0.00490528608903,0.001,27.2510911436,7200.0,0.0,410.0,0.0
1513265752670118083,,567527,,1513265750,880063616,'',0.733038285838,0.728157882631,-0.00867003780091,-0.00488040320659,0.001,38.6227711232,7200.0,0.0,410.0,0.0
1513265752680202991,,567528,,1513265750,890063616,'',0.733038285838,0.728129251024,-0.00809469124855,-0.00490903481359,0.001,38.676110435,7200.0,0.0,410.0,0.0
1513265752690512452,,567529,,1513265750,900063616,'',0.733038285838,0.728107598141,-0.00766045883876,-0.00493068769668,0.001,38.6615924103,7200.0,0.0,410.0,0.0
1513265752700537903,,567530,,1513265750,910063616,'',0.733038285838,0.728064137057,-0.0067751305512,-0.00497414878054,0.001,38.6029334025,7200.0,0.0,410.0,0.0
1513265752710325846,,567531,,1513265750,920063616,'',0.733038285838,0.728030029353,0.0216477335686,-0.00500825648437,0.001,27.3513131439,7200.0,0.0,410.0,0.0
1513265752720291623,,567532,,1513265750,930063616,'',0.733038285838,0.728100225933,-0.00749196844273,-0.00493805990483,0.001,38.6434911654,7200.0,0.0,410.0,0.0
1513265752730264697,,567533,,1513265750,940063616,'',0.733038285838,0.72810630892,-0.00760787397055,-0.00493197691769,0.001,38.6533374072,7200.0,0.0,410.0,0.0
1513265752740160967,,567534,,1513265750,950063616,'',0.733038285838,0.728037870749,-0.00622767304697,-0.00500041508856,0.001,38.5838865717,7200.0,0.0,410.0,0.0
1513265752750133669,,567535,,1513265750,960063616,'',0.733038285838,0.728032395358,-0.00612577502292,-0.00500589048002,0.001,38.5067700285,7200.0,0.0,410.0,0.0
1513265752760086756,,567536,,1513265750,970063616,'',0.733038285838,0.728028776804,-0.00606066567703,-0.00500950903382,0.001,38.5787392184,7200.0,0.0,410.0,0.0
1513265752770575512,,567537,,1513265750,980063616,'',0.733038285838,0.728048607896,-0.00645459306379,-0.00498967794146,0.001,38.5886682767,7200.0,0.0,410.0,0.0
1513265752780510885,,567538,,1513265750,990063616,'',0.733038285838,0.728041268787,-0.00630548556714,-0.00499701705088,0.001,38.5224423872,7200.0,0.0,410.0,0.0
1513265752790378492,,567539,,1513265751,63616,'',0.733038285838,0.727984634904,-0.00516165904705,-0.0050536509336,0.001,38.464658207,7200.0,0.0,410.0,0.0
1513265752800332497,,567540,,1513265751,10063616,'',0.733038285838,0.727990464111,0.0224621908888,-0.00504782172626,0.001,27.0642946907,7200.0,0.0,410.0,0.0
1513265752810300376,,567541,,1513265751,20063616,'',0.733038285838,0.728014759084,-0.00576254386631,-0.00502352675387,0.001,38.5474409525,7200.0,0.0,410.0,0.0
1513265752820111278,,567542,,1513265751,30063616,'',0.733038285838,0.728034096529,-0.00614917965722,-0.00500418930866,0.001,38.4517963965,7200.0,0.0,410.0,0.0
1513265752830209782,,567543,,1513265751,40063616,'',0.733038285838,0.728077692484,0.0207103624944,-0.00496059335408,0.001,27.1971090669,7200.0,0.0,410.0,0.0
1513265752840307769,,567544,,1513265751,50063616,'',0.733038285838,0.728037668874,-0.00621880478845,-0.0050006169641,0.001,38.5067227405,7200.0,0.0,410.0,0.0
1513265752850091864,,567545,,1513265751,60063616,'',0.733038285838,0.728006594337,-0.00559732446871,-0.0050316915006,0.001,38.4895595244,7200.0,0.0,410.0,0.0
1513265752860577896,,567546,,1513265751,70063616,'',0.733038285838,0.728008361277,0.0221048625147,-0.00502992456066,0.001,27.093564044,7200.0,0.0,410.0,0.0
1513265752870118529,,567547,,1513265751,80063616,'',0.733038285838,0.727980656298,-0.00507600887929,-0.0050576295394,0.001,38.5010859222,7200.0,0.0,410.0,0.0
1513265752880571330,,567548,,1513265751,90063616,'',0.733038285838,0.727985011302,-0.00515056753904,-0.00505327453578,0.001,38.5140095014,7200.0,0.0,410.0,0.0
1513265752890528184,,567549,,1513265751,100063616,'',0.733038285838,0.727988569555,0.0225065829573,-0.00504971628271,0.001,27.1065459532,7200.0,0.0,410.0,0.0
1513265752900498233,,567550,,1513265751,110063616,'',0.733038285838,0.727992739603,-0.0053177718482,-0.00504554623435,0.001,38.4764206481,7200.0,0.0,410.0,0.0
1513265752910384389,,567551,,1513265751,120063616,'',0.733038285838,0.727991525152,-0.00529878221104,-0.00504676068571,0.001,38.4689893957,7200.0,0.0,410.0,0.0
1513265752920372040,,567552,,1513265751,130063616,'',0.733038285838,0.727943924075,-0.00433775965837,-0.00509436176239,0.001,38.469548776,7200.0,0.0,410.0,0.0
1513265752930227473,,567553,,1513265751,140063616,'',0.733038285838,0.727952931133,-0.00452514262947,-0.00508535470488,0.001,38.4797430448,7200.0,0.0,410.0,0.0
1513265752940092983,,567554,,1513265751,150063616,'',0.733038285838,0.727938439242,-0.00423215451069,-0.00509984659545,0.001,38.5109656615,7200.0,0.0,410.0,0.0
1513265752950565445,,567555,,1513265751,160063616,'',0.733038285838,0.727924876688,-0.0039520833186,-0.00511340914958,0.001,38.4069888075,7200.0,0.0,410.0,0.0
1513265752960525894,,567556,,1513265751,170063616,'',0.733038285838,0.727889363422,-0.00323530707682,-0.00514892241545,0.001,38.4065175405,7200.0,0.0,410.0,0.0
1513265752970556569,,567557,,1513265751,180063616,'',0.733038285838,0.727837085753,-0.00217968610962,-0.00520120008467,0.001,38.3460426253,7200.0,0.0,410.0,0.0
1513265752980522127,,567558,,1513265751,190063616,'',0.733038285838,0.727842217978,-0.00228310842624,-0.00519606785923,0.001,38.3535340742,7200.0,0.0,410.0,0.0
1513265752990592613,,567559,,1513265751,200063616,'',0.733038285838,0.727848102538,-0.00240061822525,-0.00519018329937,0.001,38.3591975604,7200.0,0.0,410.0,0.0
1513265753000538090,,567560,,1513265751,210063616,'',0.733038285838,0.727853409214,-0.00250169535138,-0.00518487662333,0.001,38.3420580302,7200.0,0.0,410.0,0.0
1513265753010323752,,567561,,1513265751,220063616,'',0.733038285838,0.727830857282,-0.00204796139857,-0.00520742855592,0.001,38.3409696249,7200.0,0.0,410.0,0.0
1513265753020310592,,567562,,1513265751,230063616,'',0.733038285838,0.727863363405,-0.00270611647091,-0.00517492243254,0.001,38.3762264174,7200.0,0.0,410.0,0.0
1513265753030190813,,567563,,1513265751,240063616,'',0.733038285838,0.727889911288,0.0244887371846,-0.00514837454975,0.001,27.2414014554,7200.0,0.0,410.0,0.0
1513265753040312532,,567564,,1513265751,250063616,'',0.733038285838,0.727883647022,-0.00312264043505,-0.00515463881604,0.001,38.4037935047,7200.0,0.0,410.0,0.0
1513265753050640181,,567565,,1513265751,260063616,'',0.733038285838,0.727855613254,-0.00255633406606,-0.00518267258383,0.001,38.3698502213,7200.0,0.0,410.0,0.0
1513265753060641128,,567566,,1513265751,270063616,'',0.733038285838,0.727832664043,-0.00209274015175,-0.00520562179446,0.001,38.3196588476,7200.0,0.0,410.0,0.0
1513265753070471614,,567567,,1513265751,280063616,'',0.733038285838,0.727864350092,-0.00273842508593,-0.00517393574567,0.001,38.3514281023,7200.0,0.0,410.0,0.0
1513265753080507541,,567568,,1513265751,290063616,'',0.733038285838,0.727865032016,-0.00275073196426,-0.00517325382185,0.001,38.3563959592,7200.0,0.0,410.0,0.0
1513265753090297164,,567569,,1513265751,300063616,'',0.733038285838,0.727840369926,-0.00225178714511,-0.00519791591171,0.001,38.3543434954,7200.0,0.0,410.0,0.0
1513265753100368493,,567570,,1513265751,310063616,'',0.733038285838,0.727820225525,-0.00184424080336,-0.00521806031269,0.001,38.313547206,7200.0,0.0,410.0,0.0
1513265753110274662,,567571,,1513265751,320063616,'',0.733038285838,0.727830286887,0.025684924116,-0.00520799895058,0.001,27.1974968412,7200.0,0.0,410.0,0.0
1513265753120110052,,567572,,1513265751,330063616,'',0.733038285838,0.727835113154,-0.00215586603936,-0.00520317268339,0.001,38.3455494594,7200.0,0.0,410.0,0.0
1513265753130610731,,567573,,1513265751,340063616,'',0.733038285838,0.727842100243,-0.00229539757091,-0.00519618559417,0.001,38.3515980418,7200.0,0.0,410.0,0.0
1513265753140540678,,567574,,1513265751,350063616,'',0.733038285838,0.727873158273,-0.00292485338559,-0.00516512756482,0.001,38.3885931287,7200.0,0.0,410.0,0.0
1513265753150384135,,567575,,1513265751,360063616,'',0.733038285838,0.727870237216,-0.00286421427087,-0.0051680486212,0.001,38.3875573413,7200.0,0.0,410.0,0.0
1513265753160341316,,567576,,1513265751,370063616,'',0.733038285838,0.72786784811,-0.00281944275595,-0.00517043772795,0.001,38.3823379858,7200.0,0.0,410.0,0.0
1513265753170320388,,567577,,1513265751,380063616,'',0.733038285838,0.727894166872,0.0243900827182,-0.00514411896558,0.001,27.2235836106,7200.0,0.0,410.0,0.0
1513265753180117713,,567578,,1513265751,390063616,'',0.733038285838,0.727864220766,-0.00274308812199,-0.00517406507186,0.001,38.3771831044,7200.0,0.0,410.0,0.0
1513265753190168819,,567579,,1513265751,400063616,'',0.733038285838,0.727839705825,-0.00224552979035,-0.00519858001216,0.001,38.3480626023,7200.0,0.0,410.0,0.0
1513265753200254405,,567580,,1513265751,410063616,'',0.733038285838,0.727846498278,-0.00237483118186,-0.00519178755927,0.001,38.3377354359,7200.0,0.0,410.0,0.0
1513265753210537315,,567581,,1513265751,420063616,'',0.733038285838,0.727876607871,0.0247601924325,-0.00516167796658,0.001,27.0020623569,7200.0,0.0,410.0,0.0
1513265753220381354,,567582,,1513265751,430063616,'',0.733038285838,0.727873638859,-0.00291400637227,-0.00516464697904,0.001,38.3876922948,7200.0,0.0,410.0,0.0
1513265753230347656,,567583,,1513265751,440063616,'',0.733038285838,0.727847416171,-0.00238545720336,-0.00519086966708,0.001,38.353474488,7200.0,0.0,410.0,0.0
1513265753240239623,,567584,,1513265751,450063616,'',0.733038285838,0.727850513083,-0.00245554851449,-0.00518777275457,0.001,38.3425114047,7200.0,0.0,410.0,0.0
1513265753250241260,,567585,,1513265751,460063616,'',0.733038285838,0.727828486898,-0.00201019382588,-0.00520979894008,0.001,38.3373094236,7200.0,0.0,410.0,0.0
1513265753260303119,,567586,,1513265751,470063616,'',0.733038285838,0.727861824071,-0.00268550162348,-0.00517646176673,0.001,38.3790106615,7200.0,0.0,410.0,0.0
1513265753270232861,,567587,,1513265751,480063616,'',0.733038285838,0.727813030555,-0.00169984278182,-0.00522525528219,0.001,38.3193925321,7200.0,0.0,410.0,0.0
1513265753280694647,,567588,,1513265751,490063616,'',0.733038285838,0.72779779688,-0.00139143513762,-0.00524048895759,0.001,38.3059430381,7200.0,0.0,410.0,0.0
1513265753290609457,,567589,,1513265751,500063616,'',0.733038285838,0.727785360908,-0.00113966735337,-0.00525292492918,0.001,38.2900855543,7200.0,0.0,410.0,0.0
1513265753300630650,,567590,,1513265751,510063616,'',0.733038285838,0.727801414878,-0.00146280310508,-0.00523687095926,0.001,38.3222574523,7200.0,0.0,410.0,0.0
1513265753310601204,,567591,,1513265751,520063616,'',0.733038285838,0.727788318329,-0.00119800195443,-0.00524996750882,0.001,38.2934327893,7200.0,0.0,410.0,0.0
1513265753320501200,,567592,,1513265751,530063616,'',0.733038285838,0.727777595334,-0.000981192071232,-0.0052606905037,0.001,38.2723926234,7200.0,0.0,410.0,0.0
1513265753330268662,,567593,,1513265751,540063616,'',0.733038285838,0.727768794756,-0.000803251840717,-0.00526949108119,0.001,38.2707018747,7200.0,0.0,410.0,0.0
1513265753340541694,,567594,,1513265751,550063616,'',0.733038285838,0.727784918137,-0.00113212086236,-0.00525336770016,0.001,38.2886931692,7200.0,0.0,410.0,0.0
1513265753350497388,,567595,,1513265751,560063616,'',0.733038285838,0.727774789562,-0.000926809534309,-0.0052634962759,0.001,38.267452842,7200.0,0.0,410.0,0.0
1513265753360271541,,567596,,1513265751,570063616,'',0.733038285838,0.727766513524,-0.000759050078239,-0.00527177231393,0.001,38.2690527008,7200.0,0.0,410.0,0.0
1513265753370516164,,567597,,1513265751,580063616,'',0.733038285838,0.727783375944,-0.00110583928585,-0.00525490989361,0.001,38.2883806222,7200.0,0.0,410.0,0.0
1513265753380538758,,567598,,1513265751,590063616,'',0.733038285838,0.727773519839,-0.000905147391196,-0.00526476599833,0.001,38.280142249,7200.0,0.0,410.0,0.0
1513265753390540787,,567599,,1513265751,600063616,'',0.733038285838,0.727765464952,-0.000741132224257,-0.00527282088597,0.001,38.2666959047,7200.0,0.0,410.0,0.0
1513265753400458183,,567600,,1513265751,610063616,'',0.733038285838,0.727758876738,-0.000606981749737,-0.00527940909984,0.001,38.2546411945,7200.0,0.0,410.0,0.0
1513265753410122056,,567601,,1513265751,620063616,'',0.733038285838,0.727753468354,-0.000496855205381,-0.00528481748345,0.001,38.2535998899,7200.0,0.0,410.0,0.0
1513265753420264617,,567602,,1513265751,630063616,'',0.733038285838,0.727749043611,-0.000406757741213,-0.00528924222638,0.001,38.2488617679,7200.0,0.0,410.0,0.0
1513265753430172275,,567603,,1513265751,640063616,'',0.733038285838,0.727745421309,-0.000332999729464,-0.00529286452856,0.001,38.244457483,7200.0,0.0,410.0,0.0
1513265753440630894,,567604,,1513265751,650063616,'',0.733038285838,0.72771677469,0.000246692252055,-0.00532151114782,0.001,38.2150331343,7200.0,0.0,410.0,0.0
1513265753450483150,,567605,,1513265751,660063616,'',0.733038285838,0.727719004193,0.000201950496619,-0.00531928164457,0.001,38.2150627202,7200.0,0.0,410.0,0.0
1513265753460384870,,567606,,1513265751,670063616,'',0.733038285838,0.727720829182,0.000165326558275,-0.00531745665607,0.001,38.217047964,7200.0,0.0,410.0,0.0
1513265753470393489,,567607,,1513265751,680063616,'',0.733038285838,0.727697579471,0.00063481026362,-0.00534070636652,0.001,38.1918014771,7200.0,0.0,410.0,0.0
1513265753480231248,,567608,,1513265751,690063616,'',0.733038285838,0.727703279037,0.000519904859014,-0.00533500680079,0.001,38.2019161597,7200.0,0.0,410.0,0.0
1513265753490219278,,567609,,1513265751,700063616,'',0.733038285838,0.727707955397,0.000425627675443,-0.00533033044108,0.001,38.2022667277,7200.0,0.0,410.0,0.0
1513265753500247159,,567610,,1513265751,710063616,'',0.733038285838,0.727688913308,0.000809051853116,-0.00534937252928,0.001,38.1808451928,7200.0,0.0,410.0,0.0
1513265753510554964,,567611,,1513265751,720063616,'',0.733038285838,0.727670923941,0.00116601975262,-0.00536736189635,0.001,38.1628843025,7200.0,0.0,410.0,0.0
1513265753520546239,,567612,,1513265751,730063616,'',0.733038285838,0.727705169216,0.000474545604918,-0.00533311662139,0.001,38.199466887,7200.0,0.0,410.0,0.0
1513265753530549949,,567613,,1513265751,740063616,'',0.733038285838,0.727709495728,0.000388634476429,-0.00532879010967,0.001,38.2073043159,7200.0,0.0,410.0,0.0
1513265753540463391,,567614,,1513265751,750063616,'',0.733038285838,0.727713043788,0.000318180990318,-0.00532524204973,0.001,38.2083642379,7200.0,0.0,410.0,0.0
1513265753550608748,,567615,,1513265751,760063616,'',0.733038285838,0.727715949452,0.000260483496031,-0.00532233638558,0.001,38.2119437036,7200.0,0.0,410.0,0.0
1513265753560443954,,567616,,1513265751,770063616,'',0.733038285838,0.727718328882,0.000213235384435,-0.00531995695567,0.001,38.2141966814,7200.0,0.0,410.0,0.0
1513265753570359822,,567617,,1513265751,780063616,'',0.733038285838,0.727720272439,0.0001746423491,-0.00531801339815,0.001,38.2181016784,7200.0,0.0,410.0,0.0
1513265753580567855,,567618,,1513265751,790063616,'',0.733038285838,0.727745622425,-0.000340722817539,-0.00529266341288,0.001,38.2422367612,7200.0,0.0,410.0,0.0
1513265753590337622,,567619,,1513265751,800063616,'',0.733038285838,0.727742621267,-0.000278954982339,-0.00529566457047,0.001,38.2414961545,7200.0,0.0,410.0,0.0
1513265753600225395,,567620,,1513265751,810063616,'',0.733038285838,0.727740163274,-0.00022836619823,-0.00529812256359,0.001,38.2386648703,7200.0,0.0,410.0,0.0
1513265753610342479,,567621,,1513265751,820063616,'',0.733038285838,0.7277381552,-0.00018703734348,-0.00530013063796,0.001,38.2350084332,7200.0,0.0,410.0,0.0
1513265753620683554,,567622,,1513265751,830063616,'',0.733038285838,0.727736506565,-0.000153106239867,-0.00530177927255,0.001,38.2348511253,7200.0,0.0,410.0,0.0
1513265753630528635,,567623,,1513265751,840063616,'',0.733038285838,0.727709023391,0.000398012989942,-0.00532926244644,0.001,38.2043657506,7200.0,0.0,410.0,0.0
1513265753640430731,,567624,,1513265751,850063616,'',0.733038285838,0.727712659113,0.00032581892601,-0.00532562672467,0.001,38.2076373508,7200.0,0.0,410.0,0.0
1513265753650404229,,567625,,1513265751,860063616,'',0.733038285838,0.727688923257,-0.0269266917639,-0.00534936258061,0.001,49.3553002284,7200.0,0.0,410.0,0.0
1513265753660493640,,567626,,1513265751,870063616,'',0.733038285838,0.727719916147,0.000187354252626,-0.00531836969083,0.001,38.2160693468,7200.0,0.0,410.0,0.0
1513265753670793599,,567627,,1513265751,880063616,'',0.733038285838,0.727721575752,0.000153377358725,-0.00531671008611,0.001,38.2181918087,7200.0,0.0,410.0,0.0
1513265753680712036,,567628,,1513265751,890063616,'',0.733038285838,0.727722934736,0.000125555026316,-0.00531535110156,0.001,38.2194799826,7200.0,0.0,410.0,0.0
1513265753690580778,,567629,,1513265751,900063616,'',0.733038285838,0.727724046821,0.000102787448635,-0.00531423901699,0.001,38.2209400776,7200.0,0.0,410.0,0.0
1513265753700459786,,567630,,1513265751,910063616,'',0.733038285838,0.727724955598,8.41821518235e-05,-0.00531333023944,0.001,38.2217838961,7200.0,0.0,410.0,0.0
1513265753710634928,,567631,,1513265751,920063616,'',0.733038285838,0.727749429423,-0.00041475997588,-0.0052888564148,0.001,38.2484432176,7200.0,0.0,410.0,0.0
1513265753720261465,,567632,,1513265751,930063616,'',0.733038285838,0.72774573581,-0.000339523382846,-0.00529255002803,0.001,38.2452375102,7200.0,0.0,410.0,0.0
1513265753730710641,,567633,,1513265751,940063616,'',0.733038285838,0.727694531706,0.000687162261149,-0.00534375413134,0.001,38.1875598043,7200.0,0.0,410.0,0.0
1513265753740614758,,567634,,1513265751,950063616,'',0.733038285838,0.727700786312,0.000562713668826,-0.00533749952581,0.001,38.1941376044,7200.0,0.0,410.0,0.0
1513265753750451928,,567635,,1513265751,960063616,'',0.733038285838,0.72768023414,0.00098599435299,-0.00535805169763,0.001,38.1726606445,7200.0,0.0,410.0,0.0
1513265753760420239,,567636,,1513265751,970063616,'',0.733038285838,0.727689090882,0.000807167827896,-0.00534919495608,0.001,38.1828008055,7200.0,0.0,410.0,0.0
1513265753770361783,,567637,,1513265751,980063616,'',0.733038285838,0.72769632835,0.000661036046128,-0.00534195748712,0.001,38.1947370913,7200.0,0.0,410.0,0.0
1513265753780413211,,567638,,1513265751,990063616,'',0.733038285838,0.727702267672,0.000541115167465,-0.0053360181656,0.001,38.1947033197,7200.0,0.0,410.0,0.0
1513265753790669277,,567639,,1513265752,63616,'',0.733038285838,0.727707126591,0.000443008702103,-0.00533115924656,0.001,38.2013204117,7200.0,0.0,410.0,0.0
1513265753800353030,,567640,,1513265752,10063616,'',0.733038285838,0.727711113816,0.00036250262211,-0.00532717202183,0.001,38.2027564804,7200.0,0.0,410.0,0.0
1513265753810302118,,567641,,1513265752,20063616,'',0.733038285838,0.727714355639,0.00029704695034,-0.00532393019868,0.001,38.212772442,7200.0,0.0,410.0,0.0
1513265753820194387,,567642,,1513265752,30063616,'',0.733038285838,0.727717025083,0.000243148181254,-0.00532126075427,0.001,38.2127424514,7200.0,0.0,410.0,0.0
1513265753830198109,,567643,,1513265752,40063616,'',0.733038285838,0.727719208186,0.000199069135132,-0.00531907765129,0.001,38.215291974,7200.0,0.0,410.0,0.0
1513265753840279489,,567644,,1513265752,50063616,'',0.733038285838,0.727720996026,0.000162970843165,-0.00531728981114,0.001,38.2172368006,7200.0,0.0,410.0,0.0
1513265753850605943,,567645,,1513265752,60063616,'',0.733038285838,0.727722460203,0.000133407636584,-0.00531582563417,0.001,38.2187753472,7200.0,0.0,410.0,0.0
1513265753860583656,,567646,,1513265752,70063616,'',0.733038285838,0.727723656067,0.000109261940772,-0.00531462977026,0.001,38.2202366643,7200.0,0.0,410.0,0.0
1513265753870537805,,567647,,1513265752,80063616,'',0.733038285838,0.727724637328,8.94493036799e-05,-0.00531364850975,0.001,38.2214729371,7200.0,0.0,410.0,0.0
1513265753880610679,,567648,,1513265752,90063616,'',0.733038285838,0.727725440741,7.32275768816e-05,-0.00531284509627,0.001,38.2222963066,7200.0,0.0,410.0,0.0
1513265753890564014,,567649,,1513265752,100063616,'',0.733038285838,0.727726097209,5.99728378956e-05,-0.00531218862879,0.001,38.2236086446,7200.0,0.0,410.0,0.0
1513265753900505191,,567650,,1513265752,110063616,'',0.733038285838,0.727726636068,4.90927199318e-05,-0.00531164976918,0.001,38.2235571977,7200.0,0.0,410.0,0.0
1513265753910375065,,567651,,1513265752,120063616,'',0.733038285838,0.727704254787,0.000500808549696,-0.005334031051,0.001,38.1990808108,7200.0,0.0,410.0,0.0
1513265753920352310,,567652,,1513265752,130063616,'',0.733038285838,0.72770875663,0.000409945331839,-0.00532952920794,0.001,38.2030194953,7200.0,0.0,410.0,0.0
1513265753930270825,,567653,,1513265752,140063616,'',0.733038285838,0.72768814658,0.000830319802558,-0.00535013925778,0.001,38.1875655785,7200.0,0.0,410.0,0.0
1513265753940252408,,567654,,1513265752,150063616,'',0.733038285838,0.727695568268,0.000679727454277,-0.0053427175692,0.001,38.188724724,7200.0,0.0,410.0,0.0
1513265753950516728,,567655,,1513265752,160063616,'',0.733038285838,0.727675909883,0.00107083603586,-0.00536237595421,0.001,38.1688586577,7200.0,0.0,410.0,0.0
1513265753960258800,,567656,,1513265752,170063616,'',0.733038285838,0.727685550071,0.000876638776578,-0.00535273576661,0.001,38.1770319416,7200.0,0.0,410.0,0.0
