rosbagTimestamp,header,seq,stamp,secs,nsecs,frame_id,set_point,process_value,process_value_dot,error,time_step,command,p,i,d,i_clamp
1513265748800500083,,567131,,1513265747,10063616,'',0.488692190558,0.456858860346,-0.000629913507326,-0.0318333302122,0.001,191.193921717,6000.0,0.0,300.0,0.0
1513265748810454224,,567132,,1513265747,20063616,'',0.488692190558,0.456865465795,-0.000760213768025,-0.0318267247631,0.001,191.189283649,6000.0,0.0,300.0,0.0
1513265748820307852,,567133,,1513265747,30063616,'',0.488692190558,0.456871074077,-0.00087355000447,-0.0318211164819,0.001,191.188510142,6000.0,0.0,300.0,0.0
1513265748830342464,,567134,,1513265747,40063616,'',0.488692190558,0.456875039334,-0.000955009271666,-0.0318171512248,0.001,191.181833314,6000.0,0.0,300.0,0.0
1513265748840232655,,567135,,1513265747,50063616,'',0.488692190558,0.456879774828,-0.00104889463074,-0.0318124157305,0.001,191.189700729,6000.0,0.0,300.0,0.0
1513265748850087842,,567136,,1513265747,60063616,'',0.488692190558,0.456891983493,-0.0013432188414,-0.0318002070656,0.001,191.190664373,6000.0,0.0,300.0,0.0
1513265748860044719,,567137,,1513265747,70063616,'',0.488692190558,0.456880367225,-0.0010996508867,-0.0318118233333,0.001,191.190359843,6000.0,0.0,300.0,0.0
1513265748870182413,,567138,,1513265747,80063616,'',0.488692190558,0.456897535673,-0.00144306245483,-0.0317946548859,0.001,191.190696216,6000.0,0.0,300.0,0.0
1513265748880556167,,567139,,1513265747,90063616,'',0.488692190558,0.456899286167,0.0130851268432,-0.0317929043912,0.001,186.799704261,6000.0,0.0,300.0,0.0
1513265748890458090,,567140,,1513265747,100063616,'',0.488692190558,0.456900654879,0.0130620322518,-0.0317915356791,0.001,186.811182435,6000.0,0.0,300.0,0.0
1513265748900388055,,567141,,1513265747,110063616,'',0.488692190558,0.456874490421,-0.000961923527074,-0.0318177001372,0.001,191.189827361,6000.0,0.0,300.0,0.0
1513265748910364625,,567142,,1513265747,120063616,'',0.488692190558,0.456852516616,-0.000511274644019,-0.031839673942,0.001,191.187692789,6000.0,0.0,300.0,0.0
1513265748920239675,,567143,,1513265747,130063616,'',0.488692190558,0.456874086219,-0.000943683971681,-0.0318181043391,0.001,191.184468851,6000.0,0.0,300.0,0.0
1513265748930322062,,567144,,1513265747,140063616,'',0.488692190558,0.456880081495,0.0134942835588,-0.0318121090634,0.001,186.792974149,6000.0,0.0,300.0,0.0
1513265748940051022,,567145,,1513265747,150063616,'',0.488692190558,0.456882587667,-0.00111118155381,-0.0318096028912,0.001,191.19159829,6000.0,0.0,300.0,0.0
1513265748950438149,,567146,,1513265747,160063616,'',0.488692190558,0.45688568515,-0.00117186768778,-0.0318065054081,0.001,191.181317493,6000.0,0.0,300.0,0.0
1513265748960453036,,567147,,1513265747,170063616,'',0.488692190558,0.45687522766,-0.000959709686322,-0.0318169628984,0.001,191.191413215,6000.0,0.0,300.0,0.0
1513265748970481024,,567148,,1513265747,180063616,'',0.488692190558,0.456866650492,-0.000785699027084,-0.0318255400663,0.001,191.18934311,6000.0,0.0,300.0,0.0
1513265748980467387,,567149,,1513265747,190063616,'',0.488692190558,0.456873964659,0.0136239081392,-0.0318182258993,0.001,186.801200065,6000.0,0.0,300.0,0.0
1513265748990367979,,567150,,1513265747,200063616,'',0.488692190558,0.456865631415,-0.000764621398132,-0.0318265591437,0.001,191.183522172,6000.0,0.0,300.0,0.0
1513265749000371279,,567151,,1513265747,210063616,'',0.488692190558,0.456884503321,-0.00114738229129,-0.031807687237,0.001,191.191477863,6000.0,0.0,300.0,0.0
1513265749010195488,,567152,,1513265747,220063616,'',0.488692190558,0.456886408959,-0.0011878523643,-0.0318057815996,0.001,191.191334093,6000.0,0.0,300.0,0.0
1513265749020290062,,567153,,1513265747,230063616,'',0.488692190558,0.456875823626,-0.000972865398653,-0.0318163669325,0.001,191.183168052,6000.0,0.0,300.0,0.0
1513265749030261110,,567154,,1513265747,240063616,'',0.488692190558,0.456905938316,-0.00157663213541,-0.0317862522421,0.001,191.180837416,6000.0,0.0,300.0,0.0
1513265749040040247,,567155,,1513265747,250063616,'',0.488692190558,0.456916254067,-0.00178670499249,-0.0317759364915,0.001,191.194256085,6000.0,0.0,300.0,0.0
1513265749050262841,,567156,,1513265747,260063616,'',0.488692190558,0.456884800299,-0.0157059105948,-0.0318073902592,0.001,195.579341169,6000.0,0.0,300.0,0.0
1513265749060145319,,567157,,1513265747,270063616,'',0.488692190558,0.456874463929,-0.000940164223964,-0.0318177266292,0.001,191.189009828,6000.0,0.0,300.0,0.0
1513265749070057216,,567158,,1513265747,280063616,'',0.488692190558,0.456880116351,-0.00105123004821,-0.0318120742072,0.001,191.183330122,6000.0,0.0,300.0,0.0
1513265749079989852,,567159,,1513265747,290063616,'',0.488692190558,0.456882857824,-0.00110731208019,-0.0318093327341,0.001,191.191307153,6000.0,0.0,300.0,0.0
1513265749090470934,,567160,,1513265747,300063616,'',0.488692190558,0.45688613072,-0.00117147654532,-0.0318060598389,0.001,191.18238829,6000.0,0.0,300.0,0.0
1513265749100354844,,567161,,1513265747,310063616,'',0.488692190558,0.456888502428,-0.00122363651387,-0.0318036881309,0.001,191.182964136,6000.0,0.0,300.0,0.0
1513265749110217440,,567162,,1513265747,320063616,'',0.488692190558,0.456890230138,-0.0012609224281,-0.0318019604202,0.001,191.182525133,6000.0,0.0,300.0,0.0
1513265749120046219,,567163,,1513265747,330063616,'',0.488692190558,0.456878932782,-0.00103229709891,-0.0318132577764,0.001,191.189932066,6000.0,0.0,300.0,0.0
1513265749130462461,,567164,,1513265747,340063616,'',0.488692190558,0.456883979928,0.0134224215983,-0.0318082106302,0.001,186.81374552,6000.0,0.0,300.0,0.0
1513265749140493340,,567165,,1513265747,350063616,'',0.488692190558,0.456860931423,-0.000665346051213,-0.0318312591357,0.001,191.180508119,6000.0,0.0,300.0,0.0
1513265749150286911,,567166,,1513265747,360063616,'',0.488692190558,0.456895778561,0.0131852858888,-0.0317964119977,0.001,186.819370792,6000.0,0.0,300.0,0.0
1513265749160176879,,567167,,1513265747,370063616,'',0.488692190558,0.456883499298,-0.00112344311338,-0.0318086912606,0.001,191.188615822,6000.0,0.0,300.0,0.0
1513265749170245901,,567168,,1513265747,380063616,'',0.488692190558,0.456873418662,-0.000919670421066,-0.0318187718963,0.001,191.18999587,6000.0,0.0,300.0,0.0
1513265749180063386,,567169,,1513265747,390063616,'',0.488692190558,0.456877323107,-0.00100247456721,-0.0318148674517,0.001,191.189795615,6000.0,0.0,300.0,0.0
1513265749190385371,,567170,,1513265747,400063616,'',0.488692190558,0.456895346992,0.0131904038263,-0.0317968435666,0.001,186.826967793,6000.0,0.0,300.0,0.0
1513265749200261540,,567171,,1513265747,410063616,'',0.488692190558,0.456895889358,-0.00137305139918,-0.0317963012,0.001,191.182245127,6000.0,0.0,300.0,0.0
1513265749210182800,,567172,,1513265747,420063616,'',0.488692190558,0.456883565895,-0.00112409530075,-0.031808624663,0.001,191.190649666,6000.0,0.0,300.0,0.0
1513265749220036644,,567173,,1513265747,430063616,'',0.488692190558,0.456886966465,-0.00118991181216,-0.0318052240933,0.001,191.190957782,6000.0,0.0,300.0,0.0
1513265749230512658,,567174,,1513265747,440063616,'',0.488692190558,0.45687625879,-0.000974120033616,-0.031815931768,0.001,191.188788298,6000.0,0.0,300.0,0.0
1513265749240553125,,567175,,1513265747,450063616,'',0.488692190558,0.45688125238,-0.00107569965517,-0.0318109381787,0.001,191.190440044,6000.0,0.0,300.0,0.0
1513265749250475699,,567176,,1513265747,460063616,'',0.488692190558,0.456885677265,-0.00116137272093,-0.0318065132938,0.001,191.181318079,6000.0,0.0,300.0,0.0
1513265749260432118,,567177,,1513265747,470063616,'',0.488692190558,0.456901045922,-0.0014622212073,-0.0317911446365,0.001,191.192660398,6000.0,0.0,300.0,0.0
1513265749270510845,,567178,,1513265747,480063616,'',0.488692190558,0.456887788348,-0.00119711432645,-0.0318044022103,0.001,191.190333246,6000.0,0.0,300.0,0.0
1513265749280171900,,567179,,1513265747,490063616,'',0.488692190558,0.456889887345,-0.00124426756548,-0.0318023032137,0.001,191.191222435,6000.0,0.0,300.0,0.0
1513265749290069966,,567180,,1513265747,500063616,'',0.488692190558,0.456891923483,-0.00128648559714,-0.0318002670753,0.001,191.18244135,6000.0,0.0,300.0,0.0
1513265749300017725,,567181,,1513265747,510063616,'',0.488692190558,0.456894147288,-0.00132635340534,-0.0317980432707,0.001,191.190351895,6000.0,0.0,300.0,0.0
1513265749310467872,,567182,,1513265747,520063616,'',0.488692190558,0.456909939736,0.0129119118475,-0.0317822508225,0.001,186.819370642,6000.0,0.0,300.0,0.0
1513265749320433728,,567183,,1513265747,530063616,'',0.488692190558,0.456909417628,0.012919127918,-0.0317827729303,0.001,186.799748643,6000.0,0.0,300.0,0.0
1513265749330401783,,567184,,1513265747,540063616,'',0.488692190558,0.456896855098,0.013167583044,-0.0317953354607,0.001,186.830853199,6000.0,0.0,300.0,0.0
1513265749340388672,,567185,,1513265747,550063616,'',0.488692190558,0.456884414955,-0.00113491711005,-0.0318077756031,0.001,191.19113887,6000.0,0.0,300.0,0.0
1513265749350335281,,567186,,1513265747,560063616,'',0.488692190558,0.456874163605,-0.000928970210035,-0.0318180269535,0.001,191.191215137,6000.0,0.0,300.0,0.0
1513265749360136416,,567187,,1513265747,570063616,'',0.488692190558,0.4568657837,-0.000760620148773,-0.0318264068586,0.001,191.189756875,6000.0,0.0,300.0,0.0
1513265749370130132,,567188,,1513265747,580063616,'',0.488692190558,0.456873030687,-0.000904222241677,-0.0318191598712,0.001,191.183639356,6000.0,0.0,300.0,0.0
1513265749380012313,,567189,,1513265747,590063616,'',0.488692190558,0.456852642937,-0.000493507434543,-0.0318395476215,0.001,191.18117583,6000.0,0.0,300.0,0.0
1513265749390506187,,567190,,1513265747,600063616,'',0.488692190558,0.456848099535,-0.000398476028135,-0.0318440910233,0.001,191.187171114,6000.0,0.0,300.0,0.0
1513265749400580747,,567191,,1513265747,610063616,'',0.488692190558,0.456857169892,-0.000583102117283,-0.0318350206664,0.001,191.188428748,6000.0,0.0,300.0,0.0
1513265749410172793,,567192,,1513265747,620063616,'',0.488692190558,0.456837849178,-0.0147478136949,-0.0318543413801,0.001,195.477021101,6000.0,0.0,300.0,0.0
1513265749420136879,,567193,,1513265747,630063616,'',0.488692190558,0.456836049325,-0.00015628939198,-0.0318561412336,0.001,191.186344315,6000.0,0.0,300.0,0.0
1513265749430522610,,567194,,1513265747,640063616,'',0.488692190558,0.456848527031,-0.000397684561328,-0.0318436635272,0.001,191.187083946,6000.0,0.0,300.0,0.0
1513265749440606505,,567195,,1513265747,650063616,'',0.488692190558,0.456856735948,-0.000569599655479,-0.0318354546107,0.001,191.189480406,6000.0,0.0,300.0,0.0
1513265749450571172,,567196,,1513265747,660063616,'',0.488692190558,0.456864239982,-0.000723373665543,-0.0318279505762,0.001,191.188262527,6000.0,0.0,300.0,0.0
1513265749460425550,,567197,,1513265747,670063616,'',0.488692190558,0.456857666258,-0.000592437622943,-0.0318345243006,0.001,191.184700442,6000.0,0.0,300.0,0.0
1513265749470266250,,567198,,1513265747,680063616,'',0.488692190558,0.45684024826,-0.000243181776534,-0.0318519422988,0.001,191.18665281,6000.0,0.0,300.0,0.0
1513265749480112398,,567199,,1513265747,690063616,'',0.488692190558,0.456823689126,-0.0144663397139,-0.0318685014327,0.001,195.569622085,6000.0,0.0,300.0,0.0
1513265749490067860,,567200,,1513265747,700063616,'',0.488692190558,0.456824456798,7.42896450406e-05,-0.0318677337604,0.001,191.185334414,6000.0,0.0,300.0,0.0
1513265749500516286,,567201,,1513265747,710063616,'',0.488692190558,0.456825084073,6.08438242689e-05,-0.0318671064851,0.001,191.185764977,6000.0,0.0,300.0,0.0
1513265749510494444,,567202,,1513265747,720063616,'',0.488692190558,0.456825598925,4.98078316723e-05,-0.0318665916333,0.001,191.185397432,6000.0,0.0,300.0,0.0
1513265749520024468,,567203,,1513265747,730063616,'',0.488692190558,0.456811965398,0.000324956913924,-0.0318802251602,0.001,191.183975808,6000.0,0.0,300.0,0.0
1513265749530126944,,567204,,1513265747,740063616,'',0.488692190558,0.4568148585,0.000266040852914,-0.0318773320588,0.001,191.184328931,6000.0,0.0,300.0,0.0
1513265749540510564,,567205,,1513265747,750063616,'',0.488692190558,0.456792537503,0.000719071594228,-0.0318996530558,0.001,191.186739253,6000.0,0.0,300.0,0.0
1513265749550395394,,567206,,1513265747,760063616,'',0.488692190558,0.456811147144,0.000341939546205,-0.0318810434141,0.001,191.186462454,6000.0,0.0,300.0,0.0
1513265749560441112,,567207,,1513265747,770063616,'',0.488692190558,0.456827186068,1.7738256176e-05,-0.0318650044908,0.001,191.185540164,6000.0,0.0,300.0,0.0
1513265749570393990,,567208,,1513265747,780063616,'',0.488692190558,0.456827319632,1.45214044653e-05,-0.0318648709265,0.001,191.18554542,6000.0,0.0,300.0,0.0
1513265749580325494,,567209,,1513265747,790063616,'',0.488692190558,0.456827428953,1.18884424351e-05,-0.0318647616055,0.001,191.185635994,6000.0,0.0,300.0,0.0
1513265749590191494,,567210,,1513265747,800063616,'',0.488692190558,0.456827518447,9.73301760861e-06,-0.0318646721118,0.001,191.185578433,6000.0,0.0,300.0,0.0
1513265749600159376,,567211,,1513265747,810063616,'',0.488692190558,0.456813533632,-0.0142619627364,-0.0318786569259,0.001,195.487354519,6000.0,0.0,300.0,0.0
1513265749610137087,,567212,,1513265747,820063616,'',0.488692190558,0.45682813026,-2.470793209e-07,-0.0318640602987,0.001,191.185601331,6000.0,0.0,300.0,0.0
1513265749620286802,,567213,,1513265747,830063616,'',0.488692190558,0.456815861769,0.000246179065505,-0.0318763287896,0.001,191.184303928,6000.0,0.0,300.0,0.0
1513265749630237928,,567214,,1513265747,840063616,'',0.488692190558,0.456818049807,0.000201517892766,-0.0318741407513,0.001,191.184410805,6000.0,0.0,300.0,0.0
1513265749640302302,,567215,,1513265747,850063616,'',0.488692190558,0.456833864836,-0.000118761128809,-0.0318583257223,0.001,191.186181077,6000.0,0.0,300.0,0.0
1513265749650180241,,567216,,1513265747,860063616,'',0.488692190558,0.456833283384,-0.000109909551505,-0.0318589071741,0.001,191.186297148,6000.0,0.0,300.0,0.0
1513265749660365624,,567217,,1513265747,870063616,'',0.488692190558,0.456858819595,0.0139277580112,-0.0318333709634,0.001,186.807880328,6000.0,0.0,300.0,0.0
1513265749670189639,,567218,,1513265747,880063616,'',0.488692190558,0.4568662047,-0.000777956734312,-0.0318259858579,0.001,191.189355991,6000.0,0.0,300.0,0.0
1513265749680025830,,567219,,1513265747,890063616,'',0.488692190558,0.456857368647,-0.0006020842926,-0.0318348219111,0.001,191.188104091,6000.0,0.0,300.0,0.0
1513265749690542097,,567220,,1513265747,900063616,'',0.488692190558,0.456852027534,-0.000492874510482,-0.0318401630244,0.001,191.188108708,6000.0,0.0,300.0,0.0
1513265749700462404,,567221,,1513265747,910063616,'',0.488692190558,0.456834160194,-0.000130845113455,-0.0318580303645,0.001,191.185372148,6000.0,0.0,300.0,0.0
1513265749710430005,,567222,,1513265747,920063616,'',0.488692190558,0.456820324578,0.000152008875234,-0.0318718659807,0.001,191.18505261,6000.0,0.0,300.0,0.0
1513265749720424325,,567223,,1513265747,930063616,'',0.488692190558,0.456821702481,0.00012444190329,-0.0318704880779,0.001,191.185008071,6000.0,0.0,300.0,0.0
1513265749730174671,,567224,,1513265747,940063616,'',0.488692190558,0.456834806462,-0.000142986452715,-0.0318573840962,0.001,191.186271893,6000.0,0.0,300.0,0.0
1513265749740128088,,567225,,1513265747,950063616,'',0.488692190558,0.456820085475,0.00015551033913,-0.0318721050837,0.001,191.185000819,6000.0,0.0,300.0,0.0
1513265749750120271,,567226,,1513265747,960063616,'',0.488692190558,0.456808809082,0.000381477542313,-0.0318833814767,0.001,191.186776734,6000.0,0.0,300.0,0.0
1513265749760512271,,567227,,1513265747,970063616,'',0.488692190558,0.456825808255,4.22058274698e-05,-0.0318663823033,0.001,191.185391711,6000.0,0.0,300.0,0.0
1513265749770366596,,567228,,1513265747,980063616,'',0.488692190558,0.456826191588,3.45537326853e-05,-0.0318659989703,0.001,191.185481448,6000.0,0.0,300.0,0.0
1513265749780369351,,567229,,1513265747,990063616,'',0.488692190558,0.456826505529,2.82868368087e-05,-0.0318656850291,0.001,191.18548785,6000.0,0.0,300.0,0.0
1513265749790292854,,567230,,1513265748,63616,'',0.488692190558,0.456839381012,-0.000237299937173,-0.0318528095468,0.001,191.186512399,6000.0,0.0,300.0,0.0
1513265749800156524,,567231,,1513265748,10063616,'',0.488692190558,0.456837307529,-0.000194358921807,-0.0318548830299,0.001,191.185020402,6000.0,0.0,300.0,0.0
1513265749810542930,,567232,,1513265748,20063616,'',0.488692190558,0.456835605555,-0.000159111723666,-0.0318565850033,0.001,191.186259252,6000.0,0.0,300.0,0.0
1513265749820351175,,567233,,1513265748,30063616,'',0.488692190558,0.456834212236,-0.000130256642569,-0.0318579783221,0.001,191.186058524,6000.0,0.0,300.0,0.0
1513265749830262108,,567234,,1513265748,40063616,'',0.488692190558,0.456857448279,-0.000601771449667,-0.0318347422798,0.001,191.187938469,6000.0,0.0,300.0,0.0
1513265749840175318,,567235,,1513265748,50063616,'',0.488692190558,0.45686384568,-0.000732424343351,-0.0318283448779,0.001,191.189072598,6000.0,0.0,300.0,0.0
1513265749850192180,,567236,,1513265748,60063616,'',0.488692190558,0.456869762079,-0.000848669816242,-0.0318224284799,0.001,191.188360841,6000.0,0.0,300.0,0.0
1513265749860058985,,567237,,1513265748,70063616,'',0.488692190558,0.456862174438,-0.000694762638269,-0.0318300161207,0.001,191.188711442,6000.0,0.0,300.0,0.0
1513265749869984635,,567238,,1513265748,80063616,'',0.488692190558,0.456843923005,-0.00032933113971,-0.0318482675535,0.001,191.186777494,6000.0,0.0,300.0,0.0
1513265749880482275,,567239,,1513265748,90063616,'',0.488692190558,0.456841028368,-0.000269751895813,-0.0318511621908,0.001,191.186489407,6000.0,0.0,300.0,0.0
1513265749890462880,,567240,,1513265748,100063616,'',0.488692190558,0.456838651821,-0.000220836313358,-0.0318535387378,0.001,191.185014501,6000.0,0.0,300.0,0.0
1513265749900398957,,567241,,1513265748,110063616,'',0.488692190558,0.456850759201,-0.000464420874636,-0.0318414313576,0.001,191.187410493,6000.0,0.0,300.0,0.0
1513265749910441383,,567242,,1513265748,120063616,'',0.488692190558,0.45684661695,-0.000380181336828,-0.0318455736085,0.001,191.186974403,6000.0,0.0,300.0,0.0
1513265749920239002,,567243,,1513265748,130063616,'',0.488692190558,0.456831239616,-7.20901768499e-05,-0.0318609509427,0.001,191.185889155,6000.0,0.0,300.0,0.0
1513265749930218062,,567244,,1513265748,140063616,'',0.488692190558,0.456830639256,-5.90424419092e-05,-0.0318615513022,0.001,191.184693143,6000.0,0.0,300.0,0.0
1513265749940133397,,567245,,1513265748,150063616,'',0.488692190558,0.456843904031,-0.000323454154599,-0.0318482865278,0.001,191.189505832,6000.0,0.0,300.0,0.0
1513265749950052423,,567246,,1513265748,160063616,'',0.488692190558,0.456855181451,0.01400388701,-0.0318370091076,0.001,186.85008683,6000.0,0.0,300.0,0.0
1513265749960011754,,567247,,1513265748,170063616,'',0.488692190558,0.456837498767,-0.000195867898021,-0.0318546917915,0.001,191.186657352,6000.0,0.0,300.0,0.0
1513265749970414598,,567248,,1513265748,180063616,'',0.488692190558,0.456823797492,7.84263613983e-05,-0.0318683930668,0.001,191.185282374,6000.0,0.0,300.0,0.0
1513265749980333688,,567249,,1513265748,190063616,'',0.488692190558,0.456824544225,6.42293784503e-05,-0.0318676463336,0.001,191.185237765,6000.0,0.0,300.0,0.0
1513265749990350592,,567250,,1513265748,200063616,'',0.488692190558,0.456825156824,5.25825656908e-05,-0.0318670337342,0.001,191.185393704,6000.0,0.0,300.0,0.0
1513265750000284083,,567251,,1513265748,210063616,'',0.488692190558,0.456812155991,0.000309238149602,-0.0318800345679,0.001,191.18358105,6000.0,0.0,300.0,0.0
1513265750010242892,,567252,,1513265748,220063616,'',0.488692190558,0.456852938764,-0.00050862518653,-0.0318392517941,0.001,191.187290445,6000.0,0.0,300.0,0.0
1513265750020053777,,567253,,1513265748,230063616,'',0.488692190558,0.456847876228,-0.00040831140495,-0.0318443143299,0.001,191.187066448,6000.0,0.0,300.0,0.0
1513265750030531341,,567254,,1513265748,240063616,'',0.488692190558,0.456843941399,-0.000328134582168,-0.0318482491599,0.001,191.184534967,6000.0,0.0,300.0,0.0
1513265750040492236,,567255,,1513265748,250063616,'',0.488692190558,0.456853996773,-0.000530328983234,-0.031838193785,0.001,191.187970486,6000.0,0.0,300.0,0.0
1513265750050460960,,567256,,1513265748,260063616,'',0.488692190558,0.456849269511,-0.000434180168958,-0.0318429210476,0.001,191.187542161,6000.0,0.0,300.0,0.0
1513265750060497165,,567257,,1513265748,270063616,'',0.488692190558,0.456857286689,-0.000598902390784,-0.0318349038696,0.001,191.188311435,6000.0,0.0,300.0,0.0
1513265750070407535,,567258,,1513265748,280063616,'',0.488692190558,0.456839781851,-0.000246231523613,-0.0318524087079,0.001,191.184951995,6000.0,0.0,300.0,0.0
1513265750080300605,,567259,,1513265748,290063616,'',0.488692190558,0.456837631341,-0.000201581018525,-0.0318545592171,0.001,191.186558511,6000.0,0.0,300.0,0.0
1513265750090238584,,567260,,1513265748,300063616,'',0.488692190558,0.456848828309,-0.000426922387879,-0.031843362249,0.001,191.188417642,6000.0,0.0,300.0,0.0
1513265750100230000,,567261,,1513265748,310063616,'',0.488692190558,0.456845028137,-0.000349317950607,-0.0318471624214,0.001,191.189904897,6000.0,0.0,300.0,0.0
1513265750110102916,,567262,,1513265748,320063616,'',0.488692190558,0.45684193504,-0.000286152913002,-0.0318502555181,0.001,191.186448134,6000.0,0.0,300.0,0.0
1513265750120109495,,567263,,1513265748,330063616,'',0.488692190558,0.45685140523,-0.000473751405233,-0.031840785328,0.001,191.188009872,6000.0,0.0,300.0,0.0
1513265750130097124,,567264,,1513265748,340063616,'',0.488692190558,0.456859171696,-0.000629820614135,-0.0318330188625,0.001,191.188439372,6000.0,0.0,300.0,0.0
1513265750140041508,,567265,,1513265748,350063616,'',0.488692190558,0.456853504144,-0.000515592138569,-0.031838686414,0.001,191.187589818,6000.0,0.0,300.0,0.0
1513265750150545780,,567266,,1513265748,360063616,'',0.488692190558,0.456848861103,-0.000422012478538,-0.0318433294554,0.001,191.187627401,6000.0,0.0,300.0,0.0
1513265750160555247,,567267,,1513265748,370063616,'',0.488692190558,0.456873166311,0.0136431437995,-0.0318190242479,0.001,186.891787087,6000.0,0.0,300.0,0.0
1513265750170538344,,567268,,1513265748,380063616,'',0.488692190558,0.456864962722,-0.000747997155542,-0.0318272278368,0.001,191.188531593,6000.0,0.0,300.0,0.0
1513265750180408041,,567269,,1513265748,390063616,'',0.488692190558,0.456858245449,-0.000612347072155,-0.0318339451091,0.001,191.188001391,6000.0,0.0,300.0,0.0
1513265750190532551,,567270,,1513265748,400063616,'',0.488692190558,0.456876646207,-0.000983566089093,-0.0318155443512,0.001,191.195997529,6000.0,0.0,300.0,0.0
1513265750200469927,,567271,,1513265748,410063616,'',0.488692190558,0.456867846848,-0.000805936686784,-0.0318243437108,0.001,191.183108414,6000.0,0.0,300.0,0.0
1513265750210424316,,567272,,1513265748,420063616,'',0.488692190558,0.456900666391,0.0130831951462,-0.0317915241677,0.001,186.99735349,6000.0,0.0,300.0,0.0
1513265750220218685,,567273,,1513265748,430063616,'',0.488692190558,0.457114017323,0.0378871477663,-0.0315781732356,0.001,178.045791286,6000.0,0.0,300.0,0.0
1513265750230148983,,567274,,1513265748,440063616,'',0.488692190558,0.45760443995,0.0570931952369,-0.0310877506082,0.001,169.346067471,6000.0,0.0,300.0,0.0
1513265750240155168,,567275,,1513265748,450063616,'',0.488692190558,0.458370608555,0.0998397738926,-0.0303215820038,0.001,151.792101892,6000.0,0.0,300.0,0.0
1513265750250495489,,567276,,1513265748,460063616,'',0.488692190558,0.459377017056,0.108619906515,-0.0293151735026,0.001,144.193485927,6000.0,0.0,300.0,0.0
1513265750260433842,,567277,,1513265748,470063616,'',0.488692190558,0.460566641395,0.128258410335,-0.0281255491631,0.001,130.047181199,6000.0,0.0,300.0,0.0
1513265750270439509,,567278,,1513265748,480063616,'',0.488692190558,0.461703949118,0.105284482679,-0.0269882414401,0.001,130.917371962,6000.0,0.0,300.0,0.0
1513265750280246991,,567279,,1513265748,490063616,'',0.488692190558,0.462740330594,0.0989060780886,-0.0259518599646,0.001,125.921203328,6000.0,0.0,300.0,0.0
1513265750290184993,,567280,,1513265748,500063616,'',0.488692190558,0.46354889144,0.0825708555953,-0.0251432991186,0.001,126.037467193,6000.0,0.0,300.0,0.0
1513265750300082616,,567281,,1513265748,510063616,'',0.488692190558,0.464278071473,0.067840330263,-0.0244141190851,0.001,125.929018859,6000.0,0.0,300.0,0.0
1513265750309983781,,567282,,1513265748,520063616,'',0.488692190558,0.464885752177,0.0555639024999,-0.0238064383812,0.001,126.472302014,6000.0,0.0,300.0,0.0
1513265750320498680,,567283,,1513265748,530063616,'',0.488692190558,0.465516923315,0.0573660428788,-0.0231752672432,0.001,121.73489648,6000.0,0.0,300.0,0.0
1513265750330436950,,567284,,1513265748,540063616,'',0.488692190558,0.466231131262,0.0720519258088,-0.0224610592966,0.001,113.022350776,6000.0,0.0,300.0,0.0
1513265750340291371,,567285,,1513265748,550063616,'',0.488692190558,0.467024874992,0.0851308242803,-0.0216673155668,0.001,104.411738662,6000.0,0.0,300.0,0.0
1513265750350332429,,567286,,1513265748,560063616,'',0.488692190558,0.467922021218,0.0961223316113,-0.0207701693401,0.001,95.7531704533,6000.0,0.0,300.0,0.0
1513265750360196470,,567287,,1513265748,570063616,'',0.488692190558,0.468851618506,0.0918959842866,-0.0198405720527,0.001,92.0346737605,6000.0,0.0,300.0,0.0
1513265750370251251,,567288,,1513265748,580063616,'',0.488692190558,0.469732014461,0.0886669772215,-0.0189601760976,0.001,87.0032771312,6000.0,0.0,300.0,0.0
1513265750380118355,,567289,,1513265748,590063616,'',0.488692190558,0.470505286994,0.0730422181615,-0.0181869035647,0.001,86.6133327944,6000.0,0.0,300.0,0.0
1513265750390173536,,567290,,1513265748,600063616,'',0.488692190558,0.471146892378,0.0600857595561,-0.0175452981805,0.001,87.2308942072,6000.0,0.0,300.0,0.0
1513265750400254319,,567291,,1513265748,610063616,'',0.488692190558,0.471789887693,0.0616474423749,-0.0169023028655,0.001,83.2186678507,6000.0,0.0,300.0,0.0
1513265750410122943,,567292,,1513265748,620063616,'',0.488692190558,0.472411014485,0.0636562626947,-0.0162811760734,0.001,78.4898802166,6000.0,0.0,300.0,0.0
1513265750420139371,,567293,,1513265748,630063616,'',0.488692190558,0.473170679802,0.0774211037054,-0.0155215107568,0.001,69.7637756794,6000.0,0.0,300.0,0.0
1513265750430088881,,567294,,1513265748,640063616,'',0.488692190558,0.47398653623,0.0900530926128,-0.014705654328,0.001,61.1609901758,6000.0,0.0,300.0,0.0
1513265750440050371,,567295,,1513265748,650063616,'',0.488692190558,0.474836498957,0.0874366537584,-0.0138556916019,0.001,56.7208063325,6000.0,0.0,300.0,0.0
1513265750450480456,,567296,,1513265748,660063616,'',0.488692190558,0.475689897865,0.0847540717182,-0.0130022926932,0.001,52.4600925273,6000.0,0.0,300.0,0.0
1513265750460200742,,567297,,1513265748,670063616,'',0.488692190558,0.476493438177,0.0830783787152,-0.012198752381,0.001,49.2303126902,6000.0,0.0,300.0,0.0
1513265750470108547,,567298,,1513265748,680063616,'',0.488692190558,0.477212417729,0.0685516121222,-0.0114797728292,0.001,48.7244655541,6000.0,0.0,300.0,0.0
1513265750480510949,,567299,,1513265748,690063616,'',0.488692190558,0.477907186084,0.06907702789,-0.010785004474,0.001,43.8588815727,6000.0,0.0,300.0,0.0
1513265750490490024,,567300,,1513265748,700063616,'',0.488692190558,0.47859508845,0.0697320363845,-0.0100971021085,0.001,39.7036898217,6000.0,0.0,300.0,0.0
1513265750500312042,,567301,,1513265748,710063616,'',0.488692190558,0.479329593341,0.0840080435883,-0.00936259721724,0.001,30.8712561684,6000.0,0.0,300.0,0.0
1513265750510489556,,567302,,1513265748,720063616,'',0.488692190558,0.480164433993,0.0816991190888,-0.00852775656491,0.001,27.0474892289,6000.0,0.0,300.0,0.0
1513265750520406607,,567303,,1513265748,730063616,'',0.488692190558,0.481058978585,0.0927380338859,-0.00763321197332,0.001,17.8647358188,6000.0,0.0,300.0,0.0
1513265750530414764,,567304,,1513265748,740063616,'',0.488692190558,0.48203953127,0.102042876049,-0.0066526592888,0.001,9.27495274087,6000.0,0.0,300.0,0.0
1513265750540448055,,567305,,1513265748,750063616,'',0.488692190558,0.48298380766,0.0975240753727,-0.00570838289855,0.001,4.83955181014,6000.0,0.0,300.0,0.0
1513265750550357075,,567306,,1513265748,760063616,'',0.488692190558,0.483939175954,0.0927787514953,-0.00475301460441,0.001,0.511063596627,6000.0,0.0,300.0,0.0
1513265750560247747,,567307,,1513265748,770063616,'',0.488692190558,0.484854856905,0.103401021175,-0.00383733365343,0.001,-8.17949210096,6000.0,0.0,300.0,0.0
1513265750570300467,,567308,,1513265748,780063616,'',0.488692190558,0.485704585706,0.0862393309819,-0.00298760485194,0.001,-7.47465386248,6000.0,0.0,300.0,0.0
1513265750580258262,,567309,,1513265748,790063616,'',0.488692190558,0.486505870754,0.0700534515147,-0.00218631980399,0.001,-8.00001603617,6000.0,0.0,300.0,0.0
1513265750590164301,,567310,,1513265748,800063616,'',0.488692190558,0.487294928184,0.0832245982056,-0.001397262374,0.001,-16.7056809487,6000.0,0.0,300.0,0.0
1513265750600314444,,567311,,1513265748,810063616,'',0.488692190558,0.488043161389,0.068107383665,-0.000649029169711,0.001,-16.6378855205,6000.0,0.0,300.0,0.0
1513265750610157353,,567312,,1513265748,820063616,'',0.488692190558,0.488771849907,0.0679399133281,0.0,0.001,0.0,6000.0,0.0,300.0,0.0
1513265750620501730,,567313,,1513265748,830063616,'',0.488692190558,0.489514229209,0.0820519737225,0.0,0.001,0.0,6000.0,0.0,300.0,0.0
1513265750630371504,,567314,,1513265748,840063616,'',0.488692190558,0.490292903447,0.080878072706,0.0,0.001,0.0,6000.0,0.0,300.0,0.0
1513265750640312879,,567315,,1513265748,850063616,'',0.488692190558,0.491075544136,0.0796242261139,0.0,0.001,0.0,6000.0,0.0,300.0,0.0
1513265750650144251,,567316,,1513265748,860063616,'',0.488692190558,0.491873323221,0.0780543336439,0.0,0.001,0.0,6000.0,0.0,300.0,0.0
1513265750660283631,,567317,,1513265748,870063616,'',0.488692190558,0.492611729403,0.0776940091937,0.0,0.001,0.0,6000.0,0.0,300.0,0.0
1513265750670105576,,567318,,1513265748,880063616,'',0.488692190558,0.49333708008,0.0775946619288,0.0,0.001,0.0,6000.0,0.0,300.0,0.0
1513265750680541972,,567319,,1513265748,890063616,'',0.488692190558,0.49400888795,0.0640231137325,0.0,0.001,0.0,6000.0,0.0,300.0,0.0
1513265750690433902,,567320,,1513265748,900063616,'',0.488692190558,0.494624867272,0.0515849916575,0.0,0.001,0.0,6000.0,0.0,300.0,0.0
1513265750700297679,,567321,,1513265748,910063616,'',0.488692190558,0.495205127082,0.0544191025268,0.0,0.001,0.0,6000.0,0.0,300.0,0.0
1513265750710135414,,567322,,1513265748,920063616,'',0.488692190558,0.495706885206,0.0442836849555,0.0,0.001,0.0,6000.0,0.0,300.0,0.0
1513265750720250327,,567323,,1513265748,930063616,'',0.488692190558,0.496157484611,0.0351826742774,0.0,0.001,0.0,6000.0,0.0,300.0,0.0
1513265750730181501,,567324,,1513265748,940063616,'',0.488692190558,0.496604019332,0.0407195145154,0.0,0.001,0.0,6000.0,0.0,300.0,0.0
1513265750740439437,,567325,,1513265748,950063616,'',0.488692190558,0.496981282233,0.0330978640678,0.0,0.001,0.0,6000.0,0.0,300.0,0.0
1513265750750319927,,567326,,1513265748,960063616,'',0.488692190558,0.497345758435,0.040284836036,0.0,0.001,0.0,6000.0,0.0,300.0,0.0
1513265750760210995,,567327,,1513265748,970063616,'',0.488692190558,0.497695579572,0.0332185339643,0.0,0.001,0.0,6000.0,0.0,300.0,0.0
1513265750770254916,,567328,,1513265748,980063616,'',0.488692190558,0.498023039863,0.0266024305848,0.0,0.001,0.0,6000.0,0.0,300.0,0.0
1513265750780559955,,567329,,1513265748,990063616,'',0.488692190558,0.498300138925,0.0210038389037,0.0,0.001,0.0,6000.0,0.0,300.0,0.0
1513265750790361211,,567330,,1513265749,63616,'',0.488692190558,0.498607156475,0.0293600664353,0.0,0.001,0.0,6000.0,0.0,300.0,0.0
1513265750800355596,,567331,,1513265749,10063616,'',0.488692190558,0.49885639726,0.00976989422168,0.0,0.001,0.0,6000.0,0.0,300.0,0.0
1513265750810287963,,567332,,1513265749,20063616,'',0.488692190558,0.499075620692,0.0198996501223,0.0,0.001,0.0,6000.0,0.0,300.0,0.0
1513265750820296518,,567333,,1513265749,30063616,'',0.488692190558,0.49932212936,0.0294772744567,0.0106299388013,0.001,-500.0,6000.0,0.0,300.0,0.0
1513265750830202965,,567334,,1513265749,40063616,'',0.488692190558,0.499561552102,0.0246404085957,0.0108693615432,0.001,-72.4731084044,6000.0,0.0,300.0,0.0
1513265750840059504,,567335,,1513265749,50063616,'',0.488692190558,0.499836253222,0.0336424404645,0.0111440626631,0.001,-77.0289096476,6000.0,0.0,300.0,0.0
1513265750850492717,,567336,,1513265749,60063616,'',0.488692190558,0.500113660404,0.0280376531729,0.0114214698454,0.001,-76.9681148792,6000.0,0.0,300.0,0.0
1513265750860605095,,567337,,1513265749,70063616,'',0.488692190558,0.500365449254,0.0229525570225,0.0116732586961,0.001,-76.9266782633,6000.0,0.0,300.0,0.0
1513265750870495595,,567338,,1513265749,80063616,'',0.488692190558,0.500595903564,0.0182886499658,0.011903713006,0.001,-76.9525320417,6000.0,0.0,300.0,0.0
1513265750880380781,,567339,,1513265749,90063616,'',0.488692190558,0.500800283841,0.0287182517303,0.0121080932825,0.001,-81.1093858583,6000.0,0.0,300.0,0.0
1513265750890202829,,567340,,1513265749,100063616,'',0.488692190558,0.501017144642,0.0243388046301,0.0123249540841,0.001,-81.2540992348,6000.0,0.0,300.0,0.0
1513265750900278758,,567341,,1513265749,110063616,'',0.488692190558,0.501221872353,0.020200653753,0.0125296817946,0.001,-81.2666505089,6000.0,0.0,300.0,0.0
1513265750910284847,,567342,,1513265749,120063616,'',0.488692190558,0.501349730444,0.00306557584738,0.0126575398851,0.001,-76.8714391027,6000.0,0.0,300.0,0.0
1513265750920048379,,567343,,1513265749,130063616,'',0.488692190558,0.501455911714,0.0154811610947,0.0127637211559,0.001,-81.1338346794,6000.0,0.0,300.0,0.0
1513265750930543793,,567344,,1513265749,140063616,'',0.488692190558,0.501502928577,-2.5002850934e-05,0.0128107380183,0.001,-76.858578726,6000.0,0.0,300.0,0.0
1513265750940007491,,567345,,1513265749,150063616,'',0.488692190558,0.501514922387,-0.000266834524943,0.0128227318285,0.001,-76.857038185,6000.0,0.0,300.0,0.0
1513265750950082312,,567346,,1513265749,160063616,'',0.488692190558,0.501512570064,-0.000218461507011,0.0128203795052,0.001,-76.8577748647,6000.0,0.0,300.0,0.0
1513265750960119557,,567347,,1513265749,170063616,'',0.488692190558,0.501510642605,-0.000178825371572,0.0128184520464,0.001,-76.8575829339,6000.0,0.0,300.0,0.0
1513265750970060444,,567348,,1513265749,180063616,'',0.488692190558,0.501429616097,-0.0131019312559,0.012737425539,0.001,-72.5597500487,6000.0,0.0,300.0,0.0
1513265750980594198,,567349,,1513265749,190063616,'',0.488692190558,0.501391289095,0.00223260609788,0.012699098537,0.001,-76.868723756,6000.0,0.0,300.0,0.0
1513265750990615376,,567350,,1513265749,200063616,'',0.488692190558,0.501306871686,-0.0106168254491,0.0126146811274,0.001,-72.4807286602,6000.0,0.0,300.0,0.0
1513265751000549470,,567351,,1513265749,210063616,'',0.488692190558,0.501224864851,-0.00896179620448,0.0125326742931,0.001,-72.5028287935,6000.0,0.0,300.0,0.0
1513265751010528655,,567352,,1513265749,220063616,'',0.488692190558,0.501144580138,-0.00733936409842,0.0124523895793,0.001,-72.5489738555,6000.0,0.0,300.0,0.0
1513265751020514044,,567353,,1513265749,230063616,'',0.488692190558,0.501078722297,-0.00600847717862,0.0123865317385,0.001,-72.524792466,6000.0,0.0,300.0,0.0
1513265751030218122,,567354,,1513265749,240063616,'',0.488692190558,0.501024777803,-0.00491834089559,0.0123325872442,0.001,-72.5131912045,6000.0,0.0,300.0,0.0
1513265751040440560,,567355,,1513265749,250063616,'',0.488692190558,0.50099336039,-0.00428321323615,0.0123011698318,0.001,-72.5120159074,6000.0,0.0,300.0,0.0
1513265751050217191,,567356,,1513265749,260063616,'',0.488692190558,0.50095500102,-0.00350807015883,0.0122628104613,0.001,-72.5450990438,6000.0,0.0,300.0,0.0
1513265751060335055,,567357,,1513265749,270063616,'',0.488692190558,0.500895635288,-0.0168627849844,0.01220344473,0.001,-68.1155989054,6000.0,0.0,300.0,0.0
1513265751070192265,,567358,,1513265749,280063616,'',0.488692190558,0.500874925772,-0.00188796873778,0.012182735214,0.001,-72.528543464,6000.0,0.0,300.0,0.0
1513265751080271193,,567359,,1513265749,290063616,'',0.488692190558,0.500767325688,0.000282716303551,0.0120751351295,0.001,-72.5364361035,6000.0,0.0,300.0,0.0
1513265751090170590,,567360,,1513265749,300063616,'',0.488692190558,0.500714459464,-0.0132059095508,0.0120222689054,0.001,-68.1479587143,6000.0,0.0,300.0,0.0
1513265751100500722,,567361,,1513265749,310063616,'',0.488692190558,0.500660668543,-0.0121120389005,0.0119684779842,0.001,-68.146221074,6000.0,0.0,300.0,0.0
1513265751110456331,,567362,,1513265749,320063616,'',0.488692190558,0.500617072673,-0.0112370882201,0.0119248821144,0.001,-68.1688590167,6000.0,0.0,300.0,0.0
1513265751120369738,,567363,,1513265749,330063616,'',0.488692190558,0.500569871366,-0.0102782586634,0.011877680808,0.001,-68.2155988122,6000.0,0.0,300.0,0.0
1513265751130375157,,567364,,1513265749,340063616,'',0.488692190558,0.50050383597,0.00561137600726,0.0118116454117,0.001,-72.5571514947,6000.0,0.0,300.0,0.0
1513265751140296667,,567365,,1513265749,350063616,'',0.488692190558,0.500423485974,-0.00732322947365,0.0117312954155,0.001,-68.1833272307,6000.0,0.0,300.0,0.0
1513265751150401112,,567366,,1513265749,360063616,'',0.488692190558,0.500357785498,0.00855373985403,0.0116655949398,0.001,-72.5167558777,6000.0,0.0,300.0,0.0
1513265751160326847,,567367,,1513265749,370063616,'',0.488692190558,0.500303925313,-0.00491464893479,0.0116117347546,0.001,-68.1881521449,6000.0,0.0,300.0,0.0
1513265751170526340,,567368,,1513265749,380063616,'',0.488692190558,0.500259843162,-0.0040233720992,0.0115676526035,0.001,-68.192468017,6000.0,0.0,300.0,0.0
1513265751180523227,,567369,,1513265749,390063616,'',0.488692190558,0.50026305048,-0.00408967890863,0.0115708599213,0.001,-68.2184150881,6000.0,0.0,300.0,0.0
1513265751190459468,,567370,,1513265749,400063616,'',0.488692190558,0.500200976229,-0.00283145571927,0.011508785671,0.001,-68.2207235893,6000.0,0.0,300.0,0.0
1513265751200406130,,567371,,1513265749,410063616,'',0.488692190558,0.500175561817,-0.00231792398788,0.0114833712582,0.001,-68.2022264689,6000.0,0.0,300.0,0.0
1513265751210412794,,567372,,1513265749,420063616,'',0.488692190558,0.500168259398,-0.00217018413244,0.0114760688396,0.001,-68.20221841,6000.0,0.0,300.0,0.0
1513265751220367059,,567373,,1513265749,430063616,'',0.488692190558,0.500161527034,-0.00203542818086,0.0114693364757,0.001,-68.214581771,6000.0,0.0,300.0,0.0
1513265751230326981,,567374,,1513265749,440063616,'',0.488692190558,0.500157569384,0.012601124352,0.0114653788257,0.001,-72.579930385,6000.0,0.0,300.0,0.0
1513265751240344481,,567375,,1513265749,450063616,'',0.488692190558,0.500191742001,-0.00264598060696,0.0114995514428,0.001,-68.2008548878,6000.0,0.0,300.0,0.0
1513265751250314797,,567376,,1513265749,460063616,'',0.488692190558,0.5001814663,-0.00243893481138,0.011489275742,0.001,-68.2024301202,6000.0,0.0,300.0,0.0
1513265751260374955,,567377,,1513265749,470063616,'',0.488692190558,0.500198038234,-0.00277167646977,0.0115058476751,0.001,-68.2169370671,6000.0,0.0,300.0,0.0
1513265751270091748,,567378,,1513265749,480063616,'',0.488692190558,0.500173154533,-0.00226894342548,0.0114809639748,0.001,-68.2011192046,6000.0,0.0,300.0,0.0
1513265751280579478,,567379,,1513265749,490063616,'',0.488692190558,0.500152745726,-0.0018566180241,0.0114605551677,0.001,-68.1879266819,6000.0,0.0,300.0,0.0
1513265751290180084,,567380,,1513265749,500063616,'',0.488692190558,0.500148590833,-0.00177257499188,0.0114564002749,0.001,-68.2038724622,6000.0,0.0,300.0,0.0
1513265751300157429,,567381,,1513265749,510063616,'',0.488692190558,0.50012070779,-0.00121241285503,0.0114285172317,0.001,-68.2142136303,6000.0,0.0,300.0,0.0
1513265751310625156,,567382,,1513265749,520063616,'',0.488692190558,0.500095528284,-0.0152597959035,0.011403337726,0.001,-63.8246378674,6000.0,0.0,300.0,0.0
1513265751320388883,,567383,,1513265749,530063616,'',0.488692190558,0.499970568383,-0.012734501401,0.0112783778247,0.001,-63.8352306172,6000.0,0.0,300.0,0.0
1513265751330434756,,567384,,1513265749,540063616,'',0.488692190558,0.499722969883,-0.0222897323071,0.0110307793241,0.001,-59.4718463625,6000.0,0.0,300.0,0.0
1513265751340479377,,567385,,1513265749,550063616,'',0.488692190558,0.49957595943,-0.00476531247181,0.010883768872,0.001,-63.8659296406,6000.0,0.0,300.0,0.0
1513265751350309362,,567386,,1513265749,560063616,'',0.488692190558,0.499389113949,-0.0155470808628,0.0106969233904,0.001,-59.5046386351,6000.0,0.0,300.0,0.0
1513265751360259669,,567387,,1513265749,570063616,'',0.488692190558,0.499264176178,0.00153420518895,0.0105719856198,0.001,-63.8946664972,6000.0,0.0,300.0,0.0
1513265751370359465,,567388,,1513265749,580063616,'',0.488692190558,0.499211996904,0.00258506156802,0.0105198063459,0.001,-63.898597809,6000.0,0.0,300.0,0.0
1513265751380167757,,567389,,1513265749,590063616,'',0.488692190558,0.499157326592,0.00368489005332,0.0104651360335,0.001,-63.9111123197,6000.0,0.0,300.0,0.0
1513265751390321904,,567390,,1513265749,600063616,'',0.488692190558,0.49912221891,-0.0101625421858,0.0104300283514,0.001,-59.5286383389,6000.0,0.0,300.0,0.0
1513265751400325993,,567391,,1513265749,610063616,'',0.488692190558,0.499083475284,-0.00937706793398,0.0103912847259,0.001,-59.5828970422,6000.0,0.0,300.0,0.0
1513265751410526185,,567392,,1513265749,620063616,'',0.488692190558,0.49903833813,-0.00846095230426,0.0103461475717,0.001,-59.5298820424,6000.0,0.0,300.0,0.0
1513265751420489748,,567393,,1513265749,630063616,'',0.488692190558,0.49901545008,-0.00799945957817,0.0103232595219,0.001,-59.5312447101,6000.0,0.0,300.0,0.0
1513265751430463178,,567394,,1513265749,640063616,'',0.488692190558,0.499009427202,-0.00787458395012,0.0103172366438,0.001,-59.5727066359,6000.0,0.0,300.0,0.0
1513265751440451257,,567395,,1513265749,650063616,'',0.488692190558,0.499003899496,0.00679559051645,0.0103117089373,0.001,-63.9152104333,6000.0,0.0,300.0,0.0
1513265751450320089,,567396,,1513265749,660063616,'',0.488692190558,0.499009798571,-0.00788331990789,0.0103176080121,0.001,-59.5345784316,6000.0,0.0,300.0,0.0
1513265751460142357,,567397,,1513265749,670063616,'',0.488692190558,0.499003816753,-0.00775794373536,0.0103116261948,0.001,-59.5255209732,6000.0,0.0,300.0,0.0
1513265751470101365,,567398,,1513265749,680063616,'',0.488692190558,0.499013684962,0.00659997227372,0.0103214944038,0.001,-63.908717887,6000.0,0.0,300.0,0.0
1513265751480590228,,567399,,1513265749,690063616,'',0.488692190558,0.499047028824,0.00592631624169,0.0103548382652,0.001,-63.9657540481,6000.0,0.0,300.0,0.0
1513265751490449846,,567400,,1513265749,700063616,'',0.488692190558,0.498982187998,-0.00731518756369,0.0102899974395,0.001,-59.5282938356,6000.0,0.0,300.0,0.0
1513265751500407956,,567401,,1513265749,710063616,'',0.488692190558,0.49899475391,0.00698678970012,0.0103025633515,0.001,-63.9118977886,6000.0,0.0,300.0,0.0
1513265751510356406,,567402,,1513265749,720063616,'',0.488692190558,0.498953320776,-0.00673220643824,0.0102611302176,0.001,-59.5735963474,6000.0,0.0,300.0,0.0
1513265751520305869,,567403,,1513265749,730063616,'',0.488692190558,0.498959284584,0.00769601257101,0.0102670940258,0.001,-63.9259613538,6000.0,0.0,300.0,0.0
1513265751530256632,,567404,,1513265749,740063616,'',0.488692190558,0.498963938605,0.00759675401329,0.010271748047,0.001,-63.9205618092,6000.0,0.0,300.0,0.0
1513265751540228551,,567405,,1513265749,750063616,'',0.488692190558,0.498967087222,-0.00701641108263,0.0102748966631,0.001,-59.5298384034,6000.0,0.0,300.0,0.0
1513265751550228734,,567406,,1513265749,760063616,'',0.488692190558,0.498971402168,0.00745266910581,0.0102792116098,0.001,-63.9226212424,6000.0,0.0,300.0,0.0
1513265751560420238,,567407,,1513265749,770063616,'',0.488692190558,0.498959859548,0.00768857262875,0.0102676689897,0.001,-63.9281262304,6000.0,0.0,300.0,0.0
1513265751570242060,,567408,,1513265749,780063616,'',0.488692190558,0.498951704962,0.00785227475081,0.0102595144041,0.001,-63.9193302075,6000.0,0.0,300.0,0.0
1513265751580223700,,567409,,1513265749,790063616,'',0.488692190558,0.498930962501,0.00826620043738,0.0102387719429,0.001,-63.8707935646,6000.0,0.0,300.0,0.0
1513265751590115249,,567410,,1513265749,800063616,'',0.488692190558,0.498940792484,0.00806783566684,0.0102486019259,0.001,-63.9196084625,6000.0,0.0,300.0,0.0
1513265751600586153,,567411,,1513265749,810063616,'',0.488692190558,0.498959870639,-0.00688033883122,0.0102676800806,0.001,-59.5325622902,6000.0,0.0,300.0,0.0
1513265751610641097,,567412,,1513265749,820063616,'',0.488692190558,0.498977876015,0.00731771677201,0.0102856854561,0.001,-63.9172644965,6000.0,0.0,300.0,0.0
1513265751620577896,,567413,,1513265749,830063616,'',0.488692190558,0.498966349651,0.00754993756808,0.0102741590929,0.001,-63.9225406097,6000.0,0.0,300.0,0.0
1513265751630514055,,567414,,1513265749,840063616,'',0.488692190558,0.498916442541,-0.00599785722991,0.0102242519826,0.001,-59.5367507401,6000.0,0.0,300.0,0.0
1513265751640340809,,567415,,1513265749,850063616,'',0.488692190558,0.498862739233,-0.0049122002214,0.010170548675,0.001,-59.5433488174,6000.0,0.0,300.0,0.0
1513265751650441093,,567416,,1513265749,860063616,'',0.488692190558,0.498831166434,-0.00427058784583,0.0101389758756,0.001,-59.5462095451,6000.0,0.0,300.0,0.0
1513265751660441074,,567417,,1513265749,870063616,'',0.488692190558,0.498806004647,-0.00376028244645,0.0101138140883,0.001,-59.5767544213,6000.0,0.0,300.0,0.0
1513265751670146283,,567418,,1513265749,880063616,'',0.488692190558,0.49878539228,-0.00334239967725,0.0100932017219,0.001,-59.5595431324,6000.0,0.0,300.0,0.0
1513265751680223162,,567419,,1513265749,890063616,'',0.488692190558,0.498755407462,-0.00273734813109,0.010063216904,0.001,-59.5514898566,6000.0,0.0,300.0,0.0
1513265751690164439,,567420,,1513265749,900063616,'',0.488692190558,0.498742987364,-0.00248775207636,0.0100507968054,0.001,-59.5525803572,6000.0,0.0,300.0,0.0
1513265751700626931,,567421,,1513265749,910063616,'',0.488692190558,0.498720636473,-0.00203655673456,0.0100284459149,0.001,-59.556224372,6000.0,0.0,300.0,0.0
1513265751710491573,,567422,,1513265749,920063616,'',0.488692190558,0.498727723198,-0.00218355869968,0.0100355326394,0.001,-59.5581036157,6000.0,0.0,300.0,0.0
1513265751720473816,,567423,,1513265749,930063616,'',0.488692190558,0.498708179503,-0.00178831824714,0.0100159889441,0.001,-59.5692244876,6000.0,0.0,300.0,0.0
1513265751730331241,,567424,,1513265749,940063616,'',0.488692190558,0.498704141625,-0.00170606114028,0.0100119510668,0.001,-59.5571030591,6000.0,0.0,300.0,0.0
1513265751740308069,,567425,,1513265749,950063616,'',0.488692190558,0.498688833422,-0.00139658521405,0.0099966428638,0.001,-59.5604166968,6000.0,0.0,300.0,0.0
1513265751750374931,,567426,,1513265749,960063616,'',0.488692190558,0.498676271363,-0.00114262628017,0.00998408080454,0.001,-59.5505071622,6000.0,0.0,300.0,0.0
1513265751760360820,,567427,,1513265749,970063616,'',0.488692190558,0.498666067771,-0.000936346932594,0.00997387721238,0.001,-59.5617094966,6000.0,0.0,300.0,0.0
1513265751770204656,,567428,,1513265749,980063616,'',0.488692190558,0.498657640964,-0.000765987687689,0.00996545040534,0.001,-59.5549621085,6000.0,0.0,300.0,0.0
1513265751780227446,,567429,,1513265749,990063616,'',0.488692190558,0.498650788892,-0.000627463839034,0.00995859833375,0.001,-59.5631419687,6000.0,0.0,300.0,0.0
1513265751790110237,,567430,,1513265750,63616,'',0.488692190558,0.498645169791,-0.000513866138997,0.0099529792322,0.001,-59.5667712684,6000.0,0.0,300.0,0.0
1513265751800676168,,567431,,1513265750,10063616,'',0.488692190558,0.498640559749,-0.000420667941947,0.00994836919051,0.001,-59.5632065684,6000.0,0.0,300.0,0.0
1513265751810595095,,567432,,1513265750,20063616,'',0.488692190558,0.49863678614,-0.000344379361194,0.00994459558169,0.001,-59.5639212798,6000.0,0.0,300.0,0.0
1513265751820383599,,567433,,1513265750,30063616,'',0.488692190558,0.498633702732,-0.000282044121669,0.00994151217383,0.001,-59.5659741617,6000.0,0.0,300.0,0.0
1513265751830381957,,567434,,1513265750,40063616,'',0.488692190558,0.498618172443,3.13355645782e-05,0.0099259818847,0.001,-59.5654691891,6000.0,0.0,300.0,0.0
1513265751840433252,,567435,,1513265750,50063616,'',0.488692190558,0.49859173045,0.000562610827247,0.00989953989159,0.001,-59.5677406142,6000.0,0.0,300.0,0.0
1513265751850259961,,567436,,1513265750,60063616,'',0.488692190558,0.498559078757,0.00121916251704,0.00986688819833,0.001,-59.5620092953,6000.0,0.0,300.0,0.0
1513265751860249867,,567437,,1513265750,70063616,'',0.488692190558,0.498570086786,0.000997966154764,0.00987789622796,0.001,-59.5710976301,6000.0,0.0,300.0,0.0
1513265751870317844,,567438,,1513265750,80063616,'',0.488692190558,0.498578001389,0.000838041850452,0.00988581083026,0.001,-59.535980912,6000.0,0.0,300.0,0.0
1513265751880487873,,567439,,1513265750,90063616,'',0.488692190558,0.498585568731,0.000686143855276,0.00989337817226,0.001,-59.5682629382,6000.0,0.0,300.0,0.0
1513265751890134371,,567440,,1513265750,100063616,'',0.488692190558,0.498591768336,0.000561700220298,0.0098995777771,0.001,-59.5674106724,6000.0,0.0,300.0,0.0
1513265751900558694,,567441,,1513265750,110063616,'',0.488692190558,0.498547540118,0.00145581192202,0.00985534955992,0.001,-59.5749648783,6000.0,0.0,300.0,0.0
1513265751910618111,,567442,,1513265750,120063616,'',0.488692190558,0.498532831103,0.00174893219039,0.00984064054416,0.001,-59.5722260191,6000.0,0.0,300.0,0.0
1513265751920422625,,567443,,1513265750,130063616,'',0.488692190558,0.49853533825,0.00169688971946,0.00984314769149,0.001,-59.5735065801,6000.0,0.0,300.0,0.0
1513265751930398626,,567444,,1513265750,140063616,'',0.488692190558,0.498537739985,0.00165337062888,0.0098455494262,0.001,-59.5718385555,6000.0,0.0,300.0,0.0
1513265751940548679,,567445,,1513265750,150063616,'',0.488692190558,0.498553940401,0.0013277431108,0.00986174984258,0.001,-59.5612450372,6000.0,0.0,300.0,0.0
1513265751950541508,,567446,,1513265750,160063616,'',0.488692190558,0.498541020965,0.00158969069398,0.00984883040685,0.001,-59.586982039,6000.0,0.0,300.0,0.0
1513265751960420577,,567447,,1513265750,170063616,'',0.488692190558,0.49852869964,-0.0127155848345,0.00983650908124,0.001,-55.1767663628,6000.0,0.0,300.0,0.0
1513265751970341440,,567448,,1513265750,180063616,'',0.488692190558,0.498532125743,0.00177369412564,0.00983993518443,0.001,-59.6437390784,6000.0,0.0,300.0,0.0
1513265751980175641,,567449,,1513265750,190063616,'',0.488692190558,0.498521770702,0.00197530558137,0.0098295801432,0.001,-59.5742430726,6000.0,0.0,300.0,0.0
1513265751990155903,,567450,,1513265750,200063616,'',0.488692190558,0.498512245486,-0.012388286555,0.00982005492747,0.001,-55.1865264694,6000.0,0.0,300.0,0.0
1513265752000607235,,567451,,1513265750,210063616,'',0.488692190558,0.498531743904,0.00177521383976,0.00983955334565,0.001,-59.5739816935,6000.0,0.0,300.0,0.0
1513265752010551140,,567452,,1513265750,220063616,'',0.488692190558,0.498535244267,0.00170562372407,0.00984305370825,0.001,-59.5741323773,6000.0,0.0,300.0,0.0
1513265752020510089,,567453,,1513265750,230063616,'',0.488692190558,0.498510585326,0.00219877267341,0.00981839476785,0.001,-59.5739819037,6000.0,0.0,300.0,0.0
1513265752030538923,,567454,,1513265750,240063616,'',0.488692190558,0.498477110996,-0.0116774769365,0.00978492043759,0.001,-55.199831482,6000.0,0.0,300.0,0.0
1513265752040530843,,567455,,1513265750,250063616,'',0.488692190558,0.498463103665,-0.0113951146234,0.00977091310624,0.001,-55.2666825033,6000.0,0.0,300.0,0.0
1513265752050496347,,567456,,1513265750,260063616,'',0.488692190558,0.498463945418,0.00314244813483,0.00977175485991,0.001,-59.5788002514,6000.0,0.0,300.0,0.0
1513265752060489831,,567457,,1513265750,270063616,'',0.488692190558,0.498478727334,0.00284242816983,0.00978653677556,0.001,-59.5781431181,6000.0,0.0,300.0,0.0
1513265752070315668,,567458,,1513265750,280063616,'',0.488692190558,0.498476668359,-0.0116724165103,0.00978447780015,0.001,-55.1644629439,6000.0,0.0,300.0,0.0
1513265752080361929,,567459,,1513265750,290063616,'',0.488692190558,0.498474347826,-0.0116334702098,0.00978215726728,0.001,-55.1866024229,6000.0,0.0,300.0,0.0
1513265752090068032,,567460,,1513265750,300063616,'',0.488692190558,0.498462985722,0.00316670088556,0.00977079516368,0.001,-59.5729344509,6000.0,0.0,300.0,0.0
1513265752100542249,,567461,,1513265750,310063616,'',0.488692190558,0.498425431106,0.0039251872664,0.00973324054731,0.001,-59.5889284868,6000.0,0.0,300.0,0.0
1513265752110395944,,567462,,1513265750,320063616,'',0.488692190558,0.498408922277,0.00425660094629,0.00971673171851,0.001,-59.5573945986,6000.0,0.0,300.0,0.0
1513265752120305245,,567463,,1513265750,330063616,'',0.488692190558,0.498408705307,0.0042636987393,0.00971651474834,0.001,-59.5832555075,6000.0,0.0,300.0,0.0
1513265752130349925,,567464,,1513265750,340063616,'',0.488692190558,0.498407848663,0.00428227181129,0.00971565810497,0.001,-59.5820910259,6000.0,0.0,300.0,0.0
1513265752140449380,,567465,,1513265750,350063616,'',0.488692190558,0.498393015394,0.0045791099996,0.00970082483574,0.001,-59.5859092499,6000.0,0.0,300.0,0.0
1513265752150048875,,567466,,1513265750,360063616,'',0.488692190558,0.498392182213,-0.00996026434197,0.00969999165434,0.001,-55.2758134909,6000.0,0.0,300.0,0.0
1513265752160413279,,567467,,1513265750,370063616,'',0.488692190558,0.498382562186,0.00479350444643,0.0096903716273,0.001,-59.5913570029,6000.0,0.0,300.0,0.0
1513265752170384465,,567468,,1513265750,380063616,'',0.488692190558,0.498348974917,-0.00908723174251,0.00965678435866,0.001,-55.2091973589,6000.0,0.0,300.0,0.0
1513265752180258483,,567469,,1513265750,390063616,'',0.488692190558,0.49833052037,-0.008710411412,0.00963832981117,0.001,-55.258379239,6000.0,0.0,300.0,0.0
1513265752190306509,,567470,,1513265750,400063616,'',0.488692190558,0.498382990798,0.00478672030039,0.00969080023916,0.001,-59.5550325554,6000.0,0.0,300.0,0.0
1513265752200355962,,567471,,1513265750,410063616,'',0.488692190558,0.498346775637,-0.00903844578117,0.00965458507884,0.001,-55.2067452087,6000.0,0.0,300.0,0.0
1513265752210280430,,567472,,1513265750,420063616,'',0.488692190558,0.498356674283,-0.00922736974825,0.00966448372496,0.001,-55.1999546579,6000.0,0.0,300.0,0.0
1513265752220850314,,567473,,1513265750,430063616,'',0.488692190558,0.498353405897,-0.0091631133475,0.00966121533903,0.001,-55.2671961025,6000.0,0.0,300.0,0.0
1513265752230449691,,567474,,1513265750,440063616,'',0.488692190558,0.498373770644,0.00496941397787,0.00968158008547,0.001,-59.5456590847,6000.0,0.0,300.0,0.0
1513265752240473714,,567475,,1513265750,450063616,'',0.488692190558,0.498340388707,0.00563953017335,0.00964819814857,0.001,-59.5890466504,6000.0,0.0,300.0,0.0
1513265752250343524,,567476,,1513265750,460063616,'',0.488692190558,0.498352274806,0.0053928684759,0.00966008424755,0.001,-59.5946759587,6000.0,0.0,300.0,0.0
1513265752260268465,,567477,,1513265750,470063616,'',0.488692190558,0.498334463632,-0.00879931420124,0.00964227307353,0.001,-55.2077170094,6000.0,0.0,300.0,0.0
1513265752270848969,,567478,,1513265750,480063616,'',0.488692190558,0.498345816122,-0.0090340374275,0.00965362556318,0.001,-55.2283296905,6000.0,0.0,300.0,0.0
1513265752280187882,,567479,,1513265750,490063616,'',0.488692190558,0.49836974419,0.0050399813902,0.00967755363117,0.001,-59.5927616263,6000.0,0.0,300.0,0.0
1513265752290062105,,567480,,1513265750,500063616,'',0.488692190558,0.49833574079,-0.00882188427407,0.00964355023191,0.001,-55.2025190922,6000.0,0.0,300.0,0.0
1513265752300536974,,567481,,1513265750,510063616,'',0.488692190558,0.498321208377,-0.00853330518869,0.00962901781892,0.001,-55.2062995722,6000.0,0.0,300.0,0.0
1513265752310516965,,567482,,1513265750,520063616,'',0.488692190558,0.498335482243,-0.00881365343409,0.00964329168448,0.001,-55.1942642067,6000.0,0.0,300.0,0.0
1513265752320625771,,567483,,1513265750,530063616,'',0.488692190558,0.498334207355,0.00577374626512,0.00964201679703,0.001,-59.5545698938,6000.0,0.0,300.0,0.0
1513265752330447328,,567484,,1513265750,540063616,'',0.488692190558,0.49833445933,0.00576630076953,0.00964226877202,0.001,-59.5425097449,6000.0,0.0,300.0,0.0
1513265752340390524,,567485,,1513265750,550063616,'',0.488692190558,0.498359524346,0.00526581484047,0.00966733378756,0.001,-59.6493573371,6000.0,0.0,300.0,0.0
1513265752350325872,,567486,,1513265750,560063616,'',0.488692190558,0.498351484717,-0.00912948491178,0.00965929415837,0.001,-55.2756671683,6000.0,0.0,300.0,0.0
1513265752360291704,,567487,,1513265750,570063616,'',0.488692190558,0.498308814015,0.00628757831079,0.00961662345645,0.001,-59.5976230704,6000.0,0.0,300.0,0.0
1513265752370694588,,567488,,1513265750,580063616,'',0.488692190558,0.498287166596,-0.00782494309379,0.00959497603726,0.001,-55.2001250265,6000.0,0.0,300.0,0.0
1513265752380378987,,567489,,1513265750,590063616,'',0.488692190558,0.498308775867,0.00628692266418,0.00961658530853,0.001,-59.5858262285,6000.0,0.0,300.0,0.0
1513265752390234285,,567490,,1513265750,600063616,'',0.488692190558,0.498287255638,-0.00784177224385,0.00959506507986,0.001,-55.2091777184,6000.0,0.0,300.0,0.0
1513265752400071114,,567491,,1513265750,610063616,'',0.488692190558,0.498282541193,0.00679875717413,0.00959035063439,0.001,-59.5959190246,6000.0,0.0,300.0,0.0
1513265752410025699,,567492,,1513265750,620063616,'',0.488692190558,0.498277562963,-0.00765202722882,0.00958537240437,0.001,-55.2630009848,6000.0,0.0,300.0,0.0
1513265752420602729,,567493,,1513265750,630063616,'',0.488692190558,0.498262116324,0.00722342873816,0.00956992576608,0.001,-59.5977696678,6000.0,0.0,300.0,0.0
1513265752430503424,,567494,,1513265750,640063616,'',0.488692190558,0.498234403325,-0.00677736825847,0.00954221276625,0.001,-55.2200178117,6000.0,0.0,300.0,0.0
1513265752440383275,,567495,,1513265750,650063616,'',0.488692190558,0.498200591976,-0.00609246602837,0.00950840141725,0.001,-55.2143246733,6000.0,0.0,300.0,0.0
1513265752450217753,,567496,,1513265750,660063616,'',0.488692190558,0.498224219965,0.00798751699603,0.00953202940609,0.001,-59.5504116628,6000.0,0.0,300.0,0.0
1513265752460213987,,567497,,1513265750,670063616,'',0.488692190558,0.4982426326,-0.00693898669252,0.00955044204111,0.001,-55.2064439919,6000.0,0.0,300.0,0.0
1513265752470165162,,567498,,1513265750,680063616,'',0.488692190558,0.498246420252,0.00754141232336,0.00955422969334,0.001,-59.6177198449,6000.0,0.0,300.0,0.0
1513265752480455175,,567499,,1513265750,690063616,'',0.488692190558,0.498234425824,-0.0067752681179,0.00954223526515,0.001,-55.2136560591,6000.0,0.0,300.0,0.0
1513265752490450926,,567500,,1513265750,700063616,'',0.488692190558,0.498253798207,0.00739270225128,0.00956160764869,0.001,-59.5563351527,6000.0,0.0,300.0,0.0
1513265752500368499,,567501,,1513265750,710063616,'',0.488692190558,0.498242721471,-0.00694017765657,0.00955053091282,0.001,-55.2129528437,6000.0,0.0,300.0,0.0
1513265752510391114,,567502,,1513265750,720063616,'',0.488692190558,0.498297064657,0.0065195824765,0.00960487409903,0.001,-59.5950740718,6000.0,0.0,300.0,0.0
1513265752520270820,,567503,,1513265750,730063616,'',0.488692190558,0.498293259645,0.00659302120952,0.00960106908622,0.001,-59.599236737,6000.0,0.0,300.0,0.0
1513265752530251469,,567504,,1513265750,740063616,'',0.488692190558,0.498272099628,-0.00753503224446,0.00957990906954,0.001,-55.2561705591,6000.0,0.0,300.0,0.0
1513265752540192211,,567505,,1513265750,750063616,'',0.488692190558,0.498257989577,-0.00724697243079,0.00956579901907,0.001,-55.2095639236,6000.0,0.0,300.0,0.0
1513265752550253565,,567506,,1513265750,760063616,'',0.488692190558,0.498230059173,-0.00668596642522,0.00953786861437,0.001,-55.2159577727,6000.0,0.0,300.0,0.0
1513265752560581632,,567507,,1513265750,770063616,'',0.488692190558,0.498221862848,0.00804054269226,0.00952967228948,0.001,-59.6014169286,6000.0,0.0,300.0,0.0
1513265752570450356,,567508,,1513265750,780063616,'',0.488692190558,0.498215801718,-0.00639454935052,0.00952361115951,0.001,-55.2170831299,6000.0,0.0,300.0,0.0
1513265752580370829,,567509,,1513265750,790063616,'',0.488692190558,0.498249741868,0.00747467319117,0.00955755130938,0.001,-59.551376555,6000.0,0.0,300.0,0.0
1513265752590338662,,567510,,1513265750,800063616,'',0.488692190558,0.498224561507,-0.00657371888453,0.00953237094839,0.001,-55.2106932196,6000.0,0.0,300.0,0.0
1513265752600177676,,567511,,1513265750,810063616,'',0.488692190558,0.498244317839,-0.00696874250721,0.00955212728024,0.001,-55.212817521,6000.0,0.0,300.0,0.0
1513265752610528232,,567512,,1513265750,820063616,'',0.488692190558,0.498210308928,0.00827433832583,0.00951811837006,0.001,-59.6604447314,6000.0,0.0,300.0,0.0
1513265752620554063,,567513,,1513265750,830063616,'',0.488692190558,0.498206220309,0.00835597537158,0.0095140297508,0.001,-59.5980057824,6000.0,0.0,300.0,0.0
1513265752630515792,,567514,,1513265750,840063616,'',0.488692190558,0.498200805443,-0.00609240422563,0.00950861488437,0.001,-55.2609552303,6000.0,0.0,300.0,0.0
1513265752640260477,,567515,,1513265750,850063616,'',0.488692190558,0.498223994199,0.00799231132506,0.00953180364032,0.001,-59.6012238126,6000.0,0.0,300.0,0.0
1513265752650309713,,567516,,1513265750,860063616,'',0.488692190558,0.498192633477,-0.00592800338839,0.0095004429184,0.001,-55.2120593771,6000.0,0.0,300.0,0.0
1513265752660235727,,567517,,1513265750,870063616,'',0.488692190558,0.498205965325,0.00836249018774,0.00951377476654,0.001,-59.6028573611,6000.0,0.0,300.0,0.0
1513265752670221519,,567518,,1513265750,880063616,'',0.488692190558,0.498226747006,0.00794086747838,0.00953455644718,0.001,-59.5436269527,6000.0,0.0,300.0,0.0
1513265752680196511,,567519,,1513265750,890063616,'',0.488692190558,0.498204174473,-0.00615868222312,0.00951198391463,0.001,-55.2144399676,6000.0,0.0,300.0,0.0
1513265752690243123,,567520,,1513265750,900063616,'',0.488692190558,0.498188896293,0.00870379640582,0.00949670573432,0.001,-59.6125793253,6000.0,0.0,300.0,0.0
1513265752700190737,,567521,,1513265750,910063616,'',0.488692190558,0.498201761701,-0.0061161300816,0.00950957114269,0.001,-55.2146585825,6000.0,0.0,300.0,0.0
1513265752710088521,,567522,,1513265750,920063616,'',0.488692190558,0.498173561617,0.00900498866337,0.00948137105898,0.001,-59.5400341711,6000.0,0.0,300.0,0.0
1513265752720180258,,567523,,1513265750,930063616,'',0.488692190558,0.498200556722,0.00845868482081,0.00950836616386,0.001,-59.6033474202,6000.0,0.0,300.0,0.0
1513265752730117309,,567524,,1513265750,940063616,'',0.488692190558,0.498170901796,-0.00549588493536,0.00947871123795,0.001,-55.2158684637,6000.0,0.0,300.0,0.0
1513265752740570196,,567525,,1513265750,950063616,'',0.488692190558,0.498159547059,-0.00526551481595,0.00946735650017,0.001,-55.2120235049,6000.0,0.0,300.0,0.0
1513265752750570286,,567526,,1513265750,960063616,'',0.488692190558,0.498179765838,-0.00567245584425,0.00948757527922,0.001,-55.25759151,6000.0,0.0,300.0,0.0
1513265752760440459,,567527,,1513265750,970063616,'',0.488692190558,0.49819441055,0.00858863591809,0.00950221999166,0.001,-59.6200463142,6000.0,0.0,300.0,0.0
1513265752770330729,,567528,,1513265750,980063616,'',0.488692190558,0.49815283142,-0.00512702105965,0.00946064086111,0.001,-55.2172410796,6000.0,0.0,300.0,0.0
1513265752780248829,,567529,,1513265750,990063616,'',0.488692190558,0.498170671244,-0.00549455617703,0.00947848068543,0.001,-55.2523359136,6000.0,0.0,300.0,0.0
1513265752790233684,,567530,,1513265751,63616,'',0.488692190558,0.498172971675,-0.00553723257414,0.00948078111629,0.001,-55.2556181273,6000.0,0.0,300.0,0.0
1513265752800184611,,567531,,1513265751,10063616,'',0.488692190558,0.498149681932,0.00949243678751,0.00945749137343,0.001,-59.6161903862,6000.0,0.0,300.0,0.0
1513265752810532746,,567532,,1513265751,20063616,'',0.488692190558,0.498130260736,-0.00466812395645,0.00943807017718,0.001,-55.2211370955,6000.0,0.0,300.0,0.0
1513265752820444015,,567533,,1513265751,30063616,'',0.488692190558,0.498102124793,0.0104505061922,0.00940993423497,0.001,-59.4665208973,6000.0,0.0,300.0,0.0
1513265752830379068,,567534,,1513265751,40063616,'',0.488692190558,0.498078828819,-0.00363195711455,0.00938663826086,0.001,-55.2268458913,6000.0,0.0,300.0,0.0
1513265752840346363,,567535,,1513265751,50063616,'',0.488692190558,0.498072706883,-0.0035119891676,0.00938051632412,0.001,-55.2536946388,6000.0,0.0,300.0,0.0
1513265752850351850,,567536,,1513265751,60063616,'',0.488692190558,0.498093026356,0.0106326021228,0.00940083579797,0.001,-59.5454517003,6000.0,0.0,300.0,0.0
1513265752860299324,,567537,,1513265751,70063616,'',0.488692190558,0.498123102921,0.0100294502169,0.009430912363,0.001,-59.6161644961,6000.0,0.0,300.0,0.0
1513265752870108901,,567538,,1513265751,80063616,'',0.488692190558,0.498134558518,-0.004760271276,0.0094423679593,0.001,-55.2262437074,6000.0,0.0,300.0,0.0
1513265752880502155,,567539,,1513265751,90063616,'',0.488692190558,0.498117134299,-0.00440623475364,0.00942494374089,0.001,-55.2223264471,6000.0,0.0,300.0,0.0
1513265752890521475,,567540,,1513265751,100063616,'',0.488692190558,0.498145188813,0.00958438717194,0.00945299825437,0.001,-59.6028230682,6000.0,0.0,300.0,0.0
1513265752900467878,,567541,,1513265751,110063616,'',0.488692190558,0.498139849011,-0.00485527612859,0.00944765845229,0.001,-55.2511706349,6000.0,0.0,300.0,0.0
1513265752910299000,,567542,,1513265751,120063616,'',0.488692190558,0.49816170486,-0.00529146397809,0.00946951430141,0.001,-55.256592499,6000.0,0.0,300.0,0.0
1513265752920267718,,567543,,1513265751,130063616,'',0.488692190558,0.498153407817,-0.00512479301619,0.00946121725863,0.001,-55.2175556814,6000.0,0.0,300.0,0.0
1513265752930193080,,567544,,1513265751,140063616,'',0.488692190558,0.498173839066,0.00901754357477,0.00948164850797,0.001,-59.6083715933,6000.0,0.0,300.0,0.0
1513265752940143927,,567545,,1513265751,150063616,'',0.488692190558,0.498150200212,-0.00505992286617,0.00945800965366,0.001,-55.1760896289,6000.0,0.0,300.0,0.0
1513265752950047736,,567546,,1513265751,160063616,'',0.488692190558,0.498143819712,0.00962355134296,0.00945162915383,0.001,-59.5383456612,6000.0,0.0,300.0,0.0
1513265752960438533,,567547,,1513265751,170063616,'',0.488692190558,0.498137392874,-0.00480735407153,0.00944520231549,0.001,-55.2204908714,6000.0,0.0,300.0,0.0
1513265752970493434,,567548,,1513265751,180063616,'',0.488692190558,0.498132950338,-0.00471495015714,0.00944075977922,0.001,-55.223622684,6000.0,0.0,300.0,0.0
1513265752980428153,,567549,,1513265751,190063616,'',0.488692190558,0.498157188489,0.0093531074685,0.00946499793027,0.001,-59.6072769009,6000.0,0.0,300.0,0.0
1513265752990278671,,567550,,1513265751,200063616,'',0.488692190558,0.498200210553,0.00847867233761,0.00950801999484,0.001,-59.6009294392,6000.0,0.0,300.0,0.0
1513265753000366068,,567551,,1513265751,210063616,'',0.488692190558,0.498159493665,-0.00525662254508,0.00946730310703,0.001,-55.2553309998,6000.0,0.0,300.0,0.0
1513265753010232810,,567552,,1513265751,220063616,'',0.488692190558,0.498164091442,-0.00534019349576,0.0094719008837,0.001,-55.2176851645,6000.0,0.0,300.0,0.0
1513265753020309083,,567553,,1513265751,230063616,'',0.488692190558,0.498180511903,-0.00567562426736,0.00948832134476,0.001,-55.2182262985,6000.0,0.0,300.0,0.0
1513265753030177352,,567554,,1513265751,240063616,'',0.488692190558,0.498194598172,0.00859923569158,0.00950240761335,0.001,-59.5362666727,6000.0,0.0,300.0,0.0
1513265753040301620,,567555,,1513265751,250063616,'',0.488692190558,0.498155391971,0.00938937735473,0.00946320141287,0.001,-59.6155730025,6000.0,0.0,300.0,0.0
1513265753050102402,,567556,,1513265751,260063616,'',0.488692190558,0.498122982662,-0.00451422756992,0.00943079210332,0.001,-55.2201634284,6000.0,0.0,300.0,0.0
1513265753060479764,,567557,,1513265751,270063616,'',0.488692190558,0.498082399921,-0.00369556757669,0.00939020936227,0.001,-55.2554129001,6000.0,0.0,300.0,0.0
1513265753070469785,,567558,,1513265751,280063616,'',0.488692190558,0.498089525025,-0.00383774856047,0.00939733446705,0.001,-55.2525999992,6000.0,0.0,300.0,0.0
1513265753080179734,,567559,,1513265751,290063616,'',0.488692190558,0.498107224605,-0.0041882283162,0.00941503404628,0.001,-55.2487232436,6000.0,0.0,300.0,0.0
1513265753090612757,,567560,,1513265751,300063616,'',0.488692190558,0.498160488818,0.00928752968049,0.00946829825935,0.001,-59.6156922772,6000.0,0.0,300.0,0.0
1513265753100539554,,567561,,1513265751,310063616,'',0.488692190558,0.498137988194,-0.00481266289143,0.00944579763552,0.001,-55.2497067744,6000.0,0.0,300.0,0.0
1513265753110490985,,567562,,1513265751,320063616,'',0.488692190558,0.49812194509,-0.00449187694234,0.0094297545314,0.001,-55.2586174709,6000.0,0.0,300.0,0.0
1513265753120454795,,567563,,1513265751,330063616,'',0.488692190558,0.49814644447,-0.0049892329937,0.00945425391128,0.001,-55.2196707303,6000.0,0.0,300.0,0.0
1513265753130322624,,567564,,1513265751,340063616,'',0.488692190558,0.498151460993,-0.00509357487844,0.00945927043417,0.001,-55.2221616169,6000.0,0.0,300.0,0.0
1513265753140334121,,567565,,1513265751,350063616,'',0.488692190558,0.498130980365,-0.00468282164961,0.00943878980697,0.001,-55.220733599,6000.0,0.0,300.0,0.0
1513265753150366475,,567566,,1513265751,360063616,'',0.488692190558,0.49812785241,-0.00461442697022,0.0094356618515,0.001,-55.2183517038,6000.0,0.0,300.0,0.0
1513265753160143466,,567567,,1513265751,370063616,'',0.488692190558,0.498127429033,-0.00460430743357,0.00943523847441,0.001,-55.2213936686,6000.0,0.0,300.0,0.0
1513265753170095352,,567568,,1513265751,380063616,'',0.488692190558,0.498138584934,0.00972447521011,0.0094463943753,0.001,-59.5387504238,6000.0,0.0,300.0,0.0
1513265753180087769,,567569,,1513265751,390063616,'',0.488692190558,0.498147837735,-0.00502586407453,0.00945564717687,0.001,-55.2209960613,6000.0,0.0,300.0,0.0
1513265753190491039,,567570,,1513265751,400063616,'',0.488692190558,0.498142171714,-0.00491969062713,0.00944998115575,0.001,-55.2243132681,6000.0,0.0,300.0,0.0
1513265753200521373,,567571,,1513265751,410063616,'',0.488692190558,0.498162930078,0.00922563755282,0.0094707395192,0.001,-59.5480945108,6000.0,0.0,300.0,0.0
1513265753210530245,,567572,,1513265751,420063616,'',0.488692190558,0.498155001823,0.00938361759365,0.00946281126484,0.001,-59.5966222103,6000.0,0.0,300.0,0.0
1513265753220382997,,567573,,1513265751,430063616,'',0.488692190558,0.498121827213,-0.00450284731072,0.00942963665477,0.001,-55.2232009522,6000.0,0.0,300.0,0.0
1513265753230336993,,567574,,1513265751,440063616,'',0.488692190558,0.498109337065,0.0103041171925,0.00941714650693,0.001,-59.5929892715,6000.0,0.0,300.0,0.0
1513265753240294632,,567575,,1513265751,450063616,'',0.488692190558,0.498122900752,-0.00452030494571,0.00943071019383,0.001,-55.2492244197,6000.0,0.0,300.0,0.0
1513265753250251134,,567576,,1513265751,460063616,'',0.488692190558,0.498108268331,-0.00423022730132,0.0094160777728,0.001,-55.2243503277,6000.0,0.0,300.0,0.0
1513265753260286230,,567577,,1513265751,470063616,'',0.488692190558,0.498109664572,0.010297887265,0.00941747401363,0.001,-59.6212617066,6000.0,0.0,300.0,0.0
1513265753270234688,,567578,,1513265751,480063616,'',0.488692190558,0.498084472718,-0.0037483195823,0.00939228215964,0.001,-55.227449078,6000.0,0.0,300.0,0.0
1513265753280470650,,567579,,1513265751,490063616,'',0.488692190558,0.498117502786,0.0101407366876,0.00942531222738,0.001,-59.6233352237,6000.0,0.0,300.0,0.0
1513265753290362852,,567580,,1513265751,500063616,'',0.488692190558,0.498132039258,0.0098506119125,0.00943984869942,0.001,-59.6124030018,6000.0,0.0,300.0,0.0
1513265753300157958,,567581,,1513265751,510063616,'',0.488692190558,0.498089734126,-0.00385084801776,0.00939754356803,0.001,-55.1967151586,6000.0,0.0,300.0,0.0
1513265753310601352,,567582,,1513265751,520063616,'',0.488692190558,0.498091840631,-0.00390157970464,0.00939965007221,0.001,-55.2234935669,6000.0,0.0,300.0,0.0
1513265753320570370,,567583,,1513265751,530063616,'',0.488692190558,0.498071065581,-0.00347678850112,0.00937887502231,0.001,-55.2485701787,6000.0,0.0,300.0,0.0
1513265753330396684,,567584,,1513265751,540063616,'',0.488692190558,0.498052067622,-0.00309300311236,0.00935987706314,0.001,-55.2291144164,6000.0,0.0,300.0,0.0
1513265753340718070,,567585,,1513265751,550063616,'',0.488692190558,0.49804927648,-0.00303530806737,0.00935708592172,0.001,-55.2293510192,6000.0,0.0,300.0,0.0
1513265753350785257,,567586,,1513265751,560063616,'',0.488692190558,0.498074966661,-0.00354562232582,0.00938277610286,0.001,-55.2551280168,6000.0,0.0,300.0,0.0
1513265753360244245,,567587,,1513265751,570063616,'',0.488692190558,0.498107565404,-0.00421114527671,0.00941537484593,0.001,-55.2207604801,6000.0,0.0,300.0,0.0
1513265753370212763,,567588,,1513265751,580063616,'',0.488692190558,0.498124170205,0.0100141163642,0.00943197964666,0.001,-59.6167786868,6000.0,0.0,300.0,0.0
1513265753380734315,,567589,,1513265751,590063616,'',0.488692190558,0.498083342246,-0.00371835069185,0.00939115168738,0.001,-55.2138303215,6000.0,0.0,300.0,0.0
1513265753390576908,,567590,,1513265751,600063616,'',0.488692190558,0.498049975654,-0.00304457544221,0.00935778509542,0.001,-55.2301719707,6000.0,0.0,300.0,0.0
1513265753400637066,,567591,,1513265751,610063616,'',0.488692190558,0.49807593626,0.0109842194946,0.00938374570109,0.001,-59.5448055847,6000.0,0.0,300.0,0.0
1513265753410534188,,567592,,1513265751,620063616,'',0.488692190558,0.498096633883,0.0105658391495,0.009404443325,0.001,-59.6097095497,6000.0,0.0,300.0,0.0
1513265753420347160,,567593,,1513265751,630063616,'',0.488692190558,0.498113418803,0.0102252885803,0.00942122824448,0.001,-59.6119817777,6000.0,0.0,300.0,0.0
1513265753430252506,,567594,,1513265751,640063616,'',0.488692190558,0.498113808232,-0.00433805725696,0.00942161767325,0.001,-55.225446808,6000.0,0.0,300.0,0.0
1513265753440304913,,567595,,1513265751,650063616,'',0.488692190558,0.498102807859,-0.00411191923085,0.00941061730096,0.001,-55.253631746,6000.0,0.0,300.0,0.0
1513265753450153869,,567596,,1513265751,660063616,'',0.488692190558,0.4980920924,-0.0038956874671,0.00939990184143,0.001,-55.2245954273,6000.0,0.0,300.0,0.0
1513265753460068466,,567597,,1513265751,670063616,'',0.488692190558,0.498070602515,-0.00346460061371,0.0093784119567,0.001,-55.2255418901,6000.0,0.0,300.0,0.0
1513265753470427492,,567598,,1513265751,680063616,'',0.488692190558,0.498078965977,0.0109234761719,0.0093867754185,0.001,-59.6041037828,6000.0,0.0,300.0,0.0
1513265753480549554,,567599,,1513265751,690063616,'',0.488692190558,0.498086597711,-0.00378316790933,0.00939440715217,0.001,-55.2491573932,6000.0,0.0,300.0,0.0
1513265753490427308,,567600,,1513265751,700063616,'',0.488692190558,0.498117740173,-0.0044095128603,0.0094255496145,0.001,-55.2194007839,6000.0,0.0,300.0,0.0
1513265753500376164,,567601,,1513265751,710063616,'',0.488692190558,0.498103801988,-0.00412600217988,0.00941161142929,0.001,-55.2220413163,6000.0,0.0,300.0,0.0
1513265753510237929,,567602,,1513265751,720063616,'',0.488692190558,0.498105618044,-0.00416794105206,0.00941342748547,0.001,-55.22819011,6000.0,0.0,300.0,0.0
1513265753520264593,,567603,,1513265751,730063616,'',0.488692190558,0.498104636981,-0.00415761081848,0.00941244642306,0.001,-55.2231589529,6000.0,0.0,300.0,0.0
1513265753530197595,,567604,,1513265751,740063616,'',0.488692190558,0.498106440889,-0.00418922611311,0.00941425033072,0.001,-55.2459769417,6000.0,0.0,300.0,0.0
1513265753540199807,,567605,,1513265751,750063616,'',0.488692190558,0.498094323096,-0.00394108595211,0.00940213253728,0.001,-55.2243933099,6000.0,0.0,300.0,0.0
1513265753550644965,,567606,,1513265751,760063616,'',0.488692190558,0.498071136761,-0.00347316479265,0.00937894620228,0.001,-55.2295054407,6000.0,0.0,300.0,0.0
1513265753560583053,,567607,,1513265751,770063616,'',0.488692190558,0.498053173002,-0.00310776872915,0.00936098244402,0.001,-55.2269981575,6000.0,0.0,300.0,0.0
1513265753570387451,,567608,,1513265751,780063616,'',0.488692190558,0.498077298431,-0.00358684648294,0.00938510787288,0.001,-55.2498451358,6000.0,0.0,300.0,0.0
1513265753580485349,,567609,,1513265751,790063616,'',0.488692190558,0.498112046259,0.0102658204141,0.0094198557001,0.001,-59.5498743797,6000.0,0.0,300.0,0.0
1513265753590540556,,567610,,1513265751,800063616,'',0.488692190558,0.498138652893,-0.00482913452288,0.00944646233497,0.001,-55.2217746529,6000.0,0.0,300.0,0.0
1513265753600589684,,567611,,1513265751,810063616,'',0.488692190558,0.498135206102,0.00979251099847,0.00944301554401,0.001,-59.603611015,6000.0,0.0,300.0,0.0
1513265753610548560,,567612,,1513265751,820063616,'',0.488692190558,0.498116445861,-0.00438528077417,0.00942425530306,0.001,-55.2499688995,6000.0,0.0,300.0,0.0
1513265753620497286,,567613,,1513265751,830063616,'',0.488692190558,0.498089477043,-0.00384132714337,0.00939728648457,0.001,-55.2226106301,6000.0,0.0,300.0,0.0
1513265753630346650,,567614,,1513265751,840063616,'',0.488692190558,0.4981325153,-0.00471040088243,0.00944032474151,0.001,-55.2253595984,6000.0,0.0,300.0,0.0
1513265753640300829,,567615,,1513265751,850063616,'',0.488692190558,0.498153754897,-0.00514295217831,0.00946156433814,0.001,-55.2156644862,6000.0,0.0,300.0,0.0
1513265753650215957,,567616,,1513265751,860063616,'',0.488692190558,0.49813313444,-0.00472441511223,0.00944094388143,0.001,-55.2536470708,6000.0,0.0,300.0,0.0
1513265753660478209,,567617,,1513265751,870063616,'',0.488692190558,0.498090702445,-0.0038674714062,0.00939851188612,0.001,-55.2244418626,6000.0,0.0,300.0,0.0
1513265753670793612,,567618,,1513265751,880063616,'',0.488692190558,0.498069461587,-0.00344204159833,0.00937727102813,0.001,-55.2306218263,6000.0,0.0,300.0,0.0
1513265753680576541,,567619,,1513265751,890063616,'',0.488692190558,0.49809000387,-0.0038564355617,0.00939781331117,0.001,-55.2247846635,6000.0,0.0,300.0,0.0
1513265753690576635,,567620,,1513265751,900063616,'',0.488692190558,0.498105416299,-0.00416491138446,0.00941322574011,0.001,-55.2297084451,6000.0,0.0,300.0,0.0
1513265753700378464,,567621,,1513265751,910063616,'',0.488692190558,0.498108347817,0.0103345581664,0.00941615725869,0.001,-59.608716569,6000.0,0.0,300.0,0.0
1513265753710325720,,567622,,1513265751,920063616,'',0.488692190558,0.498096988787,-0.00398958174948,0.009404798229,0.001,-55.2299250927,6000.0,0.0,300.0,0.0
1513265753720294872,,567623,,1513265751,930063616,'',0.488692190558,0.498101095222,-0.00407052012648,0.00940890466312,0.001,-55.2226010021,6000.0,0.0,300.0,0.0
1513265753730170618,,567624,,1513265751,940063616,'',0.488692190558,0.498078520819,-0.00361608196007,0.00938633026023,0.001,-55.2258251123,6000.0,0.0,300.0,0.0
1513265753740372551,,567625,,1513265751,950063616,'',0.488692190558,0.498097803535,0.010552864432,0.00940561297685,0.001,-59.6187522186,6000.0,0.0,300.0,0.0
1513265753750602029,,567626,,1513265751,960063616,'',0.488692190558,0.498101456252,-0.00408530294426,0.00940926569398,0.001,-55.2272892918,6000.0,0.0,300.0,0.0
1513265753760431264,,567627,,1513265751,970063616,'',0.488692190558,0.498090920545,-0.00386777249972,0.00939872998698,0.001,-55.2294583964,6000.0,0.0,300.0,0.0
1513265753770433365,,567628,,1513265751,980063616,'',0.488692190558,0.498123466227,0.0100271185575,0.00943127566821,0.001,-59.5531191226,6000.0,0.0,300.0,0.0
1513265753780402845,,567629,,1513265751,990063616,'',0.488692190558,0.498120995215,-0.00448031561752,0.00942880465648,0.001,-55.2125881446,6000.0,0.0,300.0,0.0
1513265753790408953,,567630,,1513265752,63616,'',0.488692190558,0.498092978915,-0.0039116612148,0.00940078835649,0.001,-55.2219696063,6000.0,0.0,300.0,0.0
1513265753800198825,,567631,,1513265752,10063616,'',0.488692190558,0.498082713778,-0.00369892460762,0.00939052321928,0.001,-55.199726258,6000.0,0.0,300.0,0.0
1513265753810176058,,567632,,1513265752,20063616,'',0.488692190558,0.498063578589,0.0112394861491,0.00937138803052,0.001,-59.5346015806,6000.0,0.0,300.0,0.0
1513265753820105833,,567633,,1513265752,30063616,'',0.488692190558,0.498100203642,0.0104978599057,0.00940801308318,0.001,-59.6154734076,6000.0,0.0,300.0,0.0
1513265753830179601,,567634,,1513265752,40063616,'',0.488692190558,0.498090817227,0.0106867540121,0.00939862666822,0.001,-59.6132906251,6000.0,0.0,300.0,0.0
1513265753840259926,,567635,,1513265752,50063616,'',0.488692190558,0.498121814054,-0.00449280157879,0.00942962349592,0.001,-55.2206027614,6000.0,0.0,300.0,0.0
1513265753850545672,,567636,,1513265752,60063616,'',0.488692190558,0.498121502313,0.0100727189096,0.00942931175425,0.001,-59.6199645017,6000.0,0.0,300.0,0.0
1513265753860521269,,567637,,1513265752,70063616,'',0.488692190558,0.498133815848,0.00981724278843,0.00944162528979,0.001,-59.6129409218,6000.0,0.0,300.0,0.0
1513265753870534581,,567638,,1513265752,80063616,'',0.488692190558,0.498117799396,0.0101408240588,0.00942560883716,0.001,-59.60425235,6000.0,0.0,300.0,0.0
1513265753880302492,,567639,,1513265752,90063616,'',0.488692190558,0.498116560031,-0.00439098553916,0.00942436947238,0.001,-55.2223784801,6000.0,0.0,300.0,0.0
1513265753890228636,,567640,,1513265752,100063616,'',0.488692190558,0.49814289293,-0.00489684299957,0.00945070237197,0.001,-55.2544854144,6000.0,0.0,300.0,0.0
1513265753900189871,,567641,,1513265752,110063616,'',0.488692190558,0.498148860445,-0.0050185551873,0.00945666988708,0.001,-55.213256962,6000.0,0.0,300.0,0.0
1513265753910616727,,567642,,1513265752,120063616,'',0.488692190558,0.498129532135,-0.00462785407896,0.00943734157686,0.001,-55.2252371355,6000.0,0.0,300.0,0.0
1513265753920425688,,567643,,1513265752,130063616,'',0.488692190558,0.498152745647,-0.005104492402,0.00946055508855,0.001,-55.2142888734,6000.0,0.0,300.0,0.0
1513265753930375860,,567644,,1513265752,140063616,'',0.488692190558,0.498185870475,-0.00577053959846,0.0094936799161,0.001,-55.2529105423,6000.0,0.0,300.0,0.0
1513265753940295455,,567645,,1513265752,150063616,'',0.488692190558,0.498184866469,-0.0057526056948,0.00949267591033,0.001,-55.2161894147,6000.0,0.0,300.0,0.0
1513265753950509870,,567646,,1513265752,160063616,'',0.488692190558,0.498158469546,-0.00522294237947,0.00946627898785,0.001,-55.2265274648,6000.0,0.0,300.0,0.0
1513265753960242430,,567647,,1513265752,170063616,'',0.488692190558,0.498137952421,-0.00481074388269,0.00944576186275,0.001,-55.2186978111,6000.0,0.0,300.0,0.0
