rosbagTimestamp,header,seq,stamp,secs,nsecs,frame_id,set_point,process_value,process_value_dot,error,time_step,command,p,i,d,i_clamp
1513265471521777707,,539429,,1513265469,736751426,'',1.23918376892,1.23367220286,-0.00122559178162,-0.00551156605893,0.001,24.8020472652,4500.0,0.0,0.0,0.0
1513265471531522450,,539430,,1513265469,746751426,'',1.23918376892,1.23367220286,-0.00146755502422,-0.00551156605893,0.001,24.8020472652,4500.0,0.0,0.0,0.0
1513265471541417035,,539431,,1513265469,756751426,'',1.23918376892,1.23367220286,-0.00170603943026,-0.00551156605893,0.001,24.8020472652,4500.0,0.0,0.0,0.0
1513265471551319802,,539432,,1513265469,766751426,'',1.23918376892,1.23367220286,-0.000830028319021,-0.00551156605893,0.001,24.8020472652,4500.0,0.0,0.0,0.0
1513265471561316896,,539433,,1513265469,776751426,'',1.23918376892,1.23367220286,-0.00114501500322,-0.00551156605893,0.001,24.8020472652,4500.0,0.0,0.0,0.0
1513265471571794208,,539434,,1513265469,786751426,'',1.23918376892,1.23367220286,-0.00142837417645,-0.00551156605893,0.001,24.8020472652,4500.0,0.0,0.0,0.0
1513265471581605515,,539435,,1513265469,796751426,'',1.23918376892,1.23367220286,-0.000668125239023,-0.00551156605893,0.001,24.8020472652,4500.0,0.0,0.0,0.0
1513265471591580202,,539436,,1513265469,806751426,'',1.23918376892,1.23367220286,-0.00103794768432,-0.00551156605893,0.001,24.8020472652,4500.0,0.0,0.0,0.0
1513265471601478502,,539437,,1513265469,816751426,'',1.23918376892,1.23367220286,0.000148202701406,-0.00551156605893,0.001,24.8020472652,4500.0,0.0,0.0,0.0
1513265471611500662,,539438,,1513265469,826751426,'',1.23918376892,1.23505009437,0.027403746661,-0.0041336745442,0.001,18.6015354489,4500.0,0.0,0.0,0.0
1513265471621337700,,539439,,1513265469,836751426,'',1.23918376892,1.23367220286,-0.000886938755782,-0.00551156605893,0.001,24.8020472652,4500.0,0.0,0.0,0.0
1513265471631484708,,539440,,1513265469,846751426,'',1.23918376892,1.23367220286,-0.00169523041323,-0.00551156605893,0.001,24.8020472652,4500.0,0.0,0.0,0.0
1513265471641709927,,539441,,1513265469,856751426,'',1.23918376892,1.23367220286,-0.00238583872357,-0.00551156605893,0.001,24.8020472652,4500.0,0.0,0.0,0.0
1513265471651695763,,539442,,1513265469,866751426,'',1.23918376892,1.23367220286,-0.00140316419444,-0.00551156605893,0.001,24.8020472652,4500.0,0.0,0.0,0.0
1513265471661624140,,539443,,1513265469,876751426,'',1.23918376892,1.23505009437,0.025618220881,-0.0041336745442,0.001,18.6015354489,4500.0,0.0,0.0,0.0
1513265471672479187,,539444,,1513265469,886751426,'',1.23918376892,1.23505009437,0.0249644005587,-0.0041336745442,0.001,18.6015354489,4500.0,0.0,0.0,0.0
1513265471681469562,,539445,,1513265469,896751426,'',1.23918376892,1.23367220286,-0.00287499352654,-0.00551156605893,0.001,24.8020472652,4500.0,0.0,0.0,0.0
1513265471691400348,,539446,,1513265469,906751426,'',1.23918376892,1.23367220286,-0.00235663244718,-0.00551156605893,0.001,24.8020472652,4500.0,0.0,0.0,0.0
1513265471701206906,,539447,,1513265469,916751426,'',1.23918376892,1.23505009437,0.0243414008886,-0.0041336745442,0.001,18.6015354489,4500.0,0.0,0.0,0.0
1513265471711218996,,539448,,1513265469,926751426,'',1.23918376892,1.23367220286,-0.00432769861822,-0.00551156605893,0.001,24.8020472652,4500.0,0.0,0.0,0.0
1513265471721688600,,539449,,1513265469,936751426,'',1.23918376892,1.23367220286,-0.00357041813947,-0.00551156605893,0.001,24.8020472652,4500.0,0.0,0.0,0.0
1513265471731637506,,539450,,1513265469,946751426,'',1.23918376892,1.23367220286,-0.00345565486322,-0.00551156605893,0.001,24.8020472652,4500.0,0.0,0.0,0.0
1513265471741657715,,539451,,1513265469,956751426,'',1.23918376892,1.23367220286,-0.004338267943,-0.00551156605893,0.001,24.8020472652,4500.0,0.0,0.0,0.0
1513265471751269350,,539452,,1513265469,966751426,'',1.23918376892,1.23367220286,-0.00401772028573,-0.00551156605893,0.001,24.8020472652,4500.0,0.0,0.0,0.0
1513265471761698923,,539453,,1513265469,976751426,'',1.23918376892,1.23367220286,-0.00522375542184,-0.00551156605893,0.001,24.8020472652,4500.0,0.0,0.0,0.0
1513265471772396891,,539454,,1513265469,986751426,'',1.23918376892,1.23505009437,0.0224646918213,-0.0041336745442,0.001,18.6015354489,4500.0,0.0,0.0,0.0
1513265471781485578,,539455,,1513265469,996751426,'',1.23918376892,1.23367220286,-0.00493032666875,-0.00551156605893,0.001,24.8020472652,4500.0,0.0,0.0,0.0
1513265471791415212,,539456,,1513265470,6751426,'',1.23918376892,1.23229431134,-0.0328499558042,-0.00688945757366,0.001,31.0025590815,4500.0,0.0,0.0,0.0
1513265471801363003,,539457,,1513265470,16751426,'',1.23918376892,1.23367220286,-0.00308410338532,-0.00551156605893,0.001,24.8020472652,4500.0,0.0,0.0,0.0
1513265471811332299,,539458,,1513265470,26751426,'',1.23918376892,1.23367220286,-0.0030350471465,-0.00551156605893,0.001,24.8020472652,4500.0,0.0,0.0,0.0
1513265471821276731,,539459,,1513265470,36751426,'',1.23918376892,1.23367220286,-0.00241508346296,-0.00551156605893,0.001,24.8020472652,4500.0,0.0,0.0,0.0
1513265471831745448,,539460,,1513265470,46751426,'',1.23918376892,1.23367220286,-0.00249377612859,-0.00551156605893,0.001,24.8020472652,4500.0,0.0,0.0,0.0
1513265471841697544,,539461,,1513265470,56751426,'',1.23918376892,1.23505009437,0.0238204074947,-0.0041336745442,0.001,18.6015354489,4500.0,0.0,0.0,0.0
1513265471851661292,,539462,,1513265470,66751426,'',1.23918376892,1.23367220286,-0.00279671622693,-0.00551156605893,0.001,24.8020472652,4500.0,0.0,0.0,0.0
1513265471861587886,,539463,,1513265470,76751426,'',1.23918376892,1.23505009437,0.0244698189879,-0.0041336745442,0.001,18.6015354489,4500.0,0.0,0.0,0.0
1513265471871574443,,539464,,1513265470,86751426,'',1.23918376892,1.23505009437,0.0240290198713,-0.0041336745442,0.001,18.6015354489,4500.0,0.0,0.0,0.0
1513265471881648424,,539465,,1513265470,96751426,'',1.23918376892,1.23367220286,-0.00316796989528,-0.00551156605893,0.001,24.8020472652,4500.0,0.0,0.0,0.0
1513265471891398788,,539466,,1513265470,106751426,'',1.23918376892,1.23229431134,-0.0293840339211,-0.00688945757366,0.001,31.0025590815,4500.0,0.0,0.0,0.0
1513265471901349736,,539467,,1513265470,116751426,'',1.23918376892,1.23367220286,-0.00123344549294,-0.00551156605893,0.001,24.8020472652,4500.0,0.0,0.0,0.0
1513265471911726367,,539468,,1513265470,126751426,'',1.23918376892,1.23367220286,-0.00100975883487,-0.00551156605893,0.001,24.8020472652,4500.0,0.0,0.0,0.0
1513265471921742219,,539469,,1513265470,136751426,'',1.23918376892,1.23367220286,-0.000316236775592,-0.00551156605893,0.001,24.8020472652,4500.0,0.0,0.0,0.0
1513265471931738652,,539470,,1513265470,146751426,'',1.23918376892,1.23505009437,0.0269907616278,-0.0041336745442,0.001,18.6015354489,4500.0,0.0,0.0,0.0
1513265471941723073,,539471,,1513265470,156751426,'',1.23918376892,1.23367220286,-0.000183691727858,-0.00551156605893,0.001,24.8020472652,4500.0,0.0,0.0,0.0
1513265471951620824,,539472,,1513265470,166751426,'',1.23918376892,1.23367220286,-0.000622709459906,-0.00551156605893,0.001,24.8020472652,4500.0,0.0,0.0,0.0
1513265471961665364,,539473,,1513265470,176751426,'',1.23918376892,1.23367220286,-0.000509901989606,-0.00551156605893,0.001,24.8020472652,4500.0,0.0,0.0,0.0
1513265471971598672,,539474,,1513265470,186751426,'',1.23918376892,1.23367220286,-0.00145897067225,-0.00551156605893,0.001,24.8020472652,4500.0,0.0,0.0,0.0
1513265471981593454,,539475,,1513265470,196751426,'',1.23918376892,1.23229431134,-0.0275041826095,-0.00688945757366,0.001,31.0025590815,4500.0,0.0,0.0,0.0
1513265471991404120,,539476,,1513265470,206751426,'',1.23918376892,1.23367220286,-0.000700481269028,-0.00551156605893,0.001,24.8020472652,4500.0,0.0,0.0,0.0
1513265472001354077,,539477,,1513265470,216751426,'',1.23918376892,1.23367220286,-9.20302594476e-05,-0.00551156605893,0.001,24.8020472652,4500.0,0.0,0.0,0.0
1513265472011387531,,539478,,1513265470,226751426,'',1.23918376892,1.23367220286,-0.0010392090426,-0.00551156605893,0.001,24.8020472652,4500.0,0.0,0.0,0.0
1513265472021296219,,539479,,1513265470,236751426,'',1.23918376892,1.23367220286,-0.00142406132174,-0.00551156605893,0.001,24.8020472652,4500.0,0.0,0.0,0.0
1513265472031395063,,539480,,1513265470,246751426,'',1.23918376892,1.23505009437,0.0271729163313,-0.0041336745442,0.001,18.6015354489,4500.0,0.0,0.0,0.0
1513265472041301370,,539481,,1513265470,256751426,'',1.23918376892,1.23505009437,0.0267001269424,-0.0041336745442,0.001,18.6015354489,4500.0,0.0,0.0,0.0
1513265472051386035,,539482,,1513265470,266751426,'',1.23918376892,1.23229431134,-0.0271592492054,-0.00688945757366,0.001,31.0025590815,4500.0,0.0,0.0,0.0
1513265472061277915,,539483,,1513265470,276751426,'',1.23918376892,1.23367220286,0.000613796117759,-0.00551156605893,0.001,24.8020472652,4500.0,0.0,0.0,0.0
1513265472071240543,,539484,,1513265470,286751426,'',1.23918376892,1.23367220286,0.000504283858368,-0.00551156605893,0.001,24.8020472652,4500.0,0.0,0.0,0.0
1513265472081754256,,539485,,1513265470,296751426,'',1.23918376892,1.23367220286,-0.00164488110832,-0.00551156605893,0.001,24.8020472652,4500.0,0.0,0.0,0.0
1513265472091368190,,539486,,1513265470,306751426,'',1.23918376892,1.23367220286,-0.0013459382154,-0.00551156605893,0.001,24.8020472652,4500.0,0.0,0.0,0.0
1513265472101315527,,539487,,1513265470,316751426,'',1.23918376892,1.23505009437,0.0271499256059,-0.0041336745442,0.001,18.6015354489,4500.0,0.0,0.0,0.0
1513265472111260265,,539488,,1513265470,326751426,'',1.23918376892,1.23367220286,-0.000593057399027,-0.00551156605893,0.001,24.8020472652,4500.0,0.0,0.0,0.0
1513265472121738558,,539489,,1513265470,336751426,'',1.23918376892,1.23367220286,-0.000944233365169,-0.00551156605893,0.001,24.8020472652,4500.0,0.0,0.0,0.0
1513265472131639122,,539490,,1513265470,346751426,'',1.23918376892,1.23367220286,-0.00174394866057,-0.00551156605893,0.001,24.8020472652,4500.0,0.0,0.0,0.0
1513265472141604257,,539491,,1513265470,356751426,'',1.23918376892,1.23229431134,-0.0291932937605,-0.00688945757366,0.001,31.0025590815,4500.0,0.0,0.0,0.0
1513265472151518769,,539492,,1513265470,366751426,'',1.23918376892,1.23367220286,-0.000565126097598,-0.00551156605893,0.001,24.8020472652,4500.0,0.0,0.0,0.0
1513265472161464218,,539493,,1513265470,376751426,'',1.23918376892,1.23367220286,0.000546578931301,-0.00551156605893,0.001,24.8020472652,4500.0,0.0,0.0,0.0
1513265472171358647,,539494,,1513265470,386751426,'',1.23918376892,1.23505009437,0.0271786292126,-0.0041336745442,0.001,18.6015354489,4500.0,0.0,0.0,0.0
1513265472181680967,,539495,,1513265470,396751426,'',1.23918376892,1.23367220286,-0.00155359061495,-0.00551156605893,0.001,24.8020472652,4500.0,0.0,0.0,0.0
1513265472191622967,,539496,,1513265470,406751426,'',1.23918376892,1.23367220286,-0.00228487810306,-0.00551156605893,0.001,24.8020472652,4500.0,0.0,0.0,0.0
1513265472201655616,,539497,,1513265470,416751426,'',1.23918376892,1.23229431134,-0.0301216832703,-0.00688945757366,0.001,31.0025590815,4500.0,0.0,0.0,0.0
1513265472211668258,,539498,,1513265470,426751426,'',1.23918376892,1.23367220286,-0.000954879955883,-0.00551156605893,0.001,24.8020472652,4500.0,0.0,0.0,0.0
1513265472221537156,,539499,,1513265470,436751426,'',1.23918376892,1.23505009437,0.0280315370176,-0.0041336745442,0.001,18.6015354489,4500.0,0.0,0.0,0.0
1513265472231563935,,539500,,1513265470,446751426,'',1.23918376892,1.23505009437,0.0274572528275,-0.0041336745442,0.001,18.6015354489,4500.0,0.0,0.0,0.0
1513265472241617780,,539501,,1513265470,456751426,'',1.23918376892,1.23367220286,-0.000816080864522,-0.00551156605893,0.001,24.8020472652,4500.0,0.0,0.0,0.0
1513265472251489103,,539502,,1513265470,466751426,'',1.23918376892,1.23229431134,-0.02935190372,-0.00688945757366,0.001,31.0025590815,4500.0,0.0,0.0,0.0
1513265472261536692,,539503,,1513265470,476751426,'',1.23918376892,1.23505009437,0.0255432765333,-0.0041336745442,0.001,18.6015354489,4500.0,0.0,0.0,0.0
1513265472271490247,,539504,,1513265470,486751426,'',1.23918376892,1.23505009437,0.026843603676,-0.0041336745442,0.001,18.6015354489,4500.0,0.0,0.0,0.0
1513265472281343057,,539505,,1513265470,496751426,'',1.23918376892,1.23229431134,-0.0286824630452,-0.00688945757366,0.001,31.0025590815,4500.0,0.0,0.0,0.0
1513265472291699960,,539506,,1513265470,506751426,'',1.23918376892,1.23367220286,-0.00121277411755,-0.00551156605893,0.001,24.8020472652,4500.0,0.0,0.0,0.0
1513265472301731348,,539507,,1513265470,516751426,'',1.23918376892,1.23367220286,-0.00199372050098,-0.00551156605893,0.001,24.8020472652,4500.0,0.0,0.0,0.0
1513265472311589971,,539508,,1513265470,526751426,'',1.23918376892,1.23367220286,-0.00160659751003,-0.00551156605893,0.001,24.8020472652,4500.0,0.0,0.0,0.0
1513265472321507565,,539509,,1513265470,536751426,'',1.23918376892,1.23367220286,-0.00132904306299,-0.00551156605893,0.001,24.8020472652,4500.0,0.0,0.0,0.0
1513265472331513225,,539510,,1513265470,546751426,'',1.23918376892,1.23367220286,-0.000104873291195,-0.00551156605893,0.001,24.8020472652,4500.0,0.0,0.0,0.0
1513265472341406594,,539511,,1513265470,556751426,'',1.23918376892,1.23367220286,-4.5559434022e-05,-0.00551156605893,0.001,24.8020472652,4500.0,0.0,0.0,0.0
1513265472351305801,,539512,,1513265470,566751426,'',1.23918376892,1.23505009437,0.0267770442228,-0.0041336745442,0.001,18.6015354489,4500.0,0.0,0.0,0.0
1513265472361653035,,539513,,1513265470,576751426,'',1.23918376892,1.23367220286,-0.00182556694203,-0.00551156605893,0.001,24.8020472652,4500.0,0.0,0.0,0.0
1513265472371597175,,539514,,1513265470,586751426,'',1.23918376892,1.23505009437,0.0251988707058,-0.0041336745442,0.001,18.6015354489,4500.0,0.0,0.0,0.0
1513265472381559898,,539515,,1513265470,596751426,'',1.23918376892,1.23505009437,0.0220638594943,-0.0041336745442,0.001,18.6015354489,4500.0,0.0,0.0,0.0
1513265472391339990,,539516,,1513265470,606751426,'',1.23918376892,1.23505009437,0.0210809733601,-0.0041336745442,0.001,18.6015354489,4500.0,0.0,0.0,0.0
1513265472401418376,,539517,,1513265470,616751426,'',1.23918376892,1.23367220286,-0.00653993882193,-0.00551156605893,0.001,24.8020472652,4500.0,0.0,0.0,0.0
1513265472411375931,,539518,,1513265470,626751426,'',1.23918376892,1.23367220286,-0.00740178587727,-0.00551156605893,0.001,24.8020472652,4500.0,0.0,0.0,0.0
1513265472421291864,,539519,,1513265470,636751426,'',1.23918376892,1.23367220286,-0.00750042830247,-0.00551156605893,0.001,24.8020472652,4500.0,0.0,0.0,0.0
1513265472431375644,,539520,,1513265470,646751426,'',1.23918376892,1.23367220286,-0.00813072987,-0.00551156605893,0.001,24.8020472652,4500.0,0.0,0.0,0.0
1513265472441289483,,539521,,1513265470,656751426,'',1.23918376892,1.23505009437,0.0196651979967,-0.0041336745442,0.001,18.6015354489,4500.0,0.0,0.0,0.0
1513265472451278563,,539522,,1513265470,666751426,'',1.23918376892,1.23367220286,-0.00868644286208,-0.00551156605893,0.001,24.8020472652,4500.0,0.0,0.0,0.0
1513265472461572954,,539523,,1513265470,676751426,'',1.23918376892,1.23367220286,-0.0110663233193,-0.00551156605893,0.001,24.8020472652,4500.0,0.0,0.0,0.0
1513265472471574897,,539524,,1513265470,686751426,'',1.23918376892,1.23367220286,-0.0100509720143,-0.00551156605893,0.001,24.8020472652,4500.0,0.0,0.0,0.0
1513265472481685764,,539525,,1513265470,696751426,'',1.23918376892,1.23505009437,0.0159732951628,-0.0041336745442,0.001,18.6015354489,4500.0,0.0,0.0,0.0
1513265472491517452,,539526,,1513265470,706751426,'',1.23918376892,1.23642798589,0.038786740945,-0.00275578302946,0.001,12.4010236326,4500.0,0.0,0.0,0.0
1513265472501539178,,539527,,1513265470,716751426,'',1.23918376892,1.23642798589,0.0332121979894,-0.00275578302946,0.001,12.4010236326,4500.0,0.0,0.0,0.0
1513265472511710825,,539528,,1513265470,726751426,'',1.23918376892,1.23642798589,0.0231729824398,-0.00275578302946,0.001,12.4010236326,4500.0,0.0,0.0,0.0
1513265472521599899,,539529,,1513265470,736751426,'',1.23918376892,1.2378058774,0.0413237144102,-0.00137789151473,0.001,6.2005118163,4500.0,0.0,0.0,0.0
1513265472531631827,,539530,,1513265470,746751426,'',1.23918376892,1.2378058774,0.0318351579422,-0.00137789151473,0.001,6.2005118163,4500.0,0.0,0.0,0.0
1513265472541541632,,539531,,1513265470,756751426,'',1.23918376892,1.23918376892,0.0523438808856,0.0,0.001,0.0,4500.0,0.0,0.0,0.0
1513265472551374380,,539532,,1513265470,766751426,'',1.23918376892,1.2378058774,0.0170453310389,0.0,0.001,0.0,4500.0,0.0,0.0,0.0
1513265472561363326,,539533,,1513265470,776751426,'',1.23918376892,1.23918376892,0.0387522999112,0.0,0.001,0.0,4500.0,0.0,0.0,0.0
1513265472571283857,,539534,,1513265470,786751426,'',1.23918376892,1.24056166043,0.0599096716003,0.0,0.001,0.0,4500.0,0.0,0.0,0.0
1513265472581357273,,539535,,1513265470,796751426,'',1.23918376892,1.23918376892,0.0257067696397,0.0,0.001,0.0,4500.0,0.0,0.0,0.0
1513265472591304249,,539536,,1513265470,806751426,'',1.23918376892,1.24193955195,0.0725675572749,0.0,0.001,0.0,4500.0,0.0,0.0,0.0
1513265472601428507,,539537,,1513265470,816751426,'',1.23918376892,1.24193955195,0.060410812028,0.0,0.001,0.0,4500.0,0.0,0.0,0.0
1513265472611777253,,539538,,1513265470,826751426,'',1.23918376892,1.24193955195,0.0503801891766,0.0,0.001,0.0,4500.0,0.0,0.0,0.0
1513265472621760450,,539539,,1513265470,836751426,'',1.23918376892,1.24193955195,0.0408090063672,0.0,0.001,0.0,4500.0,0.0,0.0,0.0
1513265472631543556,,539540,,1513265470,846751426,'',1.23918376892,1.24193955195,0.0319572542192,0.0,0.001,0.0,4500.0,0.0,0.0,0.0
1513265472641600062,,539541,,1513265470,856751426,'',1.23918376892,1.24193955195,0.0241988082578,0.0,0.001,0.0,4500.0,0.0,0.0,0.0
1513265472651439605,,539542,,1513265470,866751426,'',1.23918376892,1.24193955195,0.0198195057142,0.0,0.001,0.0,4500.0,0.0,0.0,0.0
1513265472661396875,,539543,,1513265470,876751426,'',1.23918376892,1.24469533497,0.0672689492392,0.0,0.001,0.0,4500.0,0.0,0.0,0.0
1513265472671355405,,539544,,1513265470,886751426,'',1.23918376892,1.24469533497,0.0594888500188,0.0,0.001,0.0,4500.0,0.0,0.0,0.0
1513265472681364096,,539545,,1513265470,896751426,'',1.23918376892,1.24469533497,0.0512033638265,0.0,0.001,0.0,4500.0,0.0,0.0,0.0
1513265472691296710,,539546,,1513265470,906751426,'',1.23918376892,1.24469533497,0.0438910807602,0.0,0.001,0.0,4500.0,0.0,0.0,0.0
1513265472701735262,,539547,,1513265470,916751426,'',1.23918376892,1.24469533497,0.0344418591008,0.0,0.001,0.0,4500.0,0.0,0.0,0.0
1513265472711758156,,539548,,1513265470,926751426,'',1.23918376892,1.24469533497,0.027721396798,0.0,0.001,0.0,4500.0,0.0,0.0,0.0
1513265472721633066,,539549,,1513265470,936751426,'',1.23918376892,1.24469533497,0.0222505444283,0.0,0.001,0.0,4500.0,0.0,0.0,0.0
1513265472731781944,,539550,,1513265470,946751426,'',1.23918376892,1.24469533497,0.0157886282014,0.0,0.001,0.0,4500.0,0.0,0.0,0.0
1513265472741484996,,539551,,1513265470,956751426,'',1.23918376892,1.24607322649,0.0372173547428,0.0,0.001,0.0,4500.0,0.0,0.0,0.0
1513265472751739664,,539552,,1513265470,966751426,'',1.23918376892,1.24607322649,0.0310091661486,0.0,0.001,0.0,4500.0,0.0,0.0,0.0
1513265472761345039,,539553,,1513265470,976751426,'',1.23918376892,1.247451118,0.0520827362872,0.0,0.001,0.0,4500.0,0.0,0.0,0.0
1513265472771771325,,539554,,1513265470,986751426,'',1.23918376892,1.247451118,0.0435388809734,0.0,0.001,0.0,4500.0,0.0,0.0,0.0
1513265472781712538,,539555,,1513265470,996751426,'',1.23918376892,1.24882900952,0.0608811524233,0.0,0.001,0.0,4500.0,0.0,0.0,0.0
1513265472791683101,,539556,,1513265471,6751426,'',1.23918376892,1.24882900952,0.0503522670741,0.0,0.001,0.0,4500.0,0.0,0.0,0.0
1513265472801781467,,539557,,1513265471,16751426,'',1.23918376892,1.24882900952,0.0411775479588,0.0,0.001,0.0,4500.0,0.0,0.0,0.0
1513265472811779851,,539558,,1513265471,26751426,'',1.23918376892,1.247451118,0.00596073476143,0.0,0.001,0.0,4500.0,0.0,0.0,0.0
1513265472821632413,,539559,,1513265471,36751426,'',1.23918376892,1.24882900952,0.0256337017504,0.0,0.001,0.0,4500.0,0.0,0.0,0.0
1513265472831506057,,539560,,1513265471,46751426,'',1.23918376892,1.24882900952,0.0190575665681,0.0,0.001,0.0,4500.0,0.0,0.0,0.0
1513265472841507848,,539561,,1513265471,56751426,'',1.23918376892,1.25020690103,0.038356915598,0.0110231321179,0.001,-49.6040945304,4500.0,0.0,0.0,0.0
1513265472851369631,,539562,,1513265471,66751426,'',1.23918376892,1.25020690103,0.0304526626552,0.0110231321179,0.001,-49.6040945304,4500.0,0.0,0.0,0.0
1513265472861363038,,539563,,1513265471,76751426,'',1.23918376892,1.25020690103,0.0234618919586,0.0110231321179,0.001,-49.6040945304,4500.0,0.0,0.0,0.0
1513265472871340180,,539564,,1513265471,86751426,'',1.23918376892,1.25158479255,0.0449162869593,0.0124010236326,0.001,-55.8046063467,4500.0,0.0,0.0,0.0
1513265472881440065,,539565,,1513265471,96751426,'',1.23918376892,1.25158479255,0.038731744473,0.0124010236326,0.001,-55.8046063467,4500.0,0.0,0.0,0.0
1513265472891894922,,539566,,1513265471,106751426,'',1.23918376892,1.25158479255,0.0316500833087,0.0124010236326,0.001,-55.8046063467,4500.0,0.0,0.0,0.0
1513265472901739615,,539567,,1513265471,116751426,'',1.23918376892,1.25296268406,0.0526237950663,0.0137789151473,0.001,-62.005118163,4500.0,0.0,0.0,0.0
1513265472911324763,,539568,,1513265471,126751426,'',1.23918376892,1.25158479255,0.0199020000865,0.0124010236326,0.001,-55.8046063467,4500.0,0.0,0.0,0.0
1513265472921793305,,539569,,1513265471,136751426,'',1.23918376892,1.25158479255,0.0152752967732,0.0124010236326,0.001,-55.8046063467,4500.0,0.0,0.0,0.0
1513265472931904951,,539570,,1513265471,146751426,'',1.23918376892,1.25158479255,0.0120272026434,0.0124010236326,0.001,-55.8046063467,4500.0,0.0,0.0,0.0
1513265472942004289,,539571,,1513265471,156751426,'',1.23918376892,1.25158479255,0.00690711903533,0.0124010236326,0.001,-55.8046063467,4500.0,0.0,0.0,0.0
1513265472951950074,,539572,,1513265471,166751426,'',1.23918376892,1.25158479255,0.00460174623881,0.0124010236326,0.001,-55.8046063467,4500.0,0.0,0.0,0.0
1513265472961630191,,539573,,1513265471,176751426,'',1.23918376892,1.25296268406,0.0305417316294,0.0137789151473,0.001,-62.005118163,4500.0,0.0,0.0,0.0
1513265472971548181,,539574,,1513265471,186751426,'',1.23918376892,1.25158479255,-0.00128174580936,0.0124010236326,0.001,-55.8046063467,4500.0,0.0,0.0,0.0
1513265472981646750,,539575,,1513265471,196751426,'',1.23918376892,1.25296268406,0.0232158368548,0.0137789151473,0.001,-62.005118163,4500.0,0.0,0.0,0.0
1513265472991528418,,539576,,1513265471,206751426,'',1.23918376892,1.25296268406,0.0195209741269,0.0137789151473,0.001,-62.005118163,4500.0,0.0,0.0,0.0
1513265473001341423,,539577,,1513265471,216751426,'',1.23918376892,1.25296268406,0.0149350461963,0.0137789151473,0.001,-62.005118163,4500.0,0.0,0.0,0.0
1513265473011355969,,539578,,1513265471,226751426,'',1.23918376892,1.25296268406,0.0117460620665,0.0137789151473,0.001,-62.005118163,4500.0,0.0,0.0,0.0
1513265473021797685,,539579,,1513265471,236751426,'',1.23918376892,1.25296268406,0.00913201061275,0.0137789151473,0.001,-62.005118163,4500.0,0.0,0.0,0.0
1513265473031913734,,539580,,1513265471,246751426,'',1.23918376892,1.25296268406,0.00794590033383,0.0137789151473,0.001,-62.005118163,4500.0,0.0,0.0,0.0
1513265473041614019,,539581,,1513265471,256751426,'',1.23918376892,1.25296268406,0.00500842314703,0.0137789151473,0.001,-62.005118163,4500.0,0.0,0.0,0.0
1513265473051526774,,539582,,1513265471,266751426,'',1.23918376892,1.25434057558,0.028937064961,0.0151568066621,0.001,-68.2056299793,4500.0,0.0,0.0,0.0
1513265473061514859,,539583,,1513265471,276751426,'',1.23918376892,1.25296268406,-0.000521527365574,0.0137789151473,0.001,-62.005118163,4500.0,0.0,0.0,0.0
1513265473071291856,,539584,,1513265471,286751426,'',1.23918376892,1.25434057558,0.0238211722869,0.0151568066621,0.001,-68.2056299793,4500.0,0.0,0.0,0.0
1513265473081752258,,539585,,1513265471,296751426,'',1.23918376892,1.25434057558,0.0199242246505,0.0151568066621,0.001,-68.2056299793,4500.0,0.0,0.0,0.0
1513265473091509610,,539586,,1513265471,306751426,'',1.23918376892,1.25296268406,-0.00903599041061,0.0137789151473,0.001,-62.005118163,4500.0,0.0,0.0,0.0
1513265473101494746,,539587,,1513265471,316751426,'',1.23918376892,1.25434057558,0.0153638292325,0.0151568066621,0.001,-68.2056299793,4500.0,0.0,0.0,0.0
1513265473111416160,,539588,,1513265471,326751426,'',1.23918376892,1.25434057558,0.0115873130754,0.0151568066621,0.001,-68.2056299793,4500.0,0.0,0.0,0.0
1513265473121494946,,539589,,1513265471,336751426,'',1.23918376892,1.25571846709,0.0362294629435,0.0165346981768,0.001,-74.4061417955,4500.0,0.0,0.0,0.0
1513265473131762997,,539590,,1513265471,346751426,'',1.23918376892,1.25434057558,0.00437477949336,0.0151568066621,0.001,-68.2056299793,4500.0,0.0,0.0,0.0
1513265473141672416,,539591,,1513265471,356751426,'',1.23918376892,1.25434057558,0.00249985271058,0.0151568066621,0.001,-68.2056299793,4500.0,0.0,0.0,0.0
1513265473151695977,,539592,,1513265471,366751426,'',1.23918376892,1.25571846709,0.0283237597044,0.0165346981768,0.001,-74.4061417955,4500.0,0.0,0.0,0.0
1513265473161581164,,539593,,1513265471,376751426,'',1.23918376892,1.25571846709,0.0237463693415,0.0165346981768,0.001,-74.4061417955,4500.0,0.0,0.0,0.0
1513265473171508308,,539594,,1513265471,386751426,'',1.23918376892,1.25434057558,-0.00581825451814,0.0151568066621,0.001,-68.2056299793,4500.0,0.0,0.0,0.0
1513265473181482780,,539595,,1513265471,396751426,'',1.23918376892,1.25571846709,0.0179801825267,0.0165346981768,0.001,-74.4061417955,4500.0,0.0,0.0,0.0
1513265473191418889,,539596,,1513265471,406751426,'',1.23918376892,1.25434057558,-0.0115800046381,0.0151568066621,0.001,-68.2056299793,4500.0,0.0,0.0,0.0
1513265473201429855,,539597,,1513265471,416751426,'',1.23918376892,1.25709635861,0.0410875645962,0.0179125896915,0.001,-80.6066536118,4500.0,0.0,0.0,0.0
1513265473211402348,,539598,,1513265471,426751426,'',1.23918376892,1.25434057558,-0.0169580063354,0.0151568066621,0.001,-68.2056299793,4500.0,0.0,0.0,0.0
1513265473221361427,,539599,,1513265471,436751426,'',1.23918376892,1.25571846709,0.00885670416836,0.0165346981768,0.001,-74.4061417955,4500.0,0.0,0.0,0.0
1513265473231449881,,539600,,1513265471,446751426,'',1.23918376892,1.25571846709,0.0072508079952,0.0165346981768,0.001,-74.4061417955,4500.0,0.0,0.0,0.0
1513265473241443066,,539601,,1513265471,456751426,'',1.23918376892,1.25571846709,0.00642202890498,0.0165346981768,0.001,-74.4061417955,4500.0,0.0,0.0,0.0
1513265473251897051,,539602,,1513265471,466751426,'',1.23918376892,1.25571846709,0.00478169229578,0.0165346981768,0.001,-74.4061417955,4500.0,0.0,0.0,0.0
1513265473261782762,,539603,,1513265471,476751426,'',1.23918376892,1.25709635861,0.0307071470788,0.0179125896915,0.001,-80.6066536118,4500.0,0.0,0.0,0.0
1513265473271704756,,539604,,1513265471,486751426,'',1.23918376892,1.25571846709,0.00192131821589,0.0165346981768,0.001,-74.4061417955,4500.0,0.0,0.0,0.0
1513265473281619030,,539605,,1513265471,496751426,'',1.23918376892,1.25709635861,0.0288534488495,0.0179125896915,0.001,-80.6066536118,4500.0,0.0,0.0,0.0
1513265473291595290,,539606,,1513265471,506751426,'',1.23918376892,1.25434057558,-0.0275049618973,0.0151568066621,0.001,-68.2056299793,4500.0,0.0,0.0,0.0
1513265473301436133,,539607,,1513265471,516751426,'',1.23918376892,1.25709635861,0.0249814574839,0.0179125896915,0.001,-80.6066536118,4500.0,0.0,0.0,0.0
1513265473311448242,,539608,,1513265471,526751426,'',1.23918376892,1.25709635861,0.0229401613889,0.0179125896915,0.001,-80.6066536118,4500.0,0.0,0.0,0.0
1513265473321449560,,539609,,1513265471,536751426,'',1.23918376892,1.25571846709,-0.00648155828163,0.0165346981768,0.001,-74.4061417955,4500.0,0.0,0.0,0.0
1513265473331466271,,539610,,1513265471,546751426,'',1.23918376892,1.25709635861,0.0210419008372,0.0179125896915,0.001,-80.6066536118,4500.0,0.0,0.0,0.0
1513265473341778924,,539611,,1513265471,556751426,'',1.23918376892,1.25571846709,-0.00752633188936,0.0165346981768,0.001,-74.4061417955,4500.0,0.0,0.0,0.0
1513265473351614566,,539612,,1513265471,566751426,'',1.23918376892,1.25434057558,-0.0369208919106,0.0151568066621,0.001,-68.2056299793,4500.0,0.0,0.0,0.0
1513265473361656161,,539613,,1513265471,576751426,'',1.23918376892,1.25709635861,0.0183336331571,0.0179125896915,0.001,-80.6066536118,4500.0,0.0,0.0,0.0
1513265473371653984,,539614,,1513265471,586751426,'',1.23918376892,1.25709635861,0.0189752413771,0.0179125896915,0.001,-80.6066536118,4500.0,0.0,0.0,0.0
1513265473381609311,,539615,,1513265471,596751426,'',1.23918376892,1.25709635861,0.018553502581,0.0179125896915,0.001,-80.6066536118,4500.0,0.0,0.0,0.0
1513265473391578803,,539616,,1513265471,606751426,'',1.23918376892,1.25571846709,-0.0100780526187,0.0165346981768,0.001,-74.4061417955,4500.0,0.0,0.0,0.0
1513265473401479636,,539617,,1513265471,616751426,'',1.23918376892,1.25571846709,-0.0107410404865,0.0165346981768,0.001,-74.4061417955,4500.0,0.0,0.0,0.0
1513265473411495110,,539618,,1513265471,626751426,'',1.23918376892,1.25571846709,-0.0108757308431,0.0165346981768,0.001,-74.4061417955,4500.0,0.0,0.0,0.0
1513265473421464698,,539619,,1513265471,636751426,'',1.23918376892,1.25709635861,0.0154120688704,0.0179125896915,0.001,-80.6066536118,4500.0,0.0,0.0,0.0
1513265473431427234,,539620,,1513265471,646751426,'',1.23918376892,1.25434057558,-0.0414034418393,0.0151568066621,0.001,-68.2056299793,4500.0,0.0,0.0,0.0
1513265473441478223,,539621,,1513265471,656751426,'',1.23918376892,1.25709635861,0.0131016435454,0.0179125896915,0.001,-80.6066536118,4500.0,0.0,0.0,0.0
1513265473451399227,,539622,,1513265471,666751426,'',1.23918376892,1.25709635861,0.011734331844,0.0179125896915,0.001,-80.6066536118,4500.0,0.0,0.0,0.0
1513265473461534006,,539623,,1513265471,676751426,'',1.23918376892,1.25709635861,0.0105672840625,0.0179125896915,0.001,-80.6066536118,4500.0,0.0,0.0,0.0
1513265473471379253,,539624,,1513265471,686751426,'',1.23918376892,1.25709635861,0.00922428402379,0.0179125896915,0.001,-80.6066536118,4500.0,0.0,0.0,0.0
1513265473481395358,,539625,,1513265471,696751426,'',1.23918376892,1.25709635861,0.00803771865787,0.0179125896915,0.001,-80.6066536118,4500.0,0.0,0.0,0.0
1513265473491790104,,539626,,1513265471,706751426,'',1.23918376892,1.25709635861,0.00604017344631,0.0179125896915,0.001,-80.6066536118,4500.0,0.0,0.0,0.0
1513265473501816710,,539627,,1513265471,716751426,'',1.23918376892,1.25709635861,0.00594319855831,0.0179125896915,0.001,-80.6066536118,4500.0,0.0,0.0,0.0
1513265473511715181,,539628,,1513265471,726751426,'',1.23918376892,1.25709635861,0.00379107294724,0.0179125896915,0.001,-80.6066536118,4500.0,0.0,0.0,0.0
1513265473521736311,,539629,,1513265471,736751426,'',1.23918376892,1.25709635861,0.00213166215543,0.0179125896915,0.001,-80.6066536118,4500.0,0.0,0.0,0.0
1513265473531629577,,539630,,1513265471,746751426,'',1.23918376892,1.25709635861,0.00227048518547,0.0179125896915,0.001,-80.6066536118,4500.0,0.0,0.0,0.0
1513265473541538982,,539631,,1513265471,756751426,'',1.23918376892,1.25709635861,-0.000218405475379,0.0179125896915,0.001,-80.6066536118,4500.0,0.0,0.0,0.0
1513265473551582288,,539632,,1513265471,766751426,'',1.23918376892,1.25709635861,-0.0011693665168,0.0179125896915,0.001,-80.6066536118,4500.0,0.0,0.0,0.0
1513265473561461038,,539633,,1513265471,776751426,'',1.23918376892,1.25847425012,0.022891555217,0.0192904812063,0.001,-86.8071654281,4500.0,0.0,0.0,0.0
1513265473571509992,,539634,,1513265471,786751426,'',1.23918376892,1.25847425012,0.0207530463375,0.0192904812063,0.001,-86.8071654281,4500.0,0.0,0.0,0.0
1513265473581853825,,539635,,1513265471,796751426,'',1.23918376892,1.25847425012,0.019548511182,0.0192904812063,0.001,-86.8071654281,4500.0,0.0,0.0,0.0
1513265473591729572,,539636,,1513265471,806751426,'',1.23918376892,1.25847425012,0.0158831732506,0.0192904812063,0.001,-86.8071654281,4500.0,0.0,0.0,0.0
1513265473601627705,,539637,,1513265471,816751426,'',1.23918376892,1.25847425012,0.0140269443029,0.0192904812063,0.001,-86.8071654281,4500.0,0.0,0.0,0.0
1513265473611578255,,539638,,1513265471,826751426,'',1.23918376892,1.25847425012,0.0135321155995,0.0192904812063,0.001,-86.8071654281,4500.0,0.0,0.0,0.0
1513265473621832552,,539639,,1513265471,836751426,'',1.23918376892,1.25709635861,-0.0142373929197,0.0179125896915,0.001,-80.6066536118,4500.0,0.0,0.0,0.0
1513265473631826305,,539640,,1513265471,846751426,'',1.23918376892,1.25847425012,0.0131310888786,0.0192904812063,0.001,-86.8071654281,4500.0,0.0,0.0,0.0
1513265473641671986,,539641,,1513265471,856751426,'',1.23918376892,1.25847425012,0.0127344723577,0.0192904812063,0.001,-86.8071654281,4500.0,0.0,0.0,0.0
1513265473651510927,,539642,,1513265471,866751426,'',1.23918376892,1.25847425012,0.0134372875801,0.0192904812063,0.001,-86.8071654281,4500.0,0.0,0.0,0.0
1513265473661452582,,539643,,1513265471,876751426,'',1.23918376892,1.25847425012,0.0120102352573,0.0192904812063,0.001,-86.8071654281,4500.0,0.0,0.0,0.0
1513265473671399153,,539644,,1513265471,886751426,'',1.23918376892,1.25985214164,0.038602653339,0.020668372721,0.001,-93.0076772444,4500.0,0.0,0.0,0.0
1513265473681477897,,539645,,1513265471,896751426,'',1.23918376892,1.25847425012,0.00876675464396,0.0192904812063,0.001,-86.8071654281,4500.0,0.0,0.0,0.0
1513265473691717710,,539646,,1513265471,906751426,'',1.23918376892,1.25847425012,0.00760557461039,0.0192904812063,0.001,-86.8071654281,4500.0,0.0,0.0,0.0
1513265473701773200,,539647,,1513265471,916751426,'',1.23918376892,1.25847425012,0.00874665318329,0.0192904812063,0.001,-86.8071654281,4500.0,0.0,0.0,0.0
1513265473711871345,,539648,,1513265471,926751426,'',1.23918376892,1.25847425012,0.00665608634821,0.0192904812063,0.001,-86.8071654281,4500.0,0.0,0.0,0.0
1513265473721830919,,539649,,1513265471,936751426,'',1.23918376892,1.25847425012,0.00685023876379,0.0192904812063,0.001,-86.8071654281,4500.0,0.0,0.0,0.0
1513265473731838305,,539650,,1513265471,946751426,'',1.23918376892,1.25709635861,-0.0211217216839,0.0179125896915,0.001,-80.6066536118,4500.0,0.0,0.0,0.0
1513265473741680639,,539651,,1513265471,956751426,'',1.23918376892,1.25709635861,-0.020240970119,0.0179125896915,0.001,-80.6066536118,4500.0,0.0,0.0,0.0
1513265473751682112,,539652,,1513265471,966751426,'',1.23918376892,1.25709635861,-0.0205205006455,0.0179125896915,0.001,-80.6066536118,4500.0,0.0,0.0,0.0
1513265473761663154,,539653,,1513265471,976751426,'',1.23918376892,1.25847425012,0.00694165148136,0.0192904812063,0.001,-86.8071654281,4500.0,0.0,0.0,0.0
1513265473771701383,,539654,,1513265471,986751426,'',1.23918376892,1.25985214164,0.0334656385519,0.020668372721,0.001,-93.0076772444,4500.0,0.0,0.0,0.0
1513265473781571677,,539655,,1513265471,996751426,'',1.23918376892,1.25847425012,0.00458295067722,0.0192904812063,0.001,-86.8071654281,4500.0,0.0,0.0,0.0
1513265473791471463,,539656,,1513265472,6751426,'',1.23918376892,1.25847425012,0.00273520890953,0.0192904812063,0.001,-86.8071654281,4500.0,0.0,0.0,0.0
1513265473801520390,,539657,,1513265472,16751426,'',1.23918376892,1.25985214164,0.0304955697809,0.020668372721,0.001,-93.0076772444,4500.0,0.0,0.0,0.0
1513265473811465023,,539658,,1513265472,26751426,'',1.23918376892,1.25847425012,0.0016561677538,0.0192904812063,0.001,-86.8071654281,4500.0,0.0,0.0,0.0
1513265473821682119,,539659,,1513265472,36751426,'',1.23918376892,1.25985214164,0.028647376947,0.020668372721,0.001,-93.0076772444,4500.0,0.0,0.0,0.0
1513265473831713156,,539660,,1513265472,46751426,'',1.23918376892,1.25847425012,-0.000791931927524,0.0192904812063,0.001,-86.8071654281,4500.0,0.0,0.0,0.0
1513265473841694109,,539661,,1513265472,56751426,'',1.23918376892,1.25709635861,-0.0284298902746,0.0179125896915,0.001,-80.6066536118,4500.0,0.0,0.0,0.0
1513265473851693042,,539662,,1513265472,66751426,'',1.23918376892,1.25847425012,-0.00195111251204,0.0192904812063,0.001,-86.8071654281,4500.0,0.0,0.0,0.0
1513265473861566815,,539663,,1513265472,76751426,'',1.23918376892,1.25847425012,-0.00159801513552,0.0192904812063,0.001,-86.8071654281,4500.0,0.0,0.0,0.0
1513265473871517850,,539664,,1513265472,86751426,'',1.23918376892,1.25709635861,-0.0280923087868,0.0179125896915,0.001,-80.6066536118,4500.0,0.0,0.0,0.0
1513265473881697604,,539665,,1513265472,96751426,'',1.23918376892,1.25985214164,0.0275431995352,0.020668372721,0.001,-93.0076772444,4500.0,0.0,0.0,0.0
1513265473891732913,,539666,,1513265472,106751426,'',1.23918376892,1.25985214164,0.0265511486425,0.020668372721,0.001,-93.0076772444,4500.0,0.0,0.0,0.0
1513265473901560504,,539667,,1513265472,116751426,'',1.23918376892,1.25847425012,-0.00258265506603,0.0192904812063,0.001,-86.8071654281,4500.0,0.0,0.0,0.0
1513265473911686675,,539668,,1513265472,126751426,'',1.23918376892,1.25985214164,0.0251148095313,0.020668372721,0.001,-93.0076772444,4500.0,0.0,0.0,0.0
1513265473921620301,,539669,,1513265472,136751426,'',1.23918376892,1.25847425012,-0.00327739621647,0.0192904812063,0.001,-86.8071654281,4500.0,0.0,0.0,0.0
1513265473931626978,,539670,,1513265472,146751426,'',1.23918376892,1.26123003315,0.0513861086512,0.0220462642357,0.001,-99.2081890607,4500.0,0.0,0.0,0.0
1513265473941453727,,539671,,1513265472,156751426,'',1.23918376892,1.25847425012,-0.0044966726905,0.0192904812063,0.001,-86.8071654281,4500.0,0.0,0.0,0.0
1513265473951507264,,539672,,1513265472,166751426,'',1.23918376892,1.25847425012,-0.00519478539169,0.0192904812063,0.001,-86.8071654281,4500.0,0.0,0.0,0.0
1513265473961385384,,539673,,1513265472,176751426,'',1.23918376892,1.25847425012,-0.00627741901888,0.0192904812063,0.001,-86.8071654281,4500.0,0.0,0.0,0.0
1513265473971348486,,539674,,1513265472,186751426,'',1.23918376892,1.25847425012,-0.00860867374606,0.0192904812063,0.001,-86.8071654281,4500.0,0.0,0.0,0.0
1513265473981458076,,539675,,1513265472,196751426,'',1.23918376892,1.25847425012,-0.00902612783621,0.0192904812063,0.001,-86.8071654281,4500.0,0.0,0.0,0.0
1513265473991652412,,539676,,1513265472,206751426,'',1.23918376892,1.25985214164,0.0178921420419,0.020668372721,0.001,-93.0076772444,4500.0,0.0,0.0,0.0
1513265474001583438,,539677,,1513265472,216751426,'',1.23918376892,1.25847425012,-0.00961051886844,0.0192904812063,0.001,-86.8071654281,4500.0,0.0,0.0,0.0
1513265474011753734,,539678,,1513265472,226751426,'',1.23918376892,1.25985214164,0.0184082763783,0.020668372721,0.001,-93.0076772444,4500.0,0.0,0.0,0.0
1513265474021711706,,539679,,1513265472,236751426,'',1.23918376892,1.25847425012,-0.00980652408604,0.0192904812063,0.001,-86.8071654281,4500.0,0.0,0.0,0.0
1513265474031931644,,539680,,1513265472,246751426,'',1.23918376892,1.26123003315,0.044987982845,0.0220462642357,0.001,-99.2081890607,4500.0,0.0,0.0,0.0
1513265474041969627,,539681,,1513265472,256751426,'',1.23918376892,1.25847425012,-0.0107276651282,0.0192904812063,0.001,-86.8071654281,4500.0,0.0,0.0,0.0
1513265474051721021,,539682,,1513265472,266751426,'',1.23918376892,1.25985214164,0.015992903692,0.020668372721,0.001,-93.0076772444,4500.0,0.0,0.0,0.0
1513265474061577864,,539683,,1513265472,276751426,'',1.23918376892,1.25985214164,0.0146217971599,0.020668372721,0.001,-93.0076772444,4500.0,0.0,0.0,0.0
1513265474071499536,,539684,,1513265472,286751426,'',1.23918376892,1.25985214164,0.0144507792922,0.020668372721,0.001,-93.0076772444,4500.0,0.0,0.0,0.0
1513265474081457768,,539685,,1513265472,296751426,'',1.23918376892,1.25985214164,0.0124366213093,0.020668372721,0.001,-93.0076772444,4500.0,0.0,0.0,0.0
1513265474091825136,,539686,,1513265472,306751426,'',1.23918376892,1.25985214164,0.0101796534274,0.020668372721,0.001,-93.0076772444,4500.0,0.0,0.0,0.0
1513265474101699172,,539687,,1513265472,316751426,'',1.23918376892,1.25847425012,-0.0179692013729,0.0192904812063,0.001,-86.8071654281,4500.0,0.0,0.0,0.0
1513265474111721162,,539688,,1513265472,326751426,'',1.23918376892,1.25985214164,0.00860233011721,0.020668372721,0.001,-93.0076772444,4500.0,0.0,0.0,0.0
1513265474121667671,,539689,,1513265472,336751426,'',1.23918376892,1.25985214164,0.00645675505453,0.020668372721,0.001,-93.0076772444,4500.0,0.0,0.0,0.0
1513265474131609922,,539690,,1513265472,346751426,'',1.23918376892,1.25985214164,0.00675831266627,0.020668372721,0.001,-93.0076772444,4500.0,0.0,0.0,0.0
1513265474141585168,,539691,,1513265472,356751426,'',1.23918376892,1.25985214164,0.00553148606732,0.020668372721,0.001,-93.0076772444,4500.0,0.0,0.0,0.0
1513265474151571410,,539692,,1513265472,366751426,'',1.23918376892,1.25847425012,-0.022770583879,0.0192904812063,0.001,-86.8071654281,4500.0,0.0,0.0,0.0
1513265474161536141,,539693,,1513265472,376751426,'',1.23918376892,1.25847425012,-0.023123071922,0.0192904812063,0.001,-86.8071654281,4500.0,0.0,0.0,0.0
1513265474171397089,,539694,,1513265472,386751426,'',1.23918376892,1.25985214164,0.00238147157543,0.020668372721,0.001,-93.0076772444,4500.0,0.0,0.0,0.0
1513265474181547187,,539695,,1513265472,396751426,'',1.23918376892,1.25985214164,0.00296701693632,0.020668372721,0.001,-93.0076772444,4500.0,0.0,0.0,0.0
1513265474191712844,,539696,,1513265472,406751426,'',1.23918376892,1.25985214164,0.000358388820035,0.020668372721,0.001,-93.0076772444,4500.0,0.0,0.0,0.0
1513265474201814812,,539697,,1513265472,416751426,'',1.23918376892,1.26123003315,0.0270586960358,0.0220462642357,0.001,-99.2081890607,4500.0,0.0,0.0,0.0
1513265474211593600,,539698,,1513265472,426751426,'',1.23918376892,1.26123003315,0.0241580652764,0.0220462642357,0.001,-99.2081890607,4500.0,0.0,0.0,0.0
1513265474221544178,,539699,,1513265472,436751426,'',1.23918376892,1.25985214164,-0.0045538216514,0.020668372721,0.001,-93.0076772444,4500.0,0.0,0.0,0.0
1513265474231601750,,539700,,1513265472,446751426,'',1.23918376892,1.25985214164,-0.00472326527123,0.020668372721,0.001,-93.0076772444,4500.0,0.0,0.0,0.0
1513265474241844175,,539701,,1513265472,456751426,'',1.23918376892,1.26260792467,0.0491922733803,0.0234241557505,0.001,-105.408700877,4500.0,0.0,0.0,0.0
1513265474251656609,,539702,,1513265472,466751426,'',1.23918376892,1.25985214164,-0.00837296269043,0.020668372721,0.001,-93.0076772444,4500.0,0.0,0.0,0.0
1513265474261614732,,539703,,1513265472,476751426,'',1.23918376892,1.25985214164,-0.00891950202589,0.020668372721,0.001,-93.0076772444,4500.0,0.0,0.0,0.0
1513265474271545675,,539704,,1513265472,486751426,'',1.23918376892,1.25985214164,-0.0103001257141,0.020668372721,0.001,-93.0076772444,4500.0,0.0,0.0,0.0
1513265474281512094,,539705,,1513265472,496751426,'',1.23918376892,1.25985214164,-0.0098762580971,0.020668372721,0.001,-93.0076772444,4500.0,0.0,0.0,0.0
1513265474291332368,,539706,,1513265472,506751426,'',1.23918376892,1.26123003315,0.0162041318489,0.0220462642357,0.001,-99.2081890607,4500.0,0.0,0.0,0.0
1513265474301840691,,539707,,1513265472,516751426,'',1.23918376892,1.26260792467,0.0415470866485,0.0234241557505,0.001,-105.408700877,4500.0,0.0,0.0,0.0
1513265474311637722,,539708,,1513265472,526751426,'',1.23918376892,1.26123003315,0.0126520867706,0.0220462642357,0.001,-99.2081890607,4500.0,0.0,0.0,0.0
1513265474321654885,,539709,,1513265472,536751426,'',1.23918376892,1.26123003315,0.0107662123483,0.0220462642357,0.001,-99.2081890607,4500.0,0.0,0.0,0.0
1513265474331720803,,539710,,1513265472,546751426,'',1.23918376892,1.25985214164,-0.0179158300072,0.020668372721,0.001,-93.0076772444,4500.0,0.0,0.0,0.0
1513265474341708970,,539711,,1513265472,556751426,'',1.23918376892,1.26123003315,0.00807888013091,0.0220462642357,0.001,-99.2081890607,4500.0,0.0,0.0,0.0
1513265474351395397,,539712,,1513265472,566751426,'',1.23918376892,1.26123003315,0.00709382824908,0.0220462642357,0.001,-99.2081890607,4500.0,0.0,0.0,0.0
1513265474361881054,,539713,,1513265472,576751426,'',1.23918376892,1.26123003315,0.00580626130191,0.0220462642357,0.001,-99.2081890607,4500.0,0.0,0.0,0.0
1513265474371958463,,539714,,1513265472,586751426,'',1.23918376892,1.26123003315,0.00474973628511,0.0220462642357,0.001,-99.2081890607,4500.0,0.0,0.0,0.0
1513265474381964702,,539715,,1513265472,596751426,'',1.23918376892,1.26123003315,0.00390782421708,0.0220462642357,0.001,-99.2081890607,4500.0,0.0,0.0,0.0
1513265474391450302,,539716,,1513265472,606751426,'',1.23918376892,1.26123003315,0.00265434546042,0.0220462642357,0.001,-99.2081890607,4500.0,0.0,0.0,0.0
1513265474401504779,,539717,,1513265472,616751426,'',1.23918376892,1.26123003315,0.00266058852906,0.0220462642357,0.001,-99.2081890607,4500.0,0.0,0.0,0.0
1513265474411818994,,539718,,1513265472,626751426,'',1.23918376892,1.26123003315,0.00170113652458,0.0220462642357,0.001,-99.2081890607,4500.0,0.0,0.0,0.0
1513265474421737565,,539719,,1513265472,636751426,'',1.23918376892,1.26260792467,0.029153092328,0.0234241557505,0.001,-105.408700877,4500.0,0.0,0.0,0.0
1513265474431819352,,539720,,1513265472,646751426,'',1.23918376892,1.26123003315,-0.000847366613044,0.0220462642357,0.001,-99.2081890607,4500.0,0.0,0.0,0.0
1513265474441531673,,539721,,1513265472,656751426,'',1.23918376892,1.25985214164,-0.028515484787,0.020668372721,0.001,-93.0076772444,4500.0,0.0,0.0,0.0
1513265474451385488,,539722,,1513265472,666751426,'',1.23918376892,1.25985214164,-0.0283701426606,0.020668372721,0.001,-93.0076772444,4500.0,0.0,0.0,0.0
1513265474461410988,,539723,,1513265472,676751426,'',1.23918376892,1.26123003315,0.000535007054223,0.0220462642357,0.001,-99.2081890607,4500.0,0.0,0.0,0.0
1513265474471819606,,539724,,1513265472,686751426,'',1.23918376892,1.26123003315,0.00198062809474,0.0220462642357,0.001,-99.2081890607,4500.0,0.0,0.0,0.0
1513265474481550674,,539725,,1513265472,696751426,'',1.23918376892,1.26123003315,0.0021545242677,0.0220462642357,0.001,-99.2081890607,4500.0,0.0,0.0,0.0
1513265474491534167,,539726,,1513265472,706751426,'',1.23918376892,1.25985214164,-0.0274804421786,0.020668372721,0.001,-93.0076772444,4500.0,0.0,0.0,0.0
1513265474501589613,,539727,,1513265472,716751426,'',1.23918376892,1.25985214164,-0.0254867059959,0.020668372721,0.001,-93.0076772444,4500.0,0.0,0.0,0.0
1513265474511517550,,539728,,1513265472,726751426,'',1.23918376892,1.26123003315,0.0038734998799,0.0220462642357,0.001,-99.2081890607,4500.0,0.0,0.0,0.0
1513265474521512834,,539729,,1513265472,736751426,'',1.23918376892,1.25985214164,-0.0226553309441,0.020668372721,0.001,-93.0076772444,4500.0,0.0,0.0,0.0
1513265474531470840,,539730,,1513265472,746751426,'',1.23918376892,1.26123003315,0.00424259390008,0.0220462642357,0.001,-99.2081890607,4500.0,0.0,0.0,0.0
1513265474541560254,,539731,,1513265472,756751426,'',1.23918376892,1.25985214164,-0.0233429123128,0.020668372721,0.001,-93.0076772444,4500.0,0.0,0.0,0.0
1513265474551462133,,539732,,1513265472,766751426,'',1.23918376892,1.25985214164,-0.023045621827,0.020668372721,0.001,-93.0076772444,4500.0,0.0,0.0,0.0
1513265474561495912,,539733,,1513265472,776751426,'',1.23918376892,1.25985214164,-0.0228397105024,0.020668372721,0.001,-93.0076772444,4500.0,0.0,0.0,0.0
1513265474571307517,,539734,,1513265472,786751426,'',1.23918376892,1.26123003315,0.00460201912354,0.0220462642357,0.001,-99.2081890607,4500.0,0.0,0.0,0.0
1513265474581486850,,539735,,1513265472,796751426,'',1.23918376892,1.26123003315,0.0048175184991,0.0220462642357,0.001,-99.2081890607,4500.0,0.0,0.0,0.0
1513265474591583652,,539736,,1513265472,806751426,'',1.23918376892,1.26260792467,0.0322221349613,0.0234241557505,0.001,-105.408700877,4500.0,0.0,0.0,0.0
1513265474601545962,,539737,,1513265472,816751426,'',1.23918376892,1.26260792467,0.0309001638052,0.0234241557505,0.001,-105.408700877,4500.0,0.0,0.0,0.0
1513265474611495104,,539738,,1513265472,826751426,'',1.23918376892,1.25985214164,-0.0247060529853,0.020668372721,0.001,-93.0076772444,4500.0,0.0,0.0,0.0
1513265474621847435,,539739,,1513265472,836751426,'',1.23918376892,1.26123003315,0.00250853159947,0.0220462642357,0.001,-99.2081890607,4500.0,0.0,0.0,0.0
1513265474631617366,,539740,,1513265472,846751426,'',1.23918376892,1.26123003315,0.00105862693038,0.0220462642357,0.001,-99.2081890607,4500.0,0.0,0.0,0.0
1513265474641602437,,539741,,1513265472,856751426,'',1.23918376892,1.26260792467,0.0281696088063,0.0234241557505,0.001,-105.408700877,4500.0,0.0,0.0,0.0
1513265474651669560,,539742,,1513265472,866751426,'',1.23918376892,1.26123003315,0.00083215876259,0.0220462642357,0.001,-99.2081890607,4500.0,0.0,0.0,0.0
1513265474661572334,,539743,,1513265472,876751426,'',1.23918376892,1.26123003315,0.000681437566375,0.0220462642357,0.001,-99.2081890607,4500.0,0.0,0.0,0.0
1513265474671491935,,539744,,1513265472,886751426,'',1.23918376892,1.26123003315,-1.35258549088e-05,0.0220462642357,0.001,-99.2081890607,4500.0,0.0,0.0,0.0
1513265474681400618,,539745,,1513265472,896751426,'',1.23918376892,1.26123003315,-0.000515126117704,0.0220462642357,0.001,-99.2081890607,4500.0,0.0,0.0,0.0
1513265474691744445,,539746,,1513265472,906751426,'',1.23918376892,1.26123003315,-0.00192156608882,0.0220462642357,0.001,-99.2081890607,4500.0,0.0,0.0,0.0
1513265474701758125,,539747,,1513265472,916751426,'',1.23918376892,1.26123003315,-0.00359206240445,0.0220462642357,0.001,-99.2081890607,4500.0,0.0,0.0,0.0
1513265474711601401,,539748,,1513265472,926751426,'',1.23918376892,1.26260792467,0.0243131397664,0.0234241557505,0.001,-105.408700877,4500.0,0.0,0.0,0.0
1513265474721597701,,539749,,1513265472,936751426,'',1.23918376892,1.26123003315,-0.00334042385831,0.0220462642357,0.001,-99.2081890607,4500.0,0.0,0.0,0.0
1513265474731744880,,539750,,1513265472,946751426,'',1.23918376892,1.26123003315,-0.00172718244539,0.0220462642357,0.001,-99.2081890607,4500.0,0.0,0.0,0.0
1513265474741603062,,539751,,1513265472,956751426,'',1.23918376892,1.26123003315,-0.00131206178411,0.0220462642357,0.001,-99.2081890607,4500.0,0.0,0.0,0.0
1513265474751601830,,539752,,1513265472,966751426,'',1.23918376892,1.26123003315,-0.00052779914265,0.0220462642357,0.001,-99.2081890607,4500.0,0.0,0.0,0.0
1513265474761445756,,539753,,1513265472,976751426,'',1.23918376892,1.26123003315,7.26210506168e-05,0.0220462642357,0.001,-99.2081890607,4500.0,0.0,0.0,0.0
1513265474771431721,,539754,,1513265472,986751426,'',1.23918376892,1.26123003315,-0.000913437187829,0.0220462642357,0.001,-99.2081890607,4500.0,0.0,0.0,0.0
1513265474781370439,,539755,,1513265472,996751426,'',1.23918376892,1.26123003315,-0.00121347590921,0.0220462642357,0.001,-99.2081890607,4500.0,0.0,0.0,0.0
1513265474791472937,,539756,,1513265473,6751426,'',1.23918376892,1.26123003315,-0.00201473892731,0.0220462642357,0.001,-99.2081890607,4500.0,0.0,0.0,0.0
1513265474801299108,,539757,,1513265473,16751426,'',1.23918376892,1.26123003315,-0.0011788657579,0.0220462642357,0.001,-99.2081890607,4500.0,0.0,0.0,0.0
1513265474811769941,,539758,,1513265473,26751426,'',1.23918376892,1.26260792467,0.0247913874657,0.0234241557505,0.001,-105.408700877,4500.0,0.0,0.0,0.0
1513265474821741912,,539759,,1513265473,36751426,'',1.23918376892,1.26123003315,-0.00248755407124,0.0220462642357,0.001,-99.2081890607,4500.0,0.0,0.0,0.0
1513265474831708795,,539760,,1513265473,46751426,'',1.23918376892,1.26123003315,-0.00256727568354,0.0220462642357,0.001,-99.2081890607,4500.0,0.0,0.0,0.0
1513265474841764418,,539761,,1513265473,56751426,'',1.23918376892,1.25985214164,-0.0298905611386,0.020668372721,0.001,-93.0076772444,4500.0,0.0,0.0,0.0
1513265474851645061,,539762,,1513265473,66751426,'',1.23918376892,1.26260792467,0.0230658789089,0.0234241557505,0.001,-105.408700877,4500.0,0.0,0.0,0.0
1513265474861628489,,539763,,1513265473,76751426,'',1.23918376892,1.25985214164,-0.0316513349132,0.020668372721,0.001,-93.0076772444,4500.0,0.0,0.0,0.0
1513265474871636519,,539764,,1513265473,86751426,'',1.23918376892,1.26123003315,-0.00417960991578,0.0220462642357,0.001,-99.2081890607,4500.0,0.0,0.0,0.0
1513265474881543108,,539765,,1513265473,96751426,'',1.23918376892,1.26123003315,-0.00239345232315,0.0220462642357,0.001,-99.2081890607,4500.0,0.0,0.0,0.0
1513265474891469954,,539766,,1513265473,106751426,'',1.23918376892,1.26123003315,-0.00241786079799,0.0220462642357,0.001,-99.2081890607,4500.0,0.0,0.0,0.0
1513265474901450601,,539767,,1513265473,116751426,'',1.23918376892,1.26123003315,-0.00197950186201,0.0220462642357,0.001,-99.2081890607,4500.0,0.0,0.0,0.0
1513265474911315764,,539768,,1513265473,126751426,'',1.23918376892,1.26260792467,0.026204917247,0.0234241557505,0.001,-105.408700877,4500.0,0.0,0.0,0.0
1513265474921752808,,539769,,1513265473,136751426,'',1.23918376892,1.25985214164,-0.0296372885826,0.020668372721,0.001,-93.0076772444,4500.0,0.0,0.0,0.0
1513265474931678618,,539770,,1513265473,146751426,'',1.23918376892,1.26123003315,-0.00252547689804,0.0220462642357,0.001,-99.2081890607,4500.0,0.0,0.0,0.0
1513265474941692620,,539771,,1513265473,156751426,'',1.23918376892,1.26123003315,-0.00256511248063,0.0220462642357,0.001,-99.2081890607,4500.0,0.0,0.0,0.0
1513265474951785722,,539772,,1513265473,166751426,'',1.23918376892,1.25985214164,-0.0303510988213,0.020668372721,0.001,-93.0076772444,4500.0,0.0,0.0,0.0
1513265474961646632,,539773,,1513265473,176751426,'',1.23918376892,1.26123003315,-0.00307578631821,0.0220462642357,0.001,-99.2081890607,4500.0,0.0,0.0,0.0
1513265474971565690,,539774,,1513265473,186751426,'',1.23918376892,1.26123003315,-0.00195150493197,0.0220462642357,0.001,-99.2081890607,4500.0,0.0,0.0,0.0
1513265474981567660,,539775,,1513265473,196751426,'',1.23918376892,1.26123003315,-0.00158986697319,0.0220462642357,0.001,-99.2081890607,4500.0,0.0,0.0,0.0
1513265474991608787,,539776,,1513265473,206751426,'',1.23918376892,1.26260792467,0.0249034877512,0.0234241557505,0.001,-105.408700877,4500.0,0.0,0.0,0.0
1513265475001731977,,539777,,1513265473,216751426,'',1.23918376892,1.26260792467,0.0244051900498,0.0234241557505,0.001,-105.408700877,4500.0,0.0,0.0,0.0
1513265475011565327,,539778,,1513265473,226751426,'',1.23918376892,1.26123003315,-0.00233810443543,0.0220462642357,0.001,-99.2081890607,4500.0,0.0,0.0,0.0
1513265475021693969,,539779,,1513265473,236751426,'',1.23918376892,1.26123003315,-0.00340252425888,0.0220462642357,0.001,-99.2081890607,4500.0,0.0,0.0,0.0
1513265475031436731,,539780,,1513265473,246751426,'',1.23918376892,1.26123003315,-0.00329651324957,0.0220462642357,0.001,-99.2081890607,4500.0,0.0,0.0,0.0
1513265475041442035,,539781,,1513265473,256751426,'',1.23918376892,1.26260792467,0.0236502227575,0.0234241557505,0.001,-105.408700877,4500.0,0.0,0.0,0.0
1513265475051306160,,539782,,1513265473,266751426,'',1.23918376892,1.26123003315,-0.00543165352182,0.0220462642357,0.001,-99.2081890607,4500.0,0.0,0.0,0.0
1513265475061827584,,539783,,1513265473,276751426,'',1.23918376892,1.26123003315,-0.00646810785962,0.0220462642357,0.001,-99.2081890607,4500.0,0.0,0.0,0.0
1513265475071794002,,539784,,1513265473,286751426,'',1.23918376892,1.26123003315,-0.00673582732915,0.0220462642357,0.001,-99.2081890607,4500.0,0.0,0.0,0.0
1513265475081610943,,539785,,1513265473,296751426,'',1.23918376892,1.26123003315,-0.00702964295893,0.0220462642357,0.001,-99.2081890607,4500.0,0.0,0.0,0.0
1513265475091517016,,539786,,1513265473,306751426,'',1.23918376892,1.25985214164,-0.0345023032577,0.020668372721,0.001,-93.0076772444,4500.0,0.0,0.0,0.0
1513265475101578534,,539787,,1513265473,316751426,'',1.23918376892,1.26260792467,0.020279708833,0.0234241557505,0.001,-105.408700877,4500.0,0.0,0.0,0.0
1513265475111402147,,539788,,1513265473,326751426,'',1.23918376892,1.26260792467,0.0191697681598,0.0234241557505,0.001,-105.408700877,4500.0,0.0,0.0,0.0
1513265475121751263,,539789,,1513265473,336751426,'',1.23918376892,1.26260792467,0.0191184519137,0.0234241557505,0.001,-105.408700877,4500.0,0.0,0.0,0.0
1513265475131886089,,539790,,1513265473,346751426,'',1.23918376892,1.26123003315,-0.00912304539988,0.0220462642357,0.001,-99.2081890607,4500.0,0.0,0.0,0.0
1513265475141688962,,539791,,1513265473,356751426,'',1.23918376892,1.26123003315,-0.00802480607217,0.0220462642357,0.001,-99.2081890607,4500.0,0.0,0.0,0.0
1513265475151664967,,539792,,1513265473,366751426,'',1.23918376892,1.26123003315,-0.00854186263566,0.0220462642357,0.001,-99.2081890607,4500.0,0.0,0.0,0.0
1513265475161579449,,539793,,1513265473,376751426,'',1.23918376892,1.26123003315,-0.00895919272249,0.0220462642357,0.001,-99.2081890607,4500.0,0.0,0.0,0.0
1513265475171470838,,539794,,1513265473,386751426,'',1.23918376892,1.26123003315,-0.00831001994704,0.0220462642357,0.001,-99.2081890607,4500.0,0.0,0.0,0.0
1513265475181424993,,539795,,1513265473,396751426,'',1.23918376892,1.26398581618,0.045830749756,0.0248020472652,0.001,-111.609212693,4500.0,0.0,0.0,0.0
1513265475191608419,,539796,,1513265473,406751426,'',1.23918376892,1.26123003315,-0.0089885936068,0.0220462642357,0.001,-99.2081890607,4500.0,0.0,0.0,0.0
1513265475201667420,,539797,,1513265473,416751426,'',1.23918376892,1.26123003315,-0.00882317170083,0.0220462642357,0.001,-99.2081890607,4500.0,0.0,0.0,0.0
1513265475211750175,,539798,,1513265473,426751426,'',1.23918376892,1.26123003315,-0.00769822520713,0.0220462642357,0.001,-99.2081890607,4500.0,0.0,0.0,0.0
1513265475221665770,,539799,,1513265473,436751426,'',1.23918376892,1.26123003315,-0.00831437344329,0.0220462642357,0.001,-99.2081890607,4500.0,0.0,0.0,0.0
1513265475231545871,,539800,,1513265473,446751426,'',1.23918376892,1.26260792467,0.0189391898843,0.0234241557505,0.001,-105.408700877,4500.0,0.0,0.0,0.0
1513265475241489158,,539801,,1513265473,456751426,'',1.23918376892,1.26260792467,0.0195034689667,0.0234241557505,0.001,-105.408700877,4500.0,0.0,0.0,0.0
1513265475251389901,,539802,,1513265473,466751426,'',1.23918376892,1.26398581618,0.0466344687005,0.0248020472652,0.001,-111.609212693,4500.0,0.0,0.0,0.0
1513265475261937335,,539803,,1513265473,476751426,'',1.23918376892,1.26123003315,-0.0103695129713,0.0220462642357,0.001,-99.2081890607,4500.0,0.0,0.0,0.0
1513265475271745247,,539804,,1513265473,486751426,'',1.23918376892,1.26123003315,-0.00899141053749,0.0220462642357,0.001,-99.2081890607,4500.0,0.0,0.0,0.0
1513265475281777752,,539805,,1513265473,496751426,'',1.23918376892,1.25985214164,-0.0365771678394,0.020668372721,0.001,-93.0076772444,4500.0,0.0,0.0,0.0
1513265475291512814,,539806,,1513265473,506751426,'',1.23918376892,1.26123003315,-0.00918461837826,0.0220462642357,0.001,-99.2081890607,4500.0,0.0,0.0,0.0
1513265475301658095,,539807,,1513265473,516751426,'',1.23918376892,1.26123003315,-0.00853787754451,0.0220462642357,0.001,-99.2081890607,4500.0,0.0,0.0,0.0
1513265475311664506,,539808,,1513265473,526751426,'',1.23918376892,1.26123003315,-0.00852706934394,0.0220462642357,0.001,-99.2081890607,4500.0,0.0,0.0,0.0
1513265475321594749,,539809,,1513265473,536751426,'',1.23918376892,1.26123003315,-0.00853215780443,0.0220462642357,0.001,-99.2081890607,4500.0,0.0,0.0,0.0
1513265475331617068,,539810,,1513265473,546751426,'',1.23918376892,1.26123003315,-0.00855561059569,0.0220462642357,0.001,-99.2081890607,4500.0,0.0,0.0,0.0
1513265475341886603,,539811,,1513265473,556751426,'',1.23918376892,1.26260792467,0.0182474398034,0.0234241557505,0.001,-105.408700877,4500.0,0.0,0.0,0.0
1513265475351693653,,539812,,1513265473,566751426,'',1.23918376892,1.26123003315,-0.0108100250954,0.0220462642357,0.001,-99.2081890607,4500.0,0.0,0.0,0.0
1513265475361762354,,539813,,1513265473,576751426,'',1.23918376892,1.26123003315,-0.0108089858031,0.0220462642357,0.001,-99.2081890607,4500.0,0.0,0.0,0.0
1513265475371630773,,539814,,1513265473,586751426,'',1.23918376892,1.26260792467,0.0169727737313,0.0234241557505,0.001,-105.408700877,4500.0,0.0,0.0,0.0
1513265475381644274,,539815,,1513265473,596751426,'',1.23918376892,1.26260792467,0.0169159447649,0.0234241557505,0.001,-105.408700877,4500.0,0.0,0.0,0.0
1513265475391604573,,539816,,1513265473,606751426,'',1.23918376892,1.26260792467,0.0183894416051,0.0234241557505,0.001,-105.408700877,4500.0,0.0,0.0,0.0
1513265475401383813,,539817,,1513265473,616751426,'',1.23918376892,1.26123003315,-0.00827178059016,0.0220462642357,0.001,-99.2081890607,4500.0,0.0,0.0,0.0
1513265475411342549,,539818,,1513265473,626751426,'',1.23918376892,1.26123003315,-0.00834627119435,0.0220462642357,0.001,-99.2081890607,4500.0,0.0,0.0,0.0
1513265475421821230,,539819,,1513265473,636751426,'',1.23918376892,1.26123003315,-0.00683416487143,0.0220462642357,0.001,-99.2081890607,4500.0,0.0,0.0,0.0
1513265475431621665,,539820,,1513265473,646751426,'',1.23918376892,1.26123003315,-0.00607316523717,0.0220462642357,0.001,-99.2081890607,4500.0,0.0,0.0,0.0
1513265475441614187,,539821,,1513265473,656751426,'',1.23918376892,1.26123003315,-0.00549271139846,0.0220462642357,0.001,-99.2081890607,4500.0,0.0,0.0,0.0
1513265475451581849,,539822,,1513265473,666751426,'',1.23918376892,1.25985214164,-0.0322388914796,0.020668372721,0.001,-93.0076772444,4500.0,0.0,0.0,0.0
1513265475461555781,,539823,,1513265473,676751426,'',1.23918376892,1.26123003315,-0.00562443787663,0.0220462642357,0.001,-99.2081890607,4500.0,0.0,0.0,0.0
1513265475471481281,,539824,,1513265473,686751426,'',1.23918376892,1.26260792467,0.0227141313832,0.0234241557505,0.001,-105.408700877,4500.0,0.0,0.0,0.0
1513265475481626775,,539825,,1513265473,696751426,'',1.23918376892,1.26260792467,0.0211870869289,0.0234241557505,0.001,-105.408700877,4500.0,0.0,0.0,0.0
1513265475491497747,,539826,,1513265473,706751426,'',1.23918376892,1.26260792467,0.0208668074033,0.0234241557505,0.001,-105.408700877,4500.0,0.0,0.0,0.0
1513265475501534761,,539827,,1513265473,716751426,'',1.23918376892,1.26123003315,-0.00817117167471,0.0220462642357,0.001,-99.2081890607,4500.0,0.0,0.0,0.0
1513265475511326114,,539828,,1513265473,726751426,'',1.23918376892,1.26123003315,-0.00716057363425,0.0220462642357,0.001,-99.2081890607,4500.0,0.0,0.0,0.0
1513265475521991455,,539829,,1513265473,736751426,'',1.23918376892,1.26123003315,-0.00685975975697,0.0220462642357,0.001,-99.2081890607,4500.0,0.0,0.0,0.0
1513265475531848624,,539830,,1513265473,746751426,'',1.23918376892,1.26260792467,0.0211675076532,0.0234241557505,0.001,-105.408700877,4500.0,0.0,0.0,0.0
1513265475541699001,,539831,,1513265473,756751426,'',1.23918376892,1.26123003315,-0.00649322960243,0.0220462642357,0.001,-99.2081890607,4500.0,0.0,0.0,0.0
1513265475551592880,,539832,,1513265473,766751426,'',1.23918376892,1.26123003315,-0.00677264271775,0.0220462642357,0.001,-99.2081890607,4500.0,0.0,0.0,0.0
1513265475561572008,,539833,,1513265473,776751426,'',1.23918376892,1.26123003315,-0.00600594906918,0.0220462642357,0.001,-99.2081890607,4500.0,0.0,0.0,0.0
1513265475571715361,,539834,,1513265473,786751426,'',1.23918376892,1.26123003315,-0.00586116724602,0.0220462642357,0.001,-99.2081890607,4500.0,0.0,0.0,0.0
1513265475581734290,,539835,,1513265473,796751426,'',1.23918376892,1.26123003315,-0.00576528990603,0.0220462642357,0.001,-99.2081890607,4500.0,0.0,0.0,0.0
1513265475591609673,,539836,,1513265473,806751426,'',1.23918376892,1.26260792467,0.0220424971567,0.0234241557505,0.001,-105.408700877,4500.0,0.0,0.0,0.0
1513265475601637605,,539837,,1513265473,816751426,'',1.23918376892,1.26123003315,-0.00474380769126,0.0220462642357,0.001,-99.2081890607,4500.0,0.0,0.0,0.0
1513265475611517491,,539838,,1513265473,826751426,'',1.23918376892,1.25985214164,-0.0308236251812,0.020668372721,0.001,-93.0076772444,4500.0,0.0,0.0,0.0
1513265475621514411,,539839,,1513265473,836751426,'',1.23918376892,1.26123003315,-0.0019392710459,0.0220462642357,0.001,-99.2081890607,4500.0,0.0,0.0,0.0
1513265475631549386,,539840,,1513265473,846751426,'',1.23918376892,1.26123003315,-0.0025937826013,0.0220462642357,0.001,-99.2081890607,4500.0,0.0,0.0,0.0
1513265475641565197,,539841,,1513265473,856751426,'',1.23918376892,1.26123003315,-0.00507836331495,0.0220462642357,0.001,-99.2081890607,4500.0,0.0,0.0,0.0
1513265475651402838,,539842,,1513265473,866751426,'',1.23918376892,1.26123003315,-0.0037330172055,0.0220462642357,0.001,-99.2081890607,4500.0,0.0,0.0,0.0
1513265475661406536,,539843,,1513265473,876751426,'',1.23918376892,1.25985214164,-0.0288960039126,0.020668372721,0.001,-93.0076772444,4500.0,0.0,0.0,0.0
1513265475671344189,,539844,,1513265473,886751426,'',1.23918376892,1.26123003315,-0.000304744884413,0.0220462642357,0.001,-99.2081890607,4500.0,0.0,0.0,0.0
1513265475681754175,,539845,,1513265473,896751426,'',1.23918376892,1.26123003315,-0.00118522202452,0.0220462642357,0.001,-99.2081890607,4500.0,0.0,0.0,0.0
1513265475691667442,,539846,,1513265473,906751426,'',1.23918376892,1.26260792467,0.025835475784,0.0234241557505,0.001,-105.408700877,4500.0,0.0,0.0,0.0
1513265475701672069,,539847,,1513265473,916751426,'',1.23918376892,1.26260792467,0.0246886806476,0.0234241557505,0.001,-105.408700877,4500.0,0.0,0.0,0.0
1513265475711647986,,539848,,1513265473,926751426,'',1.23918376892,1.25985214164,-0.0308500124386,0.020668372721,0.001,-93.0076772444,4500.0,0.0,0.0,0.0
1513265475721498249,,539849,,1513265473,936751426,'',1.23918376892,1.26123003315,-0.00249500877849,0.0220462642357,0.001,-99.2081890607,4500.0,0.0,0.0,0.0
1513265475731620674,,539850,,1513265473,946751426,'',1.23918376892,1.26123003315,-0.00211024384945,0.0220462642357,0.001,-99.2081890607,4500.0,0.0,0.0,0.0
1513265475741393888,,539851,,1513265473,956751426,'',1.23918376892,1.26260792467,0.0239706147916,0.0234241557505,0.001,-105.408700877,4500.0,0.0,0.0,0.0
1513265475751486697,,539852,,1513265473,966751426,'',1.23918376892,1.26123003315,-0.0036796466125,0.0220462642357,0.001,-99.2081890607,4500.0,0.0,0.0,0.0
1513265475761308058,,539853,,1513265473,976751426,'',1.23918376892,1.26123003315,-0.00346811734377,0.0220462642357,0.001,-99.2081890607,4500.0,0.0,0.0,0.0
1513265475771833989,,539854,,1513265473,986751426,'',1.23918376892,1.26123003315,-0.00332947779856,0.0220462642357,0.001,-99.2081890607,4500.0,0.0,0.0,0.0
1513265475781718034,,539855,,1513265473,996751426,'',1.23918376892,1.26260792467,0.0230616865202,0.0234241557505,0.001,-105.408700877,4500.0,0.0,0.0,0.0
1513265475791771885,,539856,,1513265474,6751426,'',1.23918376892,1.26123003315,-0.00540762602939,0.0220462642357,0.001,-99.2081890607,4500.0,0.0,0.0,0.0
1513265475801515762,,539857,,1513265474,16751426,'',1.23918376892,1.26260792467,0.0222898751171,0.0234241557505,0.001,-105.408700877,4500.0,0.0,0.0,0.0
1513265475811450661,,539858,,1513265474,26751426,'',1.23918376892,1.26260792467,0.0206554502277,0.0234241557505,0.001,-105.408700877,4500.0,0.0,0.0,0.0
1513265475821526578,,539859,,1513265474,36751426,'',1.23918376892,1.26123003315,-0.00737200220101,0.0220462642357,0.001,-99.2081890607,4500.0,0.0,0.0,0.0
1513265475831594396,,539860,,1513265474,46751426,'',1.23918376892,1.26123003315,-0.00656710384486,0.0220462642357,0.001,-99.2081890607,4500.0,0.0,0.0,0.0
1513265475841465612,,539861,,1513265474,56751426,'',1.23918376892,1.26123003315,-0.00735465426295,0.0220462642357,0.001,-99.2081890607,4500.0,0.0,0.0,0.0
1513265475851345649,,539862,,1513265474,66751426,'',1.23918376892,1.26123003315,-0.00849838183338,0.0220462642357,0.001,-99.2081890607,4500.0,0.0,0.0,0.0
1513265475861482922,,539863,,1513265474,76751426,'',1.23918376892,1.26123003315,-0.0069196010114,0.0220462642357,0.001,-99.2081890607,4500.0,0.0,0.0,0.0
1513265475871832005,,539864,,1513265474,86751426,'',1.23918376892,1.26260792467,0.0201781373846,0.0234241557505,0.001,-105.408700877,4500.0,0.0,0.0,0.0
1513265475881776647,,539865,,1513265474,96751426,'',1.23918376892,1.26123003315,-0.00777735194585,0.0220462642357,0.001,-99.2081890607,4500.0,0.0,0.0,0.0
1513265475891799249,,539866,,1513265474,106751426,'',1.23918376892,1.26260792467,0.019909809277,0.0234241557505,0.001,-105.408700877,4500.0,0.0,0.0,0.0
1513265475901809664,,539867,,1513265474,116751426,'',1.23918376892,1.26123003315,-0.00953494879646,0.0220462642357,0.001,-99.2081890607,4500.0,0.0,0.0,0.0
1513265475911701341,,539868,,1513265474,126751426,'',1.23918376892,1.26123003315,-0.00884156344077,0.0220462642357,0.001,-99.2081890607,4500.0,0.0,0.0,0.0
1513265475921620985,,539869,,1513265474,136751426,'',1.23918376892,1.26123003315,-0.00723858516115,0.0220462642357,0.001,-99.2081890607,4500.0,0.0,0.0,0.0
1513265475931601506,,539870,,1513265474,146751426,'',1.23918376892,1.26260792467,0.020892270947,0.0234241557505,0.001,-105.408700877,4500.0,0.0,0.0,0.0
1513265475941658448,,539871,,1513265474,156751426,'',1.23918376892,1.26260792467,0.0205921291961,0.0234241557505,0.001,-105.408700877,4500.0,0.0,0.0,0.0
1513265475951669866,,539872,,1513265474,166751426,'',1.23918376892,1.26123003315,-0.00637495141565,0.0220462642357,0.001,-99.2081890607,4500.0,0.0,0.0,0.0
1513265475961605682,,539873,,1513265474,176751426,'',1.23918376892,1.26123003315,-0.00626442352028,0.0220462642357,0.001,-99.2081890607,4500.0,0.0,0.0,0.0
1513265475971364684,,539874,,1513265474,186751426,'',1.23918376892,1.26260792467,0.0216364529064,0.0234241557505,0.001,-105.408700877,4500.0,0.0,0.0,0.0
1513265475981831888,,539875,,1513265474,196751426,'',1.23918376892,1.26123003315,-0.00466725627706,0.0220462642357,0.001,-99.2081890607,4500.0,0.0,0.0,0.0
1513265475991770680,,539876,,1513265474,206751426,'',1.23918376892,1.26123003315,-0.00335837850169,0.0220462642357,0.001,-99.2081890607,4500.0,0.0,0.0,0.0
1513265476001744086,,539877,,1513265474,216751426,'',1.23918376892,1.26123003315,-0.00381638113126,0.0220462642357,0.001,-99.2081890607,4500.0,0.0,0.0,0.0
1513265476011530747,,539878,,1513265474,226751426,'',1.23918376892,1.26123003315,-0.0031238443316,0.0220462642357,0.001,-99.2081890607,4500.0,0.0,0.0,0.0
1513265476021869248,,539879,,1513265474,236751426,'',1.23918376892,1.26123003315,-0.00306820559254,0.0220462642357,0.001,-99.2081890607,4500.0,0.0,0.0,0.0
1513265476031357991,,539880,,1513265474,246751426,'',1.23918376892,1.26123003315,-0.00199581696359,0.0220462642357,0.001,-99.2081890607,4500.0,0.0,0.0,0.0
1513265476041785799,,539881,,1513265474,256751426,'',1.23918376892,1.26123003315,0.000361949166297,0.0220462642357,0.001,-99.2081890607,4500.0,0.0,0.0,0.0
1513265476051711333,,539882,,1513265474,266751426,'',1.23918376892,1.26123003315,0.00034551951601,0.0220462642357,0.001,-99.2081890607,4500.0,0.0,0.0,0.0
1513265476061723730,,539883,,1513265474,276751426,'',1.23918376892,1.26123003315,0.000245904894953,0.0220462642357,0.001,-99.2081890607,4500.0,0.0,0.0,0.0
1513265476071759284,,539884,,1513265474,286751426,'',1.23918376892,1.26260792467,0.0269487953097,0.0234241557505,0.001,-105.408700877,4500.0,0.0,0.0,0.0
1513265476081714945,,539885,,1513265474,296751426,'',1.23918376892,1.26260792467,0.0265568314858,0.0234241557505,0.001,-105.408700877,4500.0,0.0,0.0,0.0
1513265476091614593,,539886,,1513265474,306751426,'',1.23918376892,1.25985214164,-0.0278399087533,0.020668372721,0.001,-93.0076772444,4500.0,0.0,0.0,0.0
1513265476101697920,,539887,,1513265474,316751426,'',1.23918376892,1.26123003315,0.000450339906994,0.0220462642357,0.001,-99.2081890607,4500.0,0.0,0.0,0.0
1513265476111666586,,539888,,1513265474,326751426,'',1.23918376892,1.26123003315,0.000377745474214,0.0220462642357,0.001,-99.2081890607,4500.0,0.0,0.0,0.0
1513265476121532191,,539889,,1513265474,336751426,'',1.23918376892,1.25985214164,-0.0260641848381,0.020668372721,0.001,-93.0076772444,4500.0,0.0,0.0,0.0
1513265476131521282,,539890,,1513265474,346751426,'',1.23918376892,1.26123003315,0.00238076703183,0.0220462642357,0.001,-99.2081890607,4500.0,0.0,0.0,0.0
1513265476141512274,,539891,,1513265474,356751426,'',1.23918376892,1.26123003315,0.00147864186718,0.0220462642357,0.001,-99.2081890607,4500.0,0.0,0.0,0.0
1513265476151822979,,539892,,1513265474,366751426,'',1.23918376892,1.26123003315,0.000746099416137,0.0220462642357,0.001,-99.2081890607,4500.0,0.0,0.0,0.0
1513265476161675442,,539893,,1513265474,376751426,'',1.23918376892,1.26123003315,0.00162842692057,0.0220462642357,0.001,-99.2081890607,4500.0,0.0,0.0,0.0
1513265476171689995,,539894,,1513265474,386751426,'',1.23918376892,1.26123003315,0.00282493255231,0.0220462642357,0.001,-99.2081890607,4500.0,0.0,0.0,0.0
1513265476181674072,,539895,,1513265474,396751426,'',1.23918376892,1.25985214164,-0.0230315786727,0.020668372721,0.001,-93.0076772444,4500.0,0.0,0.0,0.0
1513265476191533357,,539896,,1513265474,406751426,'',1.23918376892,1.25985214164,-0.0183799409982,0.020668372721,0.001,-93.0076772444,4500.0,0.0,0.0,0.0
1513265476201532213,,539897,,1513265474,416751426,'',1.23918376892,1.25985214164,-0.0170336349932,0.020668372721,0.001,-93.0076772444,4500.0,0.0,0.0,0.0
1513265476211397391,,539898,,1513265474,426751426,'',1.23918376892,1.26123003315,0.0123446011121,0.0220462642357,0.001,-99.2081890607,4500.0,0.0,0.0,0.0
1513265476221427506,,539899,,1513265474,436751426,'',1.23918376892,1.25985214164,-0.0151984232889,0.020668372721,0.001,-93.0076772444,4500.0,0.0,0.0,0.0
1513265476231573904,,539900,,1513265474,446751426,'',1.23918376892,1.25985214164,-0.0134056574166,0.020668372721,0.001,-93.0076772444,4500.0,0.0,0.0,0.0
1513265476241485810,,539901,,1513265474,456751426,'',1.23918376892,1.25985214164,-0.0109313392198,0.020668372721,0.001,-93.0076772444,4500.0,0.0,0.0,0.0
1513265476251334407,,539902,,1513265474,466751426,'',1.23918376892,1.26123003315,0.0203484181893,0.0220462642357,0.001,-99.2081890607,4500.0,0.0,0.0,0.0
1513265476261323731,,539903,,1513265474,476751426,'',1.23918376892,1.25985214164,-0.00559189364944,0.020668372721,0.001,-93.0076772444,4500.0,0.0,0.0,0.0
1513265476271319694,,539904,,1513265474,486751426,'',1.23918376892,1.25985214164,-0.00312692776067,0.020668372721,0.001,-93.0076772444,4500.0,0.0,0.0,0.0
1513265476281760138,,539905,,1513265474,496751426,'',1.23918376892,1.25985214164,-0.0010933454116,0.020668372721,0.001,-93.0076772444,4500.0,0.0,0.0,0.0
1513265476291794564,,539906,,1513265474,506751426,'',1.23918376892,1.25985214164,0.00101636987926,0.020668372721,0.001,-93.0076772444,4500.0,0.0,0.0,0.0
1513265476301792592,,539907,,1513265474,516751426,'',1.23918376892,1.25847425012,-0.022470514818,0.0192904812063,0.001,-86.8071654281,4500.0,0.0,0.0,0.0
1513265476311597980,,539908,,1513265474,526751426,'',1.23918376892,1.25985214164,0.00781979327747,0.020668372721,0.001,-93.0076772444,4500.0,0.0,0.0,0.0
1513265476321667216,,539909,,1513265474,536751426,'',1.23918376892,1.25847425012,-0.0168480851609,0.0192904812063,0.001,-86.8071654281,4500.0,0.0,0.0,0.0
1513265476331671733,,539910,,1513265474,546751426,'',1.23918376892,1.25709635861,-0.0415747241007,0.0179125896915,0.001,-80.6066536118,4500.0,0.0,0.0,0.0
1513265476341409873,,539911,,1513265474,556751426,'',1.23918376892,1.25847425012,-0.0102305063201,0.0192904812063,0.001,-86.8071654281,4500.0,0.0,0.0,0.0
1513265476351421990,,539912,,1513265474,566751426,'',1.23918376892,1.25847425012,-0.00627992182718,0.0192904812063,0.001,-86.8071654281,4500.0,0.0,0.0,0.0
1513265476361838917,,539913,,1513265474,576751426,'',1.23918376892,1.25985214164,0.0241422119998,0.020668372721,0.001,-93.0076772444,4500.0,0.0,0.0,0.0
1513265476371748481,,539914,,1513265474,586751426,'',1.23918376892,1.25709635861,-0.0287609779137,0.0179125896915,0.001,-80.6066536118,4500.0,0.0,0.0,0.0
1513265476381692905,,539915,,1513265474,596751426,'',1.23918376892,1.25571846709,-0.0513957487192,0.0165346981768,0.001,-74.4061417955,4500.0,0.0,0.0,0.0
1513265476391722414,,539916,,1513265474,606751426,'',1.23918376892,1.25709635861,-0.0217474025446,0.0179125896915,0.001,-80.6066536118,4500.0,0.0,0.0,0.0
1513265476401651783,,539917,,1513265474,616751426,'',1.23918376892,1.25709635861,-0.0193860852552,0.0179125896915,0.001,-80.6066536118,4500.0,0.0,0.0,0.0
1513265476411613326,,539918,,1513265474,626751426,'',1.23918376892,1.25847425012,0.00842287208302,0.0192904812063,0.001,-86.8071654281,4500.0,0.0,0.0,0.0
1513265476421680724,,539919,,1513265474,636751426,'',1.23918376892,1.25709635861,-0.0169486951058,0.0179125896915,0.001,-80.6066536118,4500.0,0.0,0.0,0.0
1513265476431497520,,539920,,1513265474,646751426,'',1.23918376892,1.25847425012,0.0124045192316,0.0192904812063,0.001,-86.8071654281,4500.0,0.0,0.0,0.0
1513265476441565273,,539921,,1513265474,656751426,'',1.23918376892,1.25709635861,-0.0126349148447,0.0179125896915,0.001,-80.6066536118,4500.0,0.0,0.0,0.0
1513265476451664328,,539922,,1513265474,666751426,'',1.23918376892,1.25709635861,-0.0117884650294,0.0179125896915,0.001,-80.6066536118,4500.0,0.0,0.0,0.0
1513265476461617481,,539923,,1513265474,676751426,'',1.23918376892,1.25709635861,-0.0101862873995,0.0179125896915,0.001,-80.6066536118,4500.0,0.0,0.0,0.0
1513265476471588460,,539924,,1513265474,686751426,'',1.23918376892,1.25709635861,-0.00833899329562,0.0179125896915,0.001,-80.6066536118,4500.0,0.0,0.0,0.0
1513265476481432193,,539925,,1513265474,696751426,'',1.23918376892,1.25709635861,-0.00584340373177,0.0179125896915,0.001,-80.6066536118,4500.0,0.0,0.0,0.0
1513265476491431597,,539926,,1513265474,706751426,'',1.23918376892,1.25571846709,-0.032581945808,0.0165346981768,0.001,-74.4061417955,4500.0,0.0,0.0,0.0
1513265476501345982,,539927,,1513265474,716751426,'',1.23918376892,1.25709635861,-0.00494573589061,0.0179125896915,0.001,-80.6066536118,4500.0,0.0,0.0,0.0
1513265476511759135,,539928,,1513265474,726751426,'',1.23918376892,1.25709635861,-0.00198988147603,0.0179125896915,0.001,-80.6066536118,4500.0,0.0,0.0,0.0
1513265476521787920,,539929,,1513265474,736751426,'',1.23918376892,1.25709635861,-0.00111483938836,0.0179125896915,0.001,-80.6066536118,4500.0,0.0,0.0,0.0
1513265476531786966,,539930,,1513265474,746751426,'',1.23918376892,1.25709635861,-0.00083817920102,0.0179125896915,0.001,-80.6066536118,4500.0,0.0,0.0,0.0
1513265476541550637,,539931,,1513265474,756751426,'',1.23918376892,1.25709635861,0.00087007718557,0.0179125896915,0.001,-80.6066536118,4500.0,0.0,0.0,0.0
1513265476551514205,,539932,,1513265474,766751426,'',1.23918376892,1.25709635861,0.00121718128539,0.0179125896915,0.001,-80.6066536118,4500.0,0.0,0.0,0.0
1513265476561409014,,539933,,1513265474,776751426,'',1.23918376892,1.25709635861,-2.59804068674e-05,0.0179125896915,0.001,-80.6066536118,4500.0,0.0,0.0,0.0
1513265476571506894,,539934,,1513265474,786751426,'',1.23918376892,1.25709635861,0.000499884964356,0.0179125896915,0.001,-80.6066536118,4500.0,0.0,0.0,0.0
1513265476581832044,,539935,,1513265474,796751426,'',1.23918376892,1.25709635861,0.000475123521867,0.0179125896915,0.001,-80.6066536118,4500.0,0.0,0.0,0.0
1513265476591713456,,539936,,1513265474,806751426,'',1.23918376892,1.25709635861,-8.34006844144e-05,0.0179125896915,0.001,-80.6066536118,4500.0,0.0,0.0,0.0
1513265476601837161,,539937,,1513265474,816751426,'',1.23918376892,1.25571846709,-0.0273510192949,0.0165346981768,0.001,-74.4061417955,4500.0,0.0,0.0,0.0
1513265476611759746,,539938,,1513265474,826751426,'',1.23918376892,1.25571846709,-0.0259003942475,0.0165346981768,0.001,-74.4061417955,4500.0,0.0,0.0,0.0
1513265476621758985,,539939,,1513265474,836751426,'',1.23918376892,1.25709635861,0.00160422113333,0.0179125896915,0.001,-80.6066536118,4500.0,0.0,0.0,0.0
1513265476631689605,,539940,,1513265474,846751426,'',1.23918376892,1.25709635861,0.00231759013439,0.0179125896915,0.001,-80.6066536118,4500.0,0.0,0.0,0.0
1513265476641794199,,539941,,1513265474,856751426,'',1.23918376892,1.25847425012,0.0292185948648,0.0192904812063,0.001,-86.8071654281,4500.0,0.0,0.0,0.0
1513265476651748176,,539942,,1513265474,866751426,'',1.23918376892,1.25709635861,0.00160214670008,0.0179125896915,0.001,-80.6066536118,4500.0,0.0,0.0,0.0
1513265476661733077,,539943,,1513265474,876751426,'',1.23918376892,1.25709635861,0.00228911551082,0.0179125896915,0.001,-80.6066536118,4500.0,0.0,0.0,0.0
1513265476671615391,,539944,,1513265474,886751426,'',1.23918376892,1.25709635861,0.00138820143416,0.0179125896915,0.001,-80.6066536118,4500.0,0.0,0.0,0.0
1513265476681524642,,539945,,1513265474,896751426,'',1.23918376892,1.25709635861,6.4265481012e-05,0.0179125896915,0.001,-80.6066536118,4500.0,0.0,0.0,0.0
1513265476691488349,,539946,,1513265474,906751426,'',1.23918376892,1.25709635861,5.26141287505e-05,0.0179125896915,0.001,-80.6066536118,4500.0,0.0,0.0,0.0
1513265476701444529,,539947,,1513265474,916751426,'',1.23918376892,1.25709635861,0.00112852295965,0.0179125896915,0.001,-80.6066536118,4500.0,0.0,0.0,0.0
1513265476711900729,,539948,,1513265474,926751426,'',1.23918376892,1.25709635861,0.00140738266587,0.0179125896915,0.001,-80.6066536118,4500.0,0.0,0.0,0.0
1513265476721750488,,539949,,1513265474,936751426,'',1.23918376892,1.25709635861,0.00172500422756,0.0179125896915,0.001,-80.6066536118,4500.0,0.0,0.0,0.0
1513265476731760259,,539950,,1513265474,946751426,'',1.23918376892,1.25709635861,0.000940868428971,0.0179125896915,0.001,-80.6066536118,4500.0,0.0,0.0,0.0
