rosbagTimestamp,header,seq,stamp,secs,nsecs,frame_id,set_point,process_value,process_value_dot,error,time_step,command,p,i,d,i_clamp
1513267354510248329,,727705,,1513267352,688669309,'',1.60570291183,1.61442955809,0.0233557531824,0.0,0.001,0.0,4500.0,0.0,0.0,0.0
1513267354520231910,,727706,,1513267352,698669309,'',1.60570291183,1.61442955809,0.0226370312531,0.0,0.001,0.0,4500.0,0.0,0.0,0.0
1513267354530128642,,727707,,1513267352,708669309,'',1.60570291183,1.61306601962,-0.00653575689922,0.0,0.001,0.0,4500.0,0.0,0.0,0.0
1513267354540264044,,727708,,1513267352,718669309,'',1.60570291183,1.61442955809,0.0195919015609,0.0,0.001,0.0,4500.0,0.0,0.0,0.0
1513267354550119582,,727709,,1513267352,728669309,'',1.60570291183,1.61442955809,0.0179910149342,0.0,0.001,0.0,4500.0,0.0,0.0,0.0
1513267354560454038,,727710,,1513267352,738669309,'',1.60570291183,1.61170248114,-0.036780162851,0.0,0.001,0.0,4500.0,0.0,0.0,0.0
1513267354570527217,,727711,,1513267352,748669309,'',1.60570291183,1.61306601962,-0.00859015363661,0.0,0.001,0.0,4500.0,0.0,0.0,0.0
1513267354580357709,,727712,,1513267352,758669309,'',1.60570291183,1.61306601962,-0.00952202725487,0.0,0.001,0.0,4500.0,0.0,0.0,0.0
1513267354590190163,,727713,,1513267352,768669309,'',1.60570291183,1.61306601962,-0.00874086259094,0.0,0.001,0.0,4500.0,0.0,0.0,0.0
1513267354600179186,,727714,,1513267352,778669309,'',1.60570291183,1.61306601962,-0.00918636838741,0.0,0.001,0.0,4500.0,0.0,0.0,0.0
1513267354610214829,,727715,,1513267352,788669309,'',1.60570291183,1.61306601962,-0.00899674134551,0.0,0.001,0.0,4500.0,0.0,0.0,0.0
1513267354620290537,,727716,,1513267352,798669309,'',1.60570291183,1.61306601962,-0.00831507850363,0.0,0.001,0.0,4500.0,0.0,0.0,0.0
1513267354630070494,,727717,,1513267352,808669309,'',1.60570291183,1.61306601962,-0.00933714353099,0.0,0.001,0.0,4500.0,0.0,0.0,0.0
1513267354640283946,,727718,,1513267352,818669309,'',1.60570291183,1.61442955809,0.0188865532867,0.0,0.001,0.0,4500.0,0.0,0.0,0.0
1513267354650444938,,727719,,1513267352,828669309,'',1.60570291183,1.61306601962,-0.00903242063896,0.0,0.001,0.0,4500.0,0.0,0.0,0.0
1513267354660368960,,727720,,1513267352,838669309,'',1.60570291183,1.61306601962,-0.0104519422009,0.0,0.001,0.0,4500.0,0.0,0.0,0.0
1513267354670188968,,727721,,1513267352,848669309,'',1.60570291183,1.61306601962,-0.0100790161937,0.0,0.001,0.0,4500.0,0.0,0.0,0.0
1513267354680165351,,727722,,1513267352,858669309,'',1.60570291183,1.61442955809,0.0152940716329,0.0,0.001,0.0,4500.0,0.0,0.0,0.0
1513267354690239032,,727723,,1513267352,868669309,'',1.60570291183,1.61442955809,0.0115234876947,0.0,0.001,0.0,4500.0,0.0,0.0,0.0
1513267354700207217,,727724,,1513267352,878669309,'',1.60570291183,1.61442955809,0.00703012629694,0.0,0.001,0.0,4500.0,0.0,0.0,0.0
1513267354710154023,,727725,,1513267352,888669309,'',1.60570291183,1.61579309657,0.0297555443478,0.0,0.001,0.0,4500.0,0.0,0.0,0.0
1513267354720179443,,727726,,1513267352,898669309,'',1.60570291183,1.61715663505,0.0513999127687,0.0,0.001,0.0,4500.0,0.0,0.0,0.0
1513267354730096411,,727727,,1513267352,908669309,'',1.60570291183,1.61579309657,0.0195517257104,0.0,0.001,0.0,4500.0,0.0,0.0,0.0
1513267354740341976,,727728,,1513267352,918669309,'',1.60570291183,1.61715663505,0.0415248212622,0.0,0.001,0.0,4500.0,0.0,0.0,0.0
1513267354750123114,,727729,,1513267352,928669309,'',1.60570291183,1.61579309657,0.00943846493967,0.0100901847381,0.001,-45.4058313214,4500.0,0.0,0.0,0.0
1513267354760051107,,727730,,1513267352,938669309,'',1.60570291183,1.61579309657,0.00619185721066,0.0100901847381,0.001,-45.4058313214,4500.0,0.0,0.0,0.0
1513267354770382327,,727731,,1513267352,948669309,'',1.60570291183,1.61852017353,0.0566134661474,0.0128172616943,0.001,-57.6776776245,4500.0,0.0,0.0,0.0
1513267354780319312,,727732,,1513267352,958669309,'',1.60570291183,1.61715663505,0.0247138021729,0.0114537232162,0.001,-51.541754473,4500.0,0.0,0.0,0.0
1513267354790295865,,727733,,1513267352,968669309,'',1.60570291183,1.61715663505,0.0182060704201,0.0114537232162,0.001,-51.541754473,4500.0,0.0,0.0,0.0
1513267354800172151,,727734,,1513267352,978669309,'',1.60570291183,1.61715663505,0.0124496394619,0.0114537232162,0.001,-51.541754473,4500.0,0.0,0.0,0.0
1513267354810221280,,727735,,1513267352,988669309,'',1.60570291183,1.61852017353,0.0343012553086,0.0128172616943,0.001,-57.6776776245,4500.0,0.0,0.0,0.0
1513267354820352528,,727736,,1513267352,998669309,'',1.60570291183,1.61715663505,0.00108137345343,0.0114537232162,0.001,-51.541754473,4500.0,0.0,0.0,0.0
1513267354830108672,,727737,,1513267353,8669309,'',1.60570291183,1.61852017353,0.0233950445998,0.0128172616943,0.001,-57.6776776245,4500.0,0.0,0.0,0.0
1513267354839944615,,727738,,1513267353,18669309,'',1.60570291183,1.61852017353,0.020158045335,0.0128172616943,0.001,-57.6776776245,4500.0,0.0,0.0,0.0
1513267354850493486,,727739,,1513267353,28669309,'',1.60570291183,1.61988371201,0.0434608362719,0.0141808001725,0.001,-63.813600776,4500.0,0.0,0.0,0.0
1513267354860093092,,727740,,1513267353,38669309,'',1.60570291183,1.61852017353,0.0120469059163,0.0128172616943,0.001,-57.6776776245,4500.0,0.0,0.0,0.0
1513267354870393147,,727741,,1513267353,48669309,'',1.60570291183,1.61852017353,0.00834792491989,0.0128172616943,0.001,-57.6776776245,4500.0,0.0,0.0,0.0
1513267354880321704,,727742,,1513267353,58669309,'',1.60570291183,1.61988371201,0.0293131014869,0.0141808001725,0.001,-63.813600776,4500.0,0.0,0.0,0.0
1513267354890254672,,727743,,1513267353,68669309,'',1.60570291183,1.61988371201,0.024480928917,0.0141808001725,0.001,-63.813600776,4500.0,0.0,0.0,0.0
1513267354900233980,,727744,,1513267353,78669309,'',1.60570291183,1.61988371201,0.0201194861803,0.0141808001725,0.001,-63.813600776,4500.0,0.0,0.0,0.0
1513267354910279139,,727745,,1513267353,88669309,'',1.60570291183,1.61988371201,0.0165322914364,0.0141808001725,0.001,-63.813600776,4500.0,0.0,0.0,0.0
1513267354920213614,,727746,,1513267353,98669309,'',1.60570291183,1.61988371201,0.0126072786026,0.0141808001725,0.001,-63.813600776,4500.0,0.0,0.0,0.0
1513267354930103690,,727747,,1513267353,108669309,'',1.60570291183,1.61988371201,0.00988697489248,0.0141808001725,0.001,-63.813600776,4500.0,0.0,0.0,0.0
1513267354940076672,,727748,,1513267353,118669309,'',1.60570291183,1.61988371201,0.00808642022864,0.0141808001725,0.001,-63.813600776,4500.0,0.0,0.0,0.0
1513267354950414034,,727749,,1513267353,128669309,'',1.60570291183,1.61988371201,0.00551922940281,0.0141808001725,0.001,-63.813600776,4500.0,0.0,0.0,0.0
1513267354960428056,,727750,,1513267353,138669309,'',1.60570291183,1.61988371201,0.00451831125335,0.0141808001725,0.001,-63.813600776,4500.0,0.0,0.0,0.0
1513267354970348171,,727751,,1513267353,148669309,'',1.60570291183,1.62124725049,0.030716484847,0.0155443386506,0.001,-69.9495239276,4500.0,0.0,0.0,0.0
1513267354980314878,,727752,,1513267353,158669309,'',1.60570291183,1.61988371201,7.71237993797e-05,0.0141808001725,0.001,-63.813600776,4500.0,0.0,0.0,0.0
1513267354990268839,,727753,,1513267353,168669309,'',1.60570291183,1.61988371201,-0.00192961915611,0.0141808001725,0.001,-63.813600776,4500.0,0.0,0.0,0.0
1513267355000201102,,727754,,1513267353,178669309,'',1.60570291183,1.62124725049,0.0229803119321,0.0155443386506,0.001,-69.9495239276,4500.0,0.0,0.0,0.0
1513267355010129704,,727755,,1513267353,188669309,'',1.60570291183,1.62124725049,0.0203936892107,0.0155443386506,0.001,-69.9495239276,4500.0,0.0,0.0,0.0
1513267355020522863,,727756,,1513267353,198669309,'',1.60570291183,1.62124725049,0.0166946350199,0.0155443386506,0.001,-69.9495239276,4500.0,0.0,0.0,0.0
1513267355030496160,,727757,,1513267353,208669309,'',1.60570291183,1.62124725049,0.0141642580073,0.0155443386506,0.001,-69.9495239276,4500.0,0.0,0.0,0.0
1513267355040371930,,727758,,1513267353,218669309,'',1.60570291183,1.61988371201,-0.0129489725856,0.0141808001725,0.001,-63.813600776,4500.0,0.0,0.0,0.0
1513267355050390731,,727759,,1513267353,228669309,'',1.60570291183,1.61988371201,-0.0146182146876,0.0141808001725,0.001,-63.813600776,4500.0,0.0,0.0,0.0
1513267355060371440,,727760,,1513267353,238669309,'',1.60570291183,1.61988371201,-0.01733819412,0.0141808001725,0.001,-63.813600776,4500.0,0.0,0.0,0.0
1513267355070375612,,727761,,1513267353,248669309,'',1.60570291183,1.61988371201,-0.0187001823715,0.0141808001725,0.001,-63.813600776,4500.0,0.0,0.0,0.0
1513267355080244036,,727762,,1513267353,258669309,'',1.60570291183,1.62124725049,0.00770387993468,0.0155443386506,0.001,-69.9495239276,4500.0,0.0,0.0,0.0
1513267355090282458,,727763,,1513267353,268669309,'',1.60570291183,1.61988371201,-0.0201676526795,0.0141808001725,0.001,-63.813600776,4500.0,0.0,0.0,0.0
1513267355100210814,,727764,,1513267353,278669309,'',1.60570291183,1.61988371201,-0.0209212490081,0.0141808001725,0.001,-63.813600776,4500.0,0.0,0.0,0.0
1513267355110183292,,727765,,1513267353,288669309,'',1.60570291183,1.62124725049,0.00782976930245,0.0155443386506,0.001,-69.9495239276,4500.0,0.0,0.0,0.0
1513267355120199983,,727766,,1513267353,298669309,'',1.60570291183,1.62124725049,0.00841709163985,0.0155443386506,0.001,-69.9495239276,4500.0,0.0,0.0,0.0
1513267355130118052,,727767,,1513267353,308669309,'',1.60570291183,1.62261078896,0.0350096574583,0.0169078771287,0.001,-76.0854470791,4500.0,0.0,0.0,0.0
1513267355140113630,,727768,,1513267353,318669309,'',1.60570291183,1.62124725049,0.00959121272773,0.0155443386506,0.001,-69.9495239276,4500.0,0.0,0.0,0.0
1513267355150013230,,727769,,1513267353,328669309,'',1.60570291183,1.62124725049,0.00778710025681,0.0155443386506,0.001,-69.9495239276,4500.0,0.0,0.0,0.0
1513267355160872594,,727770,,1513267353,338669309,'',1.60570291183,1.61852017353,-0.0447505250412,0.0128172616943,0.001,-57.6776776245,4500.0,0.0,0.0,0.0
1513267355170262418,,727771,,1513267353,348669309,'',1.60570291183,1.62124725049,0.011332564713,0.0155443386506,0.001,-69.9495239276,4500.0,0.0,0.0,0.0
1513267355180199111,,727772,,1513267353,358669309,'',1.60570291183,1.61988371201,-0.0146888353507,0.0141808001725,0.001,-63.813600776,4500.0,0.0,0.0,0.0
1513267355190202179,,727773,,1513267353,368669309,'',1.60570291183,1.62124725049,0.0134108022442,0.0155443386506,0.001,-69.9495239276,4500.0,0.0,0.0,0.0
1513267355200219711,,727774,,1513267353,378669309,'',1.60570291183,1.61988371201,-0.0135343484879,0.0141808001725,0.001,-63.813600776,4500.0,0.0,0.0,0.0
1513267355210446136,,727775,,1513267353,388669309,'',1.60570291183,1.61988371201,-0.0129970593173,0.0141808001725,0.001,-63.813600776,4500.0,0.0,0.0,0.0
1513267355220388698,,727776,,1513267353,398669309,'',1.60570291183,1.62261078896,0.0369098666344,0.0169078771287,0.001,-76.0854470791,4500.0,0.0,0.0,0.0
1513267355230158522,,727777,,1513267353,408669309,'',1.60570291183,1.62397432744,0.0546894528863,0.0182714156068,0.001,-82.2213702307,4500.0,0.0,0.0,0.0
1513267355240038976,,727778,,1513267353,418669309,'',1.60570291183,1.62397432744,0.0451642387925,0.0182714156068,0.001,-82.2213702307,4500.0,0.0,0.0,0.0
1513267355250197973,,727779,,1513267353,428669309,'',1.60570291183,1.62397432744,0.0360315007013,0.0182714156068,0.001,-82.2213702307,4500.0,0.0,0.0,0.0
1513267355260107172,,727780,,1513267353,438669309,'',1.60570291183,1.62533786592,0.0555424692347,0.0196349540849,0.001,-88.3572933822,4500.0,0.0,0.0,0.0
1513267355270478536,,727781,,1513267353,448669309,'',1.60570291183,1.62533786592,0.0474248758195,0.0196349540849,0.001,-88.3572933822,4500.0,0.0,0.0,0.0
1513267355280364669,,727782,,1513267353,458669309,'',1.60570291183,1.62533786592,0.0437498330417,0.0196349540849,0.001,-88.3572933822,4500.0,0.0,0.0,0.0
1513267355290348056,,727783,,1513267353,468669309,'',1.60570291183,1.62397432744,0.0123658822356,0.0182714156068,0.001,-82.2213702307,4500.0,0.0,0.0,0.0
1513267355300428473,,727784,,1513267353,478669309,'',1.60570291183,1.62397432744,0.00918694931822,0.0182714156068,0.001,-82.2213702307,4500.0,0.0,0.0,0.0
1513267355310330540,,727785,,1513267353,488669309,'',1.60570291183,1.62533786592,0.0325837721572,0.0196349540849,0.001,-88.3572933822,4500.0,0.0,0.0,0.0
1513267355320210670,,727786,,1513267353,498669309,'',1.60570291183,1.62397432744,0.000177018604297,0.0182714156068,0.001,-82.2213702307,4500.0,0.0,0.0,0.0
1513267355330121187,,727787,,1513267353,508669309,'',1.60570291183,1.62533786592,0.0241709255747,0.0196349540849,0.001,-88.3572933822,4500.0,0.0,0.0,0.0
1513267355340122819,,727788,,1513267353,518669309,'',1.60570291183,1.6267014044,0.0486492688264,0.0209984925631,0.001,-94.4932165338,4500.0,0.0,0.0,0.0
1513267355350033707,,727789,,1513267353,528669309,'',1.60570291183,1.62533786592,0.017793675858,0.0196349540849,0.001,-88.3572933822,4500.0,0.0,0.0,0.0
1513267355360403336,,727790,,1513267353,538669309,'',1.60570291183,1.62533786592,0.0149694395049,0.0196349540849,0.001,-88.3572933822,4500.0,0.0,0.0,0.0
1513267355370378566,,727791,,1513267353,548669309,'',1.60570291183,1.62533786592,0.013283949258,0.0196349540849,0.001,-88.3572933822,4500.0,0.0,0.0,0.0
1513267355380309837,,727792,,1513267353,558669309,'',1.60570291183,1.62533786592,0.0118743943423,0.0196349540849,0.001,-88.3572933822,4500.0,0.0,0.0,0.0
1513267355390212803,,727793,,1513267353,568669309,'',1.60570291183,1.62533786592,0.0107624546869,0.0196349540849,0.001,-88.3572933822,4500.0,0.0,0.0,0.0
1513267355400104674,,727794,,1513267353,578669309,'',1.60570291183,1.62397432744,-0.0162084587526,0.0182714156068,0.001,-82.2213702307,4500.0,0.0,0.0,0.0
1513267355410005795,,727795,,1513267353,588669309,'',1.60570291183,1.62533786592,0.0107629601781,0.0196349540849,0.001,-88.3572933822,4500.0,0.0,0.0,0.0
1513267355420516790,,727796,,1513267353,598669309,'',1.60570291183,1.62397432744,-0.0166742657165,0.0182714156068,0.001,-82.2213702307,4500.0,0.0,0.0,0.0
1513267355430259834,,727797,,1513267353,608669309,'',1.60570291183,1.62533786592,0.00977900470196,0.0196349540849,0.001,-88.3572933822,4500.0,0.0,0.0,0.0
1513267355440210935,,727798,,1513267353,618669309,'',1.60570291183,1.62533786592,0.0089839364537,0.0196349540849,0.001,-88.3572933822,4500.0,0.0,0.0,0.0
1513267355450246451,,727799,,1513267353,628669309,'',1.60570291183,1.62533786592,0.00926550337501,0.0196349540849,0.001,-88.3572933822,4500.0,0.0,0.0,0.0
1513267355460182946,,727800,,1513267353,638669309,'',1.60570291183,1.62533786592,0.00812560823365,0.0196349540849,0.001,-88.3572933822,4500.0,0.0,0.0,0.0
1513267355470051216,,727801,,1513267353,648669309,'',1.60570291183,1.62397432744,-0.0188248042589,0.0182714156068,0.001,-82.2213702307,4500.0,0.0,0.0,0.0
1513267355480095393,,727802,,1513267353,658669309,'',1.60570291183,1.62397432744,-0.0183461968662,0.0182714156068,0.001,-82.2213702307,4500.0,0.0,0.0,0.0
1513267355490481365,,727803,,1513267353,668669309,'',1.60570291183,1.62397432744,-0.0189683663938,0.0182714156068,0.001,-82.2213702307,4500.0,0.0,0.0,0.0
1513267355500401221,,727804,,1513267353,678669309,'',1.60570291183,1.6267014044,0.0350393985532,0.0209984925631,0.001,-94.4932165338,4500.0,0.0,0.0,0.0
1513267355510290404,,727805,,1513267353,688669309,'',1.60570291183,1.62533786592,0.00717121101281,0.0196349540849,0.001,-88.3572933822,4500.0,0.0,0.0,0.0
1513267355520482262,,727806,,1513267353,698669309,'',1.60570291183,1.62533786592,0.00541223358523,0.0196349540849,0.001,-88.3572933822,4500.0,0.0,0.0,0.0
1513267355530151840,,727807,,1513267353,708669309,'',1.60570291183,1.62397432744,-0.0220838287479,0.0182714156068,0.001,-82.2213702307,4500.0,0.0,0.0,0.0
1513267355540260465,,727808,,1513267353,718669309,'',1.60570291183,1.6267014044,0.0320007633874,0.0209984925631,0.001,-94.4932165338,4500.0,0.0,0.0,0.0
1513267355549997398,,727809,,1513267353,728669309,'',1.60570291183,1.62533786592,0.00364599417977,0.0196349540849,0.001,-88.3572933822,4500.0,0.0,0.0,0.0
1513267355559914779,,727810,,1513267353,738669309,'',1.60570291183,1.62533786592,0.00397497639949,0.0196349540849,0.001,-88.3572933822,4500.0,0.0,0.0,0.0
1513267355570414689,,727811,,1513267353,748669309,'',1.60570291183,1.62533786592,0.00324322389486,0.0196349540849,0.001,-88.3572933822,4500.0,0.0,0.0,0.0
1513267355580329915,,727812,,1513267353,758669309,'',1.60570291183,1.62533786592,0.00269099504946,0.0196349540849,0.001,-88.3572933822,4500.0,0.0,0.0,0.0
1513267355590311793,,727813,,1513267353,768669309,'',1.60570291183,1.62533786592,0.00229323799118,0.0196349540849,0.001,-88.3572933822,4500.0,0.0,0.0,0.0
1513267355600257523,,727814,,1513267353,778669309,'',1.60570291183,1.62397432744,-0.0246001893147,0.0182714156068,0.001,-82.2213702307,4500.0,0.0,0.0,0.0
1513267355610140823,,727815,,1513267353,788669309,'',1.60570291183,1.62533786592,0.000954352177181,0.0196349540849,0.001,-88.3572933822,4500.0,0.0,0.0,0.0
1513267355620193671,,727816,,1513267353,798669309,'',1.60570291183,1.62533786592,0.00274531408453,0.0196349540849,0.001,-88.3572933822,4500.0,0.0,0.0,0.0
1513267355630251316,,727817,,1513267353,808669309,'',1.60570291183,1.62533786592,0.00227487006214,0.0196349540849,0.001,-88.3572933822,4500.0,0.0,0.0,0.0
1513267355640100744,,727818,,1513267353,818669309,'',1.60570291183,1.62397432744,-0.0231161224757,0.0182714156068,0.001,-82.2213702307,4500.0,0.0,0.0,0.0
1513267355650083938,,727819,,1513267353,828669309,'',1.60570291183,1.62533786592,0.00554629403277,0.0196349540849,0.001,-88.3572933822,4500.0,0.0,0.0,0.0
1513267355660419439,,727820,,1513267353,838669309,'',1.60570291183,1.62533786592,0.00450509836132,0.0196349540849,0.001,-88.3572933822,4500.0,0.0,0.0,0.0
1513267355670307610,,727821,,1513267353,848669309,'',1.60570291183,1.62397432744,-0.0228146548263,0.0182714156068,0.001,-82.2213702307,4500.0,0.0,0.0,0.0
1513267355680414314,,727822,,1513267353,858669309,'',1.60570291183,1.62533786592,0.00582902533406,0.0196349540849,0.001,-88.3572933822,4500.0,0.0,0.0,0.0
1513267355690121993,,727823,,1513267353,868669309,'',1.60570291183,1.6267014044,0.0317701950102,0.0209984925631,0.001,-94.4932165338,4500.0,0.0,0.0,0.0
1513267355700248800,,727824,,1513267353,878669309,'',1.60570291183,1.62533786592,0.00450292250249,0.0196349540849,0.001,-88.3572933822,4500.0,0.0,0.0,0.0
1513267355709970184,,727825,,1513267353,888669309,'',1.60570291183,1.62533786592,0.00425143687779,0.0196349540849,0.001,-88.3572933822,4500.0,0.0,0.0,0.0
1513267355720449588,,727826,,1513267353,898669309,'',1.60570291183,1.62533786592,0.00500887970122,0.0196349540849,0.001,-88.3572933822,4500.0,0.0,0.0,0.0
1513267355730448826,,727827,,1513267353,908669309,'',1.60570291183,1.6267014044,0.0310986436748,0.0209984925631,0.001,-94.4932165338,4500.0,0.0,0.0,0.0
1513267355740487717,,727828,,1513267353,918669309,'',1.60570291183,1.62533786592,0.0029167735978,0.0196349540849,0.001,-88.3572933822,4500.0,0.0,0.0,0.0
1513267355750349321,,727829,,1513267353,928669309,'',1.60570291183,1.62533786592,0.00242363822802,0.0196349540849,0.001,-88.3572933822,4500.0,0.0,0.0,0.0
1513267355760309625,,727830,,1513267353,938669309,'',1.60570291183,1.62533786592,0.00297149827313,0.0196349540849,0.001,-88.3572933822,4500.0,0.0,0.0,0.0
1513267355770260594,,727831,,1513267353,948669309,'',1.60570291183,1.62533786592,0.00195567826635,0.0196349540849,0.001,-88.3572933822,4500.0,0.0,0.0,0.0
1513267355780354693,,727832,,1513267353,958669309,'',1.60570291183,1.62397432744,-0.0248709425449,0.0182714156068,0.001,-82.2213702307,4500.0,0.0,0.0,0.0
1513267355790336166,,727833,,1513267353,968669309,'',1.60570291183,1.62533786592,0.00220348153845,0.0196349540849,0.001,-88.3572933822,4500.0,0.0,0.0,0.0
1513267355800242677,,727834,,1513267353,978669309,'',1.60570291183,1.6267014044,0.0297660071634,0.0209984925631,0.001,-94.4932165338,4500.0,0.0,0.0,0.0
1513267355810264261,,727835,,1513267353,988669309,'',1.60570291183,1.62533786592,0.00179607158121,0.0196349540849,0.001,-88.3572933822,4500.0,0.0,0.0,0.0
1513267355820255307,,727836,,1513267353,998669309,'',1.60570291183,1.62533786592,-2.81777111268e-05,0.0196349540849,0.001,-88.3572933822,4500.0,0.0,0.0,0.0
1513267355830213923,,727837,,1513267354,8669309,'',1.60570291183,1.62533786592,-2.30667731619e-05,0.0196349540849,0.001,-88.3572933822,4500.0,0.0,0.0,0.0
1513267355840131334,,727838,,1513267354,18669309,'',1.60570291183,1.62397432744,-0.0260228950279,0.0182714156068,0.001,-82.2213702307,4500.0,0.0,0.0,0.0
1513267355849983302,,727839,,1513267354,28669309,'',1.60570291183,1.62397432744,-0.0257474313751,0.0182714156068,0.001,-82.2213702307,4500.0,0.0,0.0,0.0
1513267355860090129,,727840,,1513267354,38669309,'',1.60570291183,1.62533786592,0.00290429922591,0.0196349540849,0.001,-88.3572933822,4500.0,0.0,0.0,0.0
1513267355870046648,,727841,,1513267354,48669309,'',1.60570291183,1.62533786592,0.00287493280464,0.0196349540849,0.001,-88.3572933822,4500.0,0.0,0.0,0.0
1513267355880379407,,727842,,1513267354,58669309,'',1.60570291183,1.62533786592,0.00191242569857,0.0196349540849,0.001,-88.3572933822,4500.0,0.0,0.0,0.0
1513267355890405408,,727843,,1513267354,68669309,'',1.60570291183,1.62397432744,-0.0244168905494,0.0182714156068,0.001,-82.2213702307,4500.0,0.0,0.0,0.0
1513267355900460007,,727844,,1513267354,78669309,'',1.60570291183,1.62533786592,0.00304906770348,0.0196349540849,0.001,-88.3572933822,4500.0,0.0,0.0,0.0
1513267355910468116,,727845,,1513267354,88669309,'',1.60570291183,1.62533786592,0.00449093834131,0.0196349540849,0.001,-88.3572933822,4500.0,0.0,0.0,0.0
1513267355920311529,,727846,,1513267354,98669309,'',1.60570291183,1.62533786592,0.00464361445089,0.0196349540849,0.001,-88.3572933822,4500.0,0.0,0.0,0.0
1513267355930378810,,727847,,1513267354,108669309,'',1.60570291183,1.62533786592,0.00474008072478,0.0196349540849,0.001,-88.3572933822,4500.0,0.0,0.0,0.0
1513267355940310003,,727848,,1513267354,118669309,'',1.60570291183,1.62533786592,0.00538134673549,0.0196349540849,0.001,-88.3572933822,4500.0,0.0,0.0,0.0
1513267355950272698,,727849,,1513267354,128669309,'',1.60570291183,1.62533786592,0.00487499438473,0.0196349540849,0.001,-88.3572933822,4500.0,0.0,0.0,0.0
1513267355960175732,,727850,,1513267354,138669309,'',1.60570291183,1.62533786592,0.00492625036014,0.0196349540849,0.001,-88.3572933822,4500.0,0.0,0.0,0.0
1513267355970097082,,727851,,1513267354,148669309,'',1.60570291183,1.62397432744,-0.0229884520549,0.0182714156068,0.001,-82.2213702307,4500.0,0.0,0.0,0.0
1513267355980575949,,727852,,1513267354,158669309,'',1.60570291183,1.62533786592,0.00416714355827,0.0196349540849,0.001,-88.3572933822,4500.0,0.0,0.0,0.0
1513267355990415057,,727853,,1513267354,168669309,'',1.60570291183,1.62533786592,0.00334143344691,0.0196349540849,0.001,-88.3572933822,4500.0,0.0,0.0,0.0
1513267356000179486,,727854,,1513267354,178669309,'',1.60570291183,1.62533786592,0.00465910329562,0.0196349540849,0.001,-88.3572933822,4500.0,0.0,0.0,0.0
1513267356010194361,,727855,,1513267354,188669309,'',1.60570291183,1.62533786592,0.00431859631244,0.0196349540849,0.001,-88.3572933822,4500.0,0.0,0.0,0.0
1513267356020293981,,727856,,1513267354,198669309,'',1.60570291183,1.62397432744,-0.0234342596305,0.0182714156068,0.001,-82.2213702307,4500.0,0.0,0.0,0.0
1513267356029994663,,727857,,1513267354,208669309,'',1.60570291183,1.62533786592,0.00387196755256,0.0196349540849,0.001,-88.3572933822,4500.0,0.0,0.0,0.0
1513267356040008471,,727858,,1513267354,218669309,'',1.60570291183,1.62533786592,0.00416015084478,0.0196349540849,0.001,-88.3572933822,4500.0,0.0,0.0,0.0
1513267356050461187,,727859,,1513267354,228669309,'',1.60570291183,1.62397432744,-0.0241256858897,0.0182714156068,0.001,-82.2213702307,4500.0,0.0,0.0,0.0
1513267356060427641,,727860,,1513267354,238669309,'',1.60570291183,1.62533786592,0.00330779108115,0.0196349540849,0.001,-88.3572933822,4500.0,0.0,0.0,0.0
1513267356070394013,,727861,,1513267354,248669309,'',1.60570291183,1.62533786592,0.00368477517619,0.0196349540849,0.001,-88.3572933822,4500.0,0.0,0.0,0.0
1513267356080351212,,727862,,1513267354,258669309,'',1.60570291183,1.62533786592,0.00351722967031,0.0196349540849,0.001,-88.3572933822,4500.0,0.0,0.0,0.0
1513267356090286888,,727863,,1513267354,268669309,'',1.60570291183,1.62533786592,0.00386087458544,0.0196349540849,0.001,-88.3572933822,4500.0,0.0,0.0,0.0
1513267356100216017,,727864,,1513267354,278669309,'',1.60570291183,1.62533786592,0.00518510249904,0.0196349540849,0.001,-88.3572933822,4500.0,0.0,0.0,0.0
1513267356110241644,,727865,,1513267354,288669309,'',1.60570291183,1.62397432744,-0.0222422792551,0.0182714156068,0.001,-82.2213702307,4500.0,0.0,0.0,0.0
1513267356120124340,,727866,,1513267354,298669309,'',1.60570291183,1.62533786592,0.00776996053713,0.0196349540849,0.001,-88.3572933822,4500.0,0.0,0.0,0.0
1513267356129969010,,727867,,1513267354,308669309,'',1.60570291183,1.62533786592,0.00588051758517,0.0196349540849,0.001,-88.3572933822,4500.0,0.0,0.0,0.0
1513267356140471940,,727868,,1513267354,318669309,'',1.60570291183,1.62533786592,0.00574286567424,0.0196349540849,0.001,-88.3572933822,4500.0,0.0,0.0,0.0
1513267356150376606,,727869,,1513267354,328669309,'',1.60570291183,1.62533786592,0.00562122627897,0.0196349540849,0.001,-88.3572933822,4500.0,0.0,0.0,0.0
1513267356160318300,,727870,,1513267354,338669309,'',1.60570291183,1.62533786592,0.00506757551273,0.0196349540849,0.001,-88.3572933822,4500.0,0.0,0.0,0.0
1513267356170271174,,727871,,1513267354,348669309,'',1.60570291183,1.62397432744,-0.0233309699269,0.0182714156068,0.001,-82.2213702307,4500.0,0.0,0.0,0.0
1513267356180266428,,727872,,1513267354,358669309,'',1.60570291183,1.62397432744,-0.0224961941351,0.0182714156068,0.001,-82.2213702307,4500.0,0.0,0.0,0.0
1513267356190226521,,727873,,1513267354,368669309,'',1.60570291183,1.62533786592,0.0041896972262,0.0196349540849,0.001,-88.3572933822,4500.0,0.0,0.0,0.0
1513267356200147562,,727874,,1513267354,378669309,'',1.60570291183,1.62397432744,-0.0236890749927,0.0182714156068,0.001,-82.2213702307,4500.0,0.0,0.0,0.0
1513267356210024661,,727875,,1513267354,388669309,'',1.60570291183,1.62397432744,-0.0238605181567,0.0182714156068,0.001,-82.2213702307,4500.0,0.0,0.0,0.0
1513267356220053432,,727876,,1513267354,398669309,'',1.60570291183,1.62533786592,0.00445226747085,0.0196349540849,0.001,-88.3572933822,4500.0,0.0,0.0,0.0
1513267356230111753,,727877,,1513267354,408669309,'',1.60570291183,1.62397432744,-0.0213904546099,0.0182714156068,0.001,-82.2213702307,4500.0,0.0,0.0,0.0
1513267356240406268,,727878,,1513267354,418669309,'',1.60570291183,1.62533786592,0.00508969286219,0.0196349540849,0.001,-88.3572933822,4500.0,0.0,0.0,0.0
1513267356250356201,,727879,,1513267354,428669309,'',1.60570291183,1.62533786592,0.00460432551658,0.0196349540849,0.001,-88.3572933822,4500.0,0.0,0.0,0.0
1513267356260303764,,727880,,1513267354,438669309,'',1.60570291183,1.62397432744,-0.0232656412531,0.0182714156068,0.001,-82.2213702307,4500.0,0.0,0.0,0.0
1513267356270288675,,727881,,1513267354,448669309,'',1.60570291183,1.62533786592,0.00411287650929,0.0196349540849,0.001,-88.3572933822,4500.0,0.0,0.0,0.0
1513267356280270559,,727882,,1513267354,458669309,'',1.60570291183,1.62397432744,-0.0236662263487,0.0182714156068,0.001,-82.2213702307,4500.0,0.0,0.0,0.0
1513267356290174031,,727883,,1513267354,468669309,'',1.60570291183,1.62533786592,0.00368285346418,0.0196349540849,0.001,-88.3572933822,4500.0,0.0,0.0,0.0
1513267356300513173,,727884,,1513267354,478669309,'',1.60570291183,1.62533786592,0.00207405606591,0.0196349540849,0.001,-88.3572933822,4500.0,0.0,0.0,0.0
1513267356310222665,,727885,,1513267354,488669309,'',1.60570291183,1.6267014044,0.0301023877948,0.0209984925631,0.001,-94.4932165338,4500.0,0.0,0.0,0.0
1513267356320223772,,727886,,1513267354,498669309,'',1.60570291183,1.62533786592,0.00257331689733,0.0196349540849,0.001,-88.3572933822,4500.0,0.0,0.0,0.0
1513267356330282204,,727887,,1513267354,508669309,'',1.60570291183,1.62533786592,0.00356224999757,0.0196349540849,0.001,-88.3572933822,4500.0,0.0,0.0,0.0
1513267356340316179,,727888,,1513267354,518669309,'',1.60570291183,1.62533786592,0.00293357440258,0.0196349540849,0.001,-88.3572933822,4500.0,0.0,0.0,0.0
1513267356350210853,,727889,,1513267354,528669309,'',1.60570291183,1.62533786592,0.00346160110997,0.0196349540849,0.001,-88.3572933822,4500.0,0.0,0.0,0.0
1513267356360252508,,727890,,1513267354,538669309,'',1.60570291183,1.62533786592,0.00339763782099,0.0196349540849,0.001,-88.3572933822,4500.0,0.0,0.0,0.0
1513267356370209668,,727891,,1513267354,548669309,'',1.60570291183,1.62397432744,-0.0231935801892,0.0182714156068,0.001,-82.2213702307,4500.0,0.0,0.0,0.0
1513267356380153191,,727892,,1513267354,558669309,'',1.60570291183,1.62533786592,0.00547889383738,0.0196349540849,0.001,-88.3572933822,4500.0,0.0,0.0,0.0
1513267356390169189,,727893,,1513267354,568669309,'',1.60570291183,1.62533786592,0.00603035794716,0.0196349540849,0.001,-88.3572933822,4500.0,0.0,0.0,0.0
1513267356400437701,,727894,,1513267354,578669309,'',1.60570291183,1.62533786592,0.00547347245716,0.0196349540849,0.001,-88.3572933822,4500.0,0.0,0.0,0.0
1513267356410167296,,727895,,1513267354,588669309,'',1.60570291183,1.62533786592,0.00451555116964,0.0196349540849,0.001,-88.3572933822,4500.0,0.0,0.0,0.0
1513267356420495358,,727896,,1513267354,598669309,'',1.60570291183,1.62397432744,-0.0222828738923,0.0182714156068,0.001,-82.2213702307,4500.0,0.0,0.0,0.0
1513267356430447558,,727897,,1513267354,608669309,'',1.60570291183,1.6267014044,0.0328053256564,0.0209984925631,0.001,-94.4932165338,4500.0,0.0,0.0,0.0
1513267356440310489,,727898,,1513267354,618669309,'',1.60570291183,1.62533786592,0.00535220456059,0.0196349540849,0.001,-88.3572933822,4500.0,0.0,0.0,0.0
1513267356450229090,,727899,,1513267354,628669309,'',1.60570291183,1.62261078896,-0.0485910887787,0.0169078771287,0.001,-76.0854470791,4500.0,0.0,0.0,0.0
1513267356460219279,,727900,,1513267354,638669309,'',1.60570291183,1.62397432744,-0.0211677386433,0.0182714156068,0.001,-82.2213702307,4500.0,0.0,0.0,0.0
1513267356470195252,,727901,,1513267354,648669309,'',1.60570291183,1.62533786592,0.0061600700084,0.0196349540849,0.001,-88.3572933822,4500.0,0.0,0.0,0.0
1513267356480101186,,727902,,1513267354,658669309,'',1.60570291183,1.62533786592,0.00592237946584,0.0196349540849,0.001,-88.3572933822,4500.0,0.0,0.0,0.0
1513267356490028299,,727903,,1513267354,668669309,'',1.60570291183,1.62533786592,0.00430340731751,0.0196349540849,0.001,-88.3572933822,4500.0,0.0,0.0,0.0
1513267356500401496,,727904,,1513267354,678669309,'',1.60570291183,1.62533786592,0.0040184211121,0.0196349540849,0.001,-88.3572933822,4500.0,0.0,0.0,0.0
1513267356510460674,,727905,,1513267354,688669309,'',1.60570291183,1.62397432744,-0.0232086656354,0.0182714156068,0.001,-82.2213702307,4500.0,0.0,0.0,0.0
1513267356520253146,,727906,,1513267354,698669309,'',1.60570291183,1.62397432744,-0.0224498961726,0.0182714156068,0.001,-82.2213702307,4500.0,0.0,0.0,0.0
1513267356530300579,,727907,,1513267354,708669309,'',1.60570291183,1.62397432744,-0.0218143097561,0.0182714156068,0.001,-82.2213702307,4500.0,0.0,0.0,0.0
1513267356540489691,,727908,,1513267354,718669309,'',1.60570291183,1.62397432744,-0.0218235683155,0.0182714156068,0.001,-82.2213702307,4500.0,0.0,0.0,0.0
1513267356550230808,,727909,,1513267354,728669309,'',1.60570291183,1.62533786592,0.00521261561035,0.0196349540849,0.001,-88.3572933822,4500.0,0.0,0.0,0.0
1513267356560094157,,727910,,1513267354,738669309,'',1.60570291183,1.62533786592,0.00626542141451,0.0196349540849,0.001,-88.3572933822,4500.0,0.0,0.0,0.0
1513267356570026626,,727911,,1513267354,748669309,'',1.60570291183,1.6267014044,0.0316676403933,0.0209984925631,0.001,-94.4932165338,4500.0,0.0,0.0,0.0
1513267356580291733,,727912,,1513267354,758669309,'',1.60570291183,1.62533786592,0.00437113950619,0.0196349540849,0.001,-88.3572933822,4500.0,0.0,0.0,0.0
1513267356590228061,,727913,,1513267354,768669309,'',1.60570291183,1.62533786592,0.00452211262093,0.0196349540849,0.001,-88.3572933822,4500.0,0.0,0.0,0.0
1513267356600153390,,727914,,1513267354,778669309,'',1.60570291183,1.62533786592,0.00460477296619,0.0196349540849,0.001,-88.3572933822,4500.0,0.0,0.0,0.0
1513267356610151198,,727915,,1513267354,788669309,'',1.60570291183,1.62397432744,-0.0217512664982,0.0182714156068,0.001,-82.2213702307,4500.0,0.0,0.0,0.0
1513267356620106483,,727916,,1513267354,798669309,'',1.60570291183,1.62397432744,-0.0197872455528,0.0182714156068,0.001,-82.2213702307,4500.0,0.0,0.0,0.0
1513267356629991419,,727917,,1513267354,808669309,'',1.60570291183,1.62397432744,-0.0191076683049,0.0182714156068,0.001,-82.2213702307,4500.0,0.0,0.0,0.0
1513267356640363803,,727918,,1513267354,818669309,'',1.60570291183,1.62261078896,-0.0460441297588,0.0169078771287,0.001,-76.0854470791,4500.0,0.0,0.0,0.0
1513267356650281153,,727919,,1513267354,828669309,'',1.60570291183,1.62533786592,0.00891273049214,0.0196349540849,0.001,-88.3572933822,4500.0,0.0,0.0,0.0
1513267356660378190,,727920,,1513267354,838669309,'',1.60570291183,1.62533786592,0.00932905276973,0.0196349540849,0.001,-88.3572933822,4500.0,0.0,0.0,0.0
1513267356670314723,,727921,,1513267354,848669309,'',1.60570291183,1.62397432744,-0.0179442587472,0.0182714156068,0.001,-82.2213702307,4500.0,0.0,0.0,0.0
1513267356680222632,,727922,,1513267354,858669309,'',1.60570291183,1.62533786592,0.00885684515679,0.0196349540849,0.001,-88.3572933822,4500.0,0.0,0.0,0.0
1513267356690194991,,727923,,1513267354,868669309,'',1.60570291183,1.62397432744,-0.0182548843703,0.0182714156068,0.001,-82.2213702307,4500.0,0.0,0.0,0.0
1513267356700202284,,727924,,1513267354,878669309,'',1.60570291183,1.62397432744,-0.0189172768855,0.0182714156068,0.001,-82.2213702307,4500.0,0.0,0.0,0.0
1513267356710435479,,727925,,1513267354,888669309,'',1.60570291183,1.62397432744,-0.0204567222396,0.0182714156068,0.001,-82.2213702307,4500.0,0.0,0.0,0.0
1513267356720382381,,727926,,1513267354,898669309,'',1.60570291183,1.62533786592,0.00630105004384,0.0196349540849,0.001,-88.3572933822,4500.0,0.0,0.0,0.0
1513267356730379159,,727927,,1513267354,908669309,'',1.60570291183,1.62533786592,0.00615308316716,0.0196349540849,0.001,-88.3572933822,4500.0,0.0,0.0,0.0
1513267356740225665,,727928,,1513267354,918669309,'',1.60570291183,1.62533786592,0.00707694469732,0.0196349540849,0.001,-88.3572933822,4500.0,0.0,0.0,0.0
1513267356750156304,,727929,,1513267354,928669309,'',1.60570291183,1.62533786592,0.00833423723065,0.0196349540849,0.001,-88.3572933822,4500.0,0.0,0.0,0.0
1513267356760479773,,727930,,1513267354,938669309,'',1.60570291183,1.62533786592,0.00778225560455,0.0196349540849,0.001,-88.3572933822,4500.0,0.0,0.0,0.0
1513267356770270369,,727931,,1513267354,948669309,'',1.60570291183,1.62533786592,0.00743972914203,0.0196349540849,0.001,-88.3572933822,4500.0,0.0,0.0,0.0
1513267356780448240,,727932,,1513267354,958669309,'',1.60570291183,1.62533786592,0.00754000728298,0.0196349540849,0.001,-88.3572933822,4500.0,0.0,0.0,0.0
1513267356790317090,,727933,,1513267354,968669309,'',1.60570291183,1.62533786592,0.00714965989203,0.0196349540849,0.001,-88.3572933822,4500.0,0.0,0.0,0.0
1513267356800226250,,727934,,1513267354,978669309,'',1.60570291183,1.62397432744,-0.019732890339,0.0182714156068,0.001,-82.2213702307,4500.0,0.0,0.0,0.0
1513267356810112389,,727935,,1513267354,988669309,'',1.60570291183,1.62533786592,0.00595357409457,0.0196349540849,0.001,-88.3572933822,4500.0,0.0,0.0,0.0
1513267356820244911,,727936,,1513267354,998669309,'',1.60570291183,1.62533786592,0.00579833741297,0.0196349540849,0.001,-88.3572933822,4500.0,0.0,0.0,0.0
1513267356830051546,,727937,,1513267355,8669309,'',1.60570291183,1.62533786592,0.00528367697402,0.0196349540849,0.001,-88.3572933822,4500.0,0.0,0.0,0.0
1513267356840596177,,727938,,1513267355,18669309,'',1.60570291183,1.62533786592,0.00482860258808,0.0196349540849,0.001,-88.3572933822,4500.0,0.0,0.0,0.0
1513267356850320607,,727939,,1513267355,28669309,'',1.60570291183,1.62397432744,-0.0229673188023,0.0182714156068,0.001,-82.2213702307,4500.0,0.0,0.0,0.0
1513267356860513685,,727940,,1513267355,38669309,'',1.60570291183,1.62533786592,0.00479334887549,0.0196349540849,0.001,-88.3572933822,4500.0,0.0,0.0,0.0
1513267356870351284,,727941,,1513267355,48669309,'',1.60570291183,1.62397432744,-0.020566708595,0.0182714156068,0.001,-82.2213702307,4500.0,0.0,0.0,0.0
1513267356880201068,,727942,,1513267355,58669309,'',1.60570291183,1.62533786592,0.00661807412609,0.0196349540849,0.001,-88.3572933822,4500.0,0.0,0.0,0.0
1513267356890143004,,727943,,1513267355,68669309,'',1.60570291183,1.62533786592,0.00740927711583,0.0196349540849,0.001,-88.3572933822,4500.0,0.0,0.0,0.0
1513267356900130594,,727944,,1513267355,78669309,'',1.60570291183,1.6267014044,0.0335692831009,0.0209984925631,0.001,-94.4932165338,4500.0,0.0,0.0,0.0
1513267356910334909,,727945,,1513267355,88669309,'',1.60570291183,1.62533786592,0.00481366145749,0.0196349540849,0.001,-88.3572933822,4500.0,0.0,0.0,0.0
1513267356920224552,,727946,,1513267355,98669309,'',1.60570291183,1.62533786592,0.00539359854118,0.0196349540849,0.001,-88.3572933822,4500.0,0.0,0.0,0.0
1513267356930047188,,727947,,1513267355,108669309,'',1.60570291183,1.62533786592,0.00636851674731,0.0196349540849,0.001,-88.3572933822,4500.0,0.0,0.0,0.0
1513267356940504263,,727948,,1513267355,118669309,'',1.60570291183,1.62533786592,0.00660730696024,0.0196349540849,0.001,-88.3572933822,4500.0,0.0,0.0,0.0
1513267356950484188,,727949,,1513267355,128669309,'',1.60570291183,1.62533786592,0.00496454336657,0.0196349540849,0.001,-88.3572933822,4500.0,0.0,0.0,0.0
1513267356960356376,,727950,,1513267355,138669309,'',1.60570291183,1.62533786592,0.00557382891189,0.0196349540849,0.001,-88.3572933822,4500.0,0.0,0.0,0.0
1513267356970219887,,727951,,1513267355,148669309,'',1.60570291183,1.62533786592,0.00510204203347,0.0196349540849,0.001,-88.3572933822,4500.0,0.0,0.0,0.0
1513267356980148420,,727952,,1513267355,158669309,'',1.60570291183,1.62533786592,0.00415823407788,0.0196349540849,0.001,-88.3572933822,4500.0,0.0,0.0,0.0
1513267356990046944,,727953,,1513267355,168669309,'',1.60570291183,1.62533786592,0.00438230959781,0.0196349540849,0.001,-88.3572933822,4500.0,0.0,0.0,0.0
1513267357000155070,,727954,,1513267355,178669309,'',1.60570291183,1.62533786592,0.00450671192459,0.0196349540849,0.001,-88.3572933822,4500.0,0.0,0.0,0.0
1513267357010153867,,727955,,1513267355,188669309,'',1.60570291183,1.62533786592,0.00464607908323,0.0196349540849,0.001,-88.3572933822,4500.0,0.0,0.0,0.0
1513267357020479989,,727956,,1513267355,198669309,'',1.60570291183,1.62533786592,0.00477940754632,0.0196349540849,0.001,-88.3572933822,4500.0,0.0,0.0,0.0
1513267357030436072,,727957,,1513267355,208669309,'',1.60570291183,1.6267014044,0.0298888622925,0.0209984925631,0.001,-94.4932165338,4500.0,0.0,0.0,0.0
1513267357040202042,,727958,,1513267355,218669309,'',1.60570291183,1.62397432744,-0.0259619555252,0.0182714156068,0.001,-82.2213702307,4500.0,0.0,0.0,0.0
1513267357050192392,,727959,,1513267355,228669309,'',1.60570291183,1.62533786592,0.000295747919318,0.0196349540849,0.001,-88.3572933822,4500.0,0.0,0.0,0.0
1513267357060225356,,727960,,1513267355,238669309,'',1.60570291183,1.62533786592,-0.000683349575148,0.0196349540849,0.001,-88.3572933822,4500.0,0.0,0.0,0.0
1513267357070300214,,727961,,1513267355,248669309,'',1.60570291183,1.6267014044,0.0259527701736,0.0209984925631,0.001,-94.4932165338,4500.0,0.0,0.0,0.0
1513267357080302445,,727962,,1513267355,258669309,'',1.60570291183,1.62533786592,-0.000305018911741,0.0196349540849,0.001,-88.3572933822,4500.0,0.0,0.0,0.0
1513267357090133701,,727963,,1513267355,268669309,'',1.60570291183,1.62533786592,0.000276725922127,0.0196349540849,0.001,-88.3572933822,4500.0,0.0,0.0,0.0
1513267357100175384,,727964,,1513267355,278669309,'',1.60570291183,1.62533786592,-0.000265657846815,0.0196349540849,0.001,-88.3572933822,4500.0,0.0,0.0,0.0
1513267357110070926,,727965,,1513267355,288669309,'',1.60570291183,1.62533786592,-0.00163634957562,0.0196349540849,0.001,-88.3572933822,4500.0,0.0,0.0,0.0
1513267357120027031,,727966,,1513267355,298669309,'',1.60570291183,1.62397432744,-0.0288300302588,0.0182714156068,0.001,-82.2213702307,4500.0,0.0,0.0,0.0
1513267357130016438,,727967,,1513267355,308669309,'',1.60570291183,1.6267014044,0.0249784095024,0.0209984925631,0.001,-94.4932165338,4500.0,0.0,0.0,0.0
1513267357140444539,,727968,,1513267355,318669309,'',1.60570291183,1.62533786592,-0.00158244092788,0.0196349540849,0.001,-88.3572933822,4500.0,0.0,0.0,0.0
1513267357150268659,,727969,,1513267355,328669309,'',1.60570291183,1.62533786592,0.000690122006686,0.0196349540849,0.001,-88.3572933822,4500.0,0.0,0.0,0.0
1513267357160271947,,727970,,1513267355,338669309,'',1.60570291183,1.62397432744,-0.0254264972442,0.0182714156068,0.001,-82.2213702307,4500.0,0.0,0.0,0.0
1513267357170023940,,727971,,1513267355,348669309,'',1.60570291183,1.62533786592,0.00173717357073,0.0196349540849,0.001,-88.3572933822,4500.0,0.0,0.0,0.0
1513267357180588062,,727972,,1513267355,358669309,'',1.60570291183,1.62533786592,0.00380578089913,0.0196349540849,0.001,-88.3572933822,4500.0,0.0,0.0,0.0
1513267357190487537,,727973,,1513267355,368669309,'',1.60570291183,1.62533786592,0.00452750858883,0.0196349540849,0.001,-88.3572933822,4500.0,0.0,0.0,0.0
1513267357200446286,,727974,,1513267355,378669309,'',1.60570291183,1.62397432744,-0.0237836505125,0.0182714156068,0.001,-82.2213702307,4500.0,0.0,0.0,0.0
1513267357210302085,,727975,,1513267355,388669309,'',1.60570291183,1.62261078896,-0.0494818436077,0.0169078771287,0.001,-76.0854470791,4500.0,0.0,0.0,0.0
1513267357220304201,,727976,,1513267355,398669309,'',1.60570291183,1.62533786592,0.00505219884451,0.0196349540849,0.001,-88.3572933822,4500.0,0.0,0.0,0.0
1513267357230196667,,727977,,1513267355,408669309,'',1.60570291183,1.62533786592,0.00415645642175,0.0196349540849,0.001,-88.3572933822,4500.0,0.0,0.0,0.0
1513267357240106779,,727978,,1513267355,418669309,'',1.60570291183,1.62533786592,0.00482646817488,0.0196349540849,0.001,-88.3572933822,4500.0,0.0,0.0,0.0
1513267357250035820,,727979,,1513267355,428669309,'',1.60570291183,1.62533786592,0.00442797619689,0.0196349540849,0.001,-88.3572933822,4500.0,0.0,0.0,0.0
1513267357260522806,,727980,,1513267355,438669309,'',1.60570291183,1.6267014044,0.0325675287207,0.0209984925631,0.001,-94.4932165338,4500.0,0.0,0.0,0.0
1513267357270439932,,727981,,1513267355,448669309,'',1.60570291183,1.62533786592,0.00510744315239,0.0196349540849,0.001,-88.3572933822,4500.0,0.0,0.0,0.0
1513267357280384283,,727982,,1513267355,458669309,'',1.60570291183,1.62397432744,-0.0233388317386,0.0182714156068,0.001,-82.2213702307,4500.0,0.0,0.0,0.0
1513267357290326107,,727983,,1513267355,468669309,'',1.60570291183,1.62533786592,0.00384781919134,0.0196349540849,0.001,-88.3572933822,4500.0,0.0,0.0,0.0
1513267357300420916,,727984,,1513267355,478669309,'',1.60570291183,1.62533786592,0.00410227145437,0.0196349540849,0.001,-88.3572933822,4500.0,0.0,0.0,0.0
1513267357310398348,,727985,,1513267355,488669309,'',1.60570291183,1.62397432744,-0.0226317291158,0.0182714156068,0.001,-82.2213702307,4500.0,0.0,0.0,0.0
1513267357320096630,,727986,,1513267355,498669309,'',1.60570291183,1.62397432744,-0.0215118398147,0.0182714156068,0.001,-82.2213702307,4500.0,0.0,0.0,0.0
1513267357330334218,,727987,,1513267355,508669309,'',1.60570291183,1.62533786592,0.00596562443624,0.0196349540849,0.001,-88.3572933822,4500.0,0.0,0.0,0.0
1513267357340154904,,727988,,1513267355,518669309,'',1.60570291183,1.62397432744,-0.0205964273344,0.0182714156068,0.001,-82.2213702307,4500.0,0.0,0.0,0.0
1513267357350629424,,727989,,1513267355,528669309,'',1.60570291183,1.6267014044,0.033712316504,0.0209984925631,0.001,-94.4932165338,4500.0,0.0,0.0,0.0
1513267357360424980,,727990,,1513267355,538669309,'',1.60570291183,1.62533786592,0.00746648233872,0.0196349540849,0.001,-88.3572933822,4500.0,0.0,0.0,0.0
