rosbagTimestamp,header,seq,stamp,secs,nsecs,frame_id,set_point,process_value,process_value_dot,error,time_step,command,p,i,d,i_clamp
1513267267218686931,,718978,,1513267265,398669309,'',0.261799387799,0.263588542097,0.00190459082735,0.0,0.001,0.0,-6500.0,0.0,-300.0,0.0
1513267267228664238,,718979,,1513267265,408669309,'',0.261799387799,0.2635713951,0.00224739228995,0.0,0.001,0.0,-6500.0,0.0,-300.0,0.0
1513267267238732842,,718980,,1513267265,418669309,'',0.261799387799,0.263591650807,0.00183890436551,0.0,0.001,0.0,-6500.0,0.0,-300.0,0.0
1513267267248600362,,718981,,1513267265,428669309,'',0.261799387799,0.263592422663,0.0208493400557,0.0,0.001,0.0,-6500.0,0.0,-300.0,0.0
1513267267258625088,,718982,,1513267265,438669309,'',0.261799387799,0.263608783677,0.001493997021,0.0,0.001,0.0,-6500.0,0.0,-300.0,0.0
1513267267268583000,,718983,,1513267265,448669309,'',0.261799387799,0.263587535445,0.00192637470665,0.0,0.001,0.0,-6500.0,0.0,-300.0,0.0
1513267267278467327,,718984,,1513267265,458669309,'',0.261799387799,0.263604819905,0.00157699451621,0.0,0.001,0.0,-6500.0,0.0,-300.0,0.0
1513267267288452013,,718985,,1513267265,468669309,'',0.261799387799,0.26361896954,0.00129098025196,0.0,0.001,0.0,-6500.0,0.0,-300.0,0.0
1513267267298358831,,718986,,1513267265,478669309,'',0.261799387799,0.263630530959,0.00105728300659,0.0,0.001,0.0,-6500.0,0.0,-300.0,0.0
1513267267308243018,,718987,,1513267265,488669309,'',0.261799387799,0.263605775682,0.00155709606214,0.0,0.001,0.0,-6500.0,0.0,-300.0,0.0
1513267267318655482,,718988,,1513267265,498669309,'',0.261799387799,0.263583864949,-0.0170245470979,0.0,0.001,0.0,-6500.0,0.0,-300.0,0.0
1513267267328642127,,718989,,1513267265,508669309,'',0.261799387799,0.263565458442,-0.0166517596408,0.0,0.001,0.0,-6500.0,0.0,-300.0,0.0
1513267267338637456,,718990,,1513267265,518669309,'',0.261799387799,0.263586704772,0.00194432985428,0.0,0.001,0.0,-6500.0,0.0,-300.0,0.0
1513267267348597726,,718991,,1513267265,528669309,'',0.261799387799,0.263586505298,0.00194799269316,0.0,0.001,0.0,-6500.0,0.0,-300.0,0.0
1513267267358643180,,718992,,1513267265,538669309,'',0.261799387799,0.263586680069,0.0019476084754,0.0,0.001,0.0,-6500.0,0.0,-300.0,0.0
1513267267368544672,,718993,,1513267265,548669309,'',0.261799387799,0.26358784946,0.00192322847477,0.0,0.001,0.0,-6500.0,0.0,-300.0,0.0
1513267267378466450,,718994,,1513267265,558669309,'',0.261799387799,0.263502396182,0.00363998989652,0.0,0.001,0.0,-6500.0,0.0,-300.0,0.0
1513267267388526877,,718995,,1513267265,568669309,'',0.261799387799,0.263535131224,0.0029796322938,0.0,0.001,0.0,-6500.0,0.0,-300.0,0.0
1513267267398503738,,718996,,1513267265,578669309,'',0.261799387799,0.263545244541,0.00277543497619,0.0,0.001,0.0,-6500.0,0.0,-300.0,0.0
1513267267408408275,,718997,,1513267265,588669309,'',0.261799387799,0.263553912659,0.00260093079511,0.0,0.001,0.0,-6500.0,0.0,-300.0,0.0
1513267267418812392,,718998,,1513267265,598669309,'',0.261799387799,0.263560715459,0.00246139191748,0.0,0.001,0.0,-6500.0,0.0,-300.0,0.0
1513267267428719832,,718999,,1513267265,608669309,'',0.261799387799,0.263549516905,0.00269136521704,0.0,0.001,0.0,-6500.0,0.0,-300.0,0.0
1513267267438769139,,719000,,1513267265,618669309,'',0.261799387799,0.263554918569,-0.0164428355294,0.0,0.001,0.0,-6500.0,0.0,-300.0,0.0
1513267267448274727,,719001,,1513267265,628669309,'',0.261799387799,0.263561182351,0.00246118113533,0.0,0.001,0.0,-6500.0,0.0,-300.0,0.0
1513267267458732671,,719002,,1513267265,638669309,'',0.261799387799,0.263583244485,0.00201484330669,0.0,0.001,0.0,-6500.0,0.0,-300.0,0.0
1513267267468582940,,719003,,1513267265,648669309,'',0.261799387799,0.263601310292,0.00164935494063,0.0,0.001,0.0,-6500.0,0.0,-300.0,0.0
1513267267478564079,,719004,,1513267265,658669309,'',0.261799387799,0.263616091362,0.00135031992353,0.0,0.001,0.0,-6500.0,0.0,-300.0,0.0
1513267267488461648,,719005,,1513267265,668669309,'',0.261799387799,0.263611578631,0.0014409403259,0.0,0.001,0.0,-6500.0,0.0,-300.0,0.0
1513267267498783463,,719006,,1513267265,678669309,'',0.261799387799,0.263624474636,0.0011801643709,0.0,0.001,0.0,-6500.0,0.0,-300.0,0.0
1513267267508678903,,719007,,1513267265,688669309,'',0.261799387799,0.263601127682,0.00165229183685,0.0,0.001,0.0,-6500.0,0.0,-300.0,0.0
1513267267518609315,,719008,,1513267265,698669309,'',0.261799387799,0.263615945687,0.00135264694678,0.0,0.001,0.0,-6500.0,0.0,-300.0,0.0
1513267267528695848,,719009,,1513267265,708669309,'',0.261799387799,0.263577627648,0.00212043080701,0.0,0.001,0.0,-6500.0,0.0,-300.0,0.0
1513267267538581293,,719010,,1513267265,718669309,'',0.261799387799,0.263579031185,0.00209298402422,0.0,0.001,0.0,-6500.0,0.0,-300.0,0.0
1513267267548563314,,719011,,1513267265,728669309,'',0.261799387799,0.263579870121,0.0020804542555,0.0,0.001,0.0,-6500.0,0.0,-300.0,0.0
1513267267558425118,,719012,,1513267265,738669309,'',0.261799387799,0.263565997461,0.00236065558696,0.0,0.001,0.0,-6500.0,0.0,-300.0,0.0
1513267267568404237,,719013,,1513267265,748669309,'',0.261799387799,0.263569884573,0.00227838833545,0.0,0.001,0.0,-6500.0,0.0,-300.0,0.0
1513267267578424575,,719014,,1513267265,758669309,'',0.261799387799,0.263555335095,-0.0164514743348,0.0,0.001,0.0,-6500.0,0.0,-300.0,0.0
1513267267588385702,,719015,,1513267265,768669309,'',0.261799387799,0.263562521167,0.00242679428044,0.0,0.001,0.0,-6500.0,0.0,-300.0,0.0
1513267267598523811,,719016,,1513267265,778669309,'',0.261799387799,0.263550706756,0.00266200338155,0.0,0.001,0.0,-6500.0,0.0,-300.0,0.0
1513267267608304341,,719017,,1513267265,788669309,'',0.261799387799,0.263556007348,0.00255227193266,0.0,0.001,0.0,-6500.0,0.0,-300.0,0.0
1513267267618406203,,719018,,1513267265,798669309,'',0.261799387799,0.263578953995,0.00209050095135,0.0,0.001,0.0,-6500.0,0.0,-300.0,0.0
1513267267628413840,,719019,,1513267265,808669309,'',0.261799387799,0.26358203549,0.00202529024437,0.0,0.001,0.0,-6500.0,0.0,-300.0,0.0
1513267267638728292,,719020,,1513267265,818669309,'',0.261799387799,0.263566097991,0.00235320664325,0.0,0.001,0.0,-6500.0,0.0,-300.0,0.0
1513267267648756431,,719021,,1513267265,828669309,'',0.261799387799,0.263567819159,0.00231485854773,0.0,0.001,0.0,-6500.0,0.0,-300.0,0.0
1513267267658505577,,719022,,1513267265,838669309,'',0.261799387799,0.263571362102,0.00224784795702,0.0,0.001,0.0,-6500.0,0.0,-300.0,0.0
1513267267668488235,,719023,,1513267265,848669309,'',0.261799387799,0.263541911867,0.00283828226846,0.0,0.001,0.0,-6500.0,0.0,-300.0,0.0
1513267267678509006,,719024,,1513267265,858669309,'',0.261799387799,0.263549118554,0.00269016502267,0.0,0.001,0.0,-6500.0,0.0,-300.0,0.0
1513267267688357286,,719025,,1513267265,868669309,'',0.261799387799,0.263557084757,0.00252790416827,0.0,0.001,0.0,-6500.0,0.0,-300.0,0.0
1513267267698759214,,719026,,1513267265,878669309,'',0.261799387799,0.263562473984,-0.0166036960102,0.0,0.001,0.0,-6500.0,0.0,-300.0,0.0
1513267267708803210,,719027,,1513267265,888669309,'',0.261799387799,0.263566244452,0.00234699499058,0.0,0.001,0.0,-6500.0,0.0,-300.0,0.0
1513267267718552549,,719028,,1513267265,898669309,'',0.261799387799,0.263587396305,0.00192120919731,0.0,0.001,0.0,-6500.0,0.0,-300.0,0.0
1513267267728478194,,719029,,1513267265,908669309,'',0.261799387799,0.263570148602,0.00227462982249,0.0,0.001,0.0,-6500.0,0.0,-300.0,0.0
1513267267738429676,,719030,,1513267265,918669309,'',0.261799387799,0.263554661748,-0.016432562668,0.0,0.001,0.0,-6500.0,0.0,-300.0,0.0
1513267267748446519,,719031,,1513267265,928669309,'',0.261799387799,0.263559312959,0.00248798601892,0.0,0.001,0.0,-6500.0,0.0,-300.0,0.0
1513267267758511266,,719032,,1513267265,938669309,'',0.261799387799,0.263581711698,0.00203683565736,0.0,0.001,0.0,-6500.0,0.0,-300.0,0.0
1513267267768542203,,719033,,1513267265,948669309,'',0.261799387799,0.263600052786,0.00166741357984,0.0,0.001,0.0,-6500.0,0.0,-300.0,0.0
1513267267778454597,,719034,,1513267265,958669309,'',0.261799387799,0.263582054975,0.00202698229503,0.0,0.001,0.0,-6500.0,0.0,-300.0,0.0
1513267267788399141,,719035,,1513267265,968669309,'',0.261799387799,0.263567427973,0.00232427726697,0.0,0.001,0.0,-6500.0,0.0,-300.0,0.0
1513267267798519728,,719036,,1513267265,978669309,'',0.261799387799,0.263539465584,0.00288708423301,0.0,0.001,0.0,-6500.0,0.0,-300.0,0.0
1513267267808764707,,719037,,1513267265,988669309,'',0.261799387799,0.263547811378,0.00272338214499,0.0,0.001,0.0,-6500.0,0.0,-300.0,0.0
1513267267818667544,,719038,,1513267265,998669309,'',0.261799387799,0.263572307312,0.00222931316247,0.0,0.001,0.0,-6500.0,0.0,-300.0,0.0
1513267267828568647,,719039,,1513267266,8669309,'',0.261799387799,0.263575068765,0.00218311011826,0.0,0.001,0.0,-6500.0,0.0,-300.0,0.0
1513267267838534198,,719040,,1513267266,18669309,'',0.261799387799,0.263578772722,0.00210103489945,0.0,0.001,0.0,-6500.0,0.0,-300.0,0.0
1513267267848340527,,719041,,1513267266,28669309,'',0.261799387799,0.263581649263,0.00204192278189,0.0,0.001,0.0,-6500.0,0.0,-300.0,0.0
1513267267858314068,,719042,,1513267266,38669309,'',0.261799387799,0.263566258832,0.00235185199389,0.0,0.001,0.0,-6500.0,0.0,-300.0,0.0
1513267267868655890,,719043,,1513267266,48669309,'',0.261799387799,0.263587402161,0.00192530439924,0.0,0.001,0.0,-6500.0,0.0,-300.0,0.0
1513267267878422759,,719044,,1513267266,58669309,'',0.261799387799,0.263569266158,-0.0167365391056,0.0,0.001,0.0,-6500.0,0.0,-300.0,0.0
1513267267888604422,,719045,,1513267266,68669309,'',0.261799387799,0.263572233884,0.00223417671171,0.0,0.001,0.0,-6500.0,0.0,-300.0,0.0
1513267267898548485,,719046,,1513267266,78669309,'',0.261799387799,0.263608201309,0.001510401704,0.0,0.001,0.0,-6500.0,0.0,-300.0,0.0
1513267267908388303,,719047,,1513267266,88669309,'',0.261799387799,0.263604807584,0.00158232530813,0.0,0.001,0.0,-6500.0,0.0,-300.0,0.0
1513267267918508364,,719048,,1513267266,98669309,'',0.261799387799,0.263618928682,0.00129596821101,0.0,0.001,0.0,-6500.0,0.0,-300.0,0.0
1513267267928556880,,719049,,1513267266,108669309,'',0.261799387799,0.263581006922,0.00206432214503,0.0,0.001,0.0,-6500.0,0.0,-300.0,0.0
1513267267938602671,,719050,,1513267266,118669309,'',0.261799387799,0.263564725671,-0.0166374435621,0.0,0.001,0.0,-6500.0,0.0,-300.0,0.0
1513267267948460520,,719051,,1513267266,128669309,'',0.261799387799,0.263586148909,0.0019548613476,0.0,0.001,0.0,-6500.0,0.0,-300.0,0.0
1513267267958420957,,719052,,1513267266,138669309,'',0.261799387799,0.263603645578,0.00160110843945,0.0,0.001,0.0,-6500.0,0.0,-300.0,0.0
1513267267968347596,,719053,,1513267266,148669309,'',0.261799387799,0.263601710954,0.0016399243789,0.0,0.001,0.0,-6500.0,0.0,-300.0,0.0
1513267267978662398,,719054,,1513267266,158669309,'',0.261799387799,0.263600439017,0.00166466719621,0.0,0.001,0.0,-6500.0,0.0,-300.0,0.0
1513267267988654011,,719055,,1513267266,168669309,'',0.261799387799,0.263563200294,0.00240812648836,0.0,0.001,0.0,-6500.0,0.0,-300.0,0.0
1513267267998430478,,719056,,1513267266,178669309,'',0.261799387799,0.263532456522,-0.0159885211788,0.0,0.001,0.0,-6500.0,0.0,-300.0,0.0
1513267268008390438,,719057,,1513267266,188669309,'',0.261799387799,0.263542768238,0.00282875179414,0.0,0.001,0.0,-6500.0,0.0,-300.0,0.0
1513267268018415899,,719058,,1513267266,198669309,'',0.261799387799,0.263568169791,0.00231575463377,0.0,0.001,0.0,-6500.0,0.0,-300.0,0.0
1513267268028359104,,719059,,1513267266,208669309,'',0.261799387799,0.263570576036,-0.0167538256001,0.0,0.001,0.0,-6500.0,0.0,-300.0,0.0
1513267268038298384,,719060,,1513267266,218669309,'',0.261799387799,0.263607229819,0.00153082610053,0.0,0.001,0.0,-6500.0,0.0,-300.0,0.0
1513267268048775811,,719061,,1513267266,228669309,'',0.261799387799,0.263605281753,0.00156861640325,0.0,0.001,0.0,-6500.0,0.0,-300.0,0.0
1513267268058640641,,719062,,1513267266,238669309,'',0.261799387799,0.263619318554,0.00128470960835,0.0,0.001,0.0,-6500.0,0.0,-300.0,0.0
1513267268068598140,,719063,,1513267266,248669309,'',0.261799387799,0.263613018779,0.00141619338668,0.0,0.001,0.0,-6500.0,0.0,-300.0,0.0
1513267268078390919,,719064,,1513267266,258669309,'',0.261799387799,0.263557031001,-0.0164832228313,0.0,0.001,0.0,-6500.0,0.0,-300.0,0.0
1513267268088678345,,719065,,1513267266,268669309,'',0.261799387799,0.263563224535,0.00241691641228,0.0,0.001,0.0,-6500.0,0.0,-300.0,0.0
1513267268098469323,,719066,,1513267266,278669309,'',0.261799387799,0.263566163964,-0.0166677677368,0.0,0.001,0.0,-6500.0,0.0,-300.0,0.0
1513267268108363645,,719067,,1513267266,288669309,'',0.261799387799,0.263571000761,0.00225988251373,0.0,0.001,0.0,-6500.0,0.0,-300.0,0.0
1513267268118334193,,719068,,1513267266,298669309,'',0.261799387799,0.263590610955,0.0018672108406,0.0,0.001,0.0,-6500.0,0.0,-300.0,0.0
1513267268128465401,,719069,,1513267266,308669309,'',0.261799387799,0.26360733006,0.00152871407564,0.0,0.001,0.0,-6500.0,0.0,-300.0,0.0
1513267268138841904,,719070,,1513267266,318669309,'',0.261799387799,0.263602281847,-0.0173949809137,0.0,0.001,0.0,-6500.0,0.0,-300.0,0.0
1513267268148282914,,719071,,1513267266,328669309,'',0.261799387799,0.263616924508,0.00132825779584,0.0,0.001,0.0,-6500.0,0.0,-300.0,0.0
1513267268158801884,,719072,,1513267266,338669309,'',0.261799387799,0.263628850719,0.0010879213884,0.0,0.001,0.0,-6500.0,0.0,-300.0,0.0
1513267268168751524,,719073,,1513267266,348669309,'',0.261799387799,0.263638641965,0.000890608695001,0.0,0.001,0.0,-6500.0,0.0,-300.0,0.0
1513267268178655434,,719074,,1513267266,358669309,'',0.261799387799,0.263646656025,0.000729109763085,0.0,0.001,0.0,-6500.0,0.0,-300.0,0.0
1513267268188465264,,719075,,1513267266,368669309,'',0.261799387799,0.263634836463,0.000968093040068,0.0,0.001,0.0,-6500.0,0.0,-300.0,0.0
1513267268198445403,,719076,,1513267266,378669309,'',0.261799387799,0.263643524852,0.000792860960752,0.0,0.001,0.0,-6500.0,0.0,-300.0,0.0
1513267268208335336,,719077,,1513267266,388669309,'',0.261799387799,0.263616999021,0.00132834515783,0.0,0.001,0.0,-6500.0,0.0,-300.0,0.0
1513267268218361272,,719078,,1513267266,398669309,'',0.261799387799,0.263630681376,0.0200765933586,0.0,0.001,0.0,-6500.0,0.0,-300.0,0.0
1513267268228271928,,719079,,1513267266,408669309,'',0.261799387799,0.263624382676,0.00117656922167,0.0,0.001,0.0,-6500.0,0.0,-300.0,0.0
1513267268238703530,,719080,,1513267266,418669309,'',0.261799387799,0.263618357361,0.00130246754754,0.0,0.001,0.0,-6500.0,0.0,-300.0,0.0
1513267268248664566,,719081,,1513267266,428669309,'',0.261799387799,0.263580767602,0.00206132090414,0.0,0.001,0.0,-6500.0,0.0,-300.0,0.0
1513267268258584715,,719082,,1513267266,438669309,'',0.261799387799,0.263580925673,0.00205807468976,0.0,0.001,0.0,-6500.0,0.0,-300.0,0.0
1513267268268439521,,719083,,1513267266,448669309,'',0.261799387799,0.263599414097,0.00168470407418,0.0,0.001,0.0,-6500.0,0.0,-300.0,0.0
1513267268278350099,,719084,,1513267266,458669309,'',0.261799387799,0.263614507358,0.00137989820942,0.0,0.001,0.0,-6500.0,0.0,-300.0,0.0
1513267268288286942,,719085,,1513267266,468669309,'',0.261799387799,0.263575999222,0.00214622319675,0.0,0.001,0.0,-6500.0,0.0,-300.0,0.0
1513267268298362798,,719086,,1513267266,478669309,'',0.261799387799,0.263559435769,0.00248724797473,0.0,0.001,0.0,-6500.0,0.0,-300.0,0.0
1513267268308313445,,719087,,1513267266,488669309,'',0.261799387799,0.263581818501,0.00203610522418,0.0,0.001,0.0,-6500.0,0.0,-300.0,0.0
1513267268318714448,,719088,,1513267266,498669309,'',0.261799387799,0.263581710558,0.00203516970936,0.0,0.001,0.0,-6500.0,0.0,-300.0,0.0
1513267268328738318,,719089,,1513267266,508669309,'',0.261799387799,0.263582405783,0.00202667314604,0.0,0.001,0.0,-6500.0,0.0,-300.0,0.0
1513267268338547257,,719090,,1513267266,518669309,'',0.261799387799,0.263584724918,0.00198071996502,0.0,0.001,0.0,-6500.0,0.0,-300.0,0.0
1513267268348426658,,719091,,1513267266,528669309,'',0.261799387799,0.263585615482,0.00196370680667,0.0,0.001,0.0,-6500.0,0.0,-300.0,0.0
1513267268358389299,,719092,,1513267266,538669309,'',0.261799387799,0.263603243226,0.00160765547068,0.0,0.001,0.0,-6500.0,0.0,-300.0,0.0
1513267268368463735,,719093,,1513267266,548669309,'',0.261799387799,0.263583711328,-0.0170148498797,0.0,0.001,0.0,-6500.0,0.0,-300.0,0.0
1513267268378723052,,719094,,1513267266,558669309,'',0.261799387799,0.263586015126,0.00196659729448,0.0,0.001,0.0,-6500.0,0.0,-300.0,0.0
1513267268388713326,,719095,,1513267266,568669309,'',0.261799387799,0.263603572298,0.00160998348154,0.0,0.001,0.0,-6500.0,0.0,-300.0,0.0
1513267268398698168,,719096,,1513267266,578669309,'',0.261799387799,0.263635107624,0.000973580421492,0.0,0.001,0.0,-6500.0,0.0,-300.0,0.0
1513267268408644984,,719097,,1513267266,588669309,'',0.261799387799,0.263609628653,-0.0175400244727,0.0,0.001,0.0,-6500.0,0.0,-300.0,0.0
1513267268418551094,,719098,,1513267266,598669309,'',0.261799387799,0.263606977905,0.00153810482477,0.0,0.001,0.0,-6500.0,0.0,-300.0,0.0
1513267268428568597,,719099,,1513267266,608669309,'',0.261799387799,0.263585805585,0.00196126567321,0.0,0.001,0.0,-6500.0,0.0,-300.0,0.0
1513267268438429747,,719100,,1513267266,618669309,'',0.261799387799,0.263586069113,0.00195139610339,0.0,0.001,0.0,-6500.0,0.0,-300.0,0.0
1513267268448380051,,719101,,1513267266,628669309,'',0.261799387799,0.263587857219,0.0019111750187,0.0,0.001,0.0,-6500.0,0.0,-300.0,0.0
1513267268458798389,,719102,,1513267266,638669309,'',0.261799387799,0.26360583303,0.00155388185193,0.0,0.001,0.0,-6500.0,0.0,-300.0,0.0
1513267268468766008,,719103,,1513267266,648669309,'',0.261799387799,0.263619798918,0.00127205945493,0.0,0.001,0.0,-6500.0,0.0,-300.0,0.0
1513267268478533117,,719104,,1513267266,658669309,'',0.261799387799,0.263631231859,0.00104135025122,0.0,0.001,0.0,-6500.0,0.0,-300.0,0.0
1513267268488280961,,719105,,1513267266,668669309,'',0.261799387799,0.263640573717,0.000852837735417,0.0,0.001,0.0,-6500.0,0.0,-300.0,0.0
1513267268498651324,,719106,,1513267266,678669309,'',0.261799387799,0.263630569308,0.00105461542807,0.0,0.001,0.0,-6500.0,0.0,-300.0,0.0
1513267268508614007,,719107,,1513267266,688669309,'',0.261799387799,0.263623111617,0.00120571788977,0.0,0.001,0.0,-6500.0,0.0,-300.0,0.0
1513267268518677587,,719108,,1513267266,698669309,'',0.261799387799,0.263633943745,0.000987040835672,0.0,0.001,0.0,-6500.0,0.0,-300.0,0.0
1513267268528515886,,719109,,1513267266,708669309,'',0.261799387799,0.263626173062,0.00114738179164,0.0,0.001,0.0,-6500.0,0.0,-300.0,0.0
1513267268538526631,,719110,,1513267266,718669309,'',0.261799387799,0.26361915663,0.00128848218259,0.0,0.001,0.0,-6500.0,0.0,-300.0,0.0
1513267268548545254,,719111,,1513267266,728669309,'',0.261799387799,0.26361503289,0.00137067201359,0.0,0.001,0.0,-6500.0,0.0,-300.0,0.0
1513267268558532040,,719112,,1513267266,738669309,'',0.261799387799,0.263627305875,0.00112257012972,0.0,0.001,0.0,-6500.0,0.0,-300.0,0.0
1513267268568522748,,719113,,1513267266,748669309,'',0.261799387799,0.263620751047,0.00125114850159,0.0,0.001,0.0,-6500.0,0.0,-300.0,0.0
1513267268578460149,,719114,,1513267266,758669309,'',0.261799387799,0.263615400796,0.001356085481,0.0,0.001,0.0,-6500.0,0.0,-300.0,0.0
1513267268588337271,,719115,,1513267266,768669309,'',0.261799387799,0.263627629304,0.00111017910484,0.0,0.001,0.0,-6500.0,0.0,-300.0,0.0
1513267268598796816,,719116,,1513267266,778669309,'',0.261799387799,0.263620362175,0.00126144920415,0.0,0.001,0.0,-6500.0,0.0,-300.0,0.0
1513267268608807941,,719117,,1513267266,788669309,'',0.261799387799,0.263631693204,0.00103265942232,0.0,0.001,0.0,-6500.0,0.0,-300.0,0.0
1513267268618723310,,719118,,1513267266,798669309,'',0.261799387799,0.263624059282,0.00119135390596,0.0,0.001,0.0,-6500.0,0.0,-300.0,0.0
1513267268628761111,,719119,,1513267266,808669309,'',0.261799387799,0.263602140932,0.0016294639101,0.0,0.001,0.0,-6500.0,0.0,-300.0,0.0
1513267268638637928,,719120,,1513267266,818669309,'',0.261799387799,0.263582583959,0.00203285127295,0.0,0.001,0.0,-6500.0,0.0,-300.0,0.0
1513267268648484050,,719121,,1513267266,828669309,'',0.261799387799,0.263582154047,-0.0169835689899,0.0,0.001,0.0,-6500.0,0.0,-300.0,0.0
1513267268658393193,,719122,,1513267266,838669309,'',0.261799387799,0.263583442094,0.0020106155576,0.0,0.001,0.0,-6500.0,0.0,-300.0,0.0
1513267268668780830,,719123,,1513267266,848669309,'',0.261799387799,0.263568133494,0.00232235791447,0.0,0.001,0.0,-6500.0,0.0,-300.0,0.0
1513267268678742847,,719124,,1513267266,858669309,'',0.261799387799,0.26357198113,0.00224382845919,0.0,0.001,0.0,-6500.0,0.0,-300.0,0.0
1513267268688730170,,719125,,1513267266,868669309,'',0.261799387799,0.263573264809,-0.01680885629,0.0,0.001,0.0,-6500.0,0.0,-300.0,0.0
1513267268698520220,,719126,,1513267266,878669309,'',0.261799387799,0.263557104257,-0.0164783561838,0.0,0.001,0.0,-6500.0,0.0,-300.0,0.0
1513267268708345144,,719127,,1513267266,888669309,'',0.261799387799,0.263545946771,0.00277068776189,0.0,0.001,0.0,-6500.0,0.0,-300.0,0.0
1513267268718342643,,719128,,1513267266,898669309,'',0.261799387799,0.263555007685,0.00258477830047,0.0,0.001,0.0,-6500.0,0.0,-300.0,0.0
1513267268728305522,,719129,,1513267266,908669309,'',0.261799387799,0.263578202076,0.00211577375895,0.0,0.001,0.0,-6500.0,0.0,-300.0,0.0
1513267268738683902,,719130,,1513267266,918669309,'',0.261799387799,0.263581521545,0.00205170733336,0.0,0.001,0.0,-6500.0,0.0,-300.0,0.0
1513267268748605116,,719131,,1513267266,928669309,'',0.261799387799,0.263599901868,0.0016794918672,0.0,0.001,0.0,-6500.0,0.0,-300.0,0.0
1513267268758515638,,719132,,1513267266,938669309,'',0.261799387799,0.263614943471,0.0013748879984,0.0,0.001,0.0,-6500.0,0.0,-300.0,0.0
1513267268768513643,,719133,,1513267266,948669309,'',0.261799387799,0.263627255968,0.00112555059083,0.0,0.001,0.0,-6500.0,0.0,-300.0,0.0
1513267268778464063,,719134,,1513267266,958669309,'',0.261799387799,0.263637319306,0.000921760376797,0.0,0.001,0.0,-6500.0,0.0,-300.0,0.0
1513267268788436327,,719135,,1513267266,968669309,'',0.261799387799,0.263645573033,0.000754616138807,0.0,0.001,0.0,-6500.0,0.0,-300.0,0.0
1513267268798349458,,719136,,1513267266,978669309,'',0.261799387799,0.263634313389,0.000981413833142,0.0,0.001,0.0,-6500.0,0.0,-300.0,0.0
1513267268808353847,,719137,,1513267266,988669309,'',0.261799387799,0.263661504257,0.000436523345521,0.0,0.001,0.0,-6500.0,0.0,-300.0,0.0
1513267268818807108,,719138,,1513267266,998669309,'',0.261799387799,0.263648763669,0.000689510545728,0.0,0.001,0.0,-6500.0,0.0,-300.0,0.0
1513267268828617014,,719139,,1513267267,8669309,'',0.261799387799,0.263654943901,0.000564445539224,0.0,0.001,0.0,-6500.0,0.0,-300.0,0.0
1513267268838515398,,719140,,1513267267,18669309,'',0.261799387799,0.263641429144,-0.0181902433245,0.0,0.001,0.0,-6500.0,0.0,-300.0,0.0
1513267268848551956,,719141,,1513267267,28669309,'',0.261799387799,0.263648935688,0.000683458131331,0.0,0.001,0.0,-6500.0,0.0,-300.0,0.0
1513267268858427399,,719142,,1513267267,38669309,'',0.261799387799,0.263586586882,-0.0170693372042,0.0,0.001,0.0,-6500.0,0.0,-300.0,0.0
1513267268868347460,,719143,,1513267267,48669309,'',0.261799387799,0.263587032634,0.00194427255835,0.0,0.001,0.0,-6500.0,0.0,-300.0,0.0
1513267268878303516,,719144,,1513267267,58669309,'',0.261799387799,0.263604411653,0.00159157798934,0.0,0.001,0.0,-6500.0,0.0,-300.0,0.0
1513267268888747455,,719145,,1513267267,68669309,'',0.261799387799,0.263584590555,0.00198872206023,0.0,0.001,0.0,-6500.0,0.0,-300.0,0.0
1513267268898677467,,719146,,1513267267,78669309,'',0.261799387799,0.263602410654,0.0016280030851,0.0,0.001,0.0,-6500.0,0.0,-300.0,0.0
1513267268908461297,,719147,,1513267267,88669309,'',0.261799387799,0.263600024311,0.00167542872977,0.0,0.001,0.0,-6500.0,0.0,-300.0,0.0
1513267268918564273,,719148,,1513267267,98669309,'',0.261799387799,0.263545549472,0.00276879661955,0.0,0.001,0.0,-6500.0,0.0,-300.0,0.0
1513267268928419117,,719149,,1513267267,108669309,'',0.261799387799,0.263519160787,0.00330286656773,0.0,0.001,0.0,-6500.0,0.0,-300.0,0.0
1513267268938481246,,719150,,1513267267,118669309,'',0.261799387799,0.263513536425,-0.0156037042501,0.0,0.001,0.0,-6500.0,0.0,-300.0,0.0
1513267268948862461,,719151,,1513267267,128669309,'',0.261799387799,0.263509006964,0.00351846657307,0.0,0.001,0.0,-6500.0,0.0,-300.0,0.0
1513267268958693692,,719152,,1513267267,138669309,'',0.261799387799,0.263490562937,0.00388685264535,0.0,0.001,0.0,-6500.0,0.0,-300.0,0.0
1513267268968668440,,719153,,1513267267,148669309,'',0.261799387799,0.263507415687,0.0035496602057,0.0,0.001,0.0,-6500.0,0.0,-300.0,0.0
1513267268978650427,,719154,,1513267267,158669309,'',0.261799387799,0.263488862167,-0.0151022704014,0.0,0.001,0.0,-6500.0,0.0,-300.0,0.0
1513267268988521629,,719155,,1513267267,168669309,'',0.261799387799,0.263487693073,-0.0150784026826,0.0,0.001,0.0,-6500.0,0.0,-300.0,0.0
1513267268998470783,,719156,,1513267267,178669309,'',0.261799387799,0.263523018565,0.00323298487541,0.0,0.001,0.0,-6500.0,0.0,-300.0,0.0
1513267269008410849,,719157,,1513267267,188669309,'',0.261799387799,0.263535065894,0.00298935533987,0.0,0.001,0.0,-6500.0,0.0,-300.0,0.0
1513267269018369191,,719158,,1513267267,198669309,'',0.261799387799,0.26356186889,0.00244713920215,0.0,0.001,0.0,-6500.0,0.0,-300.0,0.0
1513267269028321637,,719159,,1513267267,208669309,'',0.261799387799,0.263547783694,-0.0162901567851,0.0,0.001,0.0,-6500.0,0.0,-300.0,0.0
1513267269038716116,,719160,,1513267267,218669309,'',0.261799387799,0.263539069065,0.00290735324606,0.0,0.001,0.0,-6500.0,0.0,-300.0,0.0
1513267269048701932,,719161,,1513267267,228669309,'',0.261799387799,0.263549426025,0.00269665281211,0.0,0.001,0.0,-6500.0,0.0,-300.0,0.0
1513267269058670339,,719162,,1513267267,238669309,'',0.261799387799,0.263573582678,0.0022083699968,0.0,0.001,0.0,-6500.0,0.0,-300.0,0.0
1513267269068631987,,719163,,1513267267,248669309,'',0.261799387799,0.263558447016,0.00251358802896,0.0,0.001,0.0,-6500.0,0.0,-300.0,0.0
1513267269078487204,,719164,,1513267267,258669309,'',0.261799387799,0.263563042705,0.0024196725184,0.0,0.001,0.0,-6500.0,0.0,-300.0,0.0
1513267269088545480,,719165,,1513267267,268669309,'',0.261799387799,0.263584775411,0.001980701755,0.0,0.001,0.0,-6500.0,0.0,-300.0,0.0
1513267269098815763,,719166,,1513267267,278669309,'',0.261799387799,0.263551644183,0.00264665272881,0.0,0.001,0.0,-6500.0,0.0,-300.0,0.0
1513267269108774172,,719167,,1513267267,288669309,'',0.261799387799,0.263556717244,-0.0164800146581,0.0,0.001,0.0,-6500.0,0.0,-300.0,0.0
1513267269118302383,,719168,,1513267267,298669309,'',0.261799387799,0.263546154297,0.00275435866282,0.0,0.001,0.0,-6500.0,0.0,-300.0,0.0
1513267269128721822,,719169,,1513267267,308669309,'',0.261799387799,0.263554613957,0.00258486575962,0.0,0.001,0.0,-6500.0,0.0,-300.0,0.0
1513267269138631512,,719170,,1513267267,318669309,'',0.261799387799,0.263560222109,0.00247295725589,0.0,0.001,0.0,-6500.0,0.0,-300.0,0.0
1513267269148599514,,719171,,1513267267,328669309,'',0.261799387799,0.263532125437,0.00303624538425,0.0,0.001,0.0,-6500.0,0.0,-300.0,0.0
1513267269158507324,,719172,,1513267267,338669309,'',0.261799387799,0.263506585947,-0.0154733311994,0.0,0.001,0.0,-6500.0,0.0,-300.0,0.0
1513267269168539193,,719173,,1513267267,348669309,'',0.261799387799,0.263469826198,-0.0147262049574,0.0,0.001,0.0,-6500.0,0.0,-300.0,0.0
1513267269178406565,,719174,,1513267267,358669309,'',0.261799387799,0.263456882977,0.00456598942727,0.0,0.001,0.0,-6500.0,0.0,-300.0,0.0
1513267269188379802,,719175,,1513267267,368669309,'',0.261799387799,0.263479522828,0.00410892604048,0.0,0.001,0.0,-6500.0,0.0,-300.0,0.0
1513267269198404379,,719176,,1513267267,378669309,'',0.261799387799,0.263483001633,0.00403225721029,0.0,0.001,0.0,-6500.0,0.0,-300.0,0.0
1513267269208731271,,719177,,1513267267,388669309,'',0.261799387799,0.26346989805,0.00429029382823,0.0,0.001,0.0,-6500.0,0.0,-300.0,0.0
1513267269218801555,,719178,,1513267267,398669309,'',0.261799387799,0.263458592973,0.00451282535431,0.0,0.001,0.0,-6500.0,0.0,-300.0,0.0
1513267269228690521,,719179,,1513267267,408669309,'',0.261799387799,0.263481579739,0.00405083489392,0.0,0.001,0.0,-6500.0,0.0,-300.0,0.0
1513267269238704857,,719180,,1513267267,418669309,'',0.261799387799,0.263465565535,0.00438192612923,0.0,0.001,0.0,-6500.0,0.0,-300.0,0.0
1513267269248537058,,719181,,1513267267,428669309,'',0.261799387799,0.263469332341,-0.0147206484068,0.0,0.001,0.0,-6500.0,0.0,-300.0,0.0
1513267269258546689,,719182,,1513267267,438669309,'',0.261799387799,0.263473356377,-0.0147960054623,0.0,0.001,0.0,-6500.0,0.0,-300.0,0.0
1513267269268508055,,719183,,1513267267,448669309,'',0.261799387799,0.263442403583,-0.0141764250589,0.0,0.001,0.0,-6500.0,0.0,-300.0,0.0
1513267269278428913,,719184,,1513267267,458669309,'',0.261799387799,0.263418965306,0.00532625467564,0.0,0.001,0.0,-6500.0,0.0,-300.0,0.0
1513267269288437283,,719185,,1513267267,468669309,'',0.261799387799,0.263430466223,0.00509487242857,0.0,0.001,0.0,-6500.0,0.0,-300.0,0.0
1513267269298503530,,719186,,1513267267,478669309,'',0.261799387799,0.263476143212,0.00417274200929,0.0,0.001,0.0,-6500.0,0.0,-300.0,0.0
1513267269308701814,,719187,,1513267267,488669309,'',0.261799387799,0.263513624057,0.00341607594321,0.0,0.001,0.0,-6500.0,0.0,-300.0,0.0
1513267269318834340,,719188,,1513267267,498669309,'',0.261799387799,0.263544316223,0.00279646024233,0.0,0.001,0.0,-6500.0,0.0,-300.0,0.0
1513267269328549988,,719189,,1513267267,508669309,'',0.261799387799,0.263518807552,0.00331179189874,0.0,0.001,0.0,-6500.0,0.0,-300.0,0.0
1513267269338638167,,719190,,1513267267,518669309,'',0.261799387799,0.26351422608,0.00340081143648,0.0,0.001,0.0,-6500.0,0.0,-300.0,0.0
1513267269348377370,,719191,,1513267267,528669309,'',0.261799387799,0.263511913907,0.00344856537561,0.0,0.001,0.0,-6500.0,0.0,-300.0,0.0
1513267269358874284,,719192,,1513267267,538669309,'',0.261799387799,0.263526946995,0.00314857567009,0.0,0.001,0.0,-6500.0,0.0,-300.0,0.0
1513267269368778820,,719193,,1513267267,548669309,'',0.261799387799,0.26346621206,-0.0146456216669,0.0,0.001,0.0,-6500.0,0.0,-300.0,0.0
1513267269378800659,,719194,,1513267267,558669309,'',0.261799387799,0.263436576251,0.00497398504258,0.0,0.001,0.0,-6500.0,0.0,-300.0,0.0
1513267269388691730,,719195,,1513267267,568669309,'',0.261799387799,0.263398343272,-0.0132789888753,0.0,0.001,0.0,-6500.0,0.0,-300.0,0.0
1513267269398671770,,719196,,1513267267,578669309,'',0.261799387799,0.263333718183,0.00705243628039,0.0,0.001,0.0,-6500.0,0.0,-300.0,0.0
1513267269408646346,,719197,,1513267267,588669309,'',0.261799387799,0.2633794551,0.00612960896942,0.0,0.001,0.0,-6500.0,0.0,-300.0,0.0
1513267269418592152,,719198,,1513267267,598669309,'',0.261799387799,0.263368344516,0.00635041388614,0.0,0.001,0.0,-6500.0,0.0,-300.0,0.0
1513267269428603706,,719199,,1513267267,608669309,'',0.261799387799,0.263425265028,0.00520104068759,0.0,0.001,0.0,-6500.0,0.0,-300.0,0.0
1513267269438582784,,719200,,1513267267,618669309,'',0.261799387799,0.263472677348,0.00424746456528,0.0,0.001,0.0,-6500.0,0.0,-300.0,0.0
1513267269448606843,,719201,,1513267267,628669309,'',0.261799387799,0.263510782575,0.00347733155566,0.0,0.001,0.0,-6500.0,0.0,-300.0,0.0
1513267269458719457,,719202,,1513267267,638669309,'',0.261799387799,0.26354199618,0.00284648301068,0.0,0.001,0.0,-6500.0,0.0,-300.0,0.0
1513267269468525247,,719203,,1513267267,648669309,'',0.261799387799,0.263567484954,0.00233133723249,0.0,0.001,0.0,-6500.0,0.0,-300.0,0.0
1513267269478806975,,719204,,1513267267,658669309,'',0.261799387799,0.263588415361,0.00190831923143,0.0,0.001,0.0,-6500.0,0.0,-300.0,0.0
1513267269488719227,,719205,,1513267267,668669309,'',0.261799387799,0.263586816407,-0.0170843794633,0.0,0.001,0.0,-6500.0,0.0,-300.0,0.0
1513267269498723927,,719206,,1513267267,678669309,'',0.261799387799,0.263604198285,0.00159043443158,0.0,0.001,0.0,-6500.0,0.0,-300.0,0.0
1513267269508586561,,719207,,1513267267,688669309,'',0.261799387799,0.263582091112,-0.016984575328,0.0,0.001,0.0,-6500.0,0.0,-300.0,0.0
1513267269518774825,,719208,,1513267267,698669309,'',0.261799387799,0.263600366532,0.0016709513619,0.0,0.001,0.0,-6500.0,0.0,-300.0,0.0
1513267269528625871,,719209,,1513267267,708669309,'',0.261799387799,0.263615296813,0.0013684444676,0.0,0.001,0.0,-6500.0,0.0,-300.0,0.0
1513267269538713073,,719210,,1513267267,718669309,'',0.261799387799,0.263627543123,0.00112031833716,0.0,0.001,0.0,-6500.0,0.0,-300.0,0.0
1513267269548491492,,719211,,1513267267,728669309,'',0.261799387799,0.2636202564,0.00126320113063,0.0,0.001,0.0,-6500.0,0.0,-300.0,0.0
1513267269558866981,,719212,,1513267267,738669309,'',0.261799387799,0.263597378328,0.00171097062204,0.0,0.001,0.0,-6500.0,0.0,-300.0,0.0
1513267269568739893,,719213,,1513267267,748669309,'',0.261799387799,0.263612883288,0.00140054401995,0.0,0.001,0.0,-6500.0,0.0,-300.0,0.0
1513267269578650416,,719214,,1513267267,758669309,'',0.261799387799,0.263591650356,0.00182806673753,0.0,0.001,0.0,-6500.0,0.0,-300.0,0.0
1513267269588623306,,719215,,1513267267,768669309,'',0.261799387799,0.263608161451,0.00149705876751,0.0,0.001,0.0,-6500.0,0.0,-300.0,0.0
1513267269598535524,,719216,,1513267267,778669309,'',0.261799387799,0.263603339446,0.00159643640254,0.0,0.001,0.0,-6500.0,0.0,-300.0,0.0
1513267269608395833,,719217,,1513267267,788669309,'',0.261799387799,0.263617762862,0.00130679009213,0.0,0.001,0.0,-6500.0,0.0,-300.0,0.0
1513267269618916225,,719218,,1513267267,798669309,'',0.261799387799,0.263629541447,0.0010702564171,0.0,0.001,0.0,-6500.0,0.0,-300.0,0.0
1513267269628607100,,719219,,1513267267,808669309,'',0.261799387799,0.263623253035,0.00119780110376,0.0,0.001,0.0,-6500.0,0.0,-300.0,0.0
1513267269638433025,,719220,,1513267267,818669309,'',0.261799387799,0.263634059514,0.000980559890875,0.0,0.001,0.0,-6500.0,0.0,-300.0,0.0
1513267269648424067,,719221,,1513267267,828669309,'',0.261799387799,0.263626642568,0.00113158510967,0.0,0.001,0.0,-6500.0,0.0,-300.0,0.0
1513267269658874480,,719222,,1513267267,838669309,'',0.261799387799,0.263602976794,0.00161146646247,0.0,0.001,0.0,-6500.0,0.0,-300.0,0.0
1513267269668810260,,719223,,1513267267,848669309,'',0.261799387799,0.263599078726,0.00169020590497,0.0,0.001,0.0,-6500.0,0.0,-300.0,0.0
1513267269678793998,,719224,,1513267267,858669309,'',0.261799387799,0.26359586716,0.0017513260563,0.0,0.001,0.0,-6500.0,0.0,-300.0,0.0
1513267269688730093,,719225,,1513267267,868669309,'',0.261799387799,0.26361164358,0.00143363233276,0.0,0.001,0.0,-6500.0,0.0,-300.0,0.0
1513267269698683199,,719226,,1513267267,878669309,'',0.261799387799,0.263607320071,0.00152593548057,0.0,0.001,0.0,-6500.0,0.0,-300.0,0.0
1513267269708516558,,719227,,1513267267,888669309,'',0.261799387799,0.263586433441,0.00196021320918,0.0,0.001,0.0,-6500.0,0.0,-300.0,0.0
1513267269718477138,,719228,,1513267267,898669309,'',0.261799387799,0.263586641176,0.0019502329623,0.0,0.001,0.0,-6500.0,0.0,-300.0,0.0
1513267269728532244,,719229,,1513267267,908669309,'',0.261799387799,0.263551870398,-0.0163686283306,0.0,0.001,0.0,-6500.0,0.0,-300.0,0.0
1513267269738549567,,719230,,1513267267,918669309,'',0.261799387799,0.263557574665,0.00253588885643,0.0,0.001,0.0,-6500.0,0.0,-300.0,0.0
1513267269748272847,,719231,,1513267267,928669309,'',0.261799387799,0.263530313018,0.00308211297531,0.0,0.001,0.0,-6500.0,0.0,-300.0,0.0
1513267269758328314,,719232,,1513267267,938669309,'',0.261799387799,0.26354094637,0.00286332672052,0.0,0.001,0.0,-6500.0,0.0,-300.0,0.0
1513267269768270135,,719233,,1513267267,948669309,'',0.261799387799,0.263515096513,0.00338934225235,0.0,0.001,0.0,-6500.0,0.0,-300.0,0.0
1513267269778757830,,719234,,1513267267,958669309,'',0.261799387799,0.26351125553,0.00346300678795,0.0,0.001,0.0,-6500.0,0.0,-300.0,0.0
1513267269788787687,,719235,,1513267267,968669309,'',0.261799387799,0.263526053259,0.00316497165383,0.0,0.001,0.0,-6500.0,0.0,-300.0,0.0
1513267269798833007,,719236,,1513267267,978669309,'',0.261799387799,0.263466672429,-0.0146587411189,0.0,0.001,0.0,-6500.0,0.0,-300.0,0.0
1513267269808728893,,719237,,1513267267,988669309,'',0.261799387799,0.263487894271,0.00393867521599,0.0,0.001,0.0,-6500.0,0.0,-300.0,0.0
1513267269818540108,,719238,,1513267267,998669309,'',0.261799387799,0.263489255617,0.00391170122381,0.0,0.001,0.0,-6500.0,0.0,-300.0,0.0
1513267269828440821,,719239,,1513267268,8669309,'',0.261799387799,0.263508129099,0.00353388444666,0.0,0.001,0.0,-6500.0,0.0,-300.0,0.0
1513267269838432468,,719240,,1513267268,18669309,'',0.261799387799,0.263487048586,-0.0150674446669,0.0,0.001,0.0,-6500.0,0.0,-300.0,0.0
1513267269848507539,,719241,,1513267268,28669309,'',0.261799387799,0.263488333426,0.00392879931294,0.0,0.001,0.0,-6500.0,0.0,-300.0,0.0
1513267269858494860,,719242,,1513267268,38669309,'',0.261799387799,0.263506614394,0.00356061617869,0.0,0.001,0.0,-6500.0,0.0,-300.0,0.0
1513267269868394290,,719243,,1513267268,48669309,'',0.261799387799,0.263538601374,0.00291431091802,0.0,0.001,0.0,-6500.0,0.0,-300.0,0.0
1513267269878885708,,719244,,1513267268,58669309,'',0.261799387799,0.263512171583,0.00345597422387,0.0,0.001,0.0,-6500.0,0.0,-300.0,0.0
1513267269888755497,,719245,,1513267268,68669309,'',0.261799387799,0.263493600309,0.00382933704021,0.0,0.001,0.0,-6500.0,0.0,-300.0,0.0
1513267269898768605,,719246,,1513267268,78669309,'',0.261799387799,0.263494730766,0.00380950327694,0.0,0.001,0.0,-6500.0,0.0,-300.0,0.0
1513267269908703554,,719247,,1513267268,88669309,'',0.261799387799,0.263513405695,0.00343318108073,0.0,0.001,0.0,-6500.0,0.0,-300.0,0.0
1513267269918613049,,719248,,1513267268,98669309,'',0.261799387799,0.263544132177,0.00281057002341,0.0,0.001,0.0,-6500.0,0.0,-300.0,0.0
1513267269928652104,,719249,,1513267268,108669309,'',0.261799387799,0.263569295582,0.00230068364029,0.0,0.001,0.0,-6500.0,0.0,-300.0,0.0
1513267269938431796,,719250,,1513267268,118669309,'',0.261799387799,0.263571862183,0.00225183491899,0.0,0.001,0.0,-6500.0,0.0,-300.0,0.0
1513267269948370694,,719251,,1513267268,128669309,'',0.261799387799,0.263540019344,-0.0161280252316,0.0,0.001,0.0,-6500.0,0.0,-300.0,0.0
1513267269958496658,,719252,,1513267268,138669309,'',0.261799387799,0.263565923872,0.0023726253812,0.0,0.001,0.0,-6500.0,0.0,-300.0,0.0
1513267269968382043,,719253,,1513267268,148669309,'',0.261799387799,0.263554621551,0.00260004887574,0.0,0.001,0.0,-6500.0,0.0,-300.0,0.0
1513267269978374430,,719254,,1513267268,158669309,'',0.261799387799,0.26357782944,0.00212942058697,0.0,0.001,0.0,-6500.0,0.0,-300.0,0.0
1513267269988787006,,719255,,1513267268,168669309,'',0.261799387799,0.263581097759,0.00206002335859,0.0,0.001,0.0,-6500.0,0.0,-300.0,0.0
1513267269998780264,,719256,,1513267268,178669309,'',0.261799387799,0.263565638059,0.00237537495243,0.0,0.001,0.0,-6500.0,0.0,-300.0,0.0
1513267270008735493,,719257,,1513267268,188669309,'',0.261799387799,0.263518327125,0.00332992651483,0.0,0.001,0.0,-6500.0,0.0,-300.0,0.0
1513267270018682973,,719258,,1513267268,198669309,'',0.261799387799,0.263548166237,0.00272593679514,0.0,0.001,0.0,-6500.0,0.0,-300.0,0.0
1513267270028740882,,719259,,1513267268,208669309,'',0.261799387799,0.263572593589,0.0022314894775,0.0,0.001,0.0,-6500.0,0.0,-300.0,0.0
1513267270038572172,,719260,,1513267268,218669309,'',0.261799387799,0.263575237119,0.00218104467377,0.0,0.001,0.0,-6500.0,0.0,-300.0,0.0
1513267270048530030,,719261,,1513267268,228669309,'',0.261799387799,0.263578858058,0.00210787519184,0.0,0.001,0.0,-6500.0,0.0,-300.0,0.0
1513267270058619361,,719262,,1513267268,238669309,'',0.261799387799,0.263597719554,0.00172551103619,0.0,0.001,0.0,-6500.0,0.0,-300.0,0.0
1513267270068302569,,719263,,1513267268,248669309,'',0.261799387799,0.263579504851,0.00208835172313,0.0,0.001,0.0,-6500.0,0.0,-300.0,0.0
1513267270078781938,,719264,,1513267268,258669309,'',0.261799387799,0.263582519951,0.00202654869952,0.0,0.001,0.0,-6500.0,0.0,-300.0,0.0
1513267270088559200,,719265,,1513267268,268669309,'',0.261799387799,0.263600714055,0.00165900028429,0.0,0.001,0.0,-6500.0,0.0,-300.0,0.0
1513267270098523681,,719266,,1513267268,278669309,'',0.261799387799,0.263597223718,0.00172559559202,0.0,0.001,0.0,-6500.0,0.0,-300.0,0.0
1513267270108517021,,719267,,1513267268,288669309,'',0.261799387799,0.263595470489,0.00176194456434,0.0,0.001,0.0,-6500.0,0.0,-300.0,0.0
1513267270118558765,,719268,,1513267268,298669309,'',0.261799387799,0.263611350233,0.00144169202931,0.0,0.001,0.0,-6500.0,0.0,-300.0,0.0
1513267270128291425,,719269,,1513267268,308669309,'',0.261799387799,0.263624288689,0.00118075751248,0.0,0.001,0.0,-6500.0,0.0,-300.0,0.0
1513267270138714183,,719270,,1513267268,318669309,'',0.261799387799,0.26360023511,0.00165914180966,0.0,0.001,0.0,-6500.0,0.0,-300.0,0.0
1513267270148613707,,719271,,1513267268,328669309,'',0.261799387799,0.263583509673,0.00199768339375,0.0,0.001,0.0,-6500.0,0.0,-300.0,0.0
1513267270158571442,,719272,,1513267268,338669309,'',0.261799387799,0.263585314317,-0.0170524376628,0.0,0.001,0.0,-6500.0,0.0,-300.0,0.0
1513267270168550242,,719273,,1513267268,348669309,'',0.261799387799,0.263603000093,0.00161568581746,0.0,0.001,0.0,-6500.0,0.0,-300.0,0.0
1513267270178538946,,719274,,1513267268,358669309,'',0.261799387799,0.263601172684,0.00165225191195,0.0,0.001,0.0,-6500.0,0.0,-300.0,0.0
1513267270188432749,,719275,,1513267268,368669309,'',0.261799387799,0.263582947759,0.00201904892706,0.0,0.001,0.0,-6500.0,0.0,-300.0,0.0
1513267270198415849,,719276,,1513267268,378669309,'',0.261799387799,0.263566592197,-0.0166771588021,0.0,0.001,0.0,-6500.0,0.0,-300.0,0.0
1513267270208366254,,719277,,1513267268,388669309,'',0.261799387799,0.263570692993,0.0022657125799,0.0,0.001,0.0,-6500.0,0.0,-300.0,0.0
1513267270218343613,,719278,,1513267268,398669309,'',0.261799387799,0.263557740427,0.00252372344085,0.0,0.001,0.0,-6500.0,0.0,-300.0,0.0
1513267270228373175,,719279,,1513267268,408669309,'',0.261799387799,0.263513757735,-0.0156163721481,0.0,0.001,0.0,-6500.0,0.0,-300.0,0.0
1513267270238857164,,719280,,1513267268,418669309,'',0.261799387799,0.263528175268,0.00312297156967,0.0,0.001,0.0,-6500.0,0.0,-300.0,0.0
1513267270248730186,,719281,,1513267268,428669309,'',0.261799387799,0.263505050481,0.00359040782929,0.0,0.001,0.0,-6500.0,0.0,-300.0,0.0
1513267270258726554,,719282,,1513267268,438669309,'',0.261799387799,0.263522146168,0.0222605270873,0.0,0.001,0.0,-6500.0,0.0,-300.0,0.0
1513267270268591106,,719283,,1513267268,448669309,'',0.261799387799,0.263536843573,0.00292304557456,0.0,0.001,0.0,-6500.0,0.0,-300.0,0.0
1513267270278534752,,719284,,1513267268,458669309,'',0.261799387799,0.26356332185,0.00239290249493,0.0,0.001,0.0,-6500.0,0.0,-300.0,0.0
1513267270288494936,,719285,,1513267268,468669309,'',0.261799387799,0.263533684953,0.00299089657046,0.0,0.001,0.0,-6500.0,0.0,-300.0,0.0
1513267270298522291,,719286,,1513267268,478669309,'',0.261799387799,0.26350912428,-0.0155251045464,0.0,0.001,0.0,-6500.0,0.0,-300.0,0.0
1513267270308445948,,719287,,1513267268,488669309,'',0.261799387799,0.263540629913,0.00286579448016,0.0,0.001,0.0,-6500.0,0.0,-300.0,0.0
1513267270318444741,,719288,,1513267268,498669309,'',0.261799387799,0.263548032764,0.00271766796374,0.0,0.001,0.0,-6500.0,0.0,-300.0,0.0
1513267270328299934,,719289,,1513267268,508669309,'',0.261799387799,0.263572477485,0.0022248584101,0.0,0.001,0.0,-6500.0,0.0,-300.0,0.0
1513267270338750381,,719290,,1513267268,518669309,'',0.261799387799,0.26354486857,0.00278282258566,0.0,0.001,0.0,-6500.0,0.0,-300.0,0.0
1513267270348694531,,719291,,1513267268,528669309,'',0.261799387799,0.26357192911,0.00224088462365,0.0,0.001,0.0,-6500.0,0.0,-300.0,0.0
1513267270358639147,,719292,,1513267268,538669309,'',0.261799387799,0.263541519727,0.00285960958314,0.0,0.001,0.0,-6500.0,0.0,-300.0,0.0
1513267270368603915,,719293,,1513267268,548669309,'',0.261799387799,0.263518290982,0.00333474160371,0.0,0.001,0.0,-6500.0,0.0,-300.0,0.0
1513267270378400517,,719294,,1513267268,558669309,'',0.261799387799,0.263462543917,0.00445502852403,0.0,0.001,0.0,-6500.0,0.0,-300.0,0.0
1513267270388339209,,719295,,1513267268,568669309,'',0.261799387799,0.263469110331,0.00431346554219,0.0,0.001,0.0,-6500.0,0.0,-300.0,0.0
1513267270398762076,,719296,,1513267268,578669309,'',0.261799387799,0.263456754152,0.00456808592038,0.0,0.001,0.0,-6500.0,0.0,-300.0,0.0
1513267270408620936,,719297,,1513267268,588669309,'',0.261799387799,0.263463138802,0.00443483609391,0.0,0.001,0.0,-6500.0,0.0,-300.0,0.0
1513267270418675734,,719298,,1513267268,598669309,'',0.261799387799,0.263435581408,0.00499622452419,0.0,0.001,0.0,-6500.0,0.0,-300.0,0.0
1513267270428524238,,719299,,1513267268,608669309,'',0.261799387799,0.263447464498,0.00475986928008,0.0,0.001,0.0,-6500.0,0.0,-300.0,0.0
1513267270438497049,,719300,,1513267268,618669309,'',0.261799387799,0.263474431958,0.00421264982367,0.0,0.001,0.0,-6500.0,0.0,-300.0,0.0
1513267270448524774,,719301,,1513267268,628669309,'',0.261799387799,0.2634612263,0.00447808129773,0.0,0.001,0.0,-6500.0,0.0,-300.0,0.0
1513267270458553366,,719302,,1513267268,638669309,'',0.261799387799,0.263398188804,0.00574751053571,0.0,0.001,0.0,-6500.0,0.0,-300.0,0.0
1513267270468516925,,719303,,1513267268,648669309,'',0.261799387799,0.26341515197,0.00540796098522,0.0,0.001,0.0,-6500.0,0.0,-300.0,0.0
1513267270478448946,,719304,,1513267268,658669309,'',0.261799387799,0.263397732253,0.00575058592958,0.0,0.001,0.0,-6500.0,0.0,-300.0,0.0
1513267270488277239,,719305,,1513267268,668669309,'',0.261799387799,0.263413677446,-0.0135910040038,0.0,0.001,0.0,-6500.0,0.0,-300.0,0.0
1513267270498741198,,719306,,1513267268,678669309,'',0.261799387799,0.263429378739,0.00512028336296,0.0,0.001,0.0,-6500.0,0.0,-300.0,0.0
1513267270508720840,,719307,,1513267268,688669309,'',0.261799387799,0.263391701255,0.00587863563242,0.0,0.001,0.0,-6500.0,0.0,-300.0,0.0
1513267270518635831,,719308,,1513267268,698669309,'',0.261799387799,0.263427221336,0.00516511265166,0.0,0.001,0.0,-6500.0,0.0,-300.0,0.0
1513267270528616138,,719309,,1513267268,708669309,'',0.261799387799,0.26343993045,0.00491254491459,0.0,0.001,0.0,-6500.0,0.0,-300.0,0.0
1513267270538560891,,719310,,1513267268,718669309,'',0.261799387799,0.263467711921,0.00435053271976,0.0,0.001,0.0,-6500.0,0.0,-300.0,0.0
1513267270548581011,,719311,,1513267268,728669309,'',0.261799387799,0.263506728376,0.00356149103182,0.0,0.001,0.0,-6500.0,0.0,-300.0,0.0
1513267270558655362,,719312,,1513267268,738669309,'',0.261799387799,0.263520961805,0.00327310255233,0.0,0.001,0.0,-6500.0,0.0,-300.0,0.0
1513267270568585281,,719313,,1513267268,748669309,'',0.261799387799,0.263516098933,0.00336811456416,0.0,0.001,0.0,-6500.0,0.0,-300.0,0.0
1513267270578388967,,719314,,1513267268,758669309,'',0.261799387799,0.263529360207,0.00309990767263,0.0,0.001,0.0,-6500.0,0.0,-300.0,0.0
1513267270588797919,,719315,,1513267268,768669309,'',0.261799387799,0.26352358881,0.00322043916114,0.0,0.001,0.0,-6500.0,0.0,-300.0,0.0
1513267270598782483,,719316,,1513267268,778669309,'',0.261799387799,0.263517902351,0.00333238440672,0.0,0.001,0.0,-6500.0,0.0,-300.0,0.0
1513267270608520247,,719317,,1513267268,788669309,'',0.261799387799,0.263512493607,-0.0155755445191,0.0,0.001,0.0,-6500.0,0.0,-300.0,0.0
1513267270618460358,,719318,,1513267268,798669309,'',0.261799387799,0.263527107868,0.00315610471445,0.0,0.001,0.0,-6500.0,0.0,-300.0,0.0
1513267270628368248,,719319,,1513267268,808669309,'',0.261799387799,0.263521655392,0.00326358077988,0.0,0.001,0.0,-6500.0,0.0,-300.0,0.0
