rosbagTimestamp,header,seq,stamp,secs,nsecs,frame_id,set_point,process_value,process_value_dot,error,time_step,command,p,i,d,i_clamp
1513265011572749980,,493424,,1513265009,796820663,'',1.2217304764,1.19690733067,-0.000450940785333,-0.0248231457218,0.001,106.739526604,4300.0,0.0,0.0,0.0
1513265011582679239,,493425,,1513265009,806820663,'',1.2217304764,1.19690733067,0.000617054954181,-0.0248231457218,0.001,106.739526604,4300.0,0.0,0.0,0.0
1513265011592761138,,493426,,1513265009,816820663,'',1.2217304764,1.19690733067,-3.63099605555e-05,-0.0248231457218,0.001,106.739526604,4300.0,0.0,0.0,0.0
1513265011602783053,,493427,,1513265009,826820663,'',1.2217304764,1.19829495994,0.0284111470156,-0.0234355164579,0.001,100.772720769,4300.0,0.0,0.0,0.0
1513265011612692771,,493428,,1513265009,836820663,'',1.2217304764,1.19690733067,0.00031286015047,-0.0248231457218,0.001,106.739526604,4300.0,0.0,0.0,0.0
1513265011622787107,,493429,,1513265009,846820663,'',1.2217304764,1.19829495994,0.0266594068987,-0.0234355164579,0.001,100.772720769,4300.0,0.0,0.0,0.0
1513265011632708378,,493430,,1513265009,856820663,'',1.2217304764,1.19690733067,-0.000188338493812,-0.0248231457218,0.001,106.739526604,4300.0,0.0,0.0,0.0
1513265011642713898,,493431,,1513265009,866820663,'',1.2217304764,1.19690733067,-0.000686230476693,-0.0248231457218,0.001,106.739526604,4300.0,0.0,0.0,0.0
1513265011652873649,,493432,,1513265009,876820663,'',1.2217304764,1.19690733067,-7.72112780662e-05,-0.0248231457218,0.001,106.739526604,4300.0,0.0,0.0,0.0
1513265011662803366,,493433,,1513265009,886820663,'',1.2217304764,1.19690733067,-7.35001120989e-05,-0.0248231457218,0.001,106.739526604,4300.0,0.0,0.0,0.0
1513265011672754316,,493434,,1513265009,896820663,'',1.2217304764,1.19551970141,-0.0275425392422,-0.0262107749858,0.001,112.706332439,4300.0,0.0,0.0,0.0
1513265011682674687,,493435,,1513265009,906820663,'',1.2217304764,1.19690733067,0.000908985463957,-0.0248231457218,0.001,106.739526604,4300.0,0.0,0.0,0.0
1513265011692756394,,493436,,1513265009,916820663,'',1.2217304764,1.19690733067,0.0017918603994,-0.0248231457218,0.001,106.739526604,4300.0,0.0,0.0,0.0
1513265011702643411,,493437,,1513265009,926820663,'',1.2217304764,1.19829495994,0.02945737666,-0.0234355164579,0.001,100.772720769,4300.0,0.0,0.0,0.0
1513265011712737981,,493438,,1513265009,936820663,'',1.2217304764,1.19690733067,0.00163857096923,-0.0248231457218,0.001,106.739526604,4300.0,0.0,0.0,0.0
1513265011722541326,,493439,,1513265009,946820663,'',1.2217304764,1.19690733067,0.00134211175785,-0.0248231457218,0.001,106.739526604,4300.0,0.0,0.0,0.0
1513265011732483411,,493440,,1513265009,956820663,'',1.2217304764,1.19690733067,0.00211844310686,-0.0248231457218,0.001,106.739526604,4300.0,0.0,0.0,0.0
1513265011742598900,,493441,,1513265009,966820663,'',1.2217304764,1.19551970141,-0.0252752085184,-0.0262107749858,0.001,112.706332439,4300.0,0.0,0.0,0.0
1513265011752823049,,493442,,1513265009,976820663,'',1.2217304764,1.19690733067,0.00274524106697,-0.0248231457218,0.001,106.739526604,4300.0,0.0,0.0,0.0
1513265011762907603,,493443,,1513265009,986820663,'',1.2217304764,1.19551970141,-0.0253094781714,-0.0262107749858,0.001,112.706332439,4300.0,0.0,0.0,0.0
1513265011772618528,,493444,,1513265009,996820663,'',1.2217304764,1.19690733067,0.00223047675458,-0.0248231457218,0.001,106.739526604,4300.0,0.0,0.0,0.0
1513265011782614547,,493445,,1513265010,6820663,'',1.2217304764,1.19829495994,0.0283311132443,-0.0234355164579,0.001,100.772720769,4300.0,0.0,0.0,0.0
1513265011792479525,,493446,,1513265010,16820663,'',1.2217304764,1.19690733067,-0.000289190417536,-0.0248231457218,0.001,106.739526604,4300.0,0.0,0.0,0.0
1513265011802518512,,493447,,1513265010,26820663,'',1.2217304764,1.19690733067,0.000298776054445,-0.0248231457218,0.001,106.739526604,4300.0,0.0,0.0,0.0
1513265011812618363,,493448,,1513265010,36820663,'',1.2217304764,1.19690733067,0.000172587712181,-0.0248231457218,0.001,106.739526604,4300.0,0.0,0.0,0.0
1513265011822808489,,493449,,1513265010,46820663,'',1.2217304764,1.19690733067,-0.000373420797785,-0.0248231457218,0.001,106.739526604,4300.0,0.0,0.0,0.0
1513265011832742701,,493450,,1513265010,56820663,'',1.2217304764,1.19690733067,0.000230544780304,-0.0248231457218,0.001,106.739526604,4300.0,0.0,0.0,0.0
1513265011842749901,,493451,,1513265010,66820663,'',1.2217304764,1.19690733067,-0.00027280716265,-0.0248231457218,0.001,106.739526604,4300.0,0.0,0.0,0.0
1513265011852716009,,493452,,1513265010,76820663,'',1.2217304764,1.19690733067,-0.00117262560831,-0.0248231457218,0.001,106.739526604,4300.0,0.0,0.0,0.0
1513265011862563517,,493453,,1513265010,86820663,'',1.2217304764,1.19690733067,-0.000984659878326,-0.0248231457218,0.001,106.739526604,4300.0,0.0,0.0,0.0
1513265011872576100,,493454,,1513265010,96820663,'',1.2217304764,1.19690733067,-0.000238631218831,-0.0248231457218,0.001,106.739526604,4300.0,0.0,0.0,0.0
1513265011882723540,,493455,,1513265010,106820663,'',1.2217304764,1.19829495994,0.0262183641583,-0.0234355164579,0.001,100.772720769,4300.0,0.0,0.0,0.0
1513265011892729285,,493456,,1513265010,116820663,'',1.2217304764,1.19690733067,-0.000435349691554,-0.0248231457218,0.001,106.739526604,4300.0,0.0,0.0,0.0
1513265011902752147,,493457,,1513265010,126820663,'',1.2217304764,1.19690733067,-0.00081704236292,-0.0248231457218,0.001,106.739526604,4300.0,0.0,0.0,0.0
1513265011912747008,,493458,,1513265010,136820663,'',1.2217304764,1.19690733067,-0.00117664329262,-0.0248231457218,0.001,106.739526604,4300.0,0.0,0.0,0.0
1513265011922661486,,493459,,1513265010,146820663,'',1.2217304764,1.19829495994,0.0254782308574,-0.0234355164579,0.001,100.772720769,4300.0,0.0,0.0,0.0
1513265011932615959,,493460,,1513265010,156820663,'',1.2217304764,1.19690733067,-0.000604235608336,-0.0248231457218,0.001,106.739526604,4300.0,0.0,0.0,0.0
1513265011942637940,,493461,,1513265010,166820663,'',1.2217304764,1.19551970141,-0.0285215109222,-0.0262107749858,0.001,112.706332439,4300.0,0.0,0.0,0.0
1513265011952598597,,493462,,1513265010,176820663,'',1.2217304764,1.19690733067,-0.000977878130358,-0.0248231457218,0.001,106.739526604,4300.0,0.0,0.0,0.0
1513265011962582960,,493463,,1513265010,186820663,'',1.2217304764,1.19690733067,-0.00231829974645,-0.0248231457218,0.001,106.739526604,4300.0,0.0,0.0,0.0
1513265011972536301,,493464,,1513265010,196820663,'',1.2217304764,1.19829495994,0.0265595602449,-0.0234355164579,0.001,100.772720769,4300.0,0.0,0.0,0.0
1513265011982505701,,493465,,1513265010,206820663,'',1.2217304764,1.19690733067,-0.000709693041553,-0.0248231457218,0.001,106.739526604,4300.0,0.0,0.0,0.0
1513265011992597072,,493466,,1513265010,216820663,'',1.2217304764,1.19829495994,0.0263851961781,-0.0234355164579,0.001,100.772720769,4300.0,0.0,0.0,0.0
1513265012002781611,,493467,,1513265010,226820663,'',1.2217304764,1.19690733067,-0.00136495921345,-0.0248231457218,0.001,106.739526604,4300.0,0.0,0.0,0.0
1513265012012747506,,493468,,1513265010,236820663,'',1.2217304764,1.19690733067,-0.00111733182446,-0.0248231457218,0.001,106.739526604,4300.0,0.0,0.0,0.0
1513265012022778418,,493469,,1513265010,246820663,'',1.2217304764,1.19690733067,-0.000414176978907,-0.0248231457218,0.001,106.739526604,4300.0,0.0,0.0,0.0
1513265012032764404,,493470,,1513265010,256820663,'',1.2217304764,1.19690733067,0.00115616564922,-0.0248231457218,0.001,106.739526604,4300.0,0.0,0.0,0.0
1513265012042646132,,493471,,1513265010,266820663,'',1.2217304764,1.19690733067,0.00287183258471,-0.0248231457218,0.001,106.739526604,4300.0,0.0,0.0,0.0
1513265012052534700,,493472,,1513265010,276820663,'',1.2217304764,1.19829495994,0.0293134211596,-0.0234355164579,0.001,100.772720769,4300.0,0.0,0.0,0.0
1513265012062632438,,493473,,1513265010,286820663,'',1.2217304764,1.19690733067,0.00106167829127,-0.0248231457218,0.001,106.739526604,4300.0,0.0,0.0,0.0
1513265012072550477,,493474,,1513265010,296820663,'',1.2217304764,1.19690733067,-0.000595001165779,-0.0248231457218,0.001,106.739526604,4300.0,0.0,0.0,0.0
1513265012082546267,,493475,,1513265010,306820663,'',1.2217304764,1.19551970141,-0.0279247462205,-0.0262107749858,0.001,112.706332439,4300.0,0.0,0.0,0.0
1513265012092930718,,493476,,1513265010,316820663,'',1.2217304764,1.19690733067,0.000610247799074,-0.0248231457218,0.001,106.739526604,4300.0,0.0,0.0,0.0
1513265012102850895,,493477,,1513265010,326820663,'',1.2217304764,1.19690733067,-4.19968898763e-05,-0.0248231457218,0.001,106.739526604,4300.0,0.0,0.0,0.0
1513265012112938927,,493478,,1513265010,336820663,'',1.2217304764,1.19829495994,0.0279069879331,-0.0234355164579,0.001,100.772720769,4300.0,0.0,0.0,0.0
1513265012122808019,,493479,,1513265010,346820663,'',1.2217304764,1.19690733067,0.00089990074401,-0.0248231457218,0.001,106.739526604,4300.0,0.0,0.0,0.0
1513265012132511074,,493480,,1513265010,356820663,'',1.2217304764,1.19829495994,0.0287019962869,-0.0234355164579,0.001,100.772720769,4300.0,0.0,0.0,0.0
1513265012142450880,,493481,,1513265010,366820663,'',1.2217304764,1.19690733067,-0.000578122034379,-0.0248231457218,0.001,106.739526604,4300.0,0.0,0.0,0.0
1513265012152796209,,493482,,1513265010,376820663,'',1.2217304764,1.19690733067,-0.00141881390934,-0.0248231457218,0.001,106.739526604,4300.0,0.0,0.0,0.0
1513265012162626545,,493483,,1513265010,386820663,'',1.2217304764,1.19690733067,-0.00211827078012,-0.0248231457218,0.001,106.739526604,4300.0,0.0,0.0,0.0
1513265012172553727,,493484,,1513265010,396820663,'',1.2217304764,1.19690733067,-0.00178288626746,-0.0248231457218,0.001,106.739526604,4300.0,0.0,0.0,0.0
1513265012182372603,,493485,,1513265010,406820663,'',1.2217304764,1.19690733067,7.17831561423e-05,-0.0248231457218,0.001,106.739526604,4300.0,0.0,0.0,0.0
1513265012192428272,,493486,,1513265010,416820663,'',1.2217304764,1.19690733067,-0.000900789186806,-0.0248231457218,0.001,106.739526604,4300.0,0.0,0.0,0.0
1513265012202894352,,493487,,1513265010,426820663,'',1.2217304764,1.19690733067,-0.00115590866245,-0.0248231457218,0.001,106.739526604,4300.0,0.0,0.0,0.0
1513265012212820476,,493488,,1513265010,436820663,'',1.2217304764,1.19690733067,-0.00151916196038,-0.0248231457218,0.001,106.739526604,4300.0,0.0,0.0,0.0
1513265012222823983,,493489,,1513265010,446820663,'',1.2217304764,1.19690733067,-0.000286191361474,-0.0248231457218,0.001,106.739526604,4300.0,0.0,0.0,0.0
1513265012232761163,,493490,,1513265010,456820663,'',1.2217304764,1.19690733067,-0.00029644163789,-0.0248231457218,0.001,106.739526604,4300.0,0.0,0.0,0.0
1513265012242755418,,493491,,1513265010,466820663,'',1.2217304764,1.19690733067,-0.000799170473068,-0.0248231457218,0.001,106.739526604,4300.0,0.0,0.0,0.0
1513265012252456143,,493492,,1513265010,476820663,'',1.2217304764,1.19690733067,-0.000654502157767,-0.0248231457218,0.001,106.739526604,4300.0,0.0,0.0,0.0
1513265012262891904,,493493,,1513265010,486820663,'',1.2217304764,1.19690733067,-0.000572291658893,-0.0248231457218,0.001,106.739526604,4300.0,0.0,0.0,0.0
1513265012272852348,,493494,,1513265010,496820663,'',1.2217304764,1.19690733067,-0.00197996392702,-0.0248231457218,0.001,106.739526604,4300.0,0.0,0.0,0.0
1513265012282782842,,493495,,1513265010,506820663,'',1.2217304764,1.19551970141,-0.0291013367479,-0.0262107749858,0.001,112.706332439,4300.0,0.0,0.0,0.0
1513265012292754759,,493496,,1513265010,516820663,'',1.2217304764,1.19690733067,-0.00181898073391,-0.0248231457218,0.001,106.739526604,4300.0,0.0,0.0,0.0
1513265012302514800,,493497,,1513265010,526820663,'',1.2217304764,1.19690733067,-0.00103884180638,-0.0248231457218,0.001,106.739526604,4300.0,0.0,0.0,0.0
1513265012312847697,,493498,,1513265010,536820663,'',1.2217304764,1.19690733067,-0.000850398073236,-0.0248231457218,0.001,106.739526604,4300.0,0.0,0.0,0.0
1513265012322900959,,493499,,1513265010,546820663,'',1.2217304764,1.19690733067,-0.00122027891218,-0.0248231457218,0.001,106.739526604,4300.0,0.0,0.0,0.0
1513265012332778949,,493500,,1513265010,556820663,'',1.2217304764,1.19690733067,-0.000962918759022,-0.0248231457218,0.001,106.739526604,4300.0,0.0,0.0,0.0
1513265012342780439,,493501,,1513265010,566820663,'',1.2217304764,1.19690733067,0.000216016022308,-0.0248231457218,0.001,106.739526604,4300.0,0.0,0.0,0.0
1513265012352765658,,493502,,1513265010,576820663,'',1.2217304764,1.19690733067,0.00166130771738,-0.0248231457218,0.001,106.739526604,4300.0,0.0,0.0,0.0
1513265012362702620,,493503,,1513265010,586820663,'',1.2217304764,1.19829495994,0.0277940991368,-0.0234355164579,0.001,100.772720769,4300.0,0.0,0.0,0.0
1513265012372528706,,493504,,1513265010,596820663,'',1.2217304764,1.19690733067,-0.00118785379869,-0.0248231457218,0.001,106.739526604,4300.0,0.0,0.0,0.0
1513265012382434427,,493505,,1513265010,606820663,'',1.2217304764,1.19551970141,-0.0273778419607,-0.0262107749858,0.001,112.706332439,4300.0,0.0,0.0,0.0
1513265012392841204,,493506,,1513265010,616820663,'',1.2217304764,1.19690733067,0.000553559211179,-0.0248231457218,0.001,106.739526604,4300.0,0.0,0.0,0.0
1513265012402632276,,493507,,1513265010,626820663,'',1.2217304764,1.19690733067,0.00145018927247,-0.0248231457218,0.001,106.739526604,4300.0,0.0,0.0,0.0
1513265012412554084,,493508,,1513265010,636820663,'',1.2217304764,1.19690733067,0.00224376726492,-0.0248231457218,0.001,106.739526604,4300.0,0.0,0.0,0.0
1513265012422442479,,493509,,1513265010,646820663,'',1.2217304764,1.19690733067,0.00284723727655,-0.0248231457218,0.001,106.739526604,4300.0,0.0,0.0,0.0
1513265012432409679,,493510,,1513265010,656820663,'',1.2217304764,1.19690733067,0.00284529433994,-0.0248231457218,0.001,106.739526604,4300.0,0.0,0.0,0.0
1513265012442420446,,493511,,1513265010,666820663,'',1.2217304764,1.19551970141,-0.0246780480881,-0.0262107749858,0.001,112.706332439,4300.0,0.0,0.0,0.0
1513265012452899015,,493512,,1513265010,676820663,'',1.2217304764,1.19690733067,0.00421611443829,-0.0248231457218,0.001,106.739526604,4300.0,0.0,0.0,0.0
1513265012462811360,,493513,,1513265010,686820663,'',1.2217304764,1.19690733067,0.00297366870376,-0.0248231457218,0.001,106.739526604,4300.0,0.0,0.0,0.0
1513265012472670842,,493514,,1513265010,696820663,'',1.2217304764,1.19551970141,-0.0240160224599,-0.0262107749858,0.001,112.706332439,4300.0,0.0,0.0,0.0
1513265012482602427,,493515,,1513265010,706820663,'',1.2217304764,1.19690733067,0.00383196944586,-0.0248231457218,0.001,106.739526604,4300.0,0.0,0.0,0.0
1513265012492519272,,493516,,1513265010,716820663,'',1.2217304764,1.19690733067,0.00365243042563,-0.0248231457218,0.001,106.739526604,4300.0,0.0,0.0,0.0
1513265012502873559,,493517,,1513265010,726820663,'',1.2217304764,1.19690733067,0.00347004913678,-0.0248231457218,0.001,106.739526604,4300.0,0.0,0.0,0.0
1513265012512851492,,493518,,1513265010,736820663,'',1.2217304764,1.19690733067,0.00237099305597,-0.0248231457218,0.001,106.739526604,4300.0,0.0,0.0,0.0
1513265012522700035,,493519,,1513265010,746820663,'',1.2217304764,1.19690733067,0.00198829504957,-0.0248231457218,0.001,106.739526604,4300.0,0.0,0.0,0.0
1513265012532842286,,493520,,1513265010,756820663,'',1.2217304764,1.19690733067,0.00157683050333,-0.0248231457218,0.001,106.739526604,4300.0,0.0,0.0,0.0
1513265012542797806,,493521,,1513265010,766820663,'',1.2217304764,1.19551970141,-0.0251622553512,-0.0262107749858,0.001,112.706332439,4300.0,0.0,0.0,0.0
1513265012552677220,,493522,,1513265010,776820663,'',1.2217304764,1.19690733067,0.0038514509601,-0.0248231457218,0.001,106.739526604,4300.0,0.0,0.0,0.0
1513265012562534725,,493523,,1513265010,786820663,'',1.2217304764,1.19690733067,0.00418327767925,-0.0248231457218,0.001,106.739526604,4300.0,0.0,0.0,0.0
1513265012572751303,,493524,,1513265010,796820663,'',1.2217304764,1.19829495994,0.0309071067565,-0.0234355164579,0.001,100.772720769,4300.0,0.0,0.0,0.0
1513265012582554885,,493525,,1513265010,806820663,'',1.2217304764,1.19690733067,0.00289856735731,-0.0248231457218,0.001,106.739526604,4300.0,0.0,0.0,0.0
1513265012592569677,,493526,,1513265010,816820663,'',1.2217304764,1.19690733067,0.00237286381074,-0.0248231457218,0.001,106.739526604,4300.0,0.0,0.0,0.0
1513265012602804156,,493527,,1513265010,826820663,'',1.2217304764,1.19551970141,-0.0250391586811,-0.0262107749858,0.001,112.706332439,4300.0,0.0,0.0,0.0
1513265012612793707,,493528,,1513265010,836820663,'',1.2217304764,1.19690733067,0.00340094330769,-0.0248231457218,0.001,106.739526604,4300.0,0.0,0.0,0.0
1513265012622758555,,493529,,1513265010,846820663,'',1.2217304764,1.19690733067,0.00191250869323,-0.0248231457218,0.001,106.739526604,4300.0,0.0,0.0,0.0
1513265012632631017,,493530,,1513265010,856820663,'',1.2217304764,1.19690733067,0.000996935021621,-0.0248231457218,0.001,106.739526604,4300.0,0.0,0.0,0.0
1513265012642631873,,493531,,1513265010,866820663,'',1.2217304764,1.19690733067,0.00185875967723,-0.0248231457218,0.001,106.739526604,4300.0,0.0,0.0,0.0
1513265012652575992,,493532,,1513265010,876820663,'',1.2217304764,1.19690733067,0.00153220939617,-0.0248231457218,0.001,106.739526604,4300.0,0.0,0.0,0.0
1513265012662598192,,493533,,1513265010,886820663,'',1.2217304764,1.19690733067,0.000217840143043,-0.0248231457218,0.001,106.739526604,4300.0,0.0,0.0,0.0
1513265012672839271,,493534,,1513265010,896820663,'',1.2217304764,1.19690733067,0.00173940487814,-0.0248231457218,0.001,106.739526604,4300.0,0.0,0.0,0.0
1513265012682789556,,493535,,1513265010,906820663,'',1.2217304764,1.19690733067,0.000498052552223,-0.0248231457218,0.001,106.739526604,4300.0,0.0,0.0,0.0
1513265012692814874,,493536,,1513265010,916820663,'',1.2217304764,1.19690733067,-8.21487493581e-05,-0.0248231457218,0.001,106.739526604,4300.0,0.0,0.0,0.0
1513265012702628783,,493537,,1513265010,926820663,'',1.2217304764,1.19690733067,0.000468267908677,-0.0248231457218,0.001,106.739526604,4300.0,0.0,0.0,0.0
1513265012712712884,,493538,,1513265010,936820663,'',1.2217304764,1.19690733067,0.000403713027611,-0.0248231457218,0.001,106.739526604,4300.0,0.0,0.0,0.0
1513265012722692227,,493539,,1513265010,946820663,'',1.2217304764,1.19690733067,-0.000214851759108,-0.0248231457218,0.001,106.739526604,4300.0,0.0,0.0,0.0
1513265012732662537,,493540,,1513265010,956820663,'',1.2217304764,1.19690733067,-0.000701591132386,-0.0248231457218,0.001,106.739526604,4300.0,0.0,0.0,0.0
1513265012742592794,,493541,,1513265010,966820663,'',1.2217304764,1.19690733067,-0.00104897693753,-0.0248231457218,0.001,106.739526604,4300.0,0.0,0.0,0.0
1513265012752613792,,493542,,1513265010,976820663,'',1.2217304764,1.19690733067,-0.00133849570719,-0.0248231457218,0.001,106.739526604,4300.0,0.0,0.0,0.0
1513265012762606250,,493543,,1513265010,986820663,'',1.2217304764,1.19690733067,-0.00217752977144,-0.0248231457218,0.001,106.739526604,4300.0,0.0,0.0,0.0
1513265012772559393,,493544,,1513265010,996820663,'',1.2217304764,1.19551970141,-0.0302473134276,-0.0262107749858,0.001,112.706332439,4300.0,0.0,0.0,0.0
1513265012782533264,,493545,,1513265011,6820663,'',1.2217304764,1.19690733067,-0.00278714963271,-0.0248231457218,0.001,106.739526604,4300.0,0.0,0.0,0.0
1513265012792533192,,493546,,1513265011,16820663,'',1.2217304764,1.19551970141,-0.0297544713534,-0.0262107749858,0.001,112.706332439,4300.0,0.0,0.0,0.0
1513265012802391649,,493547,,1513265011,26820663,'',1.2217304764,1.19829495994,0.0250332990267,-0.0234355164579,0.001,100.772720769,4300.0,0.0,0.0,0.0
1513265012812966359,,493548,,1513265011,36820663,'',1.2217304764,1.19690733067,-0.00237463826908,-0.0248231457218,0.001,106.739526604,4300.0,0.0,0.0,0.0
1513265012822835375,,493549,,1513265011,46820663,'',1.2217304764,1.19690733067,-0.00140845401951,-0.0248231457218,0.001,106.739526604,4300.0,0.0,0.0,0.0
1513265012832691315,,493550,,1513265011,56820663,'',1.2217304764,1.19690733067,-0.00225972422995,-0.0248231457218,0.001,106.739526604,4300.0,0.0,0.0,0.0
1513265012842662679,,493551,,1513265011,66820663,'',1.2217304764,1.19690733067,-0.00295741590333,-0.0248231457218,0.001,106.739526604,4300.0,0.0,0.0,0.0
1513265012852585677,,493552,,1513265011,76820663,'',1.2217304764,1.1996825892,0.047869409458,-0.0220478871939,0.001,94.8059149339,4300.0,0.0,0.0,0.0
1513265012862626482,,493553,,1513265011,86820663,'',1.2217304764,1.1996825892,0.0401709408243,-0.0220478871939,0.001,94.8059149339,4300.0,0.0,0.0,0.0
1513265012872506979,,493554,,1513265011,96820663,'',1.2217304764,1.1996825892,0.0318954464036,-0.0220478871939,0.001,94.8059149339,4300.0,0.0,0.0,0.0
1513265012882494298,,493555,,1513265011,106820663,'',1.2217304764,1.20107021847,0.0510246420098,-0.02066025793,0.001,88.8391090989,4300.0,0.0,0.0,0.0
1513265012892485078,,493556,,1513265011,116820663,'',1.2217304764,1.20107021847,0.0417736589013,-0.02066025793,0.001,88.8391090989,4300.0,0.0,0.0,0.0
1513265012902903422,,493557,,1513265011,126820663,'',1.2217304764,1.20245784773,0.0611548669591,-0.019272628666,0.001,82.8723032639,4300.0,0.0,0.0,0.0
1513265012912870835,,493558,,1513265011,136820663,'',1.2217304764,1.20107021847,0.026111217544,-0.02066025793,0.001,88.8391090989,4300.0,0.0,0.0,0.0
1513265012922671669,,493559,,1513265011,146820663,'',1.2217304764,1.20107021847,0.0192996976508,-0.02066025793,0.001,88.8391090989,4300.0,0.0,0.0,0.0
1513265012932653495,,493560,,1513265011,156820663,'',1.2217304764,1.20245784773,0.0407329145905,-0.019272628666,0.001,82.8723032639,4300.0,0.0,0.0,0.0
1513265012942796624,,493561,,1513265011,166820663,'',1.2217304764,1.20245784773,0.0348231810247,-0.019272628666,0.001,82.8723032639,4300.0,0.0,0.0,0.0
1513265012952694053,,493562,,1513265011,176820663,'',1.2217304764,1.20384547699,0.0533722475726,-0.0178849994021,0.001,76.9054974289,4300.0,0.0,0.0,0.0
1513265012962806885,,493563,,1513265011,186820663,'',1.2217304764,1.20523310626,0.0690820955934,-0.0164973701381,0.001,70.9386915939,4300.0,0.0,0.0,0.0
1513265012972602654,,493564,,1513265011,196820663,'',1.2217304764,1.20523310626,0.057056208148,-0.0164973701381,0.001,70.9386915939,4300.0,0.0,0.0,0.0
1513265012982890464,,493565,,1513265011,206820663,'',1.2217304764,1.20662073552,0.072093477212,-0.0151097408742,0.001,64.9718857589,4300.0,0.0,0.0,0.0
1513265012992967642,,493566,,1513265011,216820663,'',1.2217304764,1.20662073552,0.0579257310632,-0.0151097408742,0.001,64.9718857589,4300.0,0.0,0.0,0.0
1513265013002925470,,493567,,1513265011,226820663,'',1.2217304764,1.20800836479,0.0739130814823,-0.0137221116102,0.001,59.0050799239,4300.0,0.0,0.0,0.0
1513265013012780155,,493568,,1513265011,236820663,'',1.2217304764,1.20800836479,0.0645577054211,-0.0137221116102,0.001,59.0050799239,4300.0,0.0,0.0,0.0
1513265013022888697,,493569,,1513265011,246820663,'',1.2217304764,1.20800836479,0.0533419708884,-0.0137221116102,0.001,59.0050799239,4300.0,0.0,0.0,0.0
1513265013032705993,,493570,,1513265011,256820663,'',1.2217304764,1.20939599405,0.0721154424757,-0.0123344823462,0.001,53.0382740889,4300.0,0.0,0.0,0.0
1513265013042653443,,493571,,1513265011,266820663,'',1.2217304764,1.21078362331,0.0889679466267,-0.0109468530823,0.001,47.0714682539,4300.0,0.0,0.0,0.0
1513265013052552009,,493572,,1513265011,276820663,'',1.2217304764,1.20939599405,0.0478830691839,-0.0123344823462,0.001,53.0382740889,4300.0,0.0,0.0,0.0
1513265013062515082,,493573,,1513265011,286820663,'',1.2217304764,1.21078362331,0.0651814764689,-0.0109468530823,0.001,47.0714682539,4300.0,0.0,0.0,0.0
1513265013072462173,,493574,,1513265011,296820663,'',1.2217304764,1.21078362331,0.0533675203959,-0.0109468530823,0.001,47.0714682539,4300.0,0.0,0.0,0.0
1513265013082448454,,493575,,1513265011,306820663,'',1.2217304764,1.21355888184,0.096562248497,-0.00817159455439,0.001,35.1378565839,4300.0,0.0,0.0,0.0
1513265013092953197,,493576,,1513265011,316820663,'',1.2217304764,1.21355888184,0.0836020145407,-0.00817159455439,0.001,35.1378565839,4300.0,0.0,0.0,0.0
1513265013102866448,,493577,,1513265011,326820663,'',1.2217304764,1.21217125258,0.0414715032742,-0.00955922381834,0.001,41.1046624189,4300.0,0.0,0.0,0.0
1513265013112786229,,493578,,1513265011,336820663,'',1.2217304764,1.21355888184,0.0569103069639,-0.00817159455439,0.001,35.1378565839,4300.0,0.0,0.0,0.0
1513265013122824164,,493579,,1513265011,346820663,'',1.2217304764,1.21494651111,0.071534394795,-0.00678396529044,0.001,29.1710507489,4300.0,0.0,0.0,0.0
1513265013132702865,,493580,,1513265011,356820663,'',1.2217304764,1.21494651111,0.0590264920413,-0.00678396529044,0.001,29.1710507489,4300.0,0.0,0.0,0.0
1513265013142574616,,493581,,1513265011,366820663,'',1.2217304764,1.21494651111,0.0467285151176,-0.00678396529044,0.001,29.1710507489,4300.0,0.0,0.0,0.0
1513265013152596062,,493582,,1513265011,376820663,'',1.2217304764,1.21633414037,0.0627119948312,-0.00539633602648,0.001,23.2042449139,4300.0,0.0,0.0,0.0
1513265013162489329,,493583,,1513265011,386820663,'',1.2217304764,1.21633414037,0.0529055010879,-0.00539633602648,0.001,23.2042449139,4300.0,0.0,0.0,0.0
1513265013172373091,,493584,,1513265011,396820663,'',1.2217304764,1.21633414037,0.0438471864173,-0.00539633602648,0.001,23.2042449139,4300.0,0.0,0.0,0.0
1513265013182414368,,493585,,1513265011,406820663,'',1.2217304764,1.21633414037,0.0339140188439,-0.00539633602648,0.001,23.2042449139,4300.0,0.0,0.0,0.0
1513265013192907020,,493586,,1513265011,416820663,'',1.2217304764,1.21772176963,0.0537472210405,-0.00400870676253,0.001,17.2374390789,4300.0,0.0,0.0,0.0
1513265013202839012,,493587,,1513265011,426820663,'',1.2217304764,1.21772176963,0.0454616404291,-0.00400870676253,0.001,17.2374390789,4300.0,0.0,0.0,0.0
1513265013212869354,,493588,,1513265011,436820663,'',1.2217304764,1.21772176963,0.0376508369102,-0.00400870676253,0.001,17.2374390789,4300.0,0.0,0.0,0.0
1513265013222747376,,493589,,1513265011,446820663,'',1.2217304764,1.2191093989,0.0567046736089,-0.00262107749858,0.001,11.2706332439,4300.0,0.0,0.0,0.0
1513265013232716670,,493590,,1513265011,456820663,'',1.2217304764,1.2191093989,0.048451263236,-0.00262107749858,0.001,11.2706332439,4300.0,0.0,0.0,0.0
1513265013242662416,,493591,,1513265011,466820663,'',1.2217304764,1.21772176963,0.0132430809846,-0.00400870676253,0.001,17.2374390789,4300.0,0.0,0.0,0.0
1513265013252661003,,493592,,1513265011,476820663,'',1.2217304764,1.2191093989,0.0348068111769,-0.00262107749858,0.001,11.2706332439,4300.0,0.0,0.0,0.0
1513265013262475985,,493593,,1513265011,486820663,'',1.2217304764,1.21772176963,0.00303022986856,-0.00400870676253,0.001,17.2374390789,4300.0,0.0,0.0,0.0
1513265013272480278,,493594,,1513265011,496820663,'',1.2217304764,1.2191093989,0.022977010633,-0.00262107749858,0.001,11.2706332439,4300.0,0.0,0.0,0.0
1513265013282484588,,493595,,1513265011,506820663,'',1.2217304764,1.2191093989,0.0168218632923,-0.00262107749858,0.001,11.2706332439,4300.0,0.0,0.0,0.0
1513265013292896019,,493596,,1513265011,516820663,'',1.2217304764,1.22049702816,0.0392162684612,-0.00123344823463,0.001,5.30382740889,4300.0,0.0,0.0,0.0
1513265013302722025,,493597,,1513265011,526820663,'',1.2217304764,1.22049702816,0.035640753054,-0.00123344823463,0.001,5.30382740889,4300.0,0.0,0.0,0.0
1513265013312690968,,493598,,1513265011,536820663,'',1.2217304764,1.22049702816,0.0306020137385,0.0,0.001,0.0,4300.0,0.0,0.0,0.0
1513265013322772088,,493599,,1513265011,546820663,'',1.2217304764,1.22049702816,0.0260188366324,0.0,0.001,0.0,4300.0,0.0,0.0,0.0
1513265013332594287,,493600,,1513265011,556820663,'',1.2217304764,1.22049702816,0.0208226905565,0.0,0.001,0.0,4300.0,0.0,0.0,0.0
1513265013342525238,,493601,,1513265011,566820663,'',1.2217304764,1.22188465743,0.0444314112992,0.0,0.001,0.0,4300.0,0.0,0.0,0.0
1513265013352466413,,493602,,1513265011,576820663,'',1.2217304764,1.22049702816,0.0124346871202,0.0,0.001,0.0,4300.0,0.0,0.0,0.0
1513265013362905280,,493603,,1513265011,586820663,'',1.2217304764,1.22188465743,0.0365976560982,0.0,0.001,0.0,4300.0,0.0,0.0,0.0
1513265013372923231,,493604,,1513265011,596820663,'',1.2217304764,1.22188465743,0.0309782900014,0.0,0.001,0.0,4300.0,0.0,0.0,0.0
1513265013382725963,,493605,,1513265011,606820663,'',1.2217304764,1.22049702816,-8.33910571784e-05,0.0,0.001,0.0,4300.0,0.0,0.0,0.0
1513265013392721830,,493606,,1513265011,616820663,'',1.2217304764,1.22049702816,-0.00358762181194,0.0,0.001,0.0,4300.0,0.0,0.0,0.0
1513265013402642153,,493607,,1513265011,626820663,'',1.2217304764,1.22327228669,0.0479834242248,0.0,0.001,0.0,4300.0,0.0,0.0,0.0
1513265013412638171,,493608,,1513265011,636820663,'',1.2217304764,1.22327228669,0.0427491995093,0.0,0.001,0.0,4300.0,0.0,0.0,0.0
1513265013422567899,,493609,,1513265011,646820663,'',1.2217304764,1.22327228669,0.0394131460803,0.0,0.001,0.0,4300.0,0.0,0.0,0.0
1513265013432578286,,493610,,1513265011,656820663,'',1.2217304764,1.22188465743,0.00675253203257,0.0,0.001,0.0,4300.0,0.0,0.0,0.0
1513265013442529552,,493611,,1513265011,666820663,'',1.2217304764,1.22188465743,0.00294822139151,0.0,0.001,0.0,4300.0,0.0,0.0,0.0
1513265013452544734,,493612,,1513265011,676820663,'',1.2217304764,1.22327228669,0.025785985255,0.0,0.001,0.0,4300.0,0.0,0.0,0.0
1513265013462506261,,493613,,1513265011,686820663,'',1.2217304764,1.22327228669,0.0205992136741,0.0,0.001,0.0,4300.0,0.0,0.0,0.0
1513265013472461656,,493614,,1513265011,696820663,'',1.2217304764,1.22465991595,0.0428067729099,0.0,0.001,0.0,4300.0,0.0,0.0,0.0
1513265013482778377,,493615,,1513265011,706820663,'',1.2217304764,1.22604754522,0.0635353203598,0.0,0.001,0.0,4300.0,0.0,0.0,0.0
1513265013492829516,,493616,,1513265011,716820663,'',1.2217304764,1.22465991595,0.0285957280099,0.0,0.001,0.0,4300.0,0.0,0.0,0.0
1513265013502712653,,493617,,1513265011,726820663,'',1.2217304764,1.22604754522,0.0488733726793,0.0,0.001,0.0,4300.0,0.0,0.0,0.0
1513265013512739301,,493618,,1513265011,736820663,'',1.2217304764,1.22465991595,0.0155656926712,0.0,0.001,0.0,4300.0,0.0,0.0,0.0
1513265013522689385,,493619,,1513265011,746820663,'',1.2217304764,1.22604754522,0.0381462473077,0.0,0.001,0.0,4300.0,0.0,0.0,0.0
1513265013532683237,,493620,,1513265011,756820663,'',1.2217304764,1.22604754522,0.0321946354273,0.0,0.001,0.0,4300.0,0.0,0.0,0.0
1513265013542730847,,493621,,1513265011,766820663,'',1.2217304764,1.22465991595,-0.00101617614945,0.0,0.001,0.0,4300.0,0.0,0.0,0.0
1513265013552681738,,493622,,1513265011,776820663,'',1.2217304764,1.22465991595,-0.00347392263352,0.0,0.001,0.0,4300.0,0.0,0.0,0.0
1513265013562578041,,493623,,1513265011,786820663,'',1.2217304764,1.22604754522,0.0236057354436,0.0,0.001,0.0,4300.0,0.0,0.0,0.0
1513265013572531324,,493624,,1513265011,796820663,'',1.2217304764,1.22604754522,0.0197643996696,0.0,0.001,0.0,4300.0,0.0,0.0,0.0
1513265013582428995,,493625,,1513265011,806820663,'',1.2217304764,1.22465991595,-0.01024062333,0.0,0.001,0.0,4300.0,0.0,0.0,0.0
1513265013592919099,,493626,,1513265011,816820663,'',1.2217304764,1.22604754522,0.0140984969493,0.0,0.001,0.0,4300.0,0.0,0.0,0.0
1513265013602795882,,493627,,1513265011,826820663,'',1.2217304764,1.22604754522,0.0100710152727,0.0,0.001,0.0,4300.0,0.0,0.0,0.0
1513265013612772429,,493628,,1513265011,836820663,'',1.2217304764,1.22604754522,0.00669475412167,0.0,0.001,0.0,4300.0,0.0,0.0,0.0
1513265013622714303,,493629,,1513265011,846820663,'',1.2217304764,1.22604754522,0.00390256728173,0.0,0.001,0.0,4300.0,0.0,0.0,0.0
1513265013632700133,,493630,,1513265011,856820663,'',1.2217304764,1.22743517448,0.0276192789901,0.0,0.001,0.0,4300.0,0.0,0.0,0.0
1513265013642529859,,493631,,1513265011,866820663,'',1.2217304764,1.22743517448,0.0220870030897,0.0,0.001,0.0,4300.0,0.0,0.0,0.0
1513265013652925519,,493632,,1513265011,876820663,'',1.2217304764,1.22743517448,0.0160170429633,0.0,0.001,0.0,4300.0,0.0,0.0,0.0
1513265013662844683,,493633,,1513265011,886820663,'',1.2217304764,1.23159806227,0.0894852011649,0.0,0.001,0.0,4300.0,0.0,0.0,0.0
1513265013672804326,,493634,,1513265011,896820663,'',1.2217304764,1.23159806227,0.0756998159465,0.0,0.001,0.0,4300.0,0.0,0.0,0.0
1513265013682747038,,493635,,1513265011,906820663,'',1.2217304764,1.23159806227,0.0624821934738,0.0,0.001,0.0,4300.0,0.0,0.0,0.0
1513265013692798652,,493636,,1513265011,916820663,'',1.2217304764,1.23298569154,0.0736133117319,0.0,0.001,0.0,4300.0,0.0,0.0,0.0
1513265013702716322,,493637,,1513265011,926820663,'',1.2217304764,1.23298569154,0.060746582416,0.0,0.001,0.0,4300.0,0.0,0.0,0.0
1513265013712620422,,493638,,1513265011,936820663,'',1.2217304764,1.23298569154,0.0496571552034,0.011255215141,0.001,-48.3974251061,4300.0,0.0,0.0,0.0
1513265013722583221,,493639,,1513265011,946820663,'',1.2217304764,1.23298569154,0.0386079918194,0.011255215141,0.001,-48.3974251061,4300.0,0.0,0.0,0.0
1513265013732387296,,493640,,1513265011,956820663,'',1.2217304764,1.23298569154,0.0296134465146,0.011255215141,0.001,-48.3974251061,4300.0,0.0,0.0,0.0
1513265013742924101,,493641,,1513265011,966820663,'',1.2217304764,1.2343733208,0.0496945036424,0.0126428444049,0.001,-54.3642309411,4300.0,0.0,0.0,0.0
1513265013753009086,,493642,,1513265011,976820663,'',1.2217304764,1.23159806227,-0.012252529808,0.009867585877,0.001,-42.4306192711,4300.0,0.0,0.0,0.0
1513265013763129154,,493643,,1513265011,986820663,'',1.2217304764,1.23298569154,0.00937711827979,0.011255215141,0.001,-48.3974251061,4300.0,0.0,0.0,0.0
1513265013772521225,,493644,,1513265011,996820663,'',1.2217304764,1.23576095006,0.0586172603199,0.0140304736689,0.001,-60.3310367761,4300.0,0.0,0.0,0.0
1513265013782643118,,493645,,1513265012,6820663,'',1.2217304764,1.23576095006,0.052496659061,0.0140304736689,0.001,-60.3310367761,4300.0,0.0,0.0,0.0
1513265013792486864,,493646,,1513265012,16820663,'',1.2217304764,1.23576095006,0.0444791685216,0.0140304736689,0.001,-60.3310367761,4300.0,0.0,0.0,0.0
1513265013802566394,,493647,,1513265012,26820663,'',1.2217304764,1.23576095006,0.0343885770781,0.0140304736689,0.001,-60.3310367761,4300.0,0.0,0.0,0.0
1513265013812513708,,493648,,1513265012,36820663,'',1.2217304764,1.23714857933,0.0520640441293,0.0154181029328,0.001,-66.2978426111,4300.0,0.0,0.0,0.0
1513265013822468600,,493649,,1513265012,46820663,'',1.2217304764,1.23714857933,0.0436181531311,0.0154181029328,0.001,-66.2978426111,4300.0,0.0,0.0,0.0
1513265013832455962,,493650,,1513265012,56820663,'',1.2217304764,1.23714857933,0.0347045475545,0.0154181029328,0.001,-66.2978426111,4300.0,0.0,0.0,0.0
1513265013842440650,,493651,,1513265012,66820663,'',1.2217304764,1.23576095006,-7.36138661064e-05,0.0140304736689,0.001,-60.3310367761,4300.0,0.0,0.0,0.0
1513265013853015296,,493652,,1513265012,76820663,'',1.2217304764,1.23714857933,0.0233593929356,0.0154181029328,0.001,-66.2978426111,4300.0,0.0,0.0,0.0
1513265013862934402,,493653,,1513265012,86820663,'',1.2217304764,1.23714857933,0.0180673725366,0.0154181029328,0.001,-66.2978426111,4300.0,0.0,0.0,0.0
1513265013872798464,,493654,,1513265012,96820663,'',1.2217304764,1.23714857933,0.014784277554,0.0154181029328,0.001,-66.2978426111,4300.0,0.0,0.0,0.0
1513265013882872050,,493655,,1513265012,106820663,'',1.2217304764,1.23714857933,0.0101635592521,0.0154181029328,0.001,-66.2978426111,4300.0,0.0,0.0,0.0
1513265013892835539,,493656,,1513265012,116820663,'',1.2217304764,1.23853620859,0.0347269768898,0.0168057321968,0.001,-72.2646484461,4300.0,0.0,0.0,0.0
1513265013902879062,,493657,,1513265012,126820663,'',1.2217304764,1.23714857933,0.00494730834246,0.0154181029328,0.001,-66.2978426111,4300.0,0.0,0.0,0.0
1513265013912916806,,493658,,1513265012,136820663,'',1.2217304764,1.23853620859,0.0310679386649,0.0168057321968,0.001,-72.2646484461,4300.0,0.0,0.0,0.0
1513265013922906954,,493659,,1513265012,146820663,'',1.2217304764,1.23714857933,0.00246714094382,0.0154181029328,0.001,-66.2978426111,4300.0,0.0,0.0,0.0
1513265013932863644,,493660,,1513265012,156820663,'',1.2217304764,1.23992383786,0.0559497046267,0.0181933614607,0.001,-78.2314542811,4300.0,0.0,0.0,0.0
1513265013942730618,,493661,,1513265012,166820663,'',1.2217304764,1.23714857933,-0.0035944951082,0.0154181029328,0.001,-66.2978426111,4300.0,0.0,0.0,0.0
1513265013952729313,,493662,,1513265012,176820663,'',1.2217304764,1.23714857933,-0.00905876457203,0.0154181029328,0.001,-66.2978426111,4300.0,0.0,0.0,0.0
1513265013962680676,,493663,,1513265012,186820663,'',1.2217304764,1.23853620859,0.0159481617768,0.0168057321968,0.001,-72.2646484461,4300.0,0.0,0.0,0.0
1513265013972559853,,493664,,1513265012,196820663,'',1.2217304764,1.23853620859,0.011521136321,0.0168057321968,0.001,-72.2646484461,4300.0,0.0,0.0,0.0
1513265013982521283,,493665,,1513265012,206820663,'',1.2217304764,1.23853620859,0.00591660046838,0.0168057321968,0.001,-72.2646484461,4300.0,0.0,0.0,0.0
1513265013992989713,,493666,,1513265012,216820663,'',1.2217304764,1.23992383786,0.028272816358,0.0181933614607,0.001,-78.2314542811,4300.0,0.0,0.0,0.0
1513265014002883563,,493667,,1513265012,226820663,'',1.2217304764,1.23992383786,0.0236143110724,0.0181933614607,0.001,-78.2314542811,4300.0,0.0,0.0,0.0
1513265014012901296,,493668,,1513265012,236820663,'',1.2217304764,1.23992383786,0.0203052770946,0.0181933614607,0.001,-78.2314542811,4300.0,0.0,0.0,0.0
1513265014022821788,,493669,,1513265012,246820663,'',1.2217304764,1.23992383786,0.0166278877879,0.0181933614607,0.001,-78.2314542811,4300.0,0.0,0.0,0.0
1513265014032791778,,493670,,1513265012,256820663,'',1.2217304764,1.23992383786,0.0125386652228,0.0181933614607,0.001,-78.2314542811,4300.0,0.0,0.0,0.0
1513265014042789893,,493671,,1513265012,266820663,'',1.2217304764,1.23992383786,0.00928211562413,0.0181933614607,0.001,-78.2314542811,4300.0,0.0,0.0,0.0
1513265014052591740,,493672,,1513265012,276820663,'',1.2217304764,1.23992383786,0.00665695221389,0.0181933614607,0.001,-78.2314542811,4300.0,0.0,0.0,0.0
1513265014062544258,,493673,,1513265012,286820663,'',1.2217304764,1.23992383786,0.00493496179893,0.0181933614607,0.001,-78.2314542811,4300.0,0.0,0.0,0.0
1513265014072878175,,493674,,1513265012,296820663,'',1.2217304764,1.23992383786,0.00455983363319,0.0181933614607,0.001,-78.2314542811,4300.0,0.0,0.0,0.0
1513265014082731238,,493675,,1513265012,306820663,'',1.2217304764,1.24131146712,0.0312388266329,0.0195809907247,0.001,-84.1982601161,4300.0,0.0,0.0,0.0
1513265014092746053,,493676,,1513265012,316820663,'',1.2217304764,1.24131146712,0.0296194996184,0.0195809907247,0.001,-84.1982601161,4300.0,0.0,0.0,0.0
1513265014102681791,,493677,,1513265012,326820663,'',1.2217304764,1.23992383786,0.00183310848067,0.0181933614607,0.001,-78.2314542811,4300.0,0.0,0.0,0.0
1513265014112670535,,493678,,1513265012,336820663,'',1.2217304764,1.23992383786,0.000463999920646,0.0181933614607,0.001,-78.2314542811,4300.0,0.0,0.0,0.0
1513265014122644091,,493679,,1513265012,346820663,'',1.2217304764,1.24131146712,0.0278553201981,0.0195809907247,0.001,-84.1982601161,4300.0,0.0,0.0,0.0
1513265014132671410,,493680,,1513265012,356820663,'',1.2217304764,1.23992383786,0.00190020978531,0.0181933614607,0.001,-78.2314542811,4300.0,0.0,0.0,0.0
1513265014142528771,,493681,,1513265012,366820663,'',1.2217304764,1.23992383786,0.00158194810639,0.0181933614607,0.001,-78.2314542811,4300.0,0.0,0.0,0.0
1513265014152458768,,493682,,1513265012,376820663,'',1.2217304764,1.23853620859,-0.0246816617122,0.0168057321968,0.001,-72.2646484461,4300.0,0.0,0.0,0.0
1513265014162632467,,493683,,1513265012,386820663,'',1.2217304764,1.23992383786,0.00274489734086,0.0181933614607,0.001,-78.2314542811,4300.0,0.0,0.0,0.0
1513265014172566110,,493684,,1513265012,396820663,'',1.2217304764,1.23992383786,0.00322823265509,0.0181933614607,0.001,-78.2314542811,4300.0,0.0,0.0,0.0
1513265014182473693,,493685,,1513265012,406820663,'',1.2217304764,1.23992383786,0.00264935137829,0.0181933614607,0.001,-78.2314542811,4300.0,0.0,0.0,0.0
1513265014192692550,,493686,,1513265012,416820663,'',1.2217304764,1.23992383786,0.00564869603846,0.0181933614607,0.001,-78.2314542811,4300.0,0.0,0.0,0.0
1513265014202625107,,493687,,1513265012,426820663,'',1.2217304764,1.23992383786,0.00405836260854,0.0181933614607,0.001,-78.2314542811,4300.0,0.0,0.0,0.0
1513265014212363261,,493688,,1513265012,436820663,'',1.2217304764,1.23992383786,0.00431650489324,0.0181933614607,0.001,-78.2314542811,4300.0,0.0,0.0,0.0
1513265014223006924,,493689,,1513265012,446820663,'',1.2217304764,1.23992383786,0.00505439554629,0.0181933614607,0.001,-78.2314542811,4300.0,0.0,0.0,0.0
1513265014232555831,,493690,,1513265012,456820663,'',1.2217304764,1.23853620859,-0.0207644807931,0.0168057321968,0.001,-72.2646484461,4300.0,0.0,0.0,0.0
1513265014242904833,,493691,,1513265012,466820663,'',1.2217304764,1.23853620859,-0.0194715053725,0.0168057321968,0.001,-72.2646484461,4300.0,0.0,0.0,0.0
1513265014252889699,,493692,,1513265012,476820663,'',1.2217304764,1.23853620859,-0.0173888341622,0.0168057321968,0.001,-72.2646484461,4300.0,0.0,0.0,0.0
1513265014262854943,,493693,,1513265012,486820663,'',1.2217304764,1.23853620859,-0.0162019004524,0.0168057321968,0.001,-72.2646484461,4300.0,0.0,0.0,0.0
1513265014272705644,,493694,,1513265012,496820663,'',1.2217304764,1.23853620859,-0.0142543936843,0.0168057321968,0.001,-72.2646484461,4300.0,0.0,0.0,0.0
1513265014282754968,,493695,,1513265012,506820663,'',1.2217304764,1.23853620859,-0.0131395393366,0.0168057321968,0.001,-72.2646484461,4300.0,0.0,0.0,0.0
1513265014292716171,,493696,,1513265012,516820663,'',1.2217304764,1.23992383786,0.0151691626123,0.0181933614607,0.001,-78.2314542811,4300.0,0.0,0.0,0.0
1513265014302790595,,493697,,1513265012,526820663,'',1.2217304764,1.23853620859,-0.0125783622777,0.0168057321968,0.001,-72.2646484461,4300.0,0.0,0.0,0.0
1513265014312648449,,493698,,1513265012,536820663,'',1.2217304764,1.23992383786,0.0141779395857,0.0181933614607,0.001,-78.2314542811,4300.0,0.0,0.0,0.0
1513265014322625975,,493699,,1513265012,546820663,'',1.2217304764,1.23853620859,-0.0137945111009,0.0168057321968,0.001,-72.2646484461,4300.0,0.0,0.0,0.0
1513265014332684798,,493700,,1513265012,556820663,'',1.2217304764,1.23853620859,-0.0138711591912,0.0168057321968,0.001,-72.2646484461,4300.0,0.0,0.0,0.0
1513265014342487683,,493701,,1513265012,566820663,'',1.2217304764,1.23992383786,0.01512774246,0.0181933614607,0.001,-78.2314542811,4300.0,0.0,0.0,0.0
1513265014352555593,,493702,,1513265012,576820663,'',1.2217304764,1.23992383786,0.013401736725,0.0181933614607,0.001,-78.2314542811,4300.0,0.0,0.0,0.0
1513265014362482135,,493703,,1513265012,586820663,'',1.2217304764,1.23992383786,0.0125419178098,0.0181933614607,0.001,-78.2314542811,4300.0,0.0,0.0,0.0
1513265014372874497,,493704,,1513265012,596820663,'',1.2217304764,1.23992383786,0.0128288690554,0.0181933614607,0.001,-78.2314542811,4300.0,0.0,0.0,0.0
1513265014382881118,,493705,,1513265012,606820663,'',1.2217304764,1.24131146712,0.0414779266218,0.0195809907247,0.001,-84.1982601161,4300.0,0.0,0.0,0.0
1513265014392920601,,493706,,1513265012,616820663,'',1.2217304764,1.23992383786,0.0130137315942,0.0181933614607,0.001,-78.2314542811,4300.0,0.0,0.0,0.0
1513265014402858049,,493707,,1513265012,626820663,'',1.2217304764,1.23853620859,-0.0158722367572,0.0168057321968,0.001,-72.2646484461,4300.0,0.0,0.0,0.0
1513265014412856378,,493708,,1513265012,636820663,'',1.2217304764,1.23992383786,0.0115129107638,0.0181933614607,0.001,-78.2314542811,4300.0,0.0,0.0,0.0
1513265014422798387,,493709,,1513265012,646820663,'',1.2217304764,1.23853620859,-0.0139870492094,0.0168057321968,0.001,-72.2646484461,4300.0,0.0,0.0,0.0
1513265014432882524,,493710,,1513265012,656820663,'',1.2217304764,1.23992383786,0.0140109162578,0.0181933614607,0.001,-78.2314542811,4300.0,0.0,0.0,0.0
1513265014442872303,,493711,,1513265012,666820663,'',1.2217304764,1.23853620859,-0.0130701480847,0.0168057321968,0.001,-72.2646484461,4300.0,0.0,0.0,0.0
1513265014452874997,,493712,,1513265012,676820663,'',1.2217304764,1.23992383786,0.0153317218319,0.0181933614607,0.001,-78.2314542811,4300.0,0.0,0.0,0.0
1513265014462748166,,493713,,1513265012,686820663,'',1.2217304764,1.23853620859,-0.0099087298919,0.0168057321968,0.001,-72.2646484461,4300.0,0.0,0.0,0.0
1513265014472831218,,493714,,1513265012,696820663,'',1.2217304764,1.23992383786,0.0188904105886,0.0181933614607,0.001,-78.2314542811,4300.0,0.0,0.0,0.0
1513265014482498027,,493715,,1513265012,706820663,'',1.2217304764,1.23992383786,0.0195211587607,0.0181933614607,0.001,-78.2314542811,4300.0,0.0,0.0,0.0
1513265014492921678,,493716,,1513265012,716820663,'',1.2217304764,1.23853620859,-0.00650326317699,0.0168057321968,0.001,-72.2646484461,4300.0,0.0,0.0,0.0
1513265014502902295,,493717,,1513265012,726820663,'',1.2217304764,1.23992383786,0.0226419894356,0.0181933614607,0.001,-78.2314542811,4300.0,0.0,0.0,0.0
1513265014512658839,,493718,,1513265012,736820663,'',1.2217304764,1.23853620859,-0.00583086431138,0.0168057321968,0.001,-72.2646484461,4300.0,0.0,0.0,0.0
1513265014522466141,,493719,,1513265012,746820663,'',1.2217304764,1.23853620859,-0.00427869145405,0.0168057321968,0.001,-72.2646484461,4300.0,0.0,0.0,0.0
1513265014532905380,,493720,,1513265012,756820663,'',1.2217304764,1.23853620859,-0.00290612829283,0.0168057321968,0.001,-72.2646484461,4300.0,0.0,0.0,0.0
1513265014542455573,,493721,,1513265012,766820663,'',1.2217304764,1.23853620859,-0.00289853068647,0.0168057321968,0.001,-72.2646484461,4300.0,0.0,0.0,0.0
1513265014552895878,,493722,,1513265012,776820663,'',1.2217304764,1.23714857933,-0.0303949383616,0.0154181029328,0.001,-66.2978426111,4300.0,0.0,0.0,0.0
1513265014562832054,,493723,,1513265012,786820663,'',1.2217304764,1.23853620859,-0.000423097829067,0.0168057321968,0.001,-72.2646484461,4300.0,0.0,0.0,0.0
1513265014572764782,,493724,,1513265012,796820663,'',1.2217304764,1.23992383786,0.027129152083,0.0181933614607,0.001,-78.2314542811,4300.0,0.0,0.0,0.0
1513265014582593987,,493725,,1513265012,806820663,'',1.2217304764,1.23853620859,-0.000741497205786,0.0168057321968,0.001,-72.2646484461,4300.0,0.0,0.0,0.0
1513265014592678788,,493726,,1513265012,816820663,'',1.2217304764,1.23853620859,-0.00213507465087,0.0168057321968,0.001,-72.2646484461,4300.0,0.0,0.0,0.0
1513265014602540573,,493727,,1513265012,826820663,'',1.2217304764,1.23853620859,-0.00167498805995,0.0168057321968,0.001,-72.2646484461,4300.0,0.0,0.0,0.0
1513265014612491745,,493728,,1513265012,836820663,'',1.2217304764,1.23853620859,-0.00240545546231,0.0168057321968,0.001,-72.2646484461,4300.0,0.0,0.0,0.0
1513265014622431836,,493729,,1513265012,846820663,'',1.2217304764,1.23853620859,-0.000996504758656,0.0168057321968,0.001,-72.2646484461,4300.0,0.0,0.0,0.0
1513265014632902161,,493730,,1513265012,856820663,'',1.2217304764,1.23853620859,-0.00122737854001,0.0168057321968,0.001,-72.2646484461,4300.0,0.0,0.0,0.0
1513265014642859474,,493731,,1513265012,866820663,'',1.2217304764,1.23992383786,0.0259902364642,0.0181933614607,0.001,-78.2314542811,4300.0,0.0,0.0,0.0
1513265014652726693,,493732,,1513265012,876820663,'',1.2217304764,1.23992383786,0.0257978150419,0.0181933614607,0.001,-78.2314542811,4300.0,0.0,0.0,0.0
1513265014662685782,,493733,,1513265012,886820663,'',1.2217304764,1.23853620859,-0.00133819067773,0.0168057321968,0.001,-72.2646484461,4300.0,0.0,0.0,0.0
1513265014672566960,,493734,,1513265012,896820663,'',1.2217304764,1.23853620859,-0.000531217983928,0.0168057321968,0.001,-72.2646484461,4300.0,0.0,0.0,0.0
1513265014683122347,,493735,,1513265012,906820663,'',1.2217304764,1.23853620859,-0.000372630483248,0.0168057321968,0.001,-72.2646484461,4300.0,0.0,0.0,0.0
1513265014692998976,,493736,,1513265012,916820663,'',1.2217304764,1.23853620859,-0.000819635713494,0.0168057321968,0.001,-72.2646484461,4300.0,0.0,0.0,0.0
1513265014702429480,,493737,,1513265012,926820663,'',1.2217304764,1.23853620859,-0.000680433176111,0.0168057321968,0.001,-72.2646484461,4300.0,0.0,0.0,0.0
1513265014712975854,,493738,,1513265012,936820663,'',1.2217304764,1.23853620859,-0.00105260748725,0.0168057321968,0.001,-72.2646484461,4300.0,0.0,0.0,0.0
1513265014722895863,,493739,,1513265012,946820663,'',1.2217304764,1.23853620859,0.000658927563439,0.0168057321968,0.001,-72.2646484461,4300.0,0.0,0.0,0.0
1513265014732848775,,493740,,1513265012,956820663,'',1.2217304764,1.23714857933,-0.0254289960117,0.0154181029328,0.001,-66.2978426111,4300.0,0.0,0.0,0.0
1513265014742821825,,493741,,1513265012,966820663,'',1.2217304764,1.23853620859,0.00107813112621,0.0168057321968,0.001,-72.2646484461,4300.0,0.0,0.0,0.0
1513265014752747916,,493742,,1513265012,976820663,'',1.2217304764,1.23853620859,0.00136247933392,0.0168057321968,0.001,-72.2646484461,4300.0,0.0,0.0,0.0
1513265014762792097,,493743,,1513265012,986820663,'',1.2217304764,1.23853620859,0.000641257617906,0.0168057321968,0.001,-72.2646484461,4300.0,0.0,0.0,0.0
1513265014772628048,,493744,,1513265012,996820663,'',1.2217304764,1.23992383786,0.0264213034624,0.0181933614607,0.001,-78.2314542811,4300.0,0.0,0.0,0.0
1513265014782502342,,493745,,1513265013,6820663,'',1.2217304764,1.23714857933,-0.0283175217633,0.0154181029328,0.001,-66.2978426111,4300.0,0.0,0.0,0.0
1513265014792643021,,493746,,1513265013,16820663,'',1.2217304764,1.23853620859,0.000793230441858,0.0168057321968,0.001,-72.2646484461,4300.0,0.0,0.0,0.0
1513265014802880212,,493747,,1513265013,26820663,'',1.2217304764,1.23853620859,0.00064928436615,0.0168057321968,0.001,-72.2646484461,4300.0,0.0,0.0,0.0
1513265014812803903,,493748,,1513265013,36820663,'',1.2217304764,1.23853620859,0.00102700802323,0.0168057321968,0.001,-72.2646484461,4300.0,0.0,0.0,0.0
1513265014822637793,,493749,,1513265013,46820663,'',1.2217304764,1.23853620859,0.00137744066092,0.0168057321968,0.001,-72.2646484461,4300.0,0.0,0.0,0.0
1513265014832522601,,493750,,1513265013,56820663,'',1.2217304764,1.23853620859,0.00112752741376,0.0168057321968,0.001,-72.2646484461,4300.0,0.0,0.0,0.0
1513265014842951500,,493751,,1513265013,66820663,'',1.2217304764,1.23853620859,0.000485633109297,0.0168057321968,0.001,-72.2646484461,4300.0,0.0,0.0,0.0
1513265014852820833,,493752,,1513265013,76820663,'',1.2217304764,1.23853620859,-9.14069163661e-05,0.0168057321968,0.001,-72.2646484461,4300.0,0.0,0.0,0.0
1513265014862815059,,493753,,1513265013,86820663,'',1.2217304764,1.23853620859,-0.000573608203358,0.0168057321968,0.001,-72.2646484461,4300.0,0.0,0.0,0.0
1513265014872634782,,493754,,1513265013,96820663,'',1.2217304764,1.23853620859,-0.000953034072044,0.0168057321968,0.001,-72.2646484461,4300.0,0.0,0.0,0.0
1513265014882564445,,493755,,1513265013,106820663,'',1.2217304764,1.23853620859,-0.000737964759568,0.0168057321968,0.001,-72.2646484461,4300.0,0.0,0.0,0.0
1513265014892434177,,493756,,1513265013,116820663,'',1.2217304764,1.23853620859,-0.000604364564724,0.0168057321968,0.001,-72.2646484461,4300.0,0.0,0.0,0.0
1513265014902481751,,493757,,1513265013,126820663,'',1.2217304764,1.23853620859,-0.00149083892492,0.0168057321968,0.001,-72.2646484461,4300.0,0.0,0.0,0.0
1513265014912988757,,493758,,1513265013,136820663,'',1.2217304764,1.23853620859,-0.000721522947069,0.0168057321968,0.001,-72.2646484461,4300.0,0.0,0.0,0.0
1513265014922898660,,493759,,1513265013,146820663,'',1.2217304764,1.23853620859,0.000912651210228,0.0168057321968,0.001,-72.2646484461,4300.0,0.0,0.0,0.0
1513265014932776005,,493760,,1513265013,156820663,'',1.2217304764,1.23714857933,-0.0256224611018,0.0154181029328,0.001,-66.2978426111,4300.0,0.0,0.0,0.0
1513265014942818268,,493761,,1513265013,166820663,'',1.2217304764,1.23853620859,0.00244215692808,0.0168057321968,0.001,-72.2646484461,4300.0,0.0,0.0,0.0
1513265014952764602,,493762,,1513265013,176820663,'',1.2217304764,1.23853620859,0.00204597392686,0.0168057321968,0.001,-72.2646484461,4300.0,0.0,0.0,0.0
1513265014962632861,,493763,,1513265013,186820663,'',1.2217304764,1.23853620859,0.00265719745356,0.0168057321968,0.001,-72.2646484461,4300.0,0.0,0.0,0.0
1513265014972579546,,493764,,1513265013,196820663,'',1.2217304764,1.23992383786,0.0311053481482,0.0181933614607,0.001,-78.2314542811,4300.0,0.0,0.0,0.0
1513265014982621742,,493765,,1513265013,206820663,'',1.2217304764,1.23853620859,0.00348107398116,0.0168057321968,0.001,-72.2646484461,4300.0,0.0,0.0,0.0
1513265014992516061,,493766,,1513265013,216820663,'',1.2217304764,1.23853620859,0.00339656507608,0.0168057321968,0.001,-72.2646484461,4300.0,0.0,0.0,0.0
1513265015002521393,,493767,,1513265013,226820663,'',1.2217304764,1.23714857933,-0.0241695046651,0.0154181029328,0.001,-66.2978426111,4300.0,0.0,0.0,0.0
1513265015012746200,,493768,,1513265013,236820663,'',1.2217304764,1.23714857933,-0.0248289950513,0.0154181029328,0.001,-66.2978426111,4300.0,0.0,0.0,0.0
1513265015022955870,,493769,,1513265013,246820663,'',1.2217304764,1.23853620859,0.00264959926173,0.0168057321968,0.001,-72.2646484461,4300.0,0.0,0.0,0.0
1513265015032883245,,493770,,1513265013,256820663,'',1.2217304764,1.23714857933,-0.0253203153943,0.0154181029328,0.001,-66.2978426111,4300.0,0.0,0.0,0.0
1513265015042974701,,493771,,1513265013,266820663,'',1.2217304764,1.23853620859,0.00228608357387,0.0168057321968,0.001,-72.2646484461,4300.0,0.0,0.0,0.0
1513265015052920954,,493772,,1513265013,276820663,'',1.2217304764,1.23714857933,-0.0250791733107,0.0154181029328,0.001,-66.2978426111,4300.0,0.0,0.0,0.0
1513265015062788461,,493773,,1513265013,286820663,'',1.2217304764,1.23853620859,0.00290392848196,0.0168057321968,0.001,-72.2646484461,4300.0,0.0,0.0,0.0
1513265015072726560,,493774,,1513265013,296820663,'',1.2217304764,1.23714857933,-0.0236309849668,0.0154181029328,0.001,-66.2978426111,4300.0,0.0,0.0,0.0
1513265015082602454,,493775,,1513265013,306820663,'',1.2217304764,1.23853620859,0.00413326919042,0.0168057321968,0.001,-72.2646484461,4300.0,0.0,0.0,0.0
1513265015092636539,,493776,,1513265013,316820663,'',1.2217304764,1.23853620859,0.00392088832894,0.0168057321968,0.001,-72.2646484461,4300.0,0.0,0.0,0.0
1513265015102942124,,493777,,1513265013,326820663,'',1.2217304764,1.23853620859,0.00474493513953,0.0168057321968,0.001,-72.2646484461,4300.0,0.0,0.0,0.0
1513265015112850269,,493778,,1513265013,336820663,'',1.2217304764,1.23853620859,0.00482613605358,0.0168057321968,0.001,-72.2646484461,4300.0,0.0,0.0,0.0
1513265015122767695,,493779,,1513265013,346820663,'',1.2217304764,1.23853620859,0.0044215209368,0.0168057321968,0.001,-72.2646484461,4300.0,0.0,0.0,0.0
1513265015132860584,,493780,,1513265013,356820663,'',1.2217304764,1.23853620859,0.0025847171048,0.0168057321968,0.001,-72.2646484461,4300.0,0.0,0.0,0.0
1513265015142437074,,493781,,1513265013,366820663,'',1.2217304764,1.23853620859,0.00218349446083,0.0168057321968,0.001,-72.2646484461,4300.0,0.0,0.0,0.0
1513265015152623776,,493782,,1513265013,376820663,'',1.2217304764,1.23853620859,0.00231707267336,0.0168057321968,0.001,-72.2646484461,4300.0,0.0,0.0,0.0
1513265015162712279,,493783,,1513265013,386820663,'',1.2217304764,1.23853620859,0.00390888434728,0.0168057321968,0.001,-72.2646484461,4300.0,0.0,0.0,0.0
1513265015172686182,,493784,,1513265013,396820663,'',1.2217304764,1.23853620859,0.00260443534946,0.0168057321968,0.001,-72.2646484461,4300.0,0.0,0.0,0.0
1513265015182589054,,493785,,1513265013,406820663,'',1.2217304764,1.23853620859,0.00159240877771,0.0168057321968,0.001,-72.2646484461,4300.0,0.0,0.0,0.0
1513265015192623655,,493786,,1513265013,416820663,'',1.2217304764,1.23853620859,0.00177047275651,0.0168057321968,0.001,-72.2646484461,4300.0,0.0,0.0,0.0
1513265015202475418,,493787,,1513265013,426820663,'',1.2217304764,1.23992383786,0.0294014566278,0.0181933614607,0.001,-78.2314542811,4300.0,0.0,0.0,0.0
1513265015212485908,,493788,,1513265013,436820663,'',1.2217304764,1.23853620859,0.00157755704172,0.0168057321968,0.001,-72.2646484461,4300.0,0.0,0.0,0.0
1513265015222953618,,493789,,1513265013,446820663,'',1.2217304764,1.23714857933,-0.023623452513,0.0154181029328,0.001,-66.2978426111,4300.0,0.0,0.0,0.0
1513265015232926642,,493790,,1513265013,456820663,'',1.2217304764,1.23714857933,-0.0223821906242,0.0154181029328,0.001,-66.2978426111,4300.0,0.0,0.0,0.0
1513265015242859383,,493791,,1513265013,466820663,'',1.2217304764,1.23853620859,0.00565109616965,0.0168057321968,0.001,-72.2646484461,4300.0,0.0,0.0,0.0
1513265015252627116,,493792,,1513265013,476820663,'',1.2217304764,1.23992383786,0.0335824569956,0.0181933614607,0.001,-78.2314542811,4300.0,0.0,0.0,0.0
1513265015262547326,,493793,,1513265013,486820663,'',1.2217304764,1.23853620859,0.00605840155881,0.0168057321968,0.001,-72.2646484461,4300.0,0.0,0.0,0.0
1513265015272576482,,493794,,1513265013,496820663,'',1.2217304764,1.23853620859,0.00699227212104,0.0168057321968,0.001,-72.2646484461,4300.0,0.0,0.0,0.0
1513265015283055031,,493795,,1513265013,506820663,'',1.2217304764,1.23714857933,-0.0202092557264,0.0154181029328,0.001,-66.2978426111,4300.0,0.0,0.0,0.0
1513265015292473218,,493796,,1513265013,516820663,'',1.2217304764,1.23714857933,-0.0200435697583,0.0154181029328,0.001,-66.2978426111,4300.0,0.0,0.0,0.0
1513265015303092938,,493797,,1513265013,526820663,'',1.2217304764,1.23853620859,0.00911760735867,0.0168057321968,0.001,-72.2646484461,4300.0,0.0,0.0,0.0
1513265015312971819,,493798,,1513265013,536820663,'',1.2217304764,1.23714857933,-0.0184145344701,0.0154181029328,0.001,-66.2978426111,4300.0,0.0,0.0,0.0
1513265015322948669,,493799,,1513265013,546820663,'',1.2217304764,1.23714857933,-0.0180719868241,0.0154181029328,0.001,-66.2978426111,4300.0,0.0,0.0,0.0
1513265015332851056,,493800,,1513265013,556820663,'',1.2217304764,1.23853620859,0.0116981004527,0.0168057321968,0.001,-72.2646484461,4300.0,0.0,0.0,0.0
1513265015342889743,,493801,,1513265013,566820663,'',1.2217304764,1.23714857933,-0.0153717479893,0.0154181029328,0.001,-66.2978426111,4300.0,0.0,0.0,0.0
1513265015352758063,,493802,,1513265013,576820663,'',1.2217304764,1.23853620859,0.0138144377756,0.0168057321968,0.001,-72.2646484461,4300.0,0.0,0.0,0.0
1513265015363381249,,493803,,1513265013,586820663,'',1.2217304764,1.23853620859,0.0128130626053,0.0168057321968,0.001,-72.2646484461,4300.0,0.0,0.0,0.0
1513265015372756456,,493804,,1513265013,596820663,'',1.2217304764,1.23714857933,-0.0134550270201,0.0154181029328,0.001,-66.2978426111,4300.0,0.0,0.0,0.0
1513265015382660645,,493805,,1513265013,606820663,'',1.2217304764,1.23714857933,-0.0125645749931,0.0154181029328,0.001,-66.2978426111,4300.0,0.0,0.0,0.0
1513265015392631838,,493806,,1513265013,616820663,'',1.2217304764,1.23714857933,-0.0118076007257,0.0154181029328,0.001,-66.2978426111,4300.0,0.0,0.0,0.0
1513265015402550568,,493807,,1513265013,626820663,'',1.2217304764,1.23853620859,0.0157753809291,0.0168057321968,0.001,-72.2646484461,4300.0,0.0,0.0,0.0
1513265015412914910,,493808,,1513265013,636820663,'',1.2217304764,1.23714857933,-0.0111091782446,0.0154181029328,0.001,-66.2978426111,4300.0,0.0,0.0,0.0
1513265015422823148,,493809,,1513265013,646820663,'',1.2217304764,1.23714857933,-0.00909364962049,0.0154181029328,0.001,-66.2978426111,4300.0,0.0,0.0,0.0
1513265015432790258,,493810,,1513265013,656820663,'',1.2217304764,1.23714857933,-0.00840512739867,0.0154181029328,0.001,-66.2978426111,4300.0,0.0,0.0,0.0
1513265015442851304,,493811,,1513265013,666820663,'',1.2217304764,1.23853620859,0.0201190618962,0.0168057321968,0.001,-72.2646484461,4300.0,0.0,0.0,0.0
1513265015452723918,,493812,,1513265013,676820663,'',1.2217304764,1.23714857933,-0.00693696004043,0.0154181029328,0.001,-66.2978426111,4300.0,0.0,0.0,0.0
1513265015462600908,,493813,,1513265013,686820663,'',1.2217304764,1.23853620859,0.0218166014409,0.0168057321968,0.001,-72.2646484461,4300.0,0.0,0.0,0.0
1513265015472576533,,493814,,1513265013,696820663,'',1.2217304764,1.23853620859,0.0213562135265,0.0168057321968,0.001,-72.2646484461,4300.0,0.0,0.0,0.0
1513265015482486065,,493815,,1513265013,706820663,'',1.2217304764,1.23853620859,0.0224833834945,0.0168057321968,0.001,-72.2646484461,4300.0,0.0,0.0,0.0
1513265015492688091,,493816,,1513265013,716820663,'',1.2217304764,1.23853620859,0.0229354533306,0.0168057321968,0.001,-72.2646484461,4300.0,0.0,0.0,0.0
1513265015502690079,,493817,,1513265013,726820663,'',1.2217304764,1.23853620859,0.0222720120883,0.0168057321968,0.001,-72.2646484461,4300.0,0.0,0.0,0.0
1513265015512616364,,493818,,1513265013,736820663,'',1.2217304764,1.23714857933,-0.00417113634015,0.0154181029328,0.001,-66.2978426111,4300.0,0.0,0.0,0.0
1513265015522675939,,493819,,1513265013,746820663,'',1.2217304764,1.23714857933,-0.00341612947228,0.0154181029328,0.001,-66.2978426111,4300.0,0.0,0.0,0.0
1513265015532617772,,493820,,1513265013,756820663,'',1.2217304764,1.23714857933,-0.00279661074237,0.0154181029328,0.001,-66.2978426111,4300.0,0.0,0.0,0.0
1513265015542579437,,493821,,1513265013,766820663,'',1.2217304764,1.23714857933,-0.00326090923467,0.0154181029328,0.001,-66.2978426111,4300.0,0.0,0.0,0.0
1513265015552515482,,493822,,1513265013,776820663,'',1.2217304764,1.23853620859,0.024319639128,0.0168057321968,0.001,-72.2646484461,4300.0,0.0,0.0,0.0
1513265015562659597,,493823,,1513265013,786820663,'',1.2217304764,1.23853620859,0.024434033679,0.0168057321968,0.001,-72.2646484461,4300.0,0.0,0.0,0.0
1513265015572634561,,493824,,1513265013,796820663,'',1.2217304764,1.23714857933,-0.00396555026947,0.0154181029328,0.001,-66.2978426111,4300.0,0.0,0.0,0.0
1513265015582926600,,493825,,1513265013,806820663,'',1.2217304764,1.23853620859,0.0247540463976,0.0168057321968,0.001,-72.2646484461,4300.0,0.0,0.0,0.0
1513265015592943210,,493826,,1513265013,816820663,'',1.2217304764,1.23714857933,-0.00268537179033,0.0154181029328,0.001,-66.2978426111,4300.0,0.0,0.0,0.0
1513265015602820045,,493827,,1513265013,826820663,'',1.2217304764,1.23714857933,-0.00326374953505,0.0154181029328,0.001,-66.2978426111,4300.0,0.0,0.0,0.0
1513265015612763744,,493828,,1513265013,836820663,'',1.2217304764,1.23714857933,-0.00267181410828,0.0154181029328,0.001,-66.2978426111,4300.0,0.0,0.0,0.0
1513265015622871001,,493829,,1513265013,846820663,'',1.2217304764,1.23714857933,-0.00215646372636,0.0154181029328,0.001,-66.2978426111,4300.0,0.0,0.0,0.0
1513265015632729661,,493830,,1513265013,856820663,'',1.2217304764,1.23576095006,-0.0292726526598,0.0140304736689,0.001,-60.3310367761,4300.0,0.0,0.0,0.0
1513265015642851257,,493831,,1513265013,866820663,'',1.2217304764,1.23992383786,0.0533639152599,0.0181933614607,0.001,-78.2314542811,4300.0,0.0,0.0,0.0
1513265015652911172,,493832,,1513265013,876820663,'',1.2217304764,1.23853620859,0.0263042336453,0.0168057321968,0.001,-72.2646484461,4300.0,0.0,0.0,0.0
1513265015662842032,,493833,,1513265013,886820663,'',1.2217304764,1.23714857933,-0.002397363828,0.0154181029328,0.001,-66.2978426111,4300.0,0.0,0.0,0.0
1513265015672806270,,493834,,1513265013,896820663,'',1.2217304764,1.23853620859,0.0270341645566,0.0168057321968,0.001,-72.2646484461,4300.0,0.0,0.0,0.0
1513265015682839718,,493835,,1513265013,906820663,'',1.2217304764,1.23714857933,-0.000283926400937,0.0154181029328,0.001,-66.2978426111,4300.0,0.0,0.0,0.0
1513265015692644944,,493836,,1513265013,916820663,'',1.2217304764,1.23714857933,0.000279807604501,0.0154181029328,0.001,-66.2978426111,4300.0,0.0,0.0,0.0
1513265015702655405,,493837,,1513265013,926820663,'',1.2217304764,1.23714857933,0.00127561256632,0.0154181029328,0.001,-66.2978426111,4300.0,0.0,0.0,0.0
1513265015712612014,,493838,,1513265013,936820663,'',1.2217304764,1.23714857933,0.00151107563575,0.0154181029328,0.001,-66.2978426111,4300.0,0.0,0.0,0.0
1513265015722847236,,493839,,1513265013,946820663,'',1.2217304764,1.23714857933,0.00222333334068,0.0154181029328,0.001,-66.2978426111,4300.0,0.0,0.0,0.0
1513265015732757670,,493840,,1513265013,956820663,'',1.2217304764,1.23714857933,0.00184973440709,0.0154181029328,0.001,-66.2978426111,4300.0,0.0,0.0,0.0
1513265015742788023,,493841,,1513265013,966820663,'',1.2217304764,1.23576095006,-0.0254029128189,0.0140304736689,0.001,-60.3310367761,4300.0,0.0,0.0,0.0
1513265015752739907,,493842,,1513265013,976820663,'',1.2217304764,1.23714857933,0.00267267085847,0.0154181029328,0.001,-66.2978426111,4300.0,0.0,0.0,0.0
1513265015762758185,,493843,,1513265013,986820663,'',1.2217304764,1.23714857933,0.00218982658031,0.0154181029328,0.001,-66.2978426111,4300.0,0.0,0.0,0.0
1513265015772527754,,493844,,1513265013,996820663,'',1.2217304764,1.23853620859,0.0288431007777,0.0168057321968,0.001,-72.2646484461,4300.0,0.0,0.0,0.0
1513265015782984868,,493845,,1513265014,6820663,'',1.2217304764,1.23576095006,-0.0272925477864,0.0140304736689,0.001,-60.3310367761,4300.0,0.0,0.0,0.0
1513265015792935119,,493846,,1513265014,16820663,'',1.2217304764,1.23714857933,-0.000345831167731,0.0154181029328,0.001,-66.2978426111,4300.0,0.0,0.0,0.0
1513265015802965804,,493847,,1513265014,26820663,'',1.2217304764,1.23853620859,0.0271288412987,0.0168057321968,0.001,-72.2646484461,4300.0,0.0,0.0,0.0
1513265015812799738,,493848,,1513265014,36820663,'',1.2217304764,1.23714857933,-0.000683144868282,0.0154181029328,0.001,-66.2978426111,4300.0,0.0,0.0,0.0
1513265015822721036,,493849,,1513265014,46820663,'',1.2217304764,1.23714857933,-7.64328404067e-05,0.0154181029328,0.001,-66.2978426111,4300.0,0.0,0.0,0.0
1513265015832557922,,493850,,1513265014,56820663,'',1.2217304764,1.23576095006,-0.0285274461009,0.0140304736689,0.001,-60.3310367761,4300.0,0.0,0.0,0.0
1513265015842621067,,493851,,1513265014,66820663,'',1.2217304764,1.23714857933,-0.000870528474229,0.0154181029328,0.001,-66.2978426111,4300.0,0.0,0.0,0.0
1513265015852561111,,493852,,1513265014,76820663,'',1.2217304764,1.23714857933,0.000293780235592,0.0154181029328,0.001,-66.2978426111,4300.0,0.0,0.0,0.0
1513265015862460271,,493853,,1513265014,86820663,'',1.2217304764,1.23853620859,0.0282833190674,0.0168057321968,0.001,-72.2646484461,4300.0,0.0,0.0,0.0
1513265015872562696,,493854,,1513265014,96820663,'',1.2217304764,1.23714857933,0.00173494329933,0.0154181029328,0.001,-66.2978426111,4300.0,0.0,0.0,0.0
1513265015882872041,,493855,,1513265014,106820663,'',1.2217304764,1.23714857933,0.00244052639748,0.0154181029328,0.001,-66.2978426111,4300.0,0.0,0.0,0.0
1513265015892819252,,493856,,1513265014,116820663,'',1.2217304764,1.23714857933,0.00298425563718,0.0154181029328,0.001,-66.2978426111,4300.0,0.0,0.0,0.0
1513265015902803387,,493857,,1513265014,126820663,'',1.2217304764,1.23714857933,0.00290827979695,0.0154181029328,0.001,-66.2978426111,4300.0,0.0,0.0,0.0
1513265015912673297,,493858,,1513265014,136820663,'',1.2217304764,1.23576095006,-0.0245319648236,0.0140304736689,0.001,-60.3310367761,4300.0,0.0,0.0,0.0
1513265015922648589,,493859,,1513265014,146820663,'',1.2217304764,1.23714857933,0.00234744806001,0.0154181029328,0.001,-66.2978426111,4300.0,0.0,0.0,0.0
1513265015932988655,,493860,,1513265014,156820663,'',1.2217304764,1.23576095006,-0.0249832039668,0.0140304736689,0.001,-60.3310367761,4300.0,0.0,0.0,0.0
1513265015942997308,,493861,,1513265014,166820663,'',1.2217304764,1.23714857933,0.00296402290918,0.0154181029328,0.001,-66.2978426111,4300.0,0.0,0.0,0.0
1513265015952940229,,493862,,1513265014,176820663,'',1.2217304764,1.23714857933,0.00289669248701,0.0154181029328,0.001,-66.2978426111,4300.0,0.0,0.0,0.0
1513265015962969007,,493863,,1513265014,186820663,'',1.2217304764,1.23714857933,0.00237123852216,0.0154181029328,0.001,-66.2978426111,4300.0,0.0,0.0,0.0
1513265015972733151,,493864,,1513265014,196820663,'',1.2217304764,1.23714857933,0.00185384578047,0.0154181029328,0.001,-66.2978426111,4300.0,0.0,0.0,0.0
1513265015982750243,,493865,,1513265014,206820663,'',1.2217304764,1.23576095006,-0.0258811525783,0.0140304736689,0.001,-60.3310367761,4300.0,0.0,0.0,0.0
1513265015992638206,,493866,,1513265014,216820663,'',1.2217304764,1.23576095006,-0.0247421205162,0.0140304736689,0.001,-60.3310367761,4300.0,0.0,0.0,0.0
1513265016002601925,,493867,,1513265014,226820663,'',1.2217304764,1.23714857933,0.00264999069234,0.0154181029328,0.001,-66.2978426111,4300.0,0.0,0.0,0.0
1513265016012506368,,493868,,1513265014,236820663,'',1.2217304764,1.23714857933,0.0027170452051,0.0154181029328,0.001,-66.2978426111,4300.0,0.0,0.0,0.0
1513265016022515363,,493869,,1513265014,246820663,'',1.2217304764,1.23714857933,0.00274039296837,0.0154181029328,0.001,-66.2978426111,4300.0,0.0,0.0,0.0
1513265016032468342,,493870,,1513265014,256820663,'',1.2217304764,1.23576095006,-0.0243122239836,0.0140304736689,0.001,-60.3310367761,4300.0,0.0,0.0,0.0
1513265016042962154,,493871,,1513265014,266820663,'',1.2217304764,1.23714857933,0.00308518374984,0.0154181029328,0.001,-66.2978426111,4300.0,0.0,0.0,0.0
1513265016053016224,,493872,,1513265014,276820663,'',1.2217304764,1.23576095006,-0.0244541687396,0.0140304736689,0.001,-60.3310367761,4300.0,0.0,0.0,0.0
