rosbagTimestamp,header,seq,stamp,secs,nsecs,frame_id,set_point,process_value,process_value_dot,error,time_step,command,p,i,d,i_clamp
1513265011572674939,,493434,,1513265009,796820663,'',0.436332312999,0.405404051527,-0.00818688449873,-0.0309282614712,0.001,-203.506843016,-6500.0,0.0,-300.0,0.0
1513265011582756426,,493435,,1513265009,806820663,'',0.436332312999,0.405377801012,-0.00765248628862,-0.0309545119866,0.001,-203.524636063,-6500.0,0.0,-300.0,0.0
1513265011592504654,,493436,,1513265009,816820663,'',0.436332312999,0.405390799189,-0.00791809959139,-0.0309415138096,0.001,-203.461798292,-6500.0,0.0,-300.0,0.0
1513265011602511184,,493437,,1513265009,826820663,'',0.436332312999,0.405399267477,0.00965302731047,-0.0309330455218,0.001,-198.088066308,-6500.0,0.0,-300.0,0.0
1513265011612678919,,493438,,1513265009,836820663,'',0.436332312999,0.405453506031,0.00855615049174,-0.0308788069671,0.001,-198.132881211,-6500.0,0.0,-300.0,0.0
1513265011622655959,,493439,,1513265009,846820663,'',0.436332312999,0.405468396657,0.00825395729185,-0.0308639163415,0.001,-198.172112872,-6500.0,0.0,-300.0,0.0
1513265011632577303,,493440,,1513265009,856820663,'',0.436332312999,0.405446007264,-0.00904147481179,-0.0308863057351,0.001,-203.487951571,-6500.0,0.0,-300.0,0.0
1513265011642581425,,493441,,1513265009,866820663,'',0.436332312999,0.405446167525,0.00870328406459,-0.0308861454735,0.001,-198.181132374,-6500.0,0.0,-300.0,0.0
1513265011652466715,,493442,,1513265009,876820663,'',0.436332312999,0.405441641464,-0.00895261995087,-0.0308906715342,0.001,-203.486497742,-6500.0,0.0,-300.0,0.0
1513265011662530931,,493443,,1513265009,886820663,'',0.436332312999,0.405453907979,-0.00920515149447,-0.0308784050194,0.001,-203.498026604,-6500.0,0.0,-300.0,0.0
1513265011672372260,,493444,,1513265009,896820663,'',0.436332312999,0.405433417848,-0.00879847440119,-0.0308988951504,0.001,-203.426432939,-6500.0,0.0,-300.0,0.0
1513265011682851609,,493445,,1513265009,906820663,'',0.436332312999,0.40543684868,0.00887864327198,-0.0308954643183,0.001,-198.148668004,-6500.0,0.0,-300.0,0.0
1513265011692760726,,493446,,1513265009,916820663,'',0.436332312999,0.405438221991,0.00884239358208,-0.0308940910073,0.001,-198.139756357,-6500.0,0.0,-300.0,0.0
1513265011702668089,,493447,,1513265009,926820663,'',0.436332312999,0.405405556746,-0.00824053265901,-0.0309267562523,0.001,-203.44919535,-6500.0,0.0,-300.0,0.0
1513265011712742008,,493448,,1513265009,936820663,'',0.436332312999,0.405397172249,0.00967754056568,-0.0309351407496,0.001,-198.135554523,-6500.0,0.0,-300.0,0.0
1513265011722553875,,493449,,1513265009,946820663,'',0.436332312999,0.405387350078,0.00987516940604,-0.0309449629201,0.001,-198.226305207,-6500.0,0.0,-300.0,0.0
1513265011732492166,,493450,,1513265009,956820663,'',0.436332312999,0.405378257995,-0.00768073239347,-0.0309540550034,0.001,-203.515034289,-6500.0,0.0,-300.0,0.0
1513265011742600972,,493451,,1513265009,966820663,'',0.436332312999,0.405358174502,-0.00727216863653,-0.0309741384971,0.001,-203.514854456,-6500.0,0.0,-300.0,0.0
1513265011752885316,,493452,,1513265009,976820663,'',0.436332312999,0.405370287275,-0.00751866657147,-0.0309620257232,0.001,-203.518297443,-6500.0,0.0,-300.0,0.0
1513265011762835963,,493453,,1513265009,986820663,'',0.436332312999,0.405382531313,-0.00776278761133,-0.0309497816852,0.001,-203.517770404,-6500.0,0.0,-300.0,0.0
1513265011772816836,,493454,,1513265009,996820663,'',0.436332312999,0.405407618391,-0.00826439631317,-0.0309246946074,0.001,-203.505403593,-6500.0,0.0,-300.0,0.0
1513265011782751092,,493455,,1513265010,6820663,'',0.436332312999,0.405428851296,-0.00869525782615,-0.0309034617029,0.001,-203.46291084,-6500.0,0.0,-300.0,0.0
1513265011792593675,,493456,,1513265010,16820663,'',0.436332312999,0.405412162431,-0.00835615595419,-0.0309201505675,0.001,-203.504173773,-6500.0,0.0,-300.0,0.0
1513265011802526493,,493457,,1513265010,26820663,'',0.436332312999,0.405431412168,0.00900316136048,-0.0309009008305,0.001,-198.199751442,-6500.0,0.0,-300.0,0.0
1513265011812910449,,493458,,1513265010,36820663,'',0.436332312999,0.405433362782,-0.00877796150572,-0.0308989502169,0.001,-203.487395866,-6500.0,0.0,-300.0,0.0
1513265011822816768,,493459,,1513265010,46820663,'',0.436332312999,0.405418947732,-0.00848894153093,-0.030913365267,0.001,-203.503900876,-6500.0,0.0,-300.0,0.0
1513265011832750340,,493460,,1513265010,56820663,'',0.436332312999,0.405436849567,-0.00885558917902,-0.0308954634317,0.001,-203.432183254,-6500.0,0.0,-300.0,0.0
1513265011842749907,,493461,,1513265010,66820663,'',0.436332312999,0.405423215384,0.00917442838156,-0.0309090976147,0.001,-198.142589003,-6500.0,0.0,-300.0,0.0
1513265011852722817,,493462,,1513265010,76820663,'',0.436332312999,0.405442578768,0.00877606627846,-0.0308897342309,0.001,-198.148748926,-6500.0,0.0,-300.0,0.0
1513265011862575199,,493463,,1513265010,86820663,'',0.436332312999,0.405457341978,0.00847420325711,-0.0308749710206,0.001,-198.12396769,-6500.0,0.0,-300.0,0.0
1513265011872552404,,493464,,1513265010,96820663,'',0.436332312999,0.405483843383,0.00793789492062,-0.0308484696152,0.001,-198.171553597,-6500.0,0.0,-300.0,0.0
1513265011882493645,,493465,,1513265010,106820663,'',0.436332312999,0.405446526926,0.00869075094009,-0.0308857860725,0.001,-198.133215553,-6500.0,0.0,-300.0,0.0
1513265011892409147,,493466,,1513265010,116820663,'',0.436332312999,0.405446246084,0.00869168047022,-0.0308860669146,0.001,-198.141499794,-6500.0,0.0,-300.0,0.0
1513265011902455532,,493467,,1513265010,126820663,'',0.436332312999,0.405441814876,-0.00897311867341,-0.0308904981222,0.001,-203.494192383,-6500.0,0.0,-300.0,0.0
1513265011912379134,,493468,,1513265010,136820663,'',0.436332312999,0.405444702265,0.00871914707192,-0.0308876107338,0.001,-198.139626639,-6500.0,0.0,-300.0,0.0
1513265011922681073,,493469,,1513265010,146820663,'',0.436332312999,0.405461207692,-0.00936135821854,-0.0308711053065,0.001,-203.487155097,-6500.0,0.0,-300.0,0.0
1513265011932609435,,493470,,1513265010,156820663,'',0.436332312999,0.405408791876,-0.00830029348663,-0.0309235211222,0.001,-203.503132959,-6500.0,0.0,-300.0,0.0
1513265011942650168,,493471,,1513265010,166820663,'',0.436332312999,0.405413729419,-0.00839522697754,-0.03091858358,0.001,-203.502937461,-6500.0,0.0,-300.0,0.0
1513265011952514657,,493472,,1513265010,176820663,'',0.436332312999,0.405419558117,0.00923702850881,-0.0309127548812,0.001,-198.158077118,-6500.0,0.0,-300.0,0.0
1513265011962585213,,493473,,1513265010,186820663,'',0.436332312999,0.405424058441,0.00913646735692,-0.0309082545578,0.001,-198.14555481,-6500.0,0.0,-300.0,0.0
1513265011972540524,,493474,,1513265010,196820663,'',0.436332312999,0.405443820543,0.00873428979244,-0.0308884924551,0.001,-198.137464351,-6500.0,0.0,-300.0,0.0
1513265011982390249,,493475,,1513265010,206820663,'',0.436332312999,0.405474373695,0.00811680560555,-0.0308579393032,0.001,-198.112617714,-6500.0,0.0,-300.0,0.0
1513265011992822782,,493476,,1513265010,216820663,'',0.436332312999,0.405404145927,-0.00821462834506,-0.0309281670717,0.001,-203.505028196,-6500.0,0.0,-300.0,0.0
1513265012002826148,,493477,,1513265010,226820663,'',0.436332312999,0.405442578251,0.00876773671033,-0.030889734748,0.001,-198.196280845,-6500.0,0.0,-300.0,0.0
1513265012012675394,,493478,,1513265010,236820663,'',0.436332312999,0.405442034854,-0.00897314847779,-0.0308902781449,0.001,-203.50317104,-6500.0,0.0,-300.0,0.0
1513265012022783602,,493479,,1513265010,246820663,'',0.436332312999,0.405443600347,0.00873774339069,-0.0308887126513,0.001,-198.131862516,-6500.0,0.0,-300.0,0.0
1513265012032665930,,493480,,1513265010,256820663,'',0.436332312999,0.405458855157,0.0084301869586,-0.0308734578417,0.001,-198.13130929,-6500.0,0.0,-300.0,0.0
1513265012042650488,,493481,,1513265010,266820663,'',0.436332312999,0.405457167709,0.00846173210492,-0.03087514529,0.001,-198.124035727,-6500.0,0.0,-300.0,0.0
1513265012052435726,,493482,,1513265010,276820663,'',0.436332312999,0.40545313826,0.00854379739774,-0.030879174739,0.001,-198.133649746,-6500.0,0.0,-300.0,0.0
1513265012062863548,,493483,,1513265010,286820663,'',0.436332312999,0.405419240086,0.00923877283429,-0.0309130729127,0.001,-198.130826815,-6500.0,0.0,-300.0,0.0
1513265012072813830,,493484,,1513265010,296820663,'',0.436332312999,0.405469861374,0.00822178262317,-0.0308624516244,0.001,-198.246160211,-6500.0,0.0,-300.0,0.0
1513265012082724969,,493485,,1513265010,306820663,'',0.436332312999,0.405465167054,0.00832338834647,-0.0308671459447,0.001,-198.125720455,-6500.0,0.0,-300.0,0.0
1513265012092711500,,493486,,1513265010,316820663,'',0.436332312999,0.405460141773,0.00842859178244,-0.0308721712253,0.001,-198.133215679,-6500.0,0.0,-300.0,0.0
1513265012102641047,,493487,,1513265010,326820663,'',0.436332312999,0.405454238228,0.00854014905008,-0.0308780747709,0.001,-198.184392186,-6500.0,0.0,-300.0,0.0
1513265012112578450,,493488,,1513265010,336820663,'',0.436332312999,0.405450325915,-0.00913325792233,-0.0308819870833,0.001,-203.488828435,-6500.0,0.0,-300.0,0.0
1513265012122651061,,493489,,1513265010,346820663,'',0.436332312999,0.405464488161,-0.00942645731615,-0.0308678248381,0.001,-203.479732293,-6500.0,0.0,-300.0,0.0
1513265012132579646,,493490,,1513265010,356820663,'',0.436332312999,0.405443607701,-0.00900993288986,-0.0308887052974,0.001,-203.434355288,-6500.0,0.0,-300.0,0.0
1513265012142670223,,493491,,1513265010,366820663,'',0.436332312999,0.405490645205,0.0077992556905,-0.0308416677933,0.001,-198.120549714,-6500.0,0.0,-300.0,0.0
1513265012152549506,,493492,,1513265010,376820663,'',0.436332312999,0.405481130073,0.00799089932796,-0.0308511829259,0.001,-198.119879473,-6500.0,0.0,-300.0,0.0
1513265012162473626,,493493,,1513265010,386820663,'',0.436332312999,0.405490842377,0.00780276480588,-0.0308414706213,0.001,-198.155960857,-6500.0,0.0,-300.0,0.0
1513265012172382727,,493494,,1513265010,396820663,'',0.436332312999,0.405464434958,-0.00940775694299,-0.0308678780405,0.001,-203.480434305,-6500.0,0.0,-300.0,0.0
1513265012182902252,,493495,,1513265010,406820663,'',0.436332312999,0.40542843444,0.00906372078874,-0.030903878559,0.001,-198.143763309,-6500.0,0.0,-300.0,0.0
1513265012192883827,,493496,,1513265010,416820663,'',0.436332312999,0.405427953479,-0.00867014018825,-0.0309043595196,0.001,-203.444540253,-6500.0,0.0,-300.0,0.0
1513265012202786559,,493497,,1513265010,426820663,'',0.436332312999,0.405414551382,-0.00841177274499,-0.0309177616162,0.001,-203.497746379,-6500.0,0.0,-300.0,0.0
1513265012212844604,,493498,,1513265010,436820663,'',0.436332312999,0.405386828596,-0.00785586682631,-0.030945484403,0.001,-203.495084875,-6500.0,0.0,-300.0,0.0
1513265012222700994,,493499,,1513265010,446820663,'',0.436332312999,0.405426986439,-0.00865970075396,-0.0309053265592,0.001,-203.487578579,-6500.0,0.0,-300.0,0.0
1513265012232752070,,493500,,1513265010,456820663,'',0.436332312999,0.405446125373,0.00870396170002,-0.0308861876258,0.001,-198.144694182,-6500.0,0.0,-300.0,0.0
1513265012242755559,,493501,,1513265010,466820663,'',0.436332312999,0.405457362711,-0.00926798246089,-0.0308749502872,0.001,-203.477290243,-6500.0,0.0,-300.0,0.0
1513265012252632735,,493502,,1513265010,476820663,'',0.436332312999,0.405437867408,-0.0088744275403,-0.0308944455902,0.001,-203.434194623,-6500.0,0.0,-300.0,0.0
1513265012262647684,,493503,,1513265010,486820663,'',0.436332312999,0.405404145422,-0.00818961390752,-0.0309281675763,0.001,-203.494960787,-6500.0,0.0,-300.0,0.0
1513265012272772150,,493504,,1513265010,496820663,'',0.436332312999,0.405442229984,0.008790292265,-0.0308900830147,0.001,-198.132405531,-6500.0,0.0,-300.0,0.0
1513265012282707346,,493505,,1513265010,506820663,'',0.436332312999,0.405441952439,-0.00894852336304,-0.0308903605595,0.001,-203.445588363,-6500.0,0.0,-300.0,0.0
1513265012292785605,,493506,,1513265010,516820663,'',0.436332312999,0.405424154612,-0.0085917625583,-0.0309081583865,0.001,-203.493758822,-6500.0,0.0,-300.0,0.0
1513265012302513899,,493507,,1513265010,526820663,'',0.436332312999,0.40545682278,-0.00924975200209,-0.0308754902189,0.001,-203.480193992,-6500.0,0.0,-300.0,0.0
1513265012312534466,,493508,,1513265010,536820663,'',0.436332312999,0.405471885316,0.00819571351803,-0.0308604276825,0.001,-198.131295034,-6500.0,0.0,-300.0,0.0
1513265012322498986,,493509,,1513265010,546820663,'',0.436332312999,0.405468908091,0.00826114272413,-0.0308634049077,0.001,-198.099202488,-6500.0,0.0,-300.0,0.0
1513265012332847219,,493510,,1513265010,556820663,'',0.436332312999,0.405477606082,-0.00966496769441,-0.0308547069166,0.001,-203.477159754,-6500.0,0.0,-300.0,0.0
1513265012342789433,,493511,,1513265010,566820663,'',0.436332312999,0.40550011388,-0.0101149947345,-0.0308321991184,0.001,-203.484188494,-6500.0,0.0,-300.0,0.0
1513265012352701411,,493512,,1513265010,576820663,'',0.436332312999,0.405470860158,-0.00953151446301,-0.0308614528401,0.001,-203.477123644,-6500.0,0.0,-300.0,0.0
1513265012362704471,,493513,,1513265010,586820663,'',0.436332312999,0.405419233654,0.00925347743602,-0.0309130793449,0.001,-198.203630247,-6500.0,0.0,-300.0,0.0
1513265012372750796,,493514,,1513265010,596820663,'',0.436332312999,0.405438258811,0.00886778377088,-0.0308940541879,0.001,-198.137180358,-6500.0,0.0,-300.0,0.0
1513265012382527739,,493515,,1513265010,606820663,'',0.436332312999,0.405438635251,0.00885835693864,-0.0308936777472,0.001,-198.136388755,-6500.0,0.0,-300.0,0.0
1513265012392532437,,493516,,1513265010,616820663,'',0.436332312999,0.405440100684,0.00882946497598,-0.0308922123142,0.001,-198.130698999,-6500.0,0.0,-300.0,0.0
1513265012402508449,,493517,,1513265010,626820663,'',0.436332312999,0.405437964671,-0.00887550925883,-0.0308943483279,0.001,-203.493157219,-6500.0,0.0,-300.0,0.0
1513265012412563550,,493518,,1513265010,636820663,'',0.436332312999,0.405419904413,-0.00850884677128,-0.0309124085854,0.001,-203.495523635,-6500.0,0.0,-300.0,0.0
1513265012422449016,,493519,,1513265010,646820663,'',0.436332312999,0.405391683645,-0.00794000973047,-0.0309406293532,0.001,-203.461327787,-6500.0,0.0,-300.0,0.0
1513265012432419153,,493520,,1513265010,656820663,'',0.436332312999,0.405384578205,-0.00779435075382,-0.0309477347937,0.001,-203.514701561,-6500.0,0.0,-300.0,0.0
1513265012442774610,,493521,,1513265010,666820663,'',0.436332312999,0.405407521912,-0.00826349254292,-0.0309247910865,0.001,-203.515594886,-6500.0,0.0,-300.0,0.0
1513265012452750061,,493522,,1513265010,676820663,'',0.436332312999,0.405381916477,0.00999358527685,-0.0309503965219,0.001,-198.240812988,-6500.0,0.0,-300.0,0.0
1513265012462566352,,493523,,1513265010,686820663,'',0.436332312999,0.405389704412,0.00983673864315,-0.0309426085868,0.001,-198.162463442,-6500.0,0.0,-300.0,0.0
1513265012472354904,,493524,,1513265010,696820663,'',0.436332312999,0.405398092756,-0.00807953217605,-0.0309342202421,0.001,-203.512164793,-6500.0,0.0,-300.0,0.0
1513265012482832556,,493525,,1513265010,706820663,'',0.436332312999,0.405388584348,0.0098591709502,-0.0309437286506,0.001,-198.219934777,-6500.0,0.0,-300.0,0.0
1513265012492722106,,493526,,1513265010,716820663,'',0.436332312999,0.405365651738,-0.00742094420439,-0.0309666612607,0.001,-203.428032361,-6500.0,0.0,-300.0,0.0
1513265012502668811,,493527,,1513265010,726820663,'',0.436332312999,0.405395363261,0.00973022232895,-0.0309369497376,0.001,-198.153788197,-6500.0,0.0,-300.0,0.0
1513265012512569419,,493528,,1513265010,736820663,'',0.436332312999,0.405401942119,-0.00814793511985,-0.0309303708796,0.001,-203.507694277,-6500.0,0.0,-300.0,0.0
1513265012522509947,,493529,,1513265010,746820663,'',0.436332312999,0.405377355056,-0.00765164044335,-0.0309549579426,0.001,-203.518169638,-6500.0,0.0,-300.0,0.0
1513265012532586866,,493530,,1513265010,756820663,'',0.436332312999,0.405326053529,0.0111316424384,-0.0310062594694,0.001,-198.195324962,-6500.0,0.0,-300.0,0.0
1513265012542516271,,493531,,1513265010,766820663,'',0.436332312999,0.405299731066,-0.0060781284869,-0.0310325819321,0.001,-203.514200876,-6500.0,0.0,-300.0,0.0
1513265012552597798,,493532,,1513265010,776820663,'',0.436332312999,0.405325539806,-0.0066005138879,-0.0310067731926,0.001,-203.537094234,-6500.0,0.0,-300.0,0.0
1513265012563109910,,493533,,1513265010,786820663,'',0.436332312999,0.405347020792,0.0107154569525,-0.030985292207,0.001,-198.173999861,-6500.0,0.0,-300.0,0.0
1513265012572816644,,493534,,1513265010,796820663,'',0.436332312999,0.405363341146,0.0103800117261,-0.0309689718529,0.001,-198.233363419,-6500.0,0.0,-300.0,0.0
1513265012582924219,,493535,,1513265010,806820663,'',0.436332312999,0.405358983584,-0.00727686360551,-0.0309733294142,0.001,-203.507662933,-6500.0,0.0,-300.0,0.0
1513265012592950901,,493536,,1513265010,816820663,'',0.436332312999,0.405343024158,0.0107887293599,-0.0309892888408,0.001,-198.181846521,-6500.0,0.0,-300.0,0.0
1513265012602458705,,493537,,1513265010,826820663,'',0.436332312999,0.405325518094,-0.00660258133117,-0.0310067949045,0.001,-203.532805906,-6500.0,0.0,-300.0,0.0
1513265012612685181,,493538,,1513265010,836820663,'',0.436332312999,0.405362224845,0.0103949469636,-0.030970088154,0.001,-198.17086903,-6500.0,0.0,-300.0,0.0
1513265012622671932,,493539,,1513265010,846820663,'',0.436332312999,0.405361025723,0.0104141797397,-0.0309712872756,0.001,-198.177383434,-6500.0,0.0,-300.0,0.0
1513265012632807356,,493540,,1513265010,856820663,'',0.436332312999,0.405373994149,-0.00759596440042,-0.0309583188495,0.001,-203.518972803,-6500.0,0.0,-300.0,0.0
1513265012642681275,,493541,,1513265010,866820663,'',0.436332312999,0.405385077513,-0.00781776720164,-0.0309472354857,0.001,-203.515064478,-6500.0,0.0,-300.0,0.0
1513265012652720571,,493542,,1513265010,876820663,'',0.436332312999,0.40535979713,-0.00730416432441,-0.030972515869,0.001,-203.469854097,-6500.0,0.0,-300.0,0.0
1513265012662680949,,493543,,1513265010,886820663,'',0.436332312999,0.405311025449,-0.0063153044829,-0.0310212875499,0.001,-203.542558799,-6500.0,0.0,-300.0,0.0
1513265012672935050,,493544,,1513265010,896820663,'',0.436332312999,0.405335232805,0.01094704028,-0.0309970801937,0.001,-198.181128774,-6500.0,0.0,-300.0,0.0
1513265012682791932,,493545,,1513265010,906820663,'',0.436332312999,0.405337617829,-0.00685251878063,-0.0309946951694,0.001,-203.531672074,-6500.0,0.0,-300.0,0.0
1513265012692832801,,493546,,1513265010,916820663,'',0.436332312999,0.405354721854,0.0105512395826,-0.030977591145,0.001,-198.173940699,-6500.0,0.0,-300.0,0.0
1513265012702698420,,493547,,1513265010,926820663,'',0.436332312999,0.405366268938,-0.00743044241502,-0.0309660440605,0.001,-203.475384402,-6500.0,0.0,-300.0,0.0
1513265012712733682,,493548,,1513265010,936820663,'',0.436332312999,0.405345772867,-0.007015862472,-0.0309865401318,0.001,-203.477135162,-6500.0,0.0,-300.0,0.0
1513265012722594897,,493549,,1513265010,946820663,'',0.436332312999,0.405395491163,0.00973155413012,-0.0309368218359,0.001,-198.148115353,-6500.0,0.0,-300.0,0.0
1513265012732588988,,493550,,1513265010,956820663,'',0.436332312999,0.40543541127,0.00892106288401,-0.0308969017285,0.001,-198.137685101,-6500.0,0.0,-300.0,0.0
1513265012742925877,,493551,,1513265010,966820663,'',0.436332312999,0.405451180808,-0.00914929718943,-0.0308811321902,0.001,-203.488484687,-6500.0,0.0,-300.0,0.0
1513265012752825107,,493552,,1513265010,976820663,'',0.436332312999,0.40544789467,0.00867114640585,-0.0308844183288,0.001,-198.190887046,-6500.0,0.0,-300.0,0.0
1513265012762814830,,493553,,1513265010,986820663,'',0.436332312999,0.405431093693,0.00900705563218,-0.0309012193055,0.001,-198.134215489,-6500.0,0.0,-300.0,0.0
1513265012772744029,,493554,,1513265010,996820663,'',0.436332312999,0.405446895485,-0.00905830302465,-0.0308854175136,0.001,-203.490207793,-6500.0,0.0,-300.0,0.0
1513265012782764179,,493555,,1513265011,6820663,'',0.436332312999,0.405461334016,0.00839463971143,-0.0308709789825,0.001,-198.143031284,-6500.0,0.0,-300.0,0.0
1513265012792707103,,493556,,1513265011,16820663,'',0.436332312999,0.405460157469,0.00841812922246,-0.0308721555299,0.001,-198.110093521,-6500.0,0.0,-300.0,0.0
1513265012802699092,,493557,,1513265011,26820663,'',0.436332312999,0.405441459521,-0.00895306671239,-0.0308908534778,0.001,-203.50274134,-6500.0,0.0,-300.0,0.0
1513265012812541014,,493558,,1513265011,36820663,'',0.436332312999,0.405458400519,0.0084602669114,-0.0308739124795,0.001,-198.13638194,-6500.0,0.0,-300.0,0.0
1513265012822525919,,493559,,1513265011,46820663,'',0.436332312999,0.405503050104,0.00755415831145,-0.0308292628943,0.001,-198.108850851,-6500.0,0.0,-300.0,0.0
1513265012832533570,,493560,,1513265011,56820663,'',0.436332312999,0.405622074177,0.0229000156602,-0.0307102388214,0.001,-192.71210532,-6500.0,0.0,-300.0,0.0
1513265012842525762,,493561,,1513265011,66820663,'',0.436332312999,0.405943335647,0.0519035758657,-0.0303889773521,0.001,-181.847030402,-6500.0,0.0,-300.0,0.0
1513265012852507666,,493562,,1513265011,76820663,'',0.436332312999,0.40649178037,0.0585643715769,-0.029840532629,0.001,-176.694738138,-6500.0,0.0,-300.0,0.0
1513265012862627762,,493563,,1513265011,86820663,'',0.436332312999,0.40724601383,0.0788252279398,-0.0290862991687,0.001,-165.244027044,-6500.0,0.0,-300.0,0.0
1513265012872516741,,493564,,1513265011,96820663,'',0.436332312999,0.408147834004,0.0960996696854,-0.0281844789949,0.001,-154.897986973,-6500.0,0.0,-300.0,0.0
1513265012882809203,,493565,,1513265011,106820663,'',0.436332312999,0.409110234973,0.0944027822427,-0.0272220780258,0.001,-148.282075908,-6500.0,0.0,-300.0,0.0
1513265012892768356,,493566,,1513265011,116820663,'',0.436332312999,0.410007160268,0.0940316824979,-0.0263251527304,0.001,-142.870677899,-6500.0,0.0,-300.0,0.0
1513265012902640992,,493567,,1513265011,126820663,'',0.436332312999,0.410803355918,0.0779472895096,-0.0255289570802,0.001,-142.436018833,-6500.0,0.0,-300.0,0.0
1513265012912506488,,493568,,1513265011,136820663,'',0.436332312999,0.41150346278,0.0638050757785,-0.0248288502181,0.001,-142.130959149,-6500.0,0.0,-300.0,0.0
1513265012922505510,,493569,,1513265011,146820663,'',0.436332312999,0.412092478698,0.0696508537676,-0.0242398343009,0.001,-137.06572025,-6500.0,0.0,-300.0,0.0
1513265012932475697,,493570,,1513265011,156820663,'',0.436332312999,0.412719957161,0.056979383432,-0.0236123558377,0.001,-136.333582125,-6500.0,0.0,-300.0,0.0
1513265012942933508,,493571,,1513265011,166820663,'',0.436332312999,0.413458007262,0.0598159556607,-0.0228743057369,0.001,-130.682340898,-6500.0,0.0,-300.0,0.0
1513265012952392808,,493572,,1513265011,176820663,'',0.436332312999,0.414345846268,0.0773770438724,-0.0219864667303,0.001,-119.510152663,-6500.0,0.0,-300.0,0.0
1513265012962872739,,493573,,1513265011,186820663,'',0.436332312999,0.415301010479,0.111326886594,-0.02103130252,0.001,-103.139608325,-6500.0,0.0,-300.0,0.0
1513265012972892085,,493574,,1513265011,196820663,'',0.436332312999,0.41630329985,0.108822268193,-0.0200290131489,0.001,-98.0703129829,-6500.0,0.0,-300.0,0.0
1513265012982849808,,493575,,1513265011,206820663,'',0.436332312999,0.41728203066,0.0890523276951,-0.019050282339,0.001,-96.9521275061,-6500.0,0.0,-300.0,0.0
1513265012992869263,,493576,,1513265011,216820663,'',0.436332312999,0.418225696174,0.0877385316086,-0.0181066168247,0.001,-91.1330377571,-6500.0,0.0,-300.0,0.0
1513265013002714682,,493577,,1513265011,226820663,'',0.436332312999,0.419011679692,0.0718602851519,-0.0173206333061,0.001,-91.3758140273,-6500.0,0.0,-300.0,0.0
1513265013012901949,,493578,,1513265011,236820663,'',0.436332312999,0.419785990375,0.0739584653856,-0.0165463226235,0.001,-85.2459592458,-6500.0,0.0,-300.0,0.0
1513265013022892958,,493579,,1513265011,246820663,'',0.436332312999,0.420532254661,0.0766356467338,-0.0158000583373,0.001,-79.5950589569,-6500.0,0.0,-300.0,0.0
1513265013032705996,,493580,,1513265011,256820663,'',0.436332312999,0.421270381215,0.0794761405686,-0.0150619317833,0.001,-74.4473252635,-6500.0,0.0,-300.0,0.0
1513265013042751360,,493581,,1513265011,266820663,'',0.436332312999,0.42203153636,0.0640981545141,-0.0143007766383,0.001,-73.570331004,-6500.0,0.0,-300.0,0.0
1513265013052725027,,493582,,1513265011,276820663,'',0.436332312999,0.422816522283,0.0837397763602,-0.0135157907157,0.001,-62.6319078035,-6500.0,0.0,-300.0,0.0
1513265013062609638,,493583,,1513265011,286820663,'',0.436332312999,0.423568268213,0.0685521709006,-0.0127640447858,0.001,-62.319759733,-6500.0,0.0,-300.0,0.0
1513265013072600423,,493584,,1513265011,296820663,'',0.436332312999,0.424296235424,0.0715936566416,-0.0120360775747,0.001,-56.6511964476,-6500.0,0.0,-300.0,0.0
1513265013082528515,,493585,,1513265011,306820663,'',0.436332312999,0.425037200489,0.0743650804123,-0.0112951125094,0.001,-50.9917486737,-6500.0,0.0,-300.0,0.0
1513265013092530097,,493586,,1513265011,316820663,'',0.436332312999,0.425737490564,0.0779636904386,-0.0105948224348,0.001,-45.8778337335,-6500.0,0.0,-300.0,0.0
1513265013102441341,,493587,,1513265011,326820663,'',0.436332312999,0.426407059345,0.0644276303715,-0.00992525365404,0.001,-45.4765966442,-6500.0,0.0,-300.0,0.0
1513265013112853267,,493588,,1513265011,336820663,'',0.436332312999,0.427018481902,0.0520706868087,-0.00931383109622,0.001,-44.8352705231,-6500.0,0.0,-300.0,0.0
1513265013122923742,,493589,,1513265011,346820663,'',0.436332312999,0.427615926806,0.0577531806415,-0.00871638619212,0.001,-39.1689959845,-6500.0,0.0,-300.0,0.0
1513265013132427258,,493590,,1513265011,356820663,'',0.436332312999,0.428148484481,0.046996906655,-0.00818382851793,0.001,-39.3207479696,-6500.0,0.0,-300.0,0.0
1513265013142940069,,493591,,1513265011,366820663,'',0.436332312999,0.428649675744,0.0368655805828,-0.00768263725498,0.001,-38.7820979507,-6500.0,0.0,-300.0,0.0
1513265013152777317,,493592,,1513265011,376820663,'',0.436332312999,0.429124841442,0.0450157200471,-0.00720747155612,0.001,-33.2552159252,-6500.0,0.0,-300.0,0.0
1513265013162645576,,493593,,1513265011,386820663,'',0.436332312999,0.429545444503,0.0365246303318,-0.00678686849594,0.001,-33.0992923828,-6500.0,0.0,-300.0,0.0
1513265013172570573,,493594,,1513265011,396820663,'',0.436332312999,0.429968597563,0.0457223599307,-0.00636371543514,0.001,-27.6149786406,-6500.0,0.0,-300.0,0.0
1513265013182421911,,493595,,1513265011,406820663,'',0.436332312999,0.430379281971,0.0374282408985,-0.00595303102763,0.001,-27.404491394,-6500.0,0.0,-300.0,0.0
1513265013192473644,,493596,,1513265011,416820663,'',0.436332312999,0.430715402375,0.0306400050025,-0.00561691062399,0.001,-27.3249466441,-6500.0,0.0,-300.0,0.0
1513265013202428980,,493597,,1513265011,426820663,'',0.436332312999,0.431006193444,0.0247670861492,-0.00532611955484,0.001,-27.315180641,-6500.0,0.0,-300.0,0.0
1513265013212989996,,493598,,1513265011,436820663,'',0.436332312999,0.431262253872,0.01959131225,-0.0050700591261,0.001,-27.0216378604,-6500.0,0.0,-300.0,0.0
1513265013222908778,,493599,,1513265011,446820663,'',0.436332312999,0.431518972368,0.0321537672578,-0.00481334063091,0.001,-21.6177705422,-6500.0,0.0,-300.0,0.0
1513265013232917034,,493600,,1513265011,456820663,'',0.436332312999,0.431742807764,0.00987924097218,-0.00458950523447,0.001,-26.902579295,-6500.0,0.0,-300.0,0.0
1513265013242891647,,493601,,1513265011,466820663,'',0.436332312999,0.431990916466,0.0226172531206,-0.00434139653297,0.001,-21.3623408511,-6500.0,0.0,-300.0,0.0
1513265013252747703,,493602,,1513265011,476820663,'',0.436332312999,0.432210192271,0.0181928711885,-0.0041221207273,0.001,-21.3174248159,-6500.0,0.0,-300.0,0.0
1513265013262688745,,493603,,1513265011,486820663,'',0.436332312999,0.432404388296,0.0142709674853,-0.0039279247022,0.001,-21.4263792758,-6500.0,0.0,-300.0,0.0
1513265013272646294,,493604,,1513265011,496820663,'',0.436332312999,0.432580052277,0.0107228220456,-0.00375226072157,0.001,-21.1454121346,-6500.0,0.0,-300.0,0.0
1513265013282600971,,493605,,1513265011,506820663,'',0.436332312999,0.432785221319,0.00657903190004,-0.00354709167924,0.001,-21.0714933418,-6500.0,0.0,-300.0,0.0
1513265013292589418,,493606,,1513265011,516820663,'',0.436332312999,0.432972627251,0.020542413008,-0.00335968574781,0.001,-15.7686987385,-6500.0,0.0,-300.0,0.0
1513265013302554537,,493607,,1513265011,526820663,'',0.436332312999,0.433140641486,0.0171489633888,-0.00319167151282,0.001,-15.5802141169,-6500.0,0.0,-300.0,0.0
1513265013312512504,,493608,,1513265011,536820663,'',0.436332312999,0.433263620211,0.0146645993417,-0.00306869278736,0.001,-15.5249112389,-6500.0,0.0,-300.0,0.0
1513265013322584538,,493609,,1513265011,546820663,'',0.436332312999,0.433411434827,0.0116777179489,-0.00292087817189,0.001,-15.5344224921,-6500.0,0.0,-300.0,0.0
1513265013332448648,,493610,,1513265011,556820663,'',0.436332312999,0.433531469281,0.00925564381374,-0.00280084371786,0.001,-15.4206049014,-6500.0,0.0,-300.0,0.0
1513265013342533870,,493611,,1513265011,566820663,'',0.436332312999,0.433675599988,0.00634431915638,-0.00265671301085,0.001,-15.3484586014,-6500.0,0.0,-300.0,0.0
1513265013352474772,,493612,,1513265011,576820663,'',0.436332312999,0.433796381143,0.0216482187243,-0.00253593185551,0.001,-10.0936985525,-6500.0,0.0,-300.0,0.0
1513265013362510088,,493613,,1513265011,586820663,'',0.436332312999,0.433928428284,0.0189835324262,-0.00240388471458,0.001,-9.90201458756,-6500.0,0.0,-300.0,0.0
1513265013372932437,,493614,,1513265011,596820663,'',0.436332312999,0.434002834244,-0.000265326057571,-0.00232947875486,0.001,-15.2207361908,-6500.0,0.0,-300.0,0.0
1513265013382889062,,493615,,1513265011,606820663,'',0.436332312999,0.434144552444,0.0146195242243,-0.00218776055489,0.001,-9.72480712738,-6500.0,0.0,-300.0,0.0
1513265013392716928,,493616,,1513265011,616820663,'',0.436332312999,0.434225603031,0.0129814520991,-0.00210670996709,0.001,-9.77566450274,-6500.0,0.0,-300.0,0.0
1513265013402640867,,493617,,1513265011,626820663,'',0.436332312999,0.434342122467,0.0106272518904,-0.00199019053194,0.001,-9.73572203252,-6500.0,0.0,-300.0,0.0
1513265013412518248,,493618,,1513265011,636820663,'',0.436332312999,0.434421802112,0.00901724057166,-0.00191051088633,0.001,-9.7599476583,-6500.0,0.0,-300.0,0.0
1513265013422505821,,493619,,1513265011,646820663,'',0.436332312999,0.434518854998,0.00705527919879,-0.00181345800107,0.001,-9.65978847238,-6500.0,0.0,-300.0,0.0
1513265013432492705,,493620,,1513265011,656820663,'',0.436332312999,0.434632620731,0.0225018543719,0.0,0.001,0.0,-6500.0,0.0,-300.0,0.0
1513265013442893307,,493621,,1513265011,666820663,'',0.436332312999,0.434789062683,0.019341776757,0.0,0.001,0.0,-6500.0,0.0,-300.0,0.0
1513265013452693233,,493622,,1513265011,676820663,'',0.436332312999,0.434916484719,0.0167685547552,0.0,0.001,0.0,-6500.0,0.0,-300.0,0.0
1513265013462668364,,493623,,1513265011,686820663,'',0.436332312999,0.43505121081,0.0140470129041,0.0,0.001,0.0,-6500.0,0.0,-300.0,0.0
1513265013472682882,,493624,,1513265011,696820663,'',0.436332312999,0.43517707639,0.0115046179609,0.0,0.001,0.0,-6500.0,0.0,-300.0,0.0
1513265013482628410,,493625,,1513265011,706820663,'',0.436332312999,0.435296602369,0.00909069630828,0.0,0.001,0.0,-6500.0,0.0,-300.0,0.0
1513265013492561453,,493626,,1513265011,716820663,'',0.436332312999,0.435457021788,0.00584701775638,0.0,0.001,0.0,-6500.0,0.0,-300.0,0.0
1513265013502520334,,493627,,1513265011,726820663,'',0.436332312999,0.435603770522,0.00287916989611,0.0,0.001,0.0,-6500.0,0.0,-300.0,0.0
1513265013512747755,,493628,,1513265011,736820663,'',0.436332312999,0.435709181037,0.0184926345593,0.0,0.001,0.0,-6500.0,0.0,-300.0,0.0
1513265013522699890,,493629,,1513265011,746820663,'',0.436332312999,0.435811913415,0.016418898083,0.0,0.001,0.0,-6500.0,0.0,-300.0,0.0
1513265013532590506,,493630,,1513265011,756820663,'',0.436332312999,0.435925894972,0.0141149491378,0.0,0.001,0.0,-6500.0,0.0,-300.0,0.0
1513265013542966947,,493631,,1513265011,766820663,'',0.436332312999,0.435991955122,0.0127821318245,0.0,0.001,0.0,-6500.0,0.0,-300.0,0.0
1513265013552472946,,493632,,1513265011,776820663,'',0.436332312999,0.436092152052,0.0107603274326,0.0,0.001,0.0,-6500.0,0.0,-300.0,0.0
1513265013562548621,,493633,,1513265011,786820663,'',0.436332312999,0.43617408517,0.00910924394855,0.0,0.001,0.0,-6500.0,0.0,-300.0,0.0
1513265013572524689,,493634,,1513265011,796820663,'',0.436332312999,0.436240742949,0.00776099937945,0.0,0.001,0.0,-6500.0,0.0,-300.0,0.0
1513265013582961592,,493635,,1513265011,806820663,'',0.436332312999,0.436326253102,0.00603309324775,0.0,0.001,0.0,-6500.0,0.0,-300.0,0.0
1513265013592928602,,493636,,1513265011,816820663,'',0.436332312999,0.436394377301,0.00466107187677,0.0,0.001,0.0,-6500.0,0.0,-300.0,0.0
1513265013602879459,,493637,,1513265011,826820663,'',0.436332312999,0.436436157626,0.00381721919241,0.0,0.001,0.0,-6500.0,0.0,-300.0,0.0
1513265013613016128,,493638,,1513265011,836820663,'',0.436332312999,0.43653443538,0.0195740512249,0.0,0.001,0.0,-6500.0,0.0,-300.0,0.0
1513265013622443294,,493639,,1513265011,846820663,'',0.436332312999,0.436627217142,-4.66968156508e-05,0.0,0.001,0.0,-6500.0,0.0,-300.0,0.0
1513265013632920131,,493640,,1513265011,856820663,'',0.436332312999,0.436756363155,0.0150895268989,0.0,0.001,0.0,-6500.0,0.0,-300.0,0.0
1513265013642789549,,493641,,1513265011,866820663,'',0.436332312999,0.43689322881,0.0300708957503,0.0,0.001,0.0,-6500.0,0.0,-300.0,0.0
1513265013652706337,,493642,,1513265011,876820663,'',0.436332312999,0.437036096252,0.00943740203878,0.0,0.001,0.0,-6500.0,0.0,-300.0,0.0
1513265013662691494,,493643,,1513265011,886820663,'',0.436332312999,0.437248984605,0.0228896159428,0.0,0.001,0.0,-6500.0,0.0,-300.0,0.0
1513265013672720311,,493644,,1513265011,896820663,'',0.436332312999,0.437439659569,0.0190353779456,0.0,0.001,0.0,-6500.0,0.0,-300.0,0.0
1513265013682606737,,493645,,1513265011,906820663,'',0.436332312999,0.437675792362,0.0320110712532,0.0,0.001,0.0,-6500.0,0.0,-300.0,0.0
1513265013692619693,,493646,,1513265011,916820663,'',0.436332312999,0.437963269775,0.0262048296239,0.0,0.001,0.0,-6500.0,0.0,-300.0,0.0
1513265013702598981,,493647,,1513265011,926820663,'',0.436332312999,0.438247820233,0.0382058296586,0.0,0.001,0.0,-6500.0,0.0,-300.0,0.0
1513265013712629301,,493648,,1513265011,936820663,'',0.436332312999,0.438606734036,0.0309556833469,0.0,0.001,0.0,-6500.0,0.0,-300.0,0.0
1513265013722572721,,493649,,1513265011,946820663,'',0.436332312999,0.438885337288,0.02532806516,0.0,0.001,0.0,-6500.0,0.0,-300.0,0.0
1513265013732395648,,493650,,1513265011,956820663,'',0.436332312999,0.439112239253,0.0207447818764,0.0,0.001,0.0,-6500.0,0.0,-300.0,0.0
1513265013742898202,,493651,,1513265011,966820663,'',0.436332312999,0.439297421384,0.0170003409102,0.0,0.001,0.0,-6500.0,0.0,-300.0,0.0
1513265013752911069,,493652,,1513265011,976820663,'',0.436332312999,0.439482273041,0.0132781558302,0.0,0.001,0.0,-6500.0,0.0,-300.0,0.0
1513265013762424100,,493653,,1513265011,986820663,'',0.436332312999,0.439683343774,0.0269638598731,0.0,0.001,0.0,-6500.0,0.0,-300.0,0.0
1513265013772984737,,493654,,1513265011,996820663,'',0.436332312999,0.439908876257,0.0224066155637,0.0,0.001,0.0,-6500.0,0.0,-300.0,0.0
1513265013782961767,,493655,,1513265012,6820663,'',0.436332312999,0.440161491797,0.035050392608,0.0,0.001,0.0,-6500.0,0.0,-300.0,0.0
1513265013792943520,,493656,,1513265012,16820663,'',0.436332312999,0.440445087713,0.029317013056,0.0,0.001,0.0,-6500.0,0.0,-300.0,0.0
1513265013802664914,,493657,,1513265012,26820663,'',0.436332312999,0.440742224242,0.0410657411079,0.0,0.001,0.0,-6500.0,0.0,-300.0,0.0
1513265013812610947,,493658,,1513265012,36820663,'',0.436332312999,0.441062228121,0.0345997810993,0.0,0.001,0.0,-6500.0,0.0,-300.0,0.0
1513265013822571329,,493659,,1513265012,46820663,'',0.436332312999,0.441325876578,0.0292698054274,0.0,0.001,0.0,-6500.0,0.0,-300.0,0.0
1513265013832464766,,493660,,1513265012,56820663,'',0.436332312999,0.441558128664,0.0245714325414,0.0,0.001,0.0,-6500.0,0.0,-300.0,0.0
1513265013842436515,,493661,,1513265012,66820663,'',0.436332312999,0.441795944241,0.0197681227014,0.0,0.001,0.0,-6500.0,0.0,-300.0,0.0
1513265013852927406,,493662,,1513265012,76820663,'',0.436332312999,0.442120130196,0.0487086759247,0.0,0.001,0.0,-6500.0,0.0,-300.0,0.0
1513265013862792087,,493663,,1513265012,86820663,'',0.436332312999,0.442542429998,0.0401808956435,0.0,0.001,0.0,-6500.0,0.0,-300.0,0.0
1513265013872889001,,493664,,1513265012,96820663,'',0.436332312999,0.442903934859,0.0328794633729,0.0,0.001,0.0,-6500.0,0.0,-300.0,0.0
1513265013882876914,,493665,,1513265012,106820663,'',0.436332312999,0.443244273599,0.0260090440434,0.0,0.001,0.0,-6500.0,0.0,-300.0,0.0
1513265013892768143,,493666,,1513265012,116820663,'',0.436332312999,0.443525935694,0.0380715956531,0.0,0.001,0.0,-6500.0,0.0,-300.0,0.0
1513265013902724627,,493667,,1513265012,126820663,'',0.436332312999,0.443773931939,0.0153154151291,0.0,0.001,0.0,-6500.0,0.0,-300.0,0.0
1513265013912717962,,493668,,1513265012,136820663,'',0.436332312999,0.443992137616,0.0109220193832,0.0,0.001,0.0,-6500.0,0.0,-300.0,0.0
1513265013922612586,,493669,,1513265012,146820663,'',0.436332312999,0.444232623527,0.0238059524719,0.0,0.001,0.0,-6500.0,0.0,-300.0,0.0
1513265013932681340,,493670,,1513265012,156820663,'',0.436332312999,0.444462107287,0.0191678733293,0.0,0.001,0.0,-6500.0,0.0,-300.0,0.0
1513265013942838114,,493671,,1513265012,166820663,'',0.436332312999,0.444633842111,0.015696473649,0.0,0.001,0.0,-6500.0,0.0,-300.0,0.0
1513265013952723957,,493672,,1513265012,176820663,'',0.436332312999,0.444821493833,0.0119003359129,0.0,0.001,0.0,-6500.0,0.0,-300.0,0.0
1513265013962624663,,493673,,1513265012,186820663,'',0.436332312999,0.445009004586,0.02585528239,0.0,0.001,0.0,-6500.0,0.0,-300.0,0.0
1513265013972652023,,493674,,1513265012,196820663,'',0.436332312999,0.44517793696,0.0224412035602,0.0,0.001,0.0,-6500.0,0.0,-300.0,0.0
1513265013982613442,,493675,,1513265012,206820663,'',0.436332312999,0.445331492127,0.00159145960699,0.0,0.001,0.0,-6500.0,0.0,-300.0,0.0
1513265013992584728,,493676,,1513265012,216820663,'',0.436332312999,0.445472990473,-0.00126711912529,0.0,0.001,0.0,-6500.0,0.0,-300.0,0.0
1513265014002514838,,493677,,1513265012,226820663,'',0.436332312999,0.44560420682,0.0138373191617,0.0,0.001,0.0,-6500.0,0.0,-300.0,0.0
1513265014012540769,,493678,,1513265012,236820663,'',0.436332312999,0.445679778437,0.01230879193,0.0,0.001,0.0,-6500.0,0.0,-300.0,0.0
1513265014022511317,,493679,,1513265012,246820663,'',0.436332312999,0.445790091517,0.0100796068955,0.0,0.001,0.0,-6500.0,0.0,-300.0,0.0
1513265014032431538,,493680,,1513265012,256820663,'',0.436332312999,0.445865637751,0.00855561223088,0.0,0.001,0.0,-6500.0,0.0,-300.0,0.0
1513265014042911066,,493681,,1513265012,266820663,'',0.436332312999,0.445942257705,0.00700681538371,0.0,0.001,0.0,-6500.0,0.0,-300.0,0.0
1513265014052878841,,493682,,1513265012,276820663,'',0.436332312999,0.445988593228,0.00606900923375,0.0,0.001,0.0,-6500.0,0.0,-300.0,0.0
1513265014062910697,,493683,,1513265012,286820663,'',0.436332312999,0.446008426737,-0.0120802848127,0.0,0.001,0.0,-6500.0,0.0,-300.0,0.0
1513265014072804467,,493684,,1513265012,296820663,'',0.436332312999,0.446011779298,0.00559932298239,0.0,0.001,0.0,-6500.0,0.0,-300.0,0.0
1513265014082719841,,493685,,1513265012,306820663,'',0.436332312999,0.446013069406,-0.0121749187129,0.0,0.001,0.0,-6500.0,0.0,-300.0,0.0
1513265014092639785,,493686,,1513265012,316820663,'',0.436332312999,0.446045928671,0.00490930036639,0.0,0.001,0.0,-6500.0,0.0,-300.0,0.0
1513265014102693411,,493687,,1513265012,326820663,'',0.436332312999,0.446141431693,0.0207322938102,0.0,0.001,0.0,-6500.0,0.0,-300.0,0.0
1513265014112564356,,493688,,1513265012,336820663,'',0.436332312999,0.446574917438,0.0652194112214,0.0,0.001,0.0,-6500.0,0.0,-300.0,0.0
1513265014122542101,,493689,,1513265012,346820663,'',0.436332312999,0.447408725767,0.101617701565,0.0,0.001,0.0,-6500.0,0.0,-300.0,0.0
1513265014132418116,,493690,,1513265012,356820663,'',0.436332312999,0.448420589508,0.0989232040624,0.0120882765092,0.001,108.489190563,-6500.0,0.0,-300.0,0.0
1513265014142435795,,493691,,1513265012,366820663,'',0.436332312999,0.449323397156,0.0806828356631,0.0129910841575,0.001,108.328789549,-6500.0,0.0,-300.0,0.0
1513265014152992531,,493692,,1513265012,376820663,'',0.436332312999,0.450077140499,0.0654554997471,0.0137448275001,0.001,109.036630886,-6500.0,0.0,-300.0,0.0
1513265014163133891,,493693,,1513265012,386820663,'',0.436332312999,0.450879985047,0.102473507689,0.0145476720483,0.001,125.521962407,-6500.0,0.0,-300.0,0.0
1513265014172560335,,493694,,1513265012,396820663,'',0.436332312999,0.451813360737,0.0836184995496,0.0154810477385,0.001,124.623688542,-6500.0,0.0,-300.0,0.0
1513265014182482849,,493695,,1513265012,406820663,'',0.436332312999,0.452598457716,0.0855095251028,0.0162661447174,0.001,131.453986716,-6500.0,0.0,-300.0,0.0
1513265014193002848,,493696,,1513265012,416820663,'',0.436332312999,0.453336453708,0.0706014759302,0.017004140709,0.001,131.791313615,-6500.0,0.0,-300.0,0.0
1513265014202872404,,493697,,1513265012,426820663,'',0.436332312999,0.454034222179,0.0565074684813,0.0177019091807,0.001,131.685168347,-6500.0,0.0,-300.0,0.0
1513265014212807493,,493698,,1513265012,436820663,'',0.436332312999,0.454670661128,0.0613988794546,0.018338348129,0.001,137.730838245,-6500.0,0.0,-300.0,0.0
1513265014222760936,,493699,,1513265012,446820663,'',0.436332312999,0.455172734113,0.0335001556419,0.0188404211142,0.001,132.594943909,-6500.0,0.0,-300.0,0.0
1513265014232662313,,493700,,1513265012,456820663,'',0.436332312999,0.455780396416,0.0744583133259,0.0194480834178,0.001,148.842914417,-6500.0,0.0,-300.0,0.0
1513265014242645200,,493701,,1513265012,466820663,'',0.436332312999,0.456466296524,0.0606040785877,0.0201339835257,0.001,149.162755401,-6500.0,0.0,-300.0,0.0
1513265014252632671,,493702,,1513265012,476820663,'',0.436332312999,0.457025261006,0.049317120107,0.0206929480074,0.001,149.04631072,-6500.0,0.0,-300.0,0.0
1513265014262481746,,493703,,1513265012,486820663,'',0.436332312999,0.457485670307,0.0577651964345,0.0211533573084,0.001,154.929986313,-6500.0,0.0,-300.0,0.0
1513265014272613547,,493704,,1513265012,496820663,'',0.436332312999,0.457877957937,0.0320921317204,0.0215456449386,0.001,149.753308223,-6500.0,0.0,-300.0,0.0
1513265014282613851,,493705,,1513265012,506820663,'',0.436332312999,0.458244268359,0.0246914147989,0.0219119553606,0.001,149.687613849,-6500.0,0.0,-300.0,0.0
1513265014292954395,,493706,,1513265012,516820663,'',0.436332312999,0.458529844097,0.0189105516878,0.0221975310989,0.001,150.007816225,-6500.0,0.0,-300.0,0.0
1513265014302711223,,493707,,1513265012,526820663,'',0.436332312999,0.458825604775,0.0306913257773,0.0224932917759,0.001,155.499557892,-6500.0,0.0,-300.0,0.0
1513265014313005648,,493708,,1513265012,536820663,'',0.436332312999,0.459021043175,0.0267483707096,0.0226887301767,0.001,155.543794513,-6500.0,0.0,-300.0,0.0
1513265014322832017,,493709,,1513265012,546820663,'',0.436332312999,0.459163606982,0.0238619615571,0.0228312939839,0.001,155.455385142,-6500.0,0.0,-300.0,0.0
1513265014332758081,,493710,,1513265012,556820663,'',0.436332312999,0.459266052243,0.0040531674097,0.0229337392449,0.001,150.291437582,-6500.0,0.0,-300.0,0.0
1513265014342779351,,493711,,1513265012,566820663,'',0.436332312999,0.459317041783,0.00302600013347,0.0229847287842,0.001,150.298552044,-6500.0,0.0,-300.0,0.0
1513265014352561782,,493712,,1513265012,576820663,'',0.436332312999,0.459326983541,0.0028198703766,0.0229946705423,0.001,150.295177964,-6500.0,0.0,-300.0,0.0
1513265014362489450,,493713,,1513265012,586820663,'',0.436332312999,0.459240715082,-0.0131866044114,0.0229084020833,0.001,144.930335622,-6500.0,0.0,-300.0,0.0
1513265014372538703,,493714,,1513265012,596820663,'',0.436332312999,0.459153935653,-0.0114353697283,0.0228216226543,0.001,144.97488674,-6500.0,0.0,-300.0,0.0
1513265014382966983,,493715,,1513265012,606820663,'',0.436332312999,0.459051253045,-0.00935985706734,0.0227189400469,0.001,144.847364223,-6500.0,0.0,-300.0,0.0
1513265014392920172,,493716,,1513265012,616820663,'',0.436332312999,0.458967313915,-0.00766320430993,0.0226350009159,0.001,144.818407193,-6500.0,0.0,-300.0,0.0
1513265014402848076,,493717,,1513265012,626820663,'',0.436332312999,0.458898670289,-0.00627571799058,0.0225663572908,0.001,144.833798747,-6500.0,0.0,-300.0,0.0
1513265014412758661,,493718,,1513265012,636820663,'',0.436332312999,0.458842349699,-0.00513731585945,0.0225100367001,0.001,144.768731591,-6500.0,0.0,-300.0,0.0
1513265014422801151,,493719,,1513265012,646820663,'',0.436332312999,0.458796232649,-0.00420515681552,0.02246391965,0.001,144.741990804,-6500.0,0.0,-300.0,0.0
1513265014432678924,,493720,,1513265012,656820663,'',0.436332312999,0.458758585009,-0.00344418905965,0.0224262720101,0.001,144.755830642,-6500.0,0.0,-300.0,0.0
1513265014442618170,,493721,,1513265012,666820663,'',0.436332312999,0.458727664289,-0.00281919182097,0.02239535129,0.001,144.71602119,-6500.0,0.0,-300.0,0.0
1513265014452657380,,493722,,1513265012,676820663,'',0.436332312999,0.458702374718,-0.00230801641411,0.0223700617195,0.001,144.709109726,-6500.0,0.0,-300.0,0.0
1513265014462485948,,493723,,1513265012,686820663,'',0.436332312999,0.458649877339,-0.00125473459854,0.0223175643406,0.001,144.695652572,-6500.0,0.0,-300.0,0.0
1513265014472601632,,493724,,1513265012,696820663,'',0.436332312999,0.458638690159,-0.00102718713842,0.0223063771608,0.001,144.685124039,-6500.0,0.0,-300.0,0.0
1513265014482496830,,493725,,1513265012,706820663,'',0.436332312999,0.458629528435,-0.000840837490326,0.0222972154368,0.001,144.679335901,-6500.0,0.0,-300.0,0.0
1513265014492922071,,493726,,1513265012,716820663,'',0.436332312999,0.458622047854,-0.000688682306373,0.022289734855,0.001,144.682245427,-6500.0,0.0,-300.0,0.0
1513265014502799982,,493727,,1513265012,726820663,'',0.436332312999,0.458582621726,0.000104903599078,0.0222503087277,0.001,144.660917039,-6500.0,0.0,-300.0,0.0
1513265014512566738,,493728,,1513265012,736820663,'',0.436332312999,0.458536816017,0.00102819376837,0.0222045030181,0.001,144.642164518,-6500.0,0.0,-300.0,0.0
1513265014522474493,,493729,,1513265012,746820663,'',0.436332312999,0.45846554943,-0.0152760645288,0.0221332364318,0.001,139.261156137,-6500.0,0.0,-300.0,0.0
1513265014532471072,,493730,,1513265012,756820663,'',0.436332312999,0.458426600245,0.00326398235005,0.0220942872463,0.001,144.597042992,-6500.0,0.0,-300.0,0.0
1513265014542463923,,493731,,1513265012,766820663,'',0.436332312999,0.458328725144,0.00524155098693,0.021996412145,0.001,144.558867177,-6500.0,0.0,-300.0,0.0
1513265014552904607,,493732,,1513265012,776820663,'',0.436332312999,0.458328905183,0.00523277220393,0.0219965921848,0.001,144.557047351,-6500.0,0.0,-300.0,0.0
1513265014562899418,,493733,,1513265012,786820663,'',0.436332312999,0.458233951804,0.00714805546893,0.0219016388051,0.001,144.483538742,-6500.0,0.0,-300.0,0.0
1513265014572838420,,493734,,1513265012,796820663,'',0.436332312999,0.458221278107,0.00740906335154,0.0218889651084,0.001,144.512985618,-6500.0,0.0,-300.0,0.0
1513265014582861200,,493735,,1513265012,806820663,'',0.436332312999,0.458175158086,-0.00940370610424,0.0218428450877,0.001,139.129107027,-6500.0,0.0,-300.0,0.0
1513265014592746881,,493736,,1513265012,816820663,'',0.436332312999,0.458107060208,-0.00802802106333,0.0217747472098,0.001,139.120136571,-6500.0,0.0,-300.0,0.0
1513265014602668238,,493737,,1513265012,826820663,'',0.436332312999,0.45804961391,-0.00686650016999,0.0217173009112,0.001,139.085528042,-6500.0,0.0,-300.0,0.0
1513265014612695027,,493738,,1513265012,836820663,'',0.436332312999,0.458021831908,0.0114418591022,0.0216895189097,0.001,144.428027325,-6500.0,0.0,-300.0,0.0
1513265014622606647,,493739,,1513265012,846820663,'',0.436332312999,0.457965297419,-0.00516216997066,0.0216329844203,0.001,139.055594345,-6500.0,0.0,-300.0,0.0
1513265014632648142,,493740,,1513265012,856820663,'',0.436332312999,0.457918904813,-0.00422531984678,0.0215865918143,0.001,139.0329698,-6500.0,0.0,-300.0,0.0
1513265014642709302,,493741,,1513265012,866820663,'',0.436332312999,0.457864867866,-0.00313427519571,0.0215325548671,0.001,139.031519365,-6500.0,0.0,-300.0,0.0
1513265014652603325,,493742,,1513265012,876820663,'',0.436332312999,0.457806388966,-0.00194906626503,0.0214740759672,0.001,138.991274562,-6500.0,0.0,-300.0,0.0
1513265014662656415,,493743,,1513265012,886820663,'',0.436332312999,0.457788840574,-0.00159544124651,0.0214565275757,0.001,138.983717473,-6500.0,0.0,-300.0,0.0
1513265014672542117,,493744,,1513265012,896820663,'',0.436332312999,0.457774509734,-0.00130665445074,0.0214421967352,0.001,138.979352816,-6500.0,0.0,-300.0,0.0
1513265014682988072,,493745,,1513265012,906820663,'',0.436332312999,0.457746611176,-0.000740346000481,0.0214142981779,0.001,138.967446056,-6500.0,0.0,-300.0,0.0
1513265014692988624,,493746,,1513265012,916820663,'',0.436332312999,0.457709544208,4.35614510104e-06,0.0213772312093,0.001,138.952741964,-6500.0,0.0,-300.0,0.0
1513265014702529827,,493747,,1513265012,926820663,'',0.436332312999,0.457709566651,3.56593247762e-06,0.0213772536528,0.001,138.952765005,-6500.0,0.0,-300.0,0.0
1513265014712737369,,493748,,1513265012,936820663,'',0.436332312999,0.457661889192,0.000963134999817,0.0213295761938,0.001,138.934083646,-6500.0,0.0,-300.0,0.0
1513265014722717012,,493749,,1513265012,946820663,'',0.436332312999,0.457655754328,0.00109491681445,0.0213234413294,0.001,138.930735226,-6500.0,0.0,-300.0,0.0
1513265014732524100,,493750,,1513265012,956820663,'',0.436332312999,0.457648048539,-0.0164986788703,0.0213157355405,0.001,133.575659105,-6500.0,0.0,-300.0,0.0
1513265014743038200,,493751,,1513265012,966820663,'',0.436332312999,0.457627880417,0.00165452379125,0.021295567418,0.001,138.909895139,-6500.0,0.0,-300.0,0.0
1513265014752913416,,493752,,1513265012,976820663,'',0.436332312999,0.457609115458,0.00202957130502,0.0212768024597,0.001,138.911054575,-6500.0,0.0,-300.0,0.0
1513265014762471953,,493753,,1513265012,986820663,'',0.436332312999,0.457579215643,0.00263362744173,0.0212469026446,0.001,138.882648979,-6500.0,0.0,-300.0,0.0
1513265014772544272,,493754,,1513265012,996820663,'',0.436332312999,0.457602875342,0.00215597516881,0.0212705623433,0.001,138.908463486,-6500.0,0.0,-300.0,0.0
1513265014782868914,,493755,,1513265013,6820663,'',0.436332312999,0.457607300345,0.0020648714919,0.0212749873467,0.001,138.914783449,-6500.0,0.0,-300.0,0.0
1513265014792850272,,493756,,1513265013,16820663,'',0.436332312999,0.457625826046,0.00169118688778,0.0212935130471,0.001,138.907716354,-6500.0,0.0,-300.0,0.0
1513265014802846500,,493757,,1513265013,26820663,'',0.436332312999,0.457641040679,0.00138429030018,0.0213087276805,0.001,138.926013754,-6500.0,0.0,-300.0,0.0
1513265014812867669,,493758,,1513265013,36820663,'',0.436332312999,0.457621214169,0.00178522045204,0.0212889011707,0.001,138.917240262,-6500.0,0.0,-300.0,0.0
1513265014822762308,,493759,,1513265013,46820663,'',0.436332312999,0.457620121091,0.00180428403372,0.0212878080924,0.001,138.904648192,-6500.0,0.0,-300.0,0.0
1513265014832643830,,493760,,1513265013,56820663,'',0.436332312999,0.457636367846,0.00147692729564,0.0213040548478,0.001,138.923654443,-6500.0,0.0,-300.0,0.0
1513265014842780480,,493761,,1513265013,66820663,'',0.436332312999,0.457619904625,0.00181470015701,0.0212875916266,0.001,138.897853658,-6500.0,0.0,-300.0,0.0
1513265014852724444,,493762,,1513265013,76820663,'',0.436332312999,0.457633661552,0.00153404473044,0.0213013485539,0.001,138.922134352,-6500.0,0.0,-300.0,0.0
1513265014862572723,,493763,,1513265013,86820663,'',0.436332312999,0.457632471805,0.00155286583005,0.0213001588066,0.001,138.924921998,-6500.0,0.0,-300.0,0.0
1513265014872551393,,493764,,1513265013,96820663,'',0.436332312999,0.457629369616,0.00160774108168,0.0212970566175,0.001,138.919933519,-6500.0,0.0,-300.0,0.0
1513265014882564823,,493765,,1513265013,106820663,'',0.436332312999,0.457629010549,0.00161324879981,0.0212966975508,0.001,138.919315629,-6500.0,0.0,-300.0,0.0
1513265014892966791,,493766,,1513265013,116820663,'',0.436332312999,0.457626813173,0.00165666084693,0.0212945001741,0.001,138.919370659,-6500.0,0.0,-300.0,0.0
1513265014902932924,,493767,,1513265013,126820663,'',0.436332312999,0.457658255879,0.00102072620205,0.0213259428806,0.001,138.932434705,-6500.0,0.0,-300.0,0.0
1513265014912877570,,493768,,1513265013,136820663,'',0.436332312999,0.457667581115,0.000835584539038,0.0213352681166,0.001,138.935577026,-6500.0,0.0,-300.0,0.0
1513265014922901627,,493769,,1513265013,146820663,'',0.436332312999,0.457658026469,0.00102740336966,0.0213257134706,0.001,138.925335319,-6500.0,0.0,-300.0,0.0
1513265014932784623,,493770,,1513265013,156820663,'',0.436332312999,0.457667390897,0.000841098713333,0.0213350778985,0.001,138.934450199,-6500.0,0.0,-300.0,0.0
1513265014942809610,,493771,,1513265013,166820663,'',0.436332312999,0.457660389045,0.000984499999396,0.0213280760461,0.001,138.932920349,-6500.0,0.0,-300.0,0.0
1513265014952549206,,493772,,1513265013,176820663,'',0.436332312999,0.457683899537,0.000508701034187,0.0213515865385,0.001,138.942445722,-6500.0,0.0,-300.0,0.0
1513265014962990230,,493773,,1513265013,186820663,'',0.436332312999,0.45768857387,0.000416423729456,0.0213562608713,0.001,138.944294458,-6500.0,0.0,-300.0,0.0
1513265014972919716,,493774,,1513265013,196820663,'',0.436332312999,0.457677549854,0.000644994431246,0.0213452368557,0.001,138.93473719,-6500.0,0.0,-300.0,0.0
1513265014982910645,,493775,,1513265013,206820663,'',0.436332312999,0.457683377135,0.000527971130508,0.021351064136,0.001,138.942350789,-6500.0,0.0,-300.0,0.0
1513265014992790540,,493776,,1513265013,216820663,'',0.436332312999,0.457656753611,0.00106197651942,0.0213244406129,0.001,138.932148363,-6500.0,0.0,-300.0,0.0
1513265015002752552,,493777,,1513265013,226820663,'',0.436332312999,0.457649174519,0.00121220279177,0.0213168615207,0.001,138.919567276,-6500.0,0.0,-300.0,0.0
1513265015012735006,,493778,,1513265013,236820663,'',0.436332312999,0.457629999109,0.00160311372011,0.0212976861109,0.001,138.919842389,-6500.0,0.0,-300.0,0.0
1513265015022781404,,493779,,1513265013,246820663,'',0.436332312999,0.457628618061,0.00163156030203,0.0212963050624,0.001,138.918679483,-6500.0,0.0,-300.0,0.0
1513265015032589418,,493780,,1513265013,256820663,'',0.436332312999,0.457611504439,0.00197164075214,0.0212791914408,0.001,138.899441248,-6500.0,0.0,-300.0,0.0
1513265015042552030,,493781,,1513265013,266820663,'',0.436332312999,0.457597160105,0.0022559283896,0.0212648471068,0.001,138.906090344,-6500.0,0.0,-300.0,0.0
1513265015052546257,,493782,,1513265013,276820663,'',0.436332312999,0.457600434471,0.00219331982405,0.0212681214729,0.001,138.910000924,-6500.0,0.0,-300.0,0.0
1513265015062549986,,493783,,1513265013,286820663,'',0.436332312999,0.457509889047,-0.0137224407861,0.021177576048,0.001,133.598537437,-6500.0,0.0,-300.0,0.0
1513265015072522740,,493784,,1513265013,296820663,'',0.436332312999,0.457369738765,-0.028633244039,0.0210374257667,0.001,128.318970386,-6500.0,0.0,-300.0,0.0
1513265015083013823,,493785,,1513265013,306820663,'',0.436332312999,0.457140449473,-0.0239924609985,0.0208081364748,0.001,127.843169759,-6500.0,0.0,-300.0,0.0
1513265015092495903,,493786,,1513265013,316820663,'',0.436332312999,0.456729459767,-0.0511857709331,0.0203971467682,0.001,117.14490225,-6500.0,0.0,-300.0,0.0
1513265015102839495,,493787,,1513265013,326820663,'',0.436332312999,0.45620189371,-0.0582758818025,0.0198695807113,0.001,111.207069667,-6500.0,0.0,-300.0,0.0
1513265015112863050,,493788,,1513265013,336820663,'',0.436332312999,0.455437763175,-0.0783373564065,0.0191054501766,0.001,100.567602161,-6500.0,0.0,-300.0,0.0
1513265015122771962,,493789,,1513265013,346820663,'',0.436332312999,0.454586167013,-0.096627721337,0.0182538540148,0.001,89.6292036767,-6500.0,0.0,-300.0,0.0
1513265015132635724,,493790,,1513265013,356820663,'',0.436332312999,0.453669090473,-0.0958493730769,0.0173367774749,0.001,84.3729211443,-6500.0,0.0,-300.0,0.0
1513265015142537616,,493791,,1513265013,366820663,'',0.436332312999,0.452741252408,-0.0948521375066,0.0164089394092,0.001,78.0539009327,-6500.0,0.0,-300.0,0.0
1513265015152958506,,493792,,1513265013,376820663,'',0.436332312999,0.451873806412,-0.0773287864013,0.0155414934129,0.001,77.6106453577,-6500.0,0.0,-300.0,0.0
1513265015162930798,,493793,,1513265013,386820663,'',0.436332312999,0.45110014445,-0.0794511920717,0.0147678314509,0.001,72.6407203201,-6500.0,0.0,-300.0,0.0
1513265015172959727,,493794,,1513265013,396820663,'',0.436332312999,0.450387123211,-0.0650463553722,0.0140548102122,0.001,71.7415623642,-6500.0,0.0,-300.0,0.0
1513265015182787129,,493795,,1513265013,406820663,'',0.436332312999,0.449803174634,-0.053249113668,0.0134708616352,0.001,71.5879812396,-6500.0,0.0,-300.0,0.0
1513265015192813482,,493796,,1513265013,416820663,'',0.436332312999,0.449310327134,-0.0432882926682,0.0129780141354,0.001,71.3054293199,-6500.0,0.0,-300.0,0.0
1513265015202770584,,493797,,1513265013,426820663,'',0.436332312999,0.448858245142,-0.0341593836597,0.012525932143,0.001,71.3473439432,-6500.0,0.0,-300.0,0.0
1513265015212822873,,493798,,1513265013,436820663,'',0.436332312999,0.448453878244,-0.0437520677376,0.0121215652453,0.001,65.6040763265,-6500.0,0.0,-300.0,0.0
1513265015222818690,,493799,,1513265013,446820663,'',0.436332312999,0.448107250224,-0.0367438681844,0.0117749372256,0.001,65.4834009223,-6500.0,0.0,-300.0,0.0
1513265015232635663,,493800,,1513265013,456820663,'',0.436332312999,0.447823793857,-0.0310107475133,0.0114914808586,0.001,65.5432273167,-6500.0,0.0,-300.0,0.0
1513265015242515631,,493801,,1513265013,466820663,'',0.436332312999,0.447545311451,-0.0253843733052,0.0112129984523,0.001,65.2009396296,-6500.0,0.0,-300.0,0.0
1513265015252492798,,493802,,1513265013,476820663,'',0.436332312999,0.447317497183,-0.0207816828264,0.0109851841845,0.001,65.1448554499,-6500.0,0.0,-300.0,0.0
1513265015262473783,,493803,,1513265013,486820663,'',0.436332312999,0.447147068123,-0.0173381758921,0.0108147551247,0.001,65.3044532836,-6500.0,0.0,-300.0,0.0
1513265015272592303,,493804,,1513265013,496820663,'',0.436332312999,0.446975788641,-0.0138815187237,0.0106434756429,0.001,64.964867282,-6500.0,0.0,-300.0,0.0
1513265015283057970,,493805,,1513265013,506820663,'',0.436332312999,0.446851242839,-0.0113645781751,0.0105189298407,0.001,64.9372986329,-6500.0,0.0,-300.0,0.0
1513265015292984522,,493806,,1513265013,516820663,'',0.436332312999,0.446733723299,-0.00898725902976,0.0104014103009,0.001,64.8940140782,-6500.0,0.0,-300.0,0.0
1513265015303096653,,493807,,1513265013,526820663,'',0.436332312999,0.446637056412,-0.00703394796446,0.0103047434135,0.001,64.8602828229,-6500.0,0.0,-300.0,0.0
1513265015312889100,,493808,,1513265013,536820663,'',0.436332312999,0.446573773257,-0.00575545163005,0.0102414602588,0.001,64.7961128515,-6500.0,0.0,-300.0,0.0
1513265015322768188,,493809,,1513265013,546820663,'',0.436332312999,0.446522277226,-0.00471508808239,0.0101899642275,0.001,64.800347489,-6500.0,0.0,-300.0,0.0
1513265015332852255,,493810,,1513265013,556820663,'',0.436332312999,0.446479974848,-0.0038604619961,0.0101476618498,0.001,64.7959747854,-6500.0,0.0,-300.0,0.0
1513265015342766985,,493811,,1513265013,566820663,'',0.436332312999,0.446445298898,-0.00315991102701,0.0101129858995,0.001,64.7788108669,-6500.0,0.0,-300.0,0.0
1513265015352668023,,493812,,1513265013,576820663,'',0.436332312999,0.446384059133,-0.00191939296778,0.0100517461347,0.001,64.7567075967,-6500.0,0.0,-300.0,0.0
1513265015363322254,,493813,,1513265013,586820663,'',0.436332312999,0.446286952097,-0.0176999324284,0.00995463909853,0.001,59.3444725241,-6500.0,0.0,-300.0,0.0
1513265015372607272,,493814,,1513265013,596820663,'',0.436332312999,0.44619017887,-0.0157318733215,0.00985786587159,0.001,59.3254671503,-6500.0,0.0,-300.0,0.0
1513265015382562894,,493815,,1513265013,606820663,'',0.436332312999,0.446140552579,-0.0147325653858,0.00980823958002,0.001,59.3062886901,-6500.0,0.0,-300.0,0.0
1513265015392631365,,493816,,1513265013,616820663,'',0.436332312999,0.446086109512,0.00411665940052,0.00975379651304,0.001,64.6436088852,-6500.0,0.0,-300.0,0.0
1513265015403001013,,493817,,1513265013,626820663,'',0.436332312999,0.446075897986,0.00431833644047,0.00974358498724,0.001,64.6047513989,-6500.0,0.0,-300.0,0.0
1513265015412954162,,493818,,1513265013,636820663,'',0.436332312999,0.446051451932,0.00482259482832,0.00971913893372,0.001,64.6236596933,-6500.0,0.0,-300.0,0.0
1513265015422868166,,493819,,1513265013,646820663,'',0.436332312999,0.446047615081,0.00489435420578,0.00971530208226,0.001,64.5893949761,-6500.0,0.0,-300.0,0.0
1513265015432798557,,493820,,1513265013,656820663,'',0.436332312999,0.445980710791,0.00624679743494,0.00964839779233,0.001,64.5920295542,-6500.0,0.0,-300.0,0.0
1513265015442665576,,493821,,1513265013,666820663,'',0.436332312999,0.445956643827,0.0067289098279,0.00962433082839,0.001,64.636538776,-6500.0,0.0,-300.0,0.0
1513265015452583914,,493822,,1513265013,676820663,'',0.436332312999,0.445951878076,0.00682955745827,0.00961956507781,0.001,64.5842029171,-6500.0,0.0,-300.0,0.0
1513265015462715659,,493823,,1513265013,686820663,'',0.436332312999,0.445902271964,-0.00991776903404,0.00956995896532,0.001,59.2116101725,-6500.0,0.0,-300.0,0.0
1513265015472596432,,493824,,1513265013,696820663,'',0.436332312999,0.445858940959,-0.00905187791952,0.00952662795998,0.001,59.2047473226,-6500.0,0.0,-300.0,0.0
1513265015482669288,,493825,,1513265013,706820663,'',0.436332312999,0.445839360139,-0.00866369466252,0.00950704713995,0.001,59.1798519951,-6500.0,0.0,-300.0,0.0
1513265015492645965,,493826,,1513265013,716820663,'',0.436332312999,0.445826658562,-0.00840686083171,0.0094943455633,0.001,59.2312402548,-6500.0,0.0,-300.0,0.0
1513265015502570847,,493827,,1513265013,726820663,'',0.436332312999,0.445798268889,-0.0078374631545,0.00946595589042,0.001,59.1638955921,-6500.0,0.0,-300.0,0.0
1513265015512567942,,493828,,1513265013,736820663,'',0.436332312999,0.445773451196,-0.00733585337472,0.00944113819716,0.001,59.1512305228,-6500.0,0.0,-300.0,0.0
1513265015522864132,,493829,,1513265013,746820663,'',0.436332312999,0.44573997578,-0.00665279771366,0.00940766278142,0.001,59.1398900619,-6500.0,0.0,-300.0,0.0
1513265015532835765,,493830,,1513265013,756820663,'',0.436332312999,0.445725846777,-0.00636438812662,0.00939353377875,0.001,59.1457199136,-6500.0,0.0,-300.0,0.0
1513265015542693477,,493831,,1513265013,766820663,'',0.436332312999,0.445702335257,0.0118622001401,0.00937002225881,0.001,64.4810393138,-6500.0,0.0,-300.0,0.0
1513265015552761732,,493832,,1513265013,776820663,'',0.436332312999,0.445681780955,-0.00547302665785,0.00934946795686,0.001,59.1149056049,-6500.0,0.0,-300.0,0.0
1513265015562760401,,493833,,1513265013,786820663,'',0.436332312999,0.445696912554,-0.00578012987506,0.0093645995552,0.001,59.1301025128,-6500.0,0.0,-300.0,0.0
1513265015572666348,,493834,,1513265013,796820663,'',0.436332312999,0.445691186734,-0.00566356443311,0.00935887373581,0.001,59.160021412,-6500.0,0.0,-300.0,0.0
1513265015582498378,,493835,,1513265013,806820663,'',0.436332312999,0.445687553054,0.0121567018306,0.00935524005504,0.001,64.4750738908,-6500.0,0.0,-300.0,0.0
1513265015592948533,,493836,,1513265013,816820663,'',0.436332312999,0.445701703425,0.0118694737203,0.00936939042614,0.001,64.4773561852,-6500.0,0.0,-300.0,0.0
1513265015602877435,,493837,,1513265013,826820663,'',0.436332312999,0.445681274633,-0.00546770724716,0.00934896163403,0.001,59.1494946315,-6500.0,0.0,-300.0,0.0
1513265015612917281,,493838,,1513265013,836820663,'',0.436332312999,0.445649257692,-0.00482221240699,0.00931694469338,0.001,59.103412791,-6500.0,0.0,-300.0,0.0
1513265015622876422,,493839,,1513265013,846820663,'',0.436332312999,0.445637542036,-0.00458631103622,0.00930522903773,0.001,59.1016861506,-6500.0,0.0,-300.0,0.0
1513265015632813912,,493840,,1513265013,856820663,'',0.436332312999,0.445658580117,-0.00501128498317,0.0093262671187,0.001,59.1089727071,-6500.0,0.0,-300.0,0.0
1513265015642867314,,493841,,1513265013,866820663,'',0.436332312999,0.445660916692,0.0126865956902,0.00932860369385,0.001,64.4643246706,-6500.0,0.0,-300.0,0.0
1513265015652911176,,493842,,1513265013,876820663,'',0.436332312999,0.445615565475,-0.00414571971814,0.00928325247674,0.001,59.123999518,-6500.0,0.0,-300.0,0.0
1513265015662829336,,493843,,1513265013,886820663,'',0.436332312999,0.445577364198,-0.0033711269251,0.00924505119982,0.001,59.0725547865,-6500.0,0.0,-300.0,0.0
1513265015672806273,,493844,,1513265013,896820663,'',0.436332312999,0.44554846337,-0.00278633261914,0.00921615037188,0.001,59.0655041525,-6500.0,0.0,-300.0,0.0
1513265015682846177,,493845,,1513265013,906820663,'',0.436332312999,0.445523450868,-0.00228165916255,0.00919113786911,0.001,59.0673482886,-6500.0,0.0,-300.0,0.0
1513265015692652060,,493846,,1513265013,916820663,'',0.436332312999,0.44551761553,-0.00216653815985,0.00918530253172,0.001,59.0348226795,-6500.0,0.0,-300.0,0.0
1513265015702576266,,493847,,1513265013,926820663,'',0.436332312999,0.445513733382,-0.00208827834592,0.00918142038303,0.001,59.0635502909,-6500.0,0.0,-300.0,0.0
1513265015712613895,,493848,,1513265013,936820663,'',0.436332312999,0.445525908233,-0.00233820457548,0.00919359523482,0.001,59.054657813,-6500.0,0.0,-300.0,0.0
1513265015722919646,,493849,,1513265013,946820663,'',0.436332312999,0.445504945387,-0.00191397701014,0.00917263238864,0.001,59.0437289854,-6500.0,0.0,-300.0,0.0
1513265015732941346,,493850,,1513265013,956820663,'',0.436332312999,0.445485521264,-0.00152406373527,0.00915320826563,0.001,59.0335162236,-6500.0,0.0,-300.0,0.0
1513265015742852080,,493851,,1513265013,966820663,'',0.436332312999,0.445471926443,-0.00124836941882,0.00913961344448,0.001,59.0313900034,-6500.0,0.0,-300.0,0.0
1513265015752882486,,493852,,1513265013,976820663,'',0.436332312999,0.445463812924,0.0166728274118,0.00913149992517,0.001,64.5124670679,-6500.0,0.0,-300.0,0.0
1513265015762860677,,493853,,1513265013,986820663,'',0.436332312999,0.44548588934,-0.00151804946695,0.00915357634161,0.001,59.0479723749,-6500.0,0.0,-300.0,0.0
1513265015772817103,,493854,,1513265013,996820663,'',0.436332312999,0.445487051019,-0.00154264862158,0.0091547380209,0.001,59.0372949082,-6500.0,0.0,-300.0,0.0
1513265015782797402,,493855,,1513265014,6820663,'',0.436332312999,0.445490332346,-0.00160905223317,0.00915801934783,0.001,59.0416105219,-6500.0,0.0,-300.0,0.0
1513265015793003585,,493856,,1513265014,16820663,'',0.436332312999,0.445459969722,-0.00100083991602,0.00912765672372,0.001,59.0276630713,-6500.0,0.0,-300.0,0.0
1513265015802970180,,493857,,1513265014,26820663,'',0.436332312999,0.445434801733,-0.000493389207813,0.00910248873444,0.001,59.0166105296,-6500.0,0.0,-300.0,0.0
1513265015812871796,,493858,,1513265014,36820663,'',0.436332312999,0.445430366614,-0.000403831663679,0.00909805361493,0.001,59.014317703,-6500.0,0.0,-300.0,0.0
1513265015822852085,,493859,,1513265014,46820663,'',0.436332312999,0.445426749028,-0.000330782428261,0.00909443602926,0.001,59.0138714856,-6500.0,0.0,-300.0,0.0
1513265015832859842,,493860,,1513265014,56820663,'',0.436332312999,0.445439593427,-0.000590643375854,0.00910728042886,0.001,59.0191078817,-6500.0,0.0,-300.0,0.0
1513265015843008472,,493861,,1513265014,66820663,'',0.436332312999,0.445419635978,-0.000188149743176,0.00908732297918,0.001,59.0124490617,-6500.0,0.0,-300.0,0.0
1513265015852851260,,493862,,1513265014,76820663,'',0.436332312999,0.445384686131,0.000517176192433,0.00905237313209,0.001,58.992607991,-6500.0,0.0,-300.0,0.0
1513265015862910515,,493863,,1513265014,86820663,'',0.436332312999,0.445374385052,0.000724074552358,0.00904207205374,0.001,58.9926253365,-6500.0,0.0,-300.0,0.0
1513265015872611826,,493864,,1513265014,96820663,'',0.436332312999,0.445363899673,-0.016806896317,0.00903158667418,0.001,53.7796518544,-6500.0,0.0,-300.0,0.0
1513265015882976601,,493865,,1513265014,106820663,'',0.436332312999,0.445357189405,0.00107405952451,0.00902487640676,0.001,58.985585565,-6500.0,0.0,-300.0,0.0
1513265015892925114,,493866,,1513265014,116820663,'',0.436332312999,0.445366815929,0.000879629941357,0.00903450293047,0.001,58.983679772,-6500.0,0.0,-300.0,0.0
1513265015902714247,,493867,,1513265014,126820663,'',0.436332312999,0.445357965187,0.00105536552294,0.0090256521887,0.001,58.9859031644,-6500.0,0.0,-300.0,0.0
1513265015912600910,,493868,,1513265014,136820663,'',0.436332312999,0.445350007497,-0.0165312957306,0.00901769449831,0.001,53.6366927863,-6500.0,0.0,-300.0,0.0
1513265015922665520,,493869,,1513265014,146820663,'',0.436332312999,0.445344808749,0.00131934954877,0.00901249575046,0.001,58.982526543,-6500.0,0.0,-300.0,0.0
1513265015932927670,,493870,,1513265014,156820663,'',0.436332312999,0.445325318724,0.00171399005741,0.00899300572554,0.001,58.9725379424,-6500.0,0.0,-300.0,0.0
1513265015942782255,,493871,,1513265014,166820663,'',0.436332312999,0.445290610335,-0.0153327865699,0.00895829733615,0.001,53.5932020861,-6500.0,0.0,-300.0,0.0
1513265015952730712,,493872,,1513265014,176820663,'',0.436332312999,0.445265746232,0.00292249928298,0.00893343323355,0.001,58.9297889899,-6500.0,0.0,-300.0,0.0
1513265015962633462,,493873,,1513265014,186820663,'',0.436332312999,0.445260009027,0.0030382268409,0.00892769602833,0.001,58.9477757856,-6500.0,0.0,-300.0,0.0
1513265015972531940,,493874,,1513265014,196820663,'',0.436332312999,0.445240276546,0.00343689354676,0.00890796354761,0.001,58.9637958506,-6500.0,0.0,-300.0,0.0
1513265015982638126,,493875,,1513265014,206820663,'',0.436332312999,0.445238428932,0.0034774042748,0.0089061159339,0.001,58.9475070265,-6500.0,0.0,-300.0,0.0
1513265015992649912,,493876,,1513265014,216820663,'',0.436332312999,0.445223537469,0.00377480387318,0.00889122447045,0.001,58.9584176622,-6500.0,0.0,-300.0,0.0
1513265016002608590,,493877,,1513265014,226820663,'',0.436332312999,0.445176552369,-0.0130172850435,0.00884423937,0.001,53.6389911132,-6500.0,0.0,-300.0,0.0
1513265016012516062,,493878,,1513265014,236820663,'',0.436332312999,0.445189112163,0.00447165964082,0.00885679916401,0.001,58.9209742564,-6500.0,0.0,-300.0,0.0
1513265016022518702,,493879,,1513265014,246820663,'',0.436332312999,0.445150913178,0.00524146650849,0.00881860017934,0.001,58.8871273733,-6500.0,0.0,-300.0,0.0
1513265016032468855,,493880,,1513265014,256820663,'',0.436332312999,0.445150845297,0.00525146422768,0.00881853229883,0.001,58.8977007933,-6500.0,0.0,-300.0,0.0
1513265016042891752,,493881,,1513265014,266820663,'',0.436332312999,0.445116924033,-0.011817185429,0.00878461103454,0.001,53.5322237626,-6500.0,0.0,-300.0,0.0
1513265016052946353,,493882,,1513265014,276820663,'',0.436332312999,0.445140147478,0.00546214409693,0.00880783447924,0.001,58.9381526824,-6500.0,0.0,-300.0,0.0
