rosbagTimestamp,header,seq,stamp,secs,nsecs,frame_id,set_point,process_value,process_value_dot,error,time_step,command,p,i,d,i_clamp
1513265599055089548,,552170,,1513265597,267917520,'',0.279252680319,0.284026397229,-0.00532839085567,0.00477371690998,0.001,27.0326158316,-6000.0,0.0,-300.0,0.0
1513265599064977544,,552171,,1513265597,277917520,'',0.279252680319,0.283993177258,-0.00465362872807,0.00474049693859,0.001,27.0331737462,-6000.0,0.0,-300.0,0.0
1513265599075004270,,552172,,1513265597,287917520,'',0.279252680319,0.283999408045,-0.00477266657866,0.0047467277256,0.001,27.0397547693,-6000.0,0.0,-300.0,0.0
1513265599085051589,,552173,,1513265597,297917520,'',0.279252680319,0.284019175296,0.0125734527025,0.00476649497674,0.001,32.3859257456,-6000.0,0.0,-300.0,0.0
1513265599095431318,,552174,,1513265597,307917520,'',0.279252680319,0.284004197378,-0.00487332525308,0.0047515170586,0.001,27.0337306347,-6000.0,0.0,-300.0,0.0
1513265599105293334,,552175,,1513265597,317917520,'',0.279252680319,0.284009592334,-0.00498047197471,0.00475691201499,0.001,27.0678047805,-6000.0,0.0,-300.0,0.0
1513265599115210214,,552176,,1513265597,327917520,'',0.279252680319,0.283979955358,-0.00438687727754,0.00472727503887,0.001,27.0371627326,-6000.0,0.0,-300.0,0.0
1513265599125148842,,552177,,1513265597,337917520,'',0.279252680319,0.283988026334,0.0132001635541,0.0047353460149,0.001,32.3935129775,-6000.0,0.0,-300.0,0.0
1513265599135395229,,552178,,1513265597,347917520,'',0.279252680319,0.284010757074,-0.00500876496723,0.00475807675444,0.001,27.0374091953,-6000.0,0.0,-300.0,0.0
1513265599145043829,,552179,,1513265597,357917520,'',0.279252680319,0.284043985693,-0.00567608854755,0.00479130537438,0.001,27.0674619253,-6000.0,0.0,-300.0,0.0
1513265599154929721,,552180,,1513265597,367917520,'',0.279252680319,0.284024904704,-0.00528447340558,0.00477222438492,0.001,27.0859971983,-6000.0,0.0,-300.0,0.0
1513265599165429339,,552181,,1513265597,377917520,'',0.279252680319,0.284009498363,-0.00498152398578,0.00475681804431,0.001,27.0375158951,-6000.0,0.0,-300.0,0.0
1513265599175394673,,552182,,1513265597,387917520,'',0.279252680319,0.283995224176,-0.00469327119747,0.00474254385706,0.001,27.0404247779,-6000.0,0.0,-300.0,0.0
1513265599185333120,,552183,,1513265597,397917520,'',0.279252680319,0.284016505744,0.0126279957632,0.00476382542465,0.001,32.3059810028,-6000.0,0.0,-300.0,0.0
1513265599195341300,,552184,,1513265597,407917520,'',0.279252680319,0.284001904272,-0.00482306089523,0.0047492239527,0.001,27.0364119787,-6000.0,0.0,-300.0,0.0
1513265599205271751,,552185,,1513265597,417917520,'',0.279252680319,0.283992417562,0.0131108391917,0.00473973724267,0.001,32.3997092478,-6000.0,0.0,-300.0,0.0
1513265599215239635,,552186,,1513265597,427917520,'',0.279252680319,0.283968288616,0.0135967220674,0.00471560829714,0.001,32.419991909,-6000.0,0.0,-300.0,0.0
1513265599225145723,,552187,,1513265597,437917520,'',0.279252680319,0.283964058092,-0.00405896371511,0.00471137777334,0.001,27.0696132656,-6000.0,0.0,-300.0,0.0
1513265599235129695,,552188,,1513265597,447917520,'',0.279252680319,0.283927482033,-0.00332267617791,0.00467480171373,0.001,27.0678309217,-6000.0,0.0,-300.0,0.0
1513265599245104449,,552189,,1513265597,457917520,'',0.279252680319,0.28396405245,0.0136840249827,0.00471137213055,0.001,32.3869684734,-6000.0,0.0,-300.0,0.0
1513265599255104882,,552190,,1513265597,467917520,'',0.279252680319,0.283977212965,-0.00433294743049,0.00472453264636,0.001,27.0402527022,-6000.0,0.0,-300.0,0.0
1513265599265602316,,552191,,1513265597,477917520,'',0.279252680319,0.283969636625,-0.00417686331317,0.00471695630629,0.001,27.0445240303,-6000.0,0.0,-300.0,0.0
1513265599275288053,,552192,,1513265597,487917520,'',0.279252680319,0.283932126297,-0.00342075457402,0.00467944597837,0.001,27.0502664273,-6000.0,0.0,-300.0,0.0
1513265599285660397,,552193,,1513265597,497917520,'',0.279252680319,0.283948648707,-0.0037542437624,0.00469596838756,0.001,27.0426740713,-6000.0,0.0,-300.0,0.0
1513265599295295155,,552194,,1513265597,507917520,'',0.279252680319,0.283914870058,-0.00307327575119,0.00466218973908,0.001,27.0453149601,-6000.0,0.0,-300.0,0.0
1513265599305225329,,552195,,1513265597,517917520,'',0.279252680319,0.283934405612,-0.00346625409313,0.00468172529277,0.001,27.0426263716,-6000.0,0.0,-300.0,0.0
1513265599315110246,,552196,,1513265597,527917520,'',0.279252680319,0.283950261313,-0.00378942985177,0.00469758099377,0.001,27.0461012619,-6000.0,0.0,-300.0,0.0
1513265599325415076,,552197,,1513265597,537917520,'',0.279252680319,0.283932305717,-0.00342435694747,0.00467962539759,0.001,27.0408360396,-6000.0,0.0,-300.0,0.0
1513265599335369727,,552198,,1513265597,547917520,'',0.279252680319,0.283937446312,0.0142552914409,0.00468476599289,0.001,33.3132444786,-6000.0,0.0,-300.0,0.0
1513265599345355500,,552199,,1513265597,557917520,'',0.279252680319,0.283965198729,-0.0040538479093,0.00471251841019,0.001,27.0412711393,-6000.0,0.0,-300.0,0.0
1513265599355275458,,552200,,1513265597,567917520,'',0.279252680319,0.283959200893,-0.00394317077135,0.00470652057416,0.001,27.041779571,-6000.0,0.0,-300.0,0.0
1513265599364962728,,552201,,1513265597,577917520,'',0.279252680319,0.283973352731,0.0135170345591,0.00472067241157,0.001,32.3900776068,-6000.0,0.0,-300.0,0.0
1513265599375372923,,552202,,1513265597,587917520,'',0.279252680319,0.283981209664,-0.00440306875987,0.00472852934453,0.001,27.0306528749,-6000.0,0.0,-300.0,0.0
1513265599385357103,,552203,,1513265597,597917520,'',0.279252680319,0.283988072886,-0.00454369382775,0.00473539256666,0.001,27.1084590771,-6000.0,0.0,-300.0,0.0
1513265599395371568,,552204,,1513265597,607917520,'',0.279252680319,0.283977735522,-0.00433736286587,0.00472505520303,0.001,27.0703698084,-6000.0,0.0,-300.0,0.0
1513265599405376936,,552205,,1513265597,617917520,'',0.279252680319,0.284003893318,0.0128779905505,0.00475121299855,0.001,32.371504253,-6000.0,0.0,-300.0,0.0
1513265599415299181,,552206,,1513265597,627917520,'',0.279252680319,0.283976824013,-0.00432616502271,0.00472414369378,0.001,27.0390339702,-6000.0,0.0,-300.0,0.0
1513265599425234125,,552207,,1513265597,637917520,'',0.279252680319,0.283987784396,0.0132002936879,0.0047351040768,0.001,32.304895151,-6000.0,0.0,-300.0,0.0
1513265599435160522,,552208,,1513265597,647917520,'',0.279252680319,0.283980092571,0.0133501205387,0.00472741225214,0.001,32.2805021584,-6000.0,0.0,-300.0,0.0
1513265599445067488,,552209,,1513265597,657917520,'',0.279252680319,0.284004555499,0.0128504823564,0.00475187518034,0.001,32.3872504066,-6000.0,0.0,-300.0,0.0
1513265599455144621,,552210,,1513265597,667917520,'',0.279252680319,0.283960720266,-0.00401235315792,0.00470803994739,0.001,27.0671143033,-6000.0,0.0,-300.0,0.0
1513265599465190053,,552211,,1513265597,677917520,'',0.279252680319,0.283987894203,-0.00456638678359,0.00473521388422,0.001,27.0377018424,-6000.0,0.0,-300.0,0.0
1513265599475160849,,552212,,1513265597,687917520,'',0.279252680319,0.283979307968,-0.00438771722253,0.00472662764923,0.001,27.0400751105,-6000.0,0.0,-300.0,0.0
1513265599485172670,,552213,,1513265597,697917520,'',0.279252680319,0.284018025047,-0.00516951380184,0.00476534472763,0.001,27.0304508724,-6000.0,0.0,-300.0,0.0
1513265599495081862,,552214,,1513265597,707917520,'',0.279252680319,0.283987023803,-0.00454107441251,0.00473434348394,0.001,27.072521852,-6000.0,0.0,-300.0,0.0
1513265599505405400,,552215,,1513265597,717917520,'',0.279252680319,0.283962742072,-0.00405002572497,0.00471006175277,0.001,27.0648645169,-6000.0,0.0,-300.0,0.0
1513265599515456092,,552216,,1513265597,727917520,'',0.279252680319,0.283975796812,-0.00430918114109,0.0047231164927,0.001,27.0403727484,-6000.0,0.0,-300.0,0.0
1513265599525407788,,552217,,1513265597,737917520,'',0.279252680319,0.284001888052,0.012916311868,0.00474920773333,0.001,32.293308227,-6000.0,0.0,-300.0,0.0
1513265599535330579,,552218,,1513265597,747917520,'',0.279252680319,0.283990635187,0.0131434308353,0.00473795486838,0.001,32.3771220675,-6000.0,0.0,-300.0,0.0
1513265599545049357,,552219,,1513265597,757917520,'',0.279252680319,0.284012943906,-0.00503973737732,0.00476026358714,0.001,27.0693934549,-6000.0,0.0,-300.0,0.0
1513265599555516065,,552220,,1513265597,767917520,'',0.279252680319,0.283983948118,-0.00445446714533,0.00473126779884,0.001,27.0694207442,-6000.0,0.0,-300.0,0.0
1513265599565321219,,552221,,1513265597,777917520,'',0.279252680319,0.28402407556,-0.0052621365295,0.00477139524099,0.001,27.036280198,-6000.0,0.0,-300.0,0.0
1513265599575312271,,552222,,1513265597,787917520,'',0.279252680319,0.28402600105,-0.00530225938144,0.004773320731,0.001,27.0345781691,-6000.0,0.0,-300.0,0.0
1513265599585304929,,552223,,1513265597,797917520,'',0.279252680319,0.2840108129,-0.00500791884321,0.00475813258068,0.001,27.0268903519,-6000.0,0.0,-300.0,0.0
1513265599595262619,,552224,,1513265597,807917520,'',0.279252680319,0.283999587241,0.0129672174133,0.00474690692195,0.001,32.3605556517,-6000.0,0.0,-300.0,0.0
1513265599605195094,,552225,,1513265597,817917520,'',0.279252680319,0.283974041298,0.0134807236845,0.00472136097868,0.001,32.3870950925,-6000.0,0.0,-300.0,0.0
1513265599615013102,,552226,,1513265597,827917520,'',0.279252680319,0.283952857238,0.0139032163087,0.00470017691931,0.001,32.3035746798,-6000.0,0.0,-300.0,0.0
1513265599624947275,,552227,,1513265597,837917520,'',0.279252680319,0.283951146691,-0.00381208776257,0.00469846637197,0.001,27.039983251,-6000.0,0.0,-300.0,0.0
1513265599635123482,,552228,,1513265597,847917520,'',0.279252680319,0.283963036767,-0.00405000512079,0.0047103564479,0.001,27.0476028989,-6000.0,0.0,-300.0,0.0
1513265599645505661,,552229,,1513265597,857917520,'',0.279252680319,0.283942182497,-0.00362831585951,0.00468950217821,0.001,27.0419103778,-6000.0,0.0,-300.0,0.0
1513265599655359917,,552230,,1513265597,867917520,'',0.279252680319,0.283941603478,-0.00361811438528,0.00468892315895,0.001,27.0652343643,-6000.0,0.0,-300.0,0.0
1513265599665141919,,552231,,1513265597,877917520,'',0.279252680319,0.283925525235,-0.00329781977213,0.00467284491624,0.001,27.0434439604,-6000.0,0.0,-300.0,0.0
1513265599675100871,,552232,,1513265597,887917520,'',0.279252680319,0.283960676288,-0.00400870008451,0.00470799596898,0.001,27.0454159988,-6000.0,0.0,-300.0,0.0
1513265599685480279,,552233,,1513265597,897917520,'',0.279252680319,0.283941936033,-0.00362773173453,0.00468925571388,0.001,27.0476969683,-6000.0,0.0,-300.0,0.0
1513265599695343928,,552234,,1513265597,907917520,'',0.279252680319,0.283909442956,-0.00297108516366,0.00465676263717,0.001,27.0640184897,-6000.0,0.0,-300.0,0.0
1513265599704995289,,552235,,1513265597,917917520,'',0.279252680319,0.283945418701,-0.00369763539178,0.00469273838156,0.001,27.0442832902,-6000.0,0.0,-300.0,0.0
1513265599715381689,,552236,,1513265597,927917520,'',0.279252680319,0.283963127076,0.0137096640366,0.00471044675671,0.001,32.3830897823,-6000.0,0.0,-300.0,0.0
1513265599725320651,,552237,,1513265597,937917520,'',0.279252680319,0.283975881859,0.0134450268193,0.00472320153993,0.001,32.2928020317,-6000.0,0.0,-300.0,0.0
1513265599735501861,,552238,,1513265597,947917520,'',0.279252680319,0.28398187147,-0.00442568598582,0.00472919115088,0.001,27.0629147061,-6000.0,0.0,-300.0,0.0
1513265599745248203,,552239,,1513265597,957917520,'',0.279252680319,0.283972319981,-0.00424248124118,0.00471963966221,0.001,27.0366848151,-6000.0,0.0,-300.0,0.0
1513265599755052253,,552240,,1513265597,967917520,'',0.279252680319,0.284012584789,-0.00505385256602,0.00475990447037,0.001,27.0387147138,-6000.0,0.0,-300.0,0.0
1513265599765014427,,552241,,1513265597,977917520,'',0.279252680319,0.284014664857,0.0126474804746,0.00476198453793,0.001,32.2912926636,-6000.0,0.0,-300.0,0.0
1513265599775158724,,552242,,1513265597,987917520,'',0.279252680319,0.284035236353,0.0122293856034,0.00478255603377,0.001,32.3950795732,-6000.0,0.0,-300.0,0.0
1513265599785490603,,552243,,1513265597,997917520,'',0.279252680319,0.284033974051,0.0122612601329,0.00478129373234,0.001,32.4661061838,-6000.0,0.0,-300.0,0.0
1513265599795472451,,552244,,1513265598,7917520,'',0.279252680319,0.284033417184,0.0122762320165,0.0047807368651,0.001,32.3846353258,-6000.0,0.0,-300.0,0.0
1513265599805376018,,552245,,1513265598,17917520,'',0.279252680319,0.284048524261,-0.00577453724455,0.00479584394208,0.001,26.9974537255,-6000.0,0.0,-300.0,0.0
1513265599815300105,,552246,,1513265598,27917520,'',0.279252680319,0.28406103665,-0.00603309215408,0.00480835633109,0.001,27.0788980837,-6000.0,0.0,-300.0,0.0
1513265599825183125,,552247,,1513265598,37917520,'',0.279252680319,0.284054403331,-0.00589837955943,0.00480172301156,0.001,27.0337093374,-6000.0,0.0,-300.0,0.0
1513265599835522276,,552248,,1513265598,47917520,'',0.279252680319,0.284034246914,-0.00549227707371,0.00478156659485,0.001,27.0370048975,-6000.0,0.0,-300.0,0.0
1513265599845151896,,552249,,1513265598,57917520,'',0.279252680319,0.284064493275,-0.00609540408817,0.00481181295592,0.001,27.0698803893,-6000.0,0.0,-300.0,0.0
1513265599855200285,,552250,,1513265598,67917520,'',0.279252680319,0.284041031041,-0.00562026440281,0.00478835072151,0.001,27.0332163415,-6000.0,0.0,-300.0,0.0
1513265599865226320,,552251,,1513265598,77917520,'',0.279252680319,0.284037595885,-0.00556010862306,0.00478491556634,0.001,27.0387486019,-6000.0,0.0,-300.0,0.0
1513265599875224311,,552252,,1513265598,87917520,'',0.279252680319,0.284002229038,-0.0048488378382,0.00474954871906,0.001,27.0381321099,-6000.0,0.0,-300.0,0.0
1513265599885387997,,552253,,1513265598,97917520,'',0.279252680319,0.283992398637,0.0130946772655,0.00473971831822,0.001,32.3012848698,-6000.0,0.0,-300.0,0.0
1513265599895092946,,552254,,1513265598,107917520,'',0.279252680319,0.283997445734,-0.00475977435456,0.00474476541481,0.001,27.0340781787,-6000.0,0.0,-300.0,0.0
1513265599905103255,,552255,,1513265598,117917520,'',0.279252680319,0.283986935586,0.0132025848118,0.00473425526644,0.001,32.392665185,-6000.0,0.0,-300.0,0.0
1513265599915434675,,552256,,1513265598,127917520,'',0.279252680319,0.283991200498,-0.00462678043658,0.00473852017877,0.001,27.0360617748,-6000.0,0.0,-300.0,0.0
1513265599925368030,,552257,,1513265598,137917520,'',0.279252680319,0.283981998614,-0.00443750629319,0.00472931829447,0.001,27.0664412126,-6000.0,0.0,-300.0,0.0
1513265599935324243,,552258,,1513265598,147917520,'',0.279252680319,0.284041663112,0.0121056062212,0.00478898279274,0.001,32.3847628705,-6000.0,0.0,-300.0,0.0
1513265599945395725,,552259,,1513265598,157917520,'',0.279252680319,0.28400639925,-0.00493208294677,0.00475371893078,0.001,27.0363542363,-6000.0,0.0,-300.0,0.0
1513265599955247998,,552260,,1513265598,167917520,'',0.279252680319,0.284010318858,-0.00501103861315,0.00475763853928,0.001,27.0674705824,-6000.0,0.0,-300.0,0.0
1513265599965342553,,552261,,1513265598,177917520,'',0.279252680319,0.28401502899,-0.0051063142556,0.00476234867099,0.001,27.0385217902,-6000.0,0.0,-300.0,0.0
1513265599975458683,,552262,,1513265598,187917520,'',0.279252680319,0.284048368869,0.0119655198553,0.00479568855019,0.001,32.3979844362,-6000.0,0.0,-300.0,0.0
1513265599985448556,,552263,,1513265598,197917520,'',0.279252680319,0.28401404218,0.0126607505911,0.00476136186122,0.001,32.3982861932,-6000.0,0.0,-300.0,0.0
1513265599995257954,,552264,,1513265598,207917520,'',0.279252680319,0.284013696301,-0.00507377055091,0.00476101598153,0.001,27.0356930699,-6000.0,0.0,-300.0,0.0
1513265600005233910,,552265,,1513265598,217917520,'',0.279252680319,0.283983893359,-0.00447251658512,0.00473121304026,0.001,27.0383934354,-6000.0,0.0,-300.0,0.0
1513265600015103801,,552266,,1513265598,227917520,'',0.279252680319,0.283958482825,-0.00395785287722,0.00470580250564,0.001,27.0658725122,-6000.0,0.0,-300.0,0.0
1513265600025167982,,552267,,1513265598,237917520,'',0.279252680319,0.284052090451,0.0118948672779,0.00479941013224,0.001,32.3038899486,-6000.0,0.0,-300.0,0.0
1513265600035253378,,552268,,1513265598,247917520,'',0.279252680319,0.284030444476,-0.00542397783628,0.00477776415705,0.001,27.0357403101,-6000.0,0.0,-300.0,0.0
1513265600045254215,,552269,,1513265598,257917520,'',0.279252680319,0.283981834435,-0.00444024896835,0.00472915411584,0.001,27.0369787611,-6000.0,0.0,-300.0,0.0
1513265600055134133,,552270,,1513265598,267917520,'',0.279252680319,0.283956649764,-0.00393376631021,0.00470396944495,0.001,27.0658032108,-6000.0,0.0,-300.0,0.0
1513265600065053673,,552271,,1513265598,277917520,'',0.279252680319,0.283953410809,-0.00385939141298,0.00470073048957,0.001,27.0400403441,-6000.0,0.0,-300.0,0.0
1513265600075312829,,552272,,1513265598,287917520,'',0.279252680319,0.284013509256,-0.00506565458917,0.00476082893644,0.001,27.0327781786,-6000.0,0.0,-300.0,0.0
1513265600085147828,,552273,,1513265598,297917520,'',0.279252680319,0.283982791398,-0.00445012209539,0.00473011107854,0.001,27.039779823,-6000.0,0.0,-300.0,0.0
1513265600095126680,,552274,,1513265598,307917520,'',0.279252680319,0.283990962871,0.013124647195,0.00473828255186,0.001,32.3012222099,-6000.0,0.0,-300.0,0.0
1513265600105497202,,552275,,1513265598,317917520,'',0.279252680319,0.283981680017,-0.00443316727801,0.0047289996977,0.001,27.0344336385,-6000.0,0.0,-300.0,0.0
1513265600115458661,,552276,,1513265598,327917520,'',0.279252680319,0.283974236545,-0.00427774581758,0.00472155622609,0.001,27.0392684137,-6000.0,0.0,-300.0,0.0
1513265600125280795,,552277,,1513265598,337917520,'',0.279252680319,0.28398270879,-0.00444839530458,0.00473002847096,0.001,27.0397868256,-6000.0,0.0,-300.0,0.0
1513265600135199760,,552278,,1513265598,347917520,'',0.279252680319,0.283992565587,0.0130998612327,0.00473988526758,0.001,32.3050759108,-6000.0,0.0,-300.0,0.0
1513265600145118315,,552279,,1513265598,357917520,'',0.279252680319,0.283950829108,-0.00380593914379,0.00469814878841,0.001,27.0413892996,-6000.0,0.0,-300.0,0.0
1513265600155405392,,552280,,1513265598,367917520,'',0.279252680319,0.283979313339,-0.00438160168762,0.00472663301992,0.001,27.0388084189,-6000.0,0.0,-300.0,0.0
1513265600165531567,,552281,,1513265598,377917520,'',0.279252680319,0.283987570143,0.0131931238472,0.00473488982381,0.001,32.2934485484,-6000.0,0.0,-300.0,0.0
1513265600175274020,,552282,,1513265598,387917520,'',0.279252680319,0.283977565721,-0.00436855041362,0.00472488540219,0.001,27.0323721972,-6000.0,0.0,-300.0,0.0
1513265600185289915,,552283,,1513265598,397917520,'',0.279252680319,0.283953438915,-0.00388077343036,0.00470075859585,0.001,27.0422680092,-6000.0,0.0,-300.0,0.0
1513265600195165114,,552284,,1513265598,407917520,'',0.279252680319,0.283935568796,-0.00351595754177,0.00468288847669,0.001,27.0437828448,-6000.0,0.0,-300.0,0.0
1513265600205148708,,552285,,1513265598,417917520,'',0.279252680319,0.283952503517,0.0138983622774,0.00469982319797,0.001,32.387947467,-6000.0,0.0,-300.0,0.0
1513265600215046180,,552286,,1513265598,427917520,'',0.279252680319,0.283964510202,-0.00409659172954,0.00471182988274,0.001,27.0389698562,-6000.0,0.0,-300.0,0.0
1513265600224957103,,552287,,1513265598,437917520,'',0.279252680319,0.283943424653,-0.00366808241077,0.0046907443344,0.001,27.0653032165,-6000.0,0.0,-300.0,0.0
1513265600235119152,,552288,,1513265598,447917520,'',0.279252680319,0.283941398064,-0.00362492738654,0.00468871774496,0.001,27.0419825982,-6000.0,0.0,-300.0,0.0
1513265600245396788,,552289,,1513265598,457917520,'',0.279252680319,0.283943116983,0.0140932755529,0.00469043666389,0.001,32.3846692018,-6000.0,0.0,-300.0,0.0
1513265600255339747,,552290,,1513265598,467917520,'',0.279252680319,0.283940872253,-0.00360703372373,0.0046881919344,0.001,27.043333275,-6000.0,0.0,-300.0,0.0
1513265600265328542,,552291,,1513265598,477917520,'',0.279252680319,0.283955692929,-0.00390275077504,0.0047030126102,0.001,27.0657670363,-6000.0,0.0,-300.0,0.0
1513265600275282156,,552292,,1513265598,487917520,'',0.279252680319,0.283951072069,-0.00379934372374,0.00469839174968,0.001,27.0366862742,-6000.0,0.0,-300.0,0.0
1513265600285287843,,552293,,1513265598,497917520,'',0.279252680319,0.283963862361,-0.00405478192127,0.00471118204183,0.001,27.0646064397,-6000.0,0.0,-300.0,0.0
1513265600295098811,,552294,,1513265598,507917520,'',0.279252680319,0.283944515224,-0.00366342402278,0.00469183490536,0.001,27.0642817934,-6000.0,0.0,-300.0,0.0
1513265600305135092,,552295,,1513265598,517917520,'',0.279252680319,0.28391149273,-0.0029990581619,0.00465881241072,0.001,27.0449534646,-6000.0,0.0,-300.0,0.0
1513265600314972036,,552296,,1513265598,527917520,'',0.279252680319,0.283965145761,0.0136558783902,0.00471246544209,0.001,32.3868757942,-6000.0,0.0,-300.0,0.0
1513265600325465319,,552297,,1513265598,537917520,'',0.279252680319,0.283960202916,-0.00398911335465,0.00470752259691,0.001,27.0454471448,-6000.0,0.0,-300.0,0.0
1513265600335415885,,552298,,1513265598,547917520,'',0.279252680319,0.283956698381,-0.00391275648724,0.00470401806156,0.001,27.0431258919,-6000.0,0.0,-300.0,0.0
1513265600345448105,,552299,,1513265598,557917520,'',0.279252680319,0.283970510311,0.0135464736448,0.00471782999227,0.001,32.2837024806,-6000.0,0.0,-300.0,0.0
1513265600355414636,,552300,,1513265598,567917520,'',0.279252680319,0.283965916545,0.0136409947287,0.00471323622633,0.001,32.4281939103,-6000.0,0.0,-300.0,0.0
1513265600365375164,,552301,,1513265598,577917520,'',0.279252680319,0.283960430763,-0.00399752831325,0.00470775044355,0.001,27.0370511963,-6000.0,0.0,-300.0,0.0
1513265600375269353,,552302,,1513265598,587917520,'',0.279252680319,0.283970333319,-0.00420531255821,0.00471765299987,0.001,27.0396220747,-6000.0,0.0,-300.0,0.0
1513265600385124311,,552303,,1513265598,597917520,'',0.279252680319,0.283964711545,-0.00407841586849,0.00471203122611,0.001,27.0386551812,-6000.0,0.0,-300.0,0.0
1513265600395078621,,552304,,1513265598,607917520,'',0.279252680319,0.283975025906,-0.00427295826173,0.00472234558687,0.001,27.0078486033,-6000.0,0.0,-300.0,0.0
1513265600405020793,,552305,,1513265598,617917520,'',0.279252680319,0.283982833655,-0.00443893477651,0.00473015333627,0.001,27.0384894524,-6000.0,0.0,-300.0,0.0
1513265600415026264,,552306,,1513265598,627917520,'',0.279252680319,0.283973115402,-0.00424103271332,0.00472043508256,0.001,27.0691921402,-6000.0,0.0,-300.0,0.0
1513265600424991294,,552307,,1513265598,637917520,'',0.279252680319,0.283999898012,0.0129605526005,0.0047472176926,0.001,32.3876724092,-6000.0,0.0,-300.0,0.0
1513265600435424190,,552308,,1513265598,647917520,'',0.279252680319,0.283972953827,-0.00424570150654,0.00472027350774,0.001,27.0393846374,-6000.0,0.0,-300.0,0.0
1513265600445475904,,552309,,1513265598,657917520,'',0.279252680319,0.283983484663,-0.00446359478099,0.00473080434429,0.001,27.0342358814,-6000.0,0.0,-300.0,0.0
1513265600455438005,,552310,,1513265598,667917520,'',0.279252680319,0.283960608588,0.0137426552958,0.00470792826892,0.001,32.3038677306,-6000.0,0.0,-300.0,0.0
1513265600465327071,,552311,,1513265598,677917520,'',0.279252680319,0.283939286646,-0.00357435916912,0.0046866063269,0.001,27.0414025577,-6000.0,0.0,-300.0,0.0
1513265600475409192,,552312,,1513265598,687917520,'',0.279252680319,0.283907217883,-0.00292625694034,0.0046545375639,0.001,27.0453407971,-6000.0,0.0,-300.0,0.0
1513265600485192330,,552313,,1513265598,697917520,'',0.279252680319,0.283897158157,-0.00272213065265,0.00464447783825,0.001,27.0444823745,-6000.0,0.0,-300.0,0.0
1513265600495205254,,552314,,1513265598,707917520,'',0.279252680319,0.283905006867,-0.00288369290005,0.00465232654834,0.001,27.0463735547,-6000.0,0.0,-300.0,0.0
1513265600505081528,,552315,,1513265598,717917520,'',0.279252680319,0.283913065713,-0.00304613836838,0.00466038539415,0.001,27.0428320671,-6000.0,0.0,-300.0,0.0
1513265600515035110,,552316,,1513265598,727917520,'',0.279252680319,0.283949517372,0.0139629490283,0.00469683705304,0.001,32.2994134395,-6000.0,0.0,-300.0,0.0
1513265600525021735,,552317,,1513265598,737917520,'',0.279252680319,0.28391558116,-0.00309941402344,0.00466290084063,0.001,27.0472654448,-6000.0,0.0,-300.0,0.0
1513265600535481062,,552318,,1513265598,747917520,'',0.279252680319,0.283932599609,-0.0034338573282,0.00467991929036,0.001,27.0440345403,-6000.0,0.0,-300.0,0.0
1513265600545483365,,552319,,1513265598,757917520,'',0.279252680319,0.283918826184,-0.00315737832818,0.00466614586474,0.001,27.0404081191,-6000.0,0.0,-300.0,0.0
1513265600555345846,,552320,,1513265598,767917520,'',0.279252680319,0.28396712821,-0.00413723462173,0.00471444789062,0.001,27.0611220753,-6000.0,0.0,-300.0,0.0
1513265600565299901,,552321,,1513265598,777917520,'',0.279252680319,0.283946550621,-0.00371990040019,0.00469387030181,0.001,27.0576305777,-6000.0,0.0,-300.0,0.0
1513265600575232044,,552322,,1513265598,787917520,'',0.279252680319,0.283929308993,-0.00336776264687,0.00467662867417,0.001,27.0421212753,-6000.0,0.0,-300.0,0.0
1513265600585238406,,552323,,1513265598,797917520,'',0.279252680319,0.28393335068,0.0142987874261,0.00468067036136,0.001,32.3937020866,-6000.0,0.0,-300.0,0.0
1513265600595206494,,552324,,1513265598,807917520,'',0.279252680319,0.28394890198,-0.00377266240259,0.00469622166111,0.001,27.0415639115,-6000.0,0.0,-300.0,0.0
1513265600605113595,,552325,,1513265598,817917520,'',0.279252680319,0.283980301338,-0.00441229334441,0.00472762101882,0.001,27.0387188989,-6000.0,0.0,-300.0,0.0
1513265600615152899,,552326,,1513265598,827917520,'',0.279252680319,0.284003274946,0.0128673498285,0.00475059462679,0.001,32.2868752121,-6000.0,0.0,-300.0,0.0
1513265600625160857,,552327,,1513265598,837917520,'',0.279252680319,0.284005483883,-0.00492933550171,0.00475280356401,0.001,27.0378561994,-6000.0,0.0,-300.0,0.0
1513265600635150559,,552328,,1513265598,847917520,'',0.279252680319,0.284008519089,-0.00500148551337,0.00475583876998,0.001,27.0347253917,-6000.0,0.0,-300.0,0.0
1513265600645443630,,552329,,1513265598,857917520,'',0.279252680319,0.283981656339,0.0132918793055,0.00472897602033,0.001,32.3902875085,-6000.0,0.0,-300.0,0.0
1513265600655475507,,552330,,1513265598,867917520,'',0.279252680319,0.28395603135,-0.00394849149763,0.00470335103089,0.001,27.0643675027,-6000.0,0.0,-300.0,0.0
1513265600665467022,,552331,,1513265598,877917520,'',0.279252680319,0.283966790672,-0.00416222959502,0.00471411035256,0.001,27.0399430646,-6000.0,0.0,-300.0,0.0
1513265600675466737,,552332,,1513265598,887917520,'',0.279252680319,0.283946880343,-0.00374950240721,0.00469420002341,0.001,27.0689322042,-6000.0,0.0,-300.0,0.0
1513265600685424505,,552333,,1513265598,897917520,'',0.279252680319,0.283959784831,-0.00400253987248,0.00470710451208,0.001,27.0659217365,-6000.0,0.0,-300.0,0.0
1513265600695310619,,552334,,1513265598,907917520,'',0.279252680319,0.283972041818,0.0134956260065,0.00471936149872,0.001,32.3872675051,-6000.0,0.0,-300.0,0.0
1513265600705241126,,552335,,1513265598,917917520,'',0.279252680319,0.283934024073,-0.00348170653195,0.00468134375392,0.001,27.0439137897,-6000.0,0.0,-300.0,0.0
1513265600715131545,,552336,,1513265598,927917520,'',0.279252680319,0.283917485947,-0.00314742309718,0.00466480562792,0.001,27.0453157132,-6000.0,0.0,-300.0,0.0
1513265600724935694,,552337,,1513265598,937917520,'',0.279252680319,0.283921043658,0.0145241310714,0.00466836333886,0.001,32.292919478,-6000.0,0.0,-300.0,0.0
1513265600735477812,,552338,,1513265598,947917520,'',0.279252680319,0.283973556299,0.0134790244349,0.00472087597979,0.001,32.2274509096,-6000.0,0.0,-300.0,0.0
1513265600745266751,,552339,,1513265598,957917520,'',0.279252680319,0.283982382036,-0.00445414236222,0.00472970171701,0.001,27.0385303724,-6000.0,0.0,-300.0,0.0
1513265600755229086,,552340,,1513265598,967917520,'',0.279252680319,0.284022400368,0.0124777201133,0.00476972004862,0.001,32.3215456288,-6000.0,0.0,-300.0,0.0
1513265600765195378,,552341,,1513265598,977917520,'',0.279252680319,0.284023184248,-0.00528481448516,0.00477050392906,0.001,27.03940039,-6000.0,0.0,-300.0,0.0
1513265600775268279,,552342,,1513265598,987917520,'',0.279252680319,0.284024266056,-0.00530374471805,0.00477158573686,0.001,27.0332066657,-6000.0,0.0,-300.0,0.0
1513265600785190655,,552343,,1513265598,997917520,'',0.279252680319,0.283993563501,-0.00468079392993,0.00474088318216,0.001,27.0358304245,-6000.0,0.0,-300.0,0.0
1513265600795094407,,552344,,1513265599,7917520,'',0.279252680319,0.283951714635,-0.00383331587689,0.00469903431602,0.001,27.0390987797,-6000.0,0.0,-300.0,0.0
1513265600805017237,,552345,,1513265599,17917520,'',0.279252680319,0.283949758532,-0.00378862984701,0.00469707821323,0.001,27.0436736621,-6000.0,0.0,-300.0,0.0
1513265600815065826,,552346,,1513265599,27917520,'',0.279252680319,0.283946741773,-0.00373387473315,0.00469406145419,0.001,27.0382622458,-6000.0,0.0,-300.0,0.0
1513265600825100753,,552347,,1513265599,37917520,'',0.279252680319,0.283913378822,-0.00305801548583,0.00466069850255,0.001,27.062185136,-6000.0,0.0,-300.0,0.0
1513265600834963050,,552348,,1513265599,47917520,'',0.279252680319,0.283919966063,0.01456299003,0.00466728574376,0.001,32.4928011481,-6000.0,0.0,-300.0,0.0
1513265600845345378,,552349,,1513265599,57917520,'',0.279252680319,0.283938344105,-0.00355304626857,0.00468566378588,0.001,27.0466286207,-6000.0,0.0,-300.0,0.0
1513265600855277757,,552350,,1513265599,67917520,'',0.279252680319,0.283955648886,0.0138412020143,0.00470296856705,0.001,32.3246772215,-6000.0,0.0,-300.0,0.0
1513265600865205551,,552351,,1513265599,77917520,'',0.279252680319,0.283986535202,0.0132135031113,0.00473385488289,0.001,32.4089422576,-6000.0,0.0,-300.0,0.0
1513265600875141506,,552352,,1513265599,87917520,'',0.279252680319,0.283945899338,-0.00371276990084,0.00469321901934,0.001,27.041835973,-6000.0,0.0,-300.0,0.0
1513265600885103340,,552353,,1513265599,97917520,'',0.279252680319,0.28391269174,-0.00304078878387,0.00466001142081,0.001,27.0639220818,-6000.0,0.0,-300.0,0.0
1513265600895235434,,552354,,1513265599,107917520,'',0.279252680319,0.283902254669,-0.00282915099765,0.00464957434973,0.001,27.0653787367,-6000.0,0.0,-300.0,0.0
1513265600904959557,,552355,,1513265599,117917520,'',0.279252680319,0.283909789443,-0.0029802496277,0.00465710912415,0.001,27.0442474337,-6000.0,0.0,-300.0,0.0
1513265600915046791,,552356,,1513265599,127917520,'',0.279252680319,0.283914993059,-0.00308870689545,0.00466231274028,0.001,27.0444136253,-6000.0,0.0,-300.0,0.0
1513265600925375337,,552357,,1513265599,137917520,'',0.279252680319,0.283885336931,-0.00248354754069,0.00463265661166,0.001,27.0645416852,-6000.0,0.0,-300.0,0.0
1513265600935310132,,552358,,1513265599,147917520,'',0.279252680319,0.283892696667,-0.00263971474279,0.00464001634837,0.001,27.0474170804,-6000.0,0.0,-300.0,0.0
1513265600945363600,,552359,,1513265599,157917520,'',0.279252680319,0.28388456325,-0.00247408170094,0.00463188293094,0.001,27.0466803896,-6000.0,0.0,-300.0,0.0
1513265600955248767,,552360,,1513265599,167917520,'',0.279252680319,0.283893947633,-0.00266484233956,0.00464126731358,0.001,27.0714910604,-6000.0,0.0,-300.0,0.0
1513265600965269234,,552361,,1513265599,177917520,'',0.279252680319,0.28388520043,-0.00248365067308,0.00463252011134,0.001,27.0308457923,-6000.0,0.0,-300.0,0.0
1513265600975163626,,552362,,1513265599,187917520,'',0.279252680319,0.283863021043,-0.00203498386102,0.00461034072433,0.001,27.0634375455,-6000.0,0.0,-300.0,0.0
1513265600985279372,,552363,,1513265599,197917520,'',0.279252680319,0.283877662359,-0.0023274898808,0.0046249820403,0.001,27.0485233323,-6000.0,0.0,-300.0,0.0
1513265600995073505,,552364,,1513265599,207917520,'',0.279252680319,0.283856760105,-0.00190532442027,0.00460407978545,0.001,27.0499126428,-6000.0,0.0,-300.0,0.0
1513265601005474661,,552365,,1513265599,217917520,'',0.279252680319,0.283854479503,-0.00185766088616,0.00460179918431,0.001,27.0505223603,-6000.0,0.0,-300.0,0.0
1513265601015494226,,552366,,1513265599,227917520,'',0.279252680319,0.283837810961,-0.00152129430486,0.00458513064161,0.001,27.0621902075,-6000.0,0.0,-300.0,0.0
1513265601025438977,,552367,,1513265599,237917520,'',0.279252680319,0.283840226146,-0.00157093451004,0.00458754582659,0.001,27.0509565092,-6000.0,0.0,-300.0,0.0
1513265601035430368,,552368,,1513265599,247917520,'',0.279252680319,0.283811280003,-0.000982692291607,0.00455859968387,0.001,27.0546752362,-6000.0,0.0,-300.0,0.0
1513265601045463226,,552369,,1513265599,257917520,'',0.279252680319,0.283819191918,-0.00114759459101,0.00456651159844,0.001,27.0606064198,-6000.0,0.0,-300.0,0.0
1513265601055470887,,552370,,1513265599,267917520,'',0.279252680319,0.283808920213,-0.000939947579962,0.00455623989343,0.001,27.0602180833,-6000.0,0.0,-300.0,0.0
1513265601065239587,,552371,,1513265599,277917520,'',0.279252680319,0.283816306501,-0.00108886611297,0.00456362618148,0.001,27.0545217479,-6000.0,0.0,-300.0,0.0
1513265601075291985,,552372,,1513265599,287917520,'',0.279252680319,0.283806534795,-0.000891399079938,0.00455385447591,0.001,27.0547209526,-6000.0,0.0,-300.0,0.0
1513265601085187432,,552373,,1513265599,297917520,'',0.279252680319,0.283798535199,-0.000729742904338,0.00454585487958,0.001,27.0551882472,-6000.0,0.0,-300.0,0.0
1513265601095086341,,552374,,1513265599,307917520,'',0.279252680319,0.283807464193,-0.000913250931979,0.00455478387394,0.001,27.0527356408,-6000.0,0.0,-300.0,0.0
1513265601105026391,,552375,,1513265599,317917520,'',0.279252680319,0.283799317506,-0.000748066954566,0.00454663718671,0.001,27.0556019906,-6000.0,0.0,-300.0,0.0
1513265601114995090,,552376,,1513265599,327917520,'',0.279252680319,0.283807510926,-0.000909297197765,0.00455483060707,0.001,27.0543091729,-6000.0,0.0,-300.0,0.0
1513265601125484570,,552377,,1513265599,337917520,'',0.279252680319,0.283799335187,-0.000744412927348,0.00454665486835,0.001,27.0553312576,-6000.0,0.0,-300.0,0.0
1513265601135335033,,552378,,1513265599,347917520,'',0.279252680319,0.283792639375,-0.000609375071955,0.00453995905545,0.001,27.0549726977,-6000.0,0.0,-300.0,0.0
1513265601145301957,,552379,,1513265599,357917520,'',0.279252680319,0.283787171053,-0.000499092665747,0.00453449073433,0.001,27.0560373196,-6000.0,0.0,-300.0,0.0
1513265601155454947,,552380,,1513265599,367917520,'',0.279252680319,0.283782682319,-0.00040856609168,0.00453000200041,0.001,27.058960111,-6000.0,0.0,-300.0,0.0
1513265601165339726,,552381,,1513265599,377917520,'',0.279252680319,0.283779009028,-0.000334484953749,0.00452632870867,0.001,27.0571511157,-6000.0,0.0,-300.0,0.0
1513265601175282671,,552382,,1513265599,387917520,'',0.279252680319,0.283775999899,-0.000273798331603,0.00452331958011,0.001,27.0570517703,-6000.0,0.0,-300.0,0.0
1513265601185206994,,552383,,1513265599,397917520,'',0.279252680319,0.283788669307,-0.000530300113253,0.00453598898798,0.001,27.0563886188,-6000.0,0.0,-300.0,0.0
1513265601195224683,,552384,,1513265599,407917520,'',0.279252680319,0.283785383922,-0.000464817506976,0.00453270360306,0.001,27.0562122891,-6000.0,0.0,-300.0,0.0
1513265601205125511,,552385,,1513265599,417917520,'',0.279252680319,0.283798338845,-0.000726358629771,0.00454565852543,0.001,27.0554157167,-6000.0,0.0,-300.0,0.0
1513265601215078976,,552386,,1513265599,427917520,'',0.279252680319,0.283775653225,-0.000272177902485,0.00452297290581,0.001,27.0574932262,-6000.0,0.0,-300.0,0.0
1513265601225035714,,552387,,1513265599,437917520,'',0.279252680319,0.283788726773,-0.000535548954717,0.00453604645376,0.001,27.0518912816,-6000.0,0.0,-300.0,0.0
1513265601235093604,,552388,,1513265599,447917520,'',0.279252680319,0.283783978562,-0.000438872099473,0.00453129824266,0.001,27.0594009164,-6000.0,0.0,-300.0,0.0
1513265601245555144,,552389,,1513265599,457917520,'',0.279252680319,0.283780069983,-0.000359290741358,0.00452738966405,0.001,27.0569643533,-6000.0,0.0,-300.0,0.0
1513265601255465269,,552390,,1513265599,467917520,'',0.279252680319,0.283743640845,-0.0173739384581,0.00449096052546,0.001,21.7144522571,-6000.0,0.0,-300.0,0.0
1513265601265409921,,552391,,1513265599,477917520,'',0.279252680319,0.283729614584,-0.0170882627239,0.00447693426487,0.001,21.7255157759,-6000.0,0.0,-300.0,0.0
1513265601275341118,,552392,,1513265599,487917520,'',0.279252680319,0.283718770639,0.000879788496584,0.00446609032,0.001,27.0619058006,-6000.0,0.0,-300.0,0.0
1513265601285232499,,552393,,1513265599,497917520,'',0.279252680319,0.283726687166,0.00072023791268,0.00447400684712,0.001,27.0621676515,-6000.0,0.0,-300.0,0.0
1513265601295105956,,552394,,1513265599,507917520,'',0.279252680319,0.283733168581,0.000589610751607,0.0044804882616,0.001,27.0612817425,-6000.0,0.0,-300.0,0.0
1513265601305082977,,552395,,1513265599,517917520,'',0.279252680319,0.283738463517,0.000482896007084,0.00448578319784,0.001,27.0609459303,-6000.0,0.0,-300.0,0.0
1513265601315537605,,552396,,1513265599,527917520,'',0.279252680319,0.283742807504,0.000395346806555,0.00449012718458,0.001,27.0600085434,-6000.0,0.0,-300.0,0.0
1513265601325516748,,552397,,1513265599,537917520,'',0.279252680319,0.283714662358,0.000965751830578,0.00446198203845,0.001,27.0621603645,-6000.0,0.0,-300.0,0.0
1513265601335333632,,552398,,1513265599,547917520,'',0.279252680319,0.283723307516,0.000790943527687,0.00447062719647,0.001,27.0567531018,-6000.0,0.0,-300.0,0.0
1513265601345322831,,552399,,1513265599,557917520,'',0.279252680319,0.283747848074,0.0180428946695,0.00449516775462,0.001,32.4000820001,-6000.0,0.0,-300.0,0.0
1513265601355160132,,552400,,1513265599,567917520,'',0.279252680319,0.283750490922,0.000240818119151,0.00449781060272,0.001,27.0594020824,-6000.0,0.0,-300.0,0.0
1513265601365427815,,552401,,1513265599,577917520,'',0.279252680319,0.283722360386,0.000807283988558,0.00446968006696,0.001,27.0606284687,-6000.0,0.0,-300.0,0.0
1513265601375357850,,552402,,1513265599,587917520,'',0.279252680319,0.283714801375,0.000957788816031,0.0044621210563,0.001,27.0627751471,-6000.0,0.0,-300.0,0.0
1513265601385269962,,552403,,1513265599,597917520,'',0.279252680319,0.283723420626,0.00078443684012,0.00447074030713,0.001,27.0569856488,-6000.0,0.0,-300.0,0.0
1513265601395145980,,552404,,1513265599,607917520,'',0.279252680319,0.283730492655,0.000642202878627,0.00447781233607,0.001,27.05688034,-6000.0,0.0,-300.0,0.0
1513265601405140900,,552405,,1513265599,617917520,'',0.279252680319,0.28373628226,0.00052576126314,0.00448360194121,0.001,27.0606762032,-6000.0,0.0,-300.0,0.0
1513265601415106848,,552406,,1513265599,627917520,'',0.279252680319,0.28372600811,0.000726242423759,0.00447332779076,0.001,27.0566584549,-6000.0,0.0,-300.0,0.0
1513265601425341204,,552407,,1513265599,637917520,'',0.279252680319,0.283716067309,0.000923440681675,0.00446338699007,0.001,27.0640813675,-6000.0,0.0,-300.0,0.0
1513265601435201981,,552408,,1513265599,647917520,'',0.279252680319,0.283692156354,-0.0163356098214,0.00443947603537,0.001,21.7188165556,-6000.0,0.0,-300.0,0.0
1513265601445654090,,552409,,1513265599,657917520,'',0.279252680319,0.283705860379,0.0011339246945,0.00445318006037,0.001,27.0643282977,-6000.0,0.0,-300.0,0.0
1513265601455655227,,552410,,1513265599,667917520,'',0.279252680319,0.283698985573,0.00127461336908,0.00444630525385,0.001,27.0646711372,-6000.0,0.0,-300.0,0.0
1513265601465484973,,552411,,1513265599,677917520,'',0.279252680319,0.283663652206,0.00198955086679,0.00441097188714,0.001,27.0674096378,-6000.0,0.0,-300.0,0.0
1513265601475779393,,552412,,1513265599,687917520,'',0.279252680319,0.283650268387,0.00226182442726,0.00439758806826,0.001,27.0686223101,-6000.0,0.0,-300.0,0.0
1513265601485370678,,552413,,1513265599,697917520,'',0.279252680319,0.283607982148,0.00311885551636,0.00435530182881,0.001,27.0724537543,-6000.0,0.0,-300.0,0.0
1513265601495210432,,552414,,1513265599,707917520,'',0.279252680319,0.283604851654,0.00317810280847,0.0043521713354,0.001,27.0681379223,-6000.0,0.0,-300.0,0.0
1513265601505235680,,552415,,1513265599,717917520,'',0.279252680319,0.283603419558,0.0032111604399,0.0043507392387,0.001,27.0758842279,-6000.0,0.0,-300.0,0.0
1513265601515297076,,552416,,1513265599,727917520,'',0.279252680319,0.283617756068,0.00292255029331,0.00436507574853,0.001,27.0707235727,-6000.0,0.0,-300.0,0.0
1513265601525200126,,552417,,1513265599,737917520,'',0.279252680319,0.283643994519,0.00239248563291,0.00439131419973,0.001,27.0693636229,-6000.0,0.0,-300.0,0.0
1513265601535440947,,552418,,1513265599,747917520,'',0.279252680319,0.283602722057,0.00321930727547,0.00435004173746,0.001,27.0701333199,-6000.0,0.0,-300.0,0.0
1513265601545529225,,552419,,1513265599,757917520,'',0.279252680319,0.283598344694,-0.0144356482219,0.00434566437491,0.001,21.8060033266,-6000.0,0.0,-300.0,0.0
1513265601555672124,,552420,,1513265599,767917520,'',0.279252680319,0.28359685106,0.00334538701138,0.00434417074076,0.001,27.0715290523,-6000.0,0.0,-300.0,0.0
1513265601565405323,,552421,,1513265599,777917520,'',0.279252680319,0.283595276072,0.00337694820855,0.00434259575333,0.001,27.0767766084,-6000.0,0.0,-300.0,0.0
1513265601575688080,,552422,,1513265599,787917520,'',0.279252680319,0.283595463556,0.00337224467903,0.00434278323693,0.001,27.0726132909,-6000.0,0.0,-300.0,0.0
1513265601585472371,,552423,,1513265599,797917520,'',0.279252680319,0.283561992841,0.00404755584229,0.00430931252141,0.001,27.0520523185,-6000.0,0.0,-300.0,0.0
1513265601595493083,,552424,,1513265599,807917520,'',0.279252680319,0.283552190827,0.00424694955438,0.00429951050818,0.001,27.0520456661,-6000.0,0.0,-300.0,0.0
1513265601605239387,,552425,,1513265599,817917520,'',0.279252680319,0.283573897041,0.00380474978146,0.00432121672192,0.001,27.0769179557,-6000.0,0.0,-300.0,0.0
1513265601615257521,,552426,,1513265599,827917520,'',0.279252680319,0.283559026789,-0.0136377903772,0.00430634646944,0.001,21.7458670277,-6000.0,0.0,-300.0,0.0
1513265601625212761,,552427,,1513265599,837917520,'',0.279252680319,0.283485113488,0.00559525546006,0.00423243316886,0.001,27.0532358001,-6000.0,0.0,-300.0,0.0
1513265601635433066,,552428,,1513265599,847917520,'',0.279252680319,0.283455563358,-0.0115515879053,0.00420288303851,0.001,21.8122801182,-6000.0,0.0,-300.0,0.0
1513265601645134631,,552429,,1513265599,857917520,'',0.279252680319,0.283402586197,0.0072633087188,0.0041499058783,0.001,27.0931649658,-6000.0,0.0,-300.0,0.0
1513265601655216483,,552430,,1513265599,867917520,'',0.279252680319,0.283388339324,-0.0101852078973,0.0041356590045,0.001,21.8152336457,-6000.0,0.0,-300.0,0.0
1513265601665457829,,552431,,1513265599,877917520,'',0.279252680319,0.283311525678,-0.00862999067105,0.0040588453588,0.001,21.7510823102,-6000.0,0.0,-300.0,0.0
1513265601675339147,,552432,,1513265599,887917520,'',0.279252680319,0.28323412264,-0.00706789782752,0.00398144232123,0.001,21.8026159706,-6000.0,0.0,-300.0,0.0
1513265601685599632,,552433,,1513265599,897917520,'',0.279252680319,0.28307461452,-0.021595115877,0.00382193420081,0.001,16.4130800802,-6000.0,0.0,-300.0,0.0
1513265601695633970,,552434,,1513265599,907917520,'',0.279252680319,0.282910347103,-0.0182786294932,0.00365766678431,0.001,16.4223185139,-6000.0,0.0,-300.0,0.0
1513265601705590401,,552435,,1513265599,917917520,'',0.279252680319,0.282616458237,-0.0300867925265,0.00336377791774,0.001,11.1101057698,-6000.0,0.0,-300.0,0.0
1513265601715366724,,552436,,1513265599,927917520,'',0.279252680319,0.282247895803,-0.0403887805617,0.00299521548403,0.001,6.04954191368,-6000.0,0.0,-300.0,0.0
1513265601725353598,,552437,,1513265599,937917520,'',0.279252680319,0.281740853747,-0.0478964421765,0.00248817342809,0.001,0.515668468669,-6000.0,0.0,-300.0,0.0
1513265601735293103,,552438,,1513265599,947917520,'',0.279252680319,0.281002992438,-0.068484403162,0.00175031211868,0.001,-10.1466188209,-6000.0,0.0,-300.0,0.0
1513265601745415108,,552439,,1513265599,957917520,'',0.279252680319,0.280143418389,-0.104368421897,0.000890738069531,0.001,-26.3169839385,-6000.0,0.0,-300.0,0.0
1513265601755076296,,552440,,1513265599,967917520,'',0.279252680319,0.279056044502,-0.135635079337,0.0,0.001,19.085538869,-6000.0,0.0,-300.0,0.0
1513265601765143557,,552441,,1513265599,977917520,'',0.279252680319,0.277473928502,-0.192412539595,0.0,0.001,0.0,-6000.0,0.0,-300.0,0.0
1513265601775348244,,552442,,1513265599,987917520,'',0.279252680319,0.275170144767,-0.270099412209,0.0,0.001,0.0,-6000.0,0.0,-300.0,0.0
1513265601785494915,,552443,,1513265599,997917520,'',0.279252680319,0.27220535434,-0.316690241918,0.0,0.001,0.0,-6000.0,0.0,-300.0,0.0
1513265601795637484,,552444,,1513265600,7917520,'',0.279252680319,0.268958565833,-0.322090679139,0.0,0.001,0.0,-6000.0,0.0,-300.0,0.0
1513265601805633923,,552445,,1513265600,17917520,'',0.279252680319,0.265790482539,-0.293586566602,0.0,0.001,0.0,-6000.0,0.0,-300.0,0.0
1513265601815584944,,552446,,1513265600,27917520,'',0.279252680319,0.26309391412,-0.23910682858,0.0,0.001,0.0,-6000.0,0.0,-300.0,0.0
1513265601825504225,,552447,,1513265600,37917520,'',0.279252680319,0.260951182885,-0.195822969587,-0.018301497434,0.001,-167.606800933,-6000.0,0.0,-300.0,0.0
1513265601835479190,,552448,,1513265600,47917520,'',0.279252680319,0.259191869619,-0.160284276681,-0.0200608106999,0.001,-169.039704353,-6000.0,0.0,-300.0,0.0
1513265601845663391,,552449,,1513265600,57917520,'',0.279252680319,0.257929046973,-0.117027102041,-0.0213236333457,0.001,-163.159449155,-6000.0,0.0,-300.0,0.0
1513265601855412189,,552450,,1513265600,67917520,'',0.279252680319,0.256858443413,-0.0953961657163,-0.0223942369062,0.001,-163.364476188,-6000.0,0.0,-300.0,0.0
1513265601865473517,,552451,,1513265600,77917520,'',0.279252680319,0.255892537809,-0.0936371940776,-0.0233601425097,0.001,-167.743948995,-6000.0,0.0,-300.0,0.0
1513265601875378134,,552452,,1513265600,87917520,'',0.279252680319,0.255147889015,-0.060845903698,-0.0241047913043,0.001,-162.975100681,-6000.0,0.0,-300.0,0.0
1513265601885630097,,552453,,1513265600,97917520,'',0.279252680319,0.254621841692,-0.0324762736792,-0.0246308386266,0.001,-157.555589963,-6000.0,0.0,-300.0,0.0
1513265601895450089,,552454,,1513265600,107917520,'',0.279252680319,0.254692034392,0.0370873836469,-0.0245606459267,0.001,-136.180151337,-6000.0,0.0,-300.0,0.0
1513265601905202971,,552455,,1513265600,117917520,'',0.279252680319,0.255120157233,0.0284396610271,-0.0241325230863,0.001,-136.208666288,-6000.0,0.0,-300.0,0.0
1513265601915135445,,552456,,1513265600,127917520,'',0.279252680319,0.255474934627,0.0390221773888,-0.0237777456923,0.001,-130.925734893,-6000.0,0.0,-300.0,0.0
1513265601925134290,,552457,,1513265600,137917520,'',0.279252680319,0.255840174348,0.031644503036,-0.0234125059715,0.001,-131.123197913,-6000.0,0.0,-300.0,0.0
1513265601935211413,,552458,,1513265600,147917520,'',0.279252680319,0.256141757003,0.0433010602653,-0.0231109233165,0.001,-125.594405353,-6000.0,0.0,-300.0,0.0
1513265601945024129,,552459,,1513265600,157917520,'',0.279252680319,0.25638625042,0.0206098889896,-0.0228664298994,0.001,-130.976972518,-6000.0,0.0,-300.0,0.0
1513265601955537474,,552460,,1513265600,167917520,'',0.279252680319,0.256571308727,0.0168725854158,-0.0226813715921,0.001,-131.00457591,-6000.0,0.0,-300.0,0.0
1513265601965472458,,552461,,1513265600,177917520,'',0.279252680319,0.256771329985,0.0305875257956,-0.0224813503339,0.001,-125.640575134,-6000.0,0.0,-300.0,0.0
1513265601975470099,,552462,,1513265600,187917520,'',0.279252680319,0.256950233693,0.0269651847692,-0.022302446626,0.001,-125.852795956,-6000.0,0.0,-300.0,0.0
1513265601985488247,,552463,,1513265600,197917520,'',0.279252680319,0.257048513973,0.0072353767812,-0.0222041663465,0.001,-131.047119791,-6000.0,0.0,-300.0,0.0
1513265601995277494,,552464,,1513265600,207917520,'',0.279252680319,0.257147057716,0.0229928781323,-0.0221056226031,0.001,-125.707781521,-6000.0,0.0,-300.0,0.0
1513265602005243111,,552465,,1513265600,217917520,'',0.279252680319,0.257277215686,0.0203628316208,-0.0219754646332,0.001,-125.693801314,-6000.0,0.0,-300.0,0.0
1513265602015223614,,552466,,1513265600,227917520,'',0.279252680319,0.257412509763,0.0176296551471,-0.0218401705563,0.001,-125.718818664,-6000.0,0.0,-300.0,0.0
1513265602025215025,,552467,,1513265600,237917520,'',0.279252680319,0.257523032152,0.0153976016271,-0.0217296481675,0.001,-125.735202317,-6000.0,0.0,-300.0,0.0
1513265602035084223,,552468,,1513265600,247917520,'',0.279252680319,0.257628647698,-0.00448052622909,-0.0216240326211,0.001,-131.094529501,-6000.0,0.0,-300.0,0.0
1513265602045027338,,552469,,1513265600,257917520,'',0.279252680319,0.257702476578,0.0117763780099,-0.0215502037414,0.001,-125.750610634,-6000.0,0.0,-300.0,0.0
1513265602055533191,,552470,,1513265600,267917520,'',0.279252680319,0.257758564999,0.0106407030356,-0.0214941153196,0.001,-125.753468091,-6000.0,0.0,-300.0,0.0
1513265602065292294,,552471,,1513265600,277917520,'',0.279252680319,0.257790816174,0.00998147497176,-0.0214618641453,0.001,-125.822964321,-6000.0,0.0,-300.0,0.0
1513265602075358471,,552472,,1513265600,287917520,'',0.279252680319,0.257798480812,-0.00792040428232,-0.0214541995072,0.001,-131.110889103,-6000.0,0.0,-300.0,0.0
1513265602085278264,,552473,,1513265600,297917520,'',0.279252680319,0.257792505291,0.00995272914183,-0.0214601750278,0.001,-125.822900462,-6000.0,0.0,-300.0,0.0
1513265602095044568,,552474,,1513265600,307917520,'',0.279252680319,0.257815642434,-0.00825784370968,-0.0214370378855,0.001,-131.05994058,-6000.0,0.0,-300.0,0.0
1513265602105469190,,552475,,1513265600,317917520,'',0.279252680319,0.257883345687,-0.00962534675689,-0.0213693346321,0.001,-131.113014012,-6000.0,0.0,-300.0,0.0
1513265602115403678,,552476,,1513265600,327917520,'',0.279252680319,0.257923928852,-0.0104481059629,-0.0213287514674,0.001,-131.116217288,-6000.0,0.0,-300.0,0.0
1513265602125464473,,552477,,1513265600,337917520,'',0.279252680319,0.25792665053,-0.0105089920885,-0.021326029789,0.001,-131.131607819,-6000.0,0.0,-300.0,0.0
1513265602135473453,,552478,,1513265600,347917520,'',0.279252680319,0.257946446481,0.00684286431702,-0.0213062338385,0.001,-125.815102994,-6000.0,0.0,-300.0,0.0
1513265602145429658,,552479,,1513265600,357917520,'',0.279252680319,0.257992868197,0.00590244313582,-0.0212598121222,0.001,-125.736361515,-6000.0,0.0,-300.0,0.0
1513265602155439019,,552480,,1513265600,367917520,'',0.279252680319,0.257982567393,0.00611234810693,-0.0212701129261,0.001,-125.769327705,-6000.0,0.0,-300.0,0.0
1513265602165118546,,552481,,1513265600,377917520,'',0.279252680319,0.25803744383,0.00500436833808,-0.0212152364896,0.001,-125.781811796,-6000.0,0.0,-300.0,0.0
1513265602175002716,,552482,,1513265600,387917520,'',0.279252680319,0.258065258155,-0.013301038423,-0.0211874221637,0.001,-131.038975667,-6000.0,0.0,-300.0,0.0
1513265602185404168,,552483,,1513265600,397917520,'',0.279252680319,0.258105145313,0.00364088030089,-0.0211475350063,0.001,-125.787683099,-6000.0,0.0,-300.0,0.0
1513265602195388670,,552484,,1513265600,407917520,'',0.279252680319,0.258137814118,0.00298065961909,-0.0211148662014,0.001,-125.790690815,-6000.0,0.0,-300.0,0.0
1513265602205411468,,552485,,1513265600,417917520,'',0.279252680319,0.258149863672,0.00273514391753,-0.0211028166474,0.001,-125.79100945,-6000.0,0.0,-300.0,0.0
1513265602215367732,,552486,,1513265600,427917520,'',0.279252680319,0.258174476311,0.00223809789118,-0.0210782040079,0.001,-125.7772393,-6000.0,0.0,-300.0,0.0
1513265602225131509,,552487,,1513265600,437917520,'',0.279252680319,0.258177722132,0.00217385341522,-0.0210749581867,0.001,-125.811004876,-6000.0,0.0,-300.0,0.0
1513265602235028998,,552488,,1513265600,447917520,'',0.279252680319,0.258197277629,0.00177869805258,-0.0210554026897,0.001,-125.782800515,-6000.0,0.0,-300.0,0.0
1513265602245442063,,552489,,1513265600,457917520,'',0.279252680319,0.258228040929,0.00115986084889,-0.0210246393904,0.001,-125.799749887,-6000.0,0.0,-300.0,0.0
1513265602255398873,,552490,,1513265600,467917520,'',0.279252680319,0.258255580223,0.00060219647298,-0.0209971000957,0.001,-125.800622133,-6000.0,0.0,-300.0,0.0
1513265602265367755,,552491,,1513265600,477917520,'',0.279252680319,0.258260957079,0.000493255557233,-0.0209917232396,0.001,-125.805047897,-6000.0,0.0,-300.0,0.0
1513265602275355388,,552492,,1513265600,487917520,'',0.279252680319,0.258265372922,0.000403785805911,-0.0209873073967,0.001,-125.801969337,-6000.0,0.0,-300.0,0.0
1513265602285342355,,552493,,1513265600,497917520,'',0.279252680319,0.258252767048,0.000656651074897,-0.0209999132706,0.001,-125.801511607,-6000.0,0.0,-300.0,0.0
1513265602295295713,,552494,,1513265600,507917520,'',0.279252680319,0.258258667307,0.000537566700837,-0.0209940130121,0.001,-125.802322754,-6000.0,0.0,-300.0,0.0
1513265602305370896,,552495,,1513265600,517917520,'',0.279252680319,0.258263496716,0.000440095193233,-0.0209891836035,0.001,-125.802262023,-6000.0,0.0,-300.0,0.0
1513265602315163986,,552496,,1513265600,527917520,'',0.279252680319,0.258283924526,2.79590289525e-05,-0.0209687557935,0.001,-125.804329692,-6000.0,0.0,-300.0,0.0
1513265602325138776,,552497,,1513265600,537917520,'',0.279252680319,0.258284174369,2.2888083477e-05,-0.0209685059498,0.001,-125.804165751,-6000.0,0.0,-300.0,0.0
1513265602335032924,,552498,,1513265600,547917520,'',0.279252680319,0.258269676467,0.000313865763131,-0.0209830038525,0.001,-125.802945005,-6000.0,0.0,-300.0,0.0
1513265602345000134,,552499,,1513265600,557917520,'',0.279252680319,0.258256666062,0.000573347687588,-0.0209960142568,0.001,-125.805519309,-6000.0,0.0,-300.0,0.0
1513265602355453696,,552500,,1513265600,567917520,'',0.279252680319,0.258247165616,0.000765244571036,-0.0210055147031,0.001,-125.804320322,-6000.0,0.0,-300.0,0.0
1513265602365367645,,552501,,1513265600,577917520,'',0.279252680319,0.258254074256,0.000626616029513,-0.0209986060632,0.001,-125.810414884,-6000.0,0.0,-300.0,0.0
1513265602375456350,,552502,,1513265600,587917520,'',0.279252680319,0.258277218805,0.0179080029769,-0.0209754615138,0.001,-120.452808058,-6000.0,0.0,-300.0,0.0
1513265602385323062,,552503,,1513265600,597917520,'',0.279252680319,0.258263179511,0.000443433880943,-0.0209895008077,0.001,-125.802523415,-6000.0,0.0,-300.0,0.0
1513265602395341726,,552504,,1513265600,607917520,'',0.279252680319,0.258281878667,7.13194708233e-05,-0.0209708016518,0.001,-125.804983196,-6000.0,0.0,-300.0,0.0
1513265602405247634,,552505,,1513265600,617917520,'',0.279252680319,0.25828250001,5.83750301812e-05,-0.0209701803087,0.001,-125.804306009,-6000.0,0.0,-300.0,0.0
1513265602415418813,,552506,,1513265600,627917520,'',0.279252680319,0.258297625152,-0.000246482766904,-0.0209550551666,0.001,-125.805386136,-6000.0,0.0,-300.0,0.0
1513265602425534936,,552507,,1513265600,637917520,'',0.279252680319,0.25831102957,-0.000508813970876,-0.0209416507493,0.001,-125.806450474,-6000.0,0.0,-300.0,0.0
1513265602435593044,,552508,,1513265600,647917520,'',0.279252680319,0.258321824037,-0.000732681960386,-0.020930856282,0.001,-125.80827173,-6000.0,0.0,-300.0,0.0
1513265602445701048,,552509,,1513265600,657917520,'',0.279252680319,0.25831521514,-0.00060009824505,-0.0209374651793,0.001,-125.807722164,-6000.0,0.0,-300.0,0.0
1513265602455454934,,552510,,1513265600,667917520,'',0.279252680319,0.258325329255,-0.000803626255568,-0.0209273510639,0.001,-125.815493526,-6000.0,0.0,-300.0,0.0
1513265602465508397,,552511,,1513265600,677917520,'',0.279252680319,0.258318105612,-0.000658597131654,-0.0209345747073,0.001,-125.807289695,-6000.0,0.0,-300.0,0.0
1513265602475444749,,552512,,1513265600,687917520,'',0.279252680319,0.258312157292,-0.000539172692848,-0.0209405230268,0.001,-125.80654607,-6000.0,0.0,-300.0,0.0
1513265602485639223,,552513,,1513265600,697917520,'',0.279252680319,0.258323087665,-0.000760599267001,-0.0209295926542,0.001,-125.806093984,-6000.0,0.0,-300.0,0.0
1513265602495645494,,552514,,1513265600,707917520,'',0.279252680319,0.258362918368,-0.00156007072101,-0.0208897619506,0.001,-125.811302182,-6000.0,0.0,-300.0,0.0
1513265602505480025,,552515,,1513265600,717917520,'',0.279252680319,0.258462817641,0.0141643670295,-0.0207898626784,0.001,-120.559643491,-6000.0,0.0,-300.0,0.0
1513265602515481734,,552516,,1513265600,727917520,'',0.279252680319,0.25856043183,0.0121904296361,-0.0206922484893,0.001,-120.47846924,-6000.0,0.0,-300.0,0.0
1513265602525526337,,552517,,1513265600,737917520,'',0.279252680319,0.258700536168,0.00935929651879,-0.0205521441507,0.001,-120.487782719,-6000.0,0.0,-300.0,0.0
1513265602535117946,,552518,,1513265600,747917520,'',0.279252680319,0.258784385592,0.00766537661796,-0.0204682947272,0.001,-120.55468244,-6000.0,0.0,-300.0,0.0
1513265602545387572,,552519,,1513265600,757917520,'',0.279252680319,0.25885577099,0.0239709828168,-0.0203969093295,0.001,-115.161427433,-6000.0,0.0,-300.0,0.0
1513265602555494082,,552520,,1513265600,767917520,'',0.279252680319,0.258927120797,0.00478326700503,-0.0203255595221,0.001,-120.513075864,-6000.0,0.0,-300.0,0.0
1513265602565362762,,552521,,1513265600,777917520,'',0.279252680319,0.259019869314,0.020658185675,-0.020232811005,0.001,-115.161906661,-6000.0,0.0,-300.0,0.0
1513265602575438378,,552522,,1513265600,787917520,'',0.279252680319,0.259045985111,0.00238106494598,-0.0202066952083,0.001,-120.519539963,-6000.0,0.0,-300.0,0.0
1513265602585493481,,552523,,1513265600,797917520,'',0.279252680319,0.259097412902,0.00134857561217,-0.0201552674168,0.001,-120.528383721,-6000.0,0.0,-300.0,0.0
1513265602595380109,,552524,,1513265600,807917520,'',0.279252680319,0.259109458867,0.00110396260601,-0.0201432214522,0.001,-120.52781838,-6000.0,0.0,-300.0,0.0
1513265602605371144,,552525,,1513265600,817917520,'',0.279252680319,0.25911931604,0.000903796593741,-0.0201333642793,0.001,-120.529108258,-6000.0,0.0,-300.0,0.0
1513265602615413488,,552526,,1513265600,827917520,'',0.279252680319,0.25919127079,0.0171901772117,-0.0200614095294,0.001,-115.283013179,-6000.0,0.0,-300.0,0.0
1513265602625390895,,552527,,1513265600,837917520,'',0.279252680319,0.259251194281,0.0159801137728,-0.0200014860383,0.001,-115.190328283,-6000.0,0.0,-300.0,0.0
1513265602635461767,,552528,,1513265600,847917520,'',0.279252680319,0.259315445021,-0.00305850808437,-0.0199372352978,0.001,-120.525639069,-6000.0,0.0,-300.0,0.0
1513265602645263835,,552529,,1513265600,857917520,'',0.279252680319,0.259319565377,-0.00314035286071,-0.0199331149423,0.001,-120.549980161,-6000.0,0.0,-300.0,0.0
1513265602655411374,,552530,,1513265600,867917520,'',0.279252680319,0.259355138897,0.0138888266667,-0.0198975414221,0.001,-115.282980129,-6000.0,0.0,-300.0,0.0
1513265602665251437,,552531,,1513265600,877917520,'',0.279252680319,0.259402664724,0.0129265666911,-0.0198500155952,0.001,-115.196583295,-6000.0,0.0,-300.0,0.0
1513265602675536618,,552532,,1513265600,887917520,'',0.279252680319,0.259438906163,-0.0055544968168,-0.0198137741561,0.001,-120.55485355,-6000.0,0.0,-300.0,0.0
1513265602685594309,,552533,,1513265600,897917520,'',0.279252680319,0.259484158206,0.0112781541011,-0.019768522113,0.001,-115.21469531,-6000.0,0.0,-300.0,0.0
1513265602695596462,,552534,,1513265600,907917520,'',0.279252680319,0.259522331587,0.0105007053885,-0.0197303487319,0.001,-115.284706843,-6000.0,0.0,-300.0,0.0
1513265602705489946,,552535,,1513265600,917917520,'',0.279252680319,0.259522084157,0.0105096314804,-0.019730596162,0.001,-115.205001059,-6000.0,0.0,-300.0,0.0
1513265602715569888,,552536,,1513265600,927917520,'',0.279252680319,0.259554907169,0.00984367384836,-0.0196977731505,0.001,-115.155226904,-6000.0,0.0,-300.0,0.0
1513265602725381673,,552537,,1513265600,937917520,'',0.279252680319,0.259549724064,-0.00779519625535,-0.019702956255,0.001,-120.615428245,-6000.0,0.0,-300.0,0.0
1513265602735489146,,552538,,1513265600,947917520,'',0.279252680319,0.259606595161,0.00880448224801,-0.0196460851586,0.001,-115.222530215,-6000.0,0.0,-300.0,0.0
1513265602745511687,,552539,,1513265600,957917520,'',0.279252680319,0.259621463856,-0.00924765580827,-0.0196312164632,0.001,-120.644758925,-6000.0,0.0,-300.0,0.0
1513265602755484551,,552540,,1513265600,967917520,'',0.279252680319,0.259650635717,0.00791006591247,-0.0196020446024,0.001,-115.1475972,-6000.0,0.0,-300.0,0.0
1513265602765253764,,552541,,1513265600,977917520,'',0.279252680319,0.259675207919,0.00741834454601,-0.0195774723998,0.001,-115.278034993,-6000.0,0.0,-300.0,0.0
1513265602775141930,,552542,,1513265600,987917520,'',0.279252680319,0.259676847152,0.00738748131833,-0.0195758331672,0.001,-115.156854785,-6000.0,0.0,-300.0,0.0
1513265602785600911,,552543,,1513265600,997917520,'',0.279252680319,0.259665945477,0.00761327461118,-0.0195867348417,0.001,-115.225710268,-6000.0,0.0,-300.0,0.0
1513265602795562484,,552544,,1513265601,7917520,'',0.279252680319,0.259701224966,-0.0108460219596,-0.0195514553528,0.001,-120.523016527,-6000.0,0.0,-300.0,0.0
1513265602805669910,,552545,,1513265601,17917520,'',0.279252680319,0.259653351701,0.00786742878332,-0.0195993286184,0.001,-115.281258853,-6000.0,0.0,-300.0,0.0
1513265602815484154,,552546,,1513265601,27917520,'',0.279252680319,0.259661317598,0.00770574029665,-0.0195913627211,0.001,-115.157395053,-6000.0,0.0,-300.0,0.0
1513265602825466680,,552547,,1513265601,37917520,'',0.279252680319,0.259685322706,0.0072229408124,-0.0195673576134,0.001,-115.229142415,-6000.0,0.0,-300.0,0.0
1513265602835432477,,552548,,1513265601,47917520,'',0.279252680319,0.259732582927,-0.0114820416652,-0.0195200973923,0.001,-120.587995317,-6000.0,0.0,-300.0,0.0
1513265602845243756,,552549,,1513265601,57917520,'',0.279252680319,0.259774155296,0.00542751384506,-0.0194785250227,0.001,-115.235755185,-6000.0,0.0,-300.0,0.0
1513265602855662822,,552550,,1513265601,67917520,'',0.279252680319,0.259788444108,-0.0126076270994,-0.0194642362108,0.001,-120.586089544,-6000.0,0.0,-300.0,0.0
1513265602865596971,,552551,,1513265601,77917520,'',0.279252680319,0.259804602148,0.00481355338705,-0.0194480781713,0.001,-115.243247037,-6000.0,0.0,-300.0,0.0
1513265602875379447,,552552,,1513265601,87917520,'',0.279252680319,0.259780851998,-0.0124569079508,-0.0194718283209,0.001,-120.589948866,-6000.0,0.0,-300.0,0.0
1513265602885437266,,552553,,1513265601,97917520,'',0.279252680319,0.25977984226,0.00531619775645,-0.0194728380593,0.001,-115.233246743,-6000.0,0.0,-300.0,0.0
1513265602895676491,,552554,,1513265601,107917520,'',0.279252680319,0.259730295546,0.00631789497356,-0.0195223847734,0.001,-115.233738379,-6000.0,0.0,-300.0,0.0
1513265602905616526,,552555,,1513265601,117917520,'',0.279252680319,0.259756353274,0.00578264801446,-0.0194963270454,0.001,-115.235681979,-6000.0,0.0,-300.0,0.0
1513265602915471033,,552556,,1513265601,127917520,'',0.279252680319,0.259808124369,0.00473585515308,-0.01944455595,0.001,-115.270867391,-6000.0,0.0,-300.0,0.0
1513265602925262737,,552557,,1513265601,137917520,'',0.279252680319,0.25985061606,0.00387668849476,-0.0194020642588,0.001,-115.243241092,-6000.0,0.0,-300.0,0.0
1513265602935229354,,552558,,1513265601,147917520,'',0.279252680319,0.259887033405,0.00314011823437,-0.0193656469139,0.001,-115.249980107,-6000.0,0.0,-300.0,0.0
1513265602945095091,,552559,,1513265601,157917520,'',0.279252680319,0.259835952795,0.00417021974797,-0.0194167275238,0.001,-115.277342699,-6000.0,0.0,-300.0,0.0
1513265602955610719,,552560,,1513265601,167917520,'',0.279252680319,0.259873388674,0.00341381571161,-0.0193792916447,0.001,-115.245717256,-6000.0,0.0,-300.0,0.0
1513265602965490967,,552561,,1513265601,177917520,'',0.279252680319,0.259888311123,0.00311319721369,-0.0193643691964,0.001,-115.24715646,-6000.0,0.0,-300.0,0.0
1513265602975478707,,552562,,1513265601,187917520,'',0.279252680319,0.259916250729,0.00254850620019,-0.0193364295897,0.001,-115.250587285,-6000.0,0.0,-300.0,0.0
1513265602985441392,,552563,,1513265601,197917520,'',0.279252680319,0.260006578588,0.018471816936,-0.0192461017315,0.001,-109.90804254,-6000.0,0.0,-300.0,0.0
1513265602995478809,,552564,,1513265601,207917520,'',0.279252680319,0.260157290211,0.0154247070327,-0.0190953901079,0.001,-109.916125653,-6000.0,0.0,-300.0,0.0
1513265603005374215,,552565,,1513265601,217917520,'',0.279252680319,0.260326195548,0.0120093999828,-0.0189264847714,0.001,-109.95088892,-6000.0,0.0,-300.0,0.0
1513265603015690179,,552566,,1513265601,227917520,'',0.279252680319,0.260531925114,0.0256107894802,-0.0187207552056,0.001,-104.760276678,-6000.0,0.0,-300.0,0.0
1513265603025501646,,552567,,1513265601,237917520,'',0.279252680319,0.260761805564,0.0209657455747,-0.0184908747551,0.001,-104.637857568,-6000.0,0.0,-300.0,0.0
1513265603035347346,,552568,,1513265601,247917520,'',0.279252680319,0.261095131208,0.0319777908561,-0.0181575491111,0.001,-99.1088126696,-6000.0,0.0,-300.0,0.0
1513265603045375318,,552569,,1513265601,257917520,'',0.279252680319,0.261511645576,0.0413110940957,-0.0177410347431,0.001,-94.0161006677,-6000.0,0.0,-300.0,0.0
1513265603055463016,,552570,,1513265601,267917520,'',0.279252680319,0.261995777417,0.0492753078225,-0.0172569029016,0.001,-89.0270541365,-6000.0,0.0,-300.0,0.0
1513265603065134516,,552571,,1513265601,277917520,'',0.279252680319,0.262505161303,0.0567339267091,-0.0167475190158,0.001,-83.7741896158,-6000.0,0.0,-300.0,0.0
1513265603075200861,,552572,,1513265601,287917520,'',0.279252680319,0.263050842625,0.0634544306975,-0.0162018376943,0.001,-78.1161773064,-6000.0,0.0,-300.0,0.0
1513265603085524009,,552573,,1513265601,297917520,'',0.279252680319,0.263605469122,0.0522537669675,-0.015647211197,0.001,-78.1599546099,-6000.0,0.0,-300.0,0.0
1513265603095536725,,552574,,1513265601,307917520,'',0.279252680319,0.264140651155,0.0591868627999,-0.0151120291644,0.001,-73.1994766843,-6000.0,0.0,-300.0,0.0
1513265603105346507,,552575,,1513265601,317917520,'',0.279252680319,0.264688632524,0.0481171102685,-0.014564047795,0.001,-72.8180645679,-6000.0,0.0,-300.0,0.0
1513265603115102386,,552576,,1513265601,327917520,'',0.279252680319,0.265234837267,0.0548273118655,-0.0140178430523,0.001,-67.5442355255,-6000.0,0.0,-300.0,0.0
1513265603125578061,,552577,,1513265601,337917520,'',0.279252680319,0.26571403657,0.0451429338159,-0.0135386437491,0.001,-67.6062987396,-6000.0,0.0,-300.0,0.0
1513265603135681935,,552578,,1513265601,347917520,'',0.279252680319,0.266150759627,0.0363181530264,-0.013101920692,0.001,-67.8898413124,-6000.0,0.0,-300.0,0.0
1513265603145601436,,552579,,1513265601,357917520,'',0.279252680319,0.266621432002,0.0445613502684,-0.0126312483174,0.001,-62.3637145872,-6000.0,0.0,-300.0,0.0
1513265603155553521,,552580,,1513265601,367917520,'',0.279252680319,0.267006625066,0.0367783106805,-0.0122460552533,0.001,-62.3963670916,-6000.0,0.0,-300.0,0.0
1513265603165474771,,552581,,1513265601,377917520,'',0.279252680319,0.267337002697,0.0301055099509,-0.0119156776217,0.001,-62.3960904825,-6000.0,0.0,-300.0,0.0
1513265603175557621,,552582,,1513265601,387917520,'',0.279252680319,0.267622343814,0.0243445968364,-0.0116303365052,0.001,-62.441524832,-6000.0,0.0,-300.0,0.0
1513265603185329632,,552583,,1513265601,397917520,'',0.279252680319,0.267920517319,0.0360706701958,-0.0113321630003,0.001,-57.0865380269,-6000.0,0.0,-300.0,0.0
1513265603195288499,,552584,,1513265601,407917520,'',0.279252680319,0.268244219622,0.0295314686008,-0.0110084606966,0.001,-57.1450085685,-6000.0,0.0,-300.0,0.0
1513265603205288338,,552585,,1513265601,417917520,'',0.279252680319,0.268508798867,0.0241866286053,-0.0107438814519,0.001,-57.3248625561,-6000.0,0.0,-300.0,0.0
1513265603215231183,,552586,,1513265601,427917520,'',0.279252680319,0.26872592721,0.0198003576645,-0.0105267531088,0.001,-57.1965107789,-6000.0,0.0,-300.0,0.0
1513265603225107251,,552587,,1513265601,437917520,'',0.279252680319,0.268920868457,0.0158631427949,-0.0103318118623,0.001,-57.2222039168,-6000.0,0.0,-300.0,0.0
1513265603235535108,,552588,,1513265601,447917520,'',0.279252680319,0.269078267514,0.0126873952451,-0.0101744128051,0.001,-57.2071349157,-6000.0,0.0,-300.0,0.0
1513265603245535183,,552589,,1513265601,457917520,'',0.279252680319,0.269207031009,0.010085332656,-0.0100456493103,0.001,-57.3072016504,-6000.0,0.0,-300.0,0.0
1513265603255466010,,552590,,1513265601,467917520,'',0.279252680319,0.269314352902,0.00792019967438,-0.00993832741665,0.001,-57.2441041794,-6000.0,0.0,-300.0,0.0
1513265603265488714,,552591,,1513265601,477917520,'',0.279252680319,0.269385393161,0.00648386300075,-0.00986728715851,0.001,-57.250540949,-6000.0,0.0,-300.0,0.0
1513265603275273198,,552592,,1513265601,487917520,'',0.279252680319,0.269491287787,0.0043406664415,-0.00976139253188,0.001,-57.2613897759,-6000.0,0.0,-300.0,0.0
1513265603285088649,,552593,,1513265601,497917520,'',0.279252680319,0.269567858175,0.0204544715225,-0.00968482214384,0.001,-52.0587751824,-6000.0,0.0,-300.0,0.0
1513265603295494541,,552594,,1513265601,507917520,'',0.279252680319,0.269687983385,0.000301686728136,-0.00956469693449,0.001,-57.2804930143,-6000.0,0.0,-300.0,0.0
1513265603305367684,,552595,,1513265601,517917520,'',0.279252680319,0.269787280017,0.0160514321471,-0.00946540030246,0.001,-51.925751904,-6000.0,0.0,-300.0,0.0
1513265603315169997,,552596,,1513265601,527917520,'',0.279252680319,0.26989954266,0.013792599453,-0.009353137659,0.001,-51.9423979972,-6000.0,0.0,-300.0,0.0
1513265603325134041,,552597,,1513265601,537917520,'',0.279252680319,0.269959024206,-0.00514126886918,-0.00929365611347,0.001,-57.268558603,-6000.0,0.0,-300.0,0.0
1513265603335280672,,552598,,1513265601,547917520,'',0.279252680319,0.270023736538,-0.00643571069588,-0.0092289437812,0.001,-57.2657344181,-6000.0,0.0,-300.0,0.0
1513265603345376150,,552599,,1513265601,557917520,'',0.279252680319,0.270092880939,0.00991935395605,-0.00915979938004,0.001,-51.9517141445,-6000.0,0.0,-300.0,0.0
1513265603355550372,,552600,,1513265601,567917520,'',0.279252680319,0.270148388274,-0.00895523830807,-0.00910429204481,0.001,-57.31450944,-6000.0,0.0,-300.0,0.0
1513265603365412093,,552601,,1513265601,577917520,'',0.279252680319,0.270210333399,0.00754519036676,-0.00904234692057,0.001,-51.9816587148,-6000.0,0.0,-300.0,0.0
1513265603375418836,,552602,,1513265601,587917520,'',0.279252680319,0.270247440324,0.00679851561061,-0.00900523999504,0.001,-52.0128532441,-6000.0,0.0,-300.0,0.0
1513265603385207527,,552603,,1513265601,597917520,'',0.279252680319,0.270293371723,0.00587323230824,-0.00895930859581,0.001,-51.9893072048,-6000.0,0.0,-300.0,0.0
1513265603395530186,,552604,,1513265601,607917520,'',0.279252680319,0.270312572201,-0.012260994916,-0.00894010811804,0.001,-57.3380910466,-6000.0,0.0,-300.0,0.0
1513265603405536961,,552605,,1513265601,617917520,'',0.279252680319,0.270332161742,0.0050939167292,-0.00892051857735,0.001,-51.9855960286,-6000.0,0.0,-300.0,0.0
1513265603415402783,,552606,,1513265601,627917520,'',0.279252680319,0.270363213705,0.00446244893419,-0.00888946661411,0.001,-52.0274968165,-6000.0,0.0,-300.0,0.0
1513265603425504385,,552607,,1513265601,637917520,'',0.279252680319,0.270418828179,0.00334435082457,-0.00883385214058,0.001,-51.9953842561,-6000.0,0.0,-300.0,0.0
1513265603435395955,,552608,,1513265601,647917520,'',0.279252680319,0.270466280683,0.0201336949125,-0.0087863996357,0.001,-46.6833905543,-6000.0,0.0,-300.0,0.0
1513265603445662271,,552609,,1513265601,657917520,'',0.279252680319,0.270503218747,0.0016389286923,-0.00874946157185,0.001,-51.9984816776,-6000.0,0.0,-300.0,0.0
1513265603455776687,,552610,,1513265601,667917520,'',0.279252680319,0.270518004396,0.00134116991867,-0.0087346759233,0.001,-51.9930038665,-6000.0,0.0,-300.0,0.0
1513265603465561424,,552611,,1513265601,677917520,'',0.279252680319,0.270546162207,0.000772619148876,-0.00870651811188,0.001,-52.0043127625,-6000.0,0.0,-300.0,0.0
1513265603475550859,,552612,,1513265601,687917520,'',0.279252680319,0.270553118924,0.000632793444246,-0.00869956139489,0.001,-52.0096592543,-6000.0,0.0,-300.0,0.0
1513265603485651721,,552613,,1513265601,697917520,'',0.279252680319,0.27057502133,0.000185131920918,-0.00867765898938,0.001,-52.0091247228,-6000.0,0.0,-300.0,0.0
1513265603495414082,,552614,,1513265601,707917520,'',0.279252680319,0.2706249445,-0.000820017691181,-0.00862773581935,0.001,-52.0121831805,-6000.0,0.0,-300.0,0.0
1513265603505545855,,552615,,1513265601,717917520,'',0.279252680319,0.270650680949,-0.00133673310531,-0.00860199936985,0.001,-52.012527391,-6000.0,0.0,-300.0,0.0
1513265603515614408,,552616,,1513265601,727917520,'',0.279252680319,0.270671049536,-0.00174364822531,-0.00858163078302,0.001,-52.0057052099,-6000.0,0.0,-300.0,0.0
1513265603525504043,,552617,,1513265601,737917520,'',0.279252680319,0.270701921843,-0.00237086600632,-0.00855075847632,0.001,-52.0026642723,-6000.0,0.0,-300.0,0.0
1513265603535334255,,552618,,1513265601,747917520,'',0.279252680319,0.270745397426,0.0145028842651,-0.00850728289326,0.001,-46.6806894255,-6000.0,0.0,-300.0,0.0
1513265603545491634,,552619,,1513265601,757917520,'',0.279252680319,0.270782156607,0.0137545432281,-0.00847052371219,0.001,-46.7630853054,-6000.0,0.0,-300.0,0.0
1513265603555250498,,552620,,1513265601,767917520,'',0.279252680319,0.270760885259,-0.00357034393371,-0.00849179506,0.001,-52.0244415306,-6000.0,0.0,-300.0,0.0
1513265603565616847,,552621,,1513265601,777917520,'',0.279252680319,0.270793293986,-0.00421881390557,-0.00845938633341,0.001,-52.0298148214,-6000.0,0.0,-300.0,0.0
1513265603575309860,,552622,,1513265601,787917520,'',0.279252680319,0.270817319253,-0.00470426597989,-0.00843536106615,0.001,-52.0152904431,-6000.0,0.0,-300.0,0.0
1513265603585269740,,552623,,1513265601,797917520,'',0.279252680319,0.270822643969,-0.00481938836935,-0.00843003634973,0.001,-52.0376812906,-6000.0,0.0,-300.0,0.0
1513265603595127611,,552624,,1513265601,807917520,'',0.279252680319,0.27084124213,-0.0051891875912,-0.00841143818909,0.001,-52.0332207874,-6000.0,0.0,-300.0,0.0
1513265603605375796,,552625,,1513265601,817917520,'',0.279252680319,0.270841074931,-0.00518308053829,-0.00841160538842,0.001,-52.0365738205,-6000.0,0.0,-300.0,0.0
1513265603615557936,,552626,,1513265601,827917520,'',0.279252680319,0.270874447168,0.0118908418071,-0.00837823315077,0.001,-46.7664667526,-6000.0,0.0,-300.0,0.0
1513265603625761691,,552627,,1513265601,837917520,'',0.279252680319,0.270885156522,-0.00607406983226,-0.00836752379686,0.001,-52.0304374681,-6000.0,0.0,-300.0,0.0
1513265603635312854,,552628,,1513265601,847917520,'',0.279252680319,0.270928729122,0.0107900285773,-0.00832395119734,0.001,-46.6889203053,-6000.0,0.0,-300.0,0.0
1513265603645331105,,552629,,1513265601,857917520,'',0.279252680319,0.270961012064,-0.0076126383611,-0.00829166825536,0.001,-52.0475191106,-6000.0,0.0,-300.0,0.0
1513265603655384373,,552630,,1513265601,867917520,'',0.279252680319,0.270923162898,-0.00685427163033,-0.00832951742144,0.001,-51.993693469,-6000.0,0.0,-300.0,0.0
1513265603665482609,,552631,,1513265601,877917520,'',0.279252680319,0.270959541822,0.0101661377393,-0.0082931384972,0.001,-46.694652153,-6000.0,0.0,-300.0,0.0
1513265603675658419,,552632,,1513265601,887917520,'',0.279252680319,0.271005025186,0.00924991559738,-0.0082476551326,0.001,-46.6958332896,-6000.0,0.0,-300.0,0.0
1513265603685566537,,552633,,1513265601,897917520,'',0.279252680319,0.27104039225,0.00853595341398,-0.0082122880689,0.001,-46.6780581354,-6000.0,0.0,-300.0,0.0
1513265603695417341,,552634,,1513265601,907917520,'',0.279252680319,0.271052483302,0.00828930913129,-0.00820019701746,0.001,-46.7726339657,-6000.0,0.0,-300.0,0.0
1513265603705554608,,552635,,1513265601,917917520,'',0.279252680319,0.271063706119,0.00806716450863,-0.00818897419991,0.001,-46.7011502134,-6000.0,0.0,-300.0,0.0
1513265603715335897,,552636,,1513265601,927917520,'',0.279252680319,0.271087992066,0.00757262939156,-0.00816468825292,0.001,-46.7033506987,-6000.0,0.0,-300.0,0.0
1513265603725442317,,552637,,1513265601,937917520,'',0.279252680319,0.271123670004,0.00685151433741,-0.00812901031533,0.001,-46.7065833821,-6000.0,0.0,-300.0,0.0
1513265603735375081,,552638,,1513265601,947917520,'',0.279252680319,0.27113768101,0.00657382249572,-0.00811499930951,0.001,-46.7073778802,-6000.0,0.0,-300.0,0.0
1513265603745751881,,552639,,1513265601,957917520,'',0.279252680319,0.271150450555,0.00631286894304,-0.0081022297645,0.001,-46.7012514098,-6000.0,0.0,-300.0,0.0
1513265603755706195,,552640,,1513265601,967917520,'',0.279252680319,0.271159269181,-0.0116165001394,-0.00809341113802,0.001,-52.0647318792,-6000.0,0.0,-300.0,0.0
1513265603765471817,,552641,,1513265601,977917520,'',0.279252680319,0.271197987028,0.00535168607562,-0.00805469329128,0.001,-46.7048030209,-6000.0,0.0,-300.0,0.0
1513265603775547401,,552642,,1513265601,987917520,'',0.279252680319,0.27121334799,-0.0127024366516,-0.00803933232868,0.001,-52.0920527816,-6000.0,0.0,-300.0,0.0
1513265603785622379,,552643,,1513265601,997917520,'',0.279252680319,0.271226557663,0.00477284603626,-0.00802612265652,0.001,-46.7172868699,-6000.0,0.0,-300.0,0.0
1513265603795657079,,552644,,1513265602,7917520,'',0.279252680319,0.271223022374,0.00485068842231,-0.00802965794554,0.001,-46.7155854371,-6000.0,0.0,-300.0,0.0
1513265603805791078,,552645,,1513265602,17917520,'',0.279252680319,0.271203921026,0.00522834467423,-0.00804875929338,0.001,-46.6949364559,-6000.0,0.0,-300.0,0.0
1513265603815731466,,552646,,1513265602,27917520,'',0.279252680319,0.271218144676,0.00493547028596,-0.00803453564343,0.001,-46.7451724982,-6000.0,0.0,-300.0,0.0
1513265603825419414,,552647,,1513265602,37917520,'',0.279252680319,0.271247382782,0.00434420573872,-0.00800529753716,0.001,-46.7177926692,-6000.0,0.0,-300.0,0.0
1513265603835489682,,552648,,1513265602,47917520,'',0.279252680319,0.271205499716,-0.0125530885979,-0.0080471806033,0.001,-52.019420602,-6000.0,0.0,-300.0,0.0
1513265603845444158,,552649,,1513265602,57917520,'',0.279252680319,0.271221285983,0.00487389238449,-0.00803139433657,0.001,-46.7464833897,-6000.0,0.0,-300.0,0.0
1513265603855170534,,552650,,1513265602,67917520,'',0.279252680319,0.271249567154,0.00430281432897,-0.00800311316495,0.001,-46.7466604329,-6000.0,0.0,-300.0,0.0
1513265603865408077,,552651,,1513265602,77917520,'',0.279252680319,0.271225843893,0.00477958395195,-0.00802683642577,0.001,-46.7199968383,-6000.0,0.0,-300.0,0.0
1513265603875647196,,552652,,1513265602,87917520,'',0.279252680319,0.271202698363,-0.0125026053558,-0.00804998195568,0.001,-52.0653751921,-6000.0,0.0,-300.0,0.0
1513265603885726697,,552653,,1513265602,97917520,'',0.279252680319,0.271235251917,0.0045901535182,-0.00801742840256,0.001,-46.7250078018,-6000.0,0.0,-300.0,0.0
1513265603895502978,,552654,,1513265602,107917520,'',0.279252680319,0.271276588252,0.00375749134342,-0.00797609206756,0.001,-46.7226169246,-6000.0,0.0,-300.0,0.0
1513265603905495044,,552655,,1513265602,117917520,'',0.279252680319,0.271295871629,0.00337316574137,-0.00795680869021,0.001,-46.6987458809,-6000.0,0.0,-300.0,0.0
1513265603915645089,,552656,,1513265602,127917520,'',0.279252680319,0.271281135534,0.00367389418509,-0.00797154478525,0.001,-46.7219133918,-6000.0,0.0,-300.0,0.0
1513265603925526439,,552657,,1513265602,137917520,'',0.279252680319,0.271267342461,0.00395632217071,-0.00798533785826,0.001,-46.7218871438,-6000.0,0.0,-300.0,0.0
1513265603935675929,,552658,,1513265602,147917520,'',0.279252680319,0.271270866152,0.00387510357205,-0.00798181416745,0.001,-46.7468528362,-6000.0,0.0,-300.0,0.0
1513265603945588528,,552659,,1513265602,157917520,'',0.279252680319,0.271305741249,0.00317216788064,-0.00794693906976,0.001,-46.7414535093,-6000.0,0.0,-300.0,0.0
1513265603955494877,,552660,,1513265602,167917520,'',0.279252680319,0.27133427779,0.0025969909115,-0.00791840252903,0.001,-46.7279226195,-6000.0,0.0,-300.0,0.0
1513265603965348540,,552661,,1513265602,177917520,'',0.279252680319,0.271357642102,0.0021260643859,-0.00789503821735,0.001,-46.7283987917,-6000.0,0.0,-300.0,0.0
1513265603975410347,,552662,,1513265602,187917520,'',0.279252680319,0.271376771282,0.00174050033784,-0.00787590903668,0.001,-46.7305244858,-6000.0,0.0,-300.0,0.0
1513265603985449278,,552663,,1513265602,197917520,'',0.279252680319,0.271375236335,0.00177183789111,-0.00787744398375,0.001,-46.7283509119,-6000.0,0.0,-300.0,0.0
1513265603995132416,,552664,,1513265602,207917520,'',0.279252680319,0.271391131542,0.00145138494802,-0.00786154877704,0.001,-46.7404822595,-6000.0,0.0,-300.0,0.0
1513265604005615097,,552665,,1513265602,217917520,'',0.279252680319,0.271404188782,0.00118814640895,-0.00784849153701,0.001,-46.7315703476,-6000.0,0.0,-300.0,0.0
1513265604015636010,,552666,,1513265602,227917520,'',0.279252680319,0.271380909516,-0.0160931628691,-0.00787177080286,0.001,-52.0759713165,-6000.0,0.0,-300.0,0.0
1513265604025640216,,552667,,1513265602,237917520,'',0.279252680319,0.271363609747,-0.0157429132721,-0.00788907057198,0.001,-52.0642722129,-6000.0,0.0,-300.0,0.0
1513265604035411805,,552668,,1513265602,247917520,'',0.279252680319,0.271381620942,0.00164310186699,-0.00787105937674,0.001,-46.7399460618,-6000.0,0.0,-300.0,0.0
1513265604045425184,,552669,,1513265602,257917520,'',0.279252680319,0.271380906345,0.00165484550372,-0.00787177397432,0.001,-46.7303708828,-6000.0,0.0,-300.0,0.0
1513265604055269741,,552670,,1513265602,267917520,'',0.279252680319,0.271380954236,0.00165817149096,-0.00787172608319,0.001,-46.732413641,-6000.0,0.0,-300.0,0.0
1513265604065229353,,552671,,1513265602,277917520,'',0.279252680319,0.271378738801,0.00170342559735,-0.00787394151804,0.001,-46.72969449,-6000.0,0.0,-300.0,0.0
1513265604075792865,,552672,,1513265602,287917520,'',0.279252680319,0.271394016045,0.001395032957,-0.00785866427433,0.001,-46.7394489567,-6000.0,0.0,-300.0,0.0
1513265604085536017,,552673,,1513265602,297917520,'',0.279252680319,0.271422703494,0.000815714299802,-0.00782997682465,0.001,-46.7341499678,-6000.0,0.0,-300.0,0.0
1513265604095425963,,552674,,1513265602,307917520,'',0.279252680319,0.271430037035,0.000667716774245,-0.00782264328375,0.001,-46.7333283126,-6000.0,0.0,-300.0,0.0
1513265604105401099,,552675,,1513265602,317917520,'',0.279252680319,0.271436034605,0.000546680363321,-0.00781664571408,0.001,-46.734885911,-6000.0,0.0,-300.0,0.0
1513265604115518366,,552676,,1513265602,327917520,'',0.279252680319,0.271440939289,0.000447699376453,-0.00781174102994,0.001,-46.7380172516,-6000.0,0.0,-300.0,0.0
1513265604125367399,,552677,,1513265602,337917520,'',0.279252680319,0.271444962089,0.000366515606833,-0.00780771822961,0.001,-46.735668299,-6000.0,0.0,-300.0,0.0
1513265604135378635,,552678,,1513265602,347917520,'',0.279252680319,0.271430758975,-0.0170948327186,-0.00782192134447,0.001,-52.0900771056,-6000.0,0.0,-300.0,0.0
1513265604145379717,,552679,,1513265602,357917520,'',0.279252680319,0.271419497728,-0.0168632655689,-0.00783318259092,0.001,-51.9769045613,-6000.0,0.0,-300.0,0.0
1513265604155477459,,552680,,1513265602,367917520,'',0.279252680319,0.271427428563,0.000725093277551,-0.0078252517556,0.001,-46.7291035097,-6000.0,0.0,-300.0,0.0
1513265604165440268,,552681,,1513265602,377917520,'',0.279252680319,0.271448727233,0.000293307858343,-0.00780395308593,0.001,-46.7356787336,-6000.0,0.0,-300.0,0.0
1513265604175187568,,552682,,1513265602,387917520,'',0.279252680319,0.271468370384,-9.78661868268e-05,-0.00778430993546,0.001,-46.7380072311,-6000.0,0.0,-300.0,0.0
1513265604185337510,,552683,,1513265602,397917520,'',0.279252680319,0.271482915157,-0.000390008700649,-0.00776976516186,0.001,-46.7389025432,-6000.0,0.0,-300.0,0.0
