rosbagTimestamp,header,seq,stamp,secs,nsecs,frame_id,set_point,process_value,process_value_dot,error,time_step,command,p,i,d,i_clamp
1513264917270932960,,483998,,1513264915,496820663,'',0.366519142919,0.349016608911,-0.00491565862884,-0.0175025340075,0.001,-106.457282591,-6000.0,0.0,-300.0,0.0
1513264917280928833,,483999,,1513264915,506820663,'',0.366519142919,0.348988925707,-0.00435764199824,-0.0175302172118,0.001,-106.435567373,-6000.0,0.0,-300.0,0.0
1513264917290935300,,484000,,1513264915,516820663,'',0.366519142919,0.348982690609,-0.00423178429922,-0.0175364523097,0.001,-106.499775249,-6000.0,0.0,-300.0,0.0
1513264917300879375,,484001,,1513264915,526820663,'',0.366519142919,0.348976109509,-0.00410004093754,-0.0175430334099,0.001,-106.486604293,-6000.0,0.0,-300.0,0.0
1513264917310881231,,484002,,1513264915,536820663,'',0.366519142919,0.348972064272,-0.00401303889107,-0.0175470786466,0.001,-106.464335709,-6000.0,0.0,-300.0,0.0
1513264917320903338,,484003,,1513264915,546820663,'',0.366519142919,0.348953443418,0.0141099904939,-0.017565699501,0.001,-101.138341853,-6000.0,0.0,-300.0,0.0
1513264917330880484,,484004,,1513264915,556820663,'',0.366519142919,0.348936866109,-0.00330078069925,-0.0175822768101,0.001,-106.490687947,-6000.0,0.0,-300.0,0.0
1513264917340661736,,484005,,1513264915,566820663,'',0.366519142919,0.348922656409,-0.00301286185159,-0.01759648651,0.001,-106.472013701,-6000.0,0.0,-300.0,0.0
1513264917350579213,,484006,,1513264915,576820663,'',0.366519142919,0.348895520195,-0.00246652318033,-0.0176236227239,0.001,-106.487898322,-6000.0,0.0,-300.0,0.0
1513264917361165957,,484007,,1513264915,586820663,'',0.366519142919,0.348902982792,-0.00261838823002,-0.0176161601265,0.001,-106.510965669,-6000.0,0.0,-300.0,0.0
1513264917370820253,,484008,,1513264915,596820663,'',0.366519142919,0.3489247929,-0.00306367706978,-0.0175943500184,0.001,-106.472831191,-6000.0,0.0,-300.0,0.0
1513264917380671413,,484009,,1513264915,606820663,'',0.366519142919,0.348897264525,-0.00250802812237,-0.017621878394,0.001,-106.488781803,-6000.0,0.0,-300.0,0.0
1513264917391073010,,484010,,1513264915,616820663,'',0.366519142919,0.348955750255,0.0140606538151,-0.0175633926636,0.001,-101.141610963,-6000.0,0.0,-300.0,0.0
1513264917401160103,,484011,,1513264915,626820663,'',0.366519142919,0.348969696022,-0.00396054762073,-0.0175494468964,0.001,-106.499499652,-6000.0,0.0,-300.0,0.0
1513264917411033360,,484012,,1513264915,636820663,'',0.366519142919,0.348934039841,-0.00324256091674,-0.0175851030782,0.001,-106.489508266,-6000.0,0.0,-300.0,0.0
1513264917421254786,,484013,,1513264915,646820663,'',0.366519142919,0.348904826207,-0.00265430385709,-0.0176143167121,0.001,-106.489703491,-6000.0,0.0,-300.0,0.0
1513264917430614515,,484014,,1513264915,656820663,'',0.366519142919,0.348929730549,0.0145911446116,-0.0175894123698,0.001,-101.232958092,-6000.0,0.0,-300.0,0.0
1513264917441118758,,484015,,1513264915,666820663,'',0.366519142919,0.348918102646,-0.00292053313452,-0.0176010402731,0.001,-106.490791549,-6000.0,0.0,-300.0,0.0
1513264917451080119,,484016,,1513264915,676820663,'',0.366519142919,0.348906972699,-0.00269466329633,-0.0176121702202,0.001,-106.484830165,-6000.0,0.0,-300.0,0.0
1513264917461052395,,484017,,1513264915,686820663,'',0.366519142919,0.348928657543,-0.003128871452,-0.0175904853758,0.001,-106.472048927,-6000.0,0.0,-300.0,0.0
1513264917470881234,,484018,,1513264915,696820663,'',0.366519142919,0.348916871107,-0.00289693832104,-0.0176022718122,0.001,-106.489832872,-6000.0,0.0,-300.0,0.0
1513264917480913815,,484019,,1513264915,706820663,'',0.366519142919,0.348890175814,-0.00235586755589,-0.0176289671052,0.001,-106.486046029,-6000.0,0.0,-300.0,0.0
1513264917490844673,,484020,,1513264915,716820663,'',0.366519142919,0.348919124653,-0.00293845543035,-0.0176000182657,0.001,-106.450814005,-6000.0,0.0,-300.0,0.0
1513264917500616230,,484021,,1513264915,726820663,'',0.366519142919,0.348940374605,-0.00337815153333,-0.0175787683137,0.001,-106.489031212,-6000.0,0.0,-300.0,0.0
1513264917510637135,,484022,,1513264915,736820663,'',0.366519142919,0.348972214754,-0.00402674837057,-0.0175469281647,0.001,-106.496010425,-6000.0,0.0,-300.0,0.0
1513264917520718473,,484023,,1513264915,746820663,'',0.366519142919,0.348937405178,-0.00331602421262,-0.0175817377408,0.001,-106.470582792,-6000.0,0.0,-300.0,0.0
1513264917531006771,,484024,,1513264915,756820663,'',0.366519142919,0.348939654224,-0.00335568203873,-0.0175794886952,0.001,-106.492140416,-6000.0,0.0,-300.0,0.0
1513264917540905985,,484025,,1513264915,766820663,'',0.366519142919,0.348941700406,0.0143519793054,-0.0175774425125,0.001,-101.162073216,-6000.0,0.0,-300.0,0.0
1513264917550871579,,484026,,1513264915,776820663,'',0.366519142919,0.348943132123,-0.00342864937327,-0.0175760107962,0.001,-106.489977638,-6000.0,0.0,-300.0,0.0
1513264917561299997,,484027,,1513264915,786820663,'',0.366519142919,0.34892903627,-0.00314259037755,-0.0175901066488,0.001,-106.489113329,-6000.0,0.0,-300.0,0.0
1513264917570780069,,484028,,1513264915,796820663,'',0.366519142919,0.348933649011,-0.0032342142656,-0.0175854939081,0.001,-106.491587535,-6000.0,0.0,-300.0,0.0
1513264917580785983,,484029,,1513264915,806820663,'',0.366519142919,0.348904564606,-0.00264864573813,-0.0176145783125,0.001,-106.490253931,-6000.0,0.0,-300.0,0.0
1513264917590590075,,484030,,1513264915,816820663,'',0.366519142919,0.348925676071,-0.00307372635145,-0.0175934668479,0.001,-106.489739377,-6000.0,0.0,-300.0,0.0
1513264917601131021,,484031,,1513264915,826820663,'',0.366519142919,0.348927876021,-0.00312258122476,-0.0175912668977,0.001,-106.470943056,-6000.0,0.0,-300.0,0.0
1513264917611060928,,484032,,1513264915,836820663,'',0.366519142919,0.348931378929,-0.00319915212889,-0.0175877639897,0.001,-106.495077064,-6000.0,0.0,-300.0,0.0
1513264917620987399,,484033,,1513264915,846820663,'',0.366519142919,0.348902656067,-0.0026189325194,-0.0176164868515,0.001,-106.488544885,-6000.0,0.0,-300.0,0.0
1513264917630889408,,484034,,1513264915,856820663,'',0.366519142919,0.348911760969,-0.00280328753747,-0.0176073819494,0.001,-106.473374214,-6000.0,0.0,-300.0,0.0
1513264917640891430,,484035,,1513264915,866820663,'',0.366519142919,0.348886598318,-0.00229490834726,-0.0176325446004,0.001,-106.487089935,-6000.0,0.0,-300.0,0.0
1513264917650848160,,484036,,1513264915,876820663,'',0.366519142919,0.348913396026,-0.00283755919648,-0.0176057468929,0.001,-106.487059261,-6000.0,0.0,-300.0,0.0
1513264917660816457,,484037,,1513264915,886820663,'',0.366519142919,0.348920629125,-0.00297623160159,-0.0175985137942,0.001,-106.470355572,-6000.0,0.0,-300.0,0.0
1513264917670875685,,484038,,1513264915,896820663,'',0.366519142919,0.348893851309,-0.00243634940754,-0.0176252916094,0.001,-106.487041618,-6000.0,0.0,-300.0,0.0
1513264917680750428,,484039,,1513264915,906820663,'',0.366519142919,0.348935929204,-0.00328976051135,-0.017583213715,0.001,-106.489657396,-6000.0,0.0,-300.0,0.0
1513264917691029030,,484040,,1513264915,916820663,'',0.366519142919,0.348921636587,-0.00300119332134,-0.0175975063322,0.001,-106.492217059,-6000.0,0.0,-300.0,0.0
1513264917701025680,,484041,,1513264915,926820663,'',0.366519142919,0.348925782652,-0.00309044064238,-0.0175933602666,0.001,-106.491532252,-6000.0,0.0,-300.0,0.0
1513264917711008817,,484042,,1513264915,936820663,'',0.366519142919,0.348960210416,-0.00377733209217,-0.0175589325028,0.001,-106.501957193,-6000.0,0.0,-300.0,0.0
1513264917720950540,,484043,,1513264915,946820663,'',0.366519142919,0.348943828527,0.0143009849045,-0.017575314392,0.001,-101.141546299,-6000.0,0.0,-300.0,0.0
1513264917730876954,,484044,,1513264915,956820663,'',0.366519142919,0.348975467304,-0.00408212998277,-0.0175436756148,0.001,-106.498983704,-6000.0,0.0,-300.0,0.0
1513264917740868010,,484045,,1513264915,966820663,'',0.366519142919,0.34898754114,-0.00432494339226,-0.0175316017793,0.001,-106.471191286,-6000.0,0.0,-300.0,0.0
1513264917750886496,,484046,,1513264915,976820663,'',0.366519142919,0.348948624787,-0.00354039081541,-0.0175705181316,0.001,-106.496042243,-6000.0,0.0,-300.0,0.0
1513264917760785334,,484047,,1513264915,986820663,'',0.366519142919,0.348933787192,-0.00324722389297,-0.0175853557266,0.001,-106.519063627,-6000.0,0.0,-300.0,0.0
1513264917770816792,,484048,,1513264915,996820663,'',0.366519142919,0.348920551581,-0.0029767570461,-0.0175985913374,0.001,-106.471219967,-6000.0,0.0,-300.0,0.0
1513264917780839837,,484049,,1513264916,6820663,'',0.366519142919,0.348926708921,-0.00310165248004,-0.0175924339979,0.001,-106.493640656,-6000.0,0.0,-300.0,0.0
1513264917790877058,,484050,,1513264916,16820663,'',0.366519142919,0.348962466043,-0.00382409050723,-0.0175566768756,0.001,-106.492858033,-6000.0,0.0,-300.0,0.0
1513264917800690456,,484051,,1513264916,26820663,'',0.366519142919,0.34899036815,0.0133603395737,-0.0175287747689,0.001,-101.221984029,-6000.0,0.0,-300.0,0.0
1513264917810672564,,484052,,1513264916,36820663,'',0.366519142919,0.348965610718,-0.00388754393373,-0.0175535322011,0.001,-106.493124605,-6000.0,0.0,-300.0,0.0
1513264917821058277,,484053,,1513264916,46820663,'',0.366519142919,0.34896394646,-0.00385104917587,-0.0175551964589,0.001,-106.496327744,-6000.0,0.0,-300.0,0.0
1513264917830986152,,484054,,1513264916,56820663,'',0.366519142919,0.348963735529,-0.00384023731926,-0.0175554073898,0.001,-106.443993261,-6000.0,0.0,-300.0,0.0
1513264917840890178,,484055,,1513264916,66820663,'',0.366519142919,0.348974734002,-0.00406050811299,-0.017544408917,0.001,-106.495075675,-6000.0,0.0,-300.0,0.0
1513264917850845103,,484056,,1513264916,76820663,'',0.366519142919,0.349017202922,-0.00491623105174,-0.0175019399972,0.001,-106.458659873,-6000.0,0.0,-300.0,0.0
1513264917860993838,,484057,,1513264916,86820663,'',0.366519142919,0.349004117326,-0.00465540709233,-0.0175150255932,0.001,-106.449855691,-6000.0,0.0,-300.0,0.0
1513264917870924893,,484058,,1513264916,96820663,'',0.366519142919,0.349011159466,0.0129388606883,-0.0175079834528,0.001,-101.33542307,-6000.0,0.0,-300.0,0.0
1513264917880848646,,484059,,1513264916,106820663,'',0.366519142919,0.349000680247,0.0131457924376,-0.0175184626716,0.001,-101.226477486,-6000.0,0.0,-300.0,0.0
1513264917890607310,,484060,,1513264916,116820663,'',0.366519142919,0.349006465353,-0.00472795629328,-0.0175126775659,0.001,-106.493861997,-6000.0,0.0,-300.0,0.0
1513264917900707429,,484061,,1513264916,126820663,'',0.366519142919,0.349041956917,-0.00545138507814,-0.0174771860018,0.001,-106.553784081,-6000.0,0.0,-300.0,0.0
1513264917910768206,,484062,,1513264916,136820663,'',0.366519142919,0.349009925617,-0.00481138032246,-0.0175092173017,0.001,-106.559149088,-6000.0,0.0,-300.0,0.0
1513264917920863261,,484063,,1513264916,146820663,'',0.366519142919,0.349013638628,-0.00489238281085,-0.017505504291,0.001,-106.464892226,-6000.0,0.0,-300.0,0.0
1513264917930823810,,484064,,1513264916,156820663,'',0.366519142919,0.34903421442,-0.00528825194739,-0.0174849284983,0.001,-106.444823077,-6000.0,0.0,-300.0,0.0
1513264917941158037,,484065,,1513264916,166820663,'',0.366519142919,0.349049083286,-0.00559927619881,-0.017470059633,0.001,-106.492142166,-6000.0,0.0,-300.0,0.0
1513264917951157553,,484066,,1513264916,176820663,'',0.366519142919,0.349014469701,-0.00490359588829,-0.0175046732175,0.001,-106.469078374,-6000.0,0.0,-300.0,0.0
1513264917961289502,,484067,,1513264916,186820663,'',0.366519142919,0.349017574126,-0.00495179357613,-0.0175015687926,0.001,-106.50502578,-6000.0,0.0,-300.0,0.0
1513264917970843491,,484068,,1513264916,196820663,'',0.366519142919,0.349039063831,-0.00538713880522,-0.0174800790879,0.001,-106.504399385,-6000.0,0.0,-300.0,0.0
1513264917980635211,,484069,,1513264916,206820663,'',0.366519142919,0.34902314368,-0.00506218417782,-0.0174959992393,0.001,-106.50749421,-6000.0,0.0,-300.0,0.0
1513264917990623466,,484070,,1513264916,216820663,'',0.366519142919,0.348995357257,0.0132489653036,-0.0175237856617,0.001,-101.146215181,-6000.0,0.0,-300.0,0.0
1513264918001059280,,484071,,1513264916,226820663,'',0.366519142919,0.349004928606,0.0130666417024,-0.0175142143126,0.001,-101.043242525,-6000.0,0.0,-300.0,0.0
1513264918011079081,,484072,,1513264916,236820663,'',0.366519142919,0.348963018436,-0.00383216809971,-0.0175561244831,0.001,-106.475436175,-6000.0,0.0,-300.0,0.0
1513264918021078989,,484073,,1513264916,246820663,'',0.366519142919,0.348928572798,-0.00313745463921,-0.0175905701206,0.001,-106.487033397,-6000.0,0.0,-300.0,0.0
1513264918031024118,,484074,,1513264916,256820663,'',0.366519142919,0.348915179779,-0.00286511722345,-0.0176039631396,0.001,-106.491547206,-6000.0,0.0,-300.0,0.0
1513264918040928049,,484075,,1513264916,266820663,'',0.366519142919,0.348920088625,-0.00296920782273,-0.0175990542935,0.001,-106.491197762,-6000.0,0.0,-300.0,0.0
1513264918050929946,,484076,,1513264916,276820663,'',0.366519142919,0.348909838553,-0.00276307075307,-0.0176093043655,0.001,-106.491592244,-6000.0,0.0,-300.0,0.0
1513264918060808146,,484077,,1513264916,286820663,'',0.366519142919,0.348915450593,-0.00287624285576,-0.0176036923255,0.001,-106.471412817,-6000.0,0.0,-300.0,0.0
1513264918070819453,,484078,,1513264916,296820663,'',0.366519142919,0.348955529647,0.0140690592092,-0.0175636132714,0.001,-101.146669876,-6000.0,0.0,-300.0,0.0
1513264918080618331,,484079,,1513264916,306820663,'',0.366519142919,0.348986458085,0.0134460117526,-0.017532684834,0.001,-101.144438138,-6000.0,0.0,-300.0,0.0
1513264918090621543,,484080,,1513264916,316820663,'',0.366519142919,0.348980492293,0.0135609619746,-0.0175386506261,0.001,-101.227122907,-6000.0,0.0,-300.0,0.0
1513264918101034502,,484081,,1513264916,326820663,'',0.366519142919,0.348959661389,-0.00376739122299,-0.0175594815301,0.001,-106.492620285,-6000.0,0.0,-300.0,0.0
1513264918111025849,,484082,,1513264916,336820663,'',0.366519142919,0.348974632798,0.0136768251891,-0.0175445101208,0.001,-101.144337393,-6000.0,0.0,-300.0,0.0
1513264918120987938,,484083,,1513264916,346820663,'',0.366519142919,0.348955251025,-0.00367744815144,-0.0175638918942,0.001,-106.471237516,-6000.0,0.0,-300.0,0.0
1513264918130913209,,484084,,1513264916,356820663,'',0.366519142919,0.348937337116,-0.00331755851528,-0.0175818058027,0.001,-106.489768524,-6000.0,0.0,-300.0,0.0
1513264918140923090,,484085,,1513264916,366820663,'',0.366519142919,0.348923729156,-0.00303891126825,-0.0175954137624,0.001,-106.492434149,-6000.0,0.0,-300.0,0.0
1513264918150817228,,484086,,1513264916,376820663,'',0.366519142919,0.348944535526,-0.0034615155781,-0.0175746073928,0.001,-106.493340884,-6000.0,0.0,-300.0,0.0
1513264918160709712,,484087,,1513264916,386820663,'',0.366519142919,0.348964146053,0.0138859048028,-0.0175549968659,0.001,-101.139374075,-6000.0,0.0,-300.0,0.0
1513264918170593107,,484088,,1513264916,396820663,'',0.366519142919,0.348962152694,-0.00381974641123,-0.0175569902251,0.001,-106.468543395,-6000.0,0.0,-300.0,0.0
1513264918181169304,,484089,,1513264916,406820663,'',0.366519142919,0.348960082925,-0.00377838688375,-0.0175590599942,0.001,-106.495113412,-6000.0,0.0,-300.0,0.0
1513264918190971110,,484090,,1513264916,416820663,'',0.366519142919,0.34900554388,-0.00469727507569,-0.0175135990392,0.001,-106.495152162,-6000.0,0.0,-300.0,0.0
1513264918201082987,,484091,,1513264916,426820663,'',0.366519142919,0.348995249401,-0.00448181947992,-0.0175238935177,0.001,-106.471314081,-6000.0,0.0,-300.0,0.0
1513264918210983079,,484092,,1513264916,436820663,'',0.366519142919,0.348987212737,-0.00432408281757,-0.017531930182,0.001,-106.497456914,-6000.0,0.0,-300.0,0.0
1513264918220924192,,484093,,1513264916,446820663,'',0.366519142919,0.348964500876,-0.00386894409081,-0.0175546420427,0.001,-106.485764338,-6000.0,0.0,-300.0,0.0
1513264918230845680,,484094,,1513264916,456820663,'',0.366519142919,0.348945994388,-0.00349469384839,-0.017573148531,0.001,-106.471267571,-6000.0,0.0,-300.0,0.0
1513264918240717618,,484095,,1513264916,466820663,'',0.366519142919,0.348963793061,-0.00384990909916,-0.0175553498574,0.001,-106.492970523,-6000.0,0.0,-300.0,0.0
1513264918250689930,,484096,,1513264916,476820663,'',0.366519142919,0.348962791589,0.0139208203985,-0.0175563513301,0.001,-101.143264492,-6000.0,0.0,-300.0,0.0
1513264918261010389,,484097,,1513264916,486820663,'',0.366519142919,0.348943570154,-0.00344094734514,-0.0175755727652,0.001,-106.493496726,-6000.0,0.0,-300.0,0.0
1513264918270917324,,484098,,1513264916,496820663,'',0.366519142919,0.348928836798,-0.00314386371785,-0.0175903061211,0.001,-106.470906732,-6000.0,0.0,-300.0,0.0
1513264918280950448,,484099,,1513264916,506820663,'',0.366519142919,0.348932742018,-0.00322500029686,-0.0175864009005,0.001,-106.46982694,-6000.0,0.0,-300.0,0.0
1513264918290896105,,484100,,1513264916,516820663,'',0.366519142919,0.348919318491,-0.00295071119902,-0.0175998244273,0.001,-106.48920045,-6000.0,0.0,-300.0,0.0
1513264918300933246,,484101,,1513264916,526820663,'',0.366519142919,0.348892768714,-0.00241526255796,-0.0176263742047,0.001,-106.491319884,-6000.0,0.0,-300.0,0.0
1513264918310826848,,484102,,1513264916,536820663,'',0.366519142919,0.348917967103,-0.00291579998242,-0.0176011758154,0.001,-106.468779941,-6000.0,0.0,-300.0,0.0
1513264918320822211,,484103,,1513264916,546820663,'',0.366519142919,0.348908439756,-0.00272921080687,-0.0176107031628,0.001,-106.488278268,-6000.0,0.0,-300.0,0.0
1513264918330824337,,484104,,1513264916,556820663,'',0.366519142919,0.348930502289,-0.00317747354051,-0.0175886406296,0.001,-106.492217314,-6000.0,0.0,-300.0,0.0
1513264918340810898,,484105,,1513264916,566820663,'',0.366519142919,0.348947552247,-0.00352171367459,-0.0175715906716,0.001,-106.471217766,-6000.0,0.0,-300.0,0.0
1513264918350590945,,484106,,1513264916,576820663,'',0.366519142919,0.348915896084,-0.00288299214754,-0.0176032468344,0.001,-106.490578736,-6000.0,0.0,-300.0,0.0
1513264918361165117,,484107,,1513264916,586820663,'',0.366519142919,0.348906728314,-0.00269928909196,-0.0176124146047,0.001,-106.487157375,-6000.0,0.0,-300.0,0.0
1513264918370711770,,484108,,1513264916,596820663,'',0.366519142919,0.348897990153,-0.00252336368928,-0.0176211527661,0.001,-106.472072934,-6000.0,0.0,-300.0,0.0
1513264918380706379,,484109,,1513264916,606820663,'',0.366519142919,0.34888993856,-0.00236169290917,-0.0176292043586,0.001,-106.488928591,-6000.0,0.0,-300.0,0.0
1513264918390658389,,484110,,1513264916,616820663,'',0.366519142919,0.349013217342,0.0129002139102,-0.0175059255766,0.001,-101.156218138,-6000.0,0.0,-300.0,0.0
1513264918401083216,,484111,,1513264916,626820663,'',0.366519142919,0.349227898724,0.0263104713425,-0.017291244195,0.001,-95.9761714272,-6000.0,0.0,-300.0,0.0
1513264918411048554,,484112,,1513264916,636820663,'',0.366519142919,0.34957998633,0.0369377221807,-0.0169391565887,0.001,-90.4950597176,-6000.0,0.0,-300.0,0.0
1513264918420960794,,484113,,1513264916,646820663,'',0.366519142919,0.350154642548,0.0608262848507,-0.0163645003706,0.001,-79.82636484,-6000.0,0.0,-300.0,0.0
1513264918430931478,,484114,,1513264916,656820663,'',0.366519142919,0.350913830272,0.0809780224885,-0.0156053126464,0.001,-69.2624761859,-6000.0,0.0,-300.0,0.0
1513264918440899019,,484115,,1513264916,666820663,'',0.366519142919,0.351851900487,0.0975256177949,-0.0146672424313,0.001,-58.5075995712,-6000.0,0.0,-300.0,0.0
1513264918450963688,,484116,,1513264916,676820663,'',0.366519142919,0.352779249083,0.0965399972605,-0.0137398938362,0.001,-53.1511358864,-6000.0,0.0,-300.0,0.0
1513264918460945183,,484117,,1513264916,686820663,'',0.366519142919,0.353630844533,0.0793460088056,-0.0128882983859,0.001,-53.9884773906,-6000.0,0.0,-300.0,0.0
1513264918470943322,,484118,,1513264916,696820663,'',0.366519142919,0.354342621621,0.0649690873497,-0.0121765212983,0.001,-53.4694612642,-6000.0,0.0,-300.0,0.0
1513264918480976238,,484119,,1513264916,706820663,'',0.366519142919,0.355085095399,0.0677164095971,-0.0114340475198,0.001,-48.2102665573,-6000.0,0.0,-300.0,0.0
1513264918490953551,,484120,,1513264916,716820663,'',0.366519142919,0.355775260517,0.0715170118932,-0.0107438824018,0.001,-43.3364308104,-6000.0,0.0,-300.0,0.0
1513264918500828216,,484121,,1513264916,726820663,'',0.366519142919,0.356530879735,0.0739944478892,-0.00998826318402,0.001,-37.6630084335,-6000.0,0.0,-300.0,0.0
1513264918510799926,,484122,,1513264916,736820663,'',0.366519142919,0.357308441297,0.0760308367488,-0.00921070162158,0.001,-32.9825315008,-6000.0,0.0,-300.0,0.0
1513264918520829673,,484123,,1513264916,746820663,'',0.366519142919,0.358105961541,0.0776688702493,-0.00841318137801,0.001,-27.0839422771,-6000.0,0.0,-300.0,0.0
1513264918530791703,,484124,,1513264916,756820663,'',0.366519142919,0.358945847421,0.0784520719227,-0.00757329549759,0.001,-22.3082246805,-6000.0,0.0,-300.0,0.0
1513264918541023485,,484125,,1513264916,766820663,'',0.366519142919,0.359811587151,0.0787128493072,-0.00670755576742,0.001,-16.4633966431,-6000.0,0.0,-300.0,0.0
1513264918550971552,,484126,,1513264916,776820663,'',0.366519142919,0.360662816429,0.0792628133092,-0.00585632648964,0.001,-11.2638843032,-6000.0,0.0,-300.0,0.0
1513264918560974183,,484127,,1513264916,786820663,'',0.366519142919,0.361440241939,0.0635532851895,-0.00507890098019,0.001,-11.3297860348,-6000.0,0.0,-300.0,0.0
1513264918570876956,,484128,,1513264916,796820663,'',0.366519142919,0.362138503323,0.0671963631613,-0.00438063959551,0.001,-6.57243302421,-6000.0,0.0,-300.0,0.0
1513264918580848415,,484129,,1513264916,806820663,'',0.366519142919,0.36283909721,0.070796092865,-0.00368004570891,0.001,-0.757165534859,-6000.0,0.0,-300.0,0.0
1513264918590862128,,484130,,1513264916,816820663,'',0.366519142919,0.363491004688,0.0576281300335,-0.0030281382306,0.001,-0.862384189613,-6000.0,0.0,-300.0,0.0
1513264918600705292,,484131,,1513264916,826820663,'',0.366519142919,0.364107840675,0.0629148625117,-0.00241130224389,0.001,4.49906499767,-6000.0,0.0,-300.0,0.0
1513264918610834769,,484132,,1513264916,836820663,'',0.366519142919,0.36465697245,0.051824090371,-0.00186217046862,0.001,4.11992985607,-6000.0,0.0,-300.0,0.0
1513264918621168128,,484133,,1513264916,846820663,'',0.366519142919,0.365122215796,0.0424241178261,-0.00139692712318,0.001,4.41941403095,-6000.0,0.0,-300.0,0.0
1513264918631128599,,484134,,1513264916,856820663,'',0.366519142919,0.365631985118,0.0498710267311,-0.000887157801136,0.001,9.71169542105,-6000.0,0.0,-300.0,0.0
1513264918641032646,,484135,,1513264916,866820663,'',0.366519142919,0.366078762861,0.0408447770194,0.0,0.001,0.0,-6000.0,0.0,-300.0,0.0
1513264918650949328,,484136,,1513264916,876820663,'',0.366519142919,0.366462119919,0.0331028555914,0.0,0.001,0.0,-6000.0,0.0,-300.0,0.0
1513264918661089146,,484137,,1513264916,886820663,'',0.366519142919,0.366822875628,0.0258266851314,0.0,0.001,0.0,-6000.0,0.0,-300.0,0.0
1513264918670835304,,484138,,1513264916,896820663,'',0.366519142919,0.367199303783,0.0359635085766,0.0,0.001,0.0,-6000.0,0.0,-300.0,0.0
1513264918680999589,,484139,,1513264916,906820663,'',0.366519142919,0.367426610509,0.0136268055334,0.0,0.001,0.0,-6000.0,0.0,-300.0,0.0
1513264918690912445,,484140,,1513264916,916820663,'',0.366519142919,0.367661701898,0.0266250672214,0.0,0.001,0.0,-6000.0,0.0,-300.0,0.0
1513264918700871446,,484141,,1513264916,926820663,'',0.366519142919,0.367866732917,0.0224808943566,0.0,0.001,0.0,-6000.0,0.0,-300.0,0.0
1513264918710813317,,484142,,1513264916,936820663,'',0.366519142919,0.368098212343,0.0178003767114,0.0,0.001,0.0,-6000.0,0.0,-300.0,0.0
1513264918720736374,,484143,,1513264916,946820663,'',0.366519142919,0.368258346825,0.0145641317869,0.0,0.001,0.0,-6000.0,0.0,-300.0,0.0
1513264918730683647,,484144,,1513264916,956820663,'',0.366519142919,0.368388731866,0.0119291094991,0.0,0.001,0.0,-6000.0,0.0,-300.0,0.0
1513264918740612460,,484145,,1513264916,966820663,'',0.366519142919,0.368480961533,0.0100674856344,0.0,0.001,0.0,-6000.0,0.0,-300.0,0.0
1513264918751136424,,484146,,1513264916,976820663,'',0.366519142919,0.368571307147,0.00824122547779,0.0,0.001,0.0,-6000.0,0.0,-300.0,0.0
1513264918761021867,,484147,,1513264916,986820663,'',0.366519142919,0.36864524958,0.0067465417504,0.0,0.001,0.0,-6000.0,0.0,-300.0,0.0
1513264918771048151,,484148,,1513264916,996820663,'',0.366519142919,0.368705765685,0.00552325988695,0.0,0.001,0.0,-6000.0,0.0,-300.0,0.0
1513264918780687434,,484149,,1513264917,6820663,'',0.366519142919,0.368755891161,0.00451260432793,0.0,0.001,0.0,-6000.0,0.0,-300.0,0.0
1513264918790789344,,484150,,1513264917,16820663,'',0.366519142919,0.368829251966,0.00302525072055,0.0,0.001,0.0,-6000.0,0.0,-300.0,0.0
1513264918800653587,,484151,,1513264917,26820663,'',0.366519142919,0.368856407126,0.00247666550811,0.0,0.001,0.0,-6000.0,0.0,-300.0,0.0
1513264918811148036,,484152,,1513264917,36820663,'',0.366519142919,0.368878640008,0.00202751957192,0.0,0.001,0.0,-6000.0,0.0,-300.0,0.0
1513264918821110119,,484153,,1513264917,46820663,'',0.366519142919,0.368911397593,0.00136273475973,0.0,0.001,0.0,-6000.0,0.0,-300.0,0.0
1513264918830989772,,484154,,1513264917,56820663,'',0.366519142919,0.368923661325,0.0011155322023,0.0,0.001,0.0,-6000.0,0.0,-300.0,0.0
1513264918840965895,,484155,,1513264917,66820663,'',0.366519142919,0.368948361369,0.000617861234529,0.0,0.001,0.0,-6000.0,0.0,-300.0,0.0
1513264918850882359,,484156,,1513264917,76820663,'',0.366519142919,0.368953908201,0.000506014079383,0.0,0.001,0.0,-6000.0,0.0,-300.0,0.0
1513264918860703149,,484157,,1513264917,86820663,'',0.366519142919,0.368941994029,0.000746722081629,0.0,0.001,0.0,-6000.0,0.0,-300.0,0.0
1513264918870712516,,484158,,1513264917,96820663,'',0.366519142919,0.368948707367,0.000611268256208,0.0,0.001,0.0,-6000.0,0.0,-300.0,0.0
1513264918881088321,,484159,,1513264917,106820663,'',0.366519142919,0.368954190619,0.000500633679721,0.0,0.001,0.0,-6000.0,0.0,-300.0,0.0
1513264918891020893,,484160,,1513264917,116820663,'',0.366519142919,0.368958689972,0.000409851044194,0.0,0.001,0.0,-6000.0,0.0,-300.0,0.0
1513264918900952146,,484161,,1513264917,126820663,'',0.366519142919,0.36897703454,3.96135531303e-05,0.0,0.001,0.0,-6000.0,0.0,-300.0,0.0
1513264918911059462,,484162,,1513264917,136820663,'',0.366519142919,0.36897608916,5.59236215488e-05,0.0,0.001,0.0,-6000.0,0.0,-300.0,0.0
1513264918920945275,,484163,,1513264917,146820663,'',0.366519142919,0.368976616621,4.58001542941e-05,0.0,0.001,0.0,-6000.0,0.0,-300.0,0.0
1513264918930962865,,484164,,1513264917,156820663,'',0.366519142919,0.36897704942,3.74935322365e-05,0.0,0.001,0.0,-6000.0,0.0,-300.0,0.0
1513264918940923837,,484165,,1513264917,166820663,'',0.366519142919,0.368992222675,-0.000271892494231,0.0,0.001,0.0,-6000.0,0.0,-300.0,0.0
1513264918950889891,,484166,,1513264917,176820663,'',0.366519142919,0.368989829804,-0.000222677919657,0.0,0.001,0.0,-6000.0,0.0,-300.0,0.0
1513264918960834493,,484167,,1513264917,186820663,'',0.366519142919,0.368987865833,-0.00018228461029,0.0,0.001,0.0,-6000.0,0.0,-300.0,0.0
1513264918970671349,,484168,,1513264917,196820663,'',0.366519142919,0.368986258399,-0.00014922425519,0.0,0.001,0.0,-6000.0,0.0,-300.0,0.0
1513264918981077530,,484169,,1513264917,206820663,'',0.366519142919,0.369001737097,-0.000470555026956,0.0,0.001,0.0,-6000.0,0.0,-300.0,0.0
1513264918991135453,,484170,,1513264917,216820663,'',0.366519142919,0.368997614677,-0.000385228554487,0.0,0.001,0.0,-6000.0,0.0,-300.0,0.0
1513264919001042669,,484171,,1513264917,226820663,'',0.366519142919,0.369043156949,-0.00129082938743,0.0,0.001,0.0,-6000.0,0.0,-300.0,0.0
1513264919010974162,,484172,,1513264917,236820663,'',0.366519142919,0.369080029125,0.0157054729434,0.0,0.001,0.0,-6000.0,0.0,-300.0,0.0
1513264919020956938,,484173,,1513264917,246820663,'',0.366519142919,0.369077832422,-0.00200016189288,0.0,0.001,0.0,-6000.0,0.0,-300.0,0.0
1513264919030900522,,484174,,1513264917,256820663,'',0.366519142919,0.369090822792,-0.00226353224018,0.0,0.001,0.0,-6000.0,0.0,-300.0,0.0
1513264919040753215,,484175,,1513264917,266820663,'',0.366519142919,0.369070578632,-0.00185373642336,0.0,0.001,0.0,-6000.0,0.0,-300.0,0.0
1513264919050774059,,484176,,1513264917,276820663,'',0.366519142919,0.369070738537,0.0158843960315,0.0,0.001,0.0,-6000.0,0.0,-300.0,0.0
1513264919060637468,,484177,,1513264917,286820663,'',0.366519142919,0.369086073285,-0.00217082154644,0.0,0.001,0.0,-6000.0,0.0,-300.0,0.0
1513264919070685192,,484178,,1513264917,296820663,'',0.366519142919,0.369097962424,-0.00239825529322,0.0,0.001,0.0,-6000.0,0.0,-300.0,0.0
1513264919081063697,,484179,,1513264917,306820663,'',0.366519142919,0.369076391316,-0.00196337594325,0.0,0.001,0.0,-6000.0,0.0,-300.0,0.0
1513264919091359079,,484180,,1513264917,316820663,'',0.366519142919,0.369091430297,-0.0022643775118,0.0,0.001,0.0,-6000.0,0.0,-300.0,0.0
1513264919101049272,,484181,,1513264917,326820663,'',0.366519142919,0.369102001496,-0.00247680938775,0.0,0.001,0.0,-6000.0,0.0,-300.0,0.0
1513264919111066725,,484182,,1513264917,336820663,'',0.366519142919,0.369079687414,-0.00202747300051,0.0,0.001,0.0,-6000.0,0.0,-300.0,0.0
1513264919120962446,,484183,,1513264917,346820663,'',0.366519142919,0.369077244578,-0.00197593694458,0.0,0.001,0.0,-6000.0,0.0,-300.0,0.0
1513264919130972647,,484184,,1513264917,356820663,'',0.366519142919,0.369059463641,-0.00161830844873,0.0,0.001,0.0,-6000.0,0.0,-300.0,0.0
1513264919140922926,,484185,,1513264917,366820663,'',0.366519142919,0.369077652521,0.0157664405208,0.0,0.001,0.0,-6000.0,0.0,-300.0,0.0
1513264919150891500,,484186,,1513264917,376820663,'',0.366519142919,0.369076592869,-0.00195886730137,0.0,0.001,0.0,-6000.0,0.0,-300.0,0.0
1513264919160816003,,484187,,1513264917,386820663,'',0.366519142919,0.369091849682,-0.0022705612911,0.0,0.001,0.0,-6000.0,0.0,-300.0,0.0
1513264919170746995,,484188,,1513264917,396820663,'',0.366519142919,0.369103644831,0.0152361330001,0.0,0.001,0.0,-6000.0,0.0,-300.0,0.0
1513264919180698897,,484189,,1513264917,406820663,'',0.366519142919,0.369144861811,-0.00334435738294,0.0,0.001,0.0,-6000.0,0.0,-300.0,0.0
1513264919190775620,,484190,,1513264917,416820663,'',0.366519142919,0.369177361645,0.0137412204005,0.0,0.001,0.0,-6000.0,0.0,-300.0,0.0
1513264919201071864,,484191,,1513264917,426820663,'',0.366519142919,0.369157846414,-0.00361656552398,0.0,0.001,0.0,-6000.0,0.0,-300.0,0.0
1513264919211070194,,484192,,1513264917,436820663,'',0.366519142919,0.369189677239,-0.00425946820563,0.0,0.001,0.0,-6000.0,0.0,-300.0,0.0
1513264919220973184,,484193,,1513264917,446820663,'',0.366519142919,0.36916896194,0.0139079928038,0.0,0.001,0.0,-6000.0,0.0,-300.0,0.0
1513264919230964207,,484194,,1513264917,456820663,'',0.366519142919,0.369165461914,-0.00377282881193,0.0,0.001,0.0,-6000.0,0.0,-300.0,0.0
1513264919240891854,,484195,,1513264917,466820663,'',0.366519142919,0.36914815424,-0.00342177820676,0.0,0.001,0.0,-6000.0,0.0,-300.0,0.0
1513264919250951012,,484196,,1513264917,476820663,'',0.366519142919,0.36911747847,-0.00280123507282,0.0,0.001,0.0,-6000.0,0.0,-300.0,0.0
1513264919260815191,,484197,,1513264917,486820663,'',0.366519142919,0.36909235011,-0.00229291100724,0.0,0.001,0.0,-6000.0,0.0,-300.0,0.0
1513264919270631383,,484198,,1513264917,496820663,'',0.366519142919,0.369056619898,-0.00157096819018,0.0,0.001,0.0,-6000.0,0.0,-300.0,0.0
1513264919281115637,,484199,,1513264917,506820663,'',0.366519142919,0.369042545192,-0.00128609596042,0.0,0.001,0.0,-6000.0,0.0,-300.0,0.0
1513264919290998065,,484200,,1513264917,516820663,'',0.366519142919,0.36901382121,-0.0184580360579,0.0,0.001,0.0,-6000.0,0.0,-300.0,0.0
1513264919300958184,,484201,,1513264917,526820663,'',0.366519142919,0.369007517075,-0.000583792061027,0.0,0.001,0.0,-6000.0,0.0,-300.0,0.0
1513264919310855476,,484202,,1513264917,536820663,'',0.366519142919,0.368985896213,-0.000148958086836,0.0,0.001,0.0,-6000.0,0.0,-300.0,0.0
1513264919320756835,,484203,,1513264917,546820663,'',0.366519142919,0.368982390137,-7.92078379112e-05,0.0,0.001,0.0,-6000.0,0.0,-300.0,0.0
1513264919330791339,,484204,,1513264917,556820663,'',0.366519142919,0.368981776923,-6.48681523898e-05,0.0,0.001,0.0,-6000.0,0.0,-300.0,0.0
1513264919340798876,,484205,,1513264917,566820663,'',0.366519142919,0.368918746305,0.00121095092164,0.0,0.001,0.0,-6000.0,0.0,-300.0,0.0
1513264919350678564,,484206,,1513264917,576820663,'',0.366519142919,0.368914187138,0.00130454866961,0.0,0.001,0.0,-6000.0,0.0,-300.0,0.0
1513264919361155745,,484207,,1513264917,586820663,'',0.366519142919,0.368833866817,0.00293948699598,0.0,0.001,0.0,-6000.0,0.0,-300.0,0.0
1513264919371112405,,484208,,1513264917,596820663,'',0.366519142919,0.36886019194,0.00240631609302,0.0,0.001,0.0,-6000.0,0.0,-300.0,0.0
1513264919380959940,,484209,,1513264917,606820663,'',0.366519142919,0.368881740297,0.00196989052538,0.0,0.001,0.0,-6000.0,0.0,-300.0,0.0
1513264919390962670,,484210,,1513264917,616820663,'',0.366519142919,0.368899380879,0.0016126103257,0.0,0.001,0.0,-6000.0,0.0,-300.0,0.0
1513264919400951033,,484211,,1513264917,626820663,'',0.366519142919,0.36888263185,0.00194689468564,0.0,0.001,0.0,-6000.0,0.0,-300.0,0.0
1513264919410778606,,484212,,1513264917,636820663,'',0.366519142919,0.368867508056,-0.0154919141126,0.0,0.001,0.0,-6000.0,0.0,-300.0,0.0
1513264919420685945,,484213,,1513264917,646820663,'',0.366519142919,0.368855773428,0.00249633304238,0.0,0.001,0.0,-6000.0,0.0,-300.0,0.0
1513264919430642636,,484214,,1513264917,656820663,'',0.366519142919,0.368830444335,0.0030010629578,0.0,0.001,0.0,-6000.0,0.0,-300.0,0.0
1513264919441066207,,484215,,1513264917,666820663,'',0.366519142919,0.368857390816,0.00245671155091,0.0,0.001,0.0,-6000.0,0.0,-300.0,0.0
1513264919451095999,,484216,,1513264917,676820663,'',0.366519142919,0.368879445304,0.00201118428617,0.0,0.001,0.0,-6000.0,0.0,-300.0,0.0
1513264919461083224,,484217,,1513264917,686820663,'',0.366519142919,0.368864494309,-0.0154375970599,0.0,0.001,0.0,-6000.0,0.0,-300.0,0.0
1513264919470866849,,484218,,1513264917,696820663,'',0.366519142919,0.368852940299,-0.0152018092677,0.0,0.001,0.0,-6000.0,0.0,-300.0,0.0
1513264919480899550,,484219,,1513264917,706820663,'',0.366519142919,0.368792840583,-0.0139866654479,0.0,0.001,0.0,-6000.0,0.0,-300.0,0.0
1513264919490983303,,484220,,1513264917,716820663,'',0.366519142919,0.368651002301,-0.0111218198533,0.0,0.001,0.0,-6000.0,0.0,-300.0,0.0
1513264919500819630,,484221,,1513264917,726820663,'',0.366519142919,0.368618633525,0.00727998233265,0.0,0.001,0.0,-6000.0,0.0,-300.0,0.0
1513264919510777921,,484222,,1513264917,736820663,'',0.366519142919,0.368683998157,0.00595952241594,0.0,0.001,0.0,-6000.0,0.0,-300.0,0.0
1513264919520736765,,484223,,1513264917,746820663,'',0.366519142919,0.368675829149,0.0061200418615,0.0,0.001,0.0,-6000.0,0.0,-300.0,0.0
1513264919530670231,,484224,,1513264917,756820663,'',0.366519142919,0.368569306981,-0.00947572916499,0.0,0.001,0.0,-6000.0,0.0,-300.0,0.0
1513264919541251549,,484225,,1513264917,766820663,'',0.366519142919,0.368518153487,-0.00844187997885,0.0,0.001,0.0,-6000.0,0.0,-300.0,0.0
1513264919551124869,,484226,,1513264917,776820663,'',0.366519142919,0.36848822667,-0.00783533067455,0.0,0.001,0.0,-6000.0,0.0,-300.0,0.0
1513264919560972663,,484227,,1513264917,786820663,'',0.366519142919,0.368629355463,0.0248086920047,0.0,0.001,0.0,-6000.0,0.0,-300.0,0.0
1513264919570823039,,484228,,1513264917,796820663,'',0.366519142919,0.369012553637,0.0348119358487,0.0,0.001,0.0,-6000.0,0.0,-300.0,0.0
1513264919580853317,,484229,,1513264917,806820663,'',0.366519142919,0.369408009605,0.0445700324253,0.0,0.001,0.0,-6000.0,0.0,-300.0,0.0
1513264919590811999,,484230,,1513264917,816820663,'',0.366519142919,0.36993496204,0.0516705520182,0.0,0.001,0.0,-6000.0,0.0,-300.0,0.0
1513264919600756367,,484231,,1513264917,826820663,'',0.366519142919,0.370398082011,0.0423161814635,0.0,0.001,0.0,-6000.0,0.0,-300.0,0.0
1513264919611114561,,484232,,1513264917,836820663,'',0.366519142919,0.370954970376,0.0665643071638,0.0,0.001,0.0,-6000.0,0.0,-300.0,0.0
1513264919621172326,,484233,,1513264917,846820663,'',0.366519142919,0.371521632008,0.0551220996773,0.0,0.001,0.0,-6000.0,0.0,-300.0,0.0
1513264919631060862,,484234,,1513264917,856820663,'',0.366519142919,0.372147808212,0.0602240868808,0.0,0.001,0.0,-6000.0,0.0,-300.0,0.0
1513264919640987000,,484235,,1513264917,866820663,'',0.366519142919,0.372721643343,0.0486403703957,0.0,0.001,0.0,-6000.0,0.0,-300.0,0.0
1513264919650972989,,484236,,1513264917,876820663,'',0.366519142919,0.373287119865,0.0549619416024,0.0,0.001,0.0,-6000.0,0.0,-300.0,0.0
1513264919660905128,,484237,,1513264917,886820663,'',0.366519142919,0.373827635652,0.0440401155921,0.0,0.001,0.0,-6000.0,0.0,-300.0,0.0
1513264919670779034,,484238,,1513264917,896820663,'',0.366519142919,0.374380964385,0.0506053407099,0.0,0.001,0.0,-6000.0,0.0,-300.0,0.0
1513264919680775818,,484239,,1513264917,906820663,'',0.366519142919,0.374817444016,0.024041989853,0.0,0.001,0.0,-6000.0,0.0,-300.0,0.0
1513264919690639690,,484240,,1513264917,916820663,'',0.366519142919,0.375207350529,0.033911517086,0.0,0.001,0.0,-6000.0,0.0,-300.0,0.0
1513264919701127660,,484241,,1513264917,926820663,'',0.366519142919,0.375592649559,0.0438711941311,0.0,0.001,0.0,-6000.0,0.0,-300.0,0.0
1513264919710991173,,484242,,1513264917,936820663,'',0.366519142919,0.375924490614,0.0371670412314,0.0,0.001,0.0,-6000.0,0.0,-300.0,0.0
1513264919720946765,,484243,,1513264917,946820663,'',0.366519142919,0.376194189321,0.0317215541261,0.0,0.001,0.0,-6000.0,0.0,-300.0,0.0
1513264919730945455,,484244,,1513264917,956820663,'',0.366519142919,0.376464165837,0.0262703107305,0.0,0.001,0.0,-6000.0,0.0,-300.0,0.0
1513264919740881434,,484245,,1513264917,966820663,'',0.366519142919,0.376699586408,0.0215131362976,0.0,0.001,0.0,-6000.0,0.0,-300.0,0.0
1513264919750959440,,484246,,1513264917,976820663,'',0.366519142919,0.376892712382,0.0176106143482,0.0,0.001,0.0,-6000.0,0.0,-300.0,0.0
1513264919760828769,,484247,,1513264917,986820663,'',0.366519142919,0.37711798128,0.0308070805452,0.0105988383607,0.001,72.8507989437,-6000.0,0.0,-300.0,0.0
1513264919770681885,,484248,,1513264917,996820663,'',0.366519142919,0.37737943976,0.0255277897757,0.0108602968413,0.001,72.6790696839,-6000.0,0.0,-300.0,0.0
1513264919780705778,,484249,,1513264918,6820663,'',0.366519142919,0.377623264291,0.0206012535471,0.0111041213722,0.001,72.685184441,-6000.0,0.0,-300.0,0.0
1513264919790663913,,484250,,1513264918,16820663,'',0.366519142919,0.377842060398,0.033931916778,0.0113229174797,0.001,78.1452446357,-6000.0,0.0,-300.0,0.0
1513264919800732081,,484251,,1513264918,26820663,'',0.366519142919,0.378067030244,0.0293758755165,0.0115478873251,0.001,77.9577242311,-6000.0,0.0,-300.0,0.0
1513264919811074712,,484252,,1513264918,36820663,'',0.366519142919,0.378251961059,0.0256335561469,0.01173281814,0.001,78.1277113073,-6000.0,0.0,-300.0,0.0
1513264919821083524,,484253,,1513264918,46820663,'',0.366519142919,0.378370796419,0.0232348857812,0.0118516534998,0.001,78.1035108972,-6000.0,0.0,-300.0,0.0
1513264919830989013,,484254,,1513264918,56820663,'',0.366519142919,0.378548093582,0.0196518683086,0.0120289506633,0.001,78.0838353446,-6000.0,0.0,-300.0,0.0
1513264919840945833,,484255,,1513264918,66820663,'',0.366519142919,0.37869149157,0.0167531793029,0.0121723486511,0.001,78.2199299359,-6000.0,0.0,-300.0,0.0
1513264919850956441,,484256,,1513264918,76820663,'',0.366519142919,0.378795120547,0.0146679314802,0.0122759776278,0.001,78.0700185087,-6000.0,0.0,-300.0,0.0
1513264919860928501,,484257,,1513264918,86820663,'',0.366519142919,0.378911394372,0.0123193971372,0.012392251453,0.001,78.075973161,-6000.0,0.0,-300.0,0.0
1513264919870968922,,484258,,1513264918,96820663,'',0.366519142919,0.379022084643,0.0100834340384,0.0125029417241,0.001,78.0244217444,-6000.0,0.0,-300.0,0.0
1513264919880820524,,484259,,1513264918,106820663,'',0.366519142919,0.379177849978,0.00693178345706,0.0126587070588,0.001,78.0418140822,-6000.0,0.0,-300.0,0.0
1513264919890901426,,484260,,1513264918,116820663,'',0.366519142919,0.379305140692,0.0221092162068,0.0127859977736,0.001,83.4117742084,-6000.0,0.0,-300.0,0.0
1513264919900837361,,484261,,1513264918,126820663,'',0.366519142919,0.379423651013,0.0197094580088,0.0129045080943,0.001,83.2412316603,-6000.0,0.0,-300.0,0.0
1513264919910839623,,484262,,1513264918,136820663,'',0.366519142919,0.379535141906,-0.000289365332864,0.0130159989868,0.001,78.01120255,-6000.0,0.0,-300.0,0.0
1513264919921237572,,484263,,1513264918,146820663,'',0.366519142919,0.379596295094,-0.00153668374004,0.013077152175,0.001,78.0063428282,-6000.0,0.0,-300.0,0.0
1513264919931205511,,484264,,1513264918,156820663,'',0.366519142919,0.379676768536,0.0145866474885,0.0131576256176,0.001,83.243839904,-6000.0,0.0,-300.0,0.0
1513264919941235890,,484265,,1513264918,166820663,'',0.366519142919,0.379730898924,-0.00423651021909,0.0132117560056,0.001,78.0771865958,-6000.0,0.0,-300.0,0.0
1513264919951370787,,484266,,1513264918,176820663,'',0.366519142919,0.379806175745,0.0119936608852,0.0132870328262,0.001,83.2466679532,-6000.0,0.0,-300.0,0.0
1513264919961308263,,484267,,1513264918,186820663,'',0.366519142919,0.379852868759,0.011052207801,0.0133337258399,0.001,83.2663469532,-6000.0,0.0,-300.0,0.0
1513264919971264408,,484268,,1513264918,196820663,'',0.366519142919,0.379951908923,0.00905076919304,0.0134327660042,0.001,83.2780082132,-6000.0,0.0,-300.0,0.0
1513264919981207437,,484269,,1513264918,206820663,'',0.366519142919,0.380033117125,0.00740968518086,0.013513974206,0.001,83.3197304529,-6000.0,0.0,-300.0,0.0
1513264919990926998,,484270,,1513264918,216820663,'',0.366519142919,0.380100944568,0.0237938663728,0.0135818016491,0.001,88.6702302287,-6000.0,0.0,-300.0,0.0
1513264920001229267,,484271,,1513264918,226820663,'',0.366519142919,0.380154185717,0.00496582907491,0.013635042798,0.001,83.3017834825,-6000.0,0.0,-300.0,0.0
1513264920010950133,,484272,,1513264918,236820663,'',0.366519142919,0.380198740132,0.00406496052252,0.0136795972128,0.001,83.3020479267,-6000.0,0.0,-300.0,0.0
1513264920021139160,,484273,,1513264918,246820663,'',0.366519142919,0.38025157498,0.00299291431025,0.0137324320615,0.001,83.2981259714,-6000.0,0.0,-300.0,0.0
1513264920031062976,,484274,,1513264918,256820663,'',0.366519142919,0.380328686519,0.0191859944577,0.0138095436006,0.001,88.6229852878,-6000.0,0.0,-300.0,0.0
1513264920040990502,,484275,,1513264918,266820663,'',0.366519142919,0.380390588127,0.0179404801362,0.0138714452081,0.001,88.5162189235,-6000.0,0.0,-300.0,0.0
1513264920050950155,,484276,,1513264918,276820663,'',0.366519142919,0.380470589059,-0.00142439919827,0.01395144614,0.001,83.2786565477,-6000.0,0.0,-300.0,0.0
1513264920060872104,,484277,,1513264918,286820663,'',0.366519142919,0.380488763972,-0.0017935273733,0.0139696210529,0.001,83.2871961979,-6000.0,0.0,-300.0,0.0
1513264920071124672,,484278,,1513264918,296820663,'',0.366519142919,0.380490206769,0.015925474067,0.0139710638503,0.001,88.6459233829,-6000.0,0.0,-300.0,0.0
1513264920081067488,,484279,,1513264918,306820663,'',0.366519142919,0.380536440546,-0.00275503072726,0.0140172976268,0.001,83.2688567126,-6000.0,0.0,-300.0,0.0
1513264920090927238,,484280,,1513264918,316820663,'',0.366519142919,0.380528748191,0.0151435138936,0.0140096052724,0.001,88.5178744236,-6000.0,0.0,-300.0,0.0
1513264920101140016,,484281,,1513264918,326820663,'',0.366519142919,0.380600985769,0.0136789954522,0.0140818428503,0.001,88.5293537548,-6000.0,0.0,-300.0,0.0
1513264920110921144,,484282,,1513264918,336820663,'',0.366519142919,0.380642753505,-0.00490976585206,0.0141236105864,0.001,83.2930179931,-6000.0,0.0,-300.0,0.0
1513264920120955635,,484283,,1513264918,346820663,'',0.366519142919,0.380645879163,-0.00497626040282,0.0141267362443,0.001,83.2629706005,-6000.0,0.0,-300.0,0.0
1513264920131047967,,484284,,1513264918,356820663,'',0.366519142919,0.380633224866,-0.00471843716583,0.0141140819469,0.001,83.2623396923,-6000.0,0.0,-300.0,0.0
1513264920140832787,,484285,,1513264918,366820663,'',0.366519142919,0.380638645553,-0.00483153461308,0.0141195026344,0.001,83.2973928963,-6000.0,0.0,-300.0,0.0
1513264920150874371,,484286,,1513264918,376820663,'',0.366519142919,0.380628227331,-0.00462442800622,0.0141090844126,0.001,83.3021335211,-6000.0,0.0,-300.0,0.0
1513264920160869266,,484287,,1513264918,386820663,'',0.366519142919,0.380620493952,-0.00446111580838,0.0141013510331,0.001,83.3028018135,-6000.0,0.0,-300.0,0.0
1513264920170869879,,484288,,1513264918,396820663,'',0.366519142919,0.380580482179,-0.00365238374854,0.0140613392598,0.001,83.2674592912,-6000.0,0.0,-300.0,0.0
1513264920180953880,,484289,,1513264918,406820663,'',0.366519142919,0.380611149632,-0.00427752909936,0.0140920067132,0.001,83.3282010096,-6000.0,0.0,-300.0,0.0
1513264920190910614,,484290,,1513264918,416820663,'',0.366519142919,0.380572821114,-0.00350186141875,0.0140536781953,0.001,83.26815344,-6000.0,0.0,-300.0,0.0
1513264920200751140,,484291,,1513264918,426820663,'',0.366519142919,0.380541431433,-0.00286661740498,0.0140222885137,0.001,83.2900139941,-6000.0,0.0,-300.0,0.0
1513264920210762974,,484292,,1513264918,436820663,'',0.366519142919,0.380500534193,-0.00204056037199,0.0139813912747,0.001,83.2986636267,-6000.0,0.0,-300.0,0.0
1513264920220750600,,484293,,1513264918,446820663,'',0.366519142919,0.380498681822,-0.00200188753079,0.013979538903,0.001,83.2591327448,-6000.0,0.0,-300.0,0.0
1513264920231270083,,484294,,1513264918,456820663,'',0.366519142919,0.380481022524,-0.00163726262134,0.0139618796053,0.001,83.2644920579,-6000.0,0.0,-300.0,0.0
1513264920240850536,,484295,,1513264918,466820663,'',0.366519142919,0.380481872929,-0.00165513039778,0.0139627300105,0.001,83.2864566019,-6000.0,0.0,-300.0,0.0
1513264920251155468,,484296,,1513264918,476820663,'',0.366519142919,0.380466985579,-0.00135497073165,0.0139478426603,0.001,83.2769581999,-6000.0,0.0,-300.0,0.0
1513264920261092200,,484297,,1513264918,486820663,'',0.366519142919,0.380454798066,-0.00110924534168,0.013935655147,0.001,83.2782047875,-6000.0,0.0,-300.0,0.0
1513264920271075937,,484298,,1513264918,496820663,'',0.366519142919,0.380444838815,-0.000908446312885,0.0139256958961,0.001,83.2855355444,-6000.0,0.0,-300.0,0.0
1513264920281068480,,484299,,1513264918,506820663,'',0.366519142919,0.380466645871,-0.00135669656813,0.0139475029524,0.001,83.2859697835,-6000.0,0.0,-300.0,0.0
1513264920290920332,,484300,,1513264918,516820663,'',0.366519142919,0.380454519964,-0.00111065819588,0.0139353770455,0.001,83.279191965,-6000.0,0.0,-300.0,0.0
1513264920301017849,,484301,,1513264918,526820663,'',0.366519142919,0.380475350619,-0.00153362648247,0.0139562077002,0.001,83.2751098576,-6000.0,0.0,-300.0,0.0
1513264920310881568,,484302,,1513264918,536820663,'',0.366519142919,0.380428991569,-0.0183405901216,0.0139098486498,0.001,78.0351023675,-6000.0,0.0,-300.0,0.0
1513264920320924281,,484303,,1513264918,546820663,'',0.366519142919,0.380439187019,-0.000793748596422,0.0139200441004,0.001,83.2853218701,-6000.0,0.0,-300.0,0.0
1513264920330694369,,484304,,1513264918,556820663,'',0.366519142919,0.380432042035,-0.000649826228776,0.0139128991163,0.001,83.2812857388,-6000.0,0.0,-300.0,0.0
1513264920340895972,,484305,,1513264918,566820663,'',0.366519142919,0.38042620001,-0.000532149532305,0.0139070570909,0.001,83.284483984,-6000.0,0.0,-300.0,0.0
1513264920350813212,,484306,,1513264918,576820663,'',0.366519142919,0.380436916782,-0.000745622987985,0.0139177738633,0.001,83.2811177623,-6000.0,0.0,-300.0,0.0
1513264920360953526,,484307,,1513264918,586820663,'',0.366519142919,0.380444827277,-0.00090655978833,0.013925684358,0.001,83.280342329,-6000.0,0.0,-300.0,0.0
1513264920370906796,,484308,,1513264918,596820663,'',0.366519142919,0.380436655909,-0.000742108198219,0.0139175129906,0.001,83.2797913263,-6000.0,0.0,-300.0,0.0
1513264920380898879,,484309,,1513264918,606820663,'',0.366519142919,0.38041291016,-0.000264997484062,0.0138937672407,0.001,83.2839261859,-6000.0,0.0,-300.0,0.0
1513264920390685358,,484310,,1513264918,616820663,'',0.366519142919,0.380410529896,-0.000216952320935,0.0138913869775,0.001,83.2828582172,-6000.0,0.0,-300.0,0.0
1513264920400689979,,484311,,1513264918,626820663,'',0.366519142919,0.380408579465,-0.000177583227323,0.013889436546,0.001,83.2827138976,-6000.0,0.0,-300.0,0.0
1513264920411120722,,484312,,1513264918,636820663,'',0.366519142919,0.380390880384,0.00018041579517,0.0138717374654,0.001,83.2847035672,-6000.0,0.0,-300.0,0.0
1513264920420980370,,484313,,1513264918,646820663,'',0.366519142919,0.380374961397,-0.0172468201109,0.0138558184781,0.001,77.9191530731,-6000.0,0.0,-300.0,0.0
1513264920430942663,,484314,,1513264918,656820663,'',0.366519142919,0.380364236291,0.000717390380023,0.013845093372,0.001,83.2816066912,-6000.0,0.0,-300.0,0.0
1513264920440836335,,484315,,1513264918,666820663,'',0.366519142919,0.380355103291,0.000901149228873,0.0138359603723,0.001,83.287619436,-6000.0,0.0,-300.0,0.0
1513264920450781019,,484316,,1513264918,676820663,'',0.366519142919,0.380363206448,0.000737710782495,0.0138440635291,0.001,83.2878400752,-6000.0,0.0,-300.0,0.0
1513264920460844016,,484317,,1513264918,686820663,'',0.366519142919,0.380369826824,0.000604179614518,0.0138506839053,0.001,83.281607117,-6000.0,0.0,-300.0,0.0
1513264920470781904,,484318,,1513264918,696820663,'',0.366519142919,0.380375263481,0.000494523739469,0.0138561205621,0.001,83.2868051471,-6000.0,0.0,-300.0,0.0
1513264920481205241,,484319,,1513264918,706820663,'',0.366519142919,0.380379701444,0.000405011244748,0.0138605585252,0.001,83.2830729327,-6000.0,0.0,-300.0,0.0
1513264920490852205,,484320,,1513264918,716820663,'',0.366519142919,0.380383343394,0.000331554117801,0.013864200475,0.001,83.2853455067,-6000.0,0.0,-300.0,0.0
1513264920501159908,,484321,,1513264918,726820663,'',0.366519142919,0.380386325828,0.000271399246133,0.0138671829089,0.001,83.2852280424,-6000.0,0.0,-300.0,0.0
1513264920511128382,,484322,,1513264918,736820663,'',0.366519142919,0.38038876116,0.000222279252641,0.0138696182417,0.001,83.2834797616,-6000.0,0.0,-300.0,0.0
1513264920521069585,,484323,,1513264918,746820663,'',0.366519142919,0.380375280966,0.000491845423742,0.0138561380476,0.001,83.2856229218,-6000.0,0.0,-300.0,0.0
1513264920530962156,,484324,,1513264918,756820663,'',0.366519142919,0.380362882562,0.000742043227657,0.0138437396434,0.001,83.2874446998,-6000.0,0.0,-300.0,0.0
1513264920541004414,,484325,,1513264918,766820663,'',0.366519142919,0.380400964743,-2.36098668585e-05,0.0138818218238,0.001,83.2838750961,-6000.0,0.0,-300.0,0.0
1513264920550966752,,484326,,1513264918,776820663,'',0.366519142919,0.380400750123,-1.93270863403e-05,0.0138816072043,0.001,83.283749991,-6000.0,0.0,-300.0,0.0
1513264920561066387,,484327,,1513264918,786820663,'',0.366519142919,0.380387003772,0.0180060021691,0.0138678608529,0.001,88.6409226163,-6000.0,0.0,-300.0,0.0
1513264920570999954,,484328,,1513264918,796820663,'',0.366519142919,0.380372894687,0.000541923030508,0.0138537517684,0.001,83.2862682438,-6000.0,0.0,-300.0,0.0
1513264920581105750,,484329,,1513264918,806820663,'',0.366519142919,0.38037776226,0.000443813979191,0.0138586193408,0.001,83.2859557609,-6000.0,0.0,-300.0,0.0
1513264920591060117,,484330,,1513264918,816820663,'',0.366519142919,0.380381755491,0.000363327839853,0.0138626125719,0.001,83.2853601506,-6000.0,0.0,-300.0,0.0
1513264920600898993,,484331,,1513264918,826820663,'',0.366519142919,0.380385020111,0.000297527313867,0.0138658771924,0.001,83.2837262943,-6000.0,0.0,-300.0,0.0
1513264920610837842,,484332,,1513264918,836820663,'',0.366519142919,0.380370945995,0.000578179010598,0.0138518030757,0.001,83.2873707748,-6000.0,0.0,-300.0,0.0
1513264920620792055,,484333,,1513264918,846820663,'',0.366519142919,0.380392202462,0.000145589537418,0.0138730595431,0.001,83.2844303219,-6000.0,0.0,-300.0,0.0
1513264920630836267,,484334,,1513264918,856820663,'',0.366519142919,0.380391985861,0.000151232382817,0.0138728429422,0.001,83.2858359221,-6000.0,0.0,-300.0,0.0
1513264920640774470,,484335,,1513264918,866820663,'',0.366519142919,0.380393394116,0.000123913128818,0.0138742511974,0.001,83.2845693402,-6000.0,0.0,-300.0,0.0
1513264920651137734,,484336,,1513264918,876820663,'',0.366519142919,0.380378363796,0.000427520906955,0.0138592208767,0.001,83.2855226237,-6000.0,0.0,-300.0,0.0
1513264920661096829,,484337,,1513264918,886820663,'',0.366519142919,0.38036643254,0.000669190508768,0.0138472896207,0.001,83.2872431673,-6000.0,0.0,-300.0,0.0
1513264920671074949,,484338,,1513264918,896820663,'',0.366519142919,0.380355397734,-0.0168510853509,0.0138362548156,0.001,78.0588423215,-6000.0,0.0,-300.0,0.0
1513264920681015242,,484339,,1513264918,906820663,'',0.366519142919,0.38036345182,0.000735040914139,0.0138443089013,0.001,83.2833596802,-6000.0,0.0,-300.0,0.0
1513264920690923317,,484340,,1513264918,916820663,'',0.366519142919,0.38035358882,0.00093461487969,0.0138344459012,0.001,83.2885568743,-6000.0,0.0,-300.0,0.0
1513264920701007079,,484341,,1513264918,926820663,'',0.366519142919,0.380344767284,0.00110429318205,0.0138256243649,0.001,83.2881744348,-6000.0,0.0,-300.0,0.0
1513264920710927799,,484342,,1513264918,936820663,'',0.366519142919,0.380354726146,0.000904390608532,0.013835583227,0.001,83.2827203179,-6000.0,0.0,-300.0,0.0
1513264920720802506,,484343,,1513264918,946820663,'',0.366519142919,0.380329016181,-0.0163223415492,0.0138098732624,0.001,77.9442306543,-6000.0,0.0,-300.0,0.0
1513264920730806398,,484344,,1513264918,956820663,'',0.366519142919,0.380308259639,-0.0158982914623,0.0137891167203,0.001,77.9356521327,-6000.0,0.0,-300.0,0.0
1513264920740736969,,484345,,1513264918,966820663,'',0.366519142919,0.380292865931,0.00216412511201,0.0137737230118,0.001,83.2777622664,-6000.0,0.0,-300.0,0.0
1513264920750777267,,484346,,1513264918,976820663,'',0.366519142919,0.380295799925,0.00210385154055,0.0137766570065,0.001,83.2792941086,-6000.0,0.0,-300.0,0.0
1513264920760906260,,484347,,1513264918,986820663,'',0.366519142919,0.380299996398,0.00201748009539,0.0137808534794,0.001,83.2941841695,-6000.0,0.0,-300.0,0.0
1513264920770693731,,484348,,1513264918,996820663,'',0.366519142919,0.380300624992,-0.0157435286259,0.0137814820728,0.001,77.9466373525,-6000.0,0.0,-300.0,0.0
1513264920780723842,,484349,,1513264919,6820663,'',0.366519142919,0.380301145802,-0.0157532804579,0.0137820028828,0.001,77.9465932038,-6000.0,0.0,-300.0,0.0
1513264920791151512,,484350,,1513264919,16820663,'',0.366519142919,0.380301597292,-0.0157623073426,0.0137824543736,0.001,77.9556661355,-6000.0,0.0,-300.0,0.0
1513264920801076322,,484351,,1513264919,26820663,'',0.366519142919,0.380272570097,0.00256968047296,0.0137534271778,0.001,83.2938730413,-6000.0,0.0,-300.0,0.0
1513264920811082999,,484352,,1513264919,36820663,'',0.366519142919,0.380295646494,0.00210353577374,0.0137765035754,0.001,83.2940274609,-6000.0,0.0,-300.0,0.0
1513264920821084980,,484353,,1513264919,46820663,'',0.366519142919,0.380298413668,-0.0156989014953,0.0137792707487,0.001,77.9456905263,-6000.0,0.0,-300.0,0.0
1513264920831002556,,484354,,1513264919,56820663,'',0.366519142919,0.380298058593,0.00205305111277,0.0137789156737,0.001,83.2799863076,-6000.0,0.0,-300.0,0.0
1513264920840944050,,484355,,1513264919,66820663,'',0.366519142919,0.380250509977,-0.0147397213854,0.0137313670581,0.001,77.9381128885,-6000.0,0.0,-300.0,0.0
1513264920851022606,,484356,,1513264919,76820663,'',0.366519142919,0.380246225355,0.00309000062638,0.0137270824359,0.001,83.2957283474,-6000.0,0.0,-300.0,0.0
1513264920860940577,,484357,,1513264919,86820663,'',0.366519142919,0.380259522144,0.00282637566363,0.0137403792256,0.001,83.294902931,-6000.0,0.0,-300.0,0.0
1513264920870866916,,484358,,1513264919,96820663,'',0.366519142919,0.380254538952,0.00293242321107,0.013735396033,0.001,83.2774933912,-6000.0,0.0,-300.0,0.0
1513264920880773167,,484359,,1513264919,106820663,'',0.366519142919,0.380264714664,0.00272636381258,0.0137455717454,0.001,83.2787256926,-6000.0,0.0,-300.0,0.0
1513264920890896904,,484360,,1513264919,116820663,'',0.366519142919,0.380256861197,-0.0148656760081,0.013737718278,0.001,77.9417579801,-6000.0,0.0,-300.0,0.0
1513264920900674007,,484361,,1513264919,126820663,'',0.366519142919,0.380236777629,0.00328920455464,0.0137176347102,0.001,83.278620755,-6000.0,0.0,-300.0,0.0
1513264920911169340,,484362,,1513264919,136820663,'',0.366519142919,0.380251583804,0.00299171132684,0.0137324408851,0.001,83.3191117305,-6000.0,0.0,-300.0,0.0
1513264920920959748,,484363,,1513264919,146820663,'',0.366519142919,0.380263488321,0.00275060564359,0.0137443454022,0.001,83.2969769818,-6000.0,0.0,-300.0,0.0
1513264920930900427,,484364,,1513264919,156820663,'',0.366519142919,0.38027113201,0.0025973559286,0.0137519890909,0.001,83.2962397815,-6000.0,0.0,-300.0,0.0
1513264920940820979,,484365,,1513264919,166820663,'',0.366519142919,0.38026341851,0.0027503528184,0.0137442755915,0.001,83.2937993074,-6000.0,0.0,-300.0,0.0
1513264920951155636,,484366,,1513264919,176820663,'',0.366519142919,0.380225377131,0.00351887743877,0.0137062342121,0.001,83.2986162177,-6000.0,0.0,-300.0,0.0
1513264920960988118,,484367,,1513264919,186820663,'',0.366519142919,0.380209495421,0.00383798613175,0.0136903525019,0.001,83.2999624974,-6000.0,0.0,-300.0,0.0
1513264920970904993,,484368,,1513264919,196820663,'',0.366519142919,0.380228160878,0.00345975356068,0.0137090179591,0.001,83.2775941095,-6000.0,0.0,-300.0,0.0
1513264920980915425,,484369,,1513264919,206820663,'',0.366519142919,0.380243764285,0.00314868934579,0.0137246213657,0.001,83.2991069993,-6000.0,0.0,-300.0,0.0
1513264920990907787,,484370,,1513264919,216820663,'',0.366519142919,0.380222677593,0.00357485124408,0.0137035346742,0.001,83.3053076376,-6000.0,0.0,-300.0,0.0
1513264921000854687,,484371,,1513264919,226820663,'',0.366519142919,0.380221733162,0.00359513384706,0.0137025902431,0.001,83.2945075658,-6000.0,0.0,-300.0,0.0
1513264921010783171,,484372,,1513264919,236820663,'',0.366519142919,0.380220693075,0.00360802252766,0.0137015501558,0.001,83.3021499831,-6000.0,0.0,-300.0,0.0
1513264921020774635,,484373,,1513264919,246820663,'',0.366519142919,0.380189851204,0.00422887446188,0.013670708285,0.001,83.3028533288,-6000.0,0.0,-300.0,0.0
1513264921030761662,,484374,,1513264919,256820663,'',0.366519142919,0.38022791575,0.00346209562564,0.0137087728307,0.001,83.298401021,-6000.0,0.0,-300.0,0.0
1513264921040763531,,484375,,1513264919,266820663,'',0.366519142919,0.380225759388,-0.0142376934911,0.0137066164692,0.001,78.0352267501,-6000.0,0.0,-300.0,0.0
1513264921051092192,,484376,,1513264919,276820663,'',0.366519142919,0.380225345527,0.0035176924619,0.013706202608,0.001,83.2741834692,-6000.0,0.0,-300.0,0.0
1513264921061182124,,484377,,1513264919,286820663,'',0.366519142919,0.380192156192,0.00418330498386,0.0136730132737,0.001,83.3014323297,-6000.0,0.0,-300.0,0.0
1513264921071012769,,484378,,1513264919,296820663,'',0.366519142919,0.380213316192,0.00375766447958,0.0136941732728,0.001,83.2996386137,-6000.0,0.0,-300.0,0.0
1513264921081122282,,484379,,1513264919,306820663,'',0.366519142919,0.38021599591,0.00370007213225,0.013696852991,0.001,83.2747387907,-6000.0,0.0,-300.0,0.0
1513264921090950217,,484380,,1513264919,316820663,'',0.366519142919,0.380234166817,0.00333978827618,0.0137150238981,0.001,83.2978711231,-6000.0,0.0,-300.0,0.0
1513264921100951362,,484381,,1513264919,326820663,'',0.366519142919,0.380233237392,0.00336320005949,0.0137140944736,0.001,83.2960053421,-6000.0,0.0,-300.0,0.0
1513264921110940179,,484382,,1513264919,336820663,'',0.366519142919,0.380231170063,0.00340181821671,0.013712027144,0.001,83.2959103669,-6000.0,0.0,-300.0,0.0
1513264921121237560,,484383,,1513264919,346820663,'',0.366519142919,0.380244175525,-0.0146088317255,0.013725032606,0.001,77.9334848684,-6000.0,0.0,-300.0,0.0
1513264921130964320,,484384,,1513264919,356820663,'',0.366519142919,0.380241486893,0.0031993977622,0.0137223439746,0.001,83.2993299678,-6000.0,0.0,-300.0,0.0
1513264921141151518,,484385,,1513264919,366820663,'',0.366519142919,0.380237227547,0.0032782921569,0.0137180846286,0.001,83.2767378844,-6000.0,0.0,-300.0,0.0
1513264921151115211,,484386,,1513264919,376820663,'',0.366519142919,0.380249253242,-0.0147116467278,0.0137301103232,0.001,77.9509920941,-6000.0,0.0,-300.0,0.0
1513264921160985231,,484387,,1513264919,386820663,'',0.366519142919,0.38026168898,0.00278310998761,0.0137425460615,0.001,83.2997708483,-6000.0,0.0,-300.0,0.0
1513264921170919435,,484388,,1513264919,396820663,'',0.366519142919,0.380236692948,-0.0144537410848,0.0137175500295,0.001,78.0439264988,-6000.0,0.0,-300.0,0.0
1513264921180922990,,484389,,1513264919,406820663,'',0.366519142919,0.380217589857,0.00367811766038,0.0136984469383,0.001,83.3261400772,-6000.0,0.0,-300.0,0.0
1513264921190978536,,484390,,1513264919,416820663,'',0.366519142919,0.38023342961,0.00335879290394,0.0137142866911,0.001,83.3001188178,-6000.0,0.0,-300.0,0.0
1513264921200810763,,484391,,1513264919,426820663,'',0.366519142919,0.380232417175,0.00337594234764,0.0137132742562,0.001,83.2765279495,-6000.0,0.0,-300.0,0.0
1513264921210788251,,484392,,1513264919,436820663,'',0.366519142919,0.380198419013,0.00406276945288,0.0136792760937,0.001,83.3032526317,-6000.0,0.0,-300.0,0.0
1513264921220877187,,484393,,1513264919,446820663,'',0.366519142919,0.380187440513,-0.0134592928261,0.0136682975939,0.001,77.9523426422,-6000.0,0.0,-300.0,0.0
1513264921231179577,,484394,,1513264919,456820663,'',0.366519142919,0.380209025059,0.00385230223598,0.0136898821402,0.001,83.2788467306,-6000.0,0.0,-300.0,0.0
1513264921241184161,,484395,,1513264919,466820663,'',0.366519142919,0.380226883366,0.00349640486449,0.0137077404475,0.001,83.3037881391,-6000.0,0.0,-300.0,0.0
1513264921251009115,,484396,,1513264919,476820663,'',0.366519142919,0.380212287284,0.00378703992203,0.013693144365,0.001,83.2975366527,-6000.0,0.0,-300.0,0.0
1513264921260991958,,484397,,1513264919,486820663,'',0.366519142919,0.380211678608,-0.013948709839,0.0136925356891,0.001,77.9501464926,-6000.0,0.0,-300.0,0.0
1513264921271039230,,484398,,1513264919,496820663,'',0.366519142919,0.380230576861,0.00341856175782,0.0137114339419,0.001,83.2776819244,-6000.0,0.0,-300.0,0.0
1513264921281061291,,484399,,1513264919,506820663,'',0.366519142919,0.380245463798,0.00311780441395,0.0137263208794,0.001,83.2969134871,-6000.0,0.0,-300.0,0.0
1513264921290996476,,484400,,1513264919,516820663,'',0.366519142919,0.380207862744,-0.0138918554231,0.0136887198256,0.001,77.9504922379,-6000.0,0.0,-300.0,0.0
1513264921300920434,,484401,,1513264919,526820663,'',0.366519142919,0.380207871465,-0.0138950826937,0.0136887285465,0.001,77.7780516166,-6000.0,0.0,-300.0,0.0
