rosbagTimestamp,header,seq,stamp,secs,nsecs,frame_id,set_point,process_value,process_value_dot,error,time_step,command,p,i,d,i_clamp
1513267326279848669,,724863,,1513267324,458669309,'',0.296705972839,0.234596781443,0.00224525289862,-0.0621091913963,0.001,371.992918449,6000.0,0.0,300.0,0.0
1513267326289693759,,724864,,1513267324,468669309,'',0.296705972839,0.234616942381,0.00183810894523,-0.0620890304578,0.001,371.980350659,6000.0,0.0,300.0,0.0
1513267326299827524,,724865,,1513267324,478669309,'',0.296705972839,0.234606629766,0.00204598200019,-0.0620993430732,0.001,371.981251176,6000.0,0.0,300.0,0.0
1513267326309690284,,724866,,1513267324,488669309,'',0.296705972839,0.234612445305,0.00193161240713,-0.0620935275342,0.001,371.979272393,6000.0,0.0,300.0,0.0
1513267326319710950,,724867,,1513267324,498669309,'',0.296705972839,0.234614921716,-0.0134608937337,-0.0620910511229,0.001,376.524192995,6000.0,0.0,300.0,0.0
1513267326329794492,,724868,,1513267324,508669309,'',0.296705972839,0.234631794633,0.00154305172691,-0.0620741782062,0.001,371.98205434,6000.0,0.0,300.0,0.0
1513267326339774689,,724869,,1513267324,518669309,'',0.296705972839,0.234645304241,0.00126069409836,-0.0620606685982,0.001,371.982389066,6000.0,0.0,300.0,0.0
1513267326349682124,,724870,,1513267324,528669309,'',0.296705972839,0.234641498781,-0.0140069667812,-0.0620644740585,0.001,376.617408156,6000.0,0.0,300.0,0.0
1513267326359642991,,724871,,1513267324,538669309,'',0.296705972839,0.234653529082,0.00109355371756,-0.062052443757,0.001,371.982419254,6000.0,0.0,300.0,0.0
1513267326369902997,,724872,,1513267324,548669309,'',0.296705972839,0.234649724795,0.00117168401026,-0.0620562480445,0.001,371.982789601,6000.0,0.0,300.0,0.0
1513267326379960779,,724873,,1513267324,558669309,'',0.296705972839,0.234646614812,0.00124200433426,-0.0620593580269,0.001,371.990385611,6000.0,0.0,300.0,0.0
1513267326389802050,,724874,,1513267324,568669309,'',0.296705972839,0.234642919331,0.00131297848887,-0.0620630535084,0.001,371.990525324,6000.0,0.0,300.0,0.0
1513267326399818786,,724875,,1513267324,578669309,'',0.296705972839,0.234640450733,0.0013623509415,-0.0620655221058,0.001,371.982244908,6000.0,0.0,300.0,0.0
1513267326409676915,,724876,,1513267324,588669309,'',0.296705972839,0.234652693935,0.00111528714259,-0.0620532789037,0.001,371.98297796,6000.0,0.0,300.0,0.0
1513267326419768229,,724877,,1513267324,598669309,'',0.296705972839,0.23466274033,0.000912554202004,-0.0620432325093,0.001,371.97730098,6000.0,0.0,300.0,0.0
1513267326429676215,,724878,,1513267324,608669309,'',0.296705972839,0.234643264453,0.00130313002096,-0.0620627083865,0.001,371.982581959,6000.0,0.0,300.0,0.0
1513267326439582883,,724879,,1513267324,618669309,'',0.296705972839,0.234654998394,0.00106678565176,-0.0620509744452,0.001,371.991691256,6000.0,0.0,300.0,0.0
1513267326449618187,,724880,,1513267324,628669309,'',0.296705972839,0.234610100577,0.00197653531668,-0.062095872262,0.001,371.979199355,6000.0,0.0,300.0,0.0
1513267326459628349,,724881,,1513267324,638669309,'',0.296705972839,0.234612988455,0.00191739215083,-0.062092984384,0.001,371.981124395,6000.0,0.0,300.0,0.0
1513267326469534370,,724882,,1513267324,648669309,'',0.296705972839,0.234603738991,0.00209642531496,-0.0621022338482,0.001,371.993223009,6000.0,0.0,300.0,0.0
1513267326479621724,,724883,,1513267324,658669309,'',0.296705972839,0.234608429067,0.00200332669765,-0.0620975437721,0.001,371.975997011,6000.0,0.0,300.0,0.0
1513267326489578536,,724884,,1513267324,668669309,'',0.296705972839,0.234626472827,0.0016401542098,-0.062079500012,0.001,371.980682801,6000.0,0.0,300.0,0.0
1513267326499922881,,724885,,1513267324,678669309,'',0.296705972839,0.23464124712,0.00134278732407,-0.062064725719,0.001,371.98357938,6000.0,0.0,300.0,0.0
1513267326509925113,,724886,,1513267324,688669309,'',0.296705972839,0.234653324016,0.00109971180198,-0.0620526488229,0.001,371.99172615,6000.0,0.0,300.0,0.0
1513267326519864595,,724887,,1513267324,698669309,'',0.296705972839,0.234648446128,-0.0141428347649,-0.0620575267112,0.001,376.514950462,6000.0,0.0,300.0,0.0
1513267326529864152,,724888,,1513267324,708669309,'',0.296705972839,0.234671890858,0.000729742792417,-0.062034081981,0.001,371.984534768,6000.0,0.0,300.0,0.0
1513267326539800123,,724889,,1513267324,718669309,'',0.296705972839,0.234663885786,0.000890578384921,-0.0620420870531,0.001,371.983493696,6000.0,0.0,300.0,0.0
1513267326549754790,,724890,,1513267324,728669309,'',0.296705972839,0.234631210531,0.00154332958463,-0.0620747623079,0.001,371.990520085,6000.0,0.0,300.0,0.0
1513267326559570342,,724891,,1513267324,738669309,'',0.296705972839,0.23463174356,0.00153126118195,-0.0620742292794,0.001,371.981605343,6000.0,0.0,300.0,0.0
1513267326569639509,,724892,,1513267324,748669309,'',0.296705972839,0.234615998068,-0.0134907155322,-0.0620899747706,0.001,376.602095124,6000.0,0.0,300.0,0.0
1513267326579591432,,724893,,1513267324,758669309,'',0.296705972839,0.234592636483,0.00232819826905,-0.0621133363563,0.001,371.975428707,6000.0,0.0,300.0,0.0
1513267326589845068,,724894,,1513267324,768669309,'',0.296705972839,0.234598703401,0.00220290382945,-0.0621072694385,0.001,371.99219697,6000.0,0.0,300.0,0.0
1513267326599816647,,724895,,1513267324,778669309,'',0.296705972839,0.234591596748,0.00234616529713,-0.0621143760906,0.001,371.994502827,6000.0,0.0,300.0,0.0
1513267326609917337,,724896,,1513267324,788669309,'',0.296705972839,0.234585387706,0.00247345445216,-0.062120585133,0.001,371.976960187,6000.0,0.0,300.0,0.0
1513267326619801102,,724897,,1513267324,798669309,'',0.296705972839,0.234581377872,0.00255790638228,-0.0621245949672,0.001,371.977335884,6000.0,0.0,300.0,0.0
1513267326629833556,,724898,,1513267324,808669309,'',0.296705972839,0.234590888817,0.00236265613295,-0.0621150840222,0.001,371.976604247,6000.0,0.0,300.0,0.0
1513267326639611138,,724899,,1513267324,818669309,'',0.296705972839,0.234612125609,0.00193407524692,-0.0620938472296,0.001,371.978263792,6000.0,0.0,300.0,0.0
1513267326649574896,,724900,,1513267324,828669309,'',0.296705972839,0.234618202956,0.0171526559131,-0.0620877698835,0.001,367.47884847,6000.0,0.0,300.0,0.0
1513267326659572548,,724901,,1513267324,838669309,'',0.296705972839,0.234634447171,0.00148000298353,-0.0620715256678,0.001,371.991703638,6000.0,0.0,300.0,0.0
1513267326669550765,,724902,,1513267324,848669309,'',0.296705972839,0.234633803809,0.00149326485564,-0.0620721690296,0.001,371.99173547,6000.0,0.0,300.0,0.0
1513267326679987593,,724903,,1513267324,858669309,'',0.296705972839,0.234618761102,0.00179789620402,-0.0620872117367,0.001,371.981025588,6000.0,0.0,300.0,0.0
1513267326689869119,,724904,,1513267324,868669309,'',0.296705972839,0.234606163049,-0.013291986316,-0.0620998097902,0.001,376.605101606,6000.0,0.0,300.0,0.0
1513267326699813856,,724905,,1513267324,878669309,'',0.296705972839,0.234611445405,0.00194756489686,-0.0620945274339,0.001,371.992278482,6000.0,0.0,300.0,0.0
1513267326709732813,,724906,,1513267324,888669309,'',0.296705972839,0.234601801909,0.00213608640264,-0.0621041709302,0.001,371.97968698,6000.0,0.0,300.0,0.0
1513267326719637530,,724907,,1513267324,898669309,'',0.296705972839,0.234608644405,0.00200168394318,-0.0620973284339,0.001,371.983270937,6000.0,0.0,300.0,0.0
1513267326730025155,,724908,,1513267324,908669309,'',0.296705972839,0.234601123093,0.00215061588894,-0.0621048497461,0.001,371.978385929,6000.0,0.0,300.0,0.0
1513267326739750276,,724909,,1513267324,918669309,'',0.296705972839,0.234594445219,0.00229000417435,-0.0621115276196,0.001,371.993020407,6000.0,0.0,300.0,0.0
1513267326749622957,,724910,,1513267324,928669309,'',0.296705972839,0.234600529568,0.00217064406875,-0.0621054432708,0.001,371.978959358,6000.0,0.0,300.0,0.0
1513267326759599314,,724911,,1513267324,938669309,'',0.296705972839,0.234593895156,0.00230285134552,-0.0621120776834,0.001,371.977731025,6000.0,0.0,300.0,0.0
1513267326769612059,,724912,,1513267324,948669309,'',0.296705972839,0.234601751816,0.00214218024771,-0.0621042210232,0.001,371.978442896,6000.0,0.0,300.0,0.0
1513267326779595686,,724913,,1513267324,958669309,'',0.296705972839,0.234593775733,0.00229992557463,-0.0621121971061,0.001,371.990883919,6000.0,0.0,300.0,0.0
1513267326789461927,,724914,,1513267324,968669309,'',0.296705972839,0.234614483496,0.00188283161422,-0.0620914893428,0.001,371.981233672,6000.0,0.0,300.0,0.0
1513267326799465934,,724915,,1513267324,978669309,'',0.296705972839,0.234631435884,0.00154137808919,-0.0620745369546,0.001,371.981579261,6000.0,0.0,300.0,0.0
1513267326809436948,,724916,,1513267324,988669309,'',0.296705972839,0.234605792755,0.0020631070854,-0.0621001800844,0.001,371.995655191,6000.0,0.0,300.0,0.0
1513267326819961957,,724917,,1513267324,998669309,'',0.296705972839,0.234651670914,0.00113370273117,-0.0620543019248,0.001,371.982965933,6000.0,0.0,300.0,0.0
1513267326830040390,,724918,,1513267325,8669309,'',0.296705972839,0.234647084616,0.00122760123267,-0.0620588882234,0.001,371.98139525,6000.0,0.0,300.0,0.0
1513267326839964251,,724919,,1513267325,18669309,'',0.296705972839,0.234615897462,0.00186025086227,-0.0620900753773,0.001,371.979724596,6000.0,0.0,300.0,0.0
1513267326850047270,,724920,,1513267325,28669309,'',0.296705972839,0.234632594863,0.00152286333414,-0.0620733779757,0.001,371.971115092,6000.0,0.0,300.0,0.0
1513267326859893619,,724921,,1513267325,38669309,'',0.296705972839,0.234633106125,0.00151021641332,-0.0620728667145,0.001,371.992316012,6000.0,0.0,300.0,0.0
1513267326869887969,,724922,,1513267325,48669309,'',0.296705972839,0.234620087511,0.00177288187864,-0.062085885328,0.001,371.974075479,6000.0,0.0,300.0,0.0
1513267326879875270,,724923,,1513267325,58669309,'',0.296705972839,0.234636010569,0.00145163086459,-0.0620699622701,0.001,371.981546991,6000.0,0.0,300.0,0.0
1513267326889962051,,724924,,1513267325,68669309,'',0.296705972839,0.234634106896,0.00148502946884,-0.0620718659426,0.001,371.994413959,6000.0,0.0,300.0,0.0
1513267326899804490,,724925,,1513267325,78669309,'',0.296705972839,0.234661603932,0.000939349030644,-0.0620443689075,0.001,371.984136582,6000.0,0.0,300.0,0.0
1513267326909682671,,724926,,1513267325,88669309,'',0.296705972839,0.234670011702,0.000768982412933,-0.0620359611367,0.001,371.984627744,6000.0,0.0,300.0,0.0
1513267326919558858,,724927,,1513267325,98669309,'',0.296705972839,0.234662109421,0.000928635505709,-0.0620438634177,0.001,371.98364404,6000.0,0.0,300.0,0.0
1513267326929984671,,724928,,1513267325,108669309,'',0.296705972839,0.23465581297,0.00105659916555,-0.0620501598694,0.001,371.985548387,6000.0,0.0,300.0,0.0
1513267326939972484,,724929,,1513267325,118669309,'',0.296705972839,0.234650751137,0.00115816205638,-0.0620552217024,0.001,371.9832166,6000.0,0.0,300.0,0.0
1513267326949902015,,724930,,1513267325,128669309,'',0.296705972839,0.234660533881,0.000962608344807,-0.0620454389579,0.001,371.983422861,6000.0,0.0,300.0,0.0
1513267326959750085,,724931,,1513267325,138669309,'',0.296705972839,0.234655301063,0.00106189284695,-0.062050671776,0.001,371.990671834,6000.0,0.0,300.0,0.0
1513267326969706331,,724932,,1513267325,148669309,'',0.296705972839,0.234664851142,0.000869317444529,-0.0620411216971,0.001,371.984915205,6000.0,0.0,300.0,0.0
1513267326979946714,,724933,,1513267325,158669309,'',0.296705972839,0.234672669304,0.000711665797104,-0.0620333035352,0.001,371.984610982,6000.0,0.0,300.0,0.0
1513267326989913575,,724934,,1513267325,168669309,'',0.296705972839,0.234679070185,0.000582593332197,-0.0620269026542,0.001,371.985237662,6000.0,0.0,300.0,0.0
1513267326999763083,,724935,,1513267325,178669309,'',0.296705972839,0.234657473018,0.00102206912533,-0.0620484998208,0.001,371.983491647,6000.0,0.0,300.0,0.0
1513267327009559694,,724936,,1513267325,188669309,'',0.296705972839,0.234666629211,0.000836715797379,-0.0620393436283,0.001,371.984803873,6000.0,0.0,300.0,0.0
1513267327019586760,,724937,,1513267325,198669309,'',0.296705972839,0.234661314993,0.000947051247656,-0.0620446578459,0.001,371.983771674,6000.0,0.0,300.0,0.0
1513267327029484283,,724938,,1513267325,208669309,'',0.296705972839,0.234655819971,0.00105779032662,-0.0620501528681,0.001,371.983646281,6000.0,0.0,300.0,0.0
1513267327039984439,,724939,,1513267325,218669309,'',0.296705972839,0.234665281034,0.000865855696452,-0.0620406918054,0.001,371.983638444,6000.0,0.0,300.0,0.0
1513267327049804521,,724940,,1513267325,228669309,'',0.296705972839,0.234659359347,0.000985130249673,-0.0620466134923,0.001,371.983024107,6000.0,0.0,300.0,0.0
1513267327059639531,,724941,,1513267325,238669309,'',0.296705972839,0.234668172693,0.000806491208742,-0.0620378001464,0.001,371.984403041,6000.0,0.0,300.0,0.0
1513267327069570285,,724942,,1513267325,248669309,'',0.296705972839,0.234675376681,0.00066047247568,-0.0620305961578,0.001,371.988680191,6000.0,0.0,300.0,0.0
1513267327079626205,,724943,,1513267325,258669309,'',0.296705972839,0.234666185189,-0.0144992343864,-0.06203978765,0.001,376.606349446,6000.0,0.0,300.0,0.0
1513267327089605681,,724944,,1513267325,268669309,'',0.296705972839,0.234673762725,0.000693499716739,-0.0620322101144,0.001,371.985366929,6000.0,0.0,300.0,0.0
1513267327099675084,,724945,,1513267325,278669309,'',0.296705972839,0.234666561332,0.000841246830039,-0.062039411507,0.001,371.984315115,6000.0,0.0,300.0,0.0
1513267327109473662,,724946,,1513267325,288669309,'',0.296705972839,0.234661251066,0.000947760517947,-0.0620447217734,0.001,371.976059696,6000.0,0.0,300.0,0.0
1513267327119938757,,724947,,1513267325,298669309,'',0.296705972839,0.234669702955,0.000776271701006,-0.0620362698844,0.001,371.984599769,6000.0,0.0,300.0,0.0
1513267327129771241,,724948,,1513267325,308669309,'',0.296705972839,0.234676639294,0.000635533393338,-0.0620293335455,0.001,371.985228252,6000.0,0.0,300.0,0.0
1513267327139783130,,724949,,1513267325,318669309,'',0.296705972839,0.234682319662,0.000520278733393,-0.0620236531775,0.001,371.985742935,6000.0,0.0,300.0,0.0
1513267327149732640,,724950,,1513267325,328669309,'',0.296705972839,0.234686960678,0.000426112519559,-0.0620190121612,0.001,371.990024469,6000.0,0.0,300.0,0.0
1513267327159609356,,724951,,1513267325,338669309,'',0.296705972839,0.23469076958,0.000348829905373,-0.0620152032594,0.001,371.98650856,6000.0,0.0,300.0,0.0
1513267327169613179,,724952,,1513267325,348669309,'',0.296705972839,0.2346938866,0.000285585570181,-0.0620120862392,0.001,371.98695533,6000.0,0.0,300.0,0.0
1513267327179446184,,724953,,1513267325,358669309,'',0.296705972839,0.234683088831,0.000504010552192,-0.0620228840076,0.001,371.992489527,6000.0,0.0,300.0,0.0
1513267327189630082,,724954,,1513267325,368669309,'',0.296705972839,0.234687599957,0.000412599830228,-0.0620183728818,0.001,371.988568742,6000.0,0.0,300.0,0.0
1513267327199488504,,724955,,1513267325,378669309,'',0.296705972839,0.234691292597,0.000337774410156,-0.0620146802419,0.001,371.986555949,6000.0,0.0,300.0,0.0
1513267327210054015,,724956,,1513267325,388669309,'',0.296705972839,0.234679769937,0.000569818584507,-0.0620262029021,0.001,371.981519678,6000.0,0.0,300.0,0.0
1513267327219685450,,724957,,1513267325,398669309,'',0.296705972839,0.23468486924,0.000466750600156,-0.0620211035995,0.001,371.985940241,6000.0,0.0,300.0,0.0
1513267327229921257,,724958,,1513267325,408669309,'',0.296705972839,0.234675687165,0.000655400493453,-0.0620302856743,0.001,371.989286489,6000.0,0.0,300.0,0.0
1513267327240028279,,724959,,1513267325,418669309,'',0.296705972839,0.234666914822,0.000820744919454,-0.0620390580168,0.001,371.984347143,6000.0,0.0,300.0,0.0
1513267327249882955,,724960,,1513267325,428669309,'',0.296705972839,0.23466048917,0.000952890722996,-0.0620454836692,0.001,371.989306982,6000.0,0.0,300.0,0.0
1513267327260045504,,724961,,1513267325,438669309,'',0.296705972839,0.234669080586,0.000780440147608,-0.0620368922533,0.001,371.989763159,6000.0,0.0,300.0,0.0
1513267327270035212,,724962,,1513267325,448669309,'',0.296705972839,0.234690438769,0.000351135733557,-0.0620155340701,0.001,371.988958864,6000.0,0.0,300.0,0.0
1513267327280034674,,724963,,1513267325,458669309,'',0.296705972839,0.234693616929,0.000287450039666,-0.0620123559097,0.001,371.986745613,6000.0,0.0,300.0,0.0
1513267327290018587,,724964,,1513267325,468669309,'',0.296705972839,0.234696218609,0.000235316179491,-0.0620097542301,0.001,371.987002282,6000.0,0.0,300.0,0.0
1513267327299777804,,724965,,1513267325,478669309,'',0.296705972839,0.234684359563,0.000466273894176,-0.0620216132765,0.001,371.985479918,6000.0,0.0,300.0,0.0
1513267327309683293,,724966,,1513267325,488669309,'',0.296705972839,0.234688631373,0.000381882116449,-0.0620173414657,0.001,371.986427677,6000.0,0.0,300.0,0.0
1513267327319642646,,724967,,1513267325,498669309,'',0.296705972839,0.234677900281,0.000600414327009,-0.0620280725582,0.001,371.985518011,6000.0,0.0,300.0,0.0
1513267327329816351,,724968,,1513267325,508669309,'',0.296705972839,0.234683351967,0.000491528547267,-0.0620226208716,0.001,371.98580055,6000.0,0.0,300.0,0.0
1513267327339771386,,724969,,1513267325,518669309,'',0.296705972839,0.234687814985,0.000402389320025,-0.0620181578541,0.001,371.986358472,6000.0,0.0,300.0,0.0
1513267327349602212,,724970,,1513267325,528669309,'',0.296705972839,0.234704144262,7.71908050632e-05,-0.0620018285773,0.001,371.988299737,6000.0,0.0,300.0,0.0
1513267327359606052,,724971,,1513267325,538669309,'',0.296705972839,0.234691445397,0.000336623480866,-0.0620145274416,0.001,371.98806418,6000.0,0.0,300.0,0.0
1513267327369581092,,724972,,1513267325,548669309,'',0.296705972839,0.234680256477,0.000565447679195,-0.0620257163622,0.001,371.984666326,6000.0,0.0,300.0,0.0
1513267327379899030,,724973,,1513267325,558669309,'',0.296705972839,0.234699251377,0.000184220208053,-0.0620067214623,0.001,371.987327926,6000.0,0.0,300.0,0.0
1513267327389735004,,724974,,1513267325,568669309,'',0.296705972839,0.234699632126,-0.0151707284061,-0.0620063407132,0.001,376.526965019,6000.0,0.0,300.0,0.0
1513267327399733797,,724975,,1513267325,578669309,'',0.296705972839,0.234701142589,0.00014570470712,-0.0620048302499,0.001,371.987448431,6000.0,0.0,300.0,0.0
1513267327409659639,,724976,,1513267325,588669309,'',0.296705972839,0.234702379365,0.000119278727717,-0.0620035934743,0.001,371.987560492,6000.0,0.0,300.0,0.0
1513267327419759028,,724977,,1513267325,598669309,'',0.296705972839,0.234688869897,0.000391587480461,-0.0620171029418,0.001,371.986810131,6000.0,0.0,300.0,0.0
1513267327429637567,,724978,,1513267325,608669309,'',0.296705972839,0.234692325971,0.000320701101396,-0.0620136468684,0.001,371.988862736,6000.0,0.0,300.0,0.0
1513267327439481039,,724979,,1513267325,618669309,'',0.296705972839,0.234695161848,0.000262535354586,-0.0620108109908,0.001,371.986962578,6000.0,0.0,300.0,0.0
1513267327449933909,,724980,,1513267325,628669309,'',0.296705972839,0.234697483331,0.000214920188198,-0.062008489508,0.001,371.987300396,6000.0,0.0,300.0,0.0
1513267327459846581,,724981,,1513267325,638669309,'',0.296705972839,0.234699380174,0.000176014669791,-0.0620065926651,0.001,371.98844082,6000.0,0.0,300.0,0.0
1513267327469641421,,724982,,1513267325,648669309,'',0.296705972839,0.234687807573,0.000409453450672,-0.0620181652662,0.001,371.988945873,6000.0,0.0,300.0,0.0
1513267327480015769,,724983,,1513267325,658669309,'',0.296705972839,0.23469146327,0.000335184245039,-0.0620145095695,0.001,371.986451009,6000.0,0.0,300.0,0.0
1513267327489907402,,724984,,1513267325,668669309,'',0.296705972839,0.234679341275,-0.0147654089239,-0.0620266315636,0.001,376.611732092,6000.0,0.0,300.0,0.0
1513267327499795221,,724985,,1513267325,678669309,'',0.296705972839,0.234684522249,0.000476053751681,-0.0620214505896,0.001,371.986489865,6000.0,0.0,300.0,0.0
1513267327509733935,,724986,,1513267325,688669309,'',0.296705972839,0.234688773767,0.000389706028765,-0.0620171990721,0.001,371.986327724,6000.0,0.0,300.0,0.0
1513267327519738845,,724987,,1513267325,698669309,'',0.296705972839,0.23469122205,0.00034403528273,-0.0620147507891,0.001,371.986451826,6000.0,0.0,300.0,0.0
1513267327529509422,,724988,,1513267325,708669309,'',0.296705972839,0.234707631167,8.47764223177e-06,-0.0619983416723,0.001,371.9880788,6000.0,0.0,300.0,0.0
1513267327539902428,,724989,,1513267325,718669309,'',0.296705972839,0.234692605507,-0.0150331528394,-0.0620133673324,0.001,376.604244304,6000.0,0.0,300.0,0.0
1513267327549910582,,724990,,1513267325,728669309,'',0.296705972839,0.234722893849,-0.000298403175128,-0.0619830789899,0.001,371.989244905,6000.0,0.0,300.0,0.0
1513267327559897438,,724991,,1513267325,738669309,'',0.296705972839,0.23470565001,4.89167809119e-05,-0.0620003228293,0.001,371.987856836,6000.0,0.0,300.0,0.0
1513267327569993976,,724992,,1513267325,748669309,'',0.296705972839,0.234706068613,4.00592303585e-05,-0.0619999042265,0.001,371.988101967,6000.0,0.0,300.0,0.0
1513267327579823626,,724993,,1513267325,758669309,'',0.296705972839,0.234706411816,3.27971046315e-05,-0.0619995610226,0.001,371.98793491,6000.0,0.0,300.0,0.0
1513267327589670029,,724994,,1513267325,768669309,'',0.296705972839,0.234705835778,4.41829128425e-05,-0.0620001370615,0.001,371.98788608,6000.0,0.0,300.0,0.0
1513267327599803508,,724995,,1513267325,778669309,'',0.296705972839,0.234706221332,3.61702943894e-05,-0.0619997515071,0.001,371.987928924,6000.0,0.0,300.0,0.0
1513267327609623811,,724996,,1513267325,788669309,'',0.296705972839,0.234704832009,6.04780402695e-05,-0.0620011408302,0.001,371.988202891,6000.0,0.0,300.0,0.0
1513267327619652939,,724997,,1513267325,798669309,'',0.296705972839,0.234690887976,0.000339572121411,-0.0620150848635,0.001,371.986618967,6000.0,0.0,300.0,0.0
1513267327629473839,,724998,,1513267325,808669309,'',0.296705972839,0.234693985463,0.000277967820734,-0.0620119873762,0.001,371.986697945,6000.0,0.0,300.0,0.0
1513267327639999147,,724999,,1513267325,818669309,'',0.296705972839,0.234682279941,0.00051514178646,-0.0620236928979,0.001,371.984802179,6000.0,0.0,300.0,0.0
1513267327649582641,,725000,,1513267325,828669309,'',0.296705972839,0.234673813301,0.000687169168366,-0.0620321595385,0.001,371.984772828,6000.0,0.0,300.0,0.0
1513267327659939117,,725001,,1513267325,838669309,'',0.296705972839,0.234680007365,0.000562526163926,-0.0620259654739,0.001,371.985492623,6000.0,0.0,300.0,0.0
1513267327669836697,,725002,,1513267325,848669309,'',0.296705972839,0.234697969766,0.000198117232847,-0.0620080030733,0.001,371.987044276,6000.0,0.0,300.0,0.0
1513267327679806131,,725003,,1513267325,858669309,'',0.296705972839,0.234699778904,0.000162246474469,-0.0620061939351,0.001,371.988220463,6000.0,0.0,300.0,0.0
1513267327689736051,,725004,,1513267325,868669309,'',0.296705972839,0.234701262623,0.000132827969853,-0.0620047102157,0.001,371.987537527,6000.0,0.0,300.0,0.0
1513267327699617258,,725005,,1513267325,878669309,'',0.296705972839,0.234687664421,0.000408034842948,-0.0620183084183,0.001,371.986197584,6000.0,0.0,300.0,0.0
1513267327709538865,,725006,,1513267325,888669309,'',0.296705972839,0.234676824071,0.000627508065563,-0.0620291487683,0.001,371.985426781,6000.0,0.0,300.0,0.0
1513267327719444566,,725007,,1513267325,898669309,'',0.296705972839,0.234682462298,0.000513882755194,-0.0620235105413,0.001,371.988844332,6000.0,0.0,300.0,0.0
1513267327729793843,,725008,,1513267325,908669309,'',0.296705972839,0.234701624181,0.000130239863985,-0.0620043486585,0.001,371.987566066,6000.0,0.0,300.0,0.0
1513267327739859499,,725009,,1513267325,918669309,'',0.296705972839,0.234702773933,0.000106612082918,-0.0620031989059,0.001,371.987467514,6000.0,0.0,300.0,0.0
1513267327749772379,,725010,,1513267325,928669309,'',0.296705972839,0.23471818258,-0.000205699593063,-0.0619877902587,0.001,371.987620243,6000.0,0.0,300.0,0.0
1513267327759729949,,725011,,1513267325,938669309,'',0.296705972839,0.234716328869,-0.000168392540209,-0.0619896439697,0.001,371.987542459,6000.0,0.0,300.0,0.0
1513267327769660058,,725012,,1513267325,948669309,'',0.296705972839,0.234742744042,0.0146424790423,-0.0619632287975,0.001,367.36919025,6000.0,0.0,300.0,0.0
1513267327779596657,,725013,,1513267325,958669309,'',0.296705972839,0.234692030801,-0.0150239021845,-0.0620139420384,0.001,376.604198941,6000.0,0.0,300.0,0.0
1513267327789465744,,725014,,1513267325,968669309,'',0.296705972839,0.234680703626,0.000551107073958,-0.0620252692126,0.001,371.98193551,6000.0,0.0,300.0,0.0
1513267327799464405,,725015,,1513267325,978669309,'',0.296705972839,0.234685628614,0.000451533395003,-0.062020344225,0.001,371.985781974,6000.0,0.0,300.0,0.0
1513267327809877969,,725016,,1513267325,988669309,'',0.296705972839,0.234704523633,7.02074059562e-05,-0.0620014492057,0.001,371.987774851,6000.0,0.0,300.0,0.0
1513267327819918823,,725017,,1513267325,998669309,'',0.296705972839,0.234717786734,-0.000194627328202,-0.0619881861052,0.001,371.988727081,6000.0,0.0,300.0,0.0
1513267327829784068,,725018,,1513267326,8669309,'',0.296705972839,0.234730204215,-0.000446456537786,-0.0619757686241,0.001,371.987355196,6000.0,0.0,300.0,0.0
1513267327839623441,,725019,,1513267326,18669309,'',0.296705972839,0.234712191581,-8.37560704456e-05,-0.0619937812576,0.001,371.988350777,6000.0,0.0,300.0,0.0
1513267327849531077,,725020,,1513267326,28669309,'',0.296705972839,0.234711424438,-6.85655097818e-05,-0.061994548401,0.001,371.988339611,6000.0,0.0,300.0,0.0
1513267327859909583,,725021,,1513267326,38669309,'',0.296705972839,0.234725328869,-0.000349440017099,-0.0619806439699,0.001,371.989639885,6000.0,0.0,300.0,0.0
1513267327869801511,,725022,,1513267326,48669309,'',0.296705972839,0.234722185298,-0.000286188761013,-0.0619837875413,0.001,371.987445556,6000.0,0.0,300.0,0.0
1513267327879844922,,725023,,1513267326,58669309,'',0.296705972839,0.23473379748,-0.000524311193015,-0.0619721753592,0.001,371.990105541,6000.0,0.0,300.0,0.0
1513267327889922045,,725024,,1513267326,68669309,'',0.296705972839,0.234714561349,-0.000135718537818,-0.0619914114904,0.001,371.988664269,6000.0,0.0,300.0,0.0
1513267327899691898,,725025,,1513267326,78669309,'',0.296705972839,0.234713364614,-0.000111107955166,-0.0619926082246,0.001,371.988595265,6000.0,0.0,300.0,0.0
1513267327909619847,,725026,,1513267326,88669309,'',0.296705972839,0.234697243909,-0.0151305108932,-0.0620087289305,0.001,376.622098319,6000.0,0.0,300.0,0.0
1513267327919575848,,725027,,1513267326,98669309,'',0.296705972839,0.234699187817,0.000175856604018,-0.0620067850222,0.001,371.987156057,6000.0,0.0,300.0,0.0
1513267327929968980,,725028,,1513267326,108669309,'',0.296705972839,0.234714440605,-0.000129273017167,-0.0619915322344,0.001,371.98870061,6000.0,0.0,300.0,0.0
1513267327939902648,,725029,,1513267326,118669309,'',0.296705972839,0.234698602107,0.000181953531009,-0.0620073707317,0.001,371.988529396,6000.0,0.0,300.0,0.0
1513267327949863308,,725030,,1513267326,128669309,'',0.296705972839,0.234687443993,0.000408913061984,-0.0620185288461,0.001,371.98593771,6000.0,0.0,300.0,0.0
1513267327959852943,,725031,,1513267326,138669309,'',0.296705972839,0.234691164517,0.000334764222578,-0.0620148083223,0.001,371.986863049,6000.0,0.0,300.0,0.0
1513267327969763066,,725032,,1513267326,148669309,'',0.296705972839,0.234681654159,0.000530817703105,-0.0620243186805,0.001,371.989367942,6000.0,0.0,300.0,0.0
1513267327979700243,,725033,,1513267326,158669309,'',0.296705972839,0.234686425486,0.000434545057103,-0.0620195473528,0.001,371.986397847,6000.0,0.0,300.0,0.0
1513267327989536797,,725034,,1513267326,168669309,'',0.296705972839,0.234691450278,0.000332424732002,-0.0620145225613,0.001,371.986666633,6000.0,0.0,300.0,0.0
1513267327999587041,,725035,,1513267326,178669309,'',0.296705972839,0.234708935987,-2.1214123733e-05,-0.0619970368518,0.001,371.988016678,6000.0,0.0,300.0,0.0
1513267328009514143,,725036,,1513267326,188669309,'',0.296705972839,0.234708759266,-1.73658432052e-05,-0.0619972135732,0.001,371.988129246,6000.0,0.0,300.0,0.0
1513267328019549313,,725037,,1513267326,198669309,'',0.296705972839,0.234708614655,-1.4216800146e-05,-0.061997358184,0.001,371.988121643,6000.0,0.0,300.0,0.0
1513267328029454170,,725038,,1513267326,208669309,'',0.296705972839,0.234735573953,-0.000555743807841,-0.0619703988858,0.001,371.990729373,6000.0,0.0,300.0,0.0
1513267328039967855,,725039,,1513267326,218669309,'',0.296705972839,0.234717196761,-0.000181996289416,-0.0619887760782,0.001,371.988741314,6000.0,0.0,300.0,0.0
1513267328049694515,,725040,,1513267326,228669309,'',0.296705972839,0.234701329919,0.000135154925466,-0.0620046429203,0.001,371.987465404,6000.0,0.0,300.0,0.0
1513267328059725402,,725041,,1513267326,238669309,'',0.296705972839,0.234716445892,-0.000167853123445,-0.0619895269472,0.001,371.98873596,6000.0,0.0,300.0,0.0
1513267328069621674,,725042,,1513267326,248669309,'',0.296705972839,0.234714907026,-0.000137407538377,-0.0619910658133,0.001,371.98869559,6000.0,0.0,300.0,0.0
1513267328079650326,,725043,,1513267326,258669309,'',0.296705972839,0.234713649886,-0.000112535746445,-0.0619923229531,0.001,371.988614892,6000.0,0.0,300.0,0.0
1513267328089709694,,725044,,1513267326,268669309,'',0.296705972839,0.234697547014,-0.0151323650328,-0.0620084258255,0.001,376.600260806,6000.0,0.0,300.0,0.0
1513267328099783081,,725045,,1513267326,278669309,'',0.296705972839,0.234714207715,-0.00012412435839,-0.0619917651236,0.001,371.988595762,6000.0,0.0,300.0,0.0
1513267328109747525,,725046,,1513267326,288669309,'',0.296705972839,0.234686988473,0.000424516120782,-0.0620189843658,0.001,371.988859227,6000.0,0.0,300.0,0.0
1513267328119541126,,725047,,1513267326,298669309,'',0.296705972839,0.234690792416,0.000347521383031,-0.0620151804232,0.001,371.986485569,6000.0,0.0,300.0,0.0
1513267328129489955,,725048,,1513267326,308669309,'',0.296705972839,0.234693905765,0.000284504791936,-0.0620120670742,0.001,371.986977357,6000.0,0.0,300.0,0.0
1513267328139876950,,725049,,1513267326,318669309,'',0.296705972839,0.234654561683,-0.0142682518493,-0.0620514111564,0.001,376.60536413,6000.0,0.0,300.0,0.0
1513267328149860498,,725050,,1513267326,328669309,'',0.296705972839,0.234664225833,0.000882272228816,-0.0620417470062,0.001,371.990485477,6000.0,0.0,300.0,0.0
1513267328159979313,,725051,,1513267326,338669309,'',0.296705972839,0.234685576252,0.000448706895775,-0.0620203965866,0.001,371.986038006,6000.0,0.0,300.0,0.0
1513267328169863603,,725052,,1513267326,348669309,'',0.296705972839,0.234689636592,0.000367319408395,-0.0620163362466,0.001,371.986191926,6000.0,0.0,300.0,0.0
1513267328179883937,,725053,,1513267326,358669309,'',0.296705972839,0.234667172264,0.000818089502363,-0.0620388005755,0.001,371.985382515,6000.0,0.0,300.0,0.0
1513267328189774345,,725054,,1513267326,368669309,'',0.296705972839,0.234659717654,0.000965956527829,-0.0620462551852,0.001,371.99080522,6000.0,0.0,300.0,0.0
1513267328199728448,,725055,,1513267326,378669309,'',0.296705972839,0.234654923117,0.00105881868752,-0.0620510497224,0.001,371.983570255,6000.0,0.0,300.0,0.0
1513267328209597675,,725056,,1513267326,388669309,'',0.296705972839,0.234664547119,0.000866693329927,-0.0620414257197,0.001,371.984322709,6000.0,0.0,300.0,0.0
1513267328220024699,,725057,,1513267326,398669309,'',0.296705972839,0.234672417535,0.000709575085958,-0.0620335553042,0.001,371.98484573,6000.0,0.0,300.0,0.0
1513267328229462009,,725058,,1513267326,408669309,'',0.296705972839,0.234678852421,0.000581114521261,-0.0620271204179,0.001,371.989166822,6000.0,0.0,300.0,0.0
1513267328239927658,,725059,,1513267326,418669309,'',0.296705972839,0.234684131436,0.000475728781913,-0.062021841403,0.001,371.986637474,6000.0,0.0,300.0,0.0
1513267328250015255,,725060,,1513267326,428669309,'',0.296705972839,0.234688452724,0.000389462287333,-0.0620175201151,0.001,371.986754211,6000.0,0.0,300.0,0.0
1513267328259898307,,725061,,1513267326,438669309,'',0.296705972839,0.234691990104,0.000318845048129,-0.0620139827346,0.001,371.986992119,6000.0,0.0,300.0,0.0
1513267328269836952,,725062,,1513267326,448669309,'',0.296705972839,0.234694881036,0.000261132955381,-0.0620110918026,0.001,371.988637172,6000.0,0.0,300.0,0.0
1513267328279807920,,725063,,1513267326,458669309,'',0.296705972839,0.2346972535,0.000213771118143,-0.0620087193388,0.001,371.987080421,6000.0,0.0,300.0,0.0
1513267328289734352,,725064,,1513267326,468669309,'',0.296705972839,0.234699195084,0.000175011007951,-0.0620067777555,0.001,371.987374334,6000.0,0.0,300.0,0.0
1513267328299742153,,725065,,1513267326,478669309,'',0.296705972839,0.234700784935,0.000143272574661,-0.0620051879041,0.001,371.987457924,6000.0,0.0,300.0,0.0
1513267328309839010,,725066,,1513267326,488669309,'',0.296705972839,0.234702084111,0.000117336929259,-0.0620038887277,0.001,371.988288514,6000.0,0.0,300.0,0.0
1513267328319672753,,725067,,1513267326,498669309,'',0.296705972839,0.234703150516,9.60481334258e-05,-0.0620028223228,0.001,371.987630364,6000.0,0.0,300.0,0.0
1513267328329658108,,725068,,1513267326,508669309,'',0.296705972839,0.23468922265,0.000377485440716,-0.0620167501891,0.001,371.986587199,6000.0,0.0,300.0,0.0
1513267328339562877,,725069,,1513267326,518669309,'',0.296705972839,0.234692621013,0.000309028052701,-0.0620133518262,0.001,371.986855435,6000.0,0.0,300.0,0.0
1513267328349499432,,725070,,1513267326,528669309,'',0.296705972839,0.234695398048,0.000253086837064,-0.0620105747914,0.001,371.988706255,6000.0,0.0,300.0,0.0
1513267328359446919,,725071,,1513267326,538669309,'',0.296705972839,0.234697677133,0.000207176425718,-0.0620082957059,0.001,371.987134435,6000.0,0.0,300.0,0.0
1513267328369883413,,725072,,1513267326,548669309,'',0.296705972839,0.234685121288,0.00046478441778,-0.062020851551,0.001,371.98613013,6000.0,0.0,300.0,0.0
1513267328379776684,,725073,,1513267326,558669309,'',0.296705972839,0.234689263081,0.000380502524437,-0.0620167097584,0.001,371.98659039,6000.0,0.0,300.0,0.0
1513267328389857557,,725074,,1513267326,568669309,'',0.296705972839,0.234678718157,0.000596053139093,-0.062027254682,0.001,371.986099509,6000.0,0.0,300.0,0.0
1513267328399950119,,725075,,1513267326,578669309,'',0.296705972839,0.234681796976,0.000530158564999,-0.0620241758627,0.001,371.985657387,6000.0,0.0,300.0,0.0
1513267328409858384,,725076,,1513267326,588669309,'',0.296705972839,0.234715876351,0.0151839962153,-0.0619900964882,0.001,367.463434121,6000.0,0.0,300.0,0.0
1513267328419728558,,725077,,1513267326,598669309,'',0.296705972839,0.234758361474,0.0143287093286,-0.0619476113649,0.001,367.370514127,6000.0,0.0,300.0,0.0
1513267328429710066,,725078,,1513267326,608669309,'',0.296705972839,0.235158572803,0.0676234874703,-0.0615474000359,0.001,349.327433222,6000.0,0.0,300.0,0.0
1513267328439728385,,725079,,1513267326,618669309,'',0.296705972839,0.236120788123,0.124910337002,-0.0605851847163,0.001,325.889585306,6000.0,0.0,300.0,0.0
1513267328449583574,,725080,,1513267326,628669309,'',0.296705972839,0.237624319712,0.17125461327,-0.0590816531271,0.001,302.957406382,6000.0,0.0,300.0,0.0
1513267328459545068,,725081,,1513267326,638669309,'',0.296705972839,0.239500875202,0.194721247817,-0.0572050976369,0.001,284.579691929,6000.0,0.0,300.0,0.0
1513267328469522120,,725082,,1513267326,648669309,'',0.296705972839,0.241486403611,0.185301647043,-0.0552195692279,0.001,275.397251496,6000.0,0.0,300.0,0.0
1513267328480055141,,725083,,1513267326,658669309,'',0.296705972839,0.243274792036,0.164514913029,-0.053431180803,0.001,270.986585644,6000.0,0.0,300.0,0.0
1513267328489983551,,725084,,1513267326,668669309,'',0.296705972839,0.24474900233,0.134733913716,-0.0519569705094,0.001,271.159097878,6000.0,0.0,300.0,0.0
1513267328499974115,,725085,,1513267326,678669309,'',0.296705972839,0.245972819585,0.110008357009,-0.0507331532543,0.001,271.326424269,6000.0,0.0,300.0,0.0
1513267328510037396,,725086,,1513267326,688669309,'',0.296705972839,0.246960665701,0.0900530708969,-0.0497453071379,0.001,272.055593607,6000.0,0.0,300.0,0.0
1513267328519876769,,725087,,1513267326,698669309,'',0.296705972839,0.247767647723,0.0737513849695,-0.0489383251161,0.001,271.93174093,6000.0,0.0,300.0,0.0
1513267328529650006,,725088,,1513267326,708669309,'',0.296705972839,0.248473894444,0.0748298493544,-0.048232078395,0.001,266.825996968,6000.0,0.0,300.0,0.0
1513267328539781909,,725089,,1513267326,718669309,'',0.296705972839,0.249347022442,0.103228547128,-0.0473589503971,0.001,253.993533522,6000.0,0.0,300.0,0.0
1513267328549469500,,725090,,1513267326,728669309,'',0.296705972839,0.250585458693,0.139588621033,-0.046120514146,0.001,234.669168565,6000.0,0.0,300.0,0.0
1513267328559877405,,725091,,1513267326,738669309,'',0.296705972839,0.252162145099,0.169110939696,-0.0445438277399,0.001,217.30287237,6000.0,0.0,300.0,0.0
1513267328569858203,,725092,,1513267326,748669309,'',0.296705972839,0.253948298721,0.17906113995,-0.0427576741181,0.001,202.443360578,6000.0,0.0,300.0,0.0
1513267328579816931,,725093,,1513267326,758669309,'',0.296705972839,0.255695891966,0.174446379785,-0.0410100808729,0.001,193.465625253,6000.0,0.0,300.0,0.0
1513267328589887643,,725094,,1513267326,768669309,'',0.296705972839,0.257275864209,0.142528420042,-0.0394301086303,0.001,193.783837566,6000.0,0.0,300.0,0.0
1513267328599664558,,725095,,1513267326,778669309,'',0.296705972839,0.25859792286,0.115818521085,-0.038108049979,0.001,193.762042933,6000.0,0.0,300.0,0.0
1513267328609529653,,725096,,1513267326,788669309,'',0.296705972839,0.259758462472,0.107716747924,-0.0369475103674,0.001,189.923337923,6000.0,0.0,300.0,0.0
1513267328619942884,,725097,,1513267326,798669309,'',0.296705972839,0.260671355821,0.0892734081756,-0.0360346170181,0.001,189.315981654,6000.0,0.0,300.0,0.0
1513267328630017817,,725098,,1513267326,808669309,'',0.296705972839,0.261517011908,0.0875329737531,-0.0351889609307,0.001,184.689943507,6000.0,0.0,300.0,0.0
1513267328639862470,,725099,,1513267326,818669309,'',0.296705972839,0.262501938247,0.113669262255,-0.0342040345925,0.001,170.98386059,6000.0,0.0,300.0,0.0
1513267328649712478,,725100,,1513267326,828669309,'',0.296705972839,0.263736952697,0.134749503994,-0.0329690201416,0.001,157.135448846,6000.0,0.0,300.0,0.0
1513267328659918423,,725101,,1513267326,838669309,'',0.296705972839,0.265341834147,0.179055907804,-0.0313641386918,0.001,134.198251252,6000.0,0.0,300.0,0.0
1513267328669868557,,725102,,1513267326,848669309,'',0.296705972839,0.26719237463,0.187703343765,-0.0295135982095,0.001,120.310831427,6000.0,0.0,300.0,0.0
1513267328679858056,,725103,,1513267326,858669309,'',0.296705972839,0.269088914571,0.18007635073,-0.0276170582683,0.001,111.510558954,6000.0,0.0,300.0,0.0
1513267328689873660,,725104,,1513267326,868669309,'',0.296705972839,0.270870309842,0.174779366583,-0.025835662997,0.001,103.590550474,6000.0,0.0,300.0,0.0
1513267328699815293,,725105,,1513267326,878669309,'',0.296705972839,0.272511067837,0.156978593815,-0.0241949050023,0.001,98.8810514744,6000.0,0.0,300.0,0.0
1513267328709688359,,725106,,1513267326,888669309,'',0.296705972839,0.274005014596,0.142143634135,-0.0227009582427,0.001,93.470112848,6000.0,0.0,300.0,0.0
1513267328719466566,,725107,,1513267326,898669309,'',0.296705972839,0.275380401832,0.129705558845,-0.0213255710067,0.001,88.8358571546,6000.0,0.0,300.0,0.0
1513267328729616515,,725108,,1513267326,908669309,'',0.296705972839,0.276645572128,0.134839341442,-0.0200604007112,0.001,79.7073447567,6000.0,0.0,300.0,0.0
1513267328739920853,,725109,,1513267326,918669309,'',0.296705972839,0.278085408637,0.151785306536,-0.0186205642018,0.001,65.8274200006,6000.0,0.0,300.0,0.0
1513267328749917071,,725110,,1513267326,928669309,'',0.296705972839,0.279728821943,0.179964643318,-0.0169771508958,0.001,48.8508869223,6000.0,0.0,300.0,0.0
1513267328761523355,,725111,,1513267326,938669309,'',0.296705972839,0.28176602645,0.21553272057,-0.0149399463891,0.001,26.0107268826,6000.0,0.0,300.0,0.0
1513267328769664505,,725112,,1513267326,948669309,'',0.296705972839,0.28406673129,0.230436303904,-0.0126392415495,0.001,8.0241347499,6000.0,0.0,300.0,0.0
1513267328780025379,,725113,,1513267326,958669309,'',0.296705972839,0.286403868322,0.229255532112,-0.010302104517,0.001,-7.30740326615,6000.0,0.0,300.0,0.0
1513267328789946908,,725114,,1513267326,968669309,'',0.296705972839,0.288573417485,0.200772991544,-0.00813255535404,0.001,-11.3744569422,6000.0,0.0,300.0,0.0
1513267328799834691,,725115,,1513267326,978669309,'',0.296705972839,0.290585682208,0.190813079958,-0.00612029063089,0.001,-20.8762093734,6000.0,0.0,300.0,0.0
1513267328809690975,,725116,,1513267326,988669309,'',0.296705972839,0.292375030317,0.170010797117,-0.00433094252161,0.001,-26.5737615321,6000.0,0.0,300.0,0.0
1513267328819899797,,725117,,1513267326,998669309,'',0.296705972839,0.293894597312,0.13931328089,-0.00281137552672,0.001,-24.2481585571,6000.0,0.0,300.0,0.0
1513267328829646325,,725118,,1513267327,8669309,'',0.296705972839,0.29520261091,0.128231103081,-0.00150336192942,0.001,-28.7892856882,6000.0,0.0,300.0,0.0
1513267328839618215,,725119,,1513267327,18669309,'',0.296705972839,0.296467980819,0.133359314542,-0.000237992019608,0.001,-38.7407930967,6000.0,0.0,300.0,0.0
1513267328849699747,,725120,,1513267327,28669309,'',0.296705972839,0.297681779829,0.124179797882,0.00097580699029,0.001,-43.2686970108,6000.0,0.0,300.0,0.0
1513267328859843784,,725121,,1513267327,38669309,'',0.296705972839,0.298939350501,0.129467115214,0.0,0.001,0.0,6000.0,0.0,300.0,0.0
1513267328869650603,,725122,,1513267327,48669309,'',0.296705972839,0.300216973759,0.134347587359,0.0,0.001,0.0,6000.0,0.0,300.0,0.0
1513267328879707203,,725123,,1513267327,58669309,'',0.296705972839,0.301480373049,0.124173665709,0.0,0.001,0.0,6000.0,0.0,300.0,0.0
1513267328890024865,,725124,,1513267327,68669309,'',0.296705972839,0.302750416788,0.129206765559,0.0,0.001,0.0,6000.0,0.0,300.0,0.0
1513267328900065281,,725125,,1513267327,78669309,'',0.296705972839,0.30395120264,0.120289585561,0.0,0.001,0.0,6000.0,0.0,300.0,0.0
1513267328909826345,,725126,,1513267327,88669309,'',0.296705972839,0.305033492616,0.0984242737215,0.0,0.001,0.0,6000.0,0.0,300.0,0.0
1513267328919862024,,725127,,1513267327,98669309,'',0.296705972839,0.306068602149,0.0928622426895,0.0,0.001,0.0,6000.0,0.0,300.0,0.0
1513267328929727740,,725128,,1513267327,108669309,'',0.296705972839,0.306971013077,0.0746318027196,0.0,0.001,0.0,6000.0,0.0,300.0,0.0
1513267328939757094,,725129,,1513267327,118669309,'',0.296705972839,0.307780053002,0.0736346353605,0.0,0.001,0.0,6000.0,0.0,300.0,0.0
1513267328949613381,,725130,,1513267327,128669309,'',0.296705972839,0.308497846013,0.074474709123,0.0,0.001,0.0,6000.0,0.0,300.0,0.0
1513267328959739022,,725131,,1513267327,138669309,'',0.296705972839,0.309181928224,0.0760041840744,0.0124759553854,0.001,-97.768724017,6000.0,0.0,300.0,0.0
1513267328969734588,,725132,,1513267327,148669309,'',0.296705972839,0.309838508194,0.0627345037573,0.0131325353548,0.001,-97.7862896513,6000.0,0.0,300.0,0.0
1513267328979610891,,725133,,1513267327,158669309,'',0.296705972839,0.310430379462,0.0661161800258,0.0137244066228,0.001,-102.305751098,6000.0,0.0,300.0,0.0
1513267328989666059,,725134,,1513267327,168669309,'',0.296705972839,0.311023852316,0.0541282630166,0.0143178794765,0.001,-102.212446839,6000.0,0.0,300.0,0.0
1513267328999943096,,725135,,1513267327,178669309,'',0.296705972839,0.311619434982,0.0574388362616,0.0149134621427,0.001,-106.418626185,6000.0,0.0,300.0,0.0
1513267329009961419,,725136,,1513267327,188669309,'',0.296705972839,0.312177584233,0.0461707099129,0.0154716113937,0.001,-106.693106878,6000.0,0.0,300.0,0.0
1513267329019931570,,725137,,1513267327,198669309,'',0.296705972839,0.312702526565,0.0509160166601,0.0159965537255,0.001,-111.32850899,6000.0,0.0,300.0,0.0
1513267329029963507,,725138,,1513267327,208669309,'',0.296705972839,0.313159478045,0.0416839327209,0.0164535052064,0.001,-111.275060601,6000.0,0.0,300.0,0.0
1513267329039814232,,725139,,1513267327,218669309,'',0.296705972839,0.31353363959,0.0341245069829,0.016827666751,0.001,-111.191577054,6000.0,0.0,300.0,0.0
1513267329049962494,,725140,,1513267327,228669309,'',0.296705972839,0.313797374187,0.013450240892,0.0170914013483,0.001,-106.513676121,6000.0,0.0,300.0,0.0
1513267329060015735,,725141,,1513267327,238669309,'',0.296705972839,0.313931207163,0.010745982482,0.0172252343241,0.001,-106.581606927,6000.0,0.0,300.0,0.0
1513267329070075993,,725142,,1513267327,248669309,'',0.296705972839,0.313998362521,-0.00595307726058,0.0172923896818,0.001,-101.956857327,6000.0,0.0,300.0,0.0
1513267329079925895,,725143,,1513267327,258669309,'',0.296705972839,0.313944897435,-0.0048735732937,0.0172389245957,0.001,-101.998644698,6000.0,0.0,300.0,0.0
1513267329089890576,,725144,,1513267327,268669309,'',0.296705972839,0.313803749715,-0.0173653923327,0.0170977768757,0.001,-97.4703982735,6000.0,0.0,300.0,0.0
1513267329099800615,,725145,,1513267327,278669309,'',0.296705972839,0.313535936486,-0.0273039099388,0.0168299636472,0.001,-92.7657135352,6000.0,0.0,300.0,0.0
1513267329109706871,,725146,,1513267327,288669309,'',0.296705972839,0.313205133914,-0.0359807043257,0.0164991610753,0.001,-88.0529224914,6000.0,0.0,300.0,0.0
1513267329119673495,,725147,,1513267327,298669309,'',0.296705972839,0.312812343088,-0.0433891739945,0.0161063702489,0.001,-83.573539867,6000.0,0.0,300.0,0.0
1513267329129619595,,725148,,1513267327,308669309,'',0.296705972839,0.312366033453,-0.0497134952822,0.0156600606144,0.001,-78.9572291348,6000.0,0.0,300.0,0.0
1513267329140154401,,725149,,1513267327,318669309,'',0.296705972839,0.311904927181,-0.0557409803498,0.0151989543418,0.001,-74.4752611896,6000.0,0.0,300.0,0.0
1513267329150174114,,725150,,1513267327,328669309,'',0.296705972839,0.311418083037,-0.0459078555527,0.0147121101982,0.001,-74.7398313607,6000.0,0.0,300.0,0.0
1513267329159912431,,725151,,1513267327,338669309,'',0.296705972839,0.310964005471,-0.0367331278288,0.0142580326317,0.001,-74.4971860272,6000.0,0.0,300.0,0.0
1513267329169809233,,725152,,1513267327,348669309,'',0.296705972839,0.310522491841,-0.0431623056077,0.0138165190023,0.001,-69.8897049779,6000.0,0.0,300.0,0.0
1513267329179771027,,725153,,1513267327,358669309,'',0.296705972839,0.310095020852,-0.0345213135761,0.0133890480128,0.001,-69.8536218659,6000.0,0.0,300.0,0.0
1513267329189642116,,725154,,1513267327,368669309,'',0.296705972839,0.309647508867,-0.0408245606888,0.0129415360282,0.001,-65.2925886295,6000.0,0.0,300.0,0.0
1513267329199623387,,725155,,1513267327,378669309,'',0.296705972839,0.309238927407,-0.0479173205569,0.0125329545684,0.001,-60.736180008,6000.0,0.0,300.0,0.0
1513267329209515484,,725156,,1513267327,388669309,'',0.296705972839,0.308823312777,-0.0395227569442,0.0121173399377,0.001,-60.8025641701,6000.0,0.0,300.0,0.0
1513267329219832843,,725157,,1513267327,398669309,'',0.296705972839,0.308468790907,-0.0323591200203,0.0117628180681,0.001,-60.8326167023,6000.0,0.0,300.0,0.0
1513267329229696918,,725158,,1513267327,408669309,'',0.296705972839,0.308149556622,-0.0259072092108,0.0114435837834,0.001,-60.9064598509,6000.0,0.0,300.0,0.0
1513267329239750213,,725159,,1513267327,418669309,'',0.296705972839,0.307889466746,-0.0206477698349,0.011183493907,0.001,-60.7638526998,6000.0,0.0,300.0,0.0
1513267329250031551,,725160,,1513267327,428669309,'',0.296705972839,0.307593002309,-0.0300088390511,0.0108870294695,0.001,-56.2763612016,6000.0,0.0,300.0,0.0
1513267329260001326,,725161,,1513267327,438669309,'',0.296705972839,0.307324191849,-0.024577483561,0.0106182190099,0.001,-56.3308979277,6000.0,0.0,300.0,0.0
1513267329269892128,,725162,,1513267327,448669309,'',0.296705972839,0.307103577956,-0.0201199468951,0.0103976051167,0.001,-56.3148929941,6000.0,0.0,300.0,0.0
1513267329279974498,,725163,,1513267327,458669309,'',0.296705972839,0.306936947181,-0.0167563955015,0.0102309743424,0.001,-56.3358046184,6000.0,0.0,300.0,0.0
1513267329289832073,,725164,,1513267327,468669309,'',0.296705972839,0.306747927999,-0.0129373776392,0.0100419551603,0.001,-56.3762874726,6000.0,0.0,300.0,0.0
1513267329299607859,,725165,,1513267327,478669309,'',0.296705972839,0.306605887057,-0.010074843491,0.00989991421799,0.001,-56.4268562302,6000.0,0.0,300.0,0.0
1513267329309974388,,725166,,1513267327,488669309,'',0.296705972839,0.306445559069,-0.00683060352685,0.00973958623024,0.001,-56.3803279933,6000.0,0.0,300.0,0.0
1513267329320065377,,725167,,1513267327,498669309,'',0.296705972839,0.306272932101,-0.0186852638535,0.00956695926189,0.001,-51.7413658845,6000.0,0.0,300.0,0.0
1513267329329814142,,725168,,1513267327,508669309,'',0.296705972839,0.306092478542,-0.0150410989968,0.0093865057026,0.001,-51.7817154937,6000.0,0.0,300.0,0.0
1513267329339939443,,725169,,1513267327,518669309,'',0.296705972839,0.305942985196,-0.0120204287493,0.00923701235714,0.001,-51.8065504367,6000.0,0.0,300.0,0.0
1513267329349927288,,725170,,1513267327,528669309,'',0.296705972839,0.305752156298,-0.00816760942392,0.00904618345918,0.001,-51.8168963608,6000.0,0.0,300.0,0.0
1513267329359913523,,725171,,1513267327,538669309,'',0.296705972839,0.305554065247,-0.0195098036946,0.00884809240813,0.001,-47.2198582407,6000.0,0.0,300.0,0.0
1513267329370075206,,725172,,1513267327,548669309,'',0.296705972839,0.305450184751,-0.00206553954387,0.00874421191239,0.001,-51.8435130941,6000.0,0.0,300.0,0.0
1513267329379893850,,725173,,1513267327,558669309,'',0.296705972839,0.305307616225,-0.0145334908473,0.00860164338574,0.001,-47.2256690229,6000.0,0.0,300.0,0.0
1513267329389773840,,725174,,1513267327,568669309,'',0.296705972839,0.30519013228,-0.0121550412592,0.00848415944075,0.001,-47.3109016117,6000.0,0.0,300.0,0.0
1513267329399535472,,725175,,1513267327,578669309,'',0.296705972839,0.30506599763,-0.0249914214436,0.00836002479093,0.001,-42.6409918836,6000.0,0.0,300.0,0.0
1513267329409877554,,725176,,1513267327,588669309,'',0.296705972839,0.304966532585,-0.00763345399122,0.00826055974583,0.001,-47.2640267656,6000.0,0.0,300.0,0.0
1513267329419848432,,725177,,1513267327,598669309,'',0.296705972839,0.304840816387,-0.0204388009873,0.0081348435484,0.001,-42.652859112,6000.0,0.0,300.0,0.0
1513267329429824109,,725178,,1513267327,608669309,'',0.296705972839,0.304752700138,-0.00331906780261,0.00804672729905,0.001,-47.3032191381,6000.0,0.0,300.0,0.0
1513267329439863529,,725179,,1513267327,618669309,'',0.296705972839,0.304695612739,-0.00215829885311,0.00798963989991,0.001,-47.2869924218,6000.0,0.0,300.0,0.0
1513267329449833062,,725180,,1513267327,628669309,'',0.296705972839,0.304565779285,-0.0148849497899,0.00785980644607,0.001,-42.6675717292,6000.0,0.0,300.0,0.0
1513267329459757687,,725181,,1513267327,638669309,'',0.296705972839,0.304500554577,0.00177635876467,0.00779458173818,0.001,-47.3019844677,6000.0,0.0,300.0,0.0
1513267329469657419,,725182,,1513267327,648669309,'',0.296705972839,0.304392682662,-0.0113917257008,0.00768670982258,0.001,-42.756642289,6000.0,0.0,300.0,0.0
1513267329479798767,,725183,,1513267327,658669309,'',0.296705972839,0.304372955461,0.00435121160298,0.00766698262243,0.001,-47.3127697822,6000.0,0.0,300.0,0.0
1513267329489874301,,725184,,1513267327,668669309,'',0.296705972839,0.30433175895,0.00517683114888,0.00762578611088,0.001,-47.3227103625,6000.0,0.0,300.0,0.0
1513267329499680793,,725185,,1513267327,678669309,'',0.296705972839,0.304284199997,0.00613925348722,0.00757822715782,0.001,-47.3236449715,6000.0,0.0,300.0,0.0
1513267329509555321,,725186,,1513267327,688669309,'',0.296705972839,0.304227989327,-0.00806225072466,0.00752201648753,0.001,-42.7001500915,6000.0,0.0,300.0,0.0
1513267329520000941,,725187,,1513267327,698669309,'',0.296705972839,0.304197415439,-0.0074403396004,0.00749144260045,0.001,-42.7030988091,6000.0,0.0,300.0,0.0
1513267329529931045,,725188,,1513267327,708669309,'',0.296705972839,0.304130628328,-0.00609125842255,0.00742465548852,0.001,-42.7113006733,6000.0,0.0,300.0,0.0
1513267329539863831,,725189,,1513267327,718669309,'',0.296705972839,0.304075941627,-0.00498660219915,0.00736996878763,0.001,-42.7238218751,6000.0,0.0,300.0,0.0
1513267329549728830,,725190,,1513267327,728669309,'',0.296705972839,0.304073115351,0.0104136226254,0.00736714251211,0.001,-47.3427707919,6000.0,0.0,300.0,0.0
1513267329559706908,,725191,,1513267327,738669309,'',0.296705972839,0.304028938727,-0.0040394348198,0.00732296588827,0.001,-42.7450131726,6000.0,0.0,300.0,0.0
1513267329569720722,,725192,,1513267327,748669309,'',0.296705972839,0.304007224509,-0.00360322219912,0.00730125166993,0.001,-42.7235220213,6000.0,0.0,300.0,0.0
1513267329579703543,,725193,,1513267327,758669309,'',0.296705972839,0.304002571124,-0.00350192397828,0.00729659828543,0.001,-42.7185986085,6000.0,0.0,300.0,0.0
1513267329589629968,,725194,,1513267327,768669309,'',0.296705972839,0.303971121957,-0.00286713341136,0.00726514911825,0.001,-42.7274116721,6000.0,0.0,300.0,0.0
1513267329599515302,,725195,,1513267327,778669309,'',0.296705972839,0.303974004355,-0.00291212449586,0.00726803151548,0.001,-42.7679890427,6000.0,0.0,300.0,0.0
1513267329609991270,,725196,,1513267327,788669309,'',0.296705972839,0.303947719316,-0.00238396213605,0.00724174647651,0.001,-42.7431089151,6000.0,0.0,300.0,0.0
1513267329620028797,,725197,,1513267327,798669309,'',0.296705972839,0.303926207528,-0.00195171181201,0.0072202346887,0.001,-42.7327996706,6000.0,0.0,300.0,0.0
1513267329629934400,,725198,,1513267327,808669309,'',0.296705972839,0.303977933037,0.0123443522756,0.00727196019748,0.001,-47.3478295497,6000.0,0.0,300.0,0.0
1513267329640121377,,725199,,1513267327,818669309,'',0.296705972839,0.304006740628,-0.00358727216478,0.00730076778901,0.001,-42.7248595492,6000.0,0.0,300.0,0.0
1513267329649852087,,725200,,1513267327,828669309,'',0.296705972839,0.304097830131,0.00991828671609,0.00739185729209,0.001,-47.2746392071,6000.0,0.0,300.0,0.0
1513267329659980893,,725201,,1513267327,838669309,'',0.296705972839,0.30419963392,0.00786040672825,0.00749366108076,0.001,-47.2768120042,6000.0,0.0,300.0,0.0
1513267329669787468,,725202,,1513267327,848669309,'',0.296705972839,0.304311676562,0.00560636259009,0.00760570372247,0.001,-47.319538381,6000.0,0.0,300.0,0.0
1513267329679674923,,725203,,1513267327,858669309,'',0.296705972839,0.304374588557,0.00433460600095,0.0076686157176,0.001,-47.3142053821,6000.0,0.0,300.0,0.0
1513267329689623678,,725204,,1513267327,868669309,'',0.296705972839,0.304413408727,0.00354852057118,0.00770743588777,0.001,-47.3088685198,6000.0,0.0,300.0,0.0
1513267329699628688,,725205,,1513267327,878669309,'',0.296705972839,0.30441720985,-0.0118714924452,0.00771123701049,0.001,-42.7608586779,6000.0,0.0,300.0,0.0
1513267329709595838,,725206,,1513267327,888669309,'',0.296705972839,0.304421792087,0.00338558546442,0.00771581924756,0.001,-47.2887776013,6000.0,0.0,300.0,0.0
1513267329719540702,,725207,,1513267327,898669309,'',0.296705972839,0.304438099302,0.00305405605687,0.00773212646322,0.001,-47.3107992564,6000.0,0.0,300.0,0.0
1513267329729508818,,725208,,1513267327,908669309,'',0.296705972839,0.304465394091,0.00250035471698,0.00775942125159,0.001,-47.3027302776,6000.0,0.0,300.0,0.0
1513267329739605951,,725209,,1513267327,918669309,'',0.296705972839,0.304448261031,0.00284285122367,0.00774228819164,0.001,-47.3071406318,6000.0,0.0,300.0,0.0
1513267329749438217,,725210,,1513267327,928669309,'',0.296705972839,0.304473720619,0.00232729711669,0.00776774777993,0.001,-47.3064730101,6000.0,0.0,300.0,0.0
1513267329759852440,,725211,,1513267327,938669309,'',0.296705972839,0.304465160531,-0.012843542926,0.00775918769234,0.001,-42.761743511,6000.0,0.0,300.0,0.0
1513267329769804193,,725212,,1513267327,948669309,'',0.296705972839,0.304487551039,0.00204826273488,0.00778157819953,0.001,-47.3033016707,6000.0,0.0,300.0,0.0
1513267329779665069,,725213,,1513267327,958669309,'',0.296705972839,0.30447740774,0.00225449240609,0.00777143490053,0.001,-47.3061389298,6000.0,0.0,300.0,0.0
1513267329789689156,,725214,,1513267327,968669309,'',0.296705972839,0.304427412185,0.00326477997336,0.00772143934607,0.001,-47.3019622884,6000.0,0.0,300.0,0.0
1513267329799512998,,725215,,1513267327,978669309,'',0.296705972839,0.304456647698,0.00267281059448,0.0077506748594,0.001,-47.3082126063,6000.0,0.0,300.0,0.0
1513267329809934042,,725216,,1513267327,988669309,'',0.296705972839,0.304480547187,0.00218888663785,0.00777457434777,0.001,-47.2933921174,6000.0,0.0,300.0,0.0
1513267329819971728,,725217,,1513267327,998669309,'',0.296705972839,0.304529176686,0.00120570023861,0.00782320384657,0.001,-47.3011010714,6000.0,0.0,300.0,0.0
1513267329829769268,,725218,,1513267328,8669309,'',0.296705972839,0.304554867187,0.000687241261019,0.00784889434756,0.001,-47.2985288673,6000.0,0.0,300.0,0.0
1513267329839878642,,725219,,1513267328,18669309,'',0.296705972839,0.304589346667,-7.42110549952e-06,0.00788337382768,0.001,-47.2960432465,6000.0,0.0,300.0,0.0
1513267329849783457,,725220,,1513267328,28669309,'',0.296705972839,0.304672227684,0.0136679918077,0.00796625484497,0.001,-51.9029063672,6000.0,0.0,300.0,0.0
1513267329859741800,,725221,,1513267328,38669309,'',0.296705972839,0.304670767199,-0.00164716273231,0.00796479436004,0.001,-47.3026382983,6000.0,0.0,300.0,0.0
1513267329869654416,,725222,,1513267328,48669309,'',0.296705972839,0.304682695893,-0.00188737681156,0.00797672305382,0.001,-47.2880873724,6000.0,0.0,300.0,0.0
1513267329880001424,,725223,,1513267328,58669309,'',0.296705972839,0.304692410641,-0.00208666793556,0.00798643780181,0.001,-47.2866580866,6000.0,0.0,300.0,0.0
1513267329889929760,,725224,,1513267328,68669309,'',0.296705972839,0.304702369282,-0.00229113530041,0.00799639644315,0.001,-47.2913986305,6000.0,0.0,300.0,0.0
1513267329899899094,,725225,,1513267328,78669309,'',0.296705972839,0.304681786917,-0.00187645846898,0.00797581407804,0.001,-47.3001243331,6000.0,0.0,300.0,0.0
1513267329909864996,,725226,,1513267328,88669309,'',0.296705972839,0.304679790982,-0.00183211559012,0.00797381814336,0.001,-47.3033612189,6000.0,0.0,300.0,0.0
1513267329919746460,,725227,,1513267328,98669309,'',0.296705972839,0.304676325307,-0.00176724007435,0.00797035246846,0.001,-47.2901629402,6000.0,0.0,300.0,0.0
1513267329929769791,,725228,,1513267328,108669309,'',0.296705972839,0.304674377739,-0.00172862323285,0.00796840490037,0.001,-47.2887924955,6000.0,0.0,300.0,0.0
1513267329939810315,,725229,,1513267328,118669309,'',0.296705972839,0.304671675394,-0.00167236641376,0.00796570255539,0.001,-47.2899909809,6000.0,0.0,300.0,0.0
1513267329949569740,,725230,,1513267328,128669309,'',0.296705972839,0.304656619846,-0.00136910709111,0.00795064700651,0.001,-47.2902978178,6000.0,0.0,300.0,0.0
1513267329960022016,,725231,,1513267328,138669309,'',0.296705972839,0.304644316694,-0.00112128846991,0.00793834385509,0.001,-47.2984890522,6000.0,0.0,300.0,0.0
1513267329969984738,,725232,,1513267328,148669309,'',0.296705972839,0.304634198567,-0.000917482128746,0.00792822572812,0.001,-47.2843515889,6000.0,0.0,300.0,0.0
1513267329979938955,,725233,,1513267328,158669309,'',0.296705972839,0.304625959172,-0.000751518500724,0.00791998633257,0.001,-47.2926790782,6000.0,0.0,300.0,0.0
1513267329989951713,,725234,,1513267328,168669309,'',0.296705972839,0.304608194198,-0.000396627356449,0.00790222135909,0.001,-47.2941746078,6000.0,0.0,300.0,0.0
1513267329999863091,,725235,,1513267328,178669309,'',0.296705972839,0.304619404046,-0.000620200801049,0.00791343120713,0.001,-47.2974018109,6000.0,0.0,300.0,0.0
1513267330009976229,,725236,,1513267328,188669309,'',0.296705972839,0.304627778197,-0.000789851412385,0.00792180535815,0.001,-47.2977672768,6000.0,0.0,300.0,0.0
1513267330019783695,,725237,,1513267328,198669309,'',0.296705972839,0.30467774158,0.0135445939297,0.00797176874064,0.001,-51.9152248364,6000.0,0.0,300.0,0.0
1513267330029771888,,725238,,1513267328,208669309,'',0.296705972839,0.304758663109,-0.00343649179607,0.0080526902697,0.001,-47.2816476929,6000.0,0.0,300.0,0.0
1513267330039791460,,725239,,1513267328,218669309,'',0.296705972839,0.304851601534,0.010028531945,0.00814562869448,0.001,-51.8926945969,6000.0,0.0,300.0,0.0
1513267330049722134,,725240,,1513267328,228669309,'',0.296705972839,0.304928618645,0.00847392717712,0.00822264580632,0.001,-51.8970269483,6000.0,0.0,300.0,0.0
1513267330059748723,,725241,,1513267328,238669309,'',0.296705972839,0.304948474839,-0.00726870784211,0.00824250200001,0.001,-47.3117631657,6000.0,0.0,300.0,0.0
1513267330069616783,,725242,,1513267328,248669309,'',0.296705972839,0.304939430693,0.00825700875861,0.00823345785418,0.001,-51.885762141,6000.0,0.0,300.0,0.0
1513267330079576907,,725243,,1513267328,258669309,'',0.296705972839,0.30490406294,0.00897360396644,0.00819809010113,0.001,-51.8963329744,6000.0,0.0,300.0,0.0
1513267330089962261,,725244,,1513267328,268669309,'',0.296705972839,0.304875542172,0.00954489423955,0.00816956933248,0.001,-51.8763182752,6000.0,0.0,300.0,0.0
1513267330099901711,,725245,,1513267328,278669309,'',0.296705972839,0.304905557718,0.00894215592631,0.0081995848785,0.001,-51.839989348,6000.0,0.0,300.0,0.0
1513267330109906428,,725246,,1513267328,288669309,'',0.296705972839,0.304918580026,0.00869406777385,0.0082126071867,0.001,-51.8949328651,6000.0,0.0,300.0,0.0
1513267330119886251,,725247,,1513267328,298669309,'',0.296705972839,0.304929229641,0.00847677034445,0.00822325680217,0.001,-51.8920711083,6000.0,0.0,300.0,0.0
1513267330129751784,,725248,,1513267328,308669309,'',0.296705972839,0.304909354723,-0.00647148123146,0.00820338188422,0.001,-47.2627884884,6000.0,0.0,300.0,0.0
1513267330139738189,,725249,,1513267328,318669309,'',0.296705972839,0.30491813394,-0.00665125351106,0.00821216110072,0.001,-47.2700530259,6000.0,0.0,300.0,0.0
1513267330149703479,,725250,,1513267328,328669309,'',0.296705972839,0.304901370988,0.00903428024828,0.00819539814928,0.001,-51.8920271677,6000.0,0.0,300.0,0.0
1513267330159519823,,725251,,1513267328,338669309,'',0.296705972839,0.304871555469,-0.00571355461549,0.00816558263044,0.001,-47.306755282,6000.0,0.0,300.0,0.0
1513267330169519050,,725252,,1513267328,348669309,'',0.296705972839,0.304877150438,0.00951794500865,0.00817117759903,0.001,-51.887927906,6000.0,0.0,300.0,0.0
1513267330179984617,,725253,,1513267328,358669309,'',0.296705972839,0.304881278024,0.00943992642945,0.00817530518466,0.001,-51.8958043338,6000.0,0.0,300.0,0.0
1513267330189574783,,725254,,1513267328,368669309,'',0.296705972839,0.304923187096,-0.00675425814261,0.00821721425695,0.001,-47.3228603654,6000.0,0.0,300.0,0.0
1513267330199871837,,725255,,1513267328,378669309,'',0.296705972839,0.304905513933,0.00894414429538,0.00819954109399,0.001,-51.8994239147,6000.0,0.0,300.0,0.0
1513267330209930882,,725256,,1513267328,388669309,'',0.296705972839,0.304876523451,0.00952918583347,0.00817055061192,0.001,-51.8996775219,6000.0,0.0,300.0,0.0
1513267330219900115,,725257,,1513267328,398669309,'',0.296705972839,0.30490710889,0.00891424318145,0.00820113605066,0.001,-51.828452847,6000.0,0.0,300.0,0.0
1513267330229695808,,725258,,1513267328,408669309,'',0.296705972839,0.304917107765,-0.00663454166363,0.00821113492615,0.001,-47.3084774519,6000.0,0.0,300.0,0.0
1513267330239596069,,725259,,1513267328,418669309,'',0.296705972839,0.304968587462,0.00767466178011,0.00826261462316,0.001,-51.8856770892,6000.0,0.0,300.0,0.0
1513267330249529058,,725260,,1513267328,428669309,'',0.296705972839,0.304994456854,-0.00819680031419,0.0082884840152,0.001,-47.264028771,6000.0,0.0,300.0,0.0
1513267330259934083,,725261,,1513267328,438669309,'',0.296705972839,0.305045777107,0.00610971644239,0.00833980426757,0.001,-51.877368097,6000.0,0.0,300.0,0.0
1513267330269894401,,725262,,1513267328,448669309,'',0.296705972839,0.305071881259,-0.00976245364212,0.00836590841963,0.001,-47.2550964437,6000.0,0.0,300.0,0.0
1513267330279856617,,725263,,1513267328,458669309,'',0.296705972839,0.305079765451,0.00541965371926,0.00837379261186,0.001,-51.8398214879,6000.0,0.0,300.0,0.0
1513267330289856424,,725264,,1513267328,468669309,'',0.296705972839,0.305044618214,-0.00921551039795,0.00833864537486,0.001,-47.2567420102,6000.0,0.0,300.0,0.0
1513267330299865779,,725265,,1513267328,478669309,'',0.296705972839,0.305044399492,0.00614185640557,0.00833842665325,0.001,-51.8814677763,6000.0,0.0,300.0,0.0
1513267330309760619,,725266,,1513267328,488669309,'',0.296705972839,0.305072729614,0.00556629922604,0.00836675677451,0.001,-51.8784574125,6000.0,0.0,300.0,0.0
1513267330319761634,,725267,,1513267328,498669309,'',0.296705972839,0.30506722295,-0.00967114085017,0.00836125011131,0.001,-47.2499032947,6000.0,0.0,300.0,0.0
1513267330329678425,,725268,,1513267328,508669309,'',0.296705972839,0.30506513433,0.00571419787715,0.00835916149097,0.001,-51.8807983442,6000.0,0.0,300.0,0.0
1513267330339680570,,725269,,1513267328,518669309,'',0.296705972839,0.304992155688,-0.00815490552912,0.00828618284856,0.001,-47.2618547159,6000.0,0.0,300.0,0.0
1513267330349594748,,725270,,1513267328,528669309,'',0.296705972839,0.304946633489,-0.00723955011977,0.00824066065012,0.001,-47.2631011298,6000.0,0.0,300.0,0.0
1513267330360022671,,725271,,1513267328,538669309,'',0.296705972839,0.304950826072,0.00802344233752,0.00824485323306,0.001,-51.8918228751,6000.0,0.0,300.0,0.0
1513267330370038899,,725272,,1513267328,548669309,'',0.296705972839,0.304928145939,0.00848607287457,0.00822217309966,0.001,-51.8995286123,6000.0,0.0,300.0,0.0
1513267330379805153,,725273,,1513267328,558669309,'',0.296705972839,0.304947994411,0.00808105321136,0.00824202157183,0.001,-51.829022398,6000.0,0.0,300.0,0.0
1513267330389810824,,725274,,1513267328,568669309,'',0.296705972839,0.304924589174,-0.00679090271238,0.00821861633508,0.001,-47.2592466202,6000.0,0.0,300.0,0.0
1513267330399801372,,725275,,1513267328,578669309,'',0.296705972839,0.30491828396,-0.00666360140607,0.00821231112126,0.001,-47.2676356512,6000.0,0.0,300.0,0.0
1513267330409716914,,725276,,1513267328,588669309,'',0.296705972839,0.30494053633,-0.00710317288673,0.00823456349078,0.001,-47.3073096534,6000.0,0.0,300.0,0.0
1513267330419723745,,725277,,1513267328,598669309,'',0.296705972839,0.304916363962,-0.00662277989371,0.00821039112291,0.001,-47.2644529836,6000.0,0.0,300.0,0.0
1513267330429680888,,725278,,1513267328,608669309,'',0.296705972839,0.304869630957,-0.00568349489452,0.0081636581175,0.001,-47.2275285417,6000.0,0.0,300.0,0.0
1513267330439880617,,725279,,1513267328,618669309,'',0.296705972839,0.304818679046,-0.00465287576834,0.00811270620692,0.001,-47.2470093845,6000.0,0.0,300.0,0.0
1513267330449939814,,725280,,1513267328,628669309,'',0.296705972839,0.304789498136,-0.00406161981002,0.00808352529701,0.001,-47.2766886369,6000.0,0.0,300.0,0.0
1513267330459967471,,725281,,1513267328,638669309,'',0.296705972839,0.304739372214,-0.00304922292708,0.00803339937541,0.001,-47.2832829665,6000.0,0.0,300.0,0.0
1513267330469854483,,725282,,1513267328,648669309,'',0.296705972839,0.304685708635,-0.00196750255297,0.00797973579638,0.001,-47.2718200452,6000.0,0.0,300.0,0.0
1513267330479827121,,725283,,1513267328,658669309,'',0.296705972839,0.304655009459,-0.00134692515251,0.00794903661952,0.001,-47.298471634,6000.0,0.0,300.0,0.0
1513267330489738968,,725284,,1513267328,668669309,'',0.296705972839,0.304642973962,-0.00110263780558,0.00793700112333,0.001,-47.2914545683,6000.0,0.0,300.0,0.0
1513267330499692029,,725285,,1513267328,678669309,'',0.296705972839,0.304605773867,-0.000350410291015,0.00789980102817,0.001,-47.2952327916,6000.0,0.0,300.0,0.0
1513267330509624067,,725286,,1513267328,688669309,'',0.296705972839,0.304518972112,0.00140155775753,0.00781299927309,0.001,-47.3024745902,6000.0,0.0,300.0,0.0
1513267330519620729,,725287,,1513267328,698669309,'',0.296705972839,0.304462505916,-0.0128019309595,0.0077565330768,0.001,-42.7579504253,6000.0,0.0,300.0,0.0
1513267330529560548,,725288,,1513267328,708669309,'',0.296705972839,0.304457935279,0.00263263270174,0.00775196243961,0.001,-47.2918806021,6000.0,0.0,300.0,0.0
1513267330539877372,,725289,,1513267328,718669309,'',0.296705972839,0.304427107779,0.00325104165625,0.00772113493984,0.001,-47.3109322553,6000.0,0.0,300.0,0.0
1513267330549750786,,725290,,1513267328,728669309,'',0.296705972839,0.304415520207,0.00348596604417,0.00770954736751,0.001,-47.3119990873,6000.0,0.0,300.0,0.0
1513267330559733687,,725291,,1513267328,738669309,'',0.296705972839,0.304390158478,0.00399905389677,0.00768418563848,0.001,-47.310567955,6000.0,0.0,300.0,0.0
1513267330569656579,,725292,,1513267328,748669309,'',0.296705972839,0.304412702554,0.00354314151205,0.00770672971487,0.001,-47.3086633476,6000.0,0.0,300.0,0.0
1513267330579592819,,725293,,1513267328,758669309,'',0.296705972839,0.304401901635,-0.0115814672713,0.00769592879641,0.001,-42.6867213176,6000.0,0.0,300.0,0.0
1513267330589660038,,725294,,1513267328,768669309,'',0.296705972839,0.304394186488,0.00392540909067,0.0076882136493,0.001,-47.3065840816,6000.0,0.0,300.0,0.0
1513267330599946839,,725295,,1513267328,778669309,'',0.296705972839,0.304363643655,0.00454021746772,0.00765767081624,0.001,-47.2845985787,6000.0,0.0,300.0,0.0
1513267330609907322,,725296,,1513267328,788669309,'',0.296705972839,0.304377860862,0.00425056162178,0.00767188802317,0.001,-47.3126973975,6000.0,0.0,300.0,0.0
1513267330619807952,,725297,,1513267328,798669309,'',0.296705972839,0.304292938906,-0.00937639860345,0.00758696606665,0.001,-42.7047182903,6000.0,0.0,300.0,0.0
1513267330629711885,,725298,,1513267328,808669309,'',0.296705972839,0.30419414212,-0.0073832534704,0.0074881692805,0.001,-42.7588164075,6000.0,0.0,300.0,0.0
1513267330639689887,,725299,,1513267328,818669309,'',0.296705972839,0.303986136373,-0.0338691518196,0.00728016353428,0.001,-33.6969043403,6000.0,0.0,300.0,0.0
1513267330649616503,,725300,,1513267328,828669309,'',0.296705972839,0.303624021536,-0.0418974964252,0.00691804869677,0.001,-28.9298764064,6000.0,0.0,300.0,0.0
1513267330660014234,,725301,,1513267328,838669309,'',0.296705972839,0.30307983049,-0.0615865836475,0.00637385765063,0.001,-19.7286094994,6000.0,0.0,300.0,0.0
1513267330669990776,,725302,,1513267328,848669309,'',0.296705972839,0.302471222462,-0.0646366030924,0.00576524962282,0.001,-15.4962991474,6000.0,0.0,300.0,0.0
1513267330679954767,,725303,,1513267328,858669309,'',0.296705972839,0.301961053745,-0.0543308392088,0.00525508090628,0.001,-15.1660271782,6000.0,0.0,300.0,0.0
1513267330689904282,,725304,,1513267328,868669309,'',0.296705972839,0.301555193343,-0.0461340517167,0.00484922050418,0.001,-15.2137631265,6000.0,0.0,300.0,0.0
1513267330699970450,,725305,,1513267328,878669309,'',0.296705972839,0.301238029951,-0.024373738656,0.00453205711152,0.001,-20.180132924,6000.0,0.0,300.0,0.0
1513267330709957699,,725306,,1513267328,888669309,'',0.296705972839,0.30101911593,-0.0199523933898,0.00431314309081,0.001,-19.856163823,6000.0,0.0,300.0,0.0
1513267330719682970,,725307,,1513267328,898669309,'',0.296705972839,0.300854790453,-0.0166339228709,0.00414881761403,0.001,-19.876820562,6000.0,0.0,300.0,0.0
1513267330729663217,,725308,,1513267328,908669309,'',0.296705972839,0.300816693466,-0.000521573565624,0.00411072062738,0.001,-24.5066827013,6000.0,0.0,300.0,0.0
1513267330739704737,,725309,,1513267328,918669309,'',0.296705972839,0.300941368725,0.0123084205304,0.0042353958858,0.001,-29.1108280373,6000.0,0.0,300.0,0.0
1513267330749601510,,725310,,1513267328,928669309,'',0.296705972839,0.301316623366,0.0507553845787,0.00461065052715,0.001,-42.6143129412,6000.0,0.0,300.0,0.0
1513267330759484557,,725311,,1513267328,938669309,'',0.296705972839,0.301745749429,0.0420853487225,0.00503977658985,0.001,-42.7236919845,6000.0,0.0,300.0,0.0
1513267330770055021,,725312,,1513267328,948669309,'',0.296705972839,0.302235543898,0.0475358711296,0.00552957105936,0.001,-47.4955304676,6000.0,0.0,300.0,0.0
1513267330780062229,,725313,,1513267328,958669309,'',0.296705972839,0.302872096627,0.0653639547416,0.00616612378782,0.001,-56.7041099569,6000.0,0.0,300.0,0.0
1513267330790002300,,725314,,1513267328,968669309,'',0.296705972839,0.303644820116,0.0957851076327,0.00693884727705,0.001,-70.429825901,6000.0,0.0,300.0,0.0
1513267330799876310,,725315,,1513267328,978669309,'',0.296705972839,0.304615090272,0.0915297560965,0.00790911743282,0.001,-75.0247653299,6000.0,0.0,300.0,0.0
1513267330809918428,,725316,,1513267328,988669309,'',0.296705972839,0.305437162529,0.0749232341557,0.00873118969016,0.001,-74.4788111677,6000.0,0.0,300.0,0.0
1513267330819933319,,725317,,1513267328,998669309,'',0.296705972839,0.306124159436,0.061045323285,0.00941818659678,0.001,-74.8968427575,6000.0,0.0,300.0,0.0
1513267330829700143,,725318,,1513267329,8669309,'',0.296705972839,0.306727912556,0.0488509431658,0.0100219397166,0.001,-74.8174285431,6000.0,0.0,300.0,0.0
1513267330839711147,,725319,,1513267329,18669309,'',0.296705972839,0.307221944013,0.0388666780401,0.0105159711743,0.001,-74.6998852376,6000.0,0.0,300.0,0.0
1513267330849652008,,725320,,1513267329,28669309,'',0.296705972839,0.307639377598,0.0304366526324,0.010933404759,0.001,-74.7683989394,6000.0,0.0,300.0,0.0
1513267330859678062,,725321,,1513267329,38669309,'',0.296705972839,0.308010736163,0.038277373215,0.0113047633235,0.001,-79.3476810422,6000.0,0.0,300.0,0.0
1513267330869922251,,725322,,1513267329,48669309,'',0.296705972839,0.308341676779,0.0315913799876,0.0116357039395,0.001,-79.3421036135,6000.0,0.0,300.0,0.0
1513267330879818147,,725323,,1513267329,58669309,'',0.296705972839,0.308624793557,0.0258726104949,0.0119188207178,0.001,-79.14221299,6000.0,0.0,300.0,0.0
1513267330889826420,,725324,,1513267329,68669309,'',0.296705972839,0.308885557112,0.0206083441541,0.0121795842732,0.001,-79.284585824,6000.0,0.0,300.0,0.0
1513267330899837482,,725325,,1513267329,78669309,'',0.296705972839,0.309111925823,0.0160327115229,0.0124059529836,0.001,-79.270030668,6000.0,0.0,300.0,0.0
1513267330909700910,,725326,,1513267329,88669309,'',0.296705972839,0.309282919456,0.0125750618169,0.0125769466174,0.001,-79.2545373879,6000.0,0.0,300.0,0.0
1513267330919795453,,725327,,1513267329,98669309,'',0.296705972839,0.309450733122,0.0245317021715,0.0127447602834,0.001,-83.8585008247,6000.0,0.0,300.0,0.0
1513267330929649147,,725328,,1513267329,108669309,'',0.296705972839,0.309600783262,0.00615011535672,0.0128948104229,0.001,-79.2261815732,6000.0,0.0,300.0,0.0
1513267330939571781,,725329,,1513267329,118669309,'',0.296705972839,0.309726268676,0.0189594839835,0.0130202958366,0.001,-83.8419961793,6000.0,0.0,300.0,0.0
1513267330950187393,,725330,,1513267329,128669309,'',0.296705972839,0.309828509689,0.00154809539601,0.0131225368499,0.001,-79.2052155053,6000.0,0.0,300.0,0.0
1513267330960113962,,725331,,1513267329,138669309,'',0.296705972839,0.309953155016,0.0143749326315,0.0132471821766,0.001,-83.8117537936,6000.0,0.0,300.0,0.0
1513267330970383600,,725332,,1513267329,148669309,'',0.296705972839,0.310069376429,0.0120254330786,0.01336340359,0.001,-83.7295444541,6000.0,0.0,300.0,0.0
1513267330980012646,,725333,,1513267329,158669309,'',0.296705972839,0.310177414353,0.00984503043447,0.0134714415145,0.001,-83.7342594607,6000.0,0.0,300.0,0.0
1513267330990139266,,725334,,1513267329,168669309,'',0.296705972839,0.310293527997,0.00749806948791,0.0135875551577,0.001,-83.7913979486,6000.0,0.0,300.0,0.0
1513267331000018357,,725335,,1513267329,178669309,'',0.296705972839,0.310320425778,0.006956651057,0.0136144529385,0.001,-83.7827646925,6000.0,0.0,300.0,0.0
1513267331010033369,,725336,,1513267329,188669309,'',0.296705972839,0.310382984833,0.00569448470433,0.0136770119941,0.001,-83.7864779595,6000.0,0.0,300.0,0.0
1513267331020035672,,725337,,1513267329,198669309,'',0.296705972839,0.310434644109,0.00464662460898,0.0137286712701,0.001,-83.752550405,6000.0,0.0,300.0,0.0
1513267331029916277,,725338,,1513267329,208669309,'',0.296705972839,0.310502997958,0.00327088898147,0.0137970251187,0.001,-83.7484686272,6000.0,0.0,300.0,0.0
1513267331039905953,,725339,,1513267329,218669309,'',0.296705972839,0.310560079466,0.00211715755152,0.0138541066265,0.001,-83.7658437043,6000.0,0.0,300.0,0.0
1513267331049889954,,725340,,1513267329,228669309,'',0.296705972839,0.310580284893,0.0170530161426,0.0138743120544,0.001,-88.3956677598,6000.0,0.0,300.0,0.0
1513267331060074568,,725341,,1513267329,238669309,'',0.296705972839,0.310595686972,0.0013980861211,0.0138897141329,0.001,-83.7610380117,6000.0,0.0,300.0,0.0
1513267331069720257,,725342,,1513267329,248669309,'',0.296705972839,0.310553437899,0.00224345251616,0.0138474650602,0.001,-83.7663307767,6000.0,0.0,300.0,0.0
1513267331079668534,,725343,,1513267329,258669309,'',0.296705972839,0.310573709948,0.00183663503594,0.0138677371086,0.001,-83.7633069875,6000.0,0.0,300.0,0.0
1513267331089637783,,725344,,1513267329,268669309,'',0.296705972839,0.31061616561,0.000986038382324,0.0139101927706,0.001,-83.7599945068,6000.0,0.0,300.0,0.0
1513267331100017085,,725345,,1513267329,278669309,'',0.296705972839,0.310639908057,0.000507932941901,0.0139339352184,0.001,-83.7575475909,6000.0,0.0,300.0,0.0
1513267331109928280,,725346,,1513267329,288669309,'',0.296705972839,0.31063084048,0.000695279088715,0.0139248676414,0.001,-83.7529943737,6000.0,0.0,300.0,0.0
1513267331119891747,,725347,,1513267329,298669309,'',0.296705972839,0.310623463426,-0.0144936668397,0.0139174905867,0.001,-79.2210613428,6000.0,0.0,300.0,0.0
1513267331129856380,,725348,,1513267329,308669309,'',0.296705972839,0.310631036711,0.000700244854179,0.0139250638722,0.001,-83.7542560607,6000.0,0.0,300.0,0.0
1513267331140009798,,725349,,1513267329,318669309,'',0.296705972839,0.310637238412,0.000573243767805,0.0139312655727,0.001,-83.7582485842,6000.0,0.0,300.0,0.0
1513267331149928434,,725350,,1513267329,328669309,'',0.296705972839,0.31061520641,0.00101638232586,0.0139092335714,0.001,-83.7597893659,6000.0,0.0,300.0,0.0
1513267331159846691,,725351,,1513267329,338669309,'',0.296705972839,0.310596618113,0.00139016749805,0.0138906452741,0.001,-83.7630675681,6000.0,0.0,300.0,0.0
1513267331169752006,,725352,,1513267329,348669309,'',0.296705972839,0.310609031927,0.00113865079972,0.0139030590882,0.001,-83.7534241383,6000.0,0.0,300.0,0.0
1513267331179900292,,725353,,1513267329,358669309,'',0.296705972839,0.310577343483,-0.0135634955151,0.013871370644,0.001,-79.1372530565,6000.0,0.0,300.0,0.0
1513267331189740087,,725354,,1513267329,368669309,'',0.296705972839,0.310605983779,0.00120426927319,0.0139000109403,0.001,-83.7595335168,6000.0,0.0,300.0,0.0
1513267331199992116,,725355,,1513267329,378669309,'',0.296705972839,0.310602235947,0.00127878920309,0.0138962631076,0.001,-83.7613485815,6000.0,0.0,300.0,0.0
1513267331210036109,,725356,,1513267329,388669309,'',0.296705972839,0.31059913046,0.00134024000995,0.0138931576206,0.001,-83.7611521113,6000.0,0.0,300.0,0.0
1513267331219878657,,725357,,1513267329,398669309,'',0.296705972839,0.310585050082,0.00162281946751,0.0138790772429,0.001,-83.7520495578,6000.0,0.0,300.0,0.0
1513267331229866582,,725358,,1513267329,408669309,'',0.296705972839,0.310569993906,-0.0134215333594,0.0138640210672,0.001,-79.1330707568,6000.0,0.0,300.0,0.0
1513267331239675321,,725359,,1513267329,418669309,'',0.296705972839,0.310547004924,0.00238488085091,0.0138410320851,0.001,-83.7852472525,6000.0,0.0,300.0,0.0
1513267331249454203,,725360,,1513267329,428669309,'',0.296705972839,0.310541214955,0.00249913280005,0.0138352421159,0.001,-83.751041153,6000.0,0.0,300.0,0.0
1513267331259933039,,725361,,1513267329,438669309,'',0.296705972839,0.310494335389,-0.0119073365308,0.0137883625497,0.001,-79.2238038035,6000.0,0.0,300.0,0.0
1513267331269893989,,725362,,1513267329,448669309,'',0.296705972839,0.310499366202,0.00333681314679,0.0137933933629,0.001,-83.7686407202,6000.0,0.0,300.0,0.0
1513267331279758473,,725363,,1513267329,458669309,'',0.296705972839,0.310460781206,0.00412228153184,0.0137548083667,0.001,-83.774073476,6000.0,0.0,300.0,0.0
1513267331289750461,,725364,,1513267329,468669309,'',0.296705972839,0.310417616024,0.00499472065509,0.0137116431849,0.001,-83.7765389432,6000.0,0.0,300.0,0.0
1513267331299678680,,725365,,1513267329,478669309,'',0.296705972839,0.310420233476,0.00493947275812,0.0137142606371,0.001,-83.7448566078,6000.0,0.0,300.0,0.0
1513267331309650177,,725366,,1513267329,488669309,'',0.296705972839,0.310369644933,0.00596226665022,0.0136636720944,0.001,-83.7806054137,6000.0,0.0,300.0,0.0
1513267331319530312,,725367,,1513267329,498669309,'',0.296705972839,0.310340446704,-0.00878694708986,0.0136344738646,0.001,-79.1637943257,6000.0,0.0,300.0,0.0
1513267331329547909,,725368,,1513267329,508669309,'',0.296705972839,0.310287307227,-0.00771331990738,0.0135813343876,0.001,-79.1702167277,6000.0,0.0,300.0,0.0
1513267331339942828,,725369,,1513267329,518669309,'',0.296705972839,0.310258842409,-0.0071333968257,0.0135528695699,0.001,-79.170235446,6000.0,0.0,300.0,0.0
1513267331349855059,,725370,,1513267329,528669309,'',0.296705972839,0.310209131049,-0.00612901279428,0.0135031582096,0.001,-79.1701728738,6000.0,0.0,300.0,0.0
1513267331359905353,,725371,,1513267329,538669309,'',0.296705972839,0.310154086462,-0.00501731837608,0.0134481136226,0.001,-79.1756032538,6000.0,0.0,300.0,0.0
1513267331369867605,,725372,,1513267329,548669309,'',0.296705972839,0.310109131717,-0.0041094009613,0.0134031588776,0.001,-79.2069926895,6000.0,0.0,300.0,0.0
1513267331379929931,,725373,,1513267329,558669309,'',0.296705972839,0.310072221267,-0.00336394817243,0.0133662484279,0.001,-79.1859380502,6000.0,0.0,300.0,0.0
1513267331389864649,,725374,,1513267329,568669309,'',0.296705972839,0.310028337376,-0.00247744190872,0.0133223645368,0.001,-79.1877132654,6000.0,0.0,300.0,0.0
1513267331399951477,,725375,,1513267329,578669309,'',0.296705972839,0.310020903696,-0.00232776553972,0.0133149308573,0.001,-79.1854838342,6000.0,0.0,300.0,0.0
1513267331409752616,,725376,,1513267329,588669309,'',0.296705972839,0.310013996628,-0.00218834400372,0.0133080237892,0.001,-79.2048954583,6000.0,0.0,300.0,0.0
1513267331419735811,,725377,,1513267329,598669309,'',0.296705972839,0.310009454671,0.0132483535632,0.0133034818315,0.001,-83.811138451,6000.0,0.0,300.0,0.0
1513267331429756725,,725378,,1513267329,608669309,'',0.296705972839,0.309990629059,-0.00171751747219,0.0132846562201,0.001,-79.1914058323,6000.0,0.0,300.0,0.0
1513267331440154160,,725379,,1513267329,618669309,'',0.296705972839,0.309975214211,-0.00140593657491,0.0132692413724,0.001,-79.1943482585,6000.0,0.0,300.0,0.0
1513267331450003059,,725380,,1513267329,628669309,'',0.296705972839,0.309976019797,-0.00142480922366,0.0132700469579,0.001,-79.2011833999,6000.0,0.0,300.0,0.0
1513267331460039391,,725381,,1513267329,638669309,'',0.296705972839,0.309963258563,-0.0011663963011,0.0132572857238,0.001,-79.1925573781,6000.0,0.0,300.0,0.0
1513267331470030028,,725382,,1513267329,648669309,'',0.296705972839,0.309967324969,-0.00124808610605,0.0132613521305,0.001,-79.1906350005,6000.0,0.0,300.0,0.0
1513267331479994991,,725383,,1513267329,658669309,'',0.296705972839,0.309956147669,-0.00102186616582,0.0132501748297,0.001,-79.1938327284,6000.0,0.0,300.0,0.0
1513267331489970554,,725384,,1513267329,668669309,'',0.296705972839,0.309946992153,-0.000836565600866,0.0132410193143,0.001,-79.1955740429,6000.0,0.0,300.0,0.0
1513267331499997344,,725385,,1513267329,678669309,'',0.296705972839,0.309951897026,-0.000937661593883,0.0132459241868,0.001,-79.1935856592,6000.0,0.0,300.0,0.0
1513267331509847179,,725386,,1513267329,688669309,'',0.296705972839,0.309943510859,-0.000767601020981,0.0132375380197,0.001,-79.1944619577,6000.0,0.0,300.0,0.0
1513267331519764859,,725387,,1513267329,698669309,'',0.296705972839,0.309936646254,-0.000628395755649,0.0132306734149,0.001,-79.1958476626,6000.0,0.0,300.0,0.0
1513267331529936846,,725388,,1513267329,708669309,'',0.296705972839,0.309944583845,-0.000786606827035,0.0132386110063,0.001,-79.1948129844,6000.0,0.0,300.0,0.0
1513267331539795651,,725389,,1513267329,718669309,'',0.296705972839,0.309937538028,-0.000644225109369,0.0132315651887,0.001,-79.1951776033,6000.0,0.0,300.0,0.0
1513267331549661585,,725390,,1513267329,728669309,'',0.296705972839,0.309931757225,-0.000527406771642,0.0132257843855,0.001,-79.1957479169,6000.0,0.0,300.0,0.0
1513267331559539751,,725391,,1513267329,738669309,'',0.296705972839,0.309914360717,-0.000176688567475,0.0132083878776,0.001,-79.197476584,6000.0,0.0,300.0,0.0
1513267331569989516,,725392,,1513267329,748669309,'',0.296705972839,0.309912782657,-0.000144648665901,0.0132068098181,0.001,-79.1975087454,6000.0,0.0,300.0,0.0
1513267331579924863,,725393,,1513267329,758669309,'',0.296705972839,0.309911490645,-0.000118416475784,0.0132055178055,0.001,-79.197584218,6000.0,0.0,300.0,0.0
1513267331589917498,,725394,,1513267329,768669309,'',0.296705972839,0.309923564852,-0.000359426134573,0.0132175920133,0.001,-79.1970128931,6000.0,0.0,300.0,0.0
1513267331599835539,,725395,,1513267329,778669309,'',0.296705972839,0.309920317198,-0.000294238208822,0.0132143443585,0.001,-79.1966774888,6000.0,0.0,300.0,0.0
1513267331609770266,,725396,,1513267329,788669309,'',0.296705972839,0.309917659017,-0.000240882389684,0.0132116861779,0.001,-79.1971654412,6000.0,0.0,300.0,0.0
1513267331619674192,,725397,,1513267329,798669309,'',0.296705972839,0.309915482296,-0.000197190588566,0.0132095094575,0.001,-79.197222545,6000.0,0.0,300.0,0.0
1513267331629697519,,725398,,1513267329,808669309,'',0.296705972839,0.30991370423,-0.000161500697865,0.0132077313913,0.001,-79.198463815,6000.0,0.0,300.0,0.0
1513267331639946623,,725399,,1513267329,818669309,'',0.296705972839,0.309883223093,0.000451364803504,0.0131772502538,0.001,-79.2001782114,6000.0,0.0,300.0,0.0
1513267331649870530,,725400,,1513267329,828669309,'',0.296705972839,0.309887292089,0.000369502266345,0.0131813192501,0.001,-79.199776785,6000.0,0.0,300.0,0.0
1513267331659921687,,725401,,1513267329,838669309,'',0.296705972839,0.309877485264,0.000568189054516,0.0131715124247,0.001,-79.1999663432,6000.0,0.0,300.0,0.0
1513267331669578534,,725402,,1513267329,848669309,'',0.296705972839,0.309868649062,0.000747619776966,0.0131626762227,0.001,-79.196713486,6000.0,0.0,300.0,0.0
1513267331679540145,,725403,,1513267329,858669309,'',0.296705972839,0.309875358268,0.000612087746826,0.0131693854287,0.001,-79.2006811806,6000.0,0.0,300.0,0.0
1513267331689509559,,725404,,1513267329,868669309,'',0.296705972839,0.309880852735,0.000501094537456,0.013174879896,0.001,-79.199889587,6000.0,0.0,300.0,0.0
1513267331700014362,,725405,,1513267329,878669309,'',0.296705972839,0.309859080046,0.000943170886475,0.013153107207,0.001,-79.2020610723,6000.0,0.0,300.0,0.0
1513267331710007397,,725406,,1513267329,888669309,'',0.296705972839,0.309868548633,0.000750046760614,0.0131625757935,0.001,-79.2007709759,6000.0,0.0,300.0,0.0
1513267331720040025,,725407,,1513267329,898669309,'',0.296705972839,0.309875265177,0.000614294404978,0.0131692923383,0.001,-79.1971409864,6000.0,0.0,300.0,0.0
1513267331730030799,,725408,,1513267329,908669309,'',0.296705972839,0.309852904393,-0.0142813153809,0.0131469315537,0.001,-74.5549680177,6000.0,0.0,300.0,0.0
1513267331739830829,,725409,,1513267329,918669309,'',0.296705972839,0.309848525136,0.00114957584414,0.0131425522965,0.001,-79.203039191,6000.0,0.0,300.0,0.0
1513267331749960030,,725410,,1513267329,928669309,'',0.296705972839,0.309816505573,0.00180052033067,0.0131105327338,0.001,-79.2051495982,6000.0,0.0,300.0,0.0
1513267331759779404,,725411,,1513267329,938669309,'',0.296705972839,0.309793427018,0.00226590778411,0.0130874541788,0.001,-79.1932146596,6000.0,0.0,300.0,0.0
1513267331769793615,,725412,,1513267329,948669309,'',0.296705972839,0.309774560954,0.00264330266156,0.0130685881155,0.001,-79.2117131837,6000.0,0.0,300.0,0.0
1513267331779954185,,725413,,1513267329,958669309,'',0.296705972839,0.309757667519,0.00298372629972,0.0130516946797,0.001,-79.2106577302,6000.0,0.0,300.0,0.0
1513267331789674244,,725414,,1513267329,968669309,'',0.296705972839,0.309745196925,0.0032361766078,0.0130392240857,0.001,-79.209841308,6000.0,0.0,300.0,0.0
1513267331799608545,,725415,,1513267329,978669309,'',0.296705972839,0.309719390992,0.00374811514875,0.0130134181534,0.001,-79.1910705706,6000.0,0.0,300.0,0.0
1513267331809767830,,725416,,1513267329,988669309,'',0.296705972839,0.309711054576,0.00391908860404,0.0130050817373,0.001,-79.2146090716,6000.0,0.0,300.0,0.0
1513267331819774150,,725417,,1513267329,998669309,'',0.296705972839,0.309677918562,0.0045904734727,0.0129719457226,0.001,-79.2160884294,6000.0,0.0,300.0,0.0
1513267331829607890,,725418,,1513267330,8669309,'',0.296705972839,0.309690758619,0.0043303822292,0.0129847857797,0.001,-79.2163295436,6000.0,0.0,300.0,0.0
1513267331840041461,,725419,,1513267330,18669309,'',0.296705972839,0.309703393519,0.00407097637271,0.0129974206804,0.001,-79.1904657632,6000.0,0.0,300.0,0.0
1513267331850020955,,725420,,1513267330,28669309,'',0.296705972839,0.30968409451,0.00446324323822,0.0129781216707,0.001,-79.2589466358,6000.0,0.0,300.0,0.0
1513267331859943299,,725421,,1513267330,38669309,'',0.296705972839,0.30966857649,-0.0105630261014,0.0129626036513,0.001,-74.6566185755,6000.0,0.0,300.0,0.0
1513267331869897499,,725422,,1513267330,48669309,'',0.296705972839,0.309671847573,0.00471755017701,0.0129658747344,0.001,-79.2192976417,6000.0,0.0,300.0,0.0
1513267331879939898,,725423,,1513267330,58669309,'',0.296705972839,0.309673042406,-0.0106546241636,0.0129670695671,0.001,-74.5898538443,6000.0,0.0,300.0,0.0
1513267331889871524,,725424,,1513267330,68669309,'',0.296705972839,0.309674662494,0.00466059533015,0.0129686896547,0.001,-79.1907275958,6000.0,0.0,300.0,0.0
1513267331899797890,,725425,,1513267330,78669309,'',0.296705972839,0.309688875686,0.00437428330316,0.0129829028469,0.001,-79.219020405,6000.0,0.0,300.0,0.0
1513267331909768128,,725426,,1513267330,88669309,'',0.296705972839,0.309686197397,0.00443136052661,0.0129802245582,0.001,-79.2112711649,6000.0,0.0,300.0,0.0
1513267331919691301,,725427,,1513267330,98669309,'',0.296705972839,0.309711474653,0.00392093557693,0.0130055018143,0.001,-79.215707137,6000.0,0.0,300.0,0.0
1513267331929730481,,725428,,1513267330,108669309,'',0.296705972839,0.309706795932,0.00401108522678,0.0130008230933,0.001,-79.1905943963,6000.0,0.0,300.0,0.0
1513267331939786200,,725429,,1513267330,118669309,'',0.296705972839,0.309687225174,0.00440133399011,0.0129812523349,0.001,-79.1898544958,6000.0,0.0,300.0,0.0
1513267331949682814,,725430,,1513267330,128669309,'',0.296705972839,0.309685773911,0.00443581830962,0.0129798010722,0.001,-79.218356747,6000.0,0.0,300.0,0.0
1513267331959569324,,725431,,1513267330,138669309,'',0.296705972839,0.309667538879,-0.0105393598202,0.0129615660402,0.001,-74.5964733481,6000.0,0.0,300.0,0.0
1513267331970237567,,725432,,1513267330,148669309,'',0.296705972839,0.309656439629,0.00503378543668,0.0129504667897,0.001,-79.1872362363,6000.0,0.0,300.0,0.0
1513267331979875210,,725433,,1513267330,158669309,'',0.296705972839,0.309603663663,-0.00924524944754,0.0128976908242,0.001,-74.6579759165,6000.0,0.0,300.0,0.0
1513267331989876853,,725434,,1513267330,168669309,'',0.296705972839,0.309631719222,0.00553552558339,0.0129257463828,0.001,-79.2181357572,6000.0,0.0,300.0,0.0
1513267331999749112,,725435,,1513267330,178669309,'',0.296705972839,0.30963869121,-0.0099475653377,0.0129327183714,0.001,-74.6046703972,6000.0,0.0,300.0,0.0
1513267332009728888,,725436,,1513267330,188669309,'',0.296705972839,0.309646677243,0.00524573173642,0.0129407044041,0.001,-79.2234682649,6000.0,0.0,300.0,0.0
1513267332019716044,,725437,,1513267330,198669309,'',0.296705972839,0.309640178656,-0.0099585992293,0.0129342058174,0.001,-74.7559198439,6000.0,0.0,300.0,0.0
1513267332029576472,,725438,,1513267330,208669309,'',0.296705972839,0.309594363382,0.00630407574398,0.0128883905431,0.001,-79.2172316796,6000.0,0.0,300.0,0.0
1513267332040063355,,725439,,1513267330,218669309,'',0.296705972839,0.309568120028,0.00683342235033,0.0128621471888,0.001,-79.2267255177,6000.0,0.0,300.0,0.0
1513267332050021212,,725440,,1513267330,228669309,'',0.296705972839,0.309532609145,-0.00779540114305,0.0128266363058,0.001,-74.6056546465,6000.0,0.0,300.0,0.0
1513267332059794731,,725441,,1513267330,238669309,'',0.296705972839,0.309517597896,-0.00749525523142,0.0128116250568,0.001,-74.5657969031,6000.0,0.0,300.0,0.0
1513267332069733918,,725442,,1513267330,248669309,'',0.296705972839,0.309504115718,0.00811620564343,0.0127981428793,0.001,-79.2397701504,6000.0,0.0,300.0,0.0
1513267332079684401,,725443,,1513267330,258669309,'',0.296705972839,0.309523312427,0.00772964123841,0.0128173395878,0.001,-79.1836575393,6000.0,0.0,300.0,0.0
1513267332090052096,,725444,,1513267330,268669309,'',0.296705972839,0.309522919098,-0.00761292101983,0.0128169462594,0.001,-74.601582451,6000.0,0.0,300.0,0.0
1513267332099972449,,725445,,1513267330,278669309,'',0.296705972839,0.309522458769,-0.0076003249216,0.0128164859296,0.001,-74.6109689564,6000.0,0.0,300.0,0.0
1513267332110045665,,725446,,1513267330,288669309,'',0.296705972839,0.309496035488,0.00827660101268,0.0127900626489,0.001,-79.2304446683,6000.0,0.0,300.0,0.0
1513267332119851119,,725447,,1513267330,298669309,'',0.296705972839,0.309445062175,-0.00604396555723,0.0127390893355,0.001,-74.6135870455,6000.0,0.0,300.0,0.0
1513267332129764344,,725448,,1513267330,308669309,'',0.296705972839,0.309418859632,-0.00551682369831,0.0127128867932,0.001,-74.6573562737,6000.0,0.0,300.0,0.0
1513267332140412435,,725449,,1513267330,318669309,'',0.296705972839,0.309410521199,0.00999927165431,0.0127045483595,0.001,-79.152667751,6000.0,0.0,300.0,0.0
1513267332150132079,,725450,,1513267330,328669309,'',0.296705972839,0.309404604072,-0.0052202678965,0.0126986312331,0.001,-74.6202713623,6000.0,0.0,300.0,0.0
1513267332160402992,,725451,,1513267330,338669309,'',0.296705972839,0.309396795109,-0.00506358948987,0.0126908222695,0.001,-74.6208877328,6000.0,0.0,300.0,0.0
1513267332170100951,,725452,,1513267330,348669309,'',0.296705972839,0.309380663882,-0.00473704344726,0.0126746910428,0.001,-74.6194220042,6000.0,0.0,300.0,0.0
1513267332179945971,,725453,,1513267330,358669309,'',0.296705972839,0.309394065099,0.010331060341,0.0126880922597,0.001,-79.1817567252,6000.0,0.0,300.0,0.0
1513267332189775469,,725454,,1513267330,368669309,'',0.296705972839,0.309364193569,0.01093403248,0.01265822073,0.001,-79.2440121987,6000.0,0.0,300.0,0.0
