rosbagTimestamp,header,seq,stamp,secs,nsecs,frame_id,set_point,process_value,process_value_dot,error,time_step,command,p,i,d,i_clamp
1513266248807683336,,617136,,1513266247,7770185,'',1.20427718388,1.19274444288,-0.0179135768006,-0.0115327409937,0.001,49.5907862731,4300.0,0.0,0.0,0.0
1513266248817690408,,617137,,1513266247,17770185,'',1.20427718388,1.19413207215,0.0103324725056,-0.0101451117298,0.001,43.6239804381,4300.0,0.0,0.0,0.0
1513266248827825959,,617138,,1513266247,27770185,'',1.20427718388,1.19274444288,-0.0168683939518,-0.0115327409937,0.001,49.5907862731,4300.0,0.0,0.0,0.0
1513266248837810876,,617139,,1513266247,37770185,'',1.20427718388,1.19413207215,0.0102057511624,-0.0101451117298,0.001,43.6239804381,4300.0,0.0,0.0,0.0
1513266248847746765,,617140,,1513266247,47770185,'',1.20427718388,1.19274444288,-0.0170093539458,-0.0115327409937,0.001,49.5907862731,4300.0,0.0,0.0,0.0
1513266248857588629,,617141,,1513266247,57770185,'',1.20427718388,1.19413207215,0.00950499729507,-0.0101451117298,0.001,43.6239804381,4300.0,0.0,0.0,0.0
1513266248867555233,,617142,,1513266247,67770185,'',1.20427718388,1.19413207215,0.00930736842571,-0.0101451117298,0.001,43.6239804381,4300.0,0.0,0.0,0.0
1513266248877403172,,617143,,1513266247,77770185,'',1.20427718388,1.19413207215,0.00810808688598,-0.0101451117298,0.001,43.6239804381,4300.0,0.0,0.0,0.0
1513266248887534844,,617144,,1513266247,87770185,'',1.20427718388,1.19413207215,0.00726431437009,-0.0101451117298,0.001,43.6239804381,4300.0,0.0,0.0,0.0
1513266248897859644,,617145,,1513266247,97770185,'',1.20427718388,1.19413207215,0.00742243122546,-0.0101451117298,0.001,43.6239804381,4300.0,0.0,0.0,0.0
1513266248907883282,,617146,,1513266247,107770185,'',1.20427718388,1.19274444288,-0.0198636804889,-0.0115327409937,0.001,49.5907862731,4300.0,0.0,0.0,0.0
1513266248917929944,,617147,,1513266247,117770185,'',1.20427718388,1.19551970141,0.035652168467,-0.00875748246584,0.001,37.6571746031,4300.0,0.0,0.0,0.0
1513266248927906279,,617148,,1513266247,127770185,'',1.20427718388,1.19413207215,0.00729798933485,-0.0101451117298,0.001,43.6239804381,4300.0,0.0,0.0,0.0
1513266248937658877,,617149,,1513266247,137770185,'',1.20427718388,1.19413207215,0.00695575515007,-0.0101451117298,0.001,43.6239804381,4300.0,0.0,0.0,0.0
1513266248947666754,,617150,,1513266247,147770185,'',1.20427718388,1.19413207215,0.00567247396585,-0.0101451117298,0.001,43.6239804381,4300.0,0.0,0.0,0.0
1513266248957544830,,617151,,1513266247,157770185,'',1.20427718388,1.19413207215,0.00411900226065,-0.0101451117298,0.001,43.6239804381,4300.0,0.0,0.0,0.0
1513266248967368114,,617152,,1513266247,167770185,'',1.20427718388,1.19413207215,0.00389215299379,-0.0101451117298,0.001,43.6239804381,4300.0,0.0,0.0,0.0
1513266248977928457,,617153,,1513266247,177770185,'',1.20427718388,1.19274444288,-0.0248455857647,-0.0115327409937,0.001,49.5907862731,4300.0,0.0,0.0,0.0
1513266248987789519,,617154,,1513266247,187770185,'',1.20427718388,1.19413207215,0.00360562933201,-0.0101451117298,0.001,43.6239804381,4300.0,0.0,0.0,0.0
1513266248997770026,,617155,,1513266247,197770185,'',1.20427718388,1.19413207215,0.0054611887397,-0.0101451117298,0.001,43.6239804381,4300.0,0.0,0.0,0.0
1513266249007908181,,617156,,1513266247,207770185,'',1.20427718388,1.19413207215,0.00593722151124,-0.0101451117298,0.001,43.6239804381,4300.0,0.0,0.0,0.0
1513266249017821281,,617157,,1513266247,217770185,'',1.20427718388,1.19413207215,0.00687467880067,-0.0101451117298,0.001,43.6239804381,4300.0,0.0,0.0,0.0
1513266249027730741,,617158,,1513266247,227770185,'',1.20427718388,1.19413207215,0.00561558740672,-0.0101451117298,0.001,43.6239804381,4300.0,0.0,0.0,0.0
1513266249037631508,,617159,,1513266247,237770185,'',1.20427718388,1.19413207215,0.00559274538242,-0.0101451117298,0.001,43.6239804381,4300.0,0.0,0.0,0.0
1513266249047607029,,617160,,1513266247,247770185,'',1.20427718388,1.19551970141,0.0336025047733,-0.00875748246584,0.001,37.6571746031,4300.0,0.0,0.0,0.0
1513266249057461211,,617161,,1513266247,257770185,'',1.20427718388,1.19413207215,0.00656215989975,-0.0101451117298,0.001,43.6239804381,4300.0,0.0,0.0,0.0
1513266249067700089,,617162,,1513266247,267770185,'',1.20427718388,1.19551970141,0.0338033954512,-0.00875748246584,0.001,37.6571746031,4300.0,0.0,0.0,0.0
1513266249077970284,,617163,,1513266247,277770185,'',1.20427718388,1.19413207215,0.00470861119788,-0.0101451117298,0.001,43.6239804381,4300.0,0.0,0.0,0.0
1513266249087891172,,617164,,1513266247,287770185,'',1.20427718388,1.19274444288,-0.0226973792919,-0.0115327409937,0.001,49.5907862731,4300.0,0.0,0.0,0.0
1513266249097733305,,617165,,1513266247,297770185,'',1.20427718388,1.19274444288,-0.0211104000188,-0.0115327409937,0.001,49.5907862731,4300.0,0.0,0.0,0.0
1513266249107636180,,617166,,1513266247,307770185,'',1.20427718388,1.19413207215,0.00719834443229,-0.0101451117298,0.001,43.6239804381,4300.0,0.0,0.0,0.0
1513266249117758744,,617167,,1513266247,317770185,'',1.20427718388,1.19274444288,-0.0200344112629,-0.0115327409937,0.001,49.5907862731,4300.0,0.0,0.0,0.0
1513266249127595042,,617168,,1513266247,327770185,'',1.20427718388,1.19413207215,0.00699839087801,-0.0101451117298,0.001,43.6239804381,4300.0,0.0,0.0,0.0
1513266249137700868,,617169,,1513266247,337770185,'',1.20427718388,1.19551970141,0.0337439009753,-0.00875748246584,0.001,37.6571746031,4300.0,0.0,0.0,0.0
1513266249147531356,,617170,,1513266247,347770185,'',1.20427718388,1.19413207215,0.00574477577405,-0.0101451117298,0.001,43.6239804381,4300.0,0.0,0.0,0.0
1513266249157855303,,617171,,1513266247,357770185,'',1.20427718388,1.19413207215,0.00772095966701,-0.0101451117298,0.001,43.6239804381,4300.0,0.0,0.0,0.0
1513266249167756710,,617172,,1513266247,367770185,'',1.20427718388,1.19274444288,-0.018565416675,-0.0115327409937,0.001,49.5907862731,4300.0,0.0,0.0,0.0
1513266249177711119,,617173,,1513266247,377770185,'',1.20427718388,1.19413207215,0.00868205923699,-0.0101451117298,0.001,43.6239804381,4300.0,0.0,0.0,0.0
1513266249187700368,,617174,,1513266247,387770185,'',1.20427718388,1.19413207215,0.00813162525894,-0.0101451117298,0.001,43.6239804381,4300.0,0.0,0.0,0.0
1513266249197559928,,617175,,1513266247,397770185,'',1.20427718388,1.19274444288,-0.0193075347599,-0.0115327409937,0.001,49.5907862731,4300.0,0.0,0.0,0.0
1513266249207460669,,617176,,1513266247,407770185,'',1.20427718388,1.19413207215,0.00820239828168,-0.0101451117298,0.001,43.6239804381,4300.0,0.0,0.0,0.0
1513266249217949659,,617177,,1513266247,417770185,'',1.20427718388,1.19274444288,-0.0198164416291,-0.0115327409937,0.001,49.5907862731,4300.0,0.0,0.0,0.0
1513266249228071845,,617178,,1513266247,427770185,'',1.20427718388,1.19413207215,0.00875992151456,-0.0101451117298,0.001,43.6239804381,4300.0,0.0,0.0,0.0
1513266249237921209,,617179,,1513266247,437770185,'',1.20427718388,1.19413207215,0.00820680521031,-0.0101451117298,0.001,43.6239804381,4300.0,0.0,0.0,0.0
1513266249247578345,,617180,,1513266247,447770185,'',1.20427718388,1.19274444288,-0.0192254747326,-0.0115327409937,0.001,49.5907862731,4300.0,0.0,0.0,0.0
1513266249257940145,,617181,,1513266247,457770185,'',1.20427718388,1.19413207215,0.00868992570179,-0.0101451117298,0.001,43.6239804381,4300.0,0.0,0.0,0.0
1513266249267921587,,617182,,1513266247,467770185,'',1.20427718388,1.19413207215,0.00759431359234,-0.0101451117298,0.001,43.6239804381,4300.0,0.0,0.0,0.0
1513266249277774024,,617183,,1513266247,477770185,'',1.20427718388,1.19413207215,0.00719136853482,-0.0101451117298,0.001,43.6239804381,4300.0,0.0,0.0,0.0
1513266249287629560,,617184,,1513266247,487770185,'',1.20427718388,1.19413207215,0.00689993394835,-0.0101451117298,0.001,43.6239804381,4300.0,0.0,0.0,0.0
1513266249297530199,,617185,,1513266247,497770185,'',1.20427718388,1.19413207215,0.00767930598951,-0.0101451117298,0.001,43.6239804381,4300.0,0.0,0.0,0.0
1513266249307728358,,617186,,1513266247,507770185,'',1.20427718388,1.19274444288,-0.0176949031969,-0.0115327409937,0.001,49.5907862731,4300.0,0.0,0.0,0.0
1513266249317684933,,617187,,1513266247,517770185,'',1.20427718388,1.19551970141,0.0375176337767,-0.00875748246584,0.001,37.6571746031,4300.0,0.0,0.0,0.0
1513266249327533948,,617188,,1513266247,527770185,'',1.20427718388,1.19551970141,0.0363689310105,-0.00875748246584,0.001,37.6571746031,4300.0,0.0,0.0,0.0
1513266249337996645,,617189,,1513266247,537770185,'',1.20427718388,1.19413207215,0.00682360089418,-0.0101451117298,0.001,43.6239804381,4300.0,0.0,0.0,0.0
1513266249347784392,,617190,,1513266247,547770185,'',1.20427718388,1.19413207215,0.00716058189263,-0.0101451117298,0.001,43.6239804381,4300.0,0.0,0.0,0.0
1513266249357710672,,617191,,1513266247,557770185,'',1.20427718388,1.19274444288,-0.0215525549317,-0.0115327409937,0.001,49.5907862731,4300.0,0.0,0.0,0.0
1513266249367730204,,617192,,1513266247,567770185,'',1.20427718388,1.19413207215,0.00580590689526,-0.0101451117298,0.001,43.6239804381,4300.0,0.0,0.0,0.0
1513266249377599443,,617193,,1513266247,577770185,'',1.20427718388,1.19413207215,0.00475272751521,-0.0101451117298,0.001,43.6239804381,4300.0,0.0,0.0,0.0
1513266249387451458,,617194,,1513266247,587770185,'',1.20427718388,1.19413207215,0.00436456639151,-0.0101451117298,0.001,43.6239804381,4300.0,0.0,0.0,0.0
1513266249397879968,,617195,,1513266247,597770185,'',1.20427718388,1.19413207215,0.00558086816746,-0.0101451117298,0.001,43.6239804381,4300.0,0.0,0.0,0.0
1513266249407827410,,617196,,1513266247,607770185,'',1.20427718388,1.19413207215,0.00610184297836,-0.0101451117298,0.001,43.6239804381,4300.0,0.0,0.0,0.0
1513266249417760627,,617197,,1513266247,617770185,'',1.20427718388,1.19413207215,0.00492220230954,-0.0101451117298,0.001,43.6239804381,4300.0,0.0,0.0,0.0
1513266249427669520,,617198,,1513266247,627770185,'',1.20427718388,1.19551970141,0.0315494215527,-0.00875748246584,0.001,37.6571746031,4300.0,0.0,0.0,0.0
1513266249437635812,,617199,,1513266247,637770185,'',1.20427718388,1.19413207215,0.005476428202,-0.0101451117298,0.001,43.6239804381,4300.0,0.0,0.0,0.0
1513266249447533654,,617200,,1513266247,647770185,'',1.20427718388,1.19413207215,0.00545750067535,-0.0101451117298,0.001,43.6239804381,4300.0,0.0,0.0,0.0
1513266249457469722,,617201,,1513266247,657770185,'',1.20427718388,1.19413207215,0.00602909885877,-0.0101451117298,0.001,43.6239804381,4300.0,0.0,0.0,0.0
1513266249467443737,,617202,,1513266247,667770185,'',1.20427718388,1.19413207215,0.00599532168969,-0.0101451117298,0.001,43.6239804381,4300.0,0.0,0.0,0.0
1513266249477397421,,617203,,1513266247,677770185,'',1.20427718388,1.19413207215,0.00538337352,-0.0101451117298,0.001,43.6239804381,4300.0,0.0,0.0,0.0
1513266249487857183,,617204,,1513266247,687770185,'',1.20427718388,1.19413207215,0.00588871586705,-0.0101451117298,0.001,43.6239804381,4300.0,0.0,0.0,0.0
1513266249497824699,,617205,,1513266247,697770185,'',1.20427718388,1.19274444288,-0.0221641508918,-0.0115327409937,0.001,49.5907862731,4300.0,0.0,0.0,0.0
1513266249507770577,,617206,,1513266247,707770185,'',1.20427718388,1.19274444288,-0.0215623618514,-0.0115327409937,0.001,49.5907862731,4300.0,0.0,0.0,0.0
1513266249517614472,,617207,,1513266247,717770185,'',1.20427718388,1.19413207215,0.0073515962717,-0.0101451117298,0.001,43.6239804381,4300.0,0.0,0.0,0.0
1513266249527444529,,617208,,1513266247,727770185,'',1.20427718388,1.19413207215,0.00909871113615,-0.0101451117298,0.001,43.6239804381,4300.0,0.0,0.0,0.0
1513266249538241968,,617209,,1513266247,737770185,'',1.20427718388,1.19413207215,0.00892318635564,-0.0101451117298,0.001,43.6239804381,4300.0,0.0,0.0,0.0
1513266249547440944,,617210,,1513266247,747770185,'',1.20427718388,1.19274444288,-0.019214905542,-0.0115327409937,0.001,49.5907862731,4300.0,0.0,0.0,0.0
1513266249557606927,,617211,,1513266247,757770185,'',1.20427718388,1.19274444288,-0.0182083410355,-0.0115327409937,0.001,49.5907862731,4300.0,0.0,0.0,0.0
1513266249567941908,,617212,,1513266247,767770185,'',1.20427718388,1.19413207215,0.00954633204246,-0.0101451117298,0.001,43.6239804381,4300.0,0.0,0.0,0.0
1513266249577796150,,617213,,1513266247,777770185,'',1.20427718388,1.19413207215,0.00981977716758,-0.0101451117298,0.001,43.6239804381,4300.0,0.0,0.0,0.0
1513266249587759975,,617214,,1513266247,787770185,'',1.20427718388,1.19413207215,0.00948195362093,-0.0101451117298,0.001,43.6239804381,4300.0,0.0,0.0,0.0
1513266249597602589,,617215,,1513266247,797770185,'',1.20427718388,1.19274444288,-0.0172131123704,-0.0115327409937,0.001,49.5907862731,4300.0,0.0,0.0,0.0
1513266249607910708,,617216,,1513266247,807770185,'',1.20427718388,1.19274444288,-0.0171229001474,-0.0115327409937,0.001,49.5907862731,4300.0,0.0,0.0,0.0
1513266249617890153,,617217,,1513266247,817770185,'',1.20427718388,1.19274444288,-0.0175716682329,-0.0115327409937,0.001,49.5907862731,4300.0,0.0,0.0,0.0
1513266249627910576,,617218,,1513266247,827770185,'',1.20427718388,1.19413207215,0.011073309481,-0.0101451117298,0.001,43.6239804381,4300.0,0.0,0.0,0.0
1513266249637795529,,617219,,1513266247,837770185,'',1.20427718388,1.19413207215,0.0111175785135,-0.0101451117298,0.001,43.6239804381,4300.0,0.0,0.0,0.0
1513266249647788145,,617220,,1513266247,847770185,'',1.20427718388,1.19413207215,0.00977868109142,-0.0101451117298,0.001,43.6239804381,4300.0,0.0,0.0,0.0
1513266249657664895,,617221,,1513266247,857770185,'',1.20427718388,1.19413207215,0.0105320385931,-0.0101451117298,0.001,43.6239804381,4300.0,0.0,0.0,0.0
1513266249667716566,,617222,,1513266247,867770185,'',1.20427718388,1.19413207215,0.0105950636255,-0.0101451117298,0.001,43.6239804381,4300.0,0.0,0.0,0.0
1513266249677465057,,617223,,1513266247,877770185,'',1.20427718388,1.19274444288,-0.0173089993509,-0.0115327409937,0.001,49.5907862731,4300.0,0.0,0.0,0.0
1513266249687579638,,617224,,1513266247,887770185,'',1.20427718388,1.19413207215,0.0103479121451,-0.0101451117298,0.001,43.6239804381,4300.0,0.0,0.0,0.0
1513266249697916186,,617225,,1513266247,897770185,'',1.20427718388,1.19413207215,0.0094258253682,-0.0101451117298,0.001,43.6239804381,4300.0,0.0,0.0,0.0
1513266249707768435,,617226,,1513266247,907770185,'',1.20427718388,1.19413207215,0.00723696623853,-0.0101451117298,0.001,43.6239804381,4300.0,0.0,0.0,0.0
1513266249717828614,,617227,,1513266247,917770185,'',1.20427718388,1.19413207215,0.00640030773357,-0.0101451117298,0.001,43.6239804381,4300.0,0.0,0.0,0.0
1513266249727761451,,617228,,1513266247,927770185,'',1.20427718388,1.19413207215,0.00679895078198,-0.0101451117298,0.001,43.6239804381,4300.0,0.0,0.0,0.0
1513266249737749468,,617229,,1513266247,937770185,'',1.20427718388,1.19274444288,-0.0208556187249,-0.0115327409937,0.001,49.5907862731,4300.0,0.0,0.0,0.0
1513266249747518133,,617230,,1513266247,947770185,'',1.20427718388,1.19413207215,0.00896187742761,-0.0101451117298,0.001,43.6239804381,4300.0,0.0,0.0,0.0
1513266249757619220,,617231,,1513266247,957770185,'',1.20427718388,1.19413207215,0.00841056562166,-0.0101451117298,0.001,43.6239804381,4300.0,0.0,0.0,0.0
1513266249767986401,,617232,,1513266247,967770185,'',1.20427718388,1.19274444288,-0.0166042755841,-0.0115327409937,0.001,49.5907862731,4300.0,0.0,0.0,0.0
1513266249777712903,,617233,,1513266247,977770185,'',1.20427718388,1.19274444288,-0.0150347601564,-0.0115327409937,0.001,49.5907862731,4300.0,0.0,0.0,0.0
1513266249787658716,,617234,,1513266247,987770185,'',1.20427718388,1.19274444288,-0.0153206313057,-0.0115327409937,0.001,49.5907862731,4300.0,0.0,0.0,0.0
1513266249797644215,,617235,,1513266247,997770185,'',1.20427718388,1.19274444288,-0.0135133414762,-0.0115327409937,0.001,49.5907862731,4300.0,0.0,0.0,0.0
1513266249807552835,,617236,,1513266248,7770185,'',1.20427718388,1.19413207215,0.0148694090722,-0.0101451117298,0.001,43.6239804381,4300.0,0.0,0.0,0.0
1513266249817983994,,617237,,1513266248,17770185,'',1.20427718388,1.19413207215,0.0137644713327,-0.0101451117298,0.001,43.6239804381,4300.0,0.0,0.0,0.0
1513266249827881940,,617238,,1513266248,27770185,'',1.20427718388,1.19413207215,0.0138630410057,-0.0101451117298,0.001,43.6239804381,4300.0,0.0,0.0,0.0
1513266249837806182,,617239,,1513266248,37770185,'',1.20427718388,1.19274444288,-0.0130260937994,-0.0115327409937,0.001,49.5907862731,4300.0,0.0,0.0,0.0
1513266249847893884,,617240,,1513266248,47770185,'',1.20427718388,1.19413207215,0.0132611585118,-0.0101451117298,0.001,43.6239804381,4300.0,0.0,0.0,0.0
1513266249857765926,,617241,,1513266248,57770185,'',1.20427718388,1.19551970141,0.0418566724935,-0.00875748246584,0.001,37.6571746031,4300.0,0.0,0.0,0.0
1513266249867832073,,617242,,1513266248,67770185,'',1.20427718388,1.19274444288,-0.0162280643504,-0.0115327409937,0.001,49.5907862731,4300.0,0.0,0.0,0.0
1513266249877887395,,617243,,1513266248,77770185,'',1.20427718388,1.19413207215,0.011179380951,-0.0101451117298,0.001,43.6239804381,4300.0,0.0,0.0,0.0
1513266249887749812,,617244,,1513266248,87770185,'',1.20427718388,1.19413207215,0.0100865793398,-0.0101451117298,0.001,43.6239804381,4300.0,0.0,0.0,0.0
1513266249897691056,,617245,,1513266248,97770185,'',1.20427718388,1.19413207215,0.00767851351947,-0.0101451117298,0.001,43.6239804381,4300.0,0.0,0.0,0.0
1513266249907787026,,617246,,1513266248,107770185,'',1.20427718388,1.19413207215,0.00579595326603,-0.0101451117298,0.001,43.6239804381,4300.0,0.0,0.0,0.0
1513266249917741678,,617247,,1513266248,117770185,'',1.20427718388,1.19274444288,-0.0236905468088,-0.0115327409937,0.001,49.5907862731,4300.0,0.0,0.0,0.0
1513266249927766190,,617248,,1513266248,127770185,'',1.20427718388,1.19274444288,-0.0238627169216,-0.0115327409937,0.001,49.5907862731,4300.0,0.0,0.0,0.0
1513266249937749444,,617249,,1513266248,137770185,'',1.20427718388,1.19413207215,0.00293786218624,-0.0101451117298,0.001,43.6239804381,4300.0,0.0,0.0,0.0
1513266249947684576,,617250,,1513266248,147770185,'',1.20427718388,1.19413207215,0.0014162229302,-0.0101451117298,0.001,43.6239804381,4300.0,0.0,0.0,0.0
1513266249957627944,,617251,,1513266248,157770185,'',1.20427718388,1.19551970141,0.0291689622187,-0.00875748246584,0.001,37.6571746031,4300.0,0.0,0.0,0.0
1513266249967646023,,617252,,1513266248,167770185,'',1.20427718388,1.19413207215,-0.000139627916893,-0.0101451117298,0.001,43.6239804381,4300.0,0.0,0.0,0.0
1513266249977596258,,617253,,1513266248,177770185,'',1.20427718388,1.19413207215,0.000404901910553,-0.0101451117298,0.001,43.6239804381,4300.0,0.0,0.0,0.0
1513266249987483321,,617254,,1513266248,187770185,'',1.20427718388,1.19551970141,0.0272704247795,-0.00875748246584,0.001,37.6571746031,4300.0,0.0,0.0,0.0
1513266249997955925,,617255,,1513266248,197770185,'',1.20427718388,1.19413207215,-0.00268057749665,-0.0101451117298,0.001,43.6239804381,4300.0,0.0,0.0,0.0
1513266250007983062,,617256,,1513266248,207770185,'',1.20427718388,1.19551970141,0.0258274686063,-0.00875748246584,0.001,37.6571746031,4300.0,0.0,0.0,0.0
1513266250017842314,,617257,,1513266248,217770185,'',1.20427718388,1.19413207215,-0.00378572782633,-0.0101451117298,0.001,43.6239804381,4300.0,0.0,0.0,0.0
1513266250027785155,,617258,,1513266248,227770185,'',1.20427718388,1.19413207215,-0.00602431551352,-0.0101451117298,0.001,43.6239804381,4300.0,0.0,0.0,0.0
1513266250037668356,,617259,,1513266248,237770185,'',1.20427718388,1.19551970141,0.0199534392234,-0.00875748246584,0.001,37.6571746031,4300.0,0.0,0.0,0.0
1513266250047629604,,617260,,1513266248,247770185,'',1.20427718388,1.19413207215,-0.00864361905073,-0.0101451117298,0.001,43.6239804381,4300.0,0.0,0.0,0.0
1513266250057610215,,617261,,1513266248,257770185,'',1.20427718388,1.19551970141,0.0183789826097,-0.00875748246584,0.001,37.6571746031,4300.0,0.0,0.0,0.0
1513266250067461328,,617262,,1513266248,267770185,'',1.20427718388,1.19413207215,-0.011372064714,-0.0101451117298,0.001,43.6239804381,4300.0,0.0,0.0,0.0
1513266250077508103,,617263,,1513266248,277770185,'',1.20427718388,1.19551970141,0.0176605953329,-0.00875748246584,0.001,37.6571746031,4300.0,0.0,0.0,0.0
1513266250087990541,,617264,,1513266248,287770185,'',1.20427718388,1.19413207215,-0.00998224730329,-0.0101451117298,0.001,43.6239804381,4300.0,0.0,0.0,0.0
1513266250097977395,,617265,,1513266248,297770185,'',1.20427718388,1.19551970141,0.0178298591024,-0.00875748246584,0.001,37.6571746031,4300.0,0.0,0.0,0.0
1513266250107701901,,617266,,1513266248,307770185,'',1.20427718388,1.19413207215,-0.0104827132967,-0.0101451117298,0.001,43.6239804381,4300.0,0.0,0.0,0.0
1513266250117664559,,617267,,1513266248,317770185,'',1.20427718388,1.19413207215,-0.0105596229078,-0.0101451117298,0.001,43.6239804381,4300.0,0.0,0.0,0.0
1513266250127627884,,617268,,1513266248,327770185,'',1.20427718388,1.19413207215,-0.0127212456882,-0.0101451117298,0.001,43.6239804381,4300.0,0.0,0.0,0.0
1513266250137652171,,617269,,1513266248,337770185,'',1.20427718388,1.19413207215,-0.0128181513824,-0.0101451117298,0.001,43.6239804381,4300.0,0.0,0.0,0.0
1513266250147839364,,617270,,1513266248,347770185,'',1.20427718388,1.19551970141,0.0124809001252,-0.00875748246584,0.001,37.6571746031,4300.0,0.0,0.0,0.0
1513266250157789628,,617271,,1513266248,357770185,'',1.20427718388,1.19690733067,0.0392217560026,-0.00736985320188,0.001,31.6903687681,4300.0,0.0,0.0,0.0
1513266250167663534,,617272,,1513266248,367770185,'',1.20427718388,1.19551970141,0.0121502433952,-0.00875748246584,0.001,37.6571746031,4300.0,0.0,0.0,0.0
1513266250177663655,,617273,,1513266248,377770185,'',1.20427718388,1.19413207215,-0.0155101458982,-0.0101451117298,0.001,43.6239804381,4300.0,0.0,0.0,0.0
1513266250187626749,,617274,,1513266248,387770185,'',1.20427718388,1.19413207215,-0.0157598797447,-0.0101451117298,0.001,43.6239804381,4300.0,0.0,0.0,0.0
1513266250197547915,,617275,,1513266248,397770185,'',1.20427718388,1.19551970141,0.0114895467114,-0.00875748246584,0.001,37.6571746031,4300.0,0.0,0.0,0.0
1513266250207471977,,617276,,1513266248,407770185,'',1.20427718388,1.19413207215,-0.0160049976371,-0.0101451117298,0.001,43.6239804381,4300.0,0.0,0.0,0.0
1513266250217903166,,617277,,1513266248,417770185,'',1.20427718388,1.19413207215,-0.0165238430926,-0.0101451117298,0.001,43.6239804381,4300.0,0.0,0.0,0.0
1513266250227848900,,617278,,1513266248,427770185,'',1.20427718388,1.19551970141,0.0119480837499,-0.00875748246584,0.001,37.6571746031,4300.0,0.0,0.0,0.0
1513266250237806053,,617279,,1513266248,437770185,'',1.20427718388,1.19413207215,-0.0161120243249,-0.0101451117298,0.001,43.6239804381,4300.0,0.0,0.0,0.0
1513266250247740077,,617280,,1513266248,447770185,'',1.20427718388,1.19551970141,0.00973393319216,-0.00875748246584,0.001,37.6571746031,4300.0,0.0,0.0,0.0
1513266250257538874,,617281,,1513266248,457770185,'',1.20427718388,1.19551970141,0.00888446656331,-0.00875748246584,0.001,37.6571746031,4300.0,0.0,0.0,0.0
1513266250268011713,,617282,,1513266248,467770185,'',1.20427718388,1.19551970141,0.00585100686382,-0.00875748246584,0.001,37.6571746031,4300.0,0.0,0.0,0.0
1513266250277974845,,617283,,1513266248,477770185,'',1.20427718388,1.19690733067,0.0318196378066,-0.00736985320188,0.001,31.6903687681,4300.0,0.0,0.0,0.0
1513266250287873312,,617284,,1513266248,487770185,'',1.20427718388,1.19551970141,0.00214578666384,-0.00875748246584,0.001,37.6571746031,4300.0,0.0,0.0,0.0
1513266250297846074,,617285,,1513266248,497770185,'',1.20427718388,1.19551970141,0.00132654223855,-0.00875748246584,0.001,37.6571746031,4300.0,0.0,0.0,0.0
1513266250307587770,,617286,,1513266248,507770185,'',1.20427718388,1.19551970141,-0.00104184724609,-0.00875748246584,0.001,37.6571746031,4300.0,0.0,0.0,0.0
1513266250317694309,,617287,,1513266248,517770185,'',1.20427718388,1.19413207215,-0.0282165165332,-0.0101451117298,0.001,43.6239804381,4300.0,0.0,0.0,0.0
1513266250327704096,,617288,,1513266248,527770185,'',1.20427718388,1.19551970141,0.000355766866448,-0.00875748246584,0.001,37.6571746031,4300.0,0.0,0.0,0.0
1513266250337904796,,617289,,1513266248,537770185,'',1.20427718388,1.19551970141,0.000285474098148,-0.00875748246584,0.001,37.6571746031,4300.0,0.0,0.0,0.0
1513266250347869637,,617290,,1513266248,547770185,'',1.20427718388,1.19551970141,0.00072256201679,-0.00875748246584,0.001,37.6571746031,4300.0,0.0,0.0,0.0
1513266250357762582,,617291,,1513266248,557770185,'',1.20427718388,1.19551970141,0.00105301821893,-0.00875748246584,0.001,37.6571746031,4300.0,0.0,0.0,0.0
1513266250368009754,,617292,,1513266248,567770185,'',1.20427718388,1.19551970141,0.00234144647879,-0.00875748246584,0.001,37.6571746031,4300.0,0.0,0.0,0.0
1513266250377694340,,617293,,1513266248,577770185,'',1.20427718388,1.19413207215,-0.0254920861143,-0.0101451117298,0.001,43.6239804381,4300.0,0.0,0.0,0.0
1513266250387906800,,617294,,1513266248,587770185,'',1.20427718388,1.19551970141,3.53013747352e-05,-0.00875748246584,0.001,37.6571746031,4300.0,0.0,0.0,0.0
1513266250397926388,,617295,,1513266248,597770185,'',1.20427718388,1.19551970141,-0.00150235814936,-0.00875748246584,0.001,37.6571746031,4300.0,0.0,0.0,0.0
1513266250407835492,,617296,,1513266248,607770185,'',1.20427718388,1.19551970141,-0.000692838234544,-0.00875748246584,0.001,37.6571746031,4300.0,0.0,0.0,0.0
1513266250417700487,,617297,,1513266248,617770185,'',1.20427718388,1.19551970141,1.10589079411e-05,-0.00875748246584,0.001,37.6571746031,4300.0,0.0,0.0,0.0
1513266250427736774,,617298,,1513266248,627770185,'',1.20427718388,1.19551970141,0.00152200598303,-0.00875748246584,0.001,37.6571746031,4300.0,0.0,0.0,0.0
1513266250437638596,,617299,,1513266248,637770185,'',1.20427718388,1.19690733067,0.0297026611103,-0.00736985320188,0.001,31.6903687681,4300.0,0.0,0.0,0.0
1513266250447943084,,617300,,1513266248,647770185,'',1.20427718388,1.19690733067,0.0288840172166,-0.00736985320188,0.001,31.6903687681,4300.0,0.0,0.0,0.0
1513266250457953296,,617301,,1513266248,657770185,'',1.20427718388,1.19551970141,0.000593671609402,-0.00875748246584,0.001,37.6571746031,4300.0,0.0,0.0,0.0
1513266250467922708,,617302,,1513266248,667770185,'',1.20427718388,1.19551970141,-3.82009479905e-05,-0.00875748246584,0.001,37.6571746031,4300.0,0.0,0.0,0.0
1513266250477840768,,617303,,1513266248,677770185,'',1.20427718388,1.19551970141,-0.00056314364476,-0.00875748246584,0.001,37.6571746031,4300.0,0.0,0.0,0.0
1513266250487677054,,617304,,1513266248,687770185,'',1.20427718388,1.19690733067,0.0260432566858,-0.00736985320188,0.001,31.6903687681,4300.0,0.0,0.0,0.0
1513266250497669671,,617305,,1513266248,697770185,'',1.20427718388,1.19551970141,-0.00419763921548,-0.00875748246584,0.001,37.6571746031,4300.0,0.0,0.0,0.0
1513266250507628532,,617306,,1513266248,707770185,'',1.20427718388,1.19551970141,-0.00387597159014,-0.00875748246584,0.001,37.6571746031,4300.0,0.0,0.0,0.0
1513266250517608445,,617307,,1513266248,717770185,'',1.20427718388,1.19551970141,-0.00412590621397,-0.00875748246584,0.001,37.6571746031,4300.0,0.0,0.0,0.0
1513266250527578312,,617308,,1513266248,727770185,'',1.20427718388,1.19551970141,-0.00540389653461,-0.00875748246584,0.001,37.6571746031,4300.0,0.0,0.0,0.0
1513266250537634596,,617309,,1513266248,737770185,'',1.20427718388,1.19690733067,0.0205543475731,-0.00736985320188,0.001,31.6903687681,4300.0,0.0,0.0,0.0
1513266250547965834,,617310,,1513266248,747770185,'',1.20427718388,1.19690733067,0.0193898115431,-0.00736985320188,0.001,31.6903687681,4300.0,0.0,0.0,0.0
1513266250557972711,,617311,,1513266248,757770185,'',1.20427718388,1.19690733067,0.0168881935302,-0.00736985320188,0.001,31.6903687681,4300.0,0.0,0.0,0.0
1513266250567796904,,617312,,1513266248,767770185,'',1.20427718388,1.19690733067,0.0143220646951,-0.00736985320188,0.001,31.6903687681,4300.0,0.0,0.0,0.0
1513266250577694387,,617313,,1513266248,777770185,'',1.20427718388,1.19690733067,0.0147205185163,-0.00736985320188,0.001,31.6903687681,4300.0,0.0,0.0,0.0
1513266250587648476,,617314,,1513266248,787770185,'',1.20427718388,1.19551970141,-0.0148777736412,-0.00875748246584,0.001,37.6571746031,4300.0,0.0,0.0,0.0
1513266250597484056,,617315,,1513266248,797770185,'',1.20427718388,1.19690733067,0.0112755116944,-0.00736985320188,0.001,31.6903687681,4300.0,0.0,0.0,0.0
1513266250608066783,,617316,,1513266248,807770185,'',1.20427718388,1.19690733067,0.00968670891451,-0.00736985320188,0.001,31.6903687681,4300.0,0.0,0.0,0.0
1513266250618069575,,617317,,1513266248,817770185,'',1.20427718388,1.19690733067,0.00898479562456,-0.00736985320188,0.001,31.6903687681,4300.0,0.0,0.0,0.0
1513266250627950361,,617318,,1513266248,827770185,'',1.20427718388,1.19690733067,0.00685014737991,-0.00736985320188,0.001,31.6903687681,4300.0,0.0,0.0,0.0
1513266250637779472,,617319,,1513266248,837770185,'',1.20427718388,1.19690733067,0.00616447131404,-0.00736985320188,0.001,31.6903687681,4300.0,0.0,0.0,0.0
1513266250647720890,,617320,,1513266248,847770185,'',1.20427718388,1.19690733067,0.00706940170772,-0.00736985320188,0.001,31.6903687681,4300.0,0.0,0.0,0.0
1513266250658026145,,617321,,1513266248,857770185,'',1.20427718388,1.19690733067,0.00629704432457,-0.00736985320188,0.001,31.6903687681,4300.0,0.0,0.0,0.0
1513266250667435908,,617322,,1513266248,867770185,'',1.20427718388,1.19690733067,0.00559384018427,-0.00736985320188,0.001,31.6903687681,4300.0,0.0,0.0,0.0
1513266250677498437,,617323,,1513266248,877770185,'',1.20427718388,1.19690733067,0.00403286983587,-0.00736985320188,0.001,31.6903687681,4300.0,0.0,0.0,0.0
1513266250687992579,,617324,,1513266248,887770185,'',1.20427718388,1.19829495994,0.0307245881014,-0.00598222393793,0.001,25.7235629331,4300.0,0.0,0.0,0.0
1513266250697925673,,617325,,1513266248,897770185,'',1.20427718388,1.19829495994,0.0306758005322,-0.00598222393793,0.001,25.7235629331,4300.0,0.0,0.0,0.0
1513266250707858212,,617326,,1513266248,907770185,'',1.20427718388,1.19690733067,0.00119183999742,-0.00736985320188,0.001,31.6903687681,4300.0,0.0,0.0,0.0
1513266250717831932,,617327,,1513266248,917770185,'',1.20427718388,1.19551970141,-0.026061608293,-0.00875748246584,0.001,37.6571746031,4300.0,0.0,0.0,0.0
1513266250727866136,,617328,,1513266248,927770185,'',1.20427718388,1.19690733067,0.000546546507625,-0.00736985320188,0.001,31.6903687681,4300.0,0.0,0.0,0.0
1513266250737732717,,617329,,1513266248,937770185,'',1.20427718388,1.19690733067,-0.00143395630956,-0.00736985320188,0.001,31.6903687681,4300.0,0.0,0.0,0.0
1513266250747629140,,617330,,1513266248,947770185,'',1.20427718388,1.19829495994,0.0253025469058,-0.00598222393793,0.001,25.7235629331,4300.0,0.0,0.0,0.0
1513266250757638432,,617331,,1513266248,957770185,'',1.20427718388,1.19690733067,-0.00524455870013,-0.00736985320188,0.001,31.6903687681,4300.0,0.0,0.0,0.0
1513266250767473421,,617332,,1513266248,967770185,'',1.20427718388,1.19690733067,-0.00482024173741,-0.00736985320188,0.001,31.6903687681,4300.0,0.0,0.0,0.0
1513266250777949926,,617333,,1513266248,977770185,'',1.20427718388,1.19690733067,-0.00287637180882,-0.00736985320188,0.001,31.6903687681,4300.0,0.0,0.0,0.0
1513266250787906057,,617334,,1513266248,987770185,'',1.20427718388,1.19690733067,-0.0033429721867,-0.00736985320188,0.001,31.6903687681,4300.0,0.0,0.0,0.0
1513266250797801429,,617335,,1513266248,997770185,'',1.20427718388,1.19829495994,0.0242284318348,-0.00598222393793,0.001,25.7235629331,4300.0,0.0,0.0,0.0
1513266250807692132,,617336,,1513266249,7770185,'',1.20427718388,1.19690733067,-0.00357915105069,-0.00736985320188,0.001,31.6903687681,4300.0,0.0,0.0,0.0
1513266250817471436,,617337,,1513266249,17770185,'',1.20427718388,1.19690733067,-0.00393126381522,-0.00736985320188,0.001,31.6903687681,4300.0,0.0,0.0,0.0
1513266250827475581,,617338,,1513266249,27770185,'',1.20427718388,1.19829495994,0.0227384690568,-0.00598222393793,0.001,25.7235629331,4300.0,0.0,0.0,0.0
1513266250837896701,,617339,,1513266249,37770185,'',1.20427718388,1.19690733067,-0.00678033344854,-0.00736985320188,0.001,31.6903687681,4300.0,0.0,0.0,0.0
1513266250847940700,,617340,,1513266249,47770185,'',1.20427718388,1.19829495994,0.0179355345661,-0.00598222393793,0.001,25.7235629331,4300.0,0.0,0.0,0.0
1513266250857846516,,617341,,1513266249,57770185,'',1.20427718388,1.19829495994,0.0147370422762,-0.00598222393793,0.001,25.7235629331,4300.0,0.0,0.0,0.0
1513266250867901756,,617342,,1513266249,67770185,'',1.20427718388,1.19690733067,-0.0138873553422,-0.00736985320188,0.001,31.6903687681,4300.0,0.0,0.0,0.0
1513266250877871511,,617343,,1513266249,77770185,'',1.20427718388,1.19829495994,0.0121013240703,-0.00598222393793,0.001,25.7235629331,4300.0,0.0,0.0,0.0
1513266250887927822,,617344,,1513266249,87770185,'',1.20427718388,1.1996825892,0.0398857775019,-0.00459459467398,0.001,19.7567570981,4300.0,0.0,0.0,0.0
1513266250897851823,,617345,,1513266249,97770185,'',1.20427718388,1.19690733067,-0.0167807477507,-0.00736985320188,0.001,31.6903687681,4300.0,0.0,0.0,0.0
1513266250907636810,,617346,,1513266249,107770185,'',1.20427718388,1.19690733067,-0.0152734469748,-0.00736985320188,0.001,31.6903687681,4300.0,0.0,0.0,0.0
1513266250917499540,,617347,,1513266249,117770185,'',1.20427718388,1.19690733067,-0.0159571913871,-0.00736985320188,0.001,31.6903687681,4300.0,0.0,0.0,0.0
1513266250927437057,,617348,,1513266249,127770185,'',1.20427718388,1.19690733067,-0.0145478779573,-0.00736985320188,0.001,31.6903687681,4300.0,0.0,0.0,0.0
1513266250937559068,,617349,,1513266249,137770185,'',1.20427718388,1.19690733067,-0.0154049450502,-0.00736985320188,0.001,31.6903687681,4300.0,0.0,0.0,0.0
1513266250947573553,,617350,,1513266249,147770185,'',1.20427718388,1.19690733067,-0.0162622270633,-0.00736985320188,0.001,31.6903687681,4300.0,0.0,0.0,0.0
1513266250957608859,,617351,,1513266249,157770185,'',1.20427718388,1.19829495994,0.0106912210462,-0.00598222393793,0.001,25.7235629331,4300.0,0.0,0.0,0.0
1513266250967564969,,617352,,1513266249,167770185,'',1.20427718388,1.19829495994,0.00976856739571,-0.00598222393793,0.001,25.7235629331,4300.0,0.0,0.0,0.0
1513266250977508824,,617353,,1513266249,177770185,'',1.20427718388,1.19690733067,-0.0190562375996,-0.00736985320188,0.001,31.6903687681,4300.0,0.0,0.0,0.0
1513266250987728135,,617354,,1513266249,187770185,'',1.20427718388,1.19829495994,0.00883387923336,-0.00598222393793,0.001,25.7235629331,4300.0,0.0,0.0,0.0
1513266250997665889,,617355,,1513266249,197770185,'',1.20427718388,1.19829495994,0.00868521677682,-0.00598222393793,0.001,25.7235629331,4300.0,0.0,0.0,0.0
1513266251007755508,,617356,,1513266249,207770185,'',1.20427718388,1.1996825892,0.0350331426908,-0.00459459467398,0.001,19.7567570981,4300.0,0.0,0.0,0.0
1513266251017571407,,617357,,1513266249,217770185,'',1.20427718388,1.19829495994,0.00465861337195,-0.00598222393793,0.001,25.7235629331,4300.0,0.0,0.0,0.0
1513266251027506146,,617358,,1513266249,227770185,'',1.20427718388,1.1996825892,0.0278230924324,-0.00459459467398,0.001,19.7567570981,4300.0,0.0,0.0,0.0
1513266251037981470,,617359,,1513266249,237770185,'',1.20427718388,1.19829495994,-0.0031522527933,-0.00598222393793,0.001,25.7235629331,4300.0,0.0,0.0,0.0
1513266251047935042,,617360,,1513266249,247770185,'',1.20427718388,1.1996825892,0.020379526289,-0.00459459467398,0.001,19.7567570981,4300.0,0.0,0.0,0.0
1513266251057660525,,617361,,1513266249,257770185,'',1.20427718388,1.1996825892,0.0161723595612,-0.00459459467398,0.001,19.7567570981,4300.0,0.0,0.0,0.0
1513266251067650476,,617362,,1513266249,267770185,'',1.20427718388,1.20107021847,0.0401819742295,-0.00320696541002,0.001,13.7899512631,4300.0,0.0,0.0,0.0
1513266251077708382,,617363,,1513266249,277770185,'',1.20427718388,1.20107021847,0.0354188012077,-0.00320696541002,0.001,13.7899512631,4300.0,0.0,0.0,0.0
1513266251087704873,,617364,,1513266249,287770185,'',1.20427718388,1.20107021847,0.0314259028216,-0.00320696541002,0.001,13.7899512631,4300.0,0.0,0.0,0.0
1513266251097563074,,617365,,1513266249,297770185,'',1.20427718388,1.20107021847,0.0257258003865,-0.00320696541002,0.001,13.7899512631,4300.0,0.0,0.0,0.0
1513266251107951474,,617366,,1513266249,307770185,'',1.20427718388,1.20107021847,0.0205403306822,-0.00320696541002,0.001,13.7899512631,4300.0,0.0,0.0,0.0
1513266251117747410,,617367,,1513266249,317770185,'',1.20427718388,1.20107021847,0.0133188784338,-0.00320696541002,0.001,13.7899512631,4300.0,0.0,0.0,0.0
1513266251127934215,,617368,,1513266249,327770185,'',1.20427718388,1.20107021847,0.0094207417379,-0.00320696541002,0.001,13.7899512631,4300.0,0.0,0.0,0.0
1513266251138075453,,617369,,1513266249,337770185,'',1.20427718388,1.20107021847,0.0063068972469,-0.00320696541002,0.001,13.7899512631,4300.0,0.0,0.0,0.0
1513266251147936062,,617370,,1513266249,347770185,'',1.20427718388,1.20107021847,0.00263750030411,-0.00320696541002,0.001,13.7899512631,4300.0,0.0,0.0,0.0
1513266251157813210,,617371,,1513266249,357770185,'',1.20427718388,1.20245784773,0.0276732119128,-0.00181933614607,0.001,7.82314542811,4300.0,0.0,0.0,0.0
1513266251167600405,,617372,,1513266249,367770185,'',1.20427718388,1.20107021847,-0.00233050496812,-0.00320696541002,0.001,13.7899512631,4300.0,0.0,0.0,0.0
1513266251178248230,,617373,,1513266249,377770185,'',1.20427718388,1.20384547699,0.0499434776847,-0.000431706882119,0.001,1.85633959311,4300.0,0.0,0.0,0.0
1513266251188137028,,617374,,1513266249,387770185,'',1.20427718388,1.20384547699,0.0412962899953,-0.000431706882119,0.001,1.85633959311,4300.0,0.0,0.0,0.0
1513266251198201852,,617375,,1513266249,397770185,'',1.20427718388,1.20245784773,0.0058654817642,0.0,0.001,0.0,4300.0,0.0,0.0,0.0
1513266251207935330,,617376,,1513266249,407770185,'',1.20427718388,1.20384547699,0.0277857867132,0.0,0.001,0.0,4300.0,0.0,0.0,0.0
1513266251217814050,,617377,,1513266249,417770185,'',1.20427718388,1.20384547699,0.0216390701894,0.0,0.001,0.0,4300.0,0.0,0.0,0.0
1513266251227935121,,617378,,1513266249,427770185,'',1.20427718388,1.20523310626,0.044685325506,0.0,0.001,0.0,4300.0,0.0,0.0,0.0
1513266251237829167,,617379,,1513266249,437770185,'',1.20427718388,1.20384547699,0.0141397385624,0.0,0.001,0.0,4300.0,0.0,0.0,0.0
1513266251247678745,,617380,,1513266249,447770185,'',1.20427718388,1.20384547699,0.00855252139051,0.0,0.001,0.0,4300.0,0.0,0.0,0.0
1513266251257632344,,617381,,1513266249,457770185,'',1.20427718388,1.20384547699,0.00555296813754,0.0,0.001,0.0,4300.0,0.0,0.0,0.0
1513266251268040229,,617382,,1513266249,467770185,'',1.20427718388,1.20384547699,0.00454575802227,0.0,0.001,0.0,4300.0,0.0,0.0,0.0
1513266251277994406,,617383,,1513266249,477770185,'',1.20427718388,1.20384547699,0.00272472961704,0.0,0.001,0.0,4300.0,0.0,0.0,0.0
1513266251287774916,,617384,,1513266249,487770185,'',1.20427718388,1.20384547699,-0.00230044883878,0.0,0.001,0.0,4300.0,0.0,0.0,0.0
1513266251297858467,,617385,,1513266249,497770185,'',1.20427718388,1.20523310626,0.0235538215834,0.0,0.001,0.0,4300.0,0.0,0.0,0.0
1513266251307806942,,617386,,1513266249,507770185,'',1.20427718388,1.20384547699,-0.0051651587867,0.0,0.001,0.0,4300.0,0.0,0.0,0.0
1513266251317753292,,617387,,1513266249,517770185,'',1.20427718388,1.20523310626,0.0211880953536,0.0,0.001,0.0,4300.0,0.0,0.0,0.0
1513266251327664924,,617388,,1513266249,527770185,'',1.20427718388,1.20523310626,0.017448036051,0.0,0.001,0.0,4300.0,0.0,0.0,0.0
1513266251338114632,,617389,,1513266249,537770185,'',1.20427718388,1.20523310626,0.0162849835307,0.0,0.001,0.0,4300.0,0.0,0.0,0.0
1513266251347908222,,617390,,1513266249,547770185,'',1.20427718388,1.20523310626,0.0143130391913,0.0,0.001,0.0,4300.0,0.0,0.0,0.0
1513266251357825723,,617391,,1513266249,557770185,'',1.20427718388,1.20523310626,0.0122103507347,0.0,0.001,0.0,4300.0,0.0,0.0,0.0
1513266251367688307,,617392,,1513266249,567770185,'',1.20427718388,1.20523310626,0.0111577993362,0.0,0.001,0.0,4300.0,0.0,0.0,0.0
1513266251377718966,,617393,,1513266249,577770185,'',1.20427718388,1.20384547699,-0.0173549551774,0.0,0.001,0.0,4300.0,0.0,0.0,0.0
1513266251387639911,,617394,,1513266249,587770185,'',1.20427718388,1.20523310626,0.00966350745358,0.0,0.001,0.0,4300.0,0.0,0.0,0.0
1513266251397515110,,617395,,1513266249,597770185,'',1.20427718388,1.20384547699,-0.0185519286741,0.0,0.001,0.0,4300.0,0.0,0.0,0.0
1513266251407868392,,617396,,1513266249,607770185,'',1.20427718388,1.20523310626,0.00774762116669,0.0,0.001,0.0,4300.0,0.0,0.0,0.0
1513266251417862877,,617397,,1513266249,617770185,'',1.20427718388,1.20523310626,0.00632866178921,0.0,0.001,0.0,4300.0,0.0,0.0,0.0
1513266251427872198,,617398,,1513266249,627770185,'',1.20427718388,1.20523310626,0.0036209772407,0.0,0.001,0.0,4300.0,0.0,0.0,0.0
1513266251437780944,,617399,,1513266249,637770185,'',1.20427718388,1.20523310626,0.00246297071626,0.0,0.001,0.0,4300.0,0.0,0.0,0.0
1513266251447875141,,617400,,1513266249,647770185,'',1.20427718388,1.20523310626,0.00104915003198,0.0,0.001,0.0,4300.0,0.0,0.0,0.0
1513266251457583264,,617401,,1513266249,657770185,'',1.20427718388,1.20523310626,-0.00011405625263,0.0,0.001,0.0,4300.0,0.0,0.0,0.0
1513266251467493629,,617402,,1513266249,667770185,'',1.20427718388,1.20523310626,0.000872293376589,0.0,0.001,0.0,4300.0,0.0,0.0,0.0
1513266251477498341,,617403,,1513266249,677770185,'',1.20427718388,1.20523310626,0.000278471675631,0.0,0.001,0.0,4300.0,0.0,0.0,0.0
1513266251487897546,,617404,,1513266249,687770185,'',1.20427718388,1.20523310626,0.000217943936916,0.0,0.001,0.0,4300.0,0.0,0.0,0.0
1513266251497946044,,617405,,1513266249,697770185,'',1.20427718388,1.20662073552,0.0266400859238,0.0,0.001,0.0,4300.0,0.0,0.0,0.0
1513266251507836796,,617406,,1513266249,707770185,'',1.20427718388,1.20523310626,-0.00061702525272,0.0,0.001,0.0,4300.0,0.0,0.0,0.0
1513266251517732614,,617407,,1513266249,717770185,'',1.20427718388,1.20523310626,-0.000505127063852,0.0,0.001,0.0,4300.0,0.0,0.0,0.0
1513266251527779334,,617408,,1513266249,727770185,'',1.20427718388,1.20384547699,-0.0268056472623,0.0,0.001,0.0,4300.0,0.0,0.0,0.0
1513266251537689560,,617409,,1513266249,737770185,'',1.20427718388,1.20523310626,0.0015346840799,0.0,0.001,0.0,4300.0,0.0,0.0,0.0
1513266251547642662,,617410,,1513266249,747770185,'',1.20427718388,1.20523310626,-0.000305761507511,0.0,0.001,0.0,4300.0,0.0,0.0,0.0
1513266251557614900,,617411,,1513266249,757770185,'',1.20427718388,1.20662073552,0.0272814960035,0.0,0.001,0.0,4300.0,0.0,0.0,0.0
1513266251567613282,,617412,,1513266249,767770185,'',1.20427718388,1.20523310626,-0.00165286404749,0.0,0.001,0.0,4300.0,0.0,0.0,0.0
1513266251577610862,,617413,,1513266249,777770185,'',1.20427718388,1.20662073552,0.0255754316678,0.0,0.001,0.0,4300.0,0.0,0.0,0.0
1513266251587948134,,617414,,1513266249,787770185,'',1.20427718388,1.20662073552,0.0239160137429,0.0,0.001,0.0,4300.0,0.0,0.0,0.0
1513266251597932045,,617415,,1513266249,797770185,'',1.20427718388,1.20384547699,-0.0309117352097,0.0,0.001,0.0,4300.0,0.0,0.0,0.0
1513266251607822323,,617416,,1513266249,807770185,'',1.20427718388,1.20523310626,-0.00235314106657,0.0,0.001,0.0,4300.0,0.0,0.0,0.0
1513266251617747857,,617417,,1513266249,817770185,'',1.20427718388,1.20662073552,0.0240278259289,0.0,0.001,0.0,4300.0,0.0,0.0,0.0
1513266251627683937,,617418,,1513266249,827770185,'',1.20427718388,1.20523310626,-0.00486568989431,0.0,0.001,0.0,4300.0,0.0,0.0,0.0
1513266251637655520,,617419,,1513266249,837770185,'',1.20427718388,1.20523310626,-0.0049536311554,0.0,0.001,0.0,4300.0,0.0,0.0,0.0
1513266251647497425,,617420,,1513266249,847770185,'',1.20427718388,1.20523310626,-0.0045537355863,0.0,0.001,0.0,4300.0,0.0,0.0,0.0
1513266251657970927,,617421,,1513266249,857770185,'',1.20427718388,1.20662073552,0.0237046003439,0.0,0.001,0.0,4300.0,0.0,0.0,0.0
1513266251667918369,,617422,,1513266249,867770185,'',1.20427718388,1.20523310626,-0.0055203869184,0.0,0.001,0.0,4300.0,0.0,0.0,0.0
1513266251677795226,,617423,,1513266249,877770185,'',1.20427718388,1.20523310626,-0.00452865575766,0.0,0.001,0.0,4300.0,0.0,0.0,0.0
1513266251687864121,,617424,,1513266249,887770185,'',1.20427718388,1.20523310626,-0.00469474933488,0.0,0.001,0.0,4300.0,0.0,0.0,0.0
1513266251697665453,,617425,,1513266249,897770185,'',1.20427718388,1.20523310626,-0.00489902502892,0.0,0.001,0.0,4300.0,0.0,0.0,0.0
1513266251707664926,,617426,,1513266249,907770185,'',1.20427718388,1.20523310626,-0.00499732044001,0.0,0.001,0.0,4300.0,0.0,0.0,0.0
1513266251717662948,,617427,,1513266249,917770185,'',1.20427718388,1.20523310626,-0.00504947040635,0.0,0.001,0.0,4300.0,0.0,0.0,0.0
1513266251727621504,,617428,,1513266249,927770185,'',1.20427718388,1.20523310626,-0.00720980402342,0.0,0.001,0.0,4300.0,0.0,0.0,0.0
1513266251738050052,,617429,,1513266249,937770185,'',1.20427718388,1.20523310626,-0.00633793106341,0.0,0.001,0.0,4300.0,0.0,0.0,0.0
1513266251747675247,,617430,,1513266249,947770185,'',1.20427718388,1.20523310626,-0.00467894228598,0.0,0.001,0.0,4300.0,0.0,0.0,0.0
1513266251757639519,,617431,,1513266249,957770185,'',1.20427718388,1.20523310626,-0.00481544283062,0.0,0.001,0.0,4300.0,0.0,0.0,0.0
1513266251767588937,,617432,,1513266249,967770185,'',1.20427718388,1.20523310626,-0.00491639513393,0.0,0.001,0.0,4300.0,0.0,0.0,0.0
1513266251777666545,,617433,,1513266249,977770185,'',1.20427718388,1.20523310626,-0.00605446094468,0.0,0.001,0.0,4300.0,0.0,0.0,0.0
1513266251788042527,,617434,,1513266249,987770185,'',1.20427718388,1.20523310626,-0.0039408755412,0.0,0.001,0.0,4300.0,0.0,0.0,0.0
1513266251797811716,,617435,,1513266249,997770185,'',1.20427718388,1.20523310626,-0.00426113545986,0.0,0.001,0.0,4300.0,0.0,0.0,0.0
1513266251807747106,,617436,,1513266250,7770185,'',1.20427718388,1.20523310626,-0.00289760460289,0.0,0.001,0.0,4300.0,0.0,0.0,0.0
1513266251817769918,,617437,,1513266250,17770185,'',1.20427718388,1.20523310626,-0.00277399200774,0.0,0.001,0.0,4300.0,0.0,0.0,0.0
1513266251827654697,,617438,,1513266250,27770185,'',1.20427718388,1.20384547699,-0.0292983694422,0.0,0.001,0.0,4300.0,0.0,0.0,0.0
1513266251837663493,,617439,,1513266250,37770185,'',1.20427718388,1.20523310626,-0.00152867651137,0.0,0.001,0.0,4300.0,0.0,0.0,0.0
1513266251847918530,,617440,,1513266250,47770185,'',1.20427718388,1.20662073552,0.0257458133241,0.0,0.001,0.0,4300.0,0.0,0.0,0.0
1513266251857882643,,617441,,1513266250,57770185,'',1.20427718388,1.20523310626,-0.000809694077654,0.0,0.001,0.0,4300.0,0.0,0.0,0.0
1513266251867804687,,617442,,1513266250,67770185,'',1.20427718388,1.20523310626,-0.00127514965887,0.0,0.001,0.0,4300.0,0.0,0.0,0.0
1513266251877780249,,617443,,1513266250,77770185,'',1.20427718388,1.20662073552,0.0264604936237,0.0,0.001,0.0,4300.0,0.0,0.0,0.0
1513266251887751889,,617444,,1513266250,87770185,'',1.20427718388,1.20523310626,-0.000795272278806,0.0,0.001,0.0,4300.0,0.0,0.0,0.0
1513266251897485946,,617445,,1513266250,97770185,'',1.20427718388,1.20384547699,-0.0285636390571,0.0,0.001,0.0,4300.0,0.0,0.0,0.0
1513266251907931885,,617446,,1513266250,107770185,'',1.20427718388,1.20523310626,-0.000432019479262,0.0,0.001,0.0,4300.0,0.0,0.0,0.0
1513266251917859912,,617447,,1513266250,117770185,'',1.20427718388,1.20523310626,0.000673271849575,0.0,0.001,0.0,4300.0,0.0,0.0,0.0
1513266251927980011,,617448,,1513266250,127770185,'',1.20427718388,1.20523310626,0.000512727050657,0.0,0.001,0.0,4300.0,0.0,0.0,0.0
1513266251937747477,,617449,,1513266250,137770185,'',1.20427718388,1.20523310626,-4.13152251291e-05,0.0,0.001,0.0,4300.0,0.0,0.0,0.0
1513266251947863412,,617450,,1513266250,147770185,'',1.20427718388,1.20523310626,-0.00104247681359,0.0,0.001,0.0,4300.0,0.0,0.0,0.0
1513266251957769459,,617451,,1513266250,157770185,'',1.20427718388,1.20662073552,0.0260888604799,0.0,0.001,0.0,4300.0,0.0,0.0,0.0
1513266251967658046,,617452,,1513266250,167770185,'',1.20427718388,1.20384547699,-0.0295750470571,0.0,0.001,0.0,4300.0,0.0,0.0,0.0
1513266251977558035,,617453,,1513266250,177770185,'',1.20427718388,1.20523310626,-0.00464729477603,0.0,0.001,0.0,4300.0,0.0,0.0,0.0
1513266251987942795,,617454,,1513266250,187770185,'',1.20427718388,1.20523310626,-0.00435020739475,0.0,0.001,0.0,4300.0,0.0,0.0,0.0
1513266251997875418,,617455,,1513266250,197770185,'',1.20427718388,1.20523310626,-0.0039953525137,0.0,0.001,0.0,4300.0,0.0,0.0,0.0
1513266252007712309,,617456,,1513266250,207770185,'',1.20427718388,1.20523310626,-0.00383946811607,0.0,0.001,0.0,4300.0,0.0,0.0,0.0
1513266252017725511,,617457,,1513266250,217770185,'',1.20427718388,1.20523310626,-0.00567742332868,0.0,0.001,0.0,4300.0,0.0,0.0,0.0
1513266252028007979,,617458,,1513266250,227770185,'',1.20427718388,1.20523310626,-0.0051142860889,0.0,0.001,0.0,4300.0,0.0,0.0,0.0
1513266252037858482,,617459,,1513266250,237770185,'',1.20427718388,1.20523310626,-0.00365173891181,0.0,0.001,0.0,4300.0,0.0,0.0,0.0
1513266252047866907,,617460,,1513266250,247770185,'',1.20427718388,1.20384547699,-0.0304650597314,0.0,0.001,0.0,4300.0,0.0,0.0,0.0
1513266252057843162,,617461,,1513266250,257770185,'',1.20427718388,1.20662073552,0.0250247518365,0.0,0.001,0.0,4300.0,0.0,0.0,0.0
1513266252067668487,,617462,,1513266250,267770185,'',1.20427718388,1.20523310626,-0.0029739783808,0.0,0.001,0.0,4300.0,0.0,0.0,0.0
1513266252077719090,,617463,,1513266250,277770185,'',1.20427718388,1.20523310626,-0.00193003081364,0.0,0.001,0.0,4300.0,0.0,0.0,0.0
1513266252087544717,,617464,,1513266250,287770185,'',1.20427718388,1.20523310626,-0.00109901413082,0.0,0.001,0.0,4300.0,0.0,0.0,0.0
1513266252097487956,,617465,,1513266250,297770185,'',1.20427718388,1.20523310626,-0.00145069506549,0.0,0.001,0.0,4300.0,0.0,0.0,0.0
1513266252107863355,,617466,,1513266250,307770185,'',1.20427718388,1.20523310626,-0.00277550024619,0.0,0.001,0.0,4300.0,0.0,0.0,0.0
1513266252117771346,,617467,,1513266250,317770185,'',1.20427718388,1.20523310626,-0.00329804304863,0.0,0.001,0.0,4300.0,0.0,0.0,0.0
1513266252127544221,,617468,,1513266250,327770185,'',1.20427718388,1.20523310626,-0.00379234585931,0.0,0.001,0.0,4300.0,0.0,0.0,0.0
1513266252137504102,,617469,,1513266250,337770185,'',1.20427718388,1.20523310626,-0.00304531079654,0.0,0.001,0.0,4300.0,0.0,0.0,0.0
1513266252147922284,,617470,,1513266250,347770185,'',1.20427718388,1.20523310626,-0.0030214308473,0.0,0.001,0.0,4300.0,0.0,0.0,0.0
1513266252157851561,,617471,,1513266250,357770185,'',1.20427718388,1.20523310626,-0.00285304321373,0.0,0.001,0.0,4300.0,0.0,0.0,0.0
1513266252167791750,,617472,,1513266250,367770185,'',1.20427718388,1.20523310626,-0.00379725667116,0.0,0.001,0.0,4300.0,0.0,0.0,0.0
1513266252177691110,,617473,,1513266250,377770185,'',1.20427718388,1.20662073552,0.023861053828,0.0,0.001,0.0,4300.0,0.0,0.0,0.0
1513266252187603105,,617474,,1513266250,387770185,'',1.20427718388,1.20523310626,-0.00344754468162,0.0,0.001,0.0,4300.0,0.0,0.0,0.0
1513266252197526802,,617475,,1513266250,397770185,'',1.20427718388,1.20384547699,-0.0312854925357,0.0,0.001,0.0,4300.0,0.0,0.0,0.0
1513266252207989335,,617476,,1513266250,407770185,'',1.20427718388,1.20523310626,-0.00322260600344,0.0,0.001,0.0,4300.0,0.0,0.0,0.0
1513266252218018192,,617477,,1513266250,417770185,'',1.20427718388,1.20523310626,-0.00310904832352,0.0,0.001,0.0,4300.0,0.0,0.0,0.0
1513266252227876986,,617478,,1513266250,427770185,'',1.20427718388,1.20523310626,-0.00357599069752,0.0,0.001,0.0,4300.0,0.0,0.0,0.0
1513266252237745648,,617479,,1513266250,437770185,'',1.20427718388,1.20662073552,0.024557028966,0.0,0.001,0.0,4300.0,0.0,0.0,0.0
1513266252247787330,,617480,,1513266250,447770185,'',1.20427718388,1.20662073552,0.0236673514215,0.0,0.001,0.0,4300.0,0.0,0.0,0.0
1513266252257529267,,617481,,1513266250,457770185,'',1.20427718388,1.20662073552,0.023013129995,0.0,0.001,0.0,4300.0,0.0,0.0,0.0
1513266252267511895,,617482,,1513266250,467770185,'',1.20427718388,1.20523310626,-0.004120872393,0.0,0.001,0.0,4300.0,0.0,0.0,0.0
1513266252277863937,,617483,,1513266250,477770185,'',1.20427718388,1.20523310626,-0.00337369256147,0.0,0.001,0.0,4300.0,0.0,0.0,0.0
1513266252287735757,,617484,,1513266250,487770185,'',1.20427718388,1.20662073552,0.0242474557589,0.0,0.001,0.0,4300.0,0.0,0.0,0.0
1513266252297575647,,617485,,1513266250,497770185,'',1.20427718388,1.20384547699,-0.031167939575,0.0,0.001,0.0,4300.0,0.0,0.0,0.0
1513266252307604332,,617486,,1513266250,507770185,'',1.20427718388,1.20523310626,-0.00258751829862,0.0,0.001,0.0,4300.0,0.0,0.0,0.0
1513266252317997841,,617487,,1513266250,517770185,'',1.20427718388,1.20523310626,-0.002087253229,0.0,0.001,0.0,4300.0,0.0,0.0,0.0
1513266252327886362,,617488,,1513266250,527770185,'',1.20427718388,1.20523310626,-0.00265031300536,0.0,0.001,0.0,4300.0,0.0,0.0,0.0
1513266252337706850,,617489,,1513266250,537770185,'',1.20427718388,1.20384547699,-0.0306413051338,0.0,0.001,0.0,4300.0,0.0,0.0,0.0
1513266252347771606,,617490,,1513266250,547770185,'',1.20427718388,1.20523310626,-0.00309109081594,0.0,0.001,0.0,4300.0,0.0,0.0,0.0
1513266252357674752,,617491,,1513266250,557770185,'',1.20427718388,1.20523310626,-0.0029600544596,0.0,0.001,0.0,4300.0,0.0,0.0,0.0
1513266252367677556,,617492,,1513266250,567770185,'',1.20427718388,1.20384547699,-0.0303667911716,0.0,0.001,0.0,4300.0,0.0,0.0,0.0
1513266252377924750,,617493,,1513266250,577770185,'',1.20427718388,1.20662073552,0.024620675211,0.0,0.001,0.0,4300.0,0.0,0.0,0.0
1513266252387717330,,617494,,1513266250,587770185,'',1.20427718388,1.20523310626,-0.00232871811919,0.0,0.001,0.0,4300.0,0.0,0.0,0.0
1513266252397576495,,617495,,1513266250,597770185,'',1.20427718388,1.20662073552,0.0240709371286,0.0,0.001,0.0,4300.0,0.0,0.0,0.0
1513266252407601542,,617496,,1513266250,607770185,'',1.20427718388,1.20523310626,-0.00378215699312,0.0,0.001,0.0,4300.0,0.0,0.0,0.0
1513266252417572253,,617497,,1513266250,617770185,'',1.20427718388,1.20523310626,-0.00255620557472,0.0,0.001,0.0,4300.0,0.0,0.0,0.0
1513266252427569170,,617498,,1513266250,627770185,'',1.20427718388,1.20523310626,-0.00209259504899,0.0,0.001,0.0,4300.0,0.0,0.0,0.0
1513266252437963363,,617499,,1513266250,637770185,'',1.20427718388,1.20384547699,-0.0291890092341,0.0,0.001,0.0,4300.0,0.0,0.0,0.0
1513266252448001560,,617500,,1513266250,647770185,'',1.20427718388,1.20523310626,-0.000943617321143,0.0,0.001,0.0,4300.0,0.0,0.0,0.0
1513266252457881283,,617501,,1513266250,657770185,'',1.20427718388,1.20523310626,-0.000338748025984,0.0,0.001,0.0,4300.0,0.0,0.0,0.0
1513266252467737094,,617502,,1513266250,667770185,'',1.20427718388,1.20662073552,0.0271978660822,0.0,0.001,0.0,4300.0,0.0,0.0,0.0
1513266252477980432,,617503,,1513266250,677770185,'',1.20427718388,1.20523310626,-0.000245817139925,0.0,0.001,0.0,4300.0,0.0,0.0,0.0
1513266252487997182,,617504,,1513266250,687770185,'',1.20427718388,1.20384547699,-0.0286965743684,0.0,0.001,0.0,4300.0,0.0,0.0,0.0
1513266252497974827,,617505,,1513266250,697770185,'',1.20427718388,1.20384547699,-0.0265874937153,0.0,0.001,0.0,4300.0,0.0,0.0,0.0
1513266252507756514,,617506,,1513266250,707770185,'',1.20427718388,1.20523310626,0.00116934463802,0.0,0.001,0.0,4300.0,0.0,0.0,0.0
1513266252517675407,,617507,,1513266250,717770185,'',1.20427718388,1.20523310626,-1.67675115329e-05,0.0,0.001,0.0,4300.0,0.0,0.0,0.0
1513266252527708738,,617508,,1513266250,727770185,'',1.20427718388,1.20523310626,0.00046783730118,0.0,0.001,0.0,4300.0,0.0,0.0,0.0
1513266252537610409,,617509,,1513266250,737770185,'',1.20427718388,1.20662073552,0.0278584455921,0.0,0.001,0.0,4300.0,0.0,0.0,0.0
1513266252548010827,,617510,,1513266250,747770185,'',1.20427718388,1.20384547699,-0.0292380407659,0.0,0.001,0.0,4300.0,0.0,0.0,0.0
1513266252557877258,,617511,,1513266250,757770185,'',1.20427718388,1.20523310626,8.67874753461e-05,0.0,0.001,0.0,4300.0,0.0,0.0,0.0
1513266252567908445,,617512,,1513266250,767770185,'',1.20427718388,1.20523310626,-0.000395618268359,0.0,0.001,0.0,4300.0,0.0,0.0,0.0
1513266252577746314,,617513,,1513266250,777770185,'',1.20427718388,1.20523310626,-0.000398151435416,0.0,0.001,0.0,4300.0,0.0,0.0,0.0
1513266252587648183,,617514,,1513266250,787770185,'',1.20427718388,1.20523310626,-0.00190320511516,0.0,0.001,0.0,4300.0,0.0,0.0,0.0
1513266252597584525,,617515,,1513266250,797770185,'',1.20427718388,1.20523310626,-0.00154239818422,0.0,0.001,0.0,4300.0,0.0,0.0,0.0
1513266252607572245,,617516,,1513266250,807770185,'',1.20427718388,1.20523310626,-0.00131344023556,0.0,0.001,0.0,4300.0,0.0,0.0,0.0
1513266252618036803,,617517,,1513266250,817770185,'',1.20427718388,1.20523310626,-0.00216665115423,0.0,0.001,0.0,4300.0,0.0,0.0,0.0
1513266252627971823,,617518,,1513266250,827770185,'',1.20427718388,1.20523310626,-0.00224965960141,0.0,0.001,0.0,4300.0,0.0,0.0,0.0
1513266252637733017,,617519,,1513266250,837770185,'',1.20427718388,1.20523310626,-0.00184703903471,0.0,0.001,0.0,4300.0,0.0,0.0,0.0
1513266252647747738,,617520,,1513266250,847770185,'',1.20427718388,1.20523310626,-0.00203870130847,0.0,0.001,0.0,4300.0,0.0,0.0,0.0
1513266252657720834,,617521,,1513266250,857770185,'',1.20427718388,1.20523310626,-0.00275209238277,0.0,0.001,0.0,4300.0,0.0,0.0,0.0
1513266252667692989,,617522,,1513266250,867770185,'',1.20427718388,1.20523310626,-0.00176834452753,0.0,0.001,0.0,4300.0,0.0,0.0,0.0
1513266252677605931,,617523,,1513266250,877770185,'',1.20427718388,1.20662073552,0.02600809177,0.0,0.001,0.0,4300.0,0.0,0.0,0.0
1513266252687598848,,617524,,1513266250,887770185,'',1.20427718388,1.20800836479,0.0527548719313,0.0,0.001,0.0,4300.0,0.0,0.0,0.0
1513266252697870120,,617525,,1513266250,897770185,'',1.20427718388,1.20523310626,-0.00527724282118,0.0,0.001,0.0,4300.0,0.0,0.0,0.0
1513266252707826068,,617526,,1513266250,907770185,'',1.20427718388,1.20523310626,-0.00481338130027,0.0,0.001,0.0,4300.0,0.0,0.0,0.0
1513266252717569283,,617527,,1513266250,917770185,'',1.20427718388,1.20523310626,-0.00494042613795,0.0,0.001,0.0,4300.0,0.0,0.0,0.0
1513266252727610969,,617528,,1513266250,927770185,'',1.20427718388,1.20523310626,-0.00504907342848,0.0,0.001,0.0,4300.0,0.0,0.0,0.0
1513266252737666201,,617529,,1513266250,937770185,'',1.20427718388,1.20523310626,-0.00563830094279,0.0,0.001,0.0,4300.0,0.0,0.0,0.0
1513266252747555630,,617530,,1513266250,947770185,'',1.20427718388,1.20523310626,-0.00661866866402,0.0,0.001,0.0,4300.0,0.0,0.0,0.0
1513266252757951155,,617531,,1513266250,957770185,'',1.20427718388,1.20662073552,0.0210704290037,0.0,0.001,0.0,4300.0,0.0,0.0,0.0
1513266252767880866,,617532,,1513266250,967770185,'',1.20427718388,1.20523310626,-0.00617117611306,0.0,0.001,0.0,4300.0,0.0,0.0,0.0
1513266252777796006,,617533,,1513266250,977770185,'',1.20427718388,1.20523310626,-0.00604808726,0.0,0.001,0.0,4300.0,0.0,0.0,0.0
1513266252787666331,,617534,,1513266250,987770185,'',1.20427718388,1.20523310626,-0.0059736230135,0.0,0.001,0.0,4300.0,0.0,0.0,0.0
1513266252797744041,,617535,,1513266250,997770185,'',1.20427718388,1.20523310626,-0.00538094730742,0.0,0.001,0.0,4300.0,0.0,0.0,0.0
1513266252807640809,,617536,,1513266251,7770185,'',1.20427718388,1.20523310626,-0.00545693421002,0.0,0.001,0.0,4300.0,0.0,0.0,0.0
1513266252817593146,,617537,,1513266251,17770185,'',1.20427718388,1.20523310626,-0.00650426360889,0.0,0.001,0.0,4300.0,0.0,0.0,0.0
1513266252827991767,,617538,,1513266251,27770185,'',1.20427718388,1.20523310626,-0.00789389793522,0.0,0.001,0.0,4300.0,0.0,0.0,0.0
1513266252837804748,,617539,,1513266251,37770185,'',1.20427718388,1.20523310626,-0.00696842223616,0.0,0.001,0.0,4300.0,0.0,0.0,0.0
1513266252847790809,,617540,,1513266251,47770185,'',1.20427718388,1.20662073552,0.0197637598061,0.0,0.001,0.0,4300.0,0.0,0.0,0.0
1513266252857707910,,617541,,1513266251,57770185,'',1.20427718388,1.20800836479,0.0462299465062,0.0,0.001,0.0,4300.0,0.0,0.0,0.0
1513266252867738010,,617542,,1513266251,67770185,'',1.20427718388,1.20800836479,0.0448926355718,0.0,0.001,0.0,4300.0,0.0,0.0,0.0
1513266252877756086,,617543,,1513266251,77770185,'',1.20427718388,1.20800836479,0.0452774738677,0.0,0.001,0.0,4300.0,0.0,0.0,0.0
1513266252887820955,,617544,,1513266251,87770185,'',1.20427718388,1.20523310626,-0.00929342436547,0.0,0.001,0.0,4300.0,0.0,0.0,0.0
1513266252897648966,,617545,,1513266251,97770185,'',1.20427718388,1.20523310626,-0.0100988651723,0.0,0.001,0.0,4300.0,0.0,0.0,0.0
1513266252907991691,,617546,,1513266251,107770185,'',1.20427718388,1.20384547699,-0.0368312902417,0.0,0.001,0.0,4300.0,0.0,0.0,0.0
1513266252918011216,,617547,,1513266251,117770185,'',1.20427718388,1.20523310626,-0.00769830797693,0.0,0.001,0.0,4300.0,0.0,0.0,0.0
1513266252927825760,,617548,,1513266251,127770185,'',1.20427718388,1.20662073552,0.0201721381132,0.0,0.001,0.0,4300.0,0.0,0.0,0.0
1513266252937872818,,617549,,1513266251,137770185,'',1.20427718388,1.20662073552,0.0200453239601,0.0,0.001,0.0,4300.0,0.0,0.0,0.0
1513266252947812424,,617550,,1513266251,147770185,'',1.20427718388,1.20800836479,0.0474763412705,0.0,0.001,0.0,4300.0,0.0,0.0,0.0
1513266252957612059,,617551,,1513266251,157770185,'',1.20427718388,1.20800836479,0.0443812103057,0.0,0.001,0.0,4300.0,0.0,0.0,0.0
1513266252967572124,,617552,,1513266251,167770185,'',1.20427718388,1.20523310626,-0.0106374252588,0.0,0.001,0.0,4300.0,0.0,0.0,0.0
1513266252977534990,,617553,,1513266251,177770185,'',1.20427718388,1.20523310626,-0.010173046973,0.0,0.001,0.0,4300.0,0.0,0.0,0.0
1513266252987954398,,617554,,1513266251,187770185,'',1.20427718388,1.20523310626,-0.0113143443843,0.0,0.001,0.0,4300.0,0.0,0.0,0.0
1513266252997838253,,617555,,1513266251,197770185,'',1.20427718388,1.20523310626,-0.0106930014562,0.0,0.001,0.0,4300.0,0.0,0.0,0.0
1513266253007919755,,617556,,1513266251,207770185,'',1.20427718388,1.20523310626,-0.00875348029155,0.0,0.001,0.0,4300.0,0.0,0.0,0.0
1513266253017896222,,617557,,1513266251,217770185,'',1.20427718388,1.20800836479,0.0472709877848,0.0,0.001,0.0,4300.0,0.0,0.0,0.0
1513266253027742414,,617558,,1513266251,227770185,'',1.20427718388,1.20523310626,-0.00720291936291,0.0,0.001,0.0,4300.0,0.0,0.0,0.0
1513266253037611375,,617559,,1513266251,237770185,'',1.20427718388,1.20523310626,-0.00589666224017,0.0,0.001,0.0,4300.0,0.0,0.0,0.0
1513266253047770417,,617560,,1513266251,247770185,'',1.20427718388,1.20523310626,-0.00531340980132,0.0,0.001,0.0,4300.0,0.0,0.0,0.0
1513266253057703613,,617561,,1513266251,257770185,'',1.20427718388,1.20523310626,-0.0063298583521,0.0,0.001,0.0,4300.0,0.0,0.0,0.0
1513266253067744184,,617562,,1513266251,267770185,'',1.20427718388,1.20800836479,0.0492278315056,0.0,0.001,0.0,4300.0,0.0,0.0,0.0
1513266253077683748,,617563,,1513266251,277770185,'',1.20427718388,1.20662073552,0.0213400277353,0.0,0.001,0.0,4300.0,0.0,0.0,0.0
1513266253087992002,,617564,,1513266251,287770185,'',1.20427718388,1.20523310626,-0.00702107501501,0.0,0.001,0.0,4300.0,0.0,0.0,0.0
1513266253097961746,,617565,,1513266251,297770185,'',1.20427718388,1.20523310626,-0.00722913034126,0.0,0.001,0.0,4300.0,0.0,0.0,0.0
1513266253107838084,,617566,,1513266251,307770185,'',1.20427718388,1.20523310626,-0.00799313550455,0.0,0.001,0.0,4300.0,0.0,0.0,0.0
1513266253117773004,,617567,,1513266251,317770185,'',1.20427718388,1.20800836479,0.04786789779,0.0,0.001,0.0,4300.0,0.0,0.0,0.0
1513266253127658276,,617568,,1513266251,327770185,'',1.20427718388,1.20523310626,-0.00673961647475,0.0,0.001,0.0,4300.0,0.0,0.0,0.0
1513266253137582624,,617569,,1513266251,337770185,'',1.20427718388,1.20523310626,-0.00749140335889,0.0,0.001,0.0,4300.0,0.0,0.0,0.0
1513266253147572603,,617570,,1513266251,347770185,'',1.20427718388,1.20523310626,-0.00659569312337,0.0,0.001,0.0,4300.0,0.0,0.0,0.0
1513266253157951897,,617571,,1513266251,357770185,'',1.20427718388,1.20523310626,-0.00589659330445,0.0,0.001,0.0,4300.0,0.0,0.0,0.0
1513266253167955011,,617572,,1513266251,367770185,'',1.20427718388,1.20523310626,-0.00571915609618,0.0,0.001,0.0,4300.0,0.0,0.0,0.0
1513266253177857418,,617573,,1513266251,377770185,'',1.20427718388,1.20662073552,0.0227939114189,0.0,0.001,0.0,4300.0,0.0,0.0,0.0
1513266253187855436,,617574,,1513266251,387770185,'',1.20427718388,1.20523310626,-0.00527494657214,0.0,0.001,0.0,4300.0,0.0,0.0,0.0
1513266253197789587,,617575,,1513266251,397770185,'',1.20427718388,1.20523310626,-0.00577434889035,0.0,0.001,0.0,4300.0,0.0,0.0,0.0
1513266253207928316,,617576,,1513266251,407770185,'',1.20427718388,1.20523310626,-0.00523117076907,0.0,0.001,0.0,4300.0,0.0,0.0,0.0
1513266253217610977,,617577,,1513266251,417770185,'',1.20427718388,1.20523310626,-0.00428257404347,0.0,0.001,0.0,4300.0,0.0,0.0,0.0
1513266253227489493,,617578,,1513266251,427770185,'',1.20427718388,1.20523310626,-0.00402993907112,0.0,0.001,0.0,4300.0,0.0,0.0,0.0
1513266253237960140,,617579,,1513266251,437770185,'',1.20427718388,1.20523310626,-0.00479143700593,0.0,0.001,0.0,4300.0,0.0,0.0,0.0
1513266253247823246,,617580,,1513266251,447770185,'',1.20427718388,1.20523310626,-0.00435626049634,0.0,0.001,0.0,4300.0,0.0,0.0,0.0
1513266253257961491,,617581,,1513266251,457770185,'',1.20427718388,1.20662073552,0.0235155070491,0.0,0.001,0.0,4300.0,0.0,0.0,0.0
1513266253267963494,,617582,,1513266251,467770185,'',1.20427718388,1.20523310626,-0.00422274735833,0.0,0.001,0.0,4300.0,0.0,0.0,0.0
1513266253277917598,,617583,,1513266251,477770185,'',1.20427718388,1.20523310626,-0.00496823686117,0.0,0.001,0.0,4300.0,0.0,0.0,0.0
1513266253287729265,,617584,,1513266251,487770185,'',1.20427718388,1.20662073552,0.0228893101483,0.0,0.001,0.0,4300.0,0.0,0.0,0.0
1513266253297618366,,617585,,1513266251,497770185,'',1.20427718388,1.20523310626,-0.00522156862848,0.0,0.001,0.0,4300.0,0.0,0.0,0.0
1513266253308022957,,617586,,1513266251,507770185,'',1.20427718388,1.20523310626,-0.00373809489478,0.0,0.001,0.0,4300.0,0.0,0.0,0.0
1513266253317909203,,617587,,1513266251,517770185,'',1.20427718388,1.20662073552,0.0228848362655,0.0,0.001,0.0,4300.0,0.0,0.0,0.0
1513266253327842398,,617588,,1513266251,527770185,'',1.20427718388,1.20662073552,0.021697007552,0.0,0.001,0.0,4300.0,0.0,0.0,0.0
1513266253337840144,,617589,,1513266251,537770185,'',1.20427718388,1.20523310626,-0.00667966007804,0.0,0.001,0.0,4300.0,0.0,0.0,0.0
1513266253347829851,,617590,,1513266251,547770185,'',1.20427718388,1.20523310626,-0.00647964758013,0.0,0.001,0.0,4300.0,0.0,0.0,0.0
1513266253357994385,,617591,,1513266251,557770185,'',1.20427718388,1.20523310626,-0.00727146602282,0.0,0.001,0.0,4300.0,0.0,0.0,0.0
1513266253367647836,,617592,,1513266251,567770185,'',1.20427718388,1.20523310626,-0.00687980153219,0.0,0.001,0.0,4300.0,0.0,0.0,0.0
1513266253377569832,,617593,,1513266251,577770185,'',1.20427718388,1.20523310626,-0.00720529721549,0.0,0.001,0.0,4300.0,0.0,0.0,0.0
1513266253387973060,,617594,,1513266251,587770185,'',1.20427718388,1.20384547699,-0.0343948851337,0.0,0.001,0.0,4300.0,0.0,0.0,0.0
1513266253397804757,,617595,,1513266251,597770185,'',1.20427718388,1.20523310626,-0.00571850021607,0.0,0.001,0.0,4300.0,0.0,0.0,0.0
1513266253407700534,,617596,,1513266251,607770185,'',1.20427718388,1.20523310626,-0.00619723892901,0.0,0.001,0.0,4300.0,0.0,0.0,0.0
1513266253417566146,,617597,,1513266251,617770185,'',1.20427718388,1.20523310626,-0.00807972291564,0.0,0.001,0.0,4300.0,0.0,0.0,0.0
1513266253427967118,,617598,,1513266251,627770185,'',1.20427718388,1.20523310626,-0.00915914789821,0.0,0.001,0.0,4300.0,0.0,0.0,0.0
1513266253437852327,,617599,,1513266251,637770185,'',1.20427718388,1.20662073552,0.0189725844721,0.0,0.001,0.0,4300.0,0.0,0.0,0.0
1513266253447807399,,617600,,1513266251,647770185,'',1.20427718388,1.20662073552,0.0169941705002,0.0,0.001,0.0,4300.0,0.0,0.0,0.0
1513266253457684002,,617601,,1513266251,657770185,'',1.20427718388,1.20523310626,-0.00951303971083,0.0,0.001,0.0,4300.0,0.0,0.0,0.0
1513266253467693817,,617602,,1513266251,667770185,'',1.20427718388,1.20523310626,-0.00930150596608,0.0,0.001,0.0,4300.0,0.0,0.0,0.0
1513266253477634878,,617603,,1513266251,677770185,'',1.20427718388,1.20523310626,-0.00955033423325,0.0,0.001,0.0,4300.0,0.0,0.0,0.0
1513266253487579561,,617604,,1513266251,687770185,'',1.20427718388,1.20523310626,-0.0113848822114,0.0,0.001,0.0,4300.0,0.0,0.0,0.0
1513266253497614003,,617605,,1513266251,697770185,'',1.20427718388,1.20523310626,-0.0108888977633,0.0,0.001,0.0,4300.0,0.0,0.0,0.0
1513266253507950340,,617606,,1513266251,707770185,'',1.20427718388,1.20523310626,-0.00990244508947,0.0,0.001,0.0,4300.0,0.0,0.0,0.0
1513266253517874004,,617607,,1513266251,717770185,'',1.20427718388,1.20523310626,-0.00913234924503,0.0,0.001,0.0,4300.0,0.0,0.0,0.0
1513266253527956191,,617608,,1513266251,727770185,'',1.20427718388,1.20523310626,-0.00855893469131,0.0,0.001,0.0,4300.0,0.0,0.0,0.0
1513266253537769864,,617609,,1513266251,737770185,'',1.20427718388,1.20662073552,0.0184264278671,0.0,0.001,0.0,4300.0,0.0,0.0,0.0
1513266253547656731,,617610,,1513266251,747770185,'',1.20427718388,1.20523310626,-0.00995542832363,0.0,0.001,0.0,4300.0,0.0,0.0,0.0
1513266253557565792,,617611,,1513266251,757770185,'',1.20427718388,1.20662073552,0.0193313113061,0.0,0.001,0.0,4300.0,0.0,0.0,0.0
1513266253567962150,,617612,,1513266251,767770185,'',1.20427718388,1.20523310626,-0.00911999814322,0.0,0.001,0.0,4300.0,0.0,0.0,0.0
1513266253577842099,,617613,,1513266251,777770185,'',1.20427718388,1.20662073552,0.0174365890193,0.0,0.001,0.0,4300.0,0.0,0.0,0.0
1513266253587769396,,617614,,1513266251,787770185,'',1.20427718388,1.20523310626,-0.0102494498437,0.0,0.001,0.0,4300.0,0.0,0.0,0.0
1513266253597647068,,617615,,1513266251,797770185,'',1.20427718388,1.20662073552,0.017561810504,0.0,0.001,0.0,4300.0,0.0,0.0,0.0
1513266253607512022,,617616,,1513266251,807770185,'',1.20427718388,1.20523310626,-0.00908215823515,0.0,0.001,0.0,4300.0,0.0,0.0,0.0
1513266253618009741,,617617,,1513266251,817770185,'',1.20427718388,1.20523310626,-0.00898728563802,0.0,0.001,0.0,4300.0,0.0,0.0,0.0
1513266253627906127,,617618,,1513266251,827770185,'',1.20427718388,1.20523310626,-0.00886676136536,0.0,0.001,0.0,4300.0,0.0,0.0,0.0
1513266253637802222,,617619,,1513266251,837770185,'',1.20427718388,1.20523310626,-0.00783385772512,0.0,0.001,0.0,4300.0,0.0,0.0,0.0
1513266253647767157,,617620,,1513266251,847770185,'',1.20427718388,1.20662073552,0.0191053860456,0.0,0.001,0.0,4300.0,0.0,0.0,0.0
1513266253657992220,,617621,,1513266251,857770185,'',1.20427718388,1.20523310626,-0.00924924957638,0.0,0.001,0.0,4300.0,0.0,0.0,0.0
1513266253667823898,,617622,,1513266251,867770185,'',1.20427718388,1.20523310626,-0.0091093677206,0.0,0.001,0.0,4300.0,0.0,0.0,0.0
1513266253677761022,,617623,,1513266251,877770185,'',1.20427718388,1.20662073552,0.0171443746881,0.0,0.001,0.0,4300.0,0.0,0.0,0.0
1513266253687720841,,617624,,1513266251,887770185,'',1.20427718388,1.20523310626,-0.0104119328805,0.0,0.001,0.0,4300.0,0.0,0.0,0.0
1513266253697580662,,617625,,1513266251,897770185,'',1.20427718388,1.20523310626,-0.00906308031841,0.0,0.001,0.0,4300.0,0.0,0.0,0.0
1513266253707578427,,617626,,1513266251,907770185,'',1.20427718388,1.20523310626,-0.0084055572543,0.0,0.001,0.0,4300.0,0.0,0.0,0.0
