rosbagTimestamp,header,seq,stamp,secs,nsecs,frame_id,set_point,process_value,process_value_dot,error,time_step,command,p,i,d,i_clamp
1513267462512184784,,738502,,1513267460,688669309,'',0.471238898038,0.474994669847,-0.0253067242952,0.00375577180809,0.001,18.7788590404,-5000.0,0.0,0.0,0.0
1513267462522503467,,738503,,1513267460,698669309,'',0.471238898038,0.474994669847,-0.0248999579129,0.00375577180809,0.001,18.7788590404,-5000.0,0.0,0.0,0.0
1513267462532561975,,738504,,1513267460,708669309,'',0.471238898038,0.476651627997,0.00822367325517,0.00541272995872,0.001,27.0636497936,-5000.0,0.0,0.0,0.0
1513267462542546401,,738505,,1513267460,718669309,'',0.471238898038,0.476651627997,0.00793156930016,0.00541272995872,0.001,27.0636497936,-5000.0,0.0,0.0,0.0
1513267462552615736,,738506,,1513267460,728669309,'',0.471238898038,0.476651627997,0.00646974904917,0.00541272995872,0.001,27.0636497936,-5000.0,0.0,0.0,0.0
1513267462562366289,,738507,,1513267460,738669309,'',0.471238898038,0.474994669847,-0.0263053952021,0.00375577180809,0.001,18.7788590404,-5000.0,0.0,0.0,0.0
1513267462572257037,,738508,,1513267460,748669309,'',0.471238898038,0.476651627997,0.00762682042,0.00541272995872,0.001,27.0636497936,-5000.0,0.0,0.0,0.0
1513267462582752109,,738509,,1513267460,758669309,'',0.471238898038,0.474994669847,-0.0253817881244,0.00375577180809,0.001,18.7788590404,-5000.0,0.0,0.0,0.0
1513267462592637106,,738510,,1513267460,768669309,'',0.471238898038,0.476651627997,0.00596049076167,0.00541272995872,0.001,27.0636497936,-5000.0,0.0,0.0,0.0
1513267462602642089,,738511,,1513267460,778669309,'',0.471238898038,0.478308586148,0.0401020890917,0.00706968810934,0.001,35.3484405467,-5000.0,0.0,0.0,0.0
1513267462612391976,,738512,,1513267460,788669309,'',0.471238898038,0.476651627997,0.00487338361512,0.00541272995872,0.001,27.0636497936,-5000.0,0.0,0.0,0.0
1513267462622392172,,738513,,1513267460,798669309,'',0.471238898038,0.476651627997,0.00518571146822,0.00541272995872,0.001,27.0636497936,-5000.0,0.0,0.0,0.0
1513267462632278642,,738514,,1513267460,808669309,'',0.471238898038,0.476651627997,0.00482462648489,0.00541272995872,0.001,27.0636497936,-5000.0,0.0,0.0,0.0
1513267462642358383,,738515,,1513267460,818669309,'',0.471238898038,0.476651627997,0.00456389342978,0.00541272995872,0.001,27.0636497936,-5000.0,0.0,0.0,0.0
1513267462652621298,,738516,,1513267460,828669309,'',0.471238898038,0.476651627997,0.00313852291422,0.00541272995872,0.001,27.0636497936,-5000.0,0.0,0.0,0.0
1513267462662651844,,738517,,1513267460,838669309,'',0.471238898038,0.476651627997,0.00239268858544,0.00541272995872,0.001,27.0636497936,-5000.0,0.0,0.0,0.0
1513267462672418315,,738518,,1513267460,848669309,'',0.471238898038,0.476651627997,0.00194763830116,0.00541272995872,0.001,27.0636497936,-5000.0,0.0,0.0,0.0
1513267462682270658,,738519,,1513267460,858669309,'',0.471238898038,0.474994669847,-0.0311530090513,0.00375577180809,0.001,18.7788590404,-5000.0,0.0,0.0,0.0
1513267462692655290,,738520,,1513267460,868669309,'',0.471238898038,0.476651627997,0.000628578239268,0.00541272995872,0.001,27.0636497936,-5000.0,0.0,0.0,0.0
1513267462702528571,,738521,,1513267460,878669309,'',0.471238898038,0.474994669847,-0.0329565609219,0.00375577180809,0.001,18.7788590404,-5000.0,0.0,0.0,0.0
1513267462712619820,,738522,,1513267460,888669309,'',0.471238898038,0.476651627997,0.00164919162786,0.00541272995872,0.001,27.0636497936,-5000.0,0.0,0.0,0.0
1513267462722578212,,738523,,1513267460,898669309,'',0.471238898038,0.474994669847,-0.0309339426494,0.00375577180809,0.001,18.7788590404,-5000.0,0.0,0.0,0.0
1513267462732515704,,738524,,1513267460,908669309,'',0.471238898038,0.476651627997,0.00515619928149,0.00541272995872,0.001,27.0636497936,-5000.0,0.0,0.0,0.0
1513267462742557340,,738525,,1513267460,918669309,'',0.471238898038,0.476651627997,0.00287981811491,0.00541272995872,0.001,27.0636497936,-5000.0,0.0,0.0,0.0
1513267462752416554,,738526,,1513267460,928669309,'',0.471238898038,0.476651627997,0.00231537616657,0.00541272995872,0.001,27.0636497936,-5000.0,0.0,0.0,0.0
1513267462762386115,,738527,,1513267460,938669309,'',0.471238898038,0.478308586148,0.0347405812233,0.00706968810934,0.001,35.3484405467,-5000.0,0.0,0.0,0.0
1513267462772411603,,738528,,1513267460,948669309,'',0.471238898038,0.476651627997,0.00109785401359,0.00541272995872,0.001,27.0636497936,-5000.0,0.0,0.0,0.0
1513267462782440335,,738529,,1513267460,958669309,'',0.471238898038,0.476651627997,-0.000282604975039,0.00541272995872,0.001,27.0636497936,-5000.0,0.0,0.0,0.0
1513267462792449211,,738530,,1513267460,968669309,'',0.471238898038,0.476651627997,-0.00143044195061,0.00541272995872,0.001,27.0636497936,-5000.0,0.0,0.0,0.0
1513267462802394656,,738531,,1513267460,978669309,'',0.471238898038,0.476651627997,-0.00171040688819,0.00541272995872,0.001,27.0636497936,-5000.0,0.0,0.0,0.0
1513267462812339046,,738532,,1513267460,988669309,'',0.471238898038,0.474994669847,-0.0323399546674,0.00375577180809,0.001,18.7788590404,-5000.0,0.0,0.0,0.0
1513267462822370966,,738533,,1513267460,998669309,'',0.471238898038,0.476651627997,-0.000253209097273,0.00541272995872,0.001,27.0636497936,-5000.0,0.0,0.0,0.0
1513267462832352906,,738534,,1513267461,8669309,'',0.471238898038,0.476651627997,0.000351187444223,0.00541272995872,0.001,27.0636497936,-5000.0,0.0,0.0,0.0
1513267462842313327,,738535,,1513267461,18669309,'',0.471238898038,0.476651627997,0.00095213501818,0.00541272995872,0.001,27.0636497936,-5000.0,0.0,0.0,0.0
1513267462852278572,,738536,,1513267461,28669309,'',0.471238898038,0.476651627997,0.000794916794906,0.00541272995872,0.001,27.0636497936,-5000.0,0.0,0.0,0.0
1513267462862307275,,738537,,1513267461,38669309,'',0.471238898038,0.476651627997,-2.4830516833e-05,0.00541272995872,0.001,27.0636497936,-5000.0,0.0,0.0,0.0
1513267462872221165,,738538,,1513267461,48669309,'',0.471238898038,0.476651627997,-0.00192654738041,0.00541272995872,0.001,27.0636497936,-5000.0,0.0,0.0,0.0
1513267462882141028,,738539,,1513267461,58669309,'',0.471238898038,0.476651627997,-0.00519909036603,0.00541272995872,0.001,27.0636497936,-5000.0,0.0,0.0,0.0
1513267462892633786,,738540,,1513267461,68669309,'',0.471238898038,0.476651627997,-0.00428766440423,0.00541272995872,0.001,27.0636497936,-5000.0,0.0,0.0,0.0
1513267462902566208,,738541,,1513267461,78669309,'',0.471238898038,0.476651627997,-0.00468617202925,0.00541272995872,0.001,27.0636497936,-5000.0,0.0,0.0,0.0
1513267462912501492,,738542,,1513267461,88669309,'',0.471238898038,0.476651627997,-0.00200372907729,0.00541272995872,0.001,27.0636497936,-5000.0,0.0,0.0,0.0
1513267462922507092,,738543,,1513267461,98669309,'',0.471238898038,0.474994669847,-0.0344478717574,0.00375577180809,0.001,18.7788590404,-5000.0,0.0,0.0,0.0
1513267462932471741,,738544,,1513267461,108669309,'',0.471238898038,0.478308586148,0.0326766293348,0.00706968810934,0.001,35.3484405467,-5000.0,0.0,0.0,0.0
1513267462942288156,,738545,,1513267461,118669309,'',0.471238898038,0.476651627997,-0.00119766307642,0.00541272995872,0.001,27.0636497936,-5000.0,0.0,0.0,0.0
1513267462952280930,,738546,,1513267461,128669309,'',0.471238898038,0.478308586148,0.0337562181786,0.00706968810934,0.001,35.3484405467,-5000.0,0.0,0.0,0.0
1513267462962302871,,738547,,1513267461,138669309,'',0.471238898038,0.474994669847,-0.0308280249264,0.00375577180809,0.001,18.7788590404,-5000.0,0.0,0.0,0.0
1513267462972284862,,738548,,1513267461,148669309,'',0.471238898038,0.476651627997,0.00159686808837,0.00541272995872,0.001,27.0636497936,-5000.0,0.0,0.0,0.0
1513267462982173301,,738549,,1513267461,158669309,'',0.471238898038,0.474994669847,-0.0321095094638,0.00375577180809,0.001,18.7788590404,-5000.0,0.0,0.0,0.0
1513267462992128795,,738550,,1513267461,168669309,'',0.471238898038,0.474994669847,-0.0323268339408,0.00375577180809,0.001,18.7788590404,-5000.0,0.0,0.0,0.0
1513267463002667749,,738551,,1513267461,178669309,'',0.471238898038,0.476651627997,0.00212376337314,0.00541272995872,0.001,27.0636497936,-5000.0,0.0,0.0,0.0
1513267463012672435,,738552,,1513267461,188669309,'',0.471238898038,0.478308586148,0.034616099049,0.00706968810934,0.001,35.3484405467,-5000.0,0.0,0.0,0.0
1513267463022288665,,738553,,1513267461,198669309,'',0.471238898038,0.478308586148,0.0337421956032,0.00706968810934,0.001,35.3484405467,-5000.0,0.0,0.0,0.0
1513267463032328765,,738554,,1513267461,208669309,'',0.471238898038,0.476651627997,-0.00153494194655,0.00541272995872,0.001,27.0636497936,-5000.0,0.0,0.0,0.0
1513267463042290398,,738555,,1513267461,218669309,'',0.471238898038,0.476651627997,-0.00123305629152,0.00541272995872,0.001,27.0636497936,-5000.0,0.0,0.0,0.0
1513267463052326731,,738556,,1513267461,228669309,'',0.471238898038,0.478308586148,0.0335854400323,0.00706968810934,0.001,35.3484405467,-5000.0,0.0,0.0,0.0
1513267463062780126,,738557,,1513267461,238669309,'',0.471238898038,0.476651627997,5.88847659457e-05,0.00541272995872,0.001,27.0636497936,-5000.0,0.0,0.0,0.0
1513267463072147577,,738558,,1513267461,248669309,'',0.471238898038,0.476651627997,0.0012419323369,0.00541272995872,0.001,27.0636497936,-5000.0,0.0,0.0,0.0
1513267463082163166,,738559,,1513267461,258669309,'',0.471238898038,0.474994669847,-0.0300160260578,0.00375577180809,0.001,18.7788590404,-5000.0,0.0,0.0,0.0
1513267463092587451,,738560,,1513267461,268669309,'',0.471238898038,0.474994669847,-0.0294167624829,0.00375577180809,0.001,18.7788590404,-5000.0,0.0,0.0,0.0
1513267463102247328,,738561,,1513267461,278669309,'',0.471238898038,0.476651627997,0.00264816480657,0.00541272995872,0.001,27.0636497936,-5000.0,0.0,0.0,0.0
1513267463112214486,,738562,,1513267461,288669309,'',0.471238898038,0.474994669847,-0.0270513234915,0.00375577180809,0.001,18.7788590404,-5000.0,0.0,0.0,0.0
1513267463122192471,,738563,,1513267461,298669309,'',0.471238898038,0.476651627997,0.00584219931935,0.00541272995872,0.001,27.0636497936,-5000.0,0.0,0.0,0.0
1513267463132135080,,738564,,1513267461,308669309,'',0.471238898038,0.476651627997,0.00607042924027,0.00541272995872,0.001,27.0636497936,-5000.0,0.0,0.0,0.0
1513267463146926831,,738565,,1513267461,318669309,'',0.471238898038,0.476651627997,0.00380847559013,0.00541272995872,0.001,27.0636497936,-5000.0,0.0,0.0,0.0
1513267463152541846,,738566,,1513267461,328669309,'',0.471238898038,0.476651627997,0.00365140529956,0.00541272995872,0.001,27.0636497936,-5000.0,0.0,0.0,0.0
1513267463162489633,,738567,,1513267461,338669309,'',0.471238898038,0.476651627997,0.00307459008786,0.00541272995872,0.001,27.0636497936,-5000.0,0.0,0.0,0.0
1513267463172592471,,738568,,1513267461,348669309,'',0.471238898038,0.476651627997,0.00130034601677,0.00541272995872,0.001,27.0636497936,-5000.0,0.0,0.0,0.0
1513267463182582061,,738569,,1513267461,358669309,'',0.471238898038,0.476651627997,0.00173432364976,0.00541272995872,0.001,27.0636497936,-5000.0,0.0,0.0,0.0
1513267463192417194,,738570,,1513267461,368669309,'',0.471238898038,0.476651627997,0.00198052776779,0.00541272995872,0.001,27.0636497936,-5000.0,0.0,0.0,0.0
1513267463202345790,,738571,,1513267461,378669309,'',0.471238898038,0.474994669847,-0.0306420533713,0.00375577180809,0.001,18.7788590404,-5000.0,0.0,0.0,0.0
1513267463212306118,,738572,,1513267461,388669309,'',0.471238898038,0.476651627997,0.00356981034193,0.00541272995872,0.001,27.0636497936,-5000.0,0.0,0.0,0.0
1513267463222240647,,738573,,1513267461,398669309,'',0.471238898038,0.476651627997,0.00296465760105,0.00541272995872,0.001,27.0636497936,-5000.0,0.0,0.0,0.0
1513267463232654976,,738574,,1513267461,408669309,'',0.471238898038,0.474994669847,-0.0291594249457,0.00375577180809,0.001,18.7788590404,-5000.0,0.0,0.0,0.0
1513267463242561369,,738575,,1513267461,418669309,'',0.471238898038,0.476651627997,0.00524276446931,0.00541272995872,0.001,27.0636497936,-5000.0,0.0,0.0,0.0
1513267463252534107,,738576,,1513267461,428669309,'',0.471238898038,0.476651627997,0.00490703788591,0.00541272995872,0.001,27.0636497936,-5000.0,0.0,0.0,0.0
1513267463262461500,,738577,,1513267461,438669309,'',0.471238898038,0.474994669847,-0.0299625169705,0.00375577180809,0.001,18.7788590404,-5000.0,0.0,0.0,0.0
1513267463272334959,,738578,,1513267461,448669309,'',0.471238898038,0.476651627997,0.00404789096334,0.00541272995872,0.001,27.0636497936,-5000.0,0.0,0.0,0.0
1513267463282379248,,738579,,1513267461,458669309,'',0.471238898038,0.474994669847,-0.0301775033218,0.00375577180809,0.001,18.7788590404,-5000.0,0.0,0.0,0.0
1513267463292306961,,738580,,1513267461,468669309,'',0.471238898038,0.476651627997,0.00329812071952,0.00541272995872,0.001,27.0636497936,-5000.0,0.0,0.0,0.0
1513267463302206279,,738581,,1513267461,478669309,'',0.471238898038,0.476651627997,0.00454887085518,0.00541272995872,0.001,27.0636497936,-5000.0,0.0,0.0,0.0
1513267463312628691,,738582,,1513267461,488669309,'',0.471238898038,0.476651627997,0.0030919164148,0.00541272995872,0.001,27.0636497936,-5000.0,0.0,0.0,0.0
1513267463322455311,,738583,,1513267461,498669309,'',0.471238898038,0.478308586148,0.0341262428515,0.00706968810934,0.001,35.3484405467,-5000.0,0.0,0.0,0.0
1513267463332245436,,738584,,1513267461,508669309,'',0.471238898038,0.476651627997,0.00171383349649,0.00541272995872,0.001,27.0636497936,-5000.0,0.0,0.0,0.0
1513267463342298001,,738585,,1513267461,518669309,'',0.471238898038,0.478308586148,0.0349333255503,0.00706968810934,0.001,35.3484405467,-5000.0,0.0,0.0,0.0
1513267463352209245,,738586,,1513267461,528669309,'',0.471238898038,0.476651627997,-0.000629034846173,0.00541272995872,0.001,27.0636497936,-5000.0,0.0,0.0,0.0
1513267463362581206,,738587,,1513267461,538669309,'',0.471238898038,0.476651627997,-0.000517335976868,0.00541272995872,0.001,27.0636497936,-5000.0,0.0,0.0,0.0
1513267463372516177,,738588,,1513267461,548669309,'',0.471238898038,0.476651627997,0.000811395857482,0.00541272995872,0.001,27.0636497936,-5000.0,0.0,0.0,0.0
1513267463382461895,,738589,,1513267461,558669309,'',0.471238898038,0.474994669847,-0.0333926723999,0.00375577180809,0.001,18.7788590404,-5000.0,0.0,0.0,0.0
1513267463392477495,,738590,,1513267461,568669309,'',0.471238898038,0.476651627997,1.34450911136e-05,0.00541272995872,0.001,27.0636497936,-5000.0,0.0,0.0,0.0
1513267463402353571,,738591,,1513267461,578669309,'',0.471238898038,0.476651627997,0.000127320366617,0.00541272995872,0.001,27.0636497936,-5000.0,0.0,0.0,0.0
1513267463412229303,,738592,,1513267461,588669309,'',0.471238898038,0.476651627997,0.000735729454763,0.00541272995872,0.001,27.0636497936,-5000.0,0.0,0.0,0.0
1513267463422252107,,738593,,1513267461,598669309,'',0.471238898038,0.478308586148,0.0340233655992,0.00706968810934,0.001,35.3484405467,-5000.0,0.0,0.0,0.0
1513267463432132745,,738594,,1513267461,608669309,'',0.471238898038,0.476651627997,0.00164881855698,0.00541272995872,0.001,27.0636497936,-5000.0,0.0,0.0,0.0
1513267463442554558,,738595,,1513267461,618669309,'',0.471238898038,0.476651627997,0.00185000596178,0.00541272995872,0.001,27.0636497936,-5000.0,0.0,0.0,0.0
1513267463452543662,,738596,,1513267461,628669309,'',0.471238898038,0.474994669847,-0.0313842861466,0.00375577180809,0.001,18.7788590404,-5000.0,0.0,0.0,0.0
1513267463462469087,,738597,,1513267461,638669309,'',0.471238898038,0.474994669847,-0.0305305103175,0.00375577180809,0.001,18.7788590404,-5000.0,0.0,0.0,0.0
1513267463472440087,,738598,,1513267461,648669309,'',0.471238898038,0.476651627997,0.0048354505983,0.00541272995872,0.001,27.0636497936,-5000.0,0.0,0.0,0.0
1513267463482371222,,738599,,1513267461,658669309,'',0.471238898038,0.474994669847,-0.0282311811019,0.00375577180809,0.001,18.7788590404,-5000.0,0.0,0.0,0.0
1513267463492341454,,738600,,1513267461,668669309,'',0.471238898038,0.476651627997,0.00309641067081,0.00541272995872,0.001,27.0636497936,-5000.0,0.0,0.0,0.0
1513267463502210457,,738601,,1513267461,678669309,'',0.471238898038,0.476651627997,0.004989400639,0.00541272995872,0.001,27.0636497936,-5000.0,0.0,0.0,0.0
1513267463512227810,,738602,,1513267461,688669309,'',0.471238898038,0.476651627997,0.00410187461053,0.00541272995872,0.001,27.0636497936,-5000.0,0.0,0.0,0.0
1513267463522266264,,738603,,1513267461,698669309,'',0.471238898038,0.478308586148,0.0349648365802,0.00706968810934,0.001,35.3484405467,-5000.0,0.0,0.0,0.0
1513267463532285531,,738604,,1513267461,708669309,'',0.471238898038,0.478308586148,0.0328575849361,0.00706968810934,0.001,35.3484405467,-5000.0,0.0,0.0,0.0
1513267463542298001,,738605,,1513267461,718669309,'',0.471238898038,0.476651627997,-0.000542584548309,0.00541272995872,0.001,27.0636497936,-5000.0,0.0,0.0,0.0
1513267463552341397,,738606,,1513267461,728669309,'',0.471238898038,0.476651627997,0.00135554804424,0.00541272995872,0.001,27.0636497936,-5000.0,0.0,0.0,0.0
1513267463562285300,,738607,,1513267461,738669309,'',0.471238898038,0.478308586148,0.0333554396474,0.00706968810934,0.001,35.3484405467,-5000.0,0.0,0.0,0.0
1513267463572143600,,738608,,1513267461,748669309,'',0.471238898038,0.476651627997,0.000475406401885,0.00541272995872,0.001,27.0636497936,-5000.0,0.0,0.0,0.0
1513267463582334023,,738609,,1513267461,758669309,'',0.471238898038,0.478308586148,0.0344209358964,0.00706968810934,0.001,35.3484405467,-5000.0,0.0,0.0,0.0
1513267463592203044,,738610,,1513267461,768669309,'',0.471238898038,0.476651627997,0.000835832546612,0.00541272995872,0.001,27.0636497936,-5000.0,0.0,0.0,0.0
1513267463602603783,,738611,,1513267461,778669309,'',0.471238898038,0.476651627997,0.000154572038218,0.00541272995872,0.001,27.0636497936,-5000.0,0.0,0.0,0.0
1513267463612685330,,738612,,1513267461,788669309,'',0.471238898038,0.478308586148,0.0318184735936,0.00706968810934,0.001,35.3484405467,-5000.0,0.0,0.0,0.0
1513267463622595859,,738613,,1513267461,798669309,'',0.471238898038,0.476651627997,-0.00258295961834,0.00541272995872,0.001,27.0636497936,-5000.0,0.0,0.0,0.0
1513267463632384369,,738614,,1513267461,808669309,'',0.471238898038,0.476651627997,-0.00274948113691,0.00541272995872,0.001,27.0636497936,-5000.0,0.0,0.0,0.0
1513267463642532667,,738615,,1513267461,818669309,'',0.471238898038,0.476651627997,-0.00290668866651,0.00541272995872,0.001,27.0636497936,-5000.0,0.0,0.0,0.0
1513267463652548562,,738616,,1513267461,828669309,'',0.471238898038,0.476651627997,-0.00177799947739,0.00541272995872,0.001,27.0636497936,-5000.0,0.0,0.0,0.0
1513267463662395364,,738617,,1513267461,838669309,'',0.471238898038,0.476651627997,-0.00142278121715,0.00541272995872,0.001,27.0636497936,-5000.0,0.0,0.0,0.0
1513267463672373405,,738618,,1513267461,848669309,'',0.471238898038,0.476651627997,-0.00173617435609,0.00541272995872,0.001,27.0636497936,-5000.0,0.0,0.0,0.0
1513267463682116601,,738619,,1513267461,858669309,'',0.471238898038,0.476651627997,0.000429669175788,0.00541272995872,0.001,27.0636497936,-5000.0,0.0,0.0,0.0
1513267463692669833,,738620,,1513267461,868669309,'',0.471238898038,0.476651627997,0.00146960944241,0.00541272995872,0.001,27.0636497936,-5000.0,0.0,0.0,0.0
1513267463702592765,,738621,,1513267461,878669309,'',0.471238898038,0.476651627997,0.00228739057083,0.00541272995872,0.001,27.0636497936,-5000.0,0.0,0.0,0.0
1513267463712569560,,738622,,1513267461,888669309,'',0.471238898038,0.476651627997,0.0037323597869,0.00541272995872,0.001,27.0636497936,-5000.0,0.0,0.0,0.0
1513267463722492189,,738623,,1513267461,898669309,'',0.471238898038,0.476651627997,0.00360462089158,0.00541272995872,0.001,27.0636497936,-5000.0,0.0,0.0,0.0
1513267463732582884,,738624,,1513267461,908669309,'',0.471238898038,0.476651627997,0.00297026932144,0.00541272995872,0.001,27.0636497936,-5000.0,0.0,0.0,0.0
1513267463742584153,,738625,,1513267461,918669309,'',0.471238898038,0.476651627997,0.00424319382309,0.00541272995872,0.001,27.0636497936,-5000.0,0.0,0.0,0.0
1513267463752665999,,738626,,1513267461,928669309,'',0.471238898038,0.476651627997,0.00344583795978,0.00541272995872,0.001,27.0636497936,-5000.0,0.0,0.0,0.0
1513267463762473038,,738627,,1513267461,938669309,'',0.471238898038,0.476651627997,0.00331558176988,0.00541272995872,0.001,27.0636497936,-5000.0,0.0,0.0,0.0
1513267463772390266,,738628,,1513267461,948669309,'',0.471238898038,0.476651627997,0.00500858903816,0.00541272995872,0.001,27.0636497936,-5000.0,0.0,0.0,0.0
1513267463782221417,,738629,,1513267461,958669309,'',0.471238898038,0.476651627997,0.0041452657541,0.00541272995872,0.001,27.0636497936,-5000.0,0.0,0.0,0.0
1513267463792329380,,738630,,1513267461,968669309,'',0.471238898038,0.476651627997,0.00221713848019,0.00541272995872,0.001,27.0636497936,-5000.0,0.0,0.0,0.0
1513267463802605964,,738631,,1513267461,978669309,'',0.471238898038,0.476651627997,0.00246545694067,0.00541272995872,0.001,27.0636497936,-5000.0,0.0,0.0,0.0
1513267463812589911,,738632,,1513267461,988669309,'',0.471238898038,0.476651627997,0.00261063384767,0.00541272995872,0.001,27.0636497936,-5000.0,0.0,0.0,0.0
1513267463822370984,,738633,,1513267461,998669309,'',0.471238898038,0.474994669847,-0.0301111131331,0.00375577180809,0.001,18.7788590404,-5000.0,0.0,0.0,0.0
1513267463832359666,,738634,,1513267462,8669309,'',0.471238898038,0.476651627997,0.00151531516901,0.00541272995872,0.001,27.0636497936,-5000.0,0.0,0.0,0.0
1513267463842312534,,738635,,1513267462,18669309,'',0.471238898038,0.478308586148,0.035248955224,0.00706968810934,0.001,35.3484405467,-5000.0,0.0,0.0,0.0
1513267463852270211,,738636,,1513267462,28669309,'',0.471238898038,0.476651627997,0.0020115305105,0.00541272995872,0.001,27.0636497936,-5000.0,0.0,0.0,0.0
1513267463862303288,,738637,,1513267462,38669309,'',0.471238898038,0.478308586148,0.0344939398491,0.00706968810934,0.001,35.3484405467,-5000.0,0.0,0.0,0.0
1513267463872610960,,738638,,1513267462,48669309,'',0.471238898038,0.476651627997,0.000359911052489,0.00541272995872,0.001,27.0636497936,-5000.0,0.0,0.0,0.0
1513267463882608606,,738639,,1513267462,58669309,'',0.471238898038,0.478308586148,0.0318136216666,0.00706968810934,0.001,35.3484405467,-5000.0,0.0,0.0,0.0
1513267463892574540,,738640,,1513267462,68669309,'',0.471238898038,0.476651627997,0.00113547401405,0.00541272995872,0.001,27.0636497936,-5000.0,0.0,0.0,0.0
1513267463902474317,,738641,,1513267462,78669309,'',0.471238898038,0.476651627997,0.00214408099953,0.00541272995872,0.001,27.0636497936,-5000.0,0.0,0.0,0.0
1513267463912484425,,738642,,1513267462,88669309,'',0.471238898038,0.476651627997,0.00298041105618,0.00541272995872,0.001,27.0636497936,-5000.0,0.0,0.0,0.0
1513267463922337728,,738643,,1513267462,98669309,'',0.471238898038,0.476651627997,0.00183365634151,0.00541272995872,0.001,27.0636497936,-5000.0,0.0,0.0,0.0
1513267463932316503,,738644,,1513267462,108669309,'',0.471238898038,0.476651627997,0.00266341841968,0.00541272995872,0.001,27.0636497936,-5000.0,0.0,0.0,0.0
1513267463942647109,,738645,,1513267462,118669309,'',0.471238898038,0.476651627997,0.00233266835765,0.00541272995872,0.001,27.0636497936,-5000.0,0.0,0.0,0.0
1513267463952603204,,738646,,1513267462,128669309,'',0.471238898038,0.478308586148,0.0353301819003,0.00706968810934,0.001,35.3484405467,-5000.0,0.0,0.0,0.0
1513267463962435772,,738647,,1513267462,138669309,'',0.471238898038,0.478308586148,0.0361155541769,0.00706968810934,0.001,35.3484405467,-5000.0,0.0,0.0,0.0
1513267463972536953,,738648,,1513267462,148669309,'',0.471238898038,0.474994669847,-0.0306372712436,0.00375577180809,0.001,18.7788590404,-5000.0,0.0,0.0,0.0
1513267463982418759,,738649,,1513267462,158669309,'',0.471238898038,0.476651627997,0.00295882660677,0.00541272995872,0.001,27.0636497936,-5000.0,0.0,0.0,0.0
1513267463992347889,,738650,,1513267462,168669309,'',0.471238898038,0.474994669847,-0.0285923430931,0.00375577180809,0.001,18.7788590404,-5000.0,0.0,0.0,0.0
1513267464002725501,,738651,,1513267462,178669309,'',0.471238898038,0.476651627997,0.00464161605904,0.00541272995872,0.001,27.0636497936,-5000.0,0.0,0.0,0.0
1513267464012360542,,738652,,1513267462,188669309,'',0.471238898038,0.476651627997,0.0049813645618,0.00541272995872,0.001,27.0636497936,-5000.0,0.0,0.0,0.0
1513267464022687635,,738653,,1513267462,198669309,'',0.471238898038,0.476651627997,0.00276388234711,0.00541272995872,0.001,27.0636497936,-5000.0,0.0,0.0,0.0
1513267464032595209,,738654,,1513267462,208669309,'',0.471238898038,0.476651627997,0.00282870410682,0.00541272995872,0.001,27.0636497936,-5000.0,0.0,0.0,0.0
1513267464042563163,,738655,,1513267462,218669309,'',0.471238898038,0.474994669847,-0.0299052610216,0.00375577180809,0.001,18.7788590404,-5000.0,0.0,0.0,0.0
1513267464052409080,,738656,,1513267462,228669309,'',0.471238898038,0.476651627997,0.00287767731849,0.00541272995872,0.001,27.0636497936,-5000.0,0.0,0.0,0.0
1513267464062373203,,738657,,1513267462,238669309,'',0.471238898038,0.476651627997,0.00300881691775,0.00541272995872,0.001,27.0636497936,-5000.0,0.0,0.0,0.0
1513267464072273560,,738658,,1513267462,248669309,'',0.471238898038,0.476651627997,0.00377248225764,0.00541272995872,0.001,27.0636497936,-5000.0,0.0,0.0,0.0
1513267464082379972,,738659,,1513267462,258669309,'',0.471238898038,0.474994669847,-0.0272901145786,0.00375577180809,0.001,18.7788590404,-5000.0,0.0,0.0,0.0
1513267464092312484,,738660,,1513267462,268669309,'',0.471238898038,0.476651627997,0.00676121754634,0.00541272995872,0.001,27.0636497936,-5000.0,0.0,0.0,0.0
1513267464102347778,,738661,,1513267462,278669309,'',0.471238898038,0.478308586148,0.0389896410357,0.00706968810934,0.001,35.3484405467,-5000.0,0.0,0.0,0.0
1513267464112281167,,738662,,1513267462,288669309,'',0.471238898038,0.476651627997,0.00567192451287,0.00541272995872,0.001,27.0636497936,-5000.0,0.0,0.0,0.0
1513267464122661785,,738663,,1513267462,298669309,'',0.471238898038,0.476651627997,0.00521549484794,0.00541272995872,0.001,27.0636497936,-5000.0,0.0,0.0,0.0
1513267464132557453,,738664,,1513267462,308669309,'',0.471238898038,0.476651627997,0.0048539143491,0.00541272995872,0.001,27.0636497936,-5000.0,0.0,0.0,0.0
1513267464142377475,,738665,,1513267462,318669309,'',0.471238898038,0.476651627997,0.0015743089328,0.00541272995872,0.001,27.0636497936,-5000.0,0.0,0.0,0.0
1513267464152397502,,738666,,1513267462,328669309,'',0.471238898038,0.476651627997,0.00187926944115,0.00541272995872,0.001,27.0636497936,-5000.0,0.0,0.0,0.0
1513267464162287468,,738667,,1513267462,338669309,'',0.471238898038,0.476651627997,0.00469557609771,0.00541272995872,0.001,27.0636497936,-5000.0,0.0,0.0,0.0
1513267464172331436,,738668,,1513267462,348669309,'',0.471238898038,0.476651627997,0.00387333224534,0.00541272995872,0.001,27.0636497936,-5000.0,0.0,0.0,0.0
1513267464182637753,,738669,,1513267462,358669309,'',0.471238898038,0.476651627997,0.00129177986603,0.00541272995872,0.001,27.0636497936,-5000.0,0.0,0.0,0.0
1513267464192490913,,738670,,1513267462,368669309,'',0.471238898038,0.476651627997,0.00105753437774,0.00541272995872,0.001,27.0636497936,-5000.0,0.0,0.0,0.0
1513267464202357814,,738671,,1513267462,378669309,'',0.471238898038,0.478308586148,0.0317538191956,0.00706968810934,0.001,35.3484405467,-5000.0,0.0,0.0,0.0
1513267464212401378,,738672,,1513267462,388669309,'',0.471238898038,0.474994669847,-0.0342925736148,0.00375577180809,0.001,18.7788590404,-5000.0,0.0,0.0,0.0
1513267464222379623,,738673,,1513267462,398669309,'',0.471238898038,0.474994669847,-0.033486987902,0.00375577180809,0.001,18.7788590404,-5000.0,0.0,0.0,0.0
1513267464232398432,,738674,,1513267462,408669309,'',0.471238898038,0.476651627997,-0.000599537189723,0.00541272995872,0.001,27.0636497936,-5000.0,0.0,0.0,0.0
1513267464242374801,,738675,,1513267462,418669309,'',0.471238898038,0.474994669847,-0.0345729804879,0.00375577180809,0.001,18.7788590404,-5000.0,0.0,0.0,0.0
1513267464252325078,,738676,,1513267462,428669309,'',0.471238898038,0.476651627997,-0.00088952154326,0.00541272995872,0.001,27.0636497936,-5000.0,0.0,0.0,0.0
1513267464262375593,,738677,,1513267462,438669309,'',0.471238898038,0.476651627997,-0.000119826669955,0.00541272995872,0.001,27.0636497936,-5000.0,0.0,0.0,0.0
1513267464272295290,,738678,,1513267462,448669309,'',0.471238898038,0.474994669847,-0.0328951017636,0.00375577180809,0.001,18.7788590404,-5000.0,0.0,0.0,0.0
1513267464282641840,,738679,,1513267462,458669309,'',0.471238898038,0.476651627997,0.0016599185073,0.00541272995872,0.001,27.0636497936,-5000.0,0.0,0.0,0.0
1513267464292494887,,738680,,1513267462,468669309,'',0.471238898038,0.476651627997,0.00123988280713,0.00541272995872,0.001,27.0636497936,-5000.0,0.0,0.0,0.0
1513267464302491684,,738681,,1513267462,478669309,'',0.471238898038,0.476651627997,0.00214452539013,0.00541272995872,0.001,27.0636497936,-5000.0,0.0,0.0,0.0
1513267464312442976,,738682,,1513267462,488669309,'',0.471238898038,0.476651627997,0.000676541442533,0.00541272995872,0.001,27.0636497936,-5000.0,0.0,0.0,0.0
1513267464322491026,,738683,,1513267462,498669309,'',0.471238898038,0.478308586148,0.0363703146009,0.00706968810934,0.001,35.3484405467,-5000.0,0.0,0.0,0.0
1513267464332290219,,738684,,1513267462,508669309,'',0.471238898038,0.474994669847,-0.0305002944724,0.00375577180809,0.001,18.7788590404,-5000.0,0.0,0.0,0.0
1513267464342382393,,738685,,1513267462,518669309,'',0.471238898038,0.474994669847,-0.0278815527252,0.00375577180809,0.001,18.7788590404,-5000.0,0.0,0.0,0.0
1513267464352286207,,738686,,1513267462,528669309,'',0.471238898038,0.476651627997,0.00587454080007,0.00541272995872,0.001,27.0636497936,-5000.0,0.0,0.0,0.0
1513267464362181107,,738687,,1513267462,538669309,'',0.471238898038,0.476651627997,0.00538367592942,0.00541272995872,0.001,27.0636497936,-5000.0,0.0,0.0,0.0
1513267464372647019,,738688,,1513267462,548669309,'',0.471238898038,0.478308586148,0.0366337432192,0.00706968810934,0.001,35.3484405467,-5000.0,0.0,0.0,0.0
1513267464382575808,,738689,,1513267462,558669309,'',0.471238898038,0.476651627997,0.0037807123229,0.00541272995872,0.001,27.0636497936,-5000.0,0.0,0.0,0.0
1513267464392536361,,738690,,1513267462,568669309,'',0.471238898038,0.476651627997,0.0043355708552,0.00541272995872,0.001,27.0636497936,-5000.0,0.0,0.0,0.0
1513267464402480122,,738691,,1513267462,578669309,'',0.471238898038,0.476651627997,0.00232015865524,0.00541272995872,0.001,27.0636497936,-5000.0,0.0,0.0,0.0
1513267464412454659,,738692,,1513267462,588669309,'',0.471238898038,0.474994669847,-0.0309323458707,0.00375577180809,0.001,18.7788590404,-5000.0,0.0,0.0,0.0
1513267464422488739,,738693,,1513267462,598669309,'',0.471238898038,0.476651627997,0.00137208722265,0.00541272995872,0.001,27.0636497936,-5000.0,0.0,0.0,0.0
1513267464432402216,,738694,,1513267462,608669309,'',0.471238898038,0.476651627997,-0.00138842373815,0.00541272995872,0.001,27.0636497936,-5000.0,0.0,0.0,0.0
1513267464442475170,,738695,,1513267462,618669309,'',0.471238898038,0.478308586148,0.0322450624392,0.00706968810934,0.001,35.3484405467,-5000.0,0.0,0.0,0.0
1513267464452427665,,738696,,1513267462,628669309,'',0.471238898038,0.476651627997,-0.00332902394179,0.00541272995872,0.001,27.0636497936,-5000.0,0.0,0.0,0.0
1513267464462402022,,738697,,1513267462,638669309,'',0.471238898038,0.476651627997,-0.000909128043767,0.00541272995872,0.001,27.0636497936,-5000.0,0.0,0.0,0.0
1513267464472221740,,738698,,1513267462,648669309,'',0.471238898038,0.476651627997,-0.000166755361858,0.00541272995872,0.001,27.0636497936,-5000.0,0.0,0.0,0.0
1513267464482572145,,738699,,1513267462,658669309,'',0.471238898038,0.476651627997,-0.00141035065618,0.00541272995872,0.001,27.0636497936,-5000.0,0.0,0.0,0.0
1513267464492382260,,738700,,1513267462,668669309,'',0.471238898038,0.476651627997,-0.000491445510228,0.00541272995872,0.001,27.0636497936,-5000.0,0.0,0.0,0.0
1513267464502411559,,738701,,1513267462,678669309,'',0.471238898038,0.478308586148,0.031797544254,0.00706968810934,0.001,35.3484405467,-5000.0,0.0,0.0,0.0
1513267464512407684,,738702,,1513267462,688669309,'',0.471238898038,0.476651627997,-0.00192382537291,0.00541272995872,0.001,27.0636497936,-5000.0,0.0,0.0,0.0
1513267464522392480,,738703,,1513267462,698669309,'',0.471238898038,0.474994669847,-0.0362574623922,0.00375577180809,0.001,18.7788590404,-5000.0,0.0,0.0,0.0
1513267464532511218,,738704,,1513267462,708669309,'',0.471238898038,0.474994669847,-0.0357198958678,0.00375577180809,0.001,18.7788590404,-5000.0,0.0,0.0,0.0
1513267464542341854,,738705,,1513267462,718669309,'',0.471238898038,0.478308586148,0.0297933116831,0.00706968810934,0.001,35.3484405467,-5000.0,0.0,0.0,0.0
1513267464552371112,,738706,,1513267462,728669309,'',0.471238898038,0.476651627997,-0.0035960066819,0.00541272995872,0.001,27.0636497936,-5000.0,0.0,0.0,0.0
1513267464562377096,,738707,,1513267462,738669309,'',0.471238898038,0.476651627997,-0.00172062876445,0.00541272995872,0.001,27.0636497936,-5000.0,0.0,0.0,0.0
1513267464572173072,,738708,,1513267462,748669309,'',0.471238898038,0.476651627997,-0.00135717761827,0.00541272995872,0.001,27.0636497936,-5000.0,0.0,0.0,0.0
1513267464582661122,,738709,,1513267462,758669309,'',0.471238898038,0.476651627997,-0.00235963408024,0.00541272995872,0.001,27.0636497936,-5000.0,0.0,0.0,0.0
1513267464592617438,,738710,,1513267462,768669309,'',0.471238898038,0.476651627997,-0.00142234941454,0.00541272995872,0.001,27.0636497936,-5000.0,0.0,0.0,0.0
1513267464602491684,,738711,,1513267462,778669309,'',0.471238898038,0.474994669847,-0.0339887396117,0.00375577180809,0.001,18.7788590404,-5000.0,0.0,0.0,0.0
1513267464612451964,,738712,,1513267462,788669309,'',0.471238898038,0.476651627997,-0.00161302448012,0.00541272995872,0.001,27.0636497936,-5000.0,0.0,0.0,0.0
1513267464622313433,,738713,,1513267462,798669309,'',0.471238898038,0.474994669847,-0.0329994684244,0.00375577180809,0.001,18.7788590404,-5000.0,0.0,0.0,0.0
1513267464632339597,,738714,,1513267462,808669309,'',0.471238898038,0.476651627997,0.00162229875441,0.00541272995872,0.001,27.0636497936,-5000.0,0.0,0.0,0.0
1513267464642205225,,738715,,1513267462,818669309,'',0.471238898038,0.474994669847,-0.0290381396909,0.00375577180809,0.001,18.7788590404,-5000.0,0.0,0.0,0.0
1513267464652589538,,738716,,1513267462,828669309,'',0.471238898038,0.478308586148,0.0352673698237,0.00706968810934,0.001,35.3484405467,-5000.0,0.0,0.0,0.0
1513267464662548023,,738717,,1513267462,838669309,'',0.471238898038,0.476651627997,0.00262767751441,0.00541272995872,0.001,27.0636497936,-5000.0,0.0,0.0,0.0
1513267464672461796,,738718,,1513267462,848669309,'',0.471238898038,0.476651627997,0.00399804897675,0.00541272995872,0.001,27.0636497936,-5000.0,0.0,0.0,0.0
1513267464682340348,,738719,,1513267462,858669309,'',0.471238898038,0.474994669847,-0.0265702301141,0.00375577180809,0.001,18.7788590404,-5000.0,0.0,0.0,0.0
1513267464692311251,,738720,,1513267462,868669309,'',0.471238898038,0.476651627997,0.00566503333359,0.00541272995872,0.001,27.0636497936,-5000.0,0.0,0.0,0.0
1513267464702566775,,738721,,1513267462,878669309,'',0.471238898038,0.476651627997,0.00519893561182,0.00541272995872,0.001,27.0636497936,-5000.0,0.0,0.0,0.0
1513267464712527309,,738722,,1513267462,888669309,'',0.471238898038,0.478308586148,0.0389046980005,0.00706968810934,0.001,35.3484405467,-5000.0,0.0,0.0,0.0
1513267464722531177,,738723,,1513267462,898669309,'',0.471238898038,0.476651627997,0.00507173158854,0.00541272995872,0.001,27.0636497936,-5000.0,0.0,0.0,0.0
1513267464732406717,,738724,,1513267462,908669309,'',0.471238898038,0.476651627997,0.00352973753109,0.00541272995872,0.001,27.0636497936,-5000.0,0.0,0.0,0.0
1513267464742438360,,738725,,1513267462,918669309,'',0.471238898038,0.476651627997,0.00533657856003,0.00541272995872,0.001,27.0636497936,-5000.0,0.0,0.0,0.0
1513267464752314569,,738726,,1513267462,928669309,'',0.471238898038,0.476651627997,0.0055890589016,0.00541272995872,0.001,27.0636497936,-5000.0,0.0,0.0,0.0
1513267464762631503,,738727,,1513267462,938669309,'',0.471238898038,0.476651627997,0.00633049509733,0.00541272995872,0.001,27.0636497936,-5000.0,0.0,0.0,0.0
1513267464772546044,,738728,,1513267462,948669309,'',0.471238898038,0.478308586148,0.0374171027136,0.00706968810934,0.001,35.3484405467,-5000.0,0.0,0.0,0.0
1513267464782486920,,738729,,1513267462,958669309,'',0.471238898038,0.474994669847,-0.0302288163437,0.00375577180809,0.001,18.7788590404,-5000.0,0.0,0.0,0.0
1513267464792621019,,738730,,1513267462,968669309,'',0.471238898038,0.476651627997,0.00394575144319,0.00541272995872,0.001,27.0636497936,-5000.0,0.0,0.0,0.0
1513267464802535372,,738731,,1513267462,978669309,'',0.471238898038,0.476651627997,0.00570182475415,0.00541272995872,0.001,27.0636497936,-5000.0,0.0,0.0,0.0
1513267464812480549,,738732,,1513267462,988669309,'',0.471238898038,0.478308586148,0.0386893196258,0.00706968810934,0.001,35.3484405467,-5000.0,0.0,0.0,0.0
1513267464822421807,,738733,,1513267462,998669309,'',0.471238898038,0.474994669847,-0.0279381231271,0.00375577180809,0.001,18.7788590404,-5000.0,0.0,0.0,0.0
1513267464832552374,,738734,,1513267463,8669309,'',0.471238898038,0.476651627997,0.00572924082558,0.00541272995872,0.001,27.0636497936,-5000.0,0.0,0.0,0.0
1513267464842457406,,738735,,1513267463,18669309,'',0.471238898038,0.476651627997,0.00596281864459,0.00541272995872,0.001,27.0636497936,-5000.0,0.0,0.0,0.0
1513267464852303104,,738736,,1513267463,28669309,'',0.471238898038,0.476651627997,0.0061089616806,0.00541272995872,0.001,27.0636497936,-5000.0,0.0,0.0,0.0
1513267464862409883,,738737,,1513267463,38669309,'',0.471238898038,0.474994669847,-0.0260359226552,0.00375577180809,0.001,18.7788590404,-5000.0,0.0,0.0,0.0
1513267464872435962,,738738,,1513267463,48669309,'',0.471238898038,0.474994669847,-0.0230961895319,0.00375577180809,0.001,18.7788590404,-5000.0,0.0,0.0,0.0
1513267464882484401,,738739,,1513267463,58669309,'',0.471238898038,0.476651627997,0.00910535665839,0.00541272995872,0.001,27.0636497936,-5000.0,0.0,0.0,0.0
1513267464892178241,,738740,,1513267463,68669309,'',0.471238898038,0.476651627997,0.00873957857011,0.00541272995872,0.001,27.0636497936,-5000.0,0.0,0.0,0.0
1513267464902709281,,738741,,1513267463,78669309,'',0.471238898038,0.476651627997,0.00710567999193,0.00541272995872,0.001,27.0636497936,-5000.0,0.0,0.0,0.0
1513267464912675346,,738742,,1513267463,88669309,'',0.471238898038,0.478308586148,0.0385186902188,0.00706968810934,0.001,35.3484405467,-5000.0,0.0,0.0,0.0
1513267464922647218,,738743,,1513267463,98669309,'',0.471238898038,0.476651627997,0.00597876318956,0.00541272995872,0.001,27.0636497936,-5000.0,0.0,0.0,0.0
1513267464932608772,,738744,,1513267463,108669309,'',0.471238898038,0.474994669847,-0.0267433016643,0.00375577180809,0.001,18.7788590404,-5000.0,0.0,0.0,0.0
1513267464942458206,,738745,,1513267463,118669309,'',0.471238898038,0.478308586148,0.0383202303557,0.00706968810934,0.001,35.3484405467,-5000.0,0.0,0.0,0.0
1513267464952513514,,738746,,1513267463,128669309,'',0.471238898038,0.476651627997,0.00401880711451,0.00541272995872,0.001,27.0636497936,-5000.0,0.0,0.0,0.0
1513267464962299513,,738747,,1513267463,138669309,'',0.471238898038,0.474994669847,-0.0259661049425,0.00375577180809,0.001,18.7788590404,-5000.0,0.0,0.0,0.0
1513267464973308876,,738748,,1513267463,148669309,'',0.471238898038,0.474994669847,-0.0253868260114,0.00375577180809,0.001,18.7788590404,-5000.0,0.0,0.0,0.0
1513267464982418659,,738749,,1513267463,158669309,'',0.471238898038,0.476651627997,0.00841047658475,0.00541272995872,0.001,27.0636497936,-5000.0,0.0,0.0,0.0
1513267464992258510,,738750,,1513267463,168669309,'',0.471238898038,0.476651627997,0.00803211490962,0.00541272995872,0.001,27.0636497936,-5000.0,0.0,0.0,0.0
1513267465002694639,,738751,,1513267463,178669309,'',0.471238898038,0.476651627997,0.00709021281592,0.00541272995872,0.001,27.0636497936,-5000.0,0.0,0.0,0.0
1513267465012692589,,738752,,1513267463,188669309,'',0.471238898038,0.474994669847,-0.0274625925533,0.00375577180809,0.001,18.7788590404,-5000.0,0.0,0.0,0.0
1513267465022609331,,738753,,1513267463,198669309,'',0.471238898038,0.476651627997,0.00611089213066,0.00541272995872,0.001,27.0636497936,-5000.0,0.0,0.0,0.0
1513267465032457925,,738754,,1513267463,208669309,'',0.471238898038,0.478308586148,0.038395717574,0.00706968810934,0.001,35.3484405467,-5000.0,0.0,0.0,0.0
1513267465042478887,,738755,,1513267463,218669309,'',0.471238898038,0.478308586148,0.0368449265267,0.00706968810934,0.001,35.3484405467,-5000.0,0.0,0.0,0.0
1513267465052380210,,738756,,1513267463,228669309,'',0.471238898038,0.476651627997,0.00338293471633,0.00541272995872,0.001,27.0636497936,-5000.0,0.0,0.0,0.0
1513267465062430745,,738757,,1513267463,238669309,'',0.471238898038,0.476651627997,0.00516771659207,0.00541272995872,0.001,27.0636497936,-5000.0,0.0,0.0,0.0
1513267465072588718,,738758,,1513267463,248669309,'',0.471238898038,0.476651627997,0.0071781269662,0.00541272995872,0.001,27.0636497936,-5000.0,0.0,0.0,0.0
1513267465082499444,,738759,,1513267463,258669309,'',0.471238898038,0.476651627997,0.00578484499538,0.00541272995872,0.001,27.0636497936,-5000.0,0.0,0.0,0.0
1513267465092365942,,738760,,1513267463,268669309,'',0.471238898038,0.476651627997,0.00470569455082,0.00541272995872,0.001,27.0636497936,-5000.0,0.0,0.0,0.0
1513267465102427612,,738761,,1513267463,278669309,'',0.471238898038,0.474994669847,-0.0289622396421,0.00375577180809,0.001,18.7788590404,-5000.0,0.0,0.0,0.0
1513267465112416034,,738762,,1513267463,288669309,'',0.471238898038,0.478308586148,0.0364356862214,0.00706968810934,0.001,35.3484405467,-5000.0,0.0,0.0,0.0
1513267465122434933,,738763,,1513267463,298669309,'',0.471238898038,0.476651627997,0.00414871147083,0.00541272995872,0.001,27.0636497936,-5000.0,0.0,0.0,0.0
1513267465132619496,,738764,,1513267463,308669309,'',0.471238898038,0.474994669847,-0.0287668867448,0.00375577180809,0.001,18.7788590404,-5000.0,0.0,0.0,0.0
1513267465142645854,,738765,,1513267463,318669309,'',0.471238898038,0.476651627997,0.00622342603748,0.00541272995872,0.001,27.0636497936,-5000.0,0.0,0.0,0.0
1513267465152571032,,738766,,1513267463,328669309,'',0.471238898038,0.476651627997,0.00565426816145,0.00541272995872,0.001,27.0636497936,-5000.0,0.0,0.0,0.0
1513267465162487299,,738767,,1513267463,338669309,'',0.471238898038,0.474994669847,-0.0275847056349,0.00375577180809,0.001,18.7788590404,-5000.0,0.0,0.0,0.0
1513267465172750362,,738768,,1513267463,348669309,'',0.471238898038,0.476651627997,0.00664129232547,0.00541272995872,0.001,27.0636497936,-5000.0,0.0,0.0,0.0
1513267465182569344,,738769,,1513267463,358669309,'',0.471238898038,0.474994669847,-0.0261721172892,0.00375577180809,0.001,18.7788590404,-5000.0,0.0,0.0,0.0
1513267465192427435,,738770,,1513267463,368669309,'',0.471238898038,0.474994669847,-0.0268293233558,0.00375577180809,0.001,18.7788590404,-5000.0,0.0,0.0,0.0
1513267465202304311,,738771,,1513267463,378669309,'',0.471238898038,0.476651627997,0.00379692446889,0.00541272995872,0.001,27.0636497936,-5000.0,0.0,0.0,0.0
1513267465212692804,,738772,,1513267463,388669309,'',0.471238898038,0.476651627997,0.0025812832492,0.00541272995872,0.001,27.0636497936,-5000.0,0.0,0.0,0.0
1513267465222598078,,738773,,1513267463,398669309,'',0.471238898038,0.474994669847,-0.0300499624623,0.00375577180809,0.001,18.7788590404,-5000.0,0.0,0.0,0.0
1513267465232583837,,738774,,1513267463,408669309,'',0.471238898038,0.476651627997,0.00275957330734,0.00541272995872,0.001,27.0636497936,-5000.0,0.0,0.0,0.0
1513267465242410865,,738775,,1513267463,418669309,'',0.471238898038,0.476651627997,0.00414178923896,0.00541272995872,0.001,27.0636497936,-5000.0,0.0,0.0,0.0
1513267465252393603,,738776,,1513267463,428669309,'',0.471238898038,0.478308586148,0.03689172252,0.00706968810934,0.001,35.3484405467,-5000.0,0.0,0.0,0.0
1513267465262331853,,738777,,1513267463,438669309,'',0.471238898038,0.476651627997,0.00520923057755,0.00541272995872,0.001,27.0636497936,-5000.0,0.0,0.0,0.0
1513267465272252142,,738778,,1513267463,448669309,'',0.471238898038,0.478308586148,0.0364600876853,0.00706968810934,0.001,35.3484405467,-5000.0,0.0,0.0,0.0
1513267465282613529,,738779,,1513267463,458669309,'',0.471238898038,0.474994669847,-0.0292294857017,0.00375577180809,0.001,18.7788590404,-5000.0,0.0,0.0,0.0
1513267465292497720,,738780,,1513267463,468669309,'',0.471238898038,0.476651627997,0.00461538735094,0.00541272995872,0.001,27.0636497936,-5000.0,0.0,0.0,0.0
1513267465302507889,,738781,,1513267463,478669309,'',0.471238898038,0.474994669847,-0.0284724161108,0.00375577180809,0.001,18.7788590404,-5000.0,0.0,0.0,0.0
1513267465312458759,,738782,,1513267463,488669309,'',0.471238898038,0.476651627997,0.00530274875385,0.00541272995872,0.001,27.0636497936,-5000.0,0.0,0.0,0.0
1513267465322448027,,738783,,1513267463,498669309,'',0.471238898038,0.476651627997,0.00433830522555,0.00541272995872,0.001,27.0636497936,-5000.0,0.0,0.0,0.0
1513267465332417416,,738784,,1513267463,508669309,'',0.471238898038,0.476651627997,0.00423315564235,0.00541272995872,0.001,27.0636497936,-5000.0,0.0,0.0,0.0
1513267465342483975,,738785,,1513267463,518669309,'',0.471238898038,0.476651627997,0.00459430544642,0.00541272995872,0.001,27.0636497936,-5000.0,0.0,0.0,0.0
1513267465352251032,,738786,,1513267463,528669309,'',0.471238898038,0.478308586148,0.0378517233029,0.00706968810934,0.001,35.3484405467,-5000.0,0.0,0.0,0.0
1513267465362221221,,738787,,1513267463,538669309,'',0.471238898038,0.474994669847,-0.0274123448571,0.00375577180809,0.001,18.7788590404,-5000.0,0.0,0.0,0.0
1513267465372786749,,738788,,1513267463,548669309,'',0.471238898038,0.476651627997,0.00487822195686,0.00541272995872,0.001,27.0636497936,-5000.0,0.0,0.0,0.0
1513267465382671552,,738789,,1513267463,558669309,'',0.471238898038,0.474994669847,-0.0283156139726,0.00375577180809,0.001,18.7788590404,-5000.0,0.0,0.0,0.0
1513267465392621245,,738790,,1513267463,568669309,'',0.471238898038,0.476651627997,0.00239522141892,0.00541272995872,0.001,27.0636497936,-5000.0,0.0,0.0,0.0
1513267465402506666,,738791,,1513267463,578669309,'',0.471238898038,0.474994669847,-0.0296558580797,0.00375577180809,0.001,18.7788590404,-5000.0,0.0,0.0,0.0
1513267465412429979,,738792,,1513267463,588669309,'',0.471238898038,0.478308586148,0.0370647180968,0.00706968810934,0.001,35.3484405467,-5000.0,0.0,0.0,0.0
1513267465422445239,,738793,,1513267463,598669309,'',0.471238898038,0.478308586148,0.035103595031,0.00706968810934,0.001,35.3484405467,-5000.0,0.0,0.0,0.0
1513267465432464240,,738794,,1513267463,608669309,'',0.471238898038,0.476651627997,0.00260058721398,0.00541272995872,0.001,27.0636497936,-5000.0,0.0,0.0,0.0
1513267465442812208,,738795,,1513267463,618669309,'',0.471238898038,0.478308586148,0.0368012635424,0.00706968810934,0.001,35.3484405467,-5000.0,0.0,0.0,0.0
1513267465452168145,,738796,,1513267463,628669309,'',0.471238898038,0.474994669847,-0.0301018097163,0.00375577180809,0.001,18.7788590404,-5000.0,0.0,0.0,0.0
1513267465462545859,,738797,,1513267463,638669309,'',0.471238898038,0.476651627997,0.00459631477648,0.00541272995872,0.001,27.0636497936,-5000.0,0.0,0.0,0.0
1513267465472570654,,738798,,1513267463,648669309,'',0.471238898038,0.476651627997,0.0061022851413,0.00541272995872,0.001,27.0636497936,-5000.0,0.0,0.0,0.0
1513267465482427939,,738799,,1513267463,658669309,'',0.471238898038,0.474994669847,-0.0260323052018,0.00375577180809,0.001,18.7788590404,-5000.0,0.0,0.0,0.0
1513267465492405619,,738800,,1513267463,668669309,'',0.471238898038,0.474994669847,-0.025509645222,0.00375577180809,0.001,18.7788590404,-5000.0,0.0,0.0,0.0
1513267465502335691,,738801,,1513267463,678669309,'',0.471238898038,0.476651627997,0.00654005690101,0.00541272995872,0.001,27.0636497936,-5000.0,0.0,0.0,0.0
1513267465512358481,,738802,,1513267463,688669309,'',0.471238898038,0.476651627997,0.00588685766243,0.00541272995872,0.001,27.0636497936,-5000.0,0.0,0.0,0.0
1513267465522405709,,738803,,1513267463,698669309,'',0.471238898038,0.476651627997,0.0065681322348,0.00541272995872,0.001,27.0636497936,-5000.0,0.0,0.0,0.0
1513267465532291058,,738804,,1513267463,708669309,'',0.471238898038,0.476651627997,0.00842932651889,0.00541272995872,0.001,27.0636497936,-5000.0,0.0,0.0,0.0
1513267465542260324,,738805,,1513267463,718669309,'',0.471238898038,0.476651627997,0.00752485246646,0.00541272995872,0.001,27.0636497936,-5000.0,0.0,0.0,0.0
1513267465552683485,,738806,,1513267463,728669309,'',0.471238898038,0.476651627997,0.00852443748983,0.00541272995872,0.001,27.0636497936,-5000.0,0.0,0.0,0.0
1513267465562653796,,738807,,1513267463,738669309,'',0.471238898038,0.476651627997,0.00809410783189,0.00541272995872,0.001,27.0636497936,-5000.0,0.0,0.0,0.0
1513267465572612430,,738808,,1513267463,748669309,'',0.471238898038,0.474994669847,-0.0255328273559,0.00375577180809,0.001,18.7788590404,-5000.0,0.0,0.0,0.0
1513267465582546857,,738809,,1513267463,758669309,'',0.471238898038,0.476651627997,0.00777929947967,0.00541272995872,0.001,27.0636497936,-5000.0,0.0,0.0,0.0
1513267465592472434,,738810,,1513267463,768669309,'',0.471238898038,0.476651627997,0.00693496954737,0.00541272995872,0.001,27.0636497936,-5000.0,0.0,0.0,0.0
1513267465602320652,,738811,,1513267463,778669309,'',0.471238898038,0.476651627997,0.00744313246016,0.00541272995872,0.001,27.0636497936,-5000.0,0.0,0.0,0.0
1513267465612399472,,738812,,1513267463,788669309,'',0.471238898038,0.476651627997,0.00668995627245,0.00541272995872,0.001,27.0636497936,-5000.0,0.0,0.0,0.0
1513267465622291429,,738813,,1513267463,798669309,'',0.471238898038,0.476651627997,0.00682963331795,0.00541272995872,0.001,27.0636497936,-5000.0,0.0,0.0,0.0
1513267465632289135,,738814,,1513267463,808669309,'',0.471238898038,0.476651627997,0.00567128200679,0.00541272995872,0.001,27.0636497936,-5000.0,0.0,0.0,0.0
1513267465642575603,,738815,,1513267463,818669309,'',0.471238898038,0.476651627997,0.0070840869863,0.00541272995872,0.001,27.0636497936,-5000.0,0.0,0.0,0.0
1513267465652560953,,738816,,1513267463,828669309,'',0.471238898038,0.476651627997,0.00763518352432,0.00541272995872,0.001,27.0636497936,-5000.0,0.0,0.0,0.0
1513267465662515682,,738817,,1513267463,838669309,'',0.471238898038,0.474994669847,-0.0260647597488,0.00375577180809,0.001,18.7788590404,-5000.0,0.0,0.0,0.0
1513267465672414048,,738818,,1513267463,848669309,'',0.471238898038,0.474994669847,-0.0279277627922,0.00375577180809,0.001,18.7788590404,-5000.0,0.0,0.0,0.0
1513267465682414924,,738819,,1513267463,858669309,'',0.471238898038,0.478308586148,0.0402570684553,0.00706968810934,0.001,35.3484405467,-5000.0,0.0,0.0,0.0
1513267465692355092,,738820,,1513267463,868669309,'',0.471238898038,0.476651627997,0.00549125135736,0.00541272995872,0.001,27.0636497936,-5000.0,0.0,0.0,0.0
1513267465702342696,,738821,,1513267463,878669309,'',0.471238898038,0.474994669847,-0.0264351580701,0.00375577180809,0.001,18.7788590404,-5000.0,0.0,0.0,0.0
1513267465712271602,,738822,,1513267463,888669309,'',0.471238898038,0.474994669847,-0.0264748729086,0.00375577180809,0.001,18.7788590404,-5000.0,0.0,0.0,0.0
1513267465722365971,,738823,,1513267463,898669309,'',0.471238898038,0.474994669847,-0.0258903220843,0.00375577180809,0.001,18.7788590404,-5000.0,0.0,0.0,0.0
1513267465732225319,,738824,,1513267463,908669309,'',0.471238898038,0.474994669847,-0.0260089269008,0.00375577180809,0.001,18.7788590404,-5000.0,0.0,0.0,0.0
1513267465742648095,,738825,,1513267463,918669309,'',0.471238898038,0.474994669847,-0.0236779321986,0.00375577180809,0.001,18.7788590404,-5000.0,0.0,0.0,0.0
1513267465752590366,,738826,,1513267463,928669309,'',0.471238898038,0.474994669847,-0.0230442150856,0.00375577180809,0.001,18.7788590404,-5000.0,0.0,0.0,0.0
1513267465762522153,,738827,,1513267463,938669309,'',0.471238898038,0.476651627997,0.00907316256774,0.00541272995872,0.001,27.0636497936,-5000.0,0.0,0.0,0.0
1513267465772581996,,738828,,1513267463,948669309,'',0.471238898038,0.476651627997,0.0103874285767,0.00541272995872,0.001,27.0636497936,-5000.0,0.0,0.0,0.0
1513267465782647531,,738829,,1513267463,958669309,'',0.471238898038,0.476651627997,0.0115010024778,0.00541272995872,0.001,27.0636497936,-5000.0,0.0,0.0,0.0
1513267465792417154,,738830,,1513267463,968669309,'',0.471238898038,0.476651627997,0.0093283659729,0.00541272995872,0.001,27.0636497936,-5000.0,0.0,0.0,0.0
1513267465802197260,,738831,,1513267463,978669309,'',0.471238898038,0.476651627997,0.00947671505421,0.00541272995872,0.001,27.0636497936,-5000.0,0.0,0.0,0.0
1513267465812734792,,738832,,1513267463,988669309,'',0.471238898038,0.476651627997,0.00948769217018,0.00541272995872,0.001,27.0636497936,-5000.0,0.0,0.0,0.0
1513267465822593261,,738833,,1513267463,998669309,'',0.471238898038,0.474994669847,-0.0238493172087,0.00375577180809,0.001,18.7788590404,-5000.0,0.0,0.0,0.0
1513267465832513280,,738834,,1513267464,8669309,'',0.471238898038,0.476651627997,0.0102257648071,0.00541272995872,0.001,27.0636497936,-5000.0,0.0,0.0,0.0
1513267465842544892,,738835,,1513267464,18669309,'',0.471238898038,0.476651627997,0.00964059211957,0.00541272995872,0.001,27.0636497936,-5000.0,0.0,0.0,0.0
1513267465852518541,,738836,,1513267464,28669309,'',0.471238898038,0.476651627997,0.0102653252513,0.00541272995872,0.001,27.0636497936,-5000.0,0.0,0.0,0.0
1513267465862363400,,738837,,1513267464,38669309,'',0.471238898038,0.476651627997,0.011469996845,0.00541272995872,0.001,27.0636497936,-5000.0,0.0,0.0,0.0
1513267465872273105,,738838,,1513267464,48669309,'',0.471238898038,0.476651627997,0.00931074653217,0.00541272995872,0.001,27.0636497936,-5000.0,0.0,0.0,0.0
1513267465882228237,,738839,,1513267464,58669309,'',0.471238898038,0.476651627997,0.00944579231671,0.00541272995872,0.001,27.0636497936,-5000.0,0.0,0.0,0.0
1513267465892715720,,738840,,1513267464,68669309,'',0.471238898038,0.476651627997,0.00757398774989,0.00541272995872,0.001,27.0636497936,-5000.0,0.0,0.0,0.0
1513267465902772625,,738841,,1513267464,78669309,'',0.471238898038,0.476651627997,0.00684375924308,0.00541272995872,0.001,27.0636497936,-5000.0,0.0,0.0,0.0
1513267465912630581,,738842,,1513267464,88669309,'',0.471238898038,0.474994669847,-0.0266283431028,0.00375577180809,0.001,18.7788590404,-5000.0,0.0,0.0,0.0
1513267465922598112,,738843,,1513267464,98669309,'',0.471238898038,0.476651627997,0.00680740521715,0.00541272995872,0.001,27.0636497936,-5000.0,0.0,0.0,0.0
1513267465932572920,,738844,,1513267464,108669309,'',0.471238898038,0.478308586148,0.0396713427688,0.00706968810934,0.001,35.3484405467,-5000.0,0.0,0.0,0.0
1513267465942494812,,738845,,1513267464,118669309,'',0.471238898038,0.476651627997,0.00629836775579,0.00541272995872,0.001,27.0636497936,-5000.0,0.0,0.0,0.0
1513267465952471710,,738846,,1513267464,128669309,'',0.471238898038,0.476651627997,0.00515615203351,0.00541272995872,0.001,27.0636497936,-5000.0,0.0,0.0,0.0
1513267465962391057,,738847,,1513267464,138669309,'',0.471238898038,0.474994669847,-0.0285467420041,0.00375577180809,0.001,18.7788590404,-5000.0,0.0,0.0,0.0
1513267465972340404,,738848,,1513267464,148669309,'',0.471238898038,0.476651627997,0.00522242702855,0.00541272995872,0.001,27.0636497936,-5000.0,0.0,0.0,0.0
1513267465982449227,,738849,,1513267464,158669309,'',0.471238898038,0.476651627997,0.00609162200111,0.00541272995872,0.001,27.0636497936,-5000.0,0.0,0.0,0.0
1513267465992250422,,738850,,1513267464,168669309,'',0.471238898038,0.476651627997,0.00436801788298,0.00541272995872,0.001,27.0636497936,-5000.0,0.0,0.0,0.0
1513267466002754672,,738851,,1513267464,178669309,'',0.471238898038,0.476651627997,0.00296018473501,0.00541272995872,0.001,27.0636497936,-5000.0,0.0,0.0,0.0
1513267466012683405,,738852,,1513267464,188669309,'',0.471238898038,0.474994669847,-0.0297510312485,0.00375577180809,0.001,18.7788590404,-5000.0,0.0,0.0,0.0
1513267466022704866,,738853,,1513267464,198669309,'',0.471238898038,0.478308586148,0.0395203858705,0.00706968810934,0.001,35.3484405467,-5000.0,0.0,0.0,0.0
1513267466032636866,,738854,,1513267464,208669309,'',0.471238898038,0.476651627997,0.00438845184946,0.00541272995872,0.001,27.0636497936,-5000.0,0.0,0.0,0.0
1513267466042571166,,738855,,1513267464,218669309,'',0.471238898038,0.478308586148,0.0370823062223,0.00706968810934,0.001,35.3484405467,-5000.0,0.0,0.0,0.0
1513267466052613841,,738856,,1513267464,228669309,'',0.471238898038,0.476651627997,0.00233457371073,0.00541272995872,0.001,27.0636497936,-5000.0,0.0,0.0,0.0
1513267466062572297,,738857,,1513267464,238669309,'',0.471238898038,0.476651627997,0.00071168887183,0.00541272995872,0.001,27.0636497936,-5000.0,0.0,0.0,0.0
1513267466072500117,,738858,,1513267464,248669309,'',0.471238898038,0.476651627997,0.000582601109597,0.00541272995872,0.001,27.0636497936,-5000.0,0.0,0.0,0.0
1513267466082227457,,738859,,1513267464,258669309,'',0.471238898038,0.474994669847,-0.0305103364924,0.00375577180809,0.001,18.7788590404,-5000.0,0.0,0.0,0.0
1513267466092699599,,738860,,1513267464,268669309,'',0.471238898038,0.474994669847,-0.0310036085695,0.00375577180809,0.001,18.7788590404,-5000.0,0.0,0.0,0.0
