rosbagTimestamp,header,seq,stamp,secs,nsecs,frame_id,set_point,process_value,process_value_dot,error,time_step,command,p,i,d,i_clamp
1513267462512399059,,738504,,1513267460,688669309,'',1.62315620435,1.62533786592,-0.0112314981672,0.0,0.001,0.0,4500.0,0.0,0.0,0.0
1513267462522314092,,738505,,1513267460,698669309,'',1.62315620435,1.62533786592,-0.0126129239961,0.0,0.001,0.0,4500.0,0.0,0.0,0.0
1513267462532224862,,738506,,1513267460,708669309,'',1.62315620435,1.6267014044,0.0142250286107,0.0,0.001,0.0,4500.0,0.0,0.0,0.0
1513267462542272439,,738507,,1513267460,718669309,'',1.62315620435,1.6267014044,0.0150339431049,0.0,0.001,0.0,4500.0,0.0,0.0,0.0
1513267462552414588,,738508,,1513267460,728669309,'',1.62315620435,1.6267014044,0.0137189913729,0.0,0.001,0.0,4500.0,0.0,0.0,0.0
1513267462562366286,,738509,,1513267460,738669309,'',1.62315620435,1.6267014044,0.0142022984642,0.0,0.001,0.0,4500.0,0.0,0.0,0.0
1513267462572257052,,738510,,1513267460,748669309,'',1.62315620435,1.6267014044,0.0150594874093,0.0,0.001,0.0,4500.0,0.0,0.0,0.0
1513267462582642757,,738511,,1513267460,758669309,'',1.62315620435,1.62397432744,-0.0381789674597,0.0,0.001,0.0,4500.0,0.0,0.0,0.0
1513267462592392782,,738512,,1513267460,768669309,'',1.62315620435,1.62533786592,-0.00969372807109,0.0,0.001,0.0,4500.0,0.0,0.0,0.0
1513267462602335286,,738513,,1513267460,778669309,'',1.62315620435,1.62533786592,-0.0104562855462,0.0,0.001,0.0,4500.0,0.0,0.0,0.0
1513267462612293531,,738514,,1513267460,788669309,'',1.62315620435,1.6267014044,0.0154254174658,0.0,0.001,0.0,4500.0,0.0,0.0,0.0
1513267462622246424,,738515,,1513267460,798669309,'',1.62315620435,1.62533786592,-0.0123884598728,0.0,0.001,0.0,4500.0,0.0,0.0,0.0
1513267462632268402,,738516,,1513267460,808669309,'',1.62315620435,1.62533786592,-0.0111017343796,0.0,0.001,0.0,4500.0,0.0,0.0,0.0
1513267462642662214,,738517,,1513267460,818669309,'',1.62315620435,1.6267014044,0.0174459424123,0.0,0.001,0.0,4500.0,0.0,0.0,0.0
1513267462652395604,,738518,,1513267460,828669309,'',1.62315620435,1.6267014044,0.0167533991928,0.0,0.001,0.0,4500.0,0.0,0.0,0.0
1513267462662340585,,738519,,1513267460,838669309,'',1.62315620435,1.6267014044,0.0176250582542,0.0,0.001,0.0,4500.0,0.0,0.0,0.0
1513267462672269457,,738520,,1513267460,848669309,'',1.62315620435,1.6267014044,0.0183695521369,0.0,0.001,0.0,4500.0,0.0,0.0,0.0
1513267462682548439,,738521,,1513267460,858669309,'',1.62315620435,1.62533786592,-0.00805493165421,0.0,0.001,0.0,4500.0,0.0,0.0,0.0
1513267462692511087,,738522,,1513267460,868669309,'',1.62315620435,1.62533786592,-0.00756924271801,0.0,0.001,0.0,4500.0,0.0,0.0,0.0
1513267462702498297,,738523,,1513267460,878669309,'',1.62315620435,1.62397432744,-0.0356867226334,0.0,0.001,0.0,4500.0,0.0,0.0,0.0
1513267462712320908,,738524,,1513267460,888669309,'',1.62315620435,1.6267014044,0.0178176752174,0.0,0.001,0.0,4500.0,0.0,0.0,0.0
1513267462722297607,,738525,,1513267460,898669309,'',1.62315620435,1.62533786592,-0.00893065339213,0.0,0.001,0.0,4500.0,0.0,0.0,0.0
1513267462732214907,,738526,,1513267460,908669309,'',1.62315620435,1.62533786592,-0.00926662805762,0.0,0.001,0.0,4500.0,0.0,0.0,0.0
1513267462742132651,,738527,,1513267460,918669309,'',1.62315620435,1.6267014044,0.0174994424072,0.0,0.001,0.0,4500.0,0.0,0.0,0.0
1513267462752241082,,738528,,1513267460,928669309,'',1.62315620435,1.62533786592,-0.00820607195627,0.0,0.001,0.0,4500.0,0.0,0.0,0.0
1513267462762542249,,738529,,1513267460,938669309,'',1.62315620435,1.62533786592,-0.00972050494353,0.0,0.001,0.0,4500.0,0.0,0.0,0.0
1513267462772516452,,738530,,1513267460,948669309,'',1.62315620435,1.62533786592,-0.00949079444145,0.0,0.001,0.0,4500.0,0.0,0.0,0.0
1513267462782548777,,738531,,1513267460,958669309,'',1.62315620435,1.62533786592,-0.00880587876698,0.0,0.001,0.0,4500.0,0.0,0.0,0.0
1513267462792335731,,738532,,1513267460,968669309,'',1.62315620435,1.62533786592,-0.00920570939177,0.0,0.001,0.0,4500.0,0.0,0.0,0.0
1513267462802211475,,738533,,1513267460,978669309,'',1.62315620435,1.6267014044,0.0169858437751,0.0,0.001,0.0,4500.0,0.0,0.0,0.0
1513267462812061446,,738534,,1513267460,988669309,'',1.62315620435,1.62533786592,-0.0116091346627,0.0,0.001,0.0,4500.0,0.0,0.0,0.0
1513267462822557550,,738535,,1513267460,998669309,'',1.62315620435,1.62533786592,-0.0109868413932,0.0,0.001,0.0,4500.0,0.0,0.0,0.0
1513267462832515578,,738536,,1513267461,8669309,'',1.62315620435,1.6267014044,0.0170073299721,0.0,0.001,0.0,4500.0,0.0,0.0,0.0
1513267462842480178,,738537,,1513267461,18669309,'',1.62315620435,1.62533786592,-0.0100350520144,0.0,0.001,0.0,4500.0,0.0,0.0,0.0
1513267462852430540,,738538,,1513267461,28669309,'',1.62315620435,1.6267014044,0.0162938902781,0.0,0.001,0.0,4500.0,0.0,0.0,0.0
1513267462862302169,,738539,,1513267461,38669309,'',1.62315620435,1.6267014044,0.0167749618936,0.0,0.001,0.0,4500.0,0.0,0.0,0.0
1513267462872211817,,738540,,1513267461,48669309,'',1.62315620435,1.62533786592,-0.0103576059326,0.0,0.001,0.0,4500.0,0.0,0.0,0.0
1513267462882141405,,738541,,1513267461,58669309,'',1.62315620435,1.6267014044,0.0159483014897,0.0,0.001,0.0,4500.0,0.0,0.0,0.0
1513267462892197259,,738542,,1513267461,68669309,'',1.62315620435,1.6267014044,0.0150961645485,0.0,0.001,0.0,4500.0,0.0,0.0,0.0
1513267462902173371,,738543,,1513267461,78669309,'',1.62315620435,1.62533786592,-0.0102063846118,0.0,0.001,0.0,4500.0,0.0,0.0,0.0
1513267462912204401,,738544,,1513267461,88669309,'',1.62315620435,1.62533786592,-0.00885121416494,0.0,0.001,0.0,4500.0,0.0,0.0,0.0
1513267462922250865,,738545,,1513267461,98669309,'',1.62315620435,1.62397432744,-0.0367250825413,0.0,0.001,0.0,4500.0,0.0,0.0,0.0
1513267462932355831,,738546,,1513267461,108669309,'',1.62315620435,1.62533786592,-0.0109675325114,0.0,0.001,0.0,4500.0,0.0,0.0,0.0
1513267462942254295,,738547,,1513267461,118669309,'',1.62315620435,1.6267014044,0.0155619894921,0.0,0.001,0.0,4500.0,0.0,0.0,0.0
1513267462952101438,,738548,,1513267461,128669309,'',1.62315620435,1.6267014044,0.0147743855448,0.0,0.001,0.0,4500.0,0.0,0.0,0.0
1513267462962551778,,738549,,1513267461,138669309,'',1.62315620435,1.62533786592,-0.0134399448511,0.0,0.001,0.0,4500.0,0.0,0.0,0.0
1513267462972371128,,738550,,1513267461,148669309,'',1.62315620435,1.62533786592,-0.0124975718233,0.0,0.001,0.0,4500.0,0.0,0.0,0.0
1513267462982678475,,738551,,1513267461,158669309,'',1.62315620435,1.62533786592,-0.0127725570742,0.0,0.001,0.0,4500.0,0.0,0.0,0.0
1513267462992570815,,738552,,1513267461,168669309,'',1.62315620435,1.62533786592,-0.0114917932563,0.0,0.001,0.0,4500.0,0.0,0.0,0.0
1513267463002587412,,738553,,1513267461,178669309,'',1.62315620435,1.6267014044,0.0160797243492,0.0,0.001,0.0,4500.0,0.0,0.0,0.0
1513267463012655991,,738554,,1513267461,188669309,'',1.62315620435,1.6267014044,0.0166193752305,0.0,0.001,0.0,4500.0,0.0,0.0,0.0
1513267463022476406,,738555,,1513267461,198669309,'',1.62315620435,1.62533786592,-0.0128971683116,0.0,0.001,0.0,4500.0,0.0,0.0,0.0
1513267463032441337,,738556,,1513267461,208669309,'',1.62315620435,1.62533786592,-0.0115200836201,0.0,0.001,0.0,4500.0,0.0,0.0,0.0
1513267463042286506,,738557,,1513267461,218669309,'',1.62315620435,1.6267014044,0.0146637340317,0.0,0.001,0.0,4500.0,0.0,0.0,0.0
1513267463052321169,,738558,,1513267461,228669309,'',1.62315620435,1.6267014044,0.0143945584592,0.0,0.001,0.0,4500.0,0.0,0.0,0.0
1513267463062727763,,738559,,1513267461,238669309,'',1.62315620435,1.6267014044,0.0127033434661,0.0,0.001,0.0,4500.0,0.0,0.0,0.0
1513267463072096941,,738560,,1513267461,248669309,'',1.62315620435,1.62533786592,-0.0152082625092,0.0,0.001,0.0,4500.0,0.0,0.0,0.0
1513267463082536253,,738561,,1513267461,258669309,'',1.62315620435,1.6267014044,0.00962659463806,0.0,0.001,0.0,4500.0,0.0,0.0,0.0
1513267463092454684,,738562,,1513267461,268669309,'',1.62315620435,1.62806494288,0.036807123352,0.0,0.001,0.0,4500.0,0.0,0.0,0.0
1513267463102515657,,738563,,1513267461,278669309,'',1.62315620435,1.6267014044,0.00802450287868,0.0,0.001,0.0,4500.0,0.0,0.0,0.0
1513267463112470849,,738564,,1513267461,288669309,'',1.62315620435,1.62533786592,-0.0195103507952,0.0,0.001,0.0,4500.0,0.0,0.0,0.0
1513267463122416569,,738565,,1513267461,298669309,'',1.62315620435,1.6267014044,0.00858698995197,0.0,0.001,0.0,4500.0,0.0,0.0,0.0
1513267463132317575,,738566,,1513267461,308669309,'',1.62315620435,1.62533786592,-0.0180799823896,0.0,0.001,0.0,4500.0,0.0,0.0,0.0
1513267463146900590,,738567,,1513267461,318669309,'',1.62315620435,1.6267014044,0.0106776630509,0.0,0.001,0.0,4500.0,0.0,0.0,0.0
1513267463152258024,,738568,,1513267461,328669309,'',1.62315620435,1.6267014044,0.0126506596729,0.0,0.001,0.0,4500.0,0.0,0.0,0.0
1513267463162099863,,738569,,1513267461,338669309,'',1.62315620435,1.62533786592,-0.0132483264914,0.0,0.001,0.0,4500.0,0.0,0.0,0.0
1513267463172079825,,738570,,1513267461,348669309,'',1.62315620435,1.62533786592,-0.0138225340993,0.0,0.001,0.0,4500.0,0.0,0.0,0.0
1513267463182580106,,738571,,1513267461,358669309,'',1.62315620435,1.6267014044,0.0141404676817,0.0,0.001,0.0,4500.0,0.0,0.0,0.0
1513267463192503912,,738572,,1513267461,368669309,'',1.62315620435,1.62533786592,-0.0124054879608,0.0,0.001,0.0,4500.0,0.0,0.0,0.0
1513267463202413607,,738573,,1513267461,378669309,'',1.62315620435,1.6267014044,0.0143622622355,0.0,0.001,0.0,4500.0,0.0,0.0,0.0
1513267463212424791,,738574,,1513267461,388669309,'',1.62315620435,1.62533786592,-0.0122566083899,0.0,0.001,0.0,4500.0,0.0,0.0,0.0
1513267463222448039,,738575,,1513267461,398669309,'',1.62315620435,1.6267014044,0.0134359287951,0.0,0.001,0.0,4500.0,0.0,0.0,0.0
1513267463232363685,,738576,,1513267461,408669309,'',1.62315620435,1.6267014044,0.0120181774073,0.0,0.001,0.0,4500.0,0.0,0.0,0.0
1513267463242203098,,738577,,1513267461,418669309,'',1.62315620435,1.6267014044,0.0123135916439,0.0,0.001,0.0,4500.0,0.0,0.0,0.0
1513267463252158731,,738578,,1513267461,428669309,'',1.62315620435,1.6267014044,0.012076135398,0.0,0.001,0.0,4500.0,0.0,0.0,0.0
1513267463262190539,,738579,,1513267461,438669309,'',1.62315620435,1.62533786592,-0.0156447292148,0.0,0.001,0.0,4500.0,0.0,0.0,0.0
1513267463272189707,,738580,,1513267461,448669309,'',1.62315620435,1.62533786592,-0.0157246159222,0.0,0.001,0.0,4500.0,0.0,0.0,0.0
1513267463282122556,,738581,,1513267461,458669309,'',1.62315620435,1.62533786592,-0.0143395496731,0.0,0.001,0.0,4500.0,0.0,0.0,0.0
1513267463292569913,,738582,,1513267461,468669309,'',1.62315620435,1.6267014044,0.0132582397792,0.0,0.001,0.0,4500.0,0.0,0.0,0.0
1513267463302640436,,738583,,1513267461,478669309,'',1.62315620435,1.62533786592,-0.0141909762459,0.0,0.001,0.0,4500.0,0.0,0.0,0.0
1513267463312637063,,738584,,1513267461,488669309,'',1.62315620435,1.6267014044,0.0114273371792,0.0,0.001,0.0,4500.0,0.0,0.0,0.0
1513267463322550516,,738585,,1513267461,498669309,'',1.62315620435,1.6267014044,0.00982841263568,0.0,0.001,0.0,4500.0,0.0,0.0,0.0
1513267463332451884,,738586,,1513267461,508669309,'',1.62315620435,1.6267014044,0.0100740066658,0.0,0.001,0.0,4500.0,0.0,0.0,0.0
1513267463342480713,,738587,,1513267461,518669309,'',1.62315620435,1.62533786592,-0.0181876302221,0.0,0.001,0.0,4500.0,0.0,0.0,0.0
1513267463352304790,,738588,,1513267461,528669309,'',1.62315620435,1.62533786592,-0.0158605954117,0.0,0.001,0.0,4500.0,0.0,0.0,0.0
1513267463362394978,,738589,,1513267461,538669309,'',1.62315620435,1.6267014044,0.0110556184641,0.0,0.001,0.0,4500.0,0.0,0.0,0.0
1513267463372275170,,738590,,1513267461,548669309,'',1.62315620435,1.6267014044,0.00964112382101,0.0,0.001,0.0,4500.0,0.0,0.0,0.0
1513267463382673514,,738591,,1513267461,558669309,'',1.62315620435,1.62397432744,-0.0446113323366,0.0,0.001,0.0,4500.0,0.0,0.0,0.0
1513267463392503919,,738592,,1513267461,568669309,'',1.62315620435,1.62533786592,-0.0144257440434,0.0,0.001,0.0,4500.0,0.0,0.0,0.0
1513267463402471332,,738593,,1513267461,578669309,'',1.62315620435,1.62533786592,-0.0127619297966,0.0,0.001,0.0,4500.0,0.0,0.0,0.0
1513267463412417343,,738594,,1513267461,588669309,'',1.62315620435,1.62806494288,0.0401787539908,0.0,0.001,0.0,4500.0,0.0,0.0,0.0
1513267463422315835,,738595,,1513267461,598669309,'',1.62315620435,1.6267014044,0.0129122170119,0.0,0.001,0.0,4500.0,0.0,0.0,0.0
1513267463432294862,,738596,,1513267461,608669309,'',1.62315620435,1.6267014044,0.0120356709382,0.0,0.001,0.0,4500.0,0.0,0.0,0.0
1513267463442386368,,738597,,1513267461,618669309,'',1.62315620435,1.6267014044,0.0123300012811,0.0,0.001,0.0,4500.0,0.0,0.0,0.0
1513267463452295613,,738598,,1513267461,628669309,'',1.62315620435,1.62533786592,-0.0158780730059,0.0,0.001,0.0,4500.0,0.0,0.0,0.0
1513267463462355020,,738599,,1513267461,638669309,'',1.62315620435,1.62397432744,-0.0420357764866,0.0,0.001,0.0,4500.0,0.0,0.0,0.0
1513267463472381584,,738600,,1513267461,648669309,'',1.62315620435,1.6267014044,0.010176785456,0.0,0.001,0.0,4500.0,0.0,0.0,0.0
1513267463482288683,,738601,,1513267461,658669309,'',1.62315620435,1.62533786592,-0.018160281081,0.0,0.001,0.0,4500.0,0.0,0.0,0.0
1513267463492244085,,738602,,1513267461,668669309,'',1.62315620435,1.6267014044,0.0095938590405,0.0,0.001,0.0,4500.0,0.0,0.0,0.0
1513267463502625979,,738603,,1513267461,678669309,'',1.62315620435,1.6267014044,0.00884687843502,0.0,0.001,0.0,4500.0,0.0,0.0,0.0
1513267463512518362,,738604,,1513267461,688669309,'',1.62315620435,1.6267014044,0.00929958073426,0.0,0.001,0.0,4500.0,0.0,0.0,0.0
1513267463522427597,,738605,,1513267461,698669309,'',1.62315620435,1.6267014044,0.00654994517887,0.0,0.001,0.0,4500.0,0.0,0.0,0.0
1513267463532486604,,738606,,1513267461,708669309,'',1.62315620435,1.62806494288,0.0333730349543,0.0,0.001,0.0,4500.0,0.0,0.0,0.0
1513267463542444317,,738607,,1513267461,718669309,'',1.62315620435,1.62533786592,-0.0197691174232,0.0,0.001,0.0,4500.0,0.0,0.0,0.0
1513267463552433106,,738608,,1513267461,728669309,'',1.62315620435,1.62533786592,-0.0191898848121,0.0,0.001,0.0,4500.0,0.0,0.0,0.0
1513267463562285296,,738609,,1513267461,738669309,'',1.62315620435,1.62533786592,-0.0196262108387,0.0,0.001,0.0,4500.0,0.0,0.0,0.0
1513267463572128222,,738610,,1513267461,748669309,'',1.62315620435,1.6267014044,0.00647058766532,0.0,0.001,0.0,4500.0,0.0,0.0,0.0
1513267463582586555,,738611,,1513267461,758669309,'',1.62315620435,1.6267014044,0.00772644772682,0.0,0.001,0.0,4500.0,0.0,0.0,0.0
1513267463592537886,,738612,,1513267461,768669309,'',1.62315620435,1.6267014044,0.00823628849429,0.0,0.001,0.0,4500.0,0.0,0.0,0.0
1513267463602441645,,738613,,1513267461,778669309,'',1.62315620435,1.6267014044,0.00919989716614,0.0,0.001,0.0,4500.0,0.0,0.0,0.0
1513267463612481614,,738614,,1513267461,788669309,'',1.62315620435,1.62806494288,0.0350256149142,0.0,0.001,0.0,4500.0,0.0,0.0,0.0
1513267463622356868,,738615,,1513267461,798669309,'',1.62315620435,1.62533786592,-0.0198974317354,0.0,0.001,0.0,4500.0,0.0,0.0,0.0
1513267463632325423,,738616,,1513267461,808669309,'',1.62315620435,1.6267014044,0.00628146505557,0.0,0.001,0.0,4500.0,0.0,0.0,0.0
1513267463642337241,,738617,,1513267461,818669309,'',1.62315620435,1.62533786592,-0.0213194572547,0.0,0.001,0.0,4500.0,0.0,0.0,0.0
1513267463652290133,,738618,,1513267461,828669309,'',1.62315620435,1.6267014044,0.00606461513455,0.0,0.001,0.0,4500.0,0.0,0.0,0.0
1513267463662387500,,738619,,1513267461,838669309,'',1.62315620435,1.6267014044,0.00601196792863,0.0,0.001,0.0,4500.0,0.0,0.0,0.0
1513267463672360913,,738620,,1513267461,848669309,'',1.62315620435,1.6267014044,0.00486904365314,0.0,0.001,0.0,4500.0,0.0,0.0,0.0
1513267463682104523,,738621,,1513267461,858669309,'',1.62315620435,1.62533786592,-0.021571457533,0.0,0.001,0.0,4500.0,0.0,0.0,0.0
1513267463692616509,,738622,,1513267461,868669309,'',1.62315620435,1.62806494288,0.0338376094261,0.0,0.001,0.0,4500.0,0.0,0.0,0.0
1513267463702511164,,738623,,1513267461,878669309,'',1.62315620435,1.62806494288,0.029680601356,0.0,0.001,0.0,4500.0,0.0,0.0,0.0
1513267463712394161,,738624,,1513267461,888669309,'',1.62315620435,1.6267014044,-0.00072781051878,0.0,0.001,0.0,4500.0,0.0,0.0,0.0
1513267463722209309,,738625,,1513267461,898669309,'',1.62315620435,1.62806494288,0.0253520078462,0.0,0.001,0.0,4500.0,0.0,0.0,0.0
1513267463732208041,,738626,,1513267461,908669309,'',1.62315620435,1.62533786592,-0.0297895260057,0.0,0.001,0.0,4500.0,0.0,0.0,0.0
1513267463742600041,,738627,,1513267461,918669309,'',1.62315620435,1.62806494288,0.0241099180168,0.0,0.001,0.0,4500.0,0.0,0.0,0.0
1513267463752307010,,738628,,1513267461,928669309,'',1.62315620435,1.62806494288,0.0230980717099,0.0,0.001,0.0,4500.0,0.0,0.0,0.0
1513267463762292927,,738629,,1513267461,938669309,'',1.62315620435,1.62806494288,0.0208121606673,0.0,0.001,0.0,4500.0,0.0,0.0,0.0
1513267463772313324,,738630,,1513267461,948669309,'',1.62315620435,1.6267014044,-0.00549075498496,0.0,0.001,0.0,4500.0,0.0,0.0,0.0
1513267463782574725,,738631,,1513267461,958669309,'',1.62315620435,1.6267014044,-0.00543314682032,0.0,0.001,0.0,4500.0,0.0,0.0,0.0
1513267463792565391,,738632,,1513267461,968669309,'',1.62315620435,1.6267014044,-0.00433435503613,0.0,0.001,0.0,4500.0,0.0,0.0,0.0
1513267463802382913,,738633,,1513267461,978669309,'',1.62315620435,1.62533786592,-0.0299808361104,0.0,0.001,0.0,4500.0,0.0,0.0,0.0
1513267463812349251,,738634,,1513267461,988669309,'',1.62315620435,1.6267014044,-0.00207773009881,0.0,0.001,0.0,4500.0,0.0,0.0,0.0
1513267463822304155,,738635,,1513267461,998669309,'',1.62315620435,1.62533786592,-0.0272170961569,0.0,0.001,0.0,4500.0,0.0,0.0,0.0
1513267463832307622,,738636,,1513267462,8669309,'',1.62315620435,1.62533786592,-0.0272839762142,0.0,0.001,0.0,4500.0,0.0,0.0,0.0
1513267463842295635,,738637,,1513267462,18669309,'',1.62315620435,1.62806494288,0.0276536523191,0.0,0.001,0.0,4500.0,0.0,0.0,0.0
1513267463852153138,,738638,,1513267462,28669309,'',1.62315620435,1.62806494288,0.0284898561553,0.0,0.001,0.0,4500.0,0.0,0.0,0.0
1513267463862301339,,738639,,1513267462,38669309,'',1.62315620435,1.6267014044,0.00117057451227,0.0,0.001,0.0,4500.0,0.0,0.0,0.0
1513267463872601611,,738640,,1513267462,48669309,'',1.62315620435,1.6267014044,-0.000908124672504,0.0,0.001,0.0,4500.0,0.0,0.0,0.0
1513267463882532934,,738641,,1513267462,58669309,'',1.62315620435,1.62806494288,0.0262551215796,0.0,0.001,0.0,4500.0,0.0,0.0,0.0
1513267463892556306,,738642,,1513267462,68669309,'',1.62315620435,1.62533786592,-0.0299601462296,0.0,0.001,0.0,4500.0,0.0,0.0,0.0
1513267463902447413,,738643,,1513267462,78669309,'',1.62315620435,1.6267014044,-0.00290285499766,0.0,0.001,0.0,4500.0,0.0,0.0,0.0
1513267463912484420,,738644,,1513267462,88669309,'',1.62315620435,1.6267014044,-0.00291578816458,0.0,0.001,0.0,4500.0,0.0,0.0,0.0
1513267463922434577,,738645,,1513267462,98669309,'',1.62315620435,1.6267014044,-0.00344605515031,0.0,0.001,0.0,4500.0,0.0,0.0,0.0
1513267463932293310,,738646,,1513267462,108669309,'',1.62315620435,1.6267014044,-0.00381026256235,0.0,0.001,0.0,4500.0,0.0,0.0,0.0
1513267463942554171,,738647,,1513267462,118669309,'',1.62315620435,1.6267014044,-0.00358598758038,0.0,0.001,0.0,4500.0,0.0,0.0,0.0
1513267463952461452,,738648,,1513267462,128669309,'',1.62315620435,1.6267014044,-0.00343148136637,0.0,0.001,0.0,4500.0,0.0,0.0,0.0
1513267463962381404,,738649,,1513267462,138669309,'',1.62315620435,1.62806494288,0.0241942242174,0.0,0.001,0.0,4500.0,0.0,0.0,0.0
1513267463972517868,,738650,,1513267462,148669309,'',1.62315620435,1.62806494288,0.0243047548982,0.0,0.001,0.0,4500.0,0.0,0.0,0.0
1513267463982270456,,738651,,1513267462,158669309,'',1.62315620435,1.62806494288,0.0243347707341,0.0,0.001,0.0,4500.0,0.0,0.0,0.0
1513267463992180154,,738652,,1513267462,168669309,'',1.62315620435,1.6267014044,-0.00461388123312,0.0,0.001,0.0,4500.0,0.0,0.0,0.0
1513267464002668174,,738653,,1513267462,178669309,'',1.62315620435,1.62806494288,0.020189609016,0.0,0.001,0.0,4500.0,0.0,0.0,0.0
1513267464012600291,,738654,,1513267462,188669309,'',1.62315620435,1.62806494288,0.0199776031659,0.0,0.001,0.0,4500.0,0.0,0.0,0.0
1513267464022277623,,738655,,1513267462,198669309,'',1.62315620435,1.6267014044,-0.00570445967336,0.0,0.001,0.0,4500.0,0.0,0.0,0.0
1513267464032243854,,738656,,1513267462,208669309,'',1.62315620435,1.6267014044,-0.00563431610237,0.0,0.001,0.0,4500.0,0.0,0.0,0.0
1513267464042318910,,738657,,1513267462,218669309,'',1.62315620435,1.62806494288,0.020392496892,0.0,0.001,0.0,4500.0,0.0,0.0,0.0
1513267464052227730,,738658,,1513267462,228669309,'',1.62315620435,1.6267014044,-0.00784250249944,0.0,0.001,0.0,4500.0,0.0,0.0,0.0
1513267464062354743,,738659,,1513267462,238669309,'',1.62315620435,1.62806494288,0.0206303924561,0.0,0.001,0.0,4500.0,0.0,0.0,0.0
1513267464072130824,,738660,,1513267462,248669309,'',1.62315620435,1.62806494288,0.0195250855951,0.0,0.001,0.0,4500.0,0.0,0.0,0.0
1513267464082145844,,738661,,1513267462,258669309,'',1.62315620435,1.6267014044,-0.00706255523571,0.0,0.001,0.0,4500.0,0.0,0.0,0.0
1513267464092616164,,738662,,1513267462,268669309,'',1.62315620435,1.6267014044,-0.0082804892088,0.0,0.001,0.0,4500.0,0.0,0.0,0.0
1513267464102751708,,738663,,1513267462,278669309,'',1.62315620435,1.6267014044,-0.0078268600714,0.0,0.001,0.0,4500.0,0.0,0.0,0.0
1513267464112571413,,738664,,1513267462,288669309,'',1.62315620435,1.6267014044,-0.00749953120997,0.0,0.001,0.0,4500.0,0.0,0.0,0.0
1513267464122469278,,738665,,1513267462,298669309,'',1.62315620435,1.62806494288,0.0192623730014,0.0,0.001,0.0,4500.0,0.0,0.0,0.0
1513267464132245319,,738666,,1513267462,308669309,'',1.62315620435,1.62806494288,0.0192418565799,0.0,0.001,0.0,4500.0,0.0,0.0,0.0
1513267464142269622,,738667,,1513267462,318669309,'',1.62315620435,1.6267014044,-0.00874636086536,0.0,0.001,0.0,4500.0,0.0,0.0,0.0
1513267464152555378,,738668,,1513267462,328669309,'',1.62315620435,1.62806494288,0.0154166349684,0.0,0.001,0.0,4500.0,0.0,0.0,0.0
1513267464162476108,,738669,,1513267462,338669309,'',1.62315620435,1.6267014044,-0.0118615634556,0.0,0.001,0.0,4500.0,0.0,0.0,0.0
1513267464172431451,,738670,,1513267462,348669309,'',1.62315620435,1.6267014044,-0.0127486971127,0.0,0.001,0.0,4500.0,0.0,0.0,0.0
1513267464182393841,,738671,,1513267462,358669309,'',1.62315620435,1.62806494288,0.0135714262722,0.0,0.001,0.0,4500.0,0.0,0.0,0.0
1513267464192290122,,738672,,1513267462,368669309,'',1.62315620435,1.62806494288,0.014083103434,0.0,0.001,0.0,4500.0,0.0,0.0,0.0
1513267464202348710,,738673,,1513267462,378669309,'',1.62315620435,1.62806494288,0.0144418921609,0.0,0.001,0.0,4500.0,0.0,0.0,0.0
1513267464212217264,,738674,,1513267462,388669309,'',1.62315620435,1.62806494288,0.0143776862697,0.0,0.001,0.0,4500.0,0.0,0.0,0.0
1513267464222358356,,738675,,1513267462,398669309,'',1.62315620435,1.62533786592,-0.0392581911826,0.0,0.001,0.0,4500.0,0.0,0.0,0.0
1513267464232129506,,738676,,1513267462,408669309,'',1.62315620435,1.62806494288,0.0134238553516,0.0,0.001,0.0,4500.0,0.0,0.0,0.0
1513267464242546786,,738677,,1513267462,418669309,'',1.62315620435,1.6267014044,-0.0134628090871,0.0,0.001,0.0,4500.0,0.0,0.0,0.0
1513267464252476399,,738678,,1513267462,428669309,'',1.62315620435,1.6267014044,-0.0109897996995,0.0,0.001,0.0,4500.0,0.0,0.0,0.0
1513267464262473134,,738679,,1513267462,438669309,'',1.62315620435,1.6267014044,-0.0114696626932,0.0,0.001,0.0,4500.0,0.0,0.0,0.0
1513267464272436823,,738680,,1513267462,448669309,'',1.62315620435,1.62806494288,0.0156099622021,0.0,0.001,0.0,4500.0,0.0,0.0,0.0
1513267464282366334,,738681,,1513267462,458669309,'',1.62315620435,1.62806494288,0.0157409977943,0.0,0.001,0.0,4500.0,0.0,0.0,0.0
1513267464292229930,,738682,,1513267462,468669309,'',1.62315620435,1.6267014044,-0.0101795071381,0.0,0.001,0.0,4500.0,0.0,0.0,0.0
1513267464302179369,,738683,,1513267462,478669309,'',1.62315620435,1.62806494288,0.0151839633968,0.0,0.001,0.0,4500.0,0.0,0.0,0.0
1513267464312599336,,738684,,1513267462,488669309,'',1.62315620435,1.62806494288,0.0153648125665,0.0,0.001,0.0,4500.0,0.0,0.0,0.0
1513267464322642323,,738685,,1513267462,498669309,'',1.62315620435,1.6267014044,-0.0103973579975,0.0,0.001,0.0,4500.0,0.0,0.0,0.0
1513267464332552491,,738686,,1513267462,508669309,'',1.62315620435,1.62806494288,0.0151065603039,0.0,0.001,0.0,4500.0,0.0,0.0,0.0
1513267464342457342,,738687,,1513267462,518669309,'',1.62315620435,1.6267014044,-0.0116188899506,0.0,0.001,0.0,4500.0,0.0,0.0,0.0
1513267464352437969,,738688,,1513267462,528669309,'',1.62315620435,1.62806494288,0.0160830688172,0.0,0.001,0.0,4500.0,0.0,0.0,0.0
1513267464362389983,,738689,,1513267462,538669309,'',1.62315620435,1.62806494288,0.0156845433444,0.0,0.001,0.0,4500.0,0.0,0.0,0.0
1513267464372182393,,738690,,1513267462,548669309,'',1.62315620435,1.62806494288,0.0161807233557,0.0,0.001,0.0,4500.0,0.0,0.0,0.0
1513267464382292443,,738691,,1513267462,558669309,'',1.62315620435,1.62806494288,0.0151639971346,0.0,0.001,0.0,4500.0,0.0,0.0,0.0
1513267464392313859,,738692,,1513267462,568669309,'',1.62315620435,1.6267014044,-0.0121717523565,0.0,0.001,0.0,4500.0,0.0,0.0,0.0
1513267464402194536,,738693,,1513267462,578669309,'',1.62315620435,1.6267014044,-0.0129608126882,0.0,0.001,0.0,4500.0,0.0,0.0,0.0
1513267464412268948,,738694,,1513267462,588669309,'',1.62315620435,1.6267014044,-0.012123878032,0.0,0.001,0.0,4500.0,0.0,0.0,0.0
1513267464422402132,,738695,,1513267462,598669309,'',1.62315620435,1.62533786592,-0.0384048408011,0.0,0.001,0.0,4500.0,0.0,0.0,0.0
1513267464432213095,,738696,,1513267462,608669309,'',1.62315620435,1.6267014044,-0.0123668007335,0.0,0.001,0.0,4500.0,0.0,0.0,0.0
1513267464442243128,,738697,,1513267462,618669309,'',1.62315620435,1.62806494288,0.0159199526363,0.0,0.001,0.0,4500.0,0.0,0.0,0.0
1513267464452182583,,738698,,1513267462,628669309,'',1.62315620435,1.62806494288,0.0150030270402,0.0,0.001,0.0,4500.0,0.0,0.0,0.0
1513267464462395138,,738699,,1513267462,638669309,'',1.62315620435,1.6267014044,-0.0132182216061,0.0,0.001,0.0,4500.0,0.0,0.0,0.0
1513267464472628904,,738700,,1513267462,648669309,'',1.62315620435,1.6267014044,-0.0118935543241,0.0,0.001,0.0,4500.0,0.0,0.0,0.0
1513267464482558765,,738701,,1513267462,658669309,'',1.62315620435,1.6267014044,-0.013206317338,0.0,0.001,0.0,4500.0,0.0,0.0,0.0
1513267464492374151,,738702,,1513267462,668669309,'',1.62315620435,1.6267014044,-0.0142510017846,0.0,0.001,0.0,4500.0,0.0,0.0,0.0
1513267464502290660,,738703,,1513267462,678669309,'',1.62315620435,1.62533786592,-0.0400852943856,0.0,0.001,0.0,4500.0,0.0,0.0,0.0
1513267464512392698,,738704,,1513267462,688669309,'',1.62315620435,1.6267014044,-0.0121693070833,0.0,0.001,0.0,4500.0,0.0,0.0,0.0
1513267464522376125,,738705,,1513267462,698669309,'',1.62315620435,1.6267014044,-0.0133547822726,0.0,0.001,0.0,4500.0,0.0,0.0,0.0
1513267464532504832,,738706,,1513267462,708669309,'',1.62315620435,1.6267014044,-0.0133446452194,0.0,0.001,0.0,4500.0,0.0,0.0,0.0
1513267464542335261,,738707,,1513267462,718669309,'',1.62315620435,1.62806494288,0.0135702075234,0.0,0.001,0.0,4500.0,0.0,0.0,0.0
1513267464552362816,,738708,,1513267462,728669309,'',1.62315620435,1.62806494288,0.0135901596712,0.0,0.001,0.0,4500.0,0.0,0.0,0.0
1513267464562363622,,738709,,1513267462,738669309,'',1.62315620435,1.62806494288,0.0145830681267,0.0,0.001,0.0,4500.0,0.0,0.0,0.0
1513267464572188421,,738710,,1513267462,748669309,'',1.62315620435,1.62806494288,0.0153275437954,0.0,0.001,0.0,4500.0,0.0,0.0,0.0
1513267464582328963,,738711,,1513267462,758669309,'',1.62315620435,1.62533786592,-0.0395240052307,0.0,0.001,0.0,4500.0,0.0,0.0,0.0
1513267464592258802,,738712,,1513267462,768669309,'',1.62315620435,1.6267014044,-0.0128323899069,0.0,0.001,0.0,4500.0,0.0,0.0,0.0
1513267464602241392,,738713,,1513267462,778669309,'',1.62315620435,1.62533786592,-0.0390518464109,0.0,0.001,0.0,4500.0,0.0,0.0,0.0
1513267464612580029,,738714,,1513267462,788669309,'',1.62315620435,1.62806494288,0.015571535723,0.0,0.001,0.0,4500.0,0.0,0.0,0.0
1513267464622523696,,738715,,1513267462,798669309,'',1.62315620435,1.62806494288,0.0166813423589,0.0,0.001,0.0,4500.0,0.0,0.0,0.0
1513267464632484036,,738716,,1513267462,808669309,'',1.62315620435,1.6267014044,-0.0107823342944,0.0,0.001,0.0,4500.0,0.0,0.0,0.0
1513267464642393431,,738717,,1513267462,818669309,'',1.62315620435,1.6267014044,-0.0102946807515,0.0,0.001,0.0,4500.0,0.0,0.0,0.0
1513267464652389238,,738718,,1513267462,828669309,'',1.62315620435,1.62806494288,0.0166565386341,0.0,0.001,0.0,4500.0,0.0,0.0,0.0
1513267464662370868,,738719,,1513267462,838669309,'',1.62315620435,1.62806494288,0.0161564605799,0.0,0.001,0.0,4500.0,0.0,0.0,0.0
1513267464672279842,,738720,,1513267462,848669309,'',1.62315620435,1.6267014044,-0.0128099187472,0.0,0.001,0.0,4500.0,0.0,0.0,0.0
1513267464682257627,,738721,,1513267462,858669309,'',1.62315620435,1.6267014044,-0.011871348172,0.0,0.001,0.0,4500.0,0.0,0.0,0.0
1513267464692303274,,738722,,1513267462,868669309,'',1.62315620435,1.6267014044,-0.0137369573529,0.0,0.001,0.0,4500.0,0.0,0.0,0.0
1513267464702396705,,738723,,1513267462,878669309,'',1.62315620435,1.6267014044,-0.0152475140975,0.0,0.001,0.0,4500.0,0.0,0.0,0.0
1513267464712246214,,738724,,1513267462,888669309,'',1.62315620435,1.62806494288,0.0125424662453,0.0,0.001,0.0,4500.0,0.0,0.0,0.0
1513267464722619327,,738725,,1513267462,898669309,'',1.62315620435,1.6267014044,-0.0152129362182,0.0,0.001,0.0,4500.0,0.0,0.0,0.0
1513267464732549307,,738726,,1513267462,908669309,'',1.62315620435,1.6267014044,-0.0148143042308,0.0,0.001,0.0,4500.0,0.0,0.0,0.0
1513267464742551363,,738727,,1513267462,918669309,'',1.62315620435,1.62806494288,0.0133661185306,0.0,0.001,0.0,4500.0,0.0,0.0,0.0
1513267464752451131,,738728,,1513267462,928669309,'',1.62315620435,1.6267014044,-0.0146549100413,0.0,0.001,0.0,4500.0,0.0,0.0,0.0
1513267464762459878,,738729,,1513267462,938669309,'',1.62315620435,1.62806494288,0.0129754579534,0.0,0.001,0.0,4500.0,0.0,0.0,0.0
1513267464772194974,,738730,,1513267462,948669309,'',1.62315620435,1.6267014044,-0.014859536143,0.0,0.001,0.0,4500.0,0.0,0.0,0.0
1513267464782623059,,738731,,1513267462,958669309,'',1.62315620435,1.6267014044,-0.0141562874496,0.0,0.001,0.0,4500.0,0.0,0.0,0.0
1513267464792621292,,738732,,1513267462,968669309,'',1.62315620435,1.62806494288,0.0134081250604,0.0,0.001,0.0,4500.0,0.0,0.0,0.0
1513267464802601323,,738733,,1513267462,978669309,'',1.62315620435,1.62806494288,0.0134305715331,0.0,0.001,0.0,4500.0,0.0,0.0,0.0
1513267464812249808,,738734,,1513267462,988669309,'',1.62315620435,1.6267014044,-0.0135389769374,0.0,0.001,0.0,4500.0,0.0,0.0,0.0
1513267464822589900,,738735,,1513267462,998669309,'',1.62315620435,1.62806494288,0.0149635537726,0.0,0.001,0.0,4500.0,0.0,0.0,0.0
1513267464832707941,,738736,,1513267463,8669309,'',1.62315620435,1.62806494288,0.0157731853465,0.0,0.001,0.0,4500.0,0.0,0.0,0.0
1513267464842432974,,738737,,1513267463,18669309,'',1.62315620435,1.62806494288,0.0133720276102,0.0,0.001,0.0,4500.0,0.0,0.0,0.0
1513267464852578384,,738738,,1513267463,28669309,'',1.62315620435,1.62806494288,0.0118810568598,0.0,0.001,0.0,4500.0,0.0,0.0,0.0
1513267464862414216,,738739,,1513267463,38669309,'',1.62315620435,1.62806494288,0.0126657576204,0.0,0.001,0.0,4500.0,0.0,0.0,0.0
1513267464872435956,,738740,,1513267463,48669309,'',1.62315620435,1.6267014044,-0.0131614652376,0.0,0.001,0.0,4500.0,0.0,0.0,0.0
1513267464882463038,,738741,,1513267463,58669309,'',1.62315620435,1.6267014044,-0.0132775468729,0.0,0.001,0.0,4500.0,0.0,0.0,0.0
1513267464892161817,,738742,,1513267463,68669309,'',1.62315620435,1.62806494288,0.0122194342181,0.0,0.001,0.0,4500.0,0.0,0.0,0.0
1513267464902542989,,738743,,1513267463,78669309,'',1.62315620435,1.62806494288,0.0129118743718,0.0,0.001,0.0,4500.0,0.0,0.0,0.0
1513267464912521392,,738744,,1513267463,88669309,'',1.62315620435,1.62533786592,-0.040891432762,0.0,0.001,0.0,4500.0,0.0,0.0,0.0
1513267464922627330,,738745,,1513267463,98669309,'',1.62315620435,1.62806494288,0.0145411238301,0.0,0.001,0.0,4500.0,0.0,0.0,0.0
1513267464932378397,,738746,,1513267463,108669309,'',1.62315620435,1.62806494288,0.0148309292892,0.0,0.001,0.0,4500.0,0.0,0.0,0.0
1513267464942201330,,738747,,1513267463,118669309,'',1.62315620435,1.6267014044,-0.0118451507957,0.0,0.001,0.0,4500.0,0.0,0.0,0.0
1513267464952494446,,738748,,1513267463,128669309,'',1.62315620435,1.62806494288,0.0168299033433,0.0,0.001,0.0,4500.0,0.0,0.0,0.0
1513267464962284423,,738749,,1513267463,138669309,'',1.62315620435,1.62806494288,0.0172251990296,0.0,0.001,0.0,4500.0,0.0,0.0,0.0
1513267464973290295,,738750,,1513267463,148669309,'',1.62315620435,1.62806494288,0.0184296416351,0.0,0.001,0.0,4500.0,0.0,0.0,0.0
1513267464982404800,,738751,,1513267463,158669309,'',1.62315620435,1.6267014044,-0.00900425239141,0.0,0.001,0.0,4500.0,0.0,0.0,0.0
1513267464992261425,,738752,,1513267463,168669309,'',1.62315620435,1.6267014044,-0.00783184895012,0.0,0.001,0.0,4500.0,0.0,0.0,0.0
1513267465002340550,,738753,,1513267463,178669309,'',1.62315620435,1.6267014044,-0.00733038193638,0.0,0.001,0.0,4500.0,0.0,0.0,0.0
1513267465012313517,,738754,,1513267463,188669309,'',1.62315620435,1.62806494288,0.0189973618467,0.0,0.001,0.0,4500.0,0.0,0.0,0.0
1513267465022418214,,738755,,1513267463,198669309,'',1.62315620435,1.6267014044,-0.00794478471976,0.0,0.001,0.0,4500.0,0.0,0.0,0.0
1513267465032383474,,738756,,1513267463,208669309,'',1.62315620435,1.62806494288,0.018641361566,0.0,0.001,0.0,4500.0,0.0,0.0,0.0
1513267465042482259,,738757,,1513267463,218669309,'',1.62315620435,1.6267014044,-0.00828531415599,0.0,0.001,0.0,4500.0,0.0,0.0,0.0
1513267465052377120,,738758,,1513267463,228669309,'',1.62315620435,1.6267014044,-0.00820188029289,0.0,0.001,0.0,4500.0,0.0,0.0,0.0
1513267465062430750,,738759,,1513267463,238669309,'',1.62315620435,1.62806494288,0.0187159953206,0.0,0.001,0.0,4500.0,0.0,0.0,0.0
1513267465072395751,,738760,,1513267463,248669309,'',1.62315620435,1.62806494288,0.0166748689581,0.0,0.001,0.0,4500.0,0.0,0.0,0.0
1513267465082185215,,738761,,1513267463,258669309,'',1.62315620435,1.62806494288,0.0146126484157,0.0,0.001,0.0,4500.0,0.0,0.0,0.0
1513267465092149256,,738762,,1513267463,268669309,'',1.62315620435,1.6267014044,-0.0115605584488,0.0,0.001,0.0,4500.0,0.0,0.0,0.0
1513267465102480805,,738763,,1513267463,278669309,'',1.62315620435,1.6267014044,-0.00995425278676,0.0,0.001,0.0,4500.0,0.0,0.0,0.0
1513267465112503051,,738764,,1513267463,288669309,'',1.62315620435,1.62806494288,0.0183557768501,0.0,0.001,0.0,4500.0,0.0,0.0,0.0
1513267465122403465,,738765,,1513267463,298669309,'',1.62315620435,1.6267014044,-0.00898743850292,0.0,0.001,0.0,4500.0,0.0,0.0,0.0
1513267465132351969,,738766,,1513267463,308669309,'',1.62315620435,1.6267014044,-0.00981311285971,0.0,0.001,0.0,4500.0,0.0,0.0,0.0
1513267465142288166,,738767,,1513267463,318669309,'',1.62315620435,1.62806494288,0.0164960304555,0.0,0.001,0.0,4500.0,0.0,0.0,0.0
1513267465152246927,,738768,,1513267463,328669309,'',1.62315620435,1.62942848135,0.0410090539876,0.0,0.001,0.0,4500.0,0.0,0.0,0.0
1513267465162616392,,738769,,1513267463,338669309,'',1.62315620435,1.62942848135,0.0394323127209,0.0,0.001,0.0,4500.0,0.0,0.0,0.0
1513267465172744012,,738770,,1513267463,348669309,'',1.62315620435,1.6267014044,-0.0138646960767,0.0,0.001,0.0,4500.0,0.0,0.0,0.0
1513267465182661776,,738771,,1513267463,358669309,'',1.62315620435,1.62806494288,0.0126236264832,0.0,0.001,0.0,4500.0,0.0,0.0,0.0
1513267465192526385,,738772,,1513267463,368669309,'',1.62315620435,1.6267014044,-0.017223464713,0.0,0.001,0.0,4500.0,0.0,0.0,0.0
1513267465202289068,,738773,,1513267463,378669309,'',1.62315620435,1.62806494288,0.00789956059395,0.0,0.001,0.0,4500.0,0.0,0.0,0.0
1513267465212669606,,738774,,1513267463,388669309,'',1.62315620435,1.62806494288,0.00793642974135,0.0,0.001,0.0,4500.0,0.0,0.0,0.0
1513267465222587428,,738775,,1513267463,398669309,'',1.62315620435,1.62806494288,0.00596560442401,0.0,0.001,0.0,4500.0,0.0,0.0,0.0
1513267465232467755,,738776,,1513267463,408669309,'',1.62315620435,1.62806494288,0.0043353673384,0.0,0.001,0.0,4500.0,0.0,0.0,0.0
1513267465242402922,,738777,,1513267463,418669309,'',1.62315620435,1.62942848135,0.0320349400706,0.0,0.001,0.0,4500.0,0.0,0.0,0.0
1513267465252393599,,738778,,1513267463,428669309,'',1.62315620435,1.62942848135,0.0301936596423,0.0,0.001,0.0,4500.0,0.0,0.0,0.0
1513267465262316071,,738779,,1513267463,438669309,'',1.62315620435,1.62806494288,0.00322846837593,0.0,0.001,0.0,4500.0,0.0,0.0,0.0
1513267465272236290,,738780,,1513267463,448669309,'',1.62315620435,1.62806494288,0.00562830893609,0.0,0.001,0.0,4500.0,0.0,0.0,0.0
1513267465282135972,,738781,,1513267463,458669309,'',1.62315620435,1.6267014044,-0.0210572418125,0.0,0.001,0.0,4500.0,0.0,0.0,0.0
1513267465292194610,,738782,,1513267463,468669309,'',1.62315620435,1.62806494288,0.00479625892667,0.0,0.001,0.0,4500.0,0.0,0.0,0.0
1513267465302193464,,738783,,1513267463,478669309,'',1.62315620435,1.62806494288,0.00436909669955,0.0,0.001,0.0,4500.0,0.0,0.0,0.0
1513267465312111122,,738784,,1513267463,488669309,'',1.62315620435,1.62806494288,0.00255372948409,0.0,0.001,0.0,4500.0,0.0,0.0,0.0
1513267465322598793,,738785,,1513267463,498669309,'',1.62315620435,1.62942848135,0.0281450942772,0.0,0.001,0.0,4500.0,0.0,0.0,0.0
1513267465332551895,,738786,,1513267463,508669309,'',1.62315620435,1.62806494288,-0.000467514839267,0.0,0.001,0.0,4500.0,0.0,0.0,0.0
1513267465342499088,,738787,,1513267463,518669309,'',1.62315620435,1.62806494288,-0.0014878719174,0.0,0.001,0.0,4500.0,0.0,0.0,0.0
1513267465352414686,,738788,,1513267463,528669309,'',1.62315620435,1.62942848135,0.0243439271519,0.0,0.001,0.0,4500.0,0.0,0.0,0.0
1513267465362311203,,738789,,1513267463,538669309,'',1.62315620435,1.62942848135,0.0233636178808,0.0,0.001,0.0,4500.0,0.0,0.0,0.0
1513267465372342036,,738790,,1513267463,548669309,'',1.62315620435,1.62806494288,-0.00589220502689,0.0,0.001,0.0,4500.0,0.0,0.0,0.0
1513267465382503527,,738791,,1513267463,558669309,'',1.62315620435,1.62942848135,0.0216683616847,0.0,0.001,0.0,4500.0,0.0,0.0,0.0
1513267465392295172,,738792,,1513267463,568669309,'',1.62315620435,1.62806494288,-0.0073277513757,0.0,0.001,0.0,4500.0,0.0,0.0,0.0
1513267465402248700,,738793,,1513267463,578669309,'',1.62315620435,1.62806494288,-0.00802198992626,0.0,0.001,0.0,4500.0,0.0,0.0,0.0
1513267465412656179,,738794,,1513267463,588669309,'',1.62315620435,1.62942848135,0.0189100237101,0.0,0.001,0.0,4500.0,0.0,0.0,0.0
1513267465422591473,,738795,,1513267463,598669309,'',1.62315620435,1.62806494288,-0.00804572980716,0.0,0.001,0.0,4500.0,0.0,0.0,0.0
1513267465432534573,,738796,,1513267463,608669309,'',1.62315620435,1.62806494288,-0.00747548081847,0.0,0.001,0.0,4500.0,0.0,0.0,0.0
1513267465442484703,,738797,,1513267463,618669309,'',1.62315620435,1.62806494288,-0.00704839848611,0.0,0.001,0.0,4500.0,0.0,0.0,0.0
1513267465452450355,,738798,,1513267463,628669309,'',1.62315620435,1.62806494288,-0.00528172124324,0.0,0.001,0.0,4500.0,0.0,0.0,0.0
1513267465462343724,,738799,,1513267463,638669309,'',1.62315620435,1.62942848135,0.0207335410975,0.0,0.001,0.0,4500.0,0.0,0.0,0.0
1513267465472570648,,738800,,1513267463,648669309,'',1.62315620435,1.62942848135,0.0203858118268,0.0,0.001,0.0,4500.0,0.0,0.0,0.0
1513267465482439985,,738801,,1513267463,658669309,'',1.62315620435,1.62806494288,-0.00688207766473,0.0,0.001,0.0,4500.0,0.0,0.0,0.0
1513267465492495707,,738802,,1513267463,668669309,'',1.62315620435,1.62942848135,0.0213743809663,0.0,0.001,0.0,4500.0,0.0,0.0,0.0
1513267465502581936,,738803,,1513267463,678669309,'',1.62315620435,1.62806494288,-0.00502432629881,0.0,0.001,0.0,4500.0,0.0,0.0,0.0
1513267465512352970,,738804,,1513267463,688669309,'',1.62315620435,1.62942848135,0.0214805996778,0.0,0.001,0.0,4500.0,0.0,0.0,0.0
1513267465522392224,,738805,,1513267463,698669309,'',1.62315620435,1.62806494288,-0.0069018535647,0.0,0.001,0.0,4500.0,0.0,0.0,0.0
1513267465532273722,,738806,,1513267463,708669309,'',1.62315620435,1.62806494288,-0.00662823317355,0.0,0.001,0.0,4500.0,0.0,0.0,0.0
1513267465542247352,,738807,,1513267463,718669309,'',1.62315620435,1.62942848135,0.0211912398683,0.0,0.001,0.0,4500.0,0.0,0.0,0.0
1513267465552203338,,738808,,1513267463,728669309,'',1.62315620435,1.62942848135,0.0203482320162,0.0,0.001,0.0,4500.0,0.0,0.0,0.0
1513267465562169972,,738809,,1513267463,738669309,'',1.62315620435,1.62806494288,-0.00837573493056,0.0,0.001,0.0,4500.0,0.0,0.0,0.0
1513267465572665953,,738810,,1513267463,748669309,'',1.62315620435,1.62806494288,-0.00881259611289,0.0,0.001,0.0,4500.0,0.0,0.0,0.0
1513267465582674653,,738811,,1513267463,758669309,'',1.62315620435,1.62942848135,0.018316270475,0.0,0.001,0.0,4500.0,0.0,0.0,0.0
1513267465592567225,,738812,,1513267463,768669309,'',1.62315620435,1.62806494288,-0.00715184782543,0.0,0.001,0.0,4500.0,0.0,0.0,0.0
1513267465602526730,,738813,,1513267463,778669309,'',1.62315620435,1.62806494288,-0.00740472724373,0.0,0.001,0.0,4500.0,0.0,0.0,0.0
1513267465612439648,,738814,,1513267463,788669309,'',1.62315620435,1.62806494288,-0.00756853009881,0.0,0.001,0.0,4500.0,0.0,0.0,0.0
1513267465622387632,,738815,,1513267463,798669309,'',1.62315620435,1.62806494288,-0.00713560700824,0.0,0.001,0.0,4500.0,0.0,0.0,0.0
1513267465632361275,,738816,,1513267463,808669309,'',1.62315620435,1.62806494288,-0.00831122838794,0.0,0.001,0.0,4500.0,0.0,0.0,0.0
1513267465642350697,,738817,,1513267463,818669309,'',1.62315620435,1.63079201983,0.0467632475567,0.0,0.001,0.0,4500.0,0.0,0.0,0.0
1513267465652295503,,738818,,1513267463,828669309,'',1.62315620435,1.62942848135,0.0186989770371,0.0,0.001,0.0,4500.0,0.0,0.0,0.0
1513267465662313414,,738819,,1513267463,838669309,'',1.62315620435,1.62806494288,-0.00728841787004,0.0,0.001,0.0,4500.0,0.0,0.0,0.0
1513267465672220557,,738820,,1513267463,848669309,'',1.62315620435,1.62942848135,0.0190053800839,0.0,0.001,0.0,4500.0,0.0,0.0,0.0
1513267465682587512,,738821,,1513267463,858669309,'',1.62315620435,1.62806494288,-0.00846004114117,0.0,0.001,0.0,4500.0,0.0,0.0,0.0
1513267465692552081,,738822,,1513267463,868669309,'',1.62315620435,1.62806494288,-0.00893513741174,0.0,0.001,0.0,4500.0,0.0,0.0,0.0
1513267465702516983,,738823,,1513267463,878669309,'',1.62315620435,1.6267014044,-0.0363225041039,0.0,0.001,0.0,4500.0,0.0,0.0,0.0
1513267465712357701,,738824,,1513267463,888669309,'',1.62315620435,1.62806494288,-0.00818705432495,0.0,0.001,0.0,4500.0,0.0,0.0,0.0
1513267465722362168,,738825,,1513267463,898669309,'',1.62315620435,1.62806494288,-0.00708363012723,0.0,0.001,0.0,4500.0,0.0,0.0,0.0
1513267465732206092,,738826,,1513267463,908669309,'',1.62315620435,1.62806494288,-0.0063276077737,0.0,0.001,0.0,4500.0,0.0,0.0,0.0
1513267465742211583,,738827,,1513267463,918669309,'',1.62315620435,1.62942848135,0.020865610355,0.0,0.001,0.0,4500.0,0.0,0.0,0.0
1513267465752236050,,738828,,1513267463,928669309,'',1.62315620435,1.62942848135,0.0210698630799,0.0,0.001,0.0,4500.0,0.0,0.0,0.0
1513267465762517074,,738829,,1513267463,938669309,'',1.62315620435,1.6267014044,-0.0343824959199,0.0,0.001,0.0,4500.0,0.0,0.0,0.0
1513267465772563802,,738830,,1513267463,948669309,'',1.62315620435,1.62806494288,-0.00706761472588,0.0,0.001,0.0,4500.0,0.0,0.0,0.0
1513267465782647528,,738831,,1513267463,958669309,'',1.62315620435,1.62806494288,-0.0068345398973,0.0,0.001,0.0,4500.0,0.0,0.0,0.0
1513267465792526333,,738832,,1513267463,968669309,'',1.62315620435,1.62942848135,0.0183565102996,0.0,0.001,0.0,4500.0,0.0,0.0,0.0
1513267465802502050,,738833,,1513267463,978669309,'',1.62315620435,1.62942848135,0.0169587037003,0.0,0.001,0.0,4500.0,0.0,0.0,0.0
1513267465812418406,,738834,,1513267463,988669309,'',1.62315620435,1.62806494288,-0.00960139345652,0.0,0.001,0.0,4500.0,0.0,0.0,0.0
1513267465822359121,,738835,,1513267463,998669309,'',1.62315620435,1.62942848135,0.0171009386326,0.0,0.001,0.0,4500.0,0.0,0.0,0.0
1513267465832411616,,738836,,1513267464,8669309,'',1.62315620435,1.62806494288,-0.00947509777308,0.0,0.001,0.0,4500.0,0.0,0.0,0.0
1513267465842297473,,738837,,1513267464,18669309,'',1.62315620435,1.62942848135,0.0192725134795,0.0,0.001,0.0,4500.0,0.0,0.0,0.0
1513267465852200462,,738838,,1513267464,28669309,'',1.62315620435,1.62942848135,0.0182015522702,0.0,0.001,0.0,4500.0,0.0,0.0,0.0
1513267465862183948,,738839,,1513267464,38669309,'',1.62315620435,1.62806494288,-0.00862992792202,0.0,0.001,0.0,4500.0,0.0,0.0,0.0
1513267465872625563,,738840,,1513267464,48669309,'',1.62315620435,1.62806494288,-0.00904632917285,0.0,0.001,0.0,4500.0,0.0,0.0,0.0
1513267465882546457,,738841,,1513267464,58669309,'',1.62315620435,1.62942848135,0.0165401182022,0.0,0.001,0.0,4500.0,0.0,0.0,0.0
1513267465892407156,,738842,,1513267464,68669309,'',1.62315620435,1.62806494288,-0.0114543122559,0.0,0.001,0.0,4500.0,0.0,0.0,0.0
1513267465902504130,,738843,,1513267464,78669309,'',1.62315620435,1.62942848135,0.0171365500853,0.0,0.001,0.0,4500.0,0.0,0.0,0.0
1513267465912428879,,738844,,1513267464,88669309,'',1.62315620435,1.62942848135,0.0165240186637,0.0,0.001,0.0,4500.0,0.0,0.0,0.0
1513267465922401338,,738845,,1513267464,98669309,'',1.62315620435,1.62806494288,-0.0115088512691,0.0,0.001,0.0,4500.0,0.0,0.0,0.0
1513267465932332711,,738846,,1513267464,108669309,'',1.62315620435,1.62942848135,0.0172021787412,0.0,0.001,0.0,4500.0,0.0,0.0,0.0
1513267465942297813,,738847,,1513267464,118669309,'',1.62315620435,1.62806494288,-0.0100014421608,0.0,0.001,0.0,4500.0,0.0,0.0,0.0
1513267465952198795,,738848,,1513267464,128669309,'',1.62315620435,1.62942848135,0.0163910744592,0.0,0.001,0.0,4500.0,0.0,0.0,0.0
1513267465962678987,,738849,,1513267464,138669309,'',1.62315620435,1.62942848135,0.0163242835852,0.0,0.001,0.0,4500.0,0.0,0.0,0.0
1513267465972635479,,738850,,1513267464,148669309,'',1.62315620435,1.62806494288,-0.010684150111,0.0,0.001,0.0,4500.0,0.0,0.0,0.0
1513267465982571259,,738851,,1513267464,158669309,'',1.62315620435,1.62942848135,0.0181642246982,0.0,0.001,0.0,4500.0,0.0,0.0,0.0
1513267465992513522,,738852,,1513267464,168669309,'',1.62315620435,1.62806494288,-0.00912428392701,0.0,0.001,0.0,4500.0,0.0,0.0,0.0
1513267466002460457,,738853,,1513267464,178669309,'',1.62315620435,1.63079201983,0.0450464915958,0.0,0.001,0.0,4500.0,0.0,0.0,0.0
1513267466012405844,,738854,,1513267464,188669309,'',1.62315620435,1.62942848135,0.0169045666851,0.0,0.001,0.0,4500.0,0.0,0.0,0.0
1513267466022440910,,738855,,1513267464,198669309,'',1.62315620435,1.62942848135,0.0173771298087,0.0,0.001,0.0,4500.0,0.0,0.0,0.0
1513267466032433909,,738856,,1513267464,208669309,'',1.62315620435,1.62942848135,0.0176772012917,0.0,0.001,0.0,4500.0,0.0,0.0,0.0
1513267466042339915,,738857,,1513267464,218669309,'',1.62315620435,1.62806494288,-0.00951677595445,0.0,0.001,0.0,4500.0,0.0,0.0,0.0
1513267466052288350,,738858,,1513267464,228669309,'',1.62315620435,1.62806494288,-0.00936020385353,0.0,0.001,0.0,4500.0,0.0,0.0,0.0
1513267466062461287,,738859,,1513267464,238669309,'',1.62315620435,1.62806494288,-0.00876170433291,0.0,0.001,0.0,4500.0,0.0,0.0,0.0
1513267466072466370,,738860,,1513267464,248669309,'',1.62315620435,1.62942848135,0.0198121461858,0.0,0.001,0.0,4500.0,0.0,0.0,0.0
1513267466082424066,,738861,,1513267464,258669309,'',1.62315620435,1.62806494288,-0.00927466528332,0.0,0.001,0.0,4500.0,0.0,0.0,0.0
1513267466092276092,,738862,,1513267464,268669309,'',1.62315620435,1.62806494288,-0.00753170709804,0.0,0.001,0.0,4500.0,0.0,0.0,0.0
