rosbagTimestamp,header,seq,stamp,secs,nsecs,frame_id,set_point,process_value,process_value_dot,error,time_step,command,p,i,d,i_clamp
1513267462512560690,,738500,,1513267460,688669309,'',1.37881010908,1.39266065773,-0.00854892820095,0.0138505486511,0.001,-69.2527432557,5000.0,0.0,0.0,0.0
1513267462522525541,,738501,,1513267460,698669309,'',1.37881010908,1.39266065773,-0.00747784670876,0.0138505486511,0.001,-69.2527432557,5000.0,0.0,0.0,0.0
1513267462532566064,,738502,,1513267460,708669309,'',1.37881010908,1.39386157235,0.0159297013642,0.0150514632741,0.001,-75.2573163704,5000.0,0.0,0.0,0.0
1513267462542553641,,738503,,1513267460,718669309,'',1.37881010908,1.39386157235,0.0160652735178,0.0150514632741,0.001,-75.2573163704,5000.0,0.0,0.0,0.0
1513267462552429910,,738504,,1513267460,728669309,'',1.37881010908,1.39386157235,0.0153084310769,0.0150514632741,0.001,-75.2573163704,5000.0,0.0,0.0,0.0
1513267462562395502,,738505,,1513267460,738669309,'',1.37881010908,1.39386157235,0.0168698906438,0.0150514632741,0.001,-75.2573163704,5000.0,0.0,0.0,0.0
1513267462572257047,,738506,,1513267460,748669309,'',1.37881010908,1.39386157235,0.016016153585,0.0150514632741,0.001,-75.2573163704,5000.0,0.0,0.0,0.0
1513267462582384961,,738507,,1513267460,758669309,'',1.37881010908,1.39266065773,-0.0093490849504,0.0138505486511,0.001,-69.2527432557,5000.0,0.0,0.0,0.0
1513267462592243122,,738508,,1513267460,768669309,'',1.37881010908,1.39266065773,-0.0097994194831,0.0138505486511,0.001,-69.2527432557,5000.0,0.0,0.0,0.0
1513267462602113439,,738509,,1513267460,778669309,'',1.37881010908,1.39386157235,0.0144615020605,0.0150514632741,0.001,-75.2573163704,5000.0,0.0,0.0,0.0
1513267462612484636,,738510,,1513267460,788669309,'',1.37881010908,1.39386157235,0.0153260355524,0.0150514632741,0.001,-75.2573163704,5000.0,0.0,0.0,0.0
1513267462622422529,,738511,,1513267460,798669309,'',1.37881010908,1.39266065773,-0.00949206721064,0.0138505486511,0.001,-69.2527432557,5000.0,0.0,0.0,0.0
1513267462632437807,,738512,,1513267460,808669309,'',1.37881010908,1.39266065773,-0.00856768933418,0.0138505486511,0.001,-69.2527432557,5000.0,0.0,0.0,0.0
1513267462642381590,,738513,,1513267460,818669309,'',1.37881010908,1.39386157235,0.0163343551454,0.0150514632741,0.001,-75.2573163704,5000.0,0.0,0.0,0.0
1513267462652285978,,738514,,1513267460,828669309,'',1.37881010908,1.39266065773,-0.00774043921297,0.0138505486511,0.001,-69.2527432557,5000.0,0.0,0.0,0.0
1513267462662297290,,738515,,1513267460,838669309,'',1.37881010908,1.39386157235,0.0165846902054,0.0150514632741,0.001,-75.2573163704,5000.0,0.0,0.0,0.0
1513267462672292182,,738516,,1513267460,848669309,'',1.37881010908,1.39386157235,0.0157546165701,0.0150514632741,0.001,-75.2573163704,5000.0,0.0,0.0,0.0
1513267462682290942,,738517,,1513267460,858669309,'',1.37881010908,1.39266065773,-0.00866826081616,0.0138505486511,0.001,-69.2527432557,5000.0,0.0,0.0,0.0
1513267462692640761,,738518,,1513267460,868669309,'',1.37881010908,1.39266065773,-0.00925403070848,0.0138505486511,0.001,-69.2527432557,5000.0,0.0,0.0,0.0
1513267462702600137,,738519,,1513267460,878669309,'',1.37881010908,1.39266065773,-0.00805199019432,0.0138505486511,0.001,-69.2527432557,5000.0,0.0,0.0,0.0
1513267462712487878,,738520,,1513267460,888669309,'',1.37881010908,1.39386157235,0.0141074308957,0.0150514632741,0.001,-75.2573163704,5000.0,0.0,0.0,0.0
1513267462722392315,,738521,,1513267460,898669309,'',1.37881010908,1.39266065773,-0.0096448476905,0.0138505486511,0.001,-69.2527432557,5000.0,0.0,0.0,0.0
1513267462732517688,,738522,,1513267460,908669309,'',1.37881010908,1.39386157235,0.0150585024725,0.0150514632741,0.001,-75.2573163704,5000.0,0.0,0.0,0.0
1513267462742567698,,738523,,1513267460,918669309,'',1.37881010908,1.39266065773,-0.00882928215121,0.0138505486511,0.001,-69.2527432557,5000.0,0.0,0.0,0.0
1513267462752339417,,738524,,1513267460,928669309,'',1.37881010908,1.39386157235,0.0148071679442,0.0150514632741,0.001,-75.2573163704,5000.0,0.0,0.0,0.0
1513267462762159046,,738525,,1513267460,938669309,'',1.37881010908,1.39266065773,-0.00947364690291,0.0138505486511,0.001,-69.2527432557,5000.0,0.0,0.0,0.0
1513267462772095425,,738526,,1513267460,948669309,'',1.37881010908,1.39266065773,-0.00949056505608,0.0138505486511,0.001,-69.2527432557,5000.0,0.0,0.0,0.0
1513267462782490179,,738527,,1513267460,958669309,'',1.37881010908,1.39386157235,0.0142381345709,0.0150514632741,0.001,-75.2573163704,5000.0,0.0,0.0,0.0
1513267462792415644,,738528,,1513267460,968669309,'',1.37881010908,1.39266065773,-0.00990133002273,0.0138505486511,0.001,-69.2527432557,5000.0,0.0,0.0,0.0
1513267462802543482,,738529,,1513267460,978669309,'',1.37881010908,1.39266065773,-0.00940589417601,0.0138505486511,0.001,-69.2527432557,5000.0,0.0,0.0,0.0
1513267462812460625,,738530,,1513267460,988669309,'',1.37881010908,1.39386157235,0.0138840551972,0.0150514632741,0.001,-75.2573163704,5000.0,0.0,0.0,0.0
1513267462822471150,,738531,,1513267460,998669309,'',1.37881010908,1.39386157235,0.014427846172,0.0150514632741,0.001,-75.2573163704,5000.0,0.0,0.0,0.0
1513267462832421341,,738532,,1513267461,8669309,'',1.37881010908,1.39506248697,0.0386273446131,0.016252377897,0.001,-81.2618894851,5000.0,0.0,0.0,0.0
1513267462842303844,,738533,,1513267461,18669309,'',1.37881010908,1.39386157235,0.0143933078977,0.0150514632741,0.001,-75.2573163704,5000.0,0.0,0.0,0.0
1513267462852287265,,738534,,1513267461,28669309,'',1.37881010908,1.39266065773,-0.00979508250004,0.0138505486511,0.001,-69.2527432557,5000.0,0.0,0.0,0.0
1513267462862316594,,738535,,1513267461,38669309,'',1.37881010908,1.39386157235,0.0139988514641,0.0150514632741,0.001,-75.2573163704,5000.0,0.0,0.0,0.0
1513267462872226430,,738536,,1513267461,48669309,'',1.37881010908,1.3914597431,-0.0352247776836,0.0126496340282,0.001,-63.2481701411,5000.0,0.0,0.0,0.0
1513267462882154998,,738537,,1513267461,58669309,'',1.37881010908,1.39386157235,0.0125224036986,0.0150514632741,0.001,-75.2573163704,5000.0,0.0,0.0,0.0
1513267462892633790,,738538,,1513267461,68669309,'',1.37881010908,1.39266065773,-0.0109434599877,0.0138505486511,0.001,-69.2527432557,5000.0,0.0,0.0,0.0
1513267462902568688,,738539,,1513267461,78669309,'',1.37881010908,1.39386157235,0.0126360756405,0.0150514632741,0.001,-75.2573163704,5000.0,0.0,0.0,0.0
1513267462912492882,,738540,,1513267461,88669309,'',1.37881010908,1.39266065773,-0.0104268706441,0.0138505486511,0.001,-69.2527432557,5000.0,0.0,0.0,0.0
1513267462922357544,,738541,,1513267461,98669309,'',1.37881010908,1.39266065773,-0.00892856835864,0.0138505486511,0.001,-69.2527432557,5000.0,0.0,0.0,0.0
1513267462932388389,,738542,,1513267461,108669309,'',1.37881010908,1.39386157235,0.0139128474993,0.0150514632741,0.001,-75.2573163704,5000.0,0.0,0.0,0.0
1513267462942270631,,738543,,1513267461,118669309,'',1.37881010908,1.39386157235,0.0144272092901,0.0150514632741,0.001,-75.2573163704,5000.0,0.0,0.0,0.0
1513267462952215472,,738544,,1513267461,128669309,'',1.37881010908,1.39386157235,0.0144262656029,0.0150514632741,0.001,-75.2573163704,5000.0,0.0,0.0,0.0
1513267462962304966,,738545,,1513267461,138669309,'',1.37881010908,1.39386157235,0.0148357840175,0.0150514632741,0.001,-75.2573163704,5000.0,0.0,0.0,0.0
1513267462972341088,,738546,,1513267461,148669309,'',1.37881010908,1.39266065773,-0.00993167701543,0.0138505486511,0.001,-69.2527432557,5000.0,0.0,0.0,0.0
1513267462982670984,,738547,,1513267461,158669309,'',1.37881010908,1.39266065773,-0.00947344194463,0.0138505486511,0.001,-69.2527432557,5000.0,0.0,0.0,0.0
1513267462992552231,,738548,,1513267461,168669309,'',1.37881010908,1.39386157235,0.0143026122959,0.0150514632741,0.001,-75.2573163704,5000.0,0.0,0.0,0.0
1513267463002597417,,738549,,1513267461,178669309,'',1.37881010908,1.39266065773,-0.00987267716499,0.0138505486511,0.001,-69.2527432557,5000.0,0.0,0.0,0.0
1513267463012555562,,738550,,1513267461,188669309,'',1.37881010908,1.39266065773,-0.00981176003202,0.0138505486511,0.001,-69.2527432557,5000.0,0.0,0.0,0.0
1513267463022446706,,738551,,1513267461,198669309,'',1.37881010908,1.39266065773,-0.0101722950977,0.0138505486511,0.001,-69.2527432557,5000.0,0.0,0.0,0.0
1513267463032485232,,738552,,1513267461,208669309,'',1.37881010908,1.39266065773,-0.00915091571158,0.0138505486511,0.001,-69.2527432557,5000.0,0.0,0.0,0.0
1513267463042388097,,738553,,1513267461,218669309,'',1.37881010908,1.39386157235,0.0154789981724,0.0150514632741,0.001,-75.2573163704,5000.0,0.0,0.0,0.0
1513267463052494689,,738554,,1513267461,228669309,'',1.37881010908,1.39386157235,0.0161736361256,0.0150514632741,0.001,-75.2573163704,5000.0,0.0,0.0,0.0
1513267463062879626,,738555,,1513267461,238669309,'',1.37881010908,1.39266065773,-0.00581487542375,0.0138505486511,0.001,-69.2527432557,5000.0,0.0,0.0,0.0
1513267463072102632,,738556,,1513267461,248669309,'',1.37881010908,1.39386157235,0.0180713812205,0.0150514632741,0.001,-75.2573163704,5000.0,0.0,0.0,0.0
1513267463082173255,,738557,,1513267461,258669309,'',1.37881010908,1.39386157235,0.0187026259736,0.0150514632741,0.001,-75.2573163704,5000.0,0.0,0.0,0.0
1513267463092079954,,738558,,1513267461,268669309,'',1.37881010908,1.39266065773,-0.00539706087312,0.0138505486511,0.001,-69.2527432557,5000.0,0.0,0.0,0.0
1513267463102575551,,738559,,1513267461,278669309,'',1.37881010908,1.3914597431,-0.0286422157415,0.0126496340282,0.001,-63.2481701411,5000.0,0.0,0.0,0.0
1513267463112553533,,738560,,1513267461,288669309,'',1.37881010908,1.39266065773,-0.00613336934149,0.0138505486511,0.001,-69.2527432557,5000.0,0.0,0.0,0.0
1513267463122478671,,738561,,1513267461,298669309,'',1.37881010908,1.39386157235,0.0178649190662,0.0150514632741,0.001,-75.2573163704,5000.0,0.0,0.0,0.0
1513267463132473272,,738562,,1513267461,308669309,'',1.37881010908,1.39386157235,0.0185445507325,0.0150514632741,0.001,-75.2573163704,5000.0,0.0,0.0,0.0
1513267463146963089,,738563,,1513267461,318669309,'',1.37881010908,1.39266065773,-0.00548902333953,0.0138505486511,0.001,-69.2527432557,5000.0,0.0,0.0,0.0
1513267463152486499,,738564,,1513267461,328669309,'',1.37881010908,1.39266065773,-0.00453019180875,0.0138505486511,0.001,-69.2527432557,5000.0,0.0,0.0,0.0
1513267463162392689,,738565,,1513267461,338669309,'',1.37881010908,1.39386157235,0.0174781149517,0.0150514632741,0.001,-75.2573163704,5000.0,0.0,0.0,0.0
1513267463172291459,,738566,,1513267461,348669309,'',1.37881010908,1.39266065773,-0.00553173790461,0.0138505486511,0.001,-69.2527432557,5000.0,0.0,0.0,0.0
1513267463182243865,,738567,,1513267461,358669309,'',1.37881010908,1.39386157235,0.0183912742093,0.0150514632741,0.001,-75.2573163704,5000.0,0.0,0.0,0.0
1513267463192077615,,738568,,1513267461,368669309,'',1.37881010908,1.39386157235,0.0167770754097,0.0150514632741,0.001,-75.2573163704,5000.0,0.0,0.0,0.0
1513267463202082048,,738569,,1513267461,378669309,'',1.37881010908,1.3914597431,-0.0303191436117,0.0126496340282,0.001,-63.2481701411,5000.0,0.0,0.0,0.0
1513267463212710099,,738570,,1513267461,388669309,'',1.37881010908,1.39266065773,-0.00622954684134,0.0138505486511,0.001,-69.2527432557,5000.0,0.0,0.0,0.0
1513267463222247428,,738571,,1513267461,398669309,'',1.37881010908,1.39266065773,-0.00638948755182,0.0138505486511,0.001,-69.2527432557,5000.0,0.0,0.0,0.0
1513267463232163403,,738572,,1513267461,408669309,'',1.37881010908,1.39266065773,-0.00567838229414,0.0138505486511,0.001,-69.2527432557,5000.0,0.0,0.0,0.0
1513267463242571136,,738573,,1513267461,418669309,'',1.37881010908,1.39266065773,-0.00547607182267,0.0138505486511,0.001,-69.2527432557,5000.0,0.0,0.0,0.0
1513267463252451257,,738574,,1513267461,428669309,'',1.37881010908,1.39266065773,-0.00495599387319,0.0138505486511,0.001,-69.2527432557,5000.0,0.0,0.0,0.0
1513267463262343549,,738575,,1513267461,438669309,'',1.37881010908,1.39266065773,-0.00447822681397,0.0138505486511,0.001,-69.2527432557,5000.0,0.0,0.0,0.0
1513267463272237908,,738576,,1513267461,448669309,'',1.37881010908,1.39266065773,-0.00453648422375,0.0138505486511,0.001,-69.2527432557,5000.0,0.0,0.0,0.0
1513267463282387730,,738577,,1513267461,458669309,'',1.37881010908,1.39266065773,-0.00371371712836,0.0138505486511,0.001,-69.2527432557,5000.0,0.0,0.0,0.0
1513267463292412681,,738578,,1513267461,468669309,'',1.37881010908,1.39266065773,-0.00348268173871,0.0138505486511,0.001,-69.2527432557,5000.0,0.0,0.0,0.0
1513267463302322570,,738579,,1513267461,478669309,'',1.37881010908,1.39266065773,-0.00328472483589,0.0138505486511,0.001,-69.2527432557,5000.0,0.0,0.0,0.0
1513267463312294648,,738580,,1513267461,488669309,'',1.37881010908,1.39266065773,-0.00351162466373,0.0138505486511,0.001,-69.2527432557,5000.0,0.0,0.0,0.0
1513267463322183514,,738581,,1513267461,498669309,'',1.37881010908,1.39386157235,0.0196786557746,0.0150514632741,0.001,-75.2573163704,5000.0,0.0,0.0,0.0
1513267463332567561,,738582,,1513267461,508669309,'',1.37881010908,1.39386157235,0.0200363208592,0.0150514632741,0.001,-75.2573163704,5000.0,0.0,0.0,0.0
1513267463342566016,,738583,,1513267461,518669309,'',1.37881010908,1.39386157235,0.0199071848363,0.0150514632741,0.001,-75.2573163704,5000.0,0.0,0.0,0.0
1513267463352438902,,738584,,1513267461,528669309,'',1.37881010908,1.39266065773,-0.00444235135772,0.0138505486511,0.001,-69.2527432557,5000.0,0.0,0.0,0.0
1513267463362412767,,738585,,1513267461,538669309,'',1.37881010908,1.39266065773,-0.0040655859318,0.0138505486511,0.001,-69.2527432557,5000.0,0.0,0.0,0.0
1513267463372305829,,738586,,1513267461,548669309,'',1.37881010908,1.39266065773,-0.00468684858745,0.0138505486511,0.001,-69.2527432557,5000.0,0.0,0.0,0.0
1513267463382280456,,738587,,1513267461,558669309,'',1.37881010908,1.3914597431,-0.0285566883562,0.0126496340282,0.001,-63.2481701411,5000.0,0.0,0.0,0.0
1513267463392261964,,738588,,1513267461,568669309,'',1.37881010908,1.3914597431,-0.0307559544361,0.0126496340282,0.001,-63.2481701411,5000.0,0.0,0.0,0.0
1513267463402367620,,738589,,1513267461,578669309,'',1.37881010908,1.39266065773,-0.00749406618632,0.0138505486511,0.001,-69.2527432557,5000.0,0.0,0.0,0.0
1513267463412121514,,738590,,1513267461,588669309,'',1.37881010908,1.39386157235,0.0162903318569,0.0150514632741,0.001,-75.2573163704,5000.0,0.0,0.0,0.0
1513267463422571743,,738591,,1513267461,598669309,'',1.37881010908,1.39266065773,-0.00690500042861,0.0138505486511,0.001,-69.2527432557,5000.0,0.0,0.0,0.0
1513267463432554049,,738592,,1513267461,608669309,'',1.37881010908,1.39386157235,0.0164118463889,0.0150514632741,0.001,-75.2573163704,5000.0,0.0,0.0,0.0
1513267463442473703,,738593,,1513267461,618669309,'',1.37881010908,1.39266065773,-0.00864561905879,0.0138505486511,0.001,-69.2527432557,5000.0,0.0,0.0,0.0
1513267463452450058,,738594,,1513267461,628669309,'',1.37881010908,1.39266065773,-0.00841383944539,0.0138505486511,0.001,-69.2527432557,5000.0,0.0,0.0,0.0
1513267463462476999,,738595,,1513267461,638669309,'',1.37881010908,1.39266065773,-0.00820746760145,0.0138505486511,0.001,-69.2527432557,5000.0,0.0,0.0,0.0
1513267463472474266,,738596,,1513267461,648669309,'',1.37881010908,1.39266065773,-0.00848010262064,0.0138505486511,0.001,-69.2527432557,5000.0,0.0,0.0,0.0
1513267463482365548,,738597,,1513267461,658669309,'',1.37881010908,1.39386157235,0.016791992967,0.0150514632741,0.001,-75.2573163704,5000.0,0.0,0.0,0.0
1513267463492261583,,738598,,1513267461,668669309,'',1.37881010908,1.39266065773,-0.00606550158163,0.0138505486511,0.001,-69.2527432557,5000.0,0.0,0.0,0.0
1513267463502294638,,738599,,1513267461,678669309,'',1.37881010908,1.39266065773,-0.00756168960267,0.0138505486511,0.001,-69.2527432557,5000.0,0.0,0.0,0.0
1513267463512237641,,738600,,1513267461,688669309,'',1.37881010908,1.39506248697,0.0404479758516,0.016252377897,0.001,-81.2618894851,5000.0,0.0,0.0,0.0
1513267463522273936,,738601,,1513267461,698669309,'',1.37881010908,1.39506248697,0.0392033170092,0.016252377897,0.001,-81.2618894851,5000.0,0.0,0.0,0.0
1513267463532285522,,738602,,1513267461,708669309,'',1.37881010908,1.39266065773,-0.0084935511609,0.0138505486511,0.001,-69.2527432557,5000.0,0.0,0.0,0.0
1513267463542406442,,738603,,1513267461,718669309,'',1.37881010908,1.39266065773,-0.00912421716382,0.0138505486511,0.001,-69.2527432557,5000.0,0.0,0.0,0.0
1513267463552457774,,738604,,1513267461,728669309,'',1.37881010908,1.39266065773,-0.00913759133623,0.0138505486511,0.001,-69.2527432557,5000.0,0.0,0.0,0.0
1513267463562306226,,738605,,1513267461,738669309,'',1.37881010908,1.39266065773,-0.00964904904019,0.0138505486511,0.001,-69.2527432557,5000.0,0.0,0.0,0.0
1513267463572128219,,738606,,1513267461,748669309,'',1.37881010908,1.39266065773,-0.00876149353987,0.0138505486511,0.001,-69.2527432557,5000.0,0.0,0.0,0.0
1513267463582592641,,738607,,1513267461,758669309,'',1.37881010908,1.39266065773,-0.00672172011382,0.0138505486511,0.001,-69.2527432557,5000.0,0.0,0.0,0.0
1513267463592530676,,738608,,1513267461,768669309,'',1.37881010908,1.39386157235,0.0169309463074,0.0150514632741,0.001,-75.2573163704,5000.0,0.0,0.0,0.0
1513267463602443037,,738609,,1513267461,778669309,'',1.37881010908,1.39386157235,0.0164479268681,0.0150514632741,0.001,-75.2573163704,5000.0,0.0,0.0,0.0
1513267463612303033,,738610,,1513267461,788669309,'',1.37881010908,1.39266065773,-0.00767475481735,0.0138505486511,0.001,-69.2527432557,5000.0,0.0,0.0,0.0
1513267463622356865,,738611,,1513267461,798669309,'',1.37881010908,1.39266065773,-0.00710208766294,0.0138505486511,0.001,-69.2527432557,5000.0,0.0,0.0,0.0
1513267463632324723,,738612,,1513267461,808669309,'',1.37881010908,1.39266065773,-0.0058398436466,0.0138505486511,0.001,-69.2527432557,5000.0,0.0,0.0,0.0
1513267463642127828,,738613,,1513267461,818669309,'',1.37881010908,1.39266065773,-0.00524433417332,0.0138505486511,0.001,-69.2527432557,5000.0,0.0,0.0,0.0
1513267463652198179,,738614,,1513267461,828669309,'',1.37881010908,1.39266065773,-0.00565461411816,0.0138505486511,0.001,-69.2527432557,5000.0,0.0,0.0,0.0
1513267463662440451,,738615,,1513267461,838669309,'',1.37881010908,1.39386157235,0.0182593074731,0.0150514632741,0.001,-75.2573163704,5000.0,0.0,0.0,0.0
1513267463672381645,,738616,,1513267461,848669309,'',1.37881010908,1.39266065773,-0.00620754115742,0.0138505486511,0.001,-69.2527432557,5000.0,0.0,0.0,0.0
1513267463682104519,,738617,,1513267461,858669309,'',1.37881010908,1.39266065773,-0.00551638760784,0.0138505486511,0.001,-69.2527432557,5000.0,0.0,0.0,0.0
1513267463692699408,,738618,,1513267461,868669309,'',1.37881010908,1.39266065773,-0.00627645789407,0.0138505486511,0.001,-69.2527432557,5000.0,0.0,0.0,0.0
1513267463702488839,,738619,,1513267461,878669309,'',1.37881010908,1.39386157235,0.0173238538768,0.0150514632741,0.001,-75.2573163704,5000.0,0.0,0.0,0.0
1513267463712458184,,738620,,1513267461,888669309,'',1.37881010908,1.39266065773,-0.0070361168927,0.0138505486511,0.001,-69.2527432557,5000.0,0.0,0.0,0.0
1513267463722362841,,738621,,1513267461,898669309,'',1.37881010908,1.39386157235,0.0180095496251,0.0150514632741,0.001,-75.2573163704,5000.0,0.0,0.0,0.0
1513267463732374648,,738622,,1513267461,908669309,'',1.37881010908,1.3914597431,-0.0301431436156,0.0126496340282,0.001,-63.2481701411,5000.0,0.0,0.0,0.0
1513267463742234710,,738623,,1513267461,918669309,'',1.37881010908,1.39386157235,0.0176229182859,0.0150514632741,0.001,-75.2573163704,5000.0,0.0,0.0,0.0
1513267463752319041,,738624,,1513267461,928669309,'',1.37881010908,1.39266065773,-0.00630810757715,0.0138505486511,0.001,-69.2527432557,5000.0,0.0,0.0,0.0
1513267463762292923,,738625,,1513267461,938669309,'',1.37881010908,1.39386157235,0.0172596943543,0.0150514632741,0.001,-75.2573163704,5000.0,0.0,0.0,0.0
1513267463772343068,,738626,,1513267461,948669309,'',1.37881010908,1.39266065773,-0.00659528692421,0.0138505486511,0.001,-69.2527432557,5000.0,0.0,0.0,0.0
1513267463782230809,,738627,,1513267461,958669309,'',1.37881010908,1.39266065773,-0.00582296493479,0.0138505486511,0.001,-69.2527432557,5000.0,0.0,0.0,0.0
1513267463792348789,,738628,,1513267461,968669309,'',1.37881010908,1.39266065773,-0.00599503931776,0.0138505486511,0.001,-69.2527432557,5000.0,0.0,0.0,0.0
1513267463802253688,,738629,,1513267461,978669309,'',1.37881010908,1.39266065773,-0.00618192908999,0.0138505486511,0.001,-69.2527432557,5000.0,0.0,0.0,0.0
1513267463812364370,,738630,,1513267461,988669309,'',1.37881010908,1.3914597431,-0.0297375237544,0.0126496340282,0.001,-63.2481701411,5000.0,0.0,0.0,0.0
1513267463822223485,,738631,,1513267461,998669309,'',1.37881010908,1.3914597431,-0.0283062313358,0.0126496340282,0.001,-63.2481701411,5000.0,0.0,0.0,0.0
1513267463832302029,,738632,,1513267462,8669309,'',1.37881010908,1.39266065773,-0.0033084276829,0.0138505486511,0.001,-69.2527432557,5000.0,0.0,0.0,0.0
1513267463842471407,,738633,,1513267462,18669309,'',1.37881010908,1.39266065773,-0.00314552921028,0.0138505486511,0.001,-69.2527432557,5000.0,0.0,0.0,0.0
1513267463852393380,,738634,,1513267462,28669309,'',1.37881010908,1.39266065773,-0.00308361389483,0.0138505486511,0.001,-69.2527432557,5000.0,0.0,0.0,0.0
1513267463862439297,,738635,,1513267462,38669309,'',1.37881010908,1.3914597431,-0.0254471566837,0.0126496340282,0.001,-63.2481701411,5000.0,0.0,0.0,0.0
1513267463872335587,,738636,,1513267462,48669309,'',1.37881010908,1.39266065773,-0.00225288286434,0.0138505486511,0.001,-69.2527432557,5000.0,0.0,0.0,0.0
1513267463882287205,,738637,,1513267462,58669309,'',1.37881010908,1.39266065773,-0.00265420528403,0.0138505486511,0.001,-69.2527432557,5000.0,0.0,0.0,0.0
1513267463892312673,,738638,,1513267462,68669309,'',1.37881010908,1.39386157235,0.0190647770255,0.0150514632741,0.001,-75.2573163704,5000.0,0.0,0.0,0.0
1513267463902314831,,738639,,1513267462,78669309,'',1.37881010908,1.39386157235,0.0172835524174,0.0150514632741,0.001,-75.2573163704,5000.0,0.0,0.0,0.0
1513267463912554985,,738640,,1513267462,88669309,'',1.37881010908,1.39386157235,0.0180512303648,0.0150514632741,0.001,-75.2573163704,5000.0,0.0,0.0,0.0
1513267463922496297,,738641,,1513267462,98669309,'',1.37881010908,1.39266065773,-0.00601927964913,0.0138505486511,0.001,-69.2527432557,5000.0,0.0,0.0,0.0
1513267463932449355,,738642,,1513267462,108669309,'',1.37881010908,1.39266065773,-0.00587621249456,0.0138505486511,0.001,-69.2527432557,5000.0,0.0,0.0,0.0
1513267463942374424,,738643,,1513267462,118669309,'',1.37881010908,1.39266065773,-0.00572038746571,0.0138505486511,0.001,-69.2527432557,5000.0,0.0,0.0,0.0
1513267463952341580,,738644,,1513267462,128669309,'',1.37881010908,1.3914597431,-0.0301999217532,0.0126496340282,0.001,-63.2481701411,5000.0,0.0,0.0,0.0
1513267463962357218,,738645,,1513267462,138669309,'',1.37881010908,1.39266065773,-0.0052307147517,0.0138505486511,0.001,-69.2527432557,5000.0,0.0,0.0,0.0
1513267463972610595,,738646,,1513267462,148669309,'',1.37881010908,1.39266065773,-0.00553255422796,0.0138505486511,0.001,-69.2527432557,5000.0,0.0,0.0,0.0
1513267463982284519,,738647,,1513267462,158669309,'',1.37881010908,1.39386157235,0.0184075591254,0.0150514632741,0.001,-75.2573163704,5000.0,0.0,0.0,0.0
1513267463992383882,,738648,,1513267462,168669309,'',1.37881010908,1.39266065773,-0.00691487962589,0.0138505486511,0.001,-69.2527432557,5000.0,0.0,0.0,0.0
1513267464002443141,,738649,,1513267462,178669309,'',1.37881010908,1.39386157235,0.0172117600084,0.0150514632741,0.001,-75.2573163704,5000.0,0.0,0.0,0.0
1513267464012390694,,738650,,1513267462,188669309,'',1.37881010908,1.39266065773,-0.005381120387,0.0138505486511,0.001,-69.2527432557,5000.0,0.0,0.0,0.0
1513267464022792042,,738651,,1513267462,198669309,'',1.37881010908,1.39386157235,0.018044913799,0.0150514632741,0.001,-75.2573163704,5000.0,0.0,0.0,0.0
1513267464032664053,,738652,,1513267462,208669309,'',1.37881010908,1.39386157235,0.0169837120464,0.0150514632741,0.001,-75.2573163704,5000.0,0.0,0.0,0.0
1513267464042571899,,738653,,1513267462,218669309,'',1.37881010908,1.39266065773,-0.00772158943221,0.0138505486511,0.001,-69.2527432557,5000.0,0.0,0.0,0.0
1513267464052425414,,738654,,1513267462,228669309,'',1.37881010908,1.39266065773,-0.00814873445913,0.0138505486511,0.001,-69.2527432557,5000.0,0.0,0.0,0.0
1513267464062459240,,738655,,1513267462,238669309,'',1.37881010908,1.39266065773,-0.00966673661351,0.0138505486511,0.001,-69.2527432557,5000.0,0.0,0.0,0.0
1513267464072286822,,738656,,1513267462,248669309,'',1.37881010908,1.39386157235,0.0145729861787,0.0150514632741,0.001,-75.2573163704,5000.0,0.0,0.0,0.0
1513267464082367751,,738657,,1513267462,258669309,'',1.37881010908,1.39266065773,-0.0101600138767,0.0138505486511,0.001,-69.2527432557,5000.0,0.0,0.0,0.0
1513267464092275232,,738658,,1513267462,268669309,'',1.37881010908,1.39266065773,-0.00960756080411,0.0138505486511,0.001,-69.2527432557,5000.0,0.0,0.0,0.0
1513267464102750547,,738659,,1513267462,278669309,'',1.37881010908,1.39266065773,-0.00833410728315,0.0138505486511,0.001,-69.2527432557,5000.0,0.0,0.0,0.0
1513267464112581214,,738660,,1513267462,288669309,'',1.37881010908,1.39266065773,-0.00772490137634,0.0138505486511,0.001,-69.2527432557,5000.0,0.0,0.0,0.0
1513267464122671409,,738661,,1513267462,298669309,'',1.37881010908,1.39386157235,0.0169432857979,0.0150514632741,0.001,-75.2573163704,5000.0,0.0,0.0,0.0
1513267464132585101,,738662,,1513267462,308669309,'',1.37881010908,1.39266065773,-0.00595688666022,0.0138505486511,0.001,-69.2527432557,5000.0,0.0,0.0,0.0
1513267464142456956,,738663,,1513267462,318669309,'',1.37881010908,1.39386157235,0.0179722303454,0.0150514632741,0.001,-75.2573163704,5000.0,0.0,0.0,0.0
1513267464152429139,,738664,,1513267462,328669309,'',1.37881010908,1.39266065773,-0.00504311097753,0.0138505486511,0.001,-69.2527432557,5000.0,0.0,0.0,0.0
1513267464162304694,,738665,,1513267462,338669309,'',1.37881010908,1.39386157235,0.018358826,0.0150514632741,0.001,-75.2573163704,5000.0,0.0,0.0,0.0
1513267464172642741,,738666,,1513267462,348669309,'',1.37881010908,1.39266065773,-0.00742173414855,0.0138505486511,0.001,-69.2527432557,5000.0,0.0,0.0,0.0
1513267464182569967,,738667,,1513267462,358669309,'',1.37881010908,1.39386157235,0.0159548179915,0.0150514632741,0.001,-75.2573163704,5000.0,0.0,0.0,0.0
1513267464192308155,,738668,,1513267462,368669309,'',1.37881010908,1.39386157235,0.0165415564448,0.0150514632741,0.001,-75.2573163704,5000.0,0.0,0.0,0.0
1513267464202540564,,738669,,1513267462,378669309,'',1.37881010908,1.39266065773,-0.00855704054122,0.0138505486511,0.001,-69.2527432557,5000.0,0.0,0.0,0.0
1513267464212402070,,738670,,1513267462,388669309,'',1.37881010908,1.39266065773,-0.00914183572635,0.0138505486511,0.001,-69.2527432557,5000.0,0.0,0.0,0.0
1513267464222371848,,738671,,1513267462,398669309,'',1.37881010908,1.39266065773,-0.00835358763274,0.0138505486511,0.001,-69.2527432557,5000.0,0.0,0.0,0.0
1513267464232261050,,738672,,1513267462,408669309,'',1.37881010908,1.39266065773,-0.0081369981717,0.0138505486511,0.001,-69.2527432557,5000.0,0.0,0.0,0.0
1513267464242253601,,738673,,1513267462,418669309,'',1.37881010908,1.39386157235,0.0145815317707,0.0150514632741,0.001,-75.2573163704,5000.0,0.0,0.0,0.0
1513267464252242678,,738674,,1513267462,428669309,'',1.37881010908,1.39266065773,-0.00914406600718,0.0138505486511,0.001,-69.2527432557,5000.0,0.0,0.0,0.0
1513267464262399689,,738675,,1513267462,438669309,'',1.37881010908,1.39386157235,0.0159311222189,0.0150514632741,0.001,-75.2573163704,5000.0,0.0,0.0,0.0
1513267464272297780,,738676,,1513267462,448669309,'',1.37881010908,1.39386157235,0.0143934248252,0.0150514632741,0.001,-75.2573163704,5000.0,0.0,0.0,0.0
1513267464282344594,,738677,,1513267462,458669309,'',1.37881010908,1.39266065773,-0.0094222891193,0.0138505486511,0.001,-69.2527432557,5000.0,0.0,0.0,0.0
1513267464292641112,,738678,,1513267462,468669309,'',1.37881010908,1.39266065773,-0.0108997622326,0.0138505486511,0.001,-69.2527432557,5000.0,0.0,0.0,0.0
1513267464302551801,,738679,,1513267462,478669309,'',1.37881010908,1.39266065773,-0.0106197436504,0.0138505486511,0.001,-69.2527432557,5000.0,0.0,0.0,0.0
1513267464312456692,,738680,,1513267462,488669309,'',1.37881010908,1.39386157235,0.0128873931229,0.0150514632741,0.001,-75.2573163704,5000.0,0.0,0.0,0.0
1513267464322616167,,738681,,1513267462,498669309,'',1.37881010908,1.39266065773,-0.0101372116302,0.0138505486511,0.001,-69.2527432557,5000.0,0.0,0.0,0.0
1513267464332485350,,738682,,1513267462,508669309,'',1.37881010908,1.39386157235,0.015503405846,0.0150514632741,0.001,-75.2573163704,5000.0,0.0,0.0,0.0
1513267464342414589,,738683,,1513267462,518669309,'',1.37881010908,1.39266065773,-0.00807481527902,0.0138505486511,0.001,-69.2527432557,5000.0,0.0,0.0,0.0
1513267464352295105,,738684,,1513267462,528669309,'',1.37881010908,1.39266065773,-0.00703551533023,0.0138505486511,0.001,-69.2527432557,5000.0,0.0,0.0,0.0
1513267464362191256,,738685,,1513267462,538669309,'',1.37881010908,1.39266065773,-0.00623716084695,0.0138505486511,0.001,-69.2527432557,5000.0,0.0,0.0,0.0
1513267464372658274,,738686,,1513267462,548669309,'',1.37881010908,1.39386157235,0.0181626429511,0.0150514632741,0.001,-75.2573163704,5000.0,0.0,0.0,0.0
1513267464382581128,,738687,,1513267462,558669309,'',1.37881010908,1.39266065773,-0.005944205748,0.0138505486511,0.001,-69.2527432557,5000.0,0.0,0.0,0.0
1513267464392550929,,738688,,1513267462,568669309,'',1.37881010908,1.39386157235,0.0180438813373,0.0150514632741,0.001,-75.2573163704,5000.0,0.0,0.0,0.0
1513267464402480126,,738689,,1513267462,578669309,'',1.37881010908,1.39266065773,-0.00466178209531,0.0138505486511,0.001,-69.2527432557,5000.0,0.0,0.0,0.0
1513267464412373266,,738690,,1513267462,588669309,'',1.37881010908,1.39266065773,-0.00511912761332,0.0138505486511,0.001,-69.2527432557,5000.0,0.0,0.0,0.0
1513267464422550016,,738691,,1513267462,598669309,'',1.37881010908,1.39266065773,-0.00548363524663,0.0138505486511,0.001,-69.2527432557,5000.0,0.0,0.0,0.0
1513267464432317121,,738692,,1513267462,608669309,'',1.37881010908,1.39386157235,0.0179415306408,0.0150514632741,0.001,-75.2573163704,5000.0,0.0,0.0,0.0
1513267464442255174,,738693,,1513267462,618669309,'',1.37881010908,1.39386157235,0.0168794366644,0.0150514632741,0.001,-75.2573163704,5000.0,0.0,0.0,0.0
1513267464452188235,,738694,,1513267462,628669309,'',1.37881010908,1.39506248697,0.0415403233469,0.016252377897,0.001,-81.2618894851,5000.0,0.0,0.0,0.0
1513267464462409146,,738695,,1513267462,638669309,'',1.37881010908,1.39386157235,0.0171386912822,0.0150514632741,0.001,-75.2573163704,5000.0,0.0,0.0,0.0
1513267464472243637,,738696,,1513267462,648669309,'',1.37881010908,1.39386157235,0.0170163838392,0.0150514632741,0.001,-75.2573163704,5000.0,0.0,0.0,0.0
1513267464482297389,,738697,,1513267462,658669309,'',1.37881010908,1.39386157235,0.0169268001566,0.0150514632741,0.001,-75.2573163704,5000.0,0.0,0.0,0.0
1513267464492285770,,738698,,1513267462,668669309,'',1.37881010908,1.39266065773,-0.00601326987053,0.0138505486511,0.001,-69.2527432557,5000.0,0.0,0.0,0.0
1513267464502610219,,738699,,1513267462,678669309,'',1.37881010908,1.39266065773,-0.00617384768045,0.0138505486511,0.001,-69.2527432557,5000.0,0.0,0.0,0.0
1513267464512560748,,738700,,1513267462,688669309,'',1.37881010908,1.39266065773,-0.00634666803917,0.0138505486511,0.001,-69.2527432557,5000.0,0.0,0.0,0.0
1513267464522537953,,738701,,1513267462,698669309,'',1.37881010908,1.39266065773,-0.00778538372204,0.0138505486511,0.001,-69.2527432557,5000.0,0.0,0.0,0.0
1513267464532416436,,738702,,1513267462,708669309,'',1.37881010908,1.39386157235,0.0152308594455,0.0150514632741,0.001,-75.2573163704,5000.0,0.0,0.0,0.0
1513267464542445582,,738703,,1513267462,718669309,'',1.37881010908,1.39386157235,0.0164417217325,0.0150514632741,0.001,-75.2573163704,5000.0,0.0,0.0,0.0
1513267464552299476,,738704,,1513267462,728669309,'',1.37881010908,1.39506248697,0.0407308210803,0.016252377897,0.001,-81.2618894851,5000.0,0.0,0.0,0.0
1513267464562376624,,738705,,1513267462,738669309,'',1.37881010908,1.39266065773,-0.00679876149717,0.0138505486511,0.001,-69.2527432557,5000.0,0.0,0.0,0.0
1513267464572173455,,738706,,1513267462,748669309,'',1.37881010908,1.39266065773,-0.00726521745921,0.0138505486511,0.001,-69.2527432557,5000.0,0.0,0.0,0.0
1513267464582339212,,738707,,1513267462,758669309,'',1.37881010908,1.39266065773,-0.00732741186289,0.0138505486511,0.001,-69.2527432557,5000.0,0.0,0.0,0.0
1513267464592586176,,738708,,1513267462,768669309,'',1.37881010908,1.39266065773,-0.00826589721962,0.0138505486511,0.001,-69.2527432557,5000.0,0.0,0.0,0.0
1513267464602495490,,738709,,1513267462,778669309,'',1.37881010908,1.39266065773,-0.00720061348191,0.0138505486511,0.001,-69.2527432557,5000.0,0.0,0.0,0.0
1513267464612430285,,738710,,1513267462,788669309,'',1.37881010908,1.39266065773,-0.00674539128879,0.0138505486511,0.001,-69.2527432557,5000.0,0.0,0.0,0.0
1513267464622320497,,738711,,1513267462,798669309,'',1.37881010908,1.39266065773,-0.00683156868926,0.0138505486511,0.001,-69.2527432557,5000.0,0.0,0.0,0.0
1513267464632341240,,738712,,1513267462,808669309,'',1.37881010908,1.39386157235,0.0173442706428,0.0150514632741,0.001,-75.2573163704,5000.0,0.0,0.0,0.0
1513267464642211316,,738713,,1513267462,818669309,'',1.37881010908,1.39266065773,-0.0061092607728,0.0138505486511,0.001,-69.2527432557,5000.0,0.0,0.0,0.0
1513267464652228913,,738714,,1513267462,828669309,'',1.37881010908,1.39266065773,-0.00498951706857,0.0138505486511,0.001,-69.2527432557,5000.0,0.0,0.0,0.0
1513267464662256579,,738715,,1513267462,838669309,'',1.37881010908,1.39386157235,0.0183768107481,0.0150514632741,0.001,-75.2573163704,5000.0,0.0,0.0,0.0
1513267464672146900,,738716,,1513267462,848669309,'',1.37881010908,1.39266065773,-0.00527606552446,0.0138505486511,0.001,-69.2527432557,5000.0,0.0,0.0,0.0
1513267464682642971,,738717,,1513267462,858669309,'',1.37881010908,1.39266065773,-0.00523216435222,0.0138505486511,0.001,-69.2527432557,5000.0,0.0,0.0,0.0
1513267464692524885,,738718,,1513267462,868669309,'',1.37881010908,1.3914597431,-0.0276588067843,0.0126496340282,0.001,-63.2481701411,5000.0,0.0,0.0,0.0
1513267464702494006,,738719,,1513267462,878669309,'',1.37881010908,1.39266065773,-0.00459548389514,0.0138505486511,0.001,-69.2527432557,5000.0,0.0,0.0,0.0
1513267464712412303,,738720,,1513267462,888669309,'',1.37881010908,1.39266065773,-0.00548038904135,0.0138505486511,0.001,-69.2527432557,5000.0,0.0,0.0,0.0
1513267464722384290,,738721,,1513267462,898669309,'',1.37881010908,1.39266065773,-0.00487518358215,0.0138505486511,0.001,-69.2527432557,5000.0,0.0,0.0,0.0
1513267464732432537,,738722,,1513267462,908669309,'',1.37881010908,1.39266065773,-0.00523015629966,0.0138505486511,0.001,-69.2527432557,5000.0,0.0,0.0,0.0
1513267464742433823,,738723,,1513267462,918669309,'',1.37881010908,1.39266065773,-0.00548825916296,0.0138505486511,0.001,-69.2527432557,5000.0,0.0,0.0,0.0
1513267464752323834,,738724,,1513267462,928669309,'',1.37881010908,1.39386157235,0.0179966828399,0.0150514632741,0.001,-75.2573163704,5000.0,0.0,0.0,0.0
1513267464762388834,,738725,,1513267462,938669309,'',1.37881010908,1.39386157235,0.0182353663076,0.0150514632741,0.001,-75.2573163704,5000.0,0.0,0.0,0.0
1513267464772187750,,738726,,1513267462,948669309,'',1.37881010908,1.39266065773,-0.00546247884436,0.0138505486511,0.001,-69.2527432557,5000.0,0.0,0.0,0.0
1513267464782607894,,738727,,1513267462,958669309,'',1.37881010908,1.39266065773,-0.00618005281741,0.0138505486511,0.001,-69.2527432557,5000.0,0.0,0.0,0.0
1513267464792605228,,738728,,1513267462,968669309,'',1.37881010908,1.39266065773,-0.00550723961431,0.0138505486511,0.001,-69.2527432557,5000.0,0.0,0.0,0.0
1513267464802540863,,738729,,1513267462,978669309,'',1.37881010908,1.39266065773,-0.00452555462084,0.0138505486511,0.001,-69.2527432557,5000.0,0.0,0.0,0.0
1513267464812487076,,738730,,1513267462,988669309,'',1.37881010908,1.39266065773,-0.00418061651153,0.0138505486511,0.001,-69.2527432557,5000.0,0.0,0.0,0.0
1513267464822440181,,738731,,1513267462,998669309,'',1.37881010908,1.39266065773,-0.00211262854485,0.0138505486511,0.001,-69.2527432557,5000.0,0.0,0.0,0.0
1513267464832570121,,738732,,1513267463,8669309,'',1.37881010908,1.39386157235,0.0216342859566,0.0150514632741,0.001,-75.2573163704,5000.0,0.0,0.0,0.0
1513267464842398873,,738733,,1513267463,18669309,'',1.37881010908,1.39386157235,0.019518431339,0.0150514632741,0.001,-75.2573163704,5000.0,0.0,0.0,0.0
1513267464852304035,,738734,,1513267463,28669309,'',1.37881010908,1.39266065773,-0.00560172074477,0.0138505486511,0.001,-69.2527432557,5000.0,0.0,0.0,0.0
1513267464862333861,,738735,,1513267463,38669309,'',1.37881010908,1.39266065773,-0.00504661436217,0.0138505486511,0.001,-69.2527432557,5000.0,0.0,0.0,0.0
1513267464872646143,,738736,,1513267463,48669309,'',1.37881010908,1.39266065773,-0.00547702199935,0.0138505486511,0.001,-69.2527432557,5000.0,0.0,0.0,0.0
1513267464882605386,,738737,,1513267463,58669309,'',1.37881010908,1.39386157235,0.0192511511903,0.0150514632741,0.001,-75.2573163704,5000.0,0.0,0.0,0.0
1513267464892456255,,738738,,1513267463,68669309,'',1.37881010908,1.39386157235,0.0196701600625,0.0150514632741,0.001,-75.2573163704,5000.0,0.0,0.0,0.0
1513267464902531500,,738739,,1513267463,78669309,'',1.37881010908,1.39266065773,-0.00506149170997,0.0138505486511,0.001,-69.2527432557,5000.0,0.0,0.0,0.0
1513267464912417321,,738740,,1513267463,88669309,'',1.37881010908,1.39266065773,-0.00459818383942,0.0138505486511,0.001,-69.2527432557,5000.0,0.0,0.0,0.0
1513267464922312033,,738741,,1513267463,98669309,'',1.37881010908,1.39266065773,-0.00413229126826,0.0138505486511,0.001,-69.2527432557,5000.0,0.0,0.0,0.0
1513267464932336710,,738742,,1513267463,108669309,'',1.37881010908,1.39266065773,-0.00380680971379,0.0138505486511,0.001,-69.2527432557,5000.0,0.0,0.0,0.0
1513267464942658277,,738743,,1513267463,118669309,'',1.37881010908,1.39266065773,-0.00394217466054,0.0138505486511,0.001,-69.2527432557,5000.0,0.0,0.0,0.0
1513267464952585240,,738744,,1513267463,128669309,'',1.37881010908,1.39386157235,0.0192629243584,0.0150514632741,0.001,-75.2573163704,5000.0,0.0,0.0,0.0
1513267464962504727,,738745,,1513267463,138669309,'',1.37881010908,1.3914597431,-0.0296427385029,0.0126496340282,0.001,-63.2481701411,5000.0,0.0,0.0,0.0
1513267464973432553,,738746,,1513267463,148669309,'',1.37881010908,1.39386157235,0.0188639926372,0.0150514632741,0.001,-75.2573163704,5000.0,0.0,0.0,0.0
1513267464982452032,,738747,,1513267463,158669309,'',1.37881010908,1.39266065773,-0.00487823041566,0.0138505486511,0.001,-69.2527432557,5000.0,0.0,0.0,0.0
1513267464992559678,,738748,,1513267463,168669309,'',1.37881010908,1.39266065773,-0.00402270316334,0.0138505486511,0.001,-69.2527432557,5000.0,0.0,0.0,0.0
1513267465002518438,,738749,,1513267463,178669309,'',1.37881010908,1.39266065773,-0.00415661385144,0.0138505486511,0.001,-69.2527432557,5000.0,0.0,0.0,0.0
1513267465012698649,,738750,,1513267463,188669309,'',1.37881010908,1.39266065773,-0.00474034717008,0.0138505486511,0.001,-69.2527432557,5000.0,0.0,0.0,0.0
1513267465022631013,,738751,,1513267463,198669309,'',1.37881010908,1.3914597431,-0.0297905093824,0.0126496340282,0.001,-63.2481701411,5000.0,0.0,0.0,0.0
1513267465032464946,,738752,,1513267463,208669309,'',1.37881010908,1.39266065773,-0.00533515134808,0.0138505486511,0.001,-69.2527432557,5000.0,0.0,0.0,0.0
1513267465042537571,,738753,,1513267463,218669309,'',1.37881010908,1.39266065773,-0.00790447905419,0.0138505486511,0.001,-69.2527432557,5000.0,0.0,0.0,0.0
1513267465052451038,,738754,,1513267463,228669309,'',1.37881010908,1.39386157235,0.0159668708061,0.0150514632741,0.001,-75.2573163704,5000.0,0.0,0.0,0.0
1513267465062467704,,738755,,1513267463,238669309,'',1.37881010908,1.39386157235,0.016523504668,0.0150514632741,0.001,-75.2573163704,5000.0,0.0,0.0,0.0
1513267465072416128,,738756,,1513267463,248669309,'',1.37881010908,1.39386157235,0.0161163426989,0.0150514632741,0.001,-75.2573163704,5000.0,0.0,0.0,0.0
1513267465082260118,,738757,,1513267463,258669309,'',1.37881010908,1.39266065773,-0.00750713051733,0.0138505486511,0.001,-69.2527432557,5000.0,0.0,0.0,0.0
1513267465092156928,,738758,,1513267463,268669309,'',1.37881010908,1.39266065773,-0.00837903697345,0.0138505486511,0.001,-69.2527432557,5000.0,0.0,0.0,0.0
1513267465102617776,,738759,,1513267463,278669309,'',1.37881010908,1.39266065773,-0.00637711230875,0.0138505486511,0.001,-69.2527432557,5000.0,0.0,0.0,0.0
1513267465112568459,,738760,,1513267463,288669309,'',1.37881010908,1.39266065773,-0.00566864167024,0.0138505486511,0.001,-69.2527432557,5000.0,0.0,0.0,0.0
1513267465122576923,,738761,,1513267463,298669309,'',1.37881010908,1.39266065773,-0.00551239391521,0.0138505486511,0.001,-69.2527432557,5000.0,0.0,0.0,0.0
1513267465132407897,,738762,,1513267463,308669309,'',1.37881010908,1.39266065773,-0.0040833684152,0.0138505486511,0.001,-69.2527432557,5000.0,0.0,0.0,0.0
1513267465142312513,,738763,,1513267463,318669309,'',1.37881010908,1.39266065773,-0.00335902466836,0.0138505486511,0.001,-69.2527432557,5000.0,0.0,0.0,0.0
1513267465152414581,,738764,,1513267463,328669309,'',1.37881010908,1.39266065773,-0.00321198830029,0.0138505486511,0.001,-69.2527432557,5000.0,0.0,0.0,0.0
1513267465162345672,,738765,,1513267463,338669309,'',1.37881010908,1.39266065773,-0.00392860411318,0.0138505486511,0.001,-69.2527432557,5000.0,0.0,0.0,0.0
1513267465172339467,,738766,,1513267463,348669309,'',1.37881010908,1.39266065773,-0.00402259397368,0.0138505486511,0.001,-69.2527432557,5000.0,0.0,0.0,0.0
1513267465182549276,,738767,,1513267463,358669309,'',1.37881010908,1.39266065773,-0.00460773296832,0.0138505486511,0.001,-69.2527432557,5000.0,0.0,0.0,0.0
1513267465192513613,,738768,,1513267463,368669309,'',1.37881010908,1.39386157235,0.0177812972048,0.0150514632741,0.001,-75.2573163704,5000.0,0.0,0.0,0.0
1513267465202371836,,738769,,1513267463,378669309,'',1.37881010908,1.3914597431,-0.0308074456003,0.0126496340282,0.001,-63.2481701411,5000.0,0.0,0.0,0.0
1513267465212344880,,738770,,1513267463,388669309,'',1.37881010908,1.39266065773,-0.0067080079146,0.0138505486511,0.001,-69.2527432557,5000.0,0.0,0.0,0.0
1513267465222391099,,738771,,1513267463,398669309,'',1.37881010908,1.39266065773,-0.0067777796071,0.0138505486511,0.001,-69.2527432557,5000.0,0.0,0.0,0.0
1513267465232421127,,738772,,1513267463,408669309,'',1.37881010908,1.39386157235,0.0159631740558,0.0150514632741,0.001,-75.2573163704,5000.0,0.0,0.0,0.0
1513267465242330625,,738773,,1513267463,418669309,'',1.37881010908,1.39386157235,0.0152182075456,0.0150514632741,0.001,-75.2573163704,5000.0,0.0,0.0,0.0
1513267465252520692,,738774,,1513267463,428669309,'',1.37881010908,1.39386157235,0.0159708773978,0.0150514632741,0.001,-75.2573163704,5000.0,0.0,0.0,0.0
1513267465262424544,,738775,,1513267463,438669309,'',1.37881010908,1.39386157235,0.0152815969546,0.0150514632741,0.001,-75.2573163704,5000.0,0.0,0.0,0.0
1513267465272469270,,738776,,1513267463,448669309,'',1.37881010908,1.39266065773,-0.008193988829,0.0138505486511,0.001,-69.2527432557,5000.0,0.0,0.0,0.0
1513267465282352760,,738777,,1513267463,458669309,'',1.37881010908,1.39266065773,-0.00841896919862,0.0138505486511,0.001,-69.2527432557,5000.0,0.0,0.0,0.0
1513267465292274024,,738778,,1513267463,468669309,'',1.37881010908,1.39266065773,-0.00915251618735,0.0138505486511,0.001,-69.2527432557,5000.0,0.0,0.0,0.0
1513267465302252566,,738779,,1513267463,478669309,'',1.37881010908,1.39266065773,-0.00835360732525,0.0138505486511,0.001,-69.2527432557,5000.0,0.0,0.0,0.0
1513267465312236007,,738780,,1513267463,488669309,'',1.37881010908,1.39266065773,-0.00682171273857,0.0138505486511,0.001,-69.2527432557,5000.0,0.0,0.0,0.0
1513267465322227381,,738781,,1513267463,498669309,'',1.37881010908,1.39266065773,-0.0063890523277,0.0138505486511,0.001,-69.2527432557,5000.0,0.0,0.0,0.0
1513267465332218005,,738782,,1513267463,508669309,'',1.37881010908,1.39266065773,-0.00561029510375,0.0138505486511,0.001,-69.2527432557,5000.0,0.0,0.0,0.0
1513267465342336686,,738783,,1513267463,518669309,'',1.37881010908,1.39386157235,0.0183759350053,0.0150514632741,0.001,-75.2573163704,5000.0,0.0,0.0,0.0
1513267465352333631,,738784,,1513267463,528669309,'',1.37881010908,1.39506248697,0.0423546521374,0.016252377897,0.001,-81.2618894851,5000.0,0.0,0.0,0.0
1513267465362230869,,738785,,1513267463,538669309,'',1.37881010908,1.39386157235,0.018674053923,0.0150514632741,0.001,-75.2573163704,5000.0,0.0,0.0,0.0
1513267465372205523,,738786,,1513267463,548669309,'',1.37881010908,1.39386157235,0.018342195772,0.0150514632741,0.001,-75.2573163704,5000.0,0.0,0.0,0.0
1513267465382310461,,738787,,1513267463,558669309,'',1.37881010908,1.39266065773,-0.00528794308809,0.0138505486511,0.001,-69.2527432557,5000.0,0.0,0.0,0.0
1513267465392273699,,738788,,1513267463,568669309,'',1.37881010908,1.3914597431,-0.0311507674845,0.0126496340282,0.001,-63.2481701411,5000.0,0.0,0.0,0.0
1513267465402140635,,738789,,1513267463,578669309,'',1.37881010908,1.39266065773,-0.00738220761132,0.0138505486511,0.001,-69.2527432557,5000.0,0.0,0.0,0.0
1513267465412662255,,738790,,1513267463,588669309,'',1.37881010908,1.39386157235,0.0163910273452,0.0150514632741,0.001,-75.2573163704,5000.0,0.0,0.0,0.0
1513267465422611497,,738791,,1513267463,598669309,'',1.37881010908,1.39266065773,-0.00772874161055,0.0138505486511,0.001,-69.2527432557,5000.0,0.0,0.0,0.0
1513267465432579016,,738792,,1513267463,608669309,'',1.37881010908,1.39386157235,0.0161520476228,0.0150514632741,0.001,-75.2573163704,5000.0,0.0,0.0,0.0
1513267465442474856,,738793,,1513267463,618669309,'',1.37881010908,1.39386157235,0.0163512208998,0.0150514632741,0.001,-75.2573163704,5000.0,0.0,0.0,0.0
1513267465452458825,,738794,,1513267463,628669309,'',1.37881010908,1.39266065773,-0.00860784593922,0.0138505486511,0.001,-69.2527432557,5000.0,0.0,0.0,0.0
1513267465462352222,,738795,,1513267463,638669309,'',1.37881010908,1.39386157235,0.0149729197032,0.0150514632741,0.001,-75.2573163704,5000.0,0.0,0.0,0.0
1513267465472337040,,738796,,1513267463,648669309,'',1.37881010908,1.39386157235,0.0148137974018,0.0150514632741,0.001,-75.2573163704,5000.0,0.0,0.0,0.0
1513267465482237884,,738797,,1513267463,658669309,'',1.37881010908,1.39266065773,-0.0094252807299,0.0138505486511,0.001,-69.2527432557,5000.0,0.0,0.0,0.0
1513267465492181241,,738798,,1513267463,668669309,'',1.37881010908,1.39266065773,-0.0094987912624,0.0138505486511,0.001,-69.2527432557,5000.0,0.0,0.0,0.0
1513267465502492535,,738799,,1513267463,678669309,'',1.37881010908,1.39266065773,-0.00863113929183,0.0138505486511,0.001,-69.2527432557,5000.0,0.0,0.0,0.0
1513267465512338396,,738800,,1513267463,688669309,'',1.37881010908,1.39386157235,0.0158672645809,0.0150514632741,0.001,-75.2573163704,5000.0,0.0,0.0,0.0
1513267465522271267,,738801,,1513267463,698669309,'',1.37881010908,1.39266065773,-0.00861180697904,0.0138505486511,0.001,-69.2527432557,5000.0,0.0,0.0,0.0
1513267465532671946,,738802,,1513267463,708669309,'',1.37881010908,1.39386157235,0.0150679535028,0.0150514632741,0.001,-75.2573163704,5000.0,0.0,0.0,0.0
1513267465542527836,,738803,,1513267463,718669309,'',1.37881010908,1.39266065773,-0.00784007539101,0.0138505486511,0.001,-69.2527432557,5000.0,0.0,0.0,0.0
1513267465552563803,,738804,,1513267463,728669309,'',1.37881010908,1.39386157235,0.0161323759717,0.0150514632741,0.001,-75.2573163704,5000.0,0.0,0.0,0.0
1513267465562625777,,738805,,1513267463,738669309,'',1.37881010908,1.39266065773,-0.00839590001866,0.0138505486511,0.001,-69.2527432557,5000.0,0.0,0.0,0.0
1513267465572561817,,738806,,1513267463,748669309,'',1.37881010908,1.39266065773,-0.00908980308717,0.0138505486511,0.001,-69.2527432557,5000.0,0.0,0.0,0.0
1513267465582682842,,738807,,1513267463,758669309,'',1.37881010908,1.39386157235,0.0141379366425,0.0150514632741,0.001,-75.2573163704,5000.0,0.0,0.0,0.0
1513267465592511862,,738808,,1513267463,768669309,'',1.37881010908,1.39266065773,-0.00789293219009,0.0138505486511,0.001,-69.2527432557,5000.0,0.0,0.0,0.0
1513267465602541134,,738809,,1513267463,778669309,'',1.37881010908,1.39386157235,0.0164656402688,0.0150514632741,0.001,-75.2573163704,5000.0,0.0,0.0,0.0
1513267465612414279,,738810,,1513267463,788669309,'',1.37881010908,1.39266065773,-0.00899836799151,0.0138505486511,0.001,-69.2527432557,5000.0,0.0,0.0,0.0
1513267465622306679,,738811,,1513267463,798669309,'',1.37881010908,1.39266065773,-0.00864606104937,0.0138505486511,0.001,-69.2527432557,5000.0,0.0,0.0,0.0
1513267465632283195,,738812,,1513267463,808669309,'',1.37881010908,1.39386157235,0.0162972067234,0.0150514632741,0.001,-75.2573163704,5000.0,0.0,0.0,0.0
1513267465642197515,,738813,,1513267463,818669309,'',1.37881010908,1.39386157235,0.0159525767874,0.0150514632741,0.001,-75.2573163704,5000.0,0.0,0.0,0.0
1513267465652653942,,738814,,1513267463,828669309,'',1.37881010908,1.39386157235,0.0151850195256,0.0150514632741,0.001,-75.2573163704,5000.0,0.0,0.0,0.0
1513267465662633841,,738815,,1513267463,838669309,'',1.37881010908,1.3914597431,-0.0316867192248,0.0126496340282,0.001,-63.2481701411,5000.0,0.0,0.0,0.0
1513267465672414447,,738816,,1513267463,848669309,'',1.37881010908,1.39266065773,-0.00642711369853,0.0138505486511,0.001,-69.2527432557,5000.0,0.0,0.0,0.0
1513267465682314122,,738817,,1513267463,858669309,'',1.37881010908,1.39266065773,-0.00521217612372,0.0138505486511,0.001,-69.2527432557,5000.0,0.0,0.0,0.0
1513267465692370921,,738818,,1513267463,868669309,'',1.37881010908,1.39266065773,-0.00515801049257,0.0138505486511,0.001,-69.2527432557,5000.0,0.0,0.0,0.0
1513267465702332712,,738819,,1513267463,878669309,'',1.37881010908,1.39386157235,0.0186901523157,0.0150514632741,0.001,-75.2573163704,5000.0,0.0,0.0,0.0
1513267465712666995,,738820,,1513267463,888669309,'',1.37881010908,1.39266065773,-0.00671199114169,0.0138505486511,0.001,-69.2527432557,5000.0,0.0,0.0,0.0
1513267465722639137,,738821,,1513267463,898669309,'',1.37881010908,1.39386157235,0.0187139772791,0.0150514632741,0.001,-75.2573163704,5000.0,0.0,0.0,0.0
1513267465732529411,,738822,,1513267463,908669309,'',1.37881010908,1.39266065773,-0.00494490994098,0.0138505486511,0.001,-69.2527432557,5000.0,0.0,0.0,0.0
1513267465742491700,,738823,,1513267463,918669309,'',1.37881010908,1.39266065773,-0.00443978595772,0.0138505486511,0.001,-69.2527432557,5000.0,0.0,0.0,0.0
1513267465752466221,,738824,,1513267463,928669309,'',1.37881010908,1.39266065773,-0.00625662640635,0.0138505486511,0.001,-69.2527432557,5000.0,0.0,0.0,0.0
1513267465762463715,,738825,,1513267463,938669309,'',1.37881010908,1.39386157235,0.0177700354574,0.0150514632741,0.001,-75.2573163704,5000.0,0.0,0.0,0.0
1513267465772352315,,738826,,1513267463,948669309,'',1.37881010908,1.39266065773,-0.00707678910915,0.0138505486511,0.001,-69.2527432557,5000.0,0.0,0.0,0.0
1513267465782265832,,738827,,1513267463,958669309,'',1.37881010908,1.39266065773,-0.00796459269355,0.0138505486511,0.001,-69.2527432557,5000.0,0.0,0.0,0.0
1513267465792100152,,738828,,1513267463,968669309,'',1.37881010908,1.39266065773,-0.00742075431411,0.0138505486511,0.001,-69.2527432557,5000.0,0.0,0.0,0.0
1513267465802600932,,738829,,1513267463,978669309,'',1.37881010908,1.39266065773,-0.00699517815012,0.0138505486511,0.001,-69.2527432557,5000.0,0.0,0.0,0.0
1513267465812657143,,738830,,1513267463,988669309,'',1.37881010908,1.39266065773,-0.00708345307782,0.0138505486511,0.001,-69.2527432557,5000.0,0.0,0.0,0.0
1513267465822521621,,738831,,1513267463,998669309,'',1.37881010908,1.39266065773,-0.0066988102587,0.0138505486511,0.001,-69.2527432557,5000.0,0.0,0.0,0.0
1513267465832420897,,738832,,1513267464,8669309,'',1.37881010908,1.39266065773,-0.00551646617657,0.0138505486511,0.001,-69.2527432557,5000.0,0.0,0.0,0.0
1513267465842306085,,738833,,1513267464,18669309,'',1.37881010908,1.39266065773,-0.0058327611323,0.0138505486511,0.001,-69.2527432557,5000.0,0.0,0.0,0.0
1513267465852209314,,738834,,1513267464,28669309,'',1.37881010908,1.39266065773,-0.00520303371395,0.0138505486511,0.001,-69.2527432557,5000.0,0.0,0.0,0.0
1513267465862578848,,738835,,1513267464,38669309,'',1.37881010908,1.39266065773,-0.0059741014015,0.0138505486511,0.001,-69.2527432557,5000.0,0.0,0.0,0.0
1513267465872538092,,738836,,1513267464,48669309,'',1.37881010908,1.39386157235,0.0171124648174,0.0150514632741,0.001,-75.2573163704,5000.0,0.0,0.0,0.0
1513267465882463263,,738837,,1513267464,58669309,'',1.37881010908,1.39266065773,-0.00632495770563,0.0138505486511,0.001,-69.2527432557,5000.0,0.0,0.0,0.0
1513267465892401976,,738838,,1513267464,68669309,'',1.37881010908,1.39266065773,-0.00523310441407,0.0138505486511,0.001,-69.2527432557,5000.0,0.0,0.0,0.0
1513267465902380117,,738839,,1513267464,78669309,'',1.37881010908,1.39266065773,-0.00560088472721,0.0138505486511,0.001,-69.2527432557,5000.0,0.0,0.0,0.0
1513267465912349642,,738840,,1513267464,88669309,'',1.37881010908,1.39266065773,-0.00458068362471,0.0138505486511,0.001,-69.2527432557,5000.0,0.0,0.0,0.0
1513267465922309332,,738841,,1513267464,98669309,'',1.37881010908,1.39266065773,-0.00285571366953,0.0138505486511,0.001,-69.2527432557,5000.0,0.0,0.0,0.0
1513267465932247290,,738842,,1513267464,108669309,'',1.37881010908,1.39386157235,0.0219046490789,0.0150514632741,0.001,-75.2573163704,5000.0,0.0,0.0,0.0
1513267465942223771,,738843,,1513267464,118669309,'',1.37881010908,1.39386157235,0.021023977875,0.0150514632741,0.001,-75.2573163704,5000.0,0.0,0.0,0.0
1513267465952212622,,738844,,1513267464,128669309,'',1.37881010908,1.39266065773,-0.00272049885324,0.0138505486511,0.001,-69.2527432557,5000.0,0.0,0.0,0.0
1513267465962412779,,738845,,1513267464,138669309,'',1.37881010908,1.3914597431,-0.026899642445,0.0126496340282,0.001,-63.2481701411,5000.0,0.0,0.0,0.0
1513267465972326032,,738846,,1513267464,148669309,'',1.37881010908,1.39266065773,-0.00217444330382,0.0138505486511,0.001,-69.2527432557,5000.0,0.0,0.0,0.0
1513267465982347913,,738847,,1513267464,158669309,'',1.37881010908,1.39266065773,-0.00175693507808,0.0138505486511,0.001,-69.2527432557,5000.0,0.0,0.0,0.0
1513267465992229919,,738848,,1513267464,168669309,'',1.37881010908,1.3914597431,-0.0269426368067,0.0126496340282,0.001,-63.2481701411,5000.0,0.0,0.0,0.0
1513267466002664935,,738849,,1513267464,178669309,'',1.37881010908,1.39266065773,-0.00395106243127,0.0138505486511,0.001,-69.2527432557,5000.0,0.0,0.0,0.0
1513267466012613320,,738850,,1513267464,188669309,'',1.37881010908,1.39386157235,0.0179719520058,0.0150514632741,0.001,-75.2573163704,5000.0,0.0,0.0,0.0
1513267466022791814,,738851,,1513267464,198669309,'',1.37881010908,1.39386157235,0.0173170911564,0.0150514632741,0.001,-75.2573163704,5000.0,0.0,0.0,0.0
1513267466032699342,,738852,,1513267464,208669309,'',1.37881010908,1.39266065773,-0.00784349911131,0.0138505486511,0.001,-69.2527432557,5000.0,0.0,0.0,0.0
1513267466042227908,,738853,,1513267464,218669309,'',1.37881010908,1.39386157235,0.0160412539913,0.0150514632741,0.001,-75.2573163704,5000.0,0.0,0.0,0.0
1513267466052652025,,738854,,1513267464,228669309,'',1.37881010908,1.39266065773,-0.0080412239954,0.0138505486511,0.001,-69.2527432557,5000.0,0.0,0.0,0.0
1513267466062591921,,738855,,1513267464,238669309,'',1.37881010908,1.39266065773,-0.00664217611654,0.0138505486511,0.001,-69.2527432557,5000.0,0.0,0.0,0.0
1513267466072551430,,738856,,1513267464,248669309,'',1.37881010908,1.39386157235,0.0179007040175,0.0150514632741,0.001,-75.2573163704,5000.0,0.0,0.0,0.0
1513267466082433442,,738857,,1513267464,258669309,'',1.37881010908,1.3914597431,-0.0298667515533,0.0126496340282,0.001,-63.2481701411,5000.0,0.0,0.0,0.0
1513267466092408468,,738858,,1513267464,268669309,'',1.37881010908,1.39266065773,-0.00582533653007,0.0138505486511,0.001,-69.2527432557,5000.0,0.0,0.0,0.0
