rosbagTimestamp,header,seq,stamp,secs,nsecs,frame_id,set_point,process_value,process_value_dot,error,time_step,command,p,i,d,i_clamp
1513266037286607404,,595990,,1513266035,490063616,'',0.191986217719,0.169866196925,-0.00629270823878,-0.0221200207941,0.001,-134.501825732,-6000.0,0.0,-300.0,0.0
1513266037296126687,,595991,,1513266035,500063616,'',0.191986217719,0.169858813723,0.0116040673667,-0.0221274039966,0.001,-129.269668573,-6000.0,0.0,-300.0,0.0
1513266037305947613,,595992,,1513266035,510063616,'',0.191986217719,0.169868006142,-0.00633311040603,-0.0221182115775,0.001,-134.604614397,-6000.0,0.0,-300.0,0.0
1513266037315942526,,595993,,1513266035,520063616,'',0.191986217719,0.169906653455,0.010635584239,-0.0220795642639,0.001,-129.337492452,-6000.0,0.0,-300.0,0.0
1513266037325867171,,595994,,1513266035,530063616,'',0.191986217719,0.169921933557,0.010323515304,-0.0220642841624,0.001,-129.280988245,-6000.0,0.0,-300.0,0.0
1513266037336024518,,595995,,1513266035,540063616,'',0.191986217719,0.169919251015,-0.0073699851189,-0.0220669667047,0.001,-134.622520633,-6000.0,0.0,-300.0,0.0
1513266037345853014,,595996,,1513266035,550063616,'',0.191986217719,0.169946271315,-0.00791623324836,-0.0220399464044,0.001,-134.579820088,-6000.0,0.0,-300.0,0.0
1513266037355770996,,595997,,1513266035,560063616,'',0.191986217719,0.169920750316,-0.00740042650744,-0.0220654674034,0.001,-134.573505962,-6000.0,0.0,-300.0,0.0
1513266037365721542,,595998,,1513266035,570063616,'',0.191986217719,0.169884679642,-0.00666790796539,-0.0221015380774,0.001,-134.623723739,-6000.0,0.0,-300.0,0.0
1513266037375770851,,595999,,1513266035,580063616,'',0.191986217719,0.169872026613,0.0113354258951,-0.0221141911066,0.001,-129.283891904,-6000.0,0.0,-300.0,0.0
1513266037385890838,,596000,,1513266035,590063616,'',0.191986217719,0.169862652381,-0.00622475743996,-0.0221235653382,0.001,-134.572446607,-6000.0,0.0,-300.0,0.0
1513266037396119465,,596001,,1513266035,600063616,'',0.191986217719,0.169870029708,-0.00637235837479,-0.0221161880114,0.001,-134.564216938,-6000.0,0.0,-300.0,0.0
1513266037406047372,,596002,,1513266035,610063616,'',0.191986217719,0.169844176146,-0.00585041683074,-0.0221420415736,0.001,-134.61233758,-6000.0,0.0,-300.0,0.0
1513266037416149952,,596003,,1513266035,620063616,'',0.191986217719,0.169791663403,-0.00478934613696,-0.0221945543163,0.001,-134.6050793,-6000.0,0.0,-300.0,0.0
1513266037426090353,,596004,,1513266035,630063616,'',0.191986217719,0.169795803198,-0.00486978403814,-0.0221904145215,0.001,-134.575792425,-6000.0,0.0,-300.0,0.0
1513266037435897260,,596005,,1513266035,640063616,'',0.191986217719,0.169766691082,-0.00428176212511,-0.0222195266371,0.001,-134.581466923,-6000.0,0.0,-300.0,0.0
1513266037445848538,,596006,,1513266035,650063616,'',0.191986217719,0.169811275585,0.0125692475482,-0.0221749421348,0.001,-129.270177021,-6000.0,0.0,-300.0,0.0
1513266037455749730,,596007,,1513266035,660063616,'',0.191986217719,0.169829752079,-0.00555439460279,-0.0221564656401,0.001,-134.57747732,-6000.0,0.0,-300.0,0.0
1513266037465782382,,596008,,1513266035,670063616,'',0.191986217719,0.169843085645,-0.00581905492716,-0.0221431320747,0.001,-134.610567561,-6000.0,0.0,-300.0,0.0
1513266037475758050,,596009,,1513266035,680063616,'',0.191986217719,0.169854488933,-0.00605220511923,-0.0221317287862,0.001,-134.603961742,-6000.0,0.0,-300.0,0.0
1513266037485734988,,596010,,1513266035,690063616,'',0.191986217719,0.169864534353,0.0114965115005,-0.0221216833666,0.001,-129.256044266,-6000.0,0.0,-300.0,0.0
1513266037495732566,,596011,,1513266035,700063616,'',0.191986217719,0.169855261664,-0.00606560546703,-0.0221309560558,0.001,-134.57855698,-6000.0,0.0,-300.0,0.0
1513266037506074564,,596012,,1513266035,710063616,'',0.191986217719,0.169897694646,0.0108174383524,-0.0220885230738,0.001,-129.276090541,-6000.0,0.0,-300.0,0.0
1513266037516075721,,596013,,1513266035,720063616,'',0.191986217719,0.169883456157,-0.00664545197155,-0.0221027615625,0.001,-134.619757286,-6000.0,0.0,-300.0,0.0
1513266037525885961,,596014,,1513266035,730063616,'',0.191986217719,0.169853737926,-0.00604786349956,-0.0221324797937,0.001,-134.658940177,-6000.0,0.0,-300.0,0.0
1513266037535911897,,596015,,1513266035,740063616,'',0.191986217719,0.169847206285,-0.00591516466672,-0.0221390114348,0.001,-134.575008264,-6000.0,0.0,-300.0,0.0
1513266037545918547,,596016,,1513266035,750063616,'',0.191986217719,0.169825246762,-0.00547575877279,-0.0221609709576,0.001,-134.666945968,-6000.0,0.0,-300.0,0.0
1513266037555769970,,596017,,1513266035,760063616,'',0.191986217719,0.169809217575,-0.00515431829439,-0.0221770001445,0.001,-134.60957826,-6000.0,0.0,-300.0,0.0
1513266037566134626,,596018,,1513266035,770063616,'',0.191986217719,0.169811610112,0.0125401458201,-0.0221746076072,0.001,-129.34548102,-6000.0,0.0,-300.0,0.0
1513266037576106345,,596019,,1513266035,780063616,'',0.191986217719,0.169860307609,-0.00619249061734,-0.0221259101101,0.001,-134.624764658,-6000.0,0.0,-300.0,0.0
1513266037586101009,,596020,,1513266035,790063616,'',0.191986217719,0.169866307393,-0.0063108644315,-0.0221199103261,0.001,-134.618178452,-6000.0,0.0,-300.0,0.0
1513266037595937340,,596021,,1513266035,800063616,'',0.191986217719,0.169869945059,-0.00637660220461,-0.0221162726604,0.001,-134.618053151,-6000.0,0.0,-300.0,0.0
1513266037605896771,,596022,,1513266035,810063616,'',0.191986217719,0.169844196091,-0.005858322312,-0.022142021628,0.001,-134.571355382,-6000.0,0.0,-300.0,0.0
1513266037615725747,,596023,,1513266035,820063616,'',0.191986217719,0.169839806555,0.0119765809952,-0.0221464111647,0.001,-129.272387362,-6000.0,0.0,-300.0,0.0
1513266037625646961,,596024,,1513266035,830063616,'',0.191986217719,0.169836429868,0.0120469091641,-0.0221497878509,0.001,-129.267771112,-6000.0,0.0,-300.0,0.0
1513266037636097337,,596025,,1513266035,840063616,'',0.191986217719,0.169848786972,-0.0059534233824,-0.0221374307473,0.001,-134.616136073,-6000.0,0.0,-300.0,0.0
1513266037646089011,,596026,,1513266035,850063616,'',0.191986217719,0.169855777528,-0.00608773828472,-0.0221304401912,0.001,-134.574584179,-6000.0,0.0,-300.0,0.0
1513266037656105244,,596027,,1513266035,860063616,'',0.191986217719,0.169878786621,-0.00654707651875,-0.0221074310986,0.001,-134.619327376,-6000.0,0.0,-300.0,0.0
1513266037665979617,,596028,,1513266035,870063616,'',0.191986217719,0.169851935129,-0.00600143763234,-0.0221342825899,0.001,-134.614685645,-6000.0,0.0,-300.0,0.0
1513266037675934200,,596029,,1513266035,880063616,'',0.191986217719,0.169812541894,-0.00520988736244,-0.0221736758258,0.001,-134.60833502,-6000.0,0.0,-300.0,0.0
1513266037685903240,,596030,,1513266035,890063616,'',0.191986217719,0.169815244853,0.0124833945994,-0.0221709728667,0.001,-129.341716427,-6000.0,0.0,-300.0,0.0
1513266037695869208,,596031,,1513266035,900063616,'',0.191986217719,0.169864866521,0.0114767774456,-0.022121351198,0.001,-129.266863885,-6000.0,0.0,-300.0,0.0
1513266037705923245,,596032,,1513266035,910063616,'',0.191986217719,0.169856645089,-0.00610588727771,-0.0221295726302,0.001,-134.615084905,-6000.0,0.0,-300.0,0.0
1513266037715854244,,596033,,1513266035,920063616,'',0.191986217719,0.169867490159,-0.00632210239014,-0.0221187275601,0.001,-134.608242055,-6000.0,0.0,-300.0,0.0
1513266037725823873,,596034,,1513266035,930063616,'',0.191986217719,0.169859231248,-0.00614826357698,-0.0221269864719,0.001,-134.621083631,-6000.0,0.0,-300.0,0.0
1513266037736109345,,596035,,1513266035,940063616,'',0.191986217719,0.169866746641,0.0114474257212,-0.0221194710781,0.001,-129.252979623,-6000.0,0.0,-300.0,0.0
1513266037745766896,,596036,,1513266035,950063616,'',0.191986217719,0.169860500208,0.0115674537107,-0.0221257175114,0.001,-129.279840964,-6000.0,0.0,-300.0,0.0
1513266037755780143,,596037,,1513266035,960063616,'',0.191986217719,0.169837713162,-0.00572086295184,-0.0221485045572,0.001,-134.57217422,-6000.0,0.0,-300.0,0.0
1513266037765617458,,596038,,1513266035,970063616,'',0.191986217719,0.169832075209,-0.00560566302662,-0.0221541425107,0.001,-134.611382439,-6000.0,0.0,-300.0,0.0
1513266037776128087,,596039,,1513266035,980063616,'',0.191986217719,0.169832124612,0.0121442249303,-0.0221540931073,0.001,-129.267406159,-6000.0,0.0,-300.0,0.0
1513266037786146259,,596040,,1513266035,990063616,'',0.191986217719,0.169877767312,-0.00652641318804,-0.0221084504077,0.001,-134.620648426,-6000.0,0.0,-300.0,0.0
1513266037796096211,,596041,,1513266036,63616,'',0.191986217719,0.169852413836,0.0117257304592,-0.0221338038834,0.001,-129.350478179,-6000.0,0.0,-300.0,0.0
1513266037806000994,,596042,,1513266036,10063616,'',0.191986217719,0.169860496863,-0.00618505236225,-0.022125720856,0.001,-134.61139381,-6000.0,0.0,-300.0,0.0
1513266037815915277,,596043,,1513266036,20063616,'',0.191986217719,0.169868695776,-0.00634875660553,-0.0221175219434,0.001,-134.617939957,-6000.0,0.0,-300.0,0.0
1513266037825809365,,596044,,1513266036,30063616,'',0.191986217719,0.169859028393,0.0115857642777,-0.022127189326,0.001,-129.336710607,-6000.0,0.0,-300.0,0.0
1513266037835796021,,596045,,1513266036,40063616,'',0.191986217719,0.169833298698,-0.00564012129611,-0.0221529190215,0.001,-134.609852201,-6000.0,0.0,-300.0,0.0
1513266037845731273,,596046,,1513266036,50063616,'',0.191986217719,0.169847932647,0.0118066463956,-0.0221382850722,0.001,-129.27216277,-6000.0,0.0,-300.0,0.0
1513266037855741590,,596047,,1513266036,60063616,'',0.191986217719,0.169844612523,-0.00587181440963,-0.0221416051968,0.001,-134.567945191,-6000.0,0.0,-300.0,0.0
1513266037865687093,,596048,,1513266036,70063616,'',0.191986217719,0.169885705307,-0.00670270882808,-0.0221005124125,0.001,-134.623346914,-6000.0,0.0,-300.0,0.0
1513266037876020286,,596049,,1513266036,80063616,'',0.191986217719,0.169904828859,-0.00708612547095,-0.0220813888609,0.001,-134.61508057,-6000.0,0.0,-300.0,0.0
1513266037886092383,,596050,,1513266036,90063616,'',0.191986217719,0.169904597401,-0.00707413581409,-0.0220816203185,0.001,-134.571658131,-6000.0,0.0,-300.0,0.0
1513266037896071905,,596051,,1513266036,100063616,'',0.191986217719,0.169905451556,-0.0070867272432,-0.0220807661634,0.001,-134.610518154,-6000.0,0.0,-300.0,0.0
1513266037905974488,,596052,,1513266036,110063616,'',0.191986217719,0.169906299051,0.0106470687517,-0.0220799186687,0.001,-129.273693866,-6000.0,0.0,-300.0,0.0
1513266037915844874,,596053,,1513266036,120063616,'',0.191986217719,0.169891574927,0.010943095779,-0.0220946427927,0.001,-129.278769235,-6000.0,0.0,-300.0,0.0
1513266037925733499,,596054,,1513266036,130063616,'',0.191986217719,0.169881003914,0.0111518255053,-0.0221052138058,0.001,-129.342452525,-6000.0,0.0,-300.0,0.0
1513266037936141505,,596055,,1513266036,140063616,'',0.191986217719,0.169915245796,-0.00728750649495,-0.0220709719234,0.001,-134.62268406,-6000.0,0.0,-300.0,0.0
1513266037946148789,,596056,,1513266036,150063616,'',0.191986217719,0.169865684294,-0.00628532348925,-0.0221205334251,0.001,-134.615851151,-6000.0,0.0,-300.0,0.0
1513266037956001059,,596057,,1513266036,160063616,'',0.191986217719,0.169873623171,0.0113063321823,-0.022112594548,0.001,-129.281540161,-6000.0,0.0,-300.0,0.0
1513266037965937645,,596058,,1513266036,170063616,'',0.191986217719,0.169897328437,0.0108241787097,-0.0220888892824,0.001,-129.338613139,-6000.0,0.0,-300.0,0.0
1513266037976039349,,596059,,1513266036,180063616,'',0.191986217719,0.169912646393,-0.00723048412069,-0.0220735713262,0.001,-134.626625111,-6000.0,0.0,-300.0,0.0
1513266037985975257,,596060,,1513266036,190063616,'',0.191986217719,0.169878196595,-0.00653000065935,-0.0221080211245,0.001,-134.624940274,-6000.0,0.0,-300.0,0.0
1513266037995803997,,596061,,1513266036,200063616,'',0.191986217719,0.16991527951,0.0104677473072,-0.0220709382097,0.001,-129.353044855,-6000.0,0.0,-300.0,0.0
1513266038005751214,,596062,,1513266036,210063616,'',0.191986217719,0.169865056242,-0.00626446152677,-0.0221211614773,0.001,-134.61398567,-6000.0,0.0,-300.0,0.0
1513266038015699955,,596063,,1513266036,220063616,'',0.191986217719,0.169888761997,-0.00674265171249,-0.0220974557225,0.001,-134.626098053,-6000.0,0.0,-300.0,0.0
1513266038025736141,,596064,,1513266036,230063616,'',0.191986217719,0.169942245571,0.00991869415184,-0.0220439721484,0.001,-129.342644579,-6000.0,0.0,-300.0,0.0
1513266038036149650,,596065,,1513266036,240063616,'',0.191986217719,0.170048344164,0.025518913578,-0.0219378735558,0.001,-124.124477923,-6000.0,0.0,-300.0,0.0
1513266038046171575,,596066,,1513266036,250063616,'',0.191986217719,0.170246953215,0.0215049886249,-0.0217392645048,0.001,-123.950754635,-6000.0,0.0,-300.0,0.0
1513266038056115224,,596067,,1513266036,260063616,'',0.191986217719,0.170439726608,0.0176114171148,-0.0215464911116,0.001,-124.085280615,-6000.0,0.0,-300.0,0.0
1513266038065928171,,596068,,1513266036,270063616,'',0.191986217719,0.170661806243,0.013118676761,-0.0213244114766,0.001,-123.983600684,-6000.0,0.0,-300.0,0.0
1513266038076035914,,596069,,1513266036,280063616,'',0.191986217719,0.170938982332,0.0252694044312,-0.021047235387,0.001,-118.684642477,-6000.0,0.0,-300.0,0.0
1513266038086032610,,596070,,1513266036,290063616,'',0.191986217719,0.171181309297,0.0203783848024,-0.0208049084227,0.001,-118.808352986,-6000.0,0.0,-300.0,0.0
1513266038095940977,,596071,,1513266036,300063616,'',0.191986217719,0.171461891052,0.0324588699251,-0.0205243266678,0.001,-113.366414429,-6000.0,0.0,-300.0,0.0
1513266038105862581,,596072,,1513266036,310063616,'',0.191986217719,0.171624554487,0.0114264574619,-0.0203616632321,0.001,-118.724846323,-6000.0,0.0,-300.0,0.0
1513266038115704578,,596073,,1513266036,320063616,'',0.191986217719,0.171804916524,0.00778113118471,-0.0201813011953,0.001,-118.740626104,-6000.0,0.0,-300.0,0.0
1513266038125667071,,596074,,1513266036,330063616,'',0.191986217719,0.171986896914,0.0218512304926,-0.0199993208053,0.001,-113.545869454,-6000.0,0.0,-300.0,0.0
1513266038136173449,,596075,,1513266036,340063616,'',0.191986217719,0.172231890377,0.0346424778551,-0.0197543273428,0.001,-108.298692274,-6000.0,0.0,-300.0,0.0
1513266038146171245,,596076,,1513266036,350063616,'',0.191986217719,0.172512623066,0.0289700337953,-0.0194735946538,0.001,-108.1289798,-6000.0,0.0,-300.0,0.0
1513266038156136760,,596077,,1513266036,360063616,'',0.191986217719,0.172837290999,0.0401591748243,-0.0191489267201,0.001,-102.794150858,-6000.0,0.0,-300.0,0.0
1513266038165978546,,596078,,1513266036,370063616,'',0.191986217719,0.173197188723,0.0328906912189,-0.0187890289965,0.001,-102.815151206,-6000.0,0.0,-300.0,0.0
1513266038175946750,,596079,,1513266036,380063616,'',0.191986217719,0.173509028333,0.026589123828,-0.0184771893866,0.001,-102.835718698,-6000.0,0.0,-300.0,0.0
1513266038185904474,,596080,,1513266036,390063616,'',0.191986217719,0.173841925859,0.0376109467,-0.0181442918606,0.001,-97.5337127779,-6000.0,0.0,-300.0,0.0
1513266038196038199,,596081,,1513266036,400063616,'',0.191986217719,0.174179085355,0.0308019090837,-0.0178071323645,0.001,-97.7581467096,-6000.0,0.0,-300.0,0.0
1513266038206274918,,596082,,1513266036,410063616,'',0.191986217719,0.174455753767,0.0252145071328,-0.0175304639522,0.001,-97.5711680612,-6000.0,0.0,-300.0,0.0
1513266038216057647,,596083,,1513266036,420063616,'',0.191986217719,0.174841505728,0.0351716491205,-0.0171447119916,0.001,-92.2830119993,-6000.0,0.0,-300.0,0.0
1513266038225989314,,596084,,1513266036,430063616,'',0.191986217719,0.17525421904,0.0445792159654,-0.0167319986794,0.001,-86.9751166182,-6000.0,0.0,-300.0,0.0
1513266038236016024,,596085,,1513266036,440063616,'',0.191986217719,0.175639799005,0.0367894813187,-0.0163464187143,0.001,-86.9842823126,-6000.0,0.0,-300.0,0.0
1513266038246001057,,596086,,1513266036,450063616,'',0.191986217719,0.176066112918,0.0459300794019,-0.015920104801,0.001,-81.6854548212,-6000.0,0.0,-300.0,0.0
1513266038256048040,,596087,,1513266036,460063616,'',0.191986217719,0.176496447414,0.0372284282129,-0.0154897703055,0.001,-82.2060154116,-6000.0,0.0,-300.0,0.0
1513266038266004683,,596088,,1513266036,470063616,'',0.191986217719,0.176928291019,0.0462529008725,-0.0150579267003,0.001,-76.7070132624,-6000.0,0.0,-300.0,0.0
1513266038276074340,,596089,,1513266036,480063616,'',0.191986217719,0.177346108994,0.0378137025991,-0.014640108725,0.001,-76.4592892544,-6000.0,0.0,-300.0,0.0
1513266038286141295,,596090,,1513266036,490063616,'',0.191986217719,0.177703106876,0.0483510870295,-0.0142831108429,0.001,-71.1609709698,-6000.0,0.0,-300.0,0.0
1513266038295986862,,596091,,1513266036,500063616,'',0.191986217719,0.17812055443,0.0399157640686,-0.0138656632898,0.001,-71.4337254028,-6000.0,0.0,-300.0,0.0
1513266038306047725,,596092,,1513266036,510063616,'',0.191986217719,0.178562692324,0.0487340600951,-0.0134235253949,0.001,-65.8743729382,-6000.0,0.0,-300.0,0.0
1513266038315830345,,596093,,1513266036,520063616,'',0.191986217719,0.179016366777,0.0395664119868,-0.0129698509422,0.001,-65.9244779517,-6000.0,0.0,-300.0,0.0
1513266038326133002,,596094,,1513266036,530063616,'',0.191986217719,0.17945470767,0.0484535478105,-0.0125315100493,0.001,-60.5903025978,-6000.0,0.0,-300.0,0.0
1513266038336012025,,596095,,1513266036,540063616,'',0.191986217719,0.179971381392,0.0557704464187,-0.0120148363273,0.001,-55.6430540564,-6000.0,0.0,-300.0,0.0
1513266038345967981,,596096,,1513266036,550063616,'',0.191986217719,0.180457731561,0.04594523053,-0.0115284861586,0.001,-55.3031672662,-6000.0,0.0,-300.0,0.0
1513266038356158853,,596097,,1513266036,560063616,'',0.191986217719,0.180887599873,0.0550101443112,-0.0110986178466,0.001,-50.0682641428,-6000.0,0.0,-300.0,0.0
1513266038366068019,,596098,,1513266036,570063616,'',0.191986217719,0.181304191886,0.0465919729714,-0.0106820258335,0.001,-50.0693486887,-6000.0,0.0,-300.0,0.0
1513266038376167455,,596099,,1513266036,580063616,'',0.191986217719,0.181722638436,0.0381402864227,-0.0102635792832,0.001,-50.1051331777,-6000.0,0.0,-300.0,0.0
1513266038386042820,,596100,,1513266036,590063616,'',0.191986217719,0.182131431438,0.0476288200093,-0.00985478628089,0.001,-44.7528719726,-6000.0,0.0,-300.0,0.0
1513266038396022599,,596101,,1513266036,600063616,'',0.191986217719,0.182558379459,0.0390052294724,-0.0094278382608,0.001,-45.0758450586,-6000.0,0.0,-300.0,0.0
1513266038406211227,,596102,,1513266036,610063616,'',0.191986217719,0.182908620652,0.0319309803898,-0.00907759706759,0.001,-44.8555167708,-6000.0,0.0,-300.0,0.0
1513266038416125190,,596103,,1513266036,620063616,'',0.191986217719,0.183212787782,0.0435351292918,-0.00877342993777,0.001,-39.5390537154,-6000.0,0.0,-300.0,0.0
1513266038426004265,,596104,,1513266036,630063616,'',0.191986217719,0.18358842132,0.0359510254926,-0.0083977963995,0.001,-39.7660638404,-6000.0,0.0,-300.0,0.0
1513266038435917822,,596105,,1513266036,640063616,'',0.191986217719,0.183911470413,0.0294284133872,-0.0080747473061,0.001,-39.7812358167,-6000.0,0.0,-300.0,0.0
1513266038445780594,,596106,,1513266036,650063616,'',0.191986217719,0.184273859877,0.0398598934417,-0.00771235784287,0.001,-34.2708174079,-6000.0,0.0,-300.0,0.0
1513266038455839477,,596107,,1513266036,660063616,'',0.191986217719,0.184616238492,0.0329430451066,-0.007369979227,0.001,-34.2808044143,-6000.0,0.0,-300.0,0.0
1513266038465722609,,596108,,1513266036,670063616,'',0.191986217719,0.184943657052,0.0263195931501,-0.00704256066723,0.001,-34.2971688483,-6000.0,0.0,-300.0,0.0
1513266038476188999,,596109,,1513266036,680063616,'',0.191986217719,0.185229497096,0.0382970119068,-0.00675672062347,0.001,-29.0034591989,-6000.0,0.0,-300.0,0.0
1513266038486153439,,596110,,1513266036,690063616,'',0.191986217719,0.185525621401,0.0323159500587,-0.00646059631829,0.001,-28.9823025603,-6000.0,0.0,-300.0,0.0
1513266038496203436,,596111,,1513266036,700063616,'',0.191986217719,0.185815132793,0.0264665214507,-0.00617108492636,0.001,-29.0482221041,-6000.0,0.0,-300.0,0.0
1513266038506111557,,596112,,1513266036,710063616,'',0.191986217719,0.186068697471,0.0213435998807,-0.00591752024848,0.001,-29.0388169542,-6000.0,0.0,-300.0,0.0
1513266038516090095,,596113,,1513266036,720063616,'',0.191986217719,0.18632443377,0.0339310350769,-0.00566178394971,0.001,-23.7828509421,-6000.0,0.0,-300.0,0.0
1513266038526228657,,596114,,1513266036,730063616,'',0.191986217719,0.186551693069,0.0293406498455,-0.00543452465079,0.001,-23.7727071553,-6000.0,0.0,-300.0,0.0
1513266038535949341,,596115,,1513266036,740063616,'',0.191986217719,0.186783519761,0.0246562717756,-0.00520269795844,0.001,-23.9935260786,-6000.0,0.0,-300.0,0.0
1513266038546009268,,596116,,1513266036,750063616,'',0.191986217719,0.186990177071,0.02047911406,-0.0049960406487,0.001,-23.8157934264,-6000.0,0.0,-300.0,0.0
1513266038555909923,,596117,,1513266036,760063616,'',0.191986217719,0.18717369499,0.0167705618617,-0.00481252272921,0.001,-23.9162612018,-6000.0,0.0,-300.0,0.0
1513266038565865679,,596118,,1513266036,770063616,'',0.191986217719,0.187373427879,0.0304833280205,-0.00461278984044,0.001,-18.4769467326,-6000.0,0.0,-300.0,0.0
1513266038575983908,,596119,,1513266036,780063616,'',0.191986217719,0.187599977165,0.0259095632239,-0.00438624055452,0.001,-18.4935128937,-6000.0,0.0,-300.0,0.0
1513266038586014015,,596120,,1513266036,790063616,'',0.191986217719,0.18783205255,0.0212197385376,-0.00415416516891,0.001,-18.6582253707,-6000.0,0.0,-300.0,0.0
1513266038595877284,,596121,,1513266036,800063616,'',0.191986217719,0.188005348661,0.0177171028758,-0.0039808690582,0.001,-18.5503321992,-6000.0,0.0,-300.0,0.0
1513266038605842618,,596122,,1513266036,810063616,'',0.191986217719,0.188179299166,0.0141981239388,-0.00380691855364,0.001,-18.5343025825,-6000.0,0.0,-300.0,0.0
1513266038615875615,,596123,,1513266036,820063616,'',0.191986217719,0.188338041815,0.010993917648,-0.00364817590423,0.001,-18.648398677,-6000.0,0.0,-300.0,0.0
1513266038625946439,,596124,,1513266036,830063616,'',0.191986217719,0.188546253113,0.00678440881339,-0.00343996460595,0.001,-18.5858897299,-6000.0,0.0,-300.0,0.0
1513266038635726736,,596125,,1513266036,840063616,'',0.191986217719,0.188735795435,0.0207044534016,-0.00325042228455,0.001,-13.2920785219,-6000.0,0.0,-300.0,0.0
1513266038646208520,,596126,,1513266036,850063616,'',0.191986217719,0.188921670296,0.0169492745477,-0.00306454742355,0.001,-13.2664890988,-6000.0,0.0,-300.0,0.0
1513266038656121849,,596127,,1513266036,860063616,'',0.191986217719,0.18909030737,0.0135388872436,-0.00289591034917,0.001,-13.2957247508,-6000.0,0.0,-300.0,0.0
1513266038665962887,,596128,,1513266036,870063616,'',0.191986217719,0.189228341077,0.0107542255078,-0.00275787664227,0.001,-13.3014119559,-6000.0,0.0,-300.0,0.0
1513266038675949109,,596129,,1513266036,880063616,'',0.191986217719,0.189387923924,0.00753699402335,-0.00259829379513,0.001,-13.3306350777,-6000.0,0.0,-300.0,0.0
1513266038685844838,,596130,,1513266036,890063616,'',0.191986217719,0.189502760963,0.00522468476484,-0.00248345675638,0.001,-13.3677893945,-6000.0,0.0,-300.0,0.0
1513266038695700371,,596131,,1513266036,900063616,'',0.191986217719,0.189597982714,0.00329814135343,-0.00238823500512,0.001,-13.3418747813,-6000.0,0.0,-300.0,0.0
1513266038705719568,,596132,,1513266036,910063616,'',0.191986217719,0.189674587327,0.00174926520741,-0.0023116303926,0.001,-13.3477389823,-6000.0,0.0,-300.0,0.0
1513266038715710557,,596133,,1513266036,920063616,'',0.191986217719,0.18978616111,-0.000506473898985,-0.00220005660895,0.001,-13.3558391194,-6000.0,0.0,-300.0,0.0
1513266038725794451,,596134,,1513266036,930063616,'',0.191986217719,0.189909186252,0.0147475278086,-0.00207703146693,0.001,-8.02478021427,-6000.0,0.0,-300.0,0.0
1513266038736185677,,596135,,1513266036,940063616,'',0.191986217719,0.19001004064,0.012710517146,-0.00197617707905,0.001,-8.01804922833,-6000.0,0.0,-300.0,0.0
1513266038746146950,,596136,,1513266036,950063616,'',0.191986217719,0.190123904586,0.0104100170512,-0.00186231313335,0.001,-8.09886996726,-6000.0,0.0,-300.0,0.0
1513266038756066260,,596137,,1513266036,960063616,'',0.191986217719,0.190234860226,0.0259164927569,-0.00175135749373,0.001,-2.69503633147,-6000.0,0.0,-300.0,0.0
1513266038765972751,,596138,,1513266036,970063616,'',0.191986217719,0.190323665341,0.00637042621407,0.0,0.001,0.0,-6000.0,0.0,-300.0,0.0
1513266038775876951,,596139,,1513266036,980063616,'',0.191986217719,0.190475551156,0.00330633866566,0.0,0.001,0.0,-6000.0,0.0,-300.0,0.0
1513266038785849045,,596140,,1513266036,990063616,'',0.191986217719,0.190633443582,0.0178647104174,0.0,0.001,0.0,-6000.0,0.0,-300.0,0.0
1513266038796222895,,596141,,1513266037,63616,'',0.191986217719,0.190761523561,0.0152764727541,0.0,0.001,0.0,-6000.0,0.0,-300.0,0.0
1513266038806229827,,596142,,1513266037,10063616,'',0.191986217719,0.190884096422,0.01280324078,0.0,0.001,0.0,-6000.0,0.0,-300.0,0.0
1513266038816109868,,596143,,1513266037,20063616,'',0.191986217719,0.190998778512,0.0104857584607,0.0,0.001,0.0,-6000.0,0.0,-300.0,0.0
1513266038825904673,,596144,,1513266037,30063616,'',0.191986217719,0.191092898803,0.00858378657581,0.0,0.001,0.0,-6000.0,0.0,-300.0,0.0
1513266038835762290,,596145,,1513266037,40063616,'',0.191986217719,0.191169945314,0.0070268396508,0.0,0.001,0.0,-6000.0,0.0,-300.0,0.0
1513266038846180564,,596146,,1513266037,50063616,'',0.191986217719,0.191281597643,0.00477007575315,0.0,0.001,0.0,-6000.0,0.0,-300.0,0.0
1513266038855980284,,596147,,1513266037,60063616,'',0.191986217719,0.191386042365,0.00266243667601,0.0,0.001,0.0,-6000.0,0.0,-300.0,0.0
1513266038865901201,,596148,,1513266037,70063616,'',0.191986217719,0.191524217008,0.0176205938032,0.0,0.001,0.0,-6000.0,0.0,-300.0,0.0
1513266038876202409,,596149,,1513266037,80063616,'',0.191986217719,0.191682351038,0.0144250802895,0.0,0.001,0.0,-6000.0,0.0,-300.0,0.0
1513266038886163825,,596150,,1513266037,90063616,'',0.191986217719,0.191779814246,0.0124541912129,0.0,0.001,0.0,-6000.0,0.0,-300.0,0.0
1513266038896123993,,596151,,1513266037,100063616,'',0.191986217719,0.191893908627,0.0101491783975,0.0,0.001,0.0,-6000.0,0.0,-300.0,0.0
1513266038906147433,,596152,,1513266037,110063616,'',0.191986217719,0.191984998687,0.0083086140508,0.0,0.001,0.0,-6000.0,0.0,-300.0,0.0
1513266038916087782,,596153,,1513266037,120063616,'',0.191986217719,0.19205947475,0.00680375187194,0.0,0.001,0.0,-6000.0,0.0,-300.0,0.0
1513266038926045351,,596154,,1513266037,130063616,'',0.191986217719,0.192120545788,0.0055697514054,0.0,0.001,0.0,-6000.0,0.0,-300.0,0.0
1513266038936039553,,596155,,1513266037,140063616,'',0.191986217719,0.192202791956,0.00390715371952,0.0,0.001,0.0,-6000.0,0.0,-300.0,0.0
1513266038945973772,,596156,,1513266037,150063616,'',0.191986217719,0.192300088503,0.00193943115503,0.0,0.001,0.0,-6000.0,0.0,-300.0,0.0
1513266038955933314,,596157,,1513266037,160063616,'',0.191986217719,0.19234917202,0.000947496450805,0.0,0.001,0.0,-6000.0,0.0,-300.0,0.0
1513266038966012340,,596158,,1513266037,170063616,'',0.191986217719,0.192390305145,0.017867649571,0.0,0.001,0.0,-6000.0,0.0,-300.0,0.0
1513266038975876764,,596159,,1513266037,180063616,'',0.191986217719,0.192391371533,9.70647445562e-05,0.0,0.001,0.0,-6000.0,0.0,-300.0,0.0
1513266038985891277,,596160,,1513266037,190063616,'',0.191986217719,0.192454333329,0.0165760185129,0.0,0.001,0.0,-6000.0,0.0,-300.0,0.0
1513266038995740762,,596161,,1513266037,200063616,'',0.191986217719,0.192475822916,-0.0016063547444,0.0,0.001,0.0,-6000.0,0.0,-300.0,0.0
1513266039006184878,,596162,,1513266037,210063616,'',0.191986217719,0.192542465722,0.0147880577487,0.0,0.001,0.0,-6000.0,0.0,-300.0,0.0
1513266039016191128,,596163,,1513266037,220063616,'',0.191986217719,0.192675271494,0.0121059967693,0.0,0.001,0.0,-6000.0,0.0,-300.0,0.0
1513266039026105256,,596164,,1513266037,230063616,'',0.191986217719,0.192733836973,-0.00681887459549,0.0,0.001,0.0,-6000.0,0.0,-300.0,0.0
1513266039036008615,,596165,,1513266037,240063616,'',0.191986217719,0.192814767379,0.0092940936273,0.0,0.001,0.0,-6000.0,0.0,-300.0,0.0
1513266039045939937,,596166,,1513266037,250063616,'',0.191986217719,0.192881011881,-0.00978805780471,0.0,0.001,0.0,-6000.0,0.0,-300.0,0.0
1513266039055989055,,596167,,1513266037,260063616,'',0.191986217719,0.192934992748,-0.0108785274032,0.0,0.001,0.0,-6000.0,0.0,-300.0,0.0
1513266039065845780,,596168,,1513266037,270063616,'',0.191986217719,0.192981958672,0.00591938438601,0.0,0.001,0.0,-6000.0,0.0,-300.0,0.0
1513266039075779973,,596169,,1513266037,280063616,'',0.191986217719,0.1930030893,-0.0122528310123,0.0,0.001,0.0,-6000.0,0.0,-300.0,0.0
1513266039085781888,,596170,,1513266037,290063616,'',0.191986217719,0.1930344975,0.00485683890027,0.0,0.001,0.0,-6000.0,0.0,-300.0,0.0
1513266039095936868,,596171,,1513266037,300063616,'',0.191986217719,0.193093919024,0.00365629219275,0.0,0.001,0.0,-6000.0,0.0,-300.0,0.0
1513266039106245262,,596172,,1513266037,310063616,'',0.191986217719,0.193126706717,0.00299321969687,0.0,0.001,0.0,-6000.0,0.0,-300.0,0.0
1513266039116229741,,596173,,1513266037,320063616,'',0.191986217719,0.19316963205,0.00212495884797,0.0,0.001,0.0,-6000.0,0.0,-300.0,0.0
1513266039126219669,,596174,,1513266037,330063616,'',0.191986217719,0.193205118217,0.00140348006504,0.0,0.001,0.0,-6000.0,0.0,-300.0,0.0
1513266039136100503,,596175,,1513266037,340063616,'',0.191986217719,0.1932348586,0.00080278850235,0.0,0.001,0.0,-6000.0,0.0,-300.0,0.0
1513266039146018036,,596176,,1513266037,350063616,'',0.191986217719,0.193276312086,0.0177127661419,0.0,0.001,0.0,-6000.0,0.0,-300.0,0.0
1513266039156159693,,596177,,1513266037,360063616,'',0.191986217719,0.193401223482,-0.00255275886325,0.0,0.001,0.0,-6000.0,0.0,-300.0,0.0
1513266039165989261,,596178,,1513266037,370063616,'',0.191986217719,0.193506338627,0.0130730669495,0.0,0.001,0.0,-6000.0,0.0,-300.0,0.0
1513266039175933536,,596179,,1513266037,380063616,'',0.191986217719,0.193575918614,-0.00607378811426,0.0,0.001,0.0,-6000.0,0.0,-300.0,0.0
1513266039185737333,,596180,,1513266037,390063616,'',0.191986217719,0.193632247703,0.0105340071992,0.0,0.001,0.0,-6000.0,0.0,-300.0,0.0
1513266039196175627,,596181,,1513266037,400063616,'',0.191986217719,0.193694867549,0.00926205713439,0.0,0.001,0.0,-6000.0,0.0,-300.0,0.0
1513266039206321232,,596182,,1513266037,410063616,'',0.191986217719,0.193761148713,0.00792215532513,0.0,0.001,0.0,-6000.0,0.0,-300.0,0.0
1513266039216183434,,596183,,1513266037,420063616,'',0.191986217719,0.193814818614,-0.0109101482988,0.0,0.001,0.0,-6000.0,0.0,-300.0,0.0
1513266039226173188,,596184,,1513266037,430063616,'',0.191986217719,0.193876097386,0.00559738162842,0.0,0.001,0.0,-6000.0,0.0,-300.0,0.0
1513266039235996290,,596185,,1513266037,440063616,'',0.191986217719,0.193926365653,0.00458211569217,0.0,0.001,0.0,-6000.0,0.0,-300.0,0.0
1513266039245867069,,596186,,1513266037,450063616,'',0.191986217719,0.193967498434,0.00375135876376,0.0,0.001,0.0,-6000.0,0.0,-300.0,0.0
1513266039255853178,,596187,,1513266037,460063616,'',0.191986217719,0.194001114924,0.0030724080272,0.0,0.001,0.0,-6000.0,0.0,-300.0,0.0
1513266039265761354,,596188,,1513266037,470063616,'',0.191986217719,0.194046155836,0.0199104805041,0.0,0.001,0.0,-6000.0,0.0,-300.0,0.0
1513266039275673277,,596189,,1513266037,480063616,'',0.191986217719,0.194099521755,0.00108377317636,0.0,0.001,0.0,-6000.0,0.0,-300.0,0.0
1513266039286247351,,596190,,1513266037,490063616,'',0.191986217719,0.194172301751,0.0173580827217,0.0,0.001,0.0,-6000.0,0.0,-300.0,0.0
1513266039296189535,,596191,,1513266037,500063616,'',0.191986217719,0.194232199559,-0.00159255582571,0.0,0.001,0.0,-6000.0,0.0,-300.0,0.0
1513266039306016144,,596192,,1513266037,510063616,'',0.191986217719,0.194311256079,-0.00319676949048,0.0,0.001,0.0,-6000.0,0.0,-300.0,0.0
1513266039316136924,,596193,,1513266037,520063616,'',0.191986217719,0.194359546465,-0.00417457809475,0.0,0.001,0.0,-6000.0,0.0,-300.0,0.0
1513266039325937456,,596194,,1513266037,530063616,'',0.191986217719,0.1943862977,-0.00470607919979,0.0,0.001,0.0,-6000.0,0.0,-300.0,0.0
1513266039335711778,,596195,,1513266037,540063616,'',0.191986217719,0.194456354474,0.0116236560402,0.0,0.001,0.0,-6000.0,0.0,-300.0,0.0
1513266039345658706,,596196,,1513266037,550063616,'',0.191986217719,0.194545805773,0.00981592578112,0.0,0.001,0.0,-6000.0,0.0,-300.0,0.0
1513266039355839117,,596197,,1513266037,560063616,'',0.191986217719,0.194554403663,-0.00810215165414,0.0,0.001,0.0,-6000.0,0.0,-300.0,0.0
1513266039366184146,,596198,,1513266037,570063616,'',0.191986217719,0.194610771981,0.00850768139646,0.0,0.001,0.0,-6000.0,0.0,-300.0,0.0
1513266039376093956,,596199,,1513266037,580063616,'',0.191986217719,0.194670361889,0.00730691123805,0.0,0.001,0.0,-6000.0,0.0,-300.0,0.0
1513266039386198680,,596200,,1513266037,590063616,'',0.191986217719,0.194718800748,0.00632759830618,0.0,0.001,0.0,-6000.0,0.0,-300.0,0.0
1513266039395994989,,596201,,1513266037,600063616,'',0.191986217719,0.194759758742,0.00550260326835,0.0,0.001,0.0,-6000.0,0.0,-300.0,0.0
1513266039406103417,,596202,,1513266037,610063616,'',0.191986217719,0.194809005514,0.00450633306841,0.0,0.001,0.0,-6000.0,0.0,-300.0,0.0
1513266039416159884,,596203,,1513266037,620063616,'',0.191986217719,0.194849409867,0.00368894643566,0.0,0.001,0.0,-6000.0,0.0,-300.0,0.0
1513266039426206394,,596204,,1513266037,630063616,'',0.191986217719,0.19489796607,0.0027068921999,0.0,0.001,0.0,-6000.0,0.0,-300.0,0.0
1513266039436142964,,596205,,1513266037,640063616,'',0.191986217719,0.194922196597,0.00221666020828,0.0,0.001,0.0,-6000.0,0.0,-300.0,0.0
1513266039445976148,,596206,,1513266037,650063616,'',0.191986217719,0.194927480557,0.00210917785211,0.0,0.001,0.0,-6000.0,0.0,-300.0,0.0
1513266039455885083,,596207,,1513266037,660063616,'',0.191986217719,0.19496127058,0.0014230113365,0.0,0.001,0.0,-6000.0,0.0,-300.0,0.0
1513266039465800719,,596208,,1513266037,670063616,'',0.191986217719,0.194974034135,0.00116534117473,0.0,0.001,0.0,-6000.0,0.0,-300.0,0.0
1513266039475908290,,596209,,1513266037,680063616,'',0.191986217719,0.19498450525,0.000953950720473,0.0,0.001,0.0,-6000.0,0.0,-300.0,0.0
1513266039486167687,,596210,,1513266037,690063616,'',0.191986217719,0.194978281035,0.00107766266543,0.0,0.001,0.0,-6000.0,0.0,-300.0,0.0
1513266039496157963,,596211,,1513266037,700063616,'',0.191986217719,0.194987283492,-0.0168483091948,0.0,0.001,0.0,-6000.0,0.0,-300.0,0.0
1513266039506029526,,596212,,1513266037,710063616,'',0.191986217719,0.194980658127,0.00103287479689,0.0,0.001,0.0,-6000.0,0.0,-300.0,0.0
1513266039516088784,,596213,,1513266037,720063616,'',0.191986217719,0.194989910107,0.000845868332814,0.0,0.001,0.0,-6000.0,0.0,-300.0,0.0
1513266039525931961,,596214,,1513266037,730063616,'',0.191986217719,0.194964185368,-0.0163829022885,0.0,0.001,0.0,-6000.0,0.0,-300.0,0.0
1513266039535908815,,596215,,1513266037,740063616,'',0.191986217719,0.194976445402,0.00111830814016,0.0,0.001,0.0,-6000.0,0.0,-300.0,0.0
1513266039545770234,,596216,,1513266037,750063616,'',0.191986217719,0.194969676588,0.00125526406368,0.0,0.001,0.0,-6000.0,0.0,-300.0,0.0
1513266039555811038,,596217,,1513266037,760063616,'',0.191986217719,0.194980937426,0.00102757648475,0.0,0.001,0.0,-6000.0,0.0,-300.0,0.0
1513266039565660309,,596218,,1513266037,770063616,'',0.191986217719,0.194959498949,0.00146456747795,0.0,0.001,0.0,-6000.0,0.0,-300.0,0.0
1513266039576106721,,596219,,1513266037,780063616,'',0.191986217719,0.194972580761,0.00119942405765,0.0,0.001,0.0,-6000.0,0.0,-300.0,0.0
1513266039586026148,,596220,,1513266037,790063616,'',0.191986217719,0.194967155901,0.00131337441538,0.0,0.001,0.0,-6000.0,0.0,-300.0,0.0
1513266039595960672,,596221,,1513266037,800063616,'',0.191986217719,0.194948679647,0.00168416040334,0.0,0.001,0.0,-6000.0,0.0,-300.0,0.0
1513266039605933167,,596222,,1513266037,810063616,'',0.191986217719,0.194963719198,0.00137928189173,0.0,0.001,0.0,-6000.0,0.0,-300.0,0.0
1513266039616194908,,596223,,1513266037,820063616,'',0.191986217719,0.194959616859,0.00146165811294,0.0,0.001,0.0,-6000.0,0.0,-300.0,0.0
1513266039625960948,,596224,,1513266037,830063616,'',0.191986217719,0.19494104033,0.0018391435693,0.0,0.001,0.0,-6000.0,0.0,-300.0,0.0
1513266039636016820,,596225,,1513266037,840063616,'',0.191986217719,0.194974492838,0.0189058139713,0.0,0.001,0.0,-6000.0,0.0,-300.0,0.0
1513266039645976782,,596226,,1513266037,850063616,'',0.191986217719,0.194984879851,0.000946609874227,0.0,0.001,0.0,-6000.0,0.0,-300.0,0.0
1513266039655974270,,596227,,1513266037,860063616,'',0.191986217719,0.194961721,0.00141120305078,0.0,0.001,0.0,-6000.0,0.0,-300.0,0.0
1513266039665904246,,596228,,1513266037,870063616,'',0.191986217719,0.194923995535,0.0021703274137,0.0,0.001,0.0,-6000.0,0.0,-300.0,0.0
1513266039675881636,,596229,,1513266037,880063616,'',0.191986217719,0.194877075996,-0.0146283615471,0.0,0.001,0.0,-6000.0,0.0,-300.0,0.0
1513266039685911096,,596230,,1513266037,890063616,'',0.191986217719,0.194824947397,0.00417042751838,0.0,0.001,0.0,-6000.0,0.0,-300.0,0.0
1513266039695790026,,596231,,1513266037,900063616,'',0.191986217719,0.194830681554,0.00405105154369,0.0,0.001,0.0,-6000.0,0.0,-300.0,0.0
1513266039705761804,,596232,,1513266037,910063616,'',0.191986217719,0.194804149948,0.00458497142614,0.0,0.001,0.0,-6000.0,0.0,-300.0,0.0
1513266039715732566,,596233,,1513266037,920063616,'',0.191986217719,0.19479782201,0.00471480946738,0.0,0.001,0.0,-6000.0,0.0,-300.0,0.0
1513266039726222499,,596234,,1513266037,930063616,'',0.191986217719,0.194791858607,0.004841422654,0.0,0.001,0.0,-6000.0,0.0,-300.0,0.0
1513266039736092545,,596235,,1513266037,940063616,'',0.191986217719,0.194786865265,0.00494018767387,0.0,0.001,0.0,-6000.0,0.0,-300.0,0.0
1513266039745814456,,596236,,1513266037,950063616,'',0.191986217719,0.194718072532,-0.0114148295863,0.0,0.001,0.0,-6000.0,0.0,-300.0,0.0
1513266039756254032,,596237,,1513266037,960063616,'',0.191986217719,0.194713836272,0.00642601051957,0.0,0.001,0.0,-6000.0,0.0,-300.0,0.0
1513266039766024489,,596238,,1513266037,970063616,'',0.191986217719,0.194706289486,-0.0111660848789,0.0,0.001,0.0,-6000.0,0.0,-300.0,0.0
1513266039776115471,,596239,,1513266037,980063616,'',0.191986217719,0.194639216249,-0.00981385204734,0.0,0.001,0.0,-6000.0,0.0,-300.0,0.0
1513266039786232200,,596240,,1513266037,990063616,'',0.191986217719,0.194584716113,-0.00871637576172,0.0,0.001,0.0,-6000.0,0.0,-300.0,0.0
1513266039795959818,,596241,,1513266038,63616,'',0.191986217719,0.194584830975,-0.00871446513843,0.0,0.001,0.0,-6000.0,0.0,-300.0,0.0
1513266039806022532,,596242,,1513266038,10063616,'',0.191986217719,0.194571659497,-0.00844832908316,0.0,0.001,0.0,-6000.0,0.0,-300.0,0.0
1513266039815963620,,596243,,1513266038,20063616,'',0.191986217719,0.194623602825,0.00824315040318,0.0,0.001,0.0,-6000.0,0.0,-300.0,0.0
1513266039826013680,,596244,,1513266038,30063616,'',0.191986217719,0.194682967574,0.007043293114,0.0,0.001,0.0,-6000.0,0.0,-300.0,0.0
1513266039836096661,,596245,,1513266038,40063616,'',0.191986217719,0.19474623347,0.00576573693818,0.0,0.001,0.0,-6000.0,0.0,-300.0,0.0
1513266039846002151,,596246,,1513266038,50063616,'',0.191986217719,0.194895281659,0.0205089189065,0.0,0.001,0.0,-6000.0,0.0,-300.0,0.0
1513266039855922002,,596247,,1513266038,60063616,'',0.191986217719,0.195080635259,0.016762868728,0.0,0.001,0.0,-6000.0,0.0,-300.0,0.0
1513266039865971226,,596248,,1513266038,70063616,'',0.191986217719,0.195361001872,0.0465971269493,0.0,0.001,0.0,-6000.0,0.0,-300.0,0.0
1513266039875892316,,596249,,1513266038,80063616,'',0.191986217719,0.196125308215,0.119885551388,0.0,0.001,0.0,-6000.0,0.0,-300.0,0.0
1513266039886192185,,596250,,1513266038,90063616,'',0.191986217719,0.197530875448,0.16248387725,0.0,0.001,0.0,-6000.0,0.0,-300.0,0.0
1513266039895791193,,596251,,1513266038,100063616,'',0.191986217719,0.198990310368,0.132992911758,0.0,0.001,0.0,-6000.0,0.0,-300.0,0.0
1513266039906268381,,596252,,1513266038,110063616,'',0.191986217719,0.20031349847,0.124010773591,0.0,0.001,0.0,-6000.0,0.0,-300.0,0.0
1513266039915981760,,596253,,1513266038,120063616,'',0.191986217719,0.201424710415,0.101563896262,0.0,0.001,0.0,-6000.0,0.0,-300.0,0.0
1513266039926027547,,596254,,1513266038,130063616,'',0.191986217719,0.202352500172,0.0828224853252,0.0,0.001,0.0,-6000.0,0.0,-300.0,0.0
1513266039935844437,,596255,,1513266038,140063616,'',0.191986217719,0.203210476053,0.0832359925682,0.0,0.001,0.0,-6000.0,0.0,-300.0,0.0
1513266039945844587,,596256,,1513266038,150063616,'',0.191986217719,0.204006932377,0.0671466484886,0.0,0.001,0.0,-6000.0,0.0,-300.0,0.0
1513266039956306637,,596257,,1513266038,160063616,'',0.191986217719,0.204703663132,0.0708216957733,0.0127174454129,0.001,97.0593061925,-6000.0,0.0,-300.0,0.0
1513266039966180439,,596258,,1513266038,170063616,'',0.191986217719,0.205294747722,0.0588773549916,0.0133085300031,0.001,97.5872630548,-6000.0,0.0,-300.0,0.0
1513266039976012311,,596259,,1513266038,180063616,'',0.191986217719,0.205890135848,0.0645861386933,0.0139039181289,0.001,102.919733473,-6000.0,0.0,-300.0,0.0
1513266039986129418,,596260,,1513266038,190063616,'',0.191986217719,0.206392787207,0.0544427003566,0.0144065694874,0.001,102.855518976,-6000.0,0.0,-300.0,0.0
1513266039996127892,,596261,,1513266038,200063616,'',0.191986217719,0.206864790822,0.0449061674485,0.0148785731028,0.001,102.744609516,-6000.0,0.0,-300.0,0.0
1513266040006082984,,596262,,1513266038,210063616,'',0.191986217719,0.207267191979,0.0367785168354,0.0152809742598,0.001,102.476050518,-6000.0,0.0,-300.0,0.0
1513266040016077167,,596263,,1513266038,220063616,'',0.191986217719,0.207614953627,0.0475025791942,0.0156287359077,0.001,108.095510828,-6000.0,0.0,-300.0,0.0
1513266040026007877,,596264,,1513266038,230063616,'',0.191986217719,0.207897581198,0.0240513281638,0.0159113634783,0.001,102.894716335,-6000.0,0.0,-300.0,0.0
1513266040035849878,,596265,,1513266038,240063616,'',0.191986217719,0.208207967824,0.0355292790774,0.0162217501047,0.001,108.021244959,-6000.0,0.0,-300.0,0.0
1513266040045846353,,596266,,1513266038,250063616,'',0.191986217719,0.208479656816,0.030041532237,0.0164934390969,0.001,108.025843674,-6000.0,0.0,-300.0,0.0
1513266040056198291,,596267,,1513266038,260063616,'',0.191986217719,0.2087813104,0.0239463062493,0.0167950926807,0.001,107.975990374,-6000.0,0.0,-300.0,0.0
1513266040066115777,,596268,,1513266038,270063616,'',0.191986217719,0.209027060988,0.0189783797503,0.0170408432682,0.001,107.985391512,-6000.0,0.0,-300.0,0.0
1513266040076164751,,596269,,1513266038,280063616,'',0.191986217719,0.209275131269,0.013958515665,0.0172889135494,0.001,107.949123647,-6000.0,0.0,-300.0,0.0
1513266040086126718,,596270,,1513266038,290063616,'',0.191986217719,0.20951172644,0.0269247784611,0.0175255087202,0.001,113.243240444,-6000.0,0.0,-300.0,0.0
1513266040096055005,,596271,,1513266038,300063616,'',0.191986217719,0.20975363172,0.0220401544199,0.0177674140009,0.001,113.212634319,-6000.0,0.0,-300.0,0.0
1513266040106029184,,596272,,1513266038,310063616,'',0.191986217719,0.20993486971,0.0183813533777,0.0179486519909,0.001,113.258625522,-6000.0,0.0,-300.0,0.0
1513266040116011315,,596273,,1513266038,320063616,'',0.191986217719,0.210099934809,0.0150481623205,0.0181137170896,0.001,113.216731727,-6000.0,0.0,-300.0,0.0
1513266040126056628,,596274,,1513266038,330063616,'',0.191986217719,0.210234823342,0.0123243324156,0.0182486056227,0.001,113.213314523,-6000.0,0.0,-300.0,0.0
1513266040135977668,,596275,,1513266038,340063616,'',0.191986217719,0.21034547477,0.0100899270069,0.0183592570504,0.001,113.189354115,-6000.0,0.0,-300.0,0.0
1513266040145958021,,596276,,1513266038,350063616,'',0.191986217719,0.210453387942,0.00791412190273,0.0184671702225,0.001,113.162757482,-6000.0,0.0,-300.0,0.0
1513266040155916645,,596277,,1513266038,360063616,'',0.191986217719,0.210524433419,0.00647888743949,0.0185382156995,0.001,113.180747323,-6000.0,0.0,-300.0,0.0
1513266040165914478,,596278,,1513266038,370063616,'',0.191986217719,0.210582484529,0.00530616036607,0.0185962668099,0.001,113.175826377,-6000.0,0.0,-300.0,0.0
1513266040175821891,,596279,,1513266038,380063616,'',0.191986217719,0.21063012743,0.00434369609888,0.0186439097106,0.001,113.173043031,-6000.0,0.0,-300.0,0.0
1513266040186194361,,596280,,1513266038,390063616,'',0.191986217719,0.210669131084,0.00355575870217,0.0186829133644,0.001,113.169509014,-6000.0,0.0,-300.0,0.0
1513266040196146454,,596281,,1513266038,400063616,'',0.191986217719,0.210685546299,0.00322792164346,0.0186993285801,0.001,113.142637572,-6000.0,0.0,-300.0,0.0
1513266040206161124,,596282,,1513266038,410063616,'',0.191986217719,0.210697698741,0.00298513522155,0.0187114810217,0.001,113.166920574,-6000.0,0.0,-300.0,0.0
1513266040215987520,,596283,,1513266038,420063616,'',0.191986217719,0.210707196186,0.00279000596403,0.0187209784662,0.001,113.16102676,-6000.0,0.0,-300.0,0.0
1513266040225994095,,596284,,1513266038,430063616,'',0.191986217719,0.210732170178,0.0022849068579,0.0187459524589,0.001,113.149949042,-6000.0,0.0,-300.0,0.0
1513266040235929970,,596285,,1513266038,440063616,'',0.191986217719,0.210720558533,-0.0152298199172,0.0187343408134,0.001,107.827324729,-6000.0,0.0,-300.0,0.0
1513266040245969076,,596286,,1513266038,450063616,'',0.191986217719,0.210697229747,0.00299304567544,0.0187110120281,0.001,113.17063334,-6000.0,0.0,-300.0,0.0
1513266040255808569,,596287,,1513266038,460063616,'',0.191986217719,0.210690128298,-0.0146078697649,0.0187039105783,0.001,107.914007606,-6000.0,0.0,-300.0,0.0
1513266040266140139,,596288,,1513266038,470063616,'',0.191986217719,0.210703264024,0.00286969215949,0.0187170463044,0.001,113.167451742,-6000.0,0.0,-300.0,0.0
1513266040276114267,,596289,,1513266038,480063616,'',0.191986217719,0.210713520339,0.00266236486837,0.01872730262,0.001,113.166447595,-6000.0,0.0,-300.0,0.0
1513266040286080905,,596290,,1513266038,490063616,'',0.191986217719,0.210737342733,0.00218050890572,0.0187511250137,0.001,113.148856199,-6000.0,0.0,-300.0,0.0
1513266040296055986,,596291,,1513266038,500063616,'',0.191986217719,0.210756894389,0.0017850372386,0.0187706766691,0.001,113.149709475,-6000.0,0.0,-300.0,0.0
1513266040305875360,,596292,,1513266038,510063616,'',0.191986217719,0.210758072409,0.00176434960765,0.0187718546896,0.001,113.161450276,-6000.0,0.0,-300.0,0.0
1513266040315819616,,596293,,1513266038,520063616,'',0.191986217719,0.210791065672,0.0011017034989,0.0188048479522,0.001,113.150885201,-6000.0,0.0,-300.0,0.0
1513266040325793657,,596294,,1513266038,530063616,'',0.191986217719,0.210818042179,0.000555416467559,0.0188318244594,0.001,113.156016574,-6000.0,0.0,-300.0,0.0
1513266040336221581,,596295,,1513266038,540063616,'',0.191986217719,0.210837785286,0.000157603436858,0.0188515675667,0.001,113.154238445,-6000.0,0.0,-300.0,0.0
1513266040346085109,,596296,,1513266038,550063616,'',0.191986217719,0.210870143646,-0.00050082292028,0.018883925927,0.001,113.154214245,-6000.0,0.0,-300.0,0.0
1513266040356128454,,596297,,1513266038,560063616,'',0.191986217719,0.210865598129,-0.000409759705059,0.0188793804095,0.001,113.148303475,-6000.0,0.0,-300.0,0.0
1513266040365909024,,596298,,1513266038,570063616,'',0.191986217719,0.210861897553,-0.000335623740672,0.0188756798338,0.001,113.152018503,-6000.0,0.0,-300.0,0.0
1513266040375868457,,596299,,1513266038,580063616,'',0.191986217719,0.210889775066,-0.000900550674456,0.0189035573467,0.001,113.155248222,-6000.0,0.0,-300.0,0.0
1513266040385795531,,596300,,1513266038,590063616,'',0.191986217719,0.210898194977,-0.0010695010938,0.0189119772577,0.001,113.149063858,-6000.0,0.0,-300.0,0.0
1513266040395772230,,596301,,1513266038,600063616,'',0.191986217719,0.210936716099,0.0159034729375,0.0189504983792,0.001,118.491398619,-6000.0,0.0,-300.0,0.0
1513266040405694226,,596302,,1513266038,610063616,'',0.191986217719,0.210934743928,-0.001802100973,0.0189485262085,0.001,113.147665625,-6000.0,0.0,-300.0,0.0
1513266040415710440,,596303,,1513266038,620063616,'',0.191986217719,0.210918525768,-0.00147590722141,0.0189323080486,0.001,113.157191639,-6000.0,0.0,-300.0,0.0
1513266040426057313,,596304,,1513266038,630063616,'',0.191986217719,0.21093703231,-0.00185224759817,0.0189508145904,0.001,113.145771649,-6000.0,0.0,-300.0,0.0
1513266040436038238,,596305,,1513266038,640063616,'',0.191986217719,0.210971139835,0.0152064005188,0.0189849221152,0.001,118.484087263,-6000.0,0.0,-300.0,0.0
1513266040446119958,,596306,,1513266038,650063616,'',0.191986217719,0.21098127872,0.0150005334213,0.018995061001,0.001,118.392290143,-6000.0,0.0,-300.0,0.0
1513266040455879156,,596307,,1513266038,660063616,'',0.191986217719,0.210971863646,-0.00255368693475,0.0189856459267,0.001,113.142819025,-6000.0,0.0,-300.0,0.0
1513266040465849124,,596308,,1513266038,670063616,'',0.191986217719,0.210964620649,-0.00240941734124,0.0189784029299,0.001,113.142561105,-6000.0,0.0,-300.0,0.0
1513266040475738103,,596309,,1513266038,680063616,'',0.191986217719,0.210928435109,-0.00167497097836,0.0189422173894,0.001,113.148445388,-6000.0,0.0,-300.0,0.0
1513266040485872144,,596310,,1513266038,690063616,'',0.191986217719,0.210896475907,-0.00103632576037,0.0189102581872,0.001,113.147636195,-6000.0,0.0,-300.0,0.0
1513266040495892082,,596311,,1513266038,700063616,'',0.191986217719,0.210887168711,-0.000848423386016,0.0189009509918,0.001,113.149998546,-6000.0,0.0,-300.0,0.0
1513266040505820392,,596312,,1513266038,710063616,'',0.191986217719,0.210879546926,-0.000694547650856,0.0188933292066,0.001,113.150443792,-6000.0,0.0,-300.0,0.0
1513266040515795217,,596313,,1513266038,720063616,'',0.191986217719,0.210873319836,-0.000568829332465,0.0188871021168,0.001,113.154790532,-6000.0,0.0,-300.0,0.0
1513266040525801084,,596314,,1513266038,730063616,'',0.191986217719,0.210868208786,-0.000465642659694,0.0188819910663,0.001,113.151033471,-6000.0,0.0,-300.0,0.0
1513266040535835076,,596315,,1513266038,740063616,'',0.191986217719,0.210878641923,-0.00067604977348,0.0188924242041,0.001,113.15111247,-6000.0,0.0,-300.0,0.0
1513266040546212269,,596316,,1513266038,750063616,'',0.191986217719,0.210872568313,-0.000553471176601,0.018886350594,0.001,113.151076105,-6000.0,0.0,-300.0,0.0
1513266040556226557,,596317,,1513266038,760063616,'',0.191986217719,0.210867603869,-0.000453277947854,0.0188813861498,0.001,113.154377241,-6000.0,0.0,-300.0,0.0
1513266040566077480,,596318,,1513266038,770063616,'',0.191986217719,0.210863530494,-0.00037106843005,0.0188773127751,0.001,113.15176082,-6000.0,0.0,-300.0,0.0
1513266040575982919,,596319,,1513266038,780063616,'',0.191986217719,0.210860195894,-0.000303768979788,0.0188739781748,0.001,113.15237288,-6000.0,0.0,-300.0,0.0
1513266040585922549,,596320,,1513266038,790063616,'',0.191986217719,0.210873277599,-0.000571527211785,0.0188870598794,0.001,113.150970777,-6000.0,0.0,-300.0,0.0
1513266040596174719,,596321,,1513266038,800063616,'',0.191986217719,0.210884000889,-0.000791814472715,0.0188977831693,0.001,113.156447065,-6000.0,0.0,-300.0,0.0
1513266040606123640,,596322,,1513266038,810063616,'',0.191986217719,0.210876953641,-0.000648205708379,0.0188907359215,0.001,113.150678762,-6000.0,0.0,-300.0,0.0
1513266040615910489,,596323,,1513266038,820063616,'',0.191986217719,0.210871195955,-0.000530875628106,0.0188849782357,0.001,113.154697841,-6000.0,0.0,-300.0,0.0
1513266040625949074,,596324,,1513266038,830063616,'',0.191986217719,0.21088360926,-0.000777535107585,0.0188973915411,0.001,113.154510044,-6000.0,0.0,-300.0,0.0
1513266040635867867,,596325,,1513266038,840063616,'',0.191986217719,0.21087663244,-0.00063650400387,0.0188904147211,0.001,113.151672941,-6000.0,0.0,-300.0,0.0
1513266040645920095,,596326,,1513266038,850063616,'',0.191986217719,0.210888039337,-0.000866878749734,0.0189018216176,0.001,113.149924744,-6000.0,0.0,-300.0,0.0
1513266040656206050,,596327,,1513266038,860063616,'',0.191986217719,0.210895765166,-0.00101988795426,0.0189095474471,0.001,113.149565357,-6000.0,0.0,-300.0,0.0
1513266040666193609,,596328,,1513266038,870063616,'',0.191986217719,0.210886585061,-0.00083493018401,0.0189003673417,0.001,113.1497456,-6000.0,0.0,-300.0,0.0
1513266040676081765,,596329,,1513266038,880063616,'',0.191986217719,0.210896340381,-0.00102999432278,0.0189101226616,0.001,113.150790147,-6000.0,0.0,-300.0,0.0
1513266040686072812,,596330,,1513266038,890063616,'',0.191986217719,0.21088707355,-0.00084355764842,0.0189008558308,0.001,113.155390773,-6000.0,0.0,-300.0,0.0
1513266040696021937,,596331,,1513266038,900063616,'',0.191986217719,0.210879469679,-0.000690577567544,0.0188932519594,0.001,113.150851578,-6000.0,0.0,-300.0,0.0
1513266040705855647,,596332,,1513266038,910063616,'',0.191986217719,0.210873245313,-0.000565351370911,0.0188870275941,0.001,113.151178821,-6000.0,0.0,-300.0,0.0
1513266040715830598,,596333,,1513266038,920063616,'',0.191986217719,0.21086814833,-0.000462806640714,0.0188819306105,0.001,113.152047345,-6000.0,0.0,-300.0,0.0
1513266040726200786,,596334,,1513266038,930063616,'',0.191986217719,0.210863983663,-0.000379018911961,0.0188777659434,0.001,113.153915823,-6000.0,0.0,-300.0,0.0
1513266040736190550,,596335,,1513266038,940063616,'',0.191986217719,0.210860567535,-0.000310290825119,0.0188743498154,0.001,113.152636165,-6000.0,0.0,-300.0,0.0
1513266040746228575,,596336,,1513266038,950063616,'',0.191986217719,0.210872956176,-0.000557848410905,0.0188867384566,0.001,113.151203331,-6000.0,0.0,-300.0,0.0
1513266040755993642,,596337,,1513266038,960063616,'',0.191986217719,0.210867911094,-0.000456653697225,0.0188816933747,0.001,113.152594555,-6000.0,0.0,-300.0,0.0
1513266040765890066,,596338,,1513266038,970063616,'',0.191986217719,0.21086378831,-0.000373958514819,0.0188775705905,0.001,113.151517877,-6000.0,0.0,-300.0,0.0
1513266040775882759,,596339,,1513266038,980063616,'',0.191986217719,0.210860406295,-0.000306121761866,0.0188741885761,0.001,113.151977591,-6000.0,0.0,-300.0,0.0
1513266040785888046,,596340,,1513266038,990063616,'',0.191986217719,0.210857644339,-0.000250722193495,0.01887142662,0.001,113.154106419,-6000.0,0.0,-300.0,0.0
1513266040795902509,,596341,,1513266039,63616,'',0.191986217719,0.210870259757,-0.00050605209742,0.0188840420372,0.001,113.155279854,-6000.0,0.0,-300.0,0.0
1513266040805950844,,596342,,1513266039,10063616,'',0.191986217719,0.210882151077,-0.00075004510903,0.018895933358,0.001,113.150369874,-6000.0,0.0,-300.0,0.0
1513266040815864534,,596343,,1513266039,20063616,'',0.191986217719,0.210875440624,-0.000614038266728,0.0188892229045,0.001,113.151169596,-6000.0,0.0,-300.0,0.0
1513266040826245848,,596344,,1513266039,30063616,'',0.191986217719,0.210854798677,-0.000196044194953,0.0188685809572,0.001,113.153799124,-6000.0,0.0,-300.0,0.0
1513266040836203564,,596345,,1513266039,40063616,'',0.191986217719,0.210853047586,-0.000160485248583,0.0188668298671,0.001,113.153813566,-6000.0,0.0,-300.0,0.0
1513266040846131954,,596346,,1513266039,50063616,'',0.191986217719,0.210851614853,-0.000131391101238,0.0188653971341,0.001,113.152965199,-6000.0,0.0,-300.0,0.0
1513266040856248340,,596347,,1513266039,60063616,'',0.191986217719,0.210850441151,-0.00010755703,0.0188642234321,0.001,113.153019142,-6000.0,0.0,-300.0,0.0
1513266040866007098,,596348,,1513266039,70063616,'',0.191986217719,0.210849482673,-8.80934438986e-05,0.0188632649533,0.001,113.153750227,-6000.0,0.0,-300.0,0.0
1513266040875900266,,596349,,1513266039,80063616,'',0.191986217719,0.210848695879,-7.21162281994e-05,0.0188624781599,0.001,113.153259857,-6000.0,0.0,-300.0,0.0
1513266040886244866,,596350,,1513266039,90063616,'',0.191986217719,0.210848051729,-5.90356210866e-05,0.0188618340092,0.001,113.153314461,-6000.0,0.0,-300.0,0.0
1513266040896232304,,596351,,1513266039,100063616,'',0.191986217719,0.210830352578,0.000292129752521,0.018844134859,0.001,113.152656394,-6000.0,0.0,-300.0,0.0
1513266040906243638,,596352,,1513266039,110063616,'',0.191986217719,0.210833036328,0.000239127763313,0.0188468186088,0.001,113.15481705,-6000.0,0.0,-300.0,0.0
1513266040916166242,,596353,,1513266039,120063616,'',0.191986217719,0.21083523155,0.000195773823344,0.0188490138308,0.001,113.154343344,-6000.0,0.0,-300.0,0.0
1513266040926155425,,596354,,1513266039,130063616,'',0.191986217719,0.210819528389,-0.0172345674527,0.0188333106692,0.001,107.79892842,-6000.0,0.0,-300.0,0.0
1513266040936074964,,596355,,1513266039,140063616,'',0.191986217719,0.210824165003,0.000420792997005,0.0188379472834,0.001,113.152492274,-6000.0,0.0,-300.0,0.0
1513266040946034205,,596356,,1513266039,150063616,'',0.191986217719,0.210813294641,0.00063958431432,0.0188270769219,0.001,113.15723704,-6000.0,0.0,-300.0,0.0
1513266040956027507,,596357,,1513266039,160063616,'',0.191986217719,0.210819069659,0.000523614989472,0.0188328519397,0.001,113.155923477,-6000.0,0.0,-300.0,0.0
1513266040966058462,,596358,,1513266039,170063616,'',0.191986217719,0.210823790731,0.000428810178702,0.0188375730112,0.001,113.15552688,-6000.0,0.0,-300.0,0.0
1513266040975977803,,596359,,1513266039,180063616,'',0.191986217719,0.210842925821,4.70120950458e-05,0.0188567081021,0.001,113.153791079,-6000.0,0.0,-300.0,0.0
1513266040985907195,,596360,,1513266039,190063616,'',0.191986217719,0.210857823094,-0.000258387513251,0.0188716053746,0.001,113.152319604,-6000.0,0.0,-300.0,0.0
1513266040995867102,,596361,,1513266039,200063616,'',0.191986217719,0.210855527982,-0.000211613404977,0.0188693102628,0.001,113.152680705,-6000.0,0.0,-300.0,0.0
1513266041005846402,,596362,,1513266039,210063616,'',0.191986217719,0.210853644609,-0.000173230479533,0.0188674268895,0.001,113.152790732,-6000.0,0.0,-300.0,0.0
1513266041015801273,,596363,,1513266039,220063616,'',0.191986217719,0.210852103244,-0.000141817651905,0.018865885525,0.001,113.153011642,-6000.0,0.0,-300.0,0.0
1513266041026244750,,596364,,1513266039,230063616,'',0.191986217719,0.210850843204,-0.000116138181636,0.0188646254848,0.001,113.153809603,-6000.0,0.0,-300.0,0.0
1513266041035834733,,596365,,1513266039,240063616,'',0.191986217719,0.210849809656,-9.5074584882e-05,0.0188635919363,0.001,113.153165443,-6000.0,0.0,-300.0,0.0
1513266041045823670,,596366,,1513266039,250063616,'',0.191986217719,0.210832171048,0.00026125365983,0.0188459533284,0.001,113.154736395,-6000.0,0.0,-300.0,0.0
1513266041055935719,,596367,,1513266039,260063616,'',0.191986217719,0.21083452426,0.000213865851149,0.0188483065402,0.001,113.154461173,-6000.0,0.0,-300.0,0.0
1513266041065806365,,596368,,1513266039,270063616,'',0.191986217719,0.210836447107,0.00017514451074,0.0188502293874,0.001,113.15439973,-6000.0,0.0,-300.0,0.0
1513266041075725556,,596369,,1513266039,280063616,'',0.191986217719,0.210820527954,-0.0172515041077,0.0188343102346,0.001,107.800076904,-6000.0,0.0,-300.0,0.0
1513266041085727774,,596370,,1513266039,290063616,'',0.191986217719,0.210824981721,0.000406543446029,0.0188387640012,0.001,113.152563291,-6000.0,0.0,-300.0,0.0
1513266041096246012,,596371,,1513266039,300063616,'',0.191986217719,0.210828639607,0.000332789379932,0.0188424218873,0.001,113.154767299,-6000.0,0.0,-300.0,0.0
1513266041106245593,,596372,,1513266039,310063616,'',0.191986217719,0.210831633309,0.000272427277824,0.0188454155893,0.001,113.154785118,-6000.0,0.0,-300.0,0.0
1513266041116226335,,596373,,1513266039,320063616,'',0.191986217719,0.210849862815,-9.94428781588e-05,0.0188636450952,0.001,113.152520355,-6000.0,0.0,-300.0,0.0
1513266041126152575,,596374,,1513266039,330063616,'',0.191986217719,0.210849010798,-8.14857033572e-05,0.0188627930789,0.001,113.153188017,-6000.0,0.0,-300.0,0.0
1513266041136152495,,596375,,1513266039,340063616,'',0.191986217719,0.210848309451,-6.67040489523e-05,0.018862091732,0.001,113.153274137,-6000.0,0.0,-300.0,0.0
1513266041146093489,,596376,,1513266039,350063616,'',0.191986217719,0.210864914374,-0.000396923815884,0.018878696655,0.001,113.15479864,-6000.0,0.0,-300.0,0.0
1513266041156077532,,596377,,1513266039,360063616,'',0.191986217719,0.210877484856,-0.000651133481749,0.0188912671362,0.001,113.151197043,-6000.0,0.0,-300.0,0.0
1513266041166077812,,596378,,1513266039,370063616,'',0.191986217719,0.210871616748,-0.000532986188411,0.0188853990288,0.001,113.150969134,-6000.0,0.0,-300.0,0.0
1513266041175986640,,596379,,1513266039,380063616,'',0.191986217719,0.210866814331,-0.000436295285693,0.0188805966116,0.001,113.151344428,-6000.0,0.0,-300.0,0.0
1513266041185954483,,596380,,1513266039,390063616,'',0.191986217719,0.21086289329,-0.000357349839106,0.0188766755707,0.001,113.152263588,-6000.0,0.0,-300.0,0.0
1513266041195983290,,596381,,1513266039,400063616,'',0.191986217719,0.210859673703,-0.000292527324932,0.0188734559839,0.001,113.152414097,-6000.0,0.0,-300.0,0.0
1513266041205867974,,596382,,1513266039,410063616,'',0.191986217719,0.210874097066,0.0171597662603,0.018887879347,0.001,118.37273956,-6000.0,0.0,-300.0,0.0
