rosbagTimestamp,header,seq,stamp,secs,nsecs,frame_id,set_point,process_value,process_value_dot,error,time_step,command,p,i,d,i_clamp
1513266037285998137,,595998,,1513266035,490063616,'',1.308996939,1.30394467011,0.0338342660952,0.0,0.001,0.0,4500.0,0.0,0.0,0.0
1513266037295695436,,595999,,1513266035,500063616,'',1.308996939,1.30394467011,0.0332093273925,0.0,0.001,0.0,4500.0,0.0,0.0,0.0
1513266037305841512,,596000,,1513266035,510063616,'',1.308996939,1.30256677859,0.00594512318808,0.0,0.001,0.0,4500.0,0.0,0.0,0.0
1513266037315630093,,596001,,1513266035,520063616,'',1.308996939,1.30118888708,-0.0209818829438,0.0,0.001,0.0,4500.0,0.0,0.0,0.0
1513266037326160147,,596002,,1513266035,530063616,'',1.308996939,1.30118888708,-0.020171741127,0.0,0.001,0.0,4500.0,0.0,0.0,0.0
1513266037336022958,,596003,,1513266035,540063616,'',1.308996939,1.30256677859,0.00574552191531,0.0,0.001,0.0,4500.0,0.0,0.0,0.0
1513266037345988508,,596004,,1513266035,550063616,'',1.308996939,1.30256677859,0.00617553360842,0.0,0.001,0.0,4500.0,0.0,0.0,0.0
1513266037355892887,,596005,,1513266035,560063616,'',1.308996939,1.30256677859,0.00649990993312,0.0,0.001,0.0,4500.0,0.0,0.0,0.0
1513266037365867935,,596006,,1513266035,570063616,'',1.308996939,1.30118888708,-0.0199607947234,0.0,0.001,0.0,4500.0,0.0,0.0,0.0
1513266037375759694,,596007,,1513266035,580063616,'',1.308996939,1.30118888708,-0.0202436967337,0.0,0.001,0.0,4500.0,0.0,0.0,0.0
1513266037385888297,,596008,,1513266035,590063616,'',1.308996939,1.30256677859,0.00728296707461,0.0,0.001,0.0,4500.0,0.0,0.0,0.0
1513266037395609766,,596009,,1513266035,600063616,'',1.308996939,1.30256677859,0.00799255224012,0.0,0.001,0.0,4500.0,0.0,0.0,0.0
1513266037406008852,,596010,,1513266035,610063616,'',1.308996939,1.30256677859,0.00753609743651,0.0,0.001,0.0,4500.0,0.0,0.0,0.0
1513266037416522116,,596011,,1513266035,620063616,'',1.308996939,1.30256677859,0.00715461855761,0.0,0.001,0.0,4500.0,0.0,0.0,0.0
1513266037425964963,,596012,,1513266035,630063616,'',1.308996939,1.30256677859,0.00688013897852,0.0,0.001,0.0,4500.0,0.0,0.0,0.0
1513266037435886420,,596013,,1513266035,640063616,'',1.308996939,1.30118888708,-0.019659008854,0.0,0.001,0.0,4500.0,0.0,0.0,0.0
1513266037445668594,,596014,,1513266035,650063616,'',1.308996939,1.30256677859,0.00863735523237,0.0,0.001,0.0,4500.0,0.0,0.0,0.0
1513266037455773429,,596015,,1513266035,660063616,'',1.308996939,1.30118888708,-0.0181454387482,0.0,0.001,0.0,4500.0,0.0,0.0,0.0
1513266037465839892,,596016,,1513266035,670063616,'',1.308996939,1.30256677859,0.00897798481086,0.0,0.001,0.0,4500.0,0.0,0.0,0.0
1513266037475749692,,596017,,1513266035,680063616,'',1.308996939,1.30256677859,0.00888473935962,0.0,0.001,0.0,4500.0,0.0,0.0,0.0
1513266037486075953,,596018,,1513266035,690063616,'',1.308996939,1.30118888708,-0.0179540636761,0.0,0.001,0.0,4500.0,0.0,0.0,0.0
1513266037496019562,,596019,,1513266035,700063616,'',1.308996939,1.30118888708,-0.0182627047038,0.0,0.001,0.0,4500.0,0.0,0.0,0.0
1513266037505978102,,596020,,1513266035,710063616,'',1.308996939,1.30256677859,0.0102620715453,0.0,0.001,0.0,4500.0,0.0,0.0,0.0
1513266037515834105,,596021,,1513266035,720063616,'',1.308996939,1.30118888708,-0.0179525178372,0.0,0.001,0.0,4500.0,0.0,0.0,0.0
1513266037525852262,,596022,,1513266035,730063616,'',1.308996939,1.30256677859,0.0111101970512,0.0,0.001,0.0,4500.0,0.0,0.0,0.0
1513266037535795421,,596023,,1513266035,740063616,'',1.308996939,1.30118888708,-0.0166927142205,0.0,0.001,0.0,4500.0,0.0,0.0,0.0
1513266037546051328,,596024,,1513266035,750063616,'',1.308996939,1.30118888708,-0.0155837917634,0.0,0.001,0.0,4500.0,0.0,0.0,0.0
1513266037556016542,,596025,,1513266035,760063616,'',1.308996939,1.30256677859,0.0106034282795,0.0,0.001,0.0,4500.0,0.0,0.0,0.0
1513266037565911802,,596026,,1513266035,770063616,'',1.308996939,1.30118888708,-0.0180718971497,0.0,0.001,0.0,4500.0,0.0,0.0,0.0
1513266037575820353,,596027,,1513266035,780063616,'',1.308996939,1.30118888708,-0.0178324601764,0.0,0.001,0.0,4500.0,0.0,0.0,0.0
1513266037585705909,,596028,,1513266035,790063616,'',1.308996939,1.30256677859,0.00823302069353,0.0,0.001,0.0,4500.0,0.0,0.0,0.0
1513266037595606682,,596029,,1513266035,800063616,'',1.308996939,1.30256677859,0.00615468759747,0.0,0.001,0.0,4500.0,0.0,0.0,0.0
1513266037606010793,,596030,,1513266035,810063616,'',1.308996939,1.30256677859,0.00704601383522,0.0,0.001,0.0,4500.0,0.0,0.0,0.0
1513266037615910485,,596031,,1513266035,820063616,'',1.308996939,1.30118888708,-0.0190890059556,0.0,0.001,0.0,4500.0,0.0,0.0,0.0
1513266037625786079,,596032,,1513266035,830063616,'',1.308996939,1.30256677859,0.00675213113992,0.0,0.001,0.0,4500.0,0.0,0.0,0.0
1513266037635696451,,596033,,1513266035,840063616,'',1.308996939,1.30118888708,-0.0203119468031,0.0,0.001,0.0,4500.0,0.0,0.0,0.0
1513266037645683703,,596034,,1513266035,850063616,'',1.308996939,1.30118888708,-0.0200661484614,0.0,0.001,0.0,4500.0,0.0,0.0,0.0
1513266037655645891,,596035,,1513266035,860063616,'',1.308996939,1.30256677859,0.0073953766379,0.0,0.001,0.0,4500.0,0.0,0.0,0.0
1513266037665618511,,596036,,1513266035,870063616,'',1.308996939,1.30256677859,0.00860293704891,0.0,0.001,0.0,4500.0,0.0,0.0,0.0
1513266037676039459,,596037,,1513266035,880063616,'',1.308996939,1.30394467011,0.0348822208967,0.0,0.001,0.0,4500.0,0.0,0.0,0.0
1513266037686033577,,596038,,1513266035,890063616,'',1.308996939,1.30256677859,0.00779232940891,0.0,0.001,0.0,4500.0,0.0,0.0,0.0
1513266037696031414,,596039,,1513266035,900063616,'',1.308996939,1.30256677859,0.00843993201998,0.0,0.001,0.0,4500.0,0.0,0.0,0.0
1513266037705931128,,596040,,1513266035,910063616,'',1.308996939,1.30256677859,0.00834940504295,0.0,0.001,0.0,4500.0,0.0,0.0,0.0
1513266037715840954,,596041,,1513266035,920063616,'',1.308996939,1.30256677859,0.00475484608803,0.0,0.001,0.0,4500.0,0.0,0.0,0.0
1513266037725815176,,596042,,1513266035,930063616,'',1.308996939,1.30256677859,0.00436451213773,0.0,0.001,0.0,4500.0,0.0,0.0,0.0
1513266037735842863,,596043,,1513266035,940063616,'',1.308996939,1.30118888708,-0.0247258216386,0.0,0.001,0.0,4500.0,0.0,0.0,0.0
1513266037745668607,,596044,,1513266035,950063616,'',1.308996939,1.30256677859,0.000565303672102,0.0,0.001,0.0,4500.0,0.0,0.0,0.0
1513266037755972409,,596045,,1513266035,960063616,'',1.308996939,1.30118888708,-0.0258813360892,0.0,0.001,0.0,4500.0,0.0,0.0,0.0
1513266037765861580,,596046,,1513266035,970063616,'',1.308996939,1.30118888708,-0.0256460595781,0.0,0.001,0.0,4500.0,0.0,0.0,0.0
1513266037775770840,,596047,,1513266035,980063616,'',1.308996939,1.30256677859,0.00333549473072,0.0,0.001,0.0,4500.0,0.0,0.0,0.0
1513266037785777115,,596048,,1513266035,990063616,'',1.308996939,1.30256677859,0.00375463280728,0.0,0.001,0.0,4500.0,0.0,0.0,0.0
1513266037795790520,,596049,,1513266036,63616,'',1.308996939,1.30256677859,0.00451119406174,0.0,0.001,0.0,4500.0,0.0,0.0,0.0
1513266037805697729,,596050,,1513266036,10063616,'',1.308996939,1.30256677859,0.00411558839469,0.0,0.001,0.0,4500.0,0.0,0.0,0.0
1513266037816144970,,596051,,1513266036,20063616,'',1.308996939,1.30118888708,-0.0224166396218,0.0,0.001,0.0,4500.0,0.0,0.0,0.0
1513266037826128247,,596052,,1513266036,30063616,'',1.308996939,1.30256677859,0.0039431621254,0.0,0.001,0.0,4500.0,0.0,0.0,0.0
1513266037835980981,,596053,,1513266036,40063616,'',1.308996939,1.30256677859,0.00321315977378,0.0,0.001,0.0,4500.0,0.0,0.0,0.0
1513266037846004265,,596054,,1513266036,50063616,'',1.308996939,1.30256677859,0.0041314229497,0.0,0.001,0.0,4500.0,0.0,0.0,0.0
1513266037855987066,,596055,,1513266036,60063616,'',1.308996939,1.30256677859,0.00391654075579,0.0,0.001,0.0,4500.0,0.0,0.0,0.0
1513266037865899228,,596056,,1513266036,70063616,'',1.308996939,1.30118888708,-0.0235112145211,0.0,0.001,0.0,4500.0,0.0,0.0,0.0
1513266037875715231,,596057,,1513266036,80063616,'',1.308996939,1.30256677859,0.00200191467949,0.0,0.001,0.0,4500.0,0.0,0.0,0.0
1513266037885716744,,596058,,1513266036,90063616,'',1.308996939,1.30256677859,0.0025871708486,0.0,0.001,0.0,4500.0,0.0,0.0,0.0
1513266037896091009,,596059,,1513266036,100063616,'',1.308996939,1.30256677859,0.00208385347217,0.0,0.001,0.0,4500.0,0.0,0.0,0.0
1513266037905970496,,596060,,1513266036,110063616,'',1.308996939,1.30118888708,-0.0251168209948,0.0,0.001,0.0,4500.0,0.0,0.0,0.0
1513266037916015504,,596061,,1513266036,120063616,'',1.308996939,1.30394467011,0.0295067504292,0.0,0.001,0.0,4500.0,0.0,0.0,0.0
1513266037925896331,,596062,,1513266036,130063616,'',1.308996939,1.30256677859,0.0012758722295,0.0,0.001,0.0,4500.0,0.0,0.0,0.0
1513266037935825186,,596063,,1513266036,140063616,'',1.308996939,1.30256677859,0.00246474071624,0.0,0.001,0.0,4500.0,0.0,0.0,0.0
1513266037945755990,,596064,,1513266036,150063616,'',1.308996939,1.30118888708,-0.0243301119541,0.0,0.001,0.0,4500.0,0.0,0.0,0.0
1513266037955717758,,596065,,1513266036,160063616,'',1.308996939,1.30118888708,-0.0228499606479,0.0,0.001,0.0,4500.0,0.0,0.0,0.0
1513266037965618460,,596066,,1513266036,170063616,'',1.308996939,1.30256677859,0.00610656011281,0.0,0.001,0.0,4500.0,0.0,0.0,0.0
1513266037976259536,,596067,,1513266036,180063616,'',1.308996939,1.30394467011,0.0343420346361,0.0,0.001,0.0,4500.0,0.0,0.0,0.0
1513266037986088264,,596068,,1513266036,190063616,'',1.308996939,1.30256677859,0.00674757905267,0.0,0.001,0.0,4500.0,0.0,0.0,0.0
1513266037995913902,,596069,,1513266036,200063616,'',1.308996939,1.30256677859,0.00757262693083,0.0,0.001,0.0,4500.0,0.0,0.0,0.0
1513266038005875708,,596070,,1513266036,210063616,'',1.308996939,1.30256677859,0.00670163130458,0.0,0.001,0.0,4500.0,0.0,0.0,0.0
1513266038015858247,,596071,,1513266036,220063616,'',1.308996939,1.30118888708,-0.0202621474461,0.0,0.001,0.0,4500.0,0.0,0.0,0.0
1513266038025774270,,596072,,1513266036,230063616,'',1.308996939,1.30256677859,0.00468569989443,0.0,0.001,0.0,4500.0,0.0,0.0,0.0
1513266038035841155,,596073,,1513266036,240063616,'',1.308996939,1.30118888708,-0.0220230055248,0.0,0.001,0.0,4500.0,0.0,0.0,0.0
1513266038045739067,,596074,,1513266036,250063616,'',1.308996939,1.30256677859,0.00528212983119,0.0,0.001,0.0,4500.0,0.0,0.0,0.0
1513266038055775718,,596075,,1513266036,260063616,'',1.308996939,1.30256677859,0.00433746993451,0.0,0.001,0.0,4500.0,0.0,0.0,0.0
1513266038065811703,,596076,,1513266036,270063616,'',1.308996939,1.30256677859,0.00162855522579,0.0,0.001,0.0,4500.0,0.0,0.0,0.0
1513266038075720111,,596077,,1513266036,280063616,'',1.308996939,1.30394467011,0.027152903771,0.0,0.001,0.0,4500.0,0.0,0.0,0.0
1513266038086184567,,596078,,1513266036,290063616,'',1.308996939,1.30394467011,0.022181358874,0.0,0.001,0.0,4500.0,0.0,0.0,0.0
1513266038096082992,,596079,,1513266036,300063616,'',1.308996939,1.30394467011,0.0201119431697,0.0,0.001,0.0,4500.0,0.0,0.0,0.0
1513266038105940680,,596080,,1513266036,310063616,'',1.308996939,1.30394467011,0.0174064444381,0.0,0.001,0.0,4500.0,0.0,0.0,0.0
1513266038115922704,,596081,,1513266036,320063616,'',1.308996939,1.30256677859,-0.0120287012512,0.0,0.001,0.0,4500.0,0.0,0.0,0.0
1513266038125969897,,596082,,1513266036,330063616,'',1.308996939,1.30256677859,-0.0129019805726,0.0,0.001,0.0,4500.0,0.0,0.0,0.0
1513266038135836620,,596083,,1513266036,340063616,'',1.308996939,1.30394467011,0.0116807197063,0.0,0.001,0.0,4500.0,0.0,0.0,0.0
1513266038145816978,,596084,,1513266036,350063616,'',1.308996939,1.30256677859,-0.02026746941,0.0,0.001,0.0,4500.0,0.0,0.0,0.0
1513266038155910370,,596085,,1513266036,360063616,'',1.308996939,1.30394467011,0.00621196250453,0.0,0.001,0.0,4500.0,0.0,0.0,0.0
1513266038165791811,,596086,,1513266036,370063616,'',1.308996939,1.30394467011,0.007103611955,0.0,0.001,0.0,4500.0,0.0,0.0,0.0
1513266038175714599,,596087,,1513266036,380063616,'',1.308996939,1.30256677859,-0.0199636416548,0.0,0.001,0.0,4500.0,0.0,0.0,0.0
1513266038186115389,,596088,,1513266036,390063616,'',1.308996939,1.30394467011,0.00743048246088,0.0,0.001,0.0,4500.0,0.0,0.0,0.0
1513266038196174070,,596089,,1513266036,400063616,'',1.308996939,1.30394467011,0.00705273138447,0.0,0.001,0.0,4500.0,0.0,0.0,0.0
1513266038206256047,,596090,,1513266036,410063616,'',1.308996939,1.30394467011,0.00524729203697,0.0,0.001,0.0,4500.0,0.0,0.0,0.0
1513266038216052639,,596091,,1513266036,420063616,'',1.308996939,1.30394467011,0.00330465121498,0.0,0.001,0.0,4500.0,0.0,0.0,0.0
1513266038225981472,,596092,,1513266036,430063616,'',1.308996939,1.30256677859,-0.0230478861302,0.0,0.001,0.0,4500.0,0.0,0.0,0.0
1513266038235919144,,596093,,1513266036,440063616,'',1.308996939,1.30394467011,0.00438541630575,0.0,0.001,0.0,4500.0,0.0,0.0,0.0
1513266038245933898,,596094,,1513266036,450063616,'',1.308996939,1.30532256162,0.0314408426108,0.0,0.001,0.0,4500.0,0.0,0.0,0.0
1513266038255770699,,596095,,1513266036,460063616,'',1.308996939,1.30394467011,0.00245971542413,0.0,0.001,0.0,4500.0,0.0,0.0,0.0
1513266038265738699,,596096,,1513266036,470063616,'',1.308996939,1.30394467011,0.00151089067565,0.0,0.001,0.0,4500.0,0.0,0.0,0.0
1513266038275714848,,596097,,1513266036,480063616,'',1.308996939,1.30394467011,0.000248747745619,0.0,0.001,0.0,4500.0,0.0,0.0,0.0
1513266038286161884,,596098,,1513266036,490063616,'',1.308996939,1.30256677859,-0.0290667762924,0.0,0.001,0.0,4500.0,0.0,0.0,0.0
1513266038296075372,,596099,,1513266036,500063616,'',1.308996939,1.30532256162,0.0253114449749,0.0,0.001,0.0,4500.0,0.0,0.0,0.0
1513266038306158326,,596100,,1513266036,510063616,'',1.308996939,1.30532256162,0.0242400316026,0.0,0.001,0.0,4500.0,0.0,0.0,0.0
1513266038315837793,,596101,,1513266036,520063616,'',1.308996939,1.30394467011,-0.00402125153781,0.0,0.001,0.0,4500.0,0.0,0.0,0.0
1513266038325999727,,596102,,1513266036,530063616,'',1.308996939,1.30394467011,-0.00433185087428,0.0,0.001,0.0,4500.0,0.0,0.0,0.0
1513266038335859176,,596103,,1513266036,540063616,'',1.308996939,1.30394467011,-0.00462608967659,0.0,0.001,0.0,4500.0,0.0,0.0,0.0
1513266038345692248,,596104,,1513266036,550063616,'',1.308996939,1.30394467011,-0.00473691797093,0.0,0.001,0.0,4500.0,0.0,0.0,0.0
1513266038355807898,,596105,,1513266036,560063616,'',1.308996939,1.30394467011,-0.0057978473785,0.0,0.001,0.0,4500.0,0.0,0.0,0.0
1513266038365812772,,596106,,1513266036,570063616,'',1.308996939,1.30394467011,-0.00816989033229,0.0,0.001,0.0,4500.0,0.0,0.0,0.0
1513266038376128350,,596107,,1513266036,580063616,'',1.308996939,1.30532256162,0.0182015102468,0.0,0.001,0.0,4500.0,0.0,0.0,0.0
1513266038386112818,,596108,,1513266036,590063616,'',1.308996939,1.30394467011,-0.00881750208659,0.0,0.001,0.0,4500.0,0.0,0.0,0.0
1513266038396014104,,596109,,1513266036,600063616,'',1.308996939,1.30394467011,-0.010178318124,0.0,0.001,0.0,4500.0,0.0,0.0,0.0
1513266038405879008,,596110,,1513266036,610063616,'',1.308996939,1.30394467011,-0.0113596786925,0.0,0.001,0.0,4500.0,0.0,0.0,0.0
1513266038415864940,,596111,,1513266036,620063616,'',1.308996939,1.30532256162,0.0144678281367,0.0,0.001,0.0,4500.0,0.0,0.0,0.0
1513266038425731880,,596112,,1513266036,630063616,'',1.308996939,1.30532256162,0.0127632019163,0.0,0.001,0.0,4500.0,0.0,0.0,0.0
1513266038435749914,,596113,,1513266036,640063616,'',1.308996939,1.30394467011,-0.0153631231965,0.0,0.001,0.0,4500.0,0.0,0.0,0.0
1513266038446211404,,596114,,1513266036,650063616,'',1.308996939,1.30532256162,0.0111803683949,0.0,0.001,0.0,4500.0,0.0,0.0,0.0
1513266038456266835,,596115,,1513266036,660063616,'',1.308996939,1.30532256162,0.0111792379164,0.0,0.001,0.0,4500.0,0.0,0.0,0.0
1513266038466037820,,596116,,1513266036,670063616,'',1.308996939,1.30532256162,0.010139739922,0.0,0.001,0.0,4500.0,0.0,0.0,0.0
1513266038476068417,,596117,,1513266036,680063616,'',1.308996939,1.30670045314,0.0351310299491,0.0,0.001,0.0,4500.0,0.0,0.0,0.0
1513266038486055020,,596118,,1513266036,690063616,'',1.308996939,1.30532256162,0.00652250742953,0.0,0.001,0.0,4500.0,0.0,0.0,0.0
1513266038495949601,,596119,,1513266036,700063616,'',1.308996939,1.30670045314,0.0326938363136,0.0,0.001,0.0,4500.0,0.0,0.0,0.0
1513266038505866838,,596120,,1513266036,710063616,'',1.308996939,1.30670045314,0.0301866500586,0.0,0.001,0.0,4500.0,0.0,0.0,0.0
1513266038515919974,,596121,,1513266036,720063616,'',1.308996939,1.30670045314,0.0271579466193,0.0,0.001,0.0,4500.0,0.0,0.0,0.0
1513266038525836492,,596122,,1513266036,730063616,'',1.308996939,1.30670045314,0.023339498668,0.0,0.001,0.0,4500.0,0.0,0.0,0.0
1513266038535753187,,596123,,1513266036,740063616,'',1.308996939,1.30532256162,-0.00615085013368,0.0,0.001,0.0,4500.0,0.0,0.0,0.0
1513266038545659477,,596124,,1513266036,750063616,'',1.308996939,1.30532256162,-0.00702601880205,0.0,0.001,0.0,4500.0,0.0,0.0,0.0
1513266038555707800,,596125,,1513266036,760063616,'',1.308996939,1.30532256162,-0.00919539951042,0.0,0.001,0.0,4500.0,0.0,0.0,0.0
1513266038565666971,,596126,,1513266036,770063616,'',1.308996939,1.30532256162,-0.0110877707959,0.0,0.001,0.0,4500.0,0.0,0.0,0.0
1513266038576097057,,596127,,1513266036,780063616,'',1.308996939,1.30670045314,0.0142216723471,0.0,0.001,0.0,4500.0,0.0,0.0,0.0
1513266038586116183,,596128,,1513266036,790063616,'',1.308996939,1.30670045314,0.0122091839933,0.0,0.001,0.0,4500.0,0.0,0.0,0.0
1513266038595980856,,596129,,1513266036,800063616,'',1.308996939,1.30532256162,-0.0162289564768,0.0,0.001,0.0,4500.0,0.0,0.0,0.0
1513266038605986346,,596130,,1513266036,810063616,'',1.308996939,1.30670045314,0.0129197299176,0.0,0.001,0.0,4500.0,0.0,0.0,0.0
1513266038615830687,,596131,,1513266036,820063616,'',1.308996939,1.30670045314,0.0125168619182,0.0,0.001,0.0,4500.0,0.0,0.0,0.0
1513266038625929220,,596132,,1513266036,830063616,'',1.308996939,1.30670045314,0.0111896954068,0.0,0.001,0.0,4500.0,0.0,0.0,0.0
1513266038635712999,,596133,,1513266036,840063616,'',1.308996939,1.30670045314,0.00813785902345,0.0,0.001,0.0,4500.0,0.0,0.0,0.0
1513266038645650840,,596134,,1513266036,850063616,'',1.308996939,1.30670045314,0.00816467073557,0.0,0.001,0.0,4500.0,0.0,0.0,0.0
1513266038656459167,,596135,,1513266036,860063616,'',1.308996939,1.30532256162,-0.020585706543,0.0,0.001,0.0,4500.0,0.0,0.0,0.0
1513266038665846252,,596136,,1513266036,870063616,'',1.308996939,1.30670045314,0.00492046835805,0.0,0.001,0.0,4500.0,0.0,0.0,0.0
1513266038675930641,,596137,,1513266036,880063616,'',1.308996939,1.30807834465,0.0303653947836,0.0,0.001,0.0,4500.0,0.0,0.0,0.0
1513266038686110992,,596138,,1513266036,890063616,'',1.308996939,1.30807834465,0.0273150071401,0.0,0.001,0.0,4500.0,0.0,0.0,0.0
1513266038696058619,,596139,,1513266036,900063616,'',1.308996939,1.30945623617,0.0490081417706,0.0,0.001,0.0,4500.0,0.0,0.0,0.0
1513266038705998488,,596140,,1513266036,910063616,'',1.308996939,1.30807834465,0.0159000219502,0.0,0.001,0.0,4500.0,0.0,0.0,0.0
1513266038715907995,,596141,,1513266036,920063616,'',1.308996939,1.30807834465,0.00904479851056,0.0,0.001,0.0,4500.0,0.0,0.0,0.0
1513266038725912473,,596142,,1513266036,930063616,'',1.308996939,1.30807834465,0.00345408656214,0.0,0.001,0.0,4500.0,0.0,0.0,0.0
1513266038735804854,,596143,,1513266036,940063616,'',1.308996939,1.30945623617,0.0256175069667,0.0,0.001,0.0,4500.0,0.0,0.0,0.0
1513266038745881996,,596144,,1513266036,950063616,'',1.308996939,1.30945623617,0.0209560058133,0.0,0.001,0.0,4500.0,0.0,0.0,0.0
1513266038755741442,,596145,,1513266036,960063616,'',1.308996939,1.30945623617,0.0161610839986,0.0,0.001,0.0,4500.0,0.0,0.0,0.0
1513266038765689617,,596146,,1513266036,970063616,'',1.308996939,1.31083412768,0.0385825188401,0.0,0.001,0.0,4500.0,0.0,0.0,0.0
1513266038775818053,,596147,,1513266036,980063616,'',1.308996939,1.30945623617,0.00736876272729,0.0,0.001,0.0,4500.0,0.0,0.0,0.0
1513266038785842892,,596148,,1513266036,990063616,'',1.308996939,1.31083412768,0.0313215555331,0.0,0.001,0.0,4500.0,0.0,0.0,0.0
1513266038795654356,,596149,,1513266037,63616,'',1.308996939,1.31083412768,0.0276242825251,0.0,0.001,0.0,4500.0,0.0,0.0,0.0
1513266038806221243,,596150,,1513266037,10063616,'',1.308996939,1.30945623617,-0.00165625266968,0.0,0.001,0.0,4500.0,0.0,0.0,0.0
1513266038816085151,,596151,,1513266037,20063616,'',1.308996939,1.31083412768,0.0233122490707,0.0,0.001,0.0,4500.0,0.0,0.0,0.0
1513266038826062544,,596152,,1513266037,30063616,'',1.308996939,1.30807834465,-0.0330409737238,0.0,0.001,0.0,4500.0,0.0,0.0,0.0
1513266038835854060,,596153,,1513266037,40063616,'',1.308996939,1.31083412768,0.0199842078102,0.0,0.001,0.0,4500.0,0.0,0.0,0.0
1513266038845846290,,596154,,1513266037,50063616,'',1.308996939,1.30945623617,-0.00898031067247,0.0,0.001,0.0,4500.0,0.0,0.0,0.0
1513266038855940978,,596155,,1513266037,60063616,'',1.308996939,1.31083412768,0.0164178709814,0.0,0.001,0.0,4500.0,0.0,0.0,0.0
1513266038865895935,,596156,,1513266037,70063616,'',1.308996939,1.31083412768,0.0144561686448,0.0,0.001,0.0,4500.0,0.0,0.0,0.0
1513266038875835152,,596157,,1513266037,80063616,'',1.308996939,1.31083412768,0.0138596467652,0.0,0.001,0.0,4500.0,0.0,0.0,0.0
1513266038885800993,,596158,,1513266037,90063616,'',1.308996939,1.31083412768,0.0118886887329,0.0,0.001,0.0,4500.0,0.0,0.0,0.0
1513266038896118802,,596159,,1513266037,100063616,'',1.308996939,1.31083412768,0.011260782725,0.0,0.001,0.0,4500.0,0.0,0.0,0.0
1513266038906130590,,596160,,1513266037,110063616,'',1.308996939,1.31083412768,0.00925192345596,0.0,0.001,0.0,4500.0,0.0,0.0,0.0
1513266038915867776,,596161,,1513266037,120063616,'',1.308996939,1.31083412768,0.00949926951821,0.0,0.001,0.0,4500.0,0.0,0.0,0.0
1513266038925939713,,596162,,1513266037,130063616,'',1.308996939,1.30945623617,-0.0185118117655,0.0,0.001,0.0,4500.0,0.0,0.0,0.0
1513266038935802119,,596163,,1513266037,140063616,'',1.308996939,1.30945623617,-0.01964875993,0.0,0.001,0.0,4500.0,0.0,0.0,0.0
1513266038945722199,,596164,,1513266037,150063616,'',1.308996939,1.31083412768,0.00673288754568,0.0,0.001,0.0,4500.0,0.0,0.0,0.0
1513266038956145788,,596165,,1513266037,160063616,'',1.308996939,1.31083412768,0.00354886999118,0.0,0.001,0.0,4500.0,0.0,0.0,0.0
1513266038966103289,,596166,,1513266037,170063616,'',1.308996939,1.31083412768,0.00189843995391,0.0,0.001,0.0,4500.0,0.0,0.0,0.0
1513266038976013399,,596167,,1513266037,180063616,'',1.308996939,1.31083412768,0.00308513648967,0.0,0.001,0.0,4500.0,0.0,0.0,0.0
1513266038986004674,,596168,,1513266037,190063616,'',1.308996939,1.31083412768,0.00301176831235,0.0,0.001,0.0,4500.0,0.0,0.0,0.0
1513266038995929998,,596169,,1513266037,200063616,'',1.308996939,1.31083412768,0.000988729352481,0.0,0.001,0.0,4500.0,0.0,0.0,0.0
1513266039005753460,,596170,,1513266037,210063616,'',1.308996939,1.3122120192,0.0275482858098,0.0,0.001,0.0,4500.0,0.0,0.0,0.0
1513266039015839955,,596171,,1513266037,220063616,'',1.308996939,1.31083412768,-0.000812781753504,0.0,0.001,0.0,4500.0,0.0,0.0,0.0
1513266039025791707,,596172,,1513266037,230063616,'',1.308996939,1.3122120192,0.0240439521909,0.0,0.001,0.0,4500.0,0.0,0.0,0.0
1513266039035725257,,596173,,1513266037,240063616,'',1.308996939,1.31083412768,-0.00409812011845,0.0,0.001,0.0,4500.0,0.0,0.0,0.0
1513266039045789131,,596174,,1513266037,250063616,'',1.308996939,1.30945623617,-0.0330387804351,0.0,0.001,0.0,4500.0,0.0,0.0,0.0
1513266039055747008,,596175,,1513266037,260063616,'',1.308996939,1.31083412768,-0.00575698988189,0.0,0.001,0.0,4500.0,0.0,0.0,0.0
1513266039066026831,,596176,,1513266037,270063616,'',1.308996939,1.31083412768,-0.00617666567466,0.0,0.001,0.0,4500.0,0.0,0.0,0.0
1513266039075931413,,596177,,1513266037,280063616,'',1.308996939,1.3122120192,0.0201890461963,0.0,0.001,0.0,4500.0,0.0,0.0,0.0
1513266039085869357,,596178,,1513266037,290063616,'',1.308996939,1.3122120192,0.0194797556893,0.0,0.001,0.0,4500.0,0.0,0.0,0.0
1513266039095923100,,596179,,1513266037,300063616,'',1.308996939,1.3122120192,0.0185436725854,0.0,0.001,0.0,4500.0,0.0,0.0,0.0
1513266039105855791,,596180,,1513266037,310063616,'',1.308996939,1.3122120192,0.0176603242059,0.0,0.001,0.0,4500.0,0.0,0.0,0.0
1513266039115954108,,596181,,1513266037,320063616,'',1.308996939,1.31083412768,-0.0114332917093,0.0,0.001,0.0,4500.0,0.0,0.0,0.0
1513266039126198108,,596182,,1513266037,330063616,'',1.308996939,1.3122120192,0.0159577033937,0.0,0.001,0.0,4500.0,0.0,0.0,0.0
1513266039136095208,,596183,,1513266037,340063616,'',1.308996939,1.31083412768,-0.0122567788725,0.0,0.001,0.0,4500.0,0.0,0.0,0.0
1513266039146017669,,596184,,1513266037,350063616,'',1.308996939,1.3122120192,0.0123967171684,0.0,0.001,0.0,4500.0,0.0,0.0,0.0
1513266039156258208,,596185,,1513266037,360063616,'',1.308996939,1.31083412768,-0.0176583607039,0.0,0.001,0.0,4500.0,0.0,0.0,0.0
1513266039166089001,,596186,,1513266037,370063616,'',1.308996939,1.31083412768,-0.0198923002302,0.0,0.001,0.0,4500.0,0.0,0.0,0.0
1513266039176039277,,596187,,1513266037,380063616,'',1.308996939,1.31083412768,-0.0207164838035,0.0,0.001,0.0,4500.0,0.0,0.0,0.0
1513266039185946924,,596188,,1513266037,390063616,'',1.308996939,1.3122120192,0.0083849277657,0.0,0.001,0.0,4500.0,0.0,0.0,0.0
1513266039195813527,,596189,,1513266037,400063616,'',1.308996939,1.3122120192,0.00784260762566,0.0,0.001,0.0,4500.0,0.0,0.0,0.0
1513266039206314802,,596190,,1513266037,410063616,'',1.308996939,1.3122120192,0.00734130620417,0.0,0.001,0.0,4500.0,0.0,0.0,0.0
1513266039216166306,,596191,,1513266037,420063616,'',1.308996939,1.3122120192,0.00503814053377,0.0,0.001,0.0,4500.0,0.0,0.0,0.0
1513266039226031630,,596192,,1513266037,430063616,'',1.308996939,1.3122120192,0.00461182195436,0.0,0.001,0.0,4500.0,0.0,0.0,0.0
1513266039235977014,,596193,,1513266037,440063616,'',1.308996939,1.3122120192,0.00422995201887,0.0,0.001,0.0,4500.0,0.0,0.0,0.0
1513266039245853265,,596194,,1513266037,450063616,'',1.308996939,1.3122120192,0.00341721045715,0.0,0.001,0.0,4500.0,0.0,0.0,0.0
1513266039255834065,,596195,,1513266037,460063616,'',1.308996939,1.3122120192,0.00282633328853,0.0,0.001,0.0,4500.0,0.0,0.0,0.0
1513266039265671482,,596196,,1513266037,470063616,'',1.308996939,1.3122120192,0.00139765504603,0.0,0.001,0.0,4500.0,0.0,0.0,0.0
1513266039275664145,,596197,,1513266037,480063616,'',1.308996939,1.31358991071,0.0284926182591,0.0,0.001,0.0,4500.0,0.0,0.0,0.0
1513266039286001792,,596198,,1513266037,490063616,'',1.308996939,1.3122120192,-0.00153463336378,0.0,0.001,0.0,4500.0,0.0,0.0,0.0
1513266039295979692,,596199,,1513266037,500063616,'',1.308996939,1.31358991071,0.0244801965068,0.0,0.001,0.0,4500.0,0.0,0.0,0.0
1513266039305946011,,596200,,1513266037,510063616,'',1.308996939,1.31358991071,0.0235314772856,0.0,0.001,0.0,4500.0,0.0,0.0,0.0
1513266039315841353,,596201,,1513266037,520063616,'',1.308996939,1.3122120192,-0.00404735505925,0.0,0.001,0.0,4500.0,0.0,0.0,0.0
1513266039325693022,,596202,,1513266037,530063616,'',1.308996939,1.3122120192,-0.00582894601466,0.0,0.001,0.0,4500.0,0.0,0.0,0.0
1513266039335697729,,596203,,1513266037,540063616,'',1.308996939,1.3122120192,-0.00679655651371,0.0,0.001,0.0,4500.0,0.0,0.0,0.0
1513266039345657133,,596204,,1513266037,550063616,'',1.308996939,1.3122120192,-0.0070467720923,0.0,0.001,0.0,4500.0,0.0,0.0,0.0
1513266039356171377,,596205,,1513266037,560063616,'',1.308996939,1.31358991071,0.0175514386221,0.0,0.001,0.0,4500.0,0.0,0.0,0.0
1513266039365994425,,596206,,1513266037,570063616,'',1.308996939,1.31496780223,0.0427988261074,0.0,0.001,0.0,4500.0,0.0,0.0,0.0
1513266039375968866,,596207,,1513266037,580063616,'',1.308996939,1.31358991071,0.0152709465011,0.0,0.001,0.0,4500.0,0.0,0.0,0.0
1513266039385862973,,596208,,1513266037,590063616,'',1.308996939,1.31358991071,0.0114257596315,0.0,0.001,0.0,4500.0,0.0,0.0,0.0
1513266039395748663,,596209,,1513266037,600063616,'',1.308996939,1.31358991071,0.00931338291926,0.0,0.001,0.0,4500.0,0.0,0.0,0.0
1513266039405736618,,596210,,1513266037,610063616,'',1.308996939,1.31358991071,0.0080853770262,0.0,0.001,0.0,4500.0,0.0,0.0,0.0
1513266039415688975,,596211,,1513266037,620063616,'',1.308996939,1.31358991071,0.00614647644734,0.0,0.001,0.0,4500.0,0.0,0.0,0.0
1513266039426199163,,596212,,1513266037,630063616,'',1.308996939,1.31358991071,0.00446231441532,0.0,0.001,0.0,4500.0,0.0,0.0,0.0
1513266039435943632,,596213,,1513266037,640063616,'',1.308996939,1.31358991071,0.00366944132174,0.0,0.001,0.0,4500.0,0.0,0.0,0.0
1513266039445913862,,596214,,1513266037,650063616,'',1.308996939,1.3122120192,-0.0242778482203,0.0,0.001,0.0,4500.0,0.0,0.0,0.0
1513266039455870420,,596215,,1513266037,660063616,'',1.308996939,1.31358991071,0.00194562506949,0.0,0.001,0.0,4500.0,0.0,0.0,0.0
1513266039465873425,,596216,,1513266037,670063616,'',1.308996939,1.31358991071,0.00066957365307,0.0,0.001,0.0,4500.0,0.0,0.0,0.0
1513266039475905015,,596217,,1513266037,680063616,'',1.308996939,1.31358991071,-0.000401857114123,0.0,0.001,0.0,4500.0,0.0,0.0,0.0
1513266039485711499,,596218,,1513266037,690063616,'',1.308996939,1.31358991071,-0.000348474882273,0.0,0.001,0.0,4500.0,0.0,0.0,0.0
1513266039496077632,,596219,,1513266037,700063616,'',1.308996939,1.3122120192,-0.0280947985415,0.0,0.001,0.0,4500.0,0.0,0.0,0.0
1513266039505996361,,596220,,1513266037,710063616,'',1.308996939,1.31358991071,-0.000760633140322,0.0,0.001,0.0,4500.0,0.0,0.0,0.0
1513266039516011380,,596221,,1513266037,720063616,'',1.308996939,1.31358991071,-0.00214680303019,0.0,0.001,0.0,4500.0,0.0,0.0,0.0
1513266039525701008,,596222,,1513266037,730063616,'',1.308996939,1.31358991071,-0.00175733554735,0.0,0.001,0.0,4500.0,0.0,0.0,0.0
1513266039535766980,,596223,,1513266037,740063616,'',1.308996939,1.31358991071,-0.00195018913881,0.0,0.001,0.0,4500.0,0.0,0.0,0.0
1513266039545661764,,596224,,1513266037,750063616,'',1.308996939,1.31358991071,-0.00411733084419,0.0,0.001,0.0,4500.0,0.0,0.0,0.0
1513266039556172256,,596225,,1513266037,760063616,'',1.308996939,1.31358991071,-0.00435299605313,0.0,0.001,0.0,4500.0,0.0,0.0,0.0
1513266039565984418,,596226,,1513266037,770063616,'',1.308996939,1.31358991071,-0.00403117865216,0.0,0.001,0.0,4500.0,0.0,0.0,0.0
1513266039575871611,,596227,,1513266037,780063616,'',1.308996939,1.31358991071,-0.00232448681592,0.0,0.001,0.0,4500.0,0.0,0.0,0.0
1513266039585941231,,596228,,1513266037,790063616,'',1.308996939,1.31358991071,-0.00289037232714,0.0,0.001,0.0,4500.0,0.0,0.0,0.0
1513266039595947654,,596229,,1513266037,800063616,'',1.308996939,1.31358991071,-0.00391386406489,0.0,0.001,0.0,4500.0,0.0,0.0,0.0
1513266039605691967,,596230,,1513266037,810063616,'',1.308996939,1.31634569374,0.0517903569884,0.0,0.001,0.0,4500.0,0.0,0.0,0.0
1513266039615795814,,596231,,1513266037,820063616,'',1.308996939,1.3122120192,-0.0309835500415,0.0,0.001,0.0,4500.0,0.0,0.0,0.0
1513266039625792589,,596232,,1513266037,830063616,'',1.308996939,1.31496780223,0.0232945984899,0.0,0.001,0.0,4500.0,0.0,0.0,0.0
1513266039635676144,,596233,,1513266037,840063616,'',1.308996939,1.31358991071,-0.00365360667797,0.0,0.001,0.0,4500.0,0.0,0.0,0.0
1513266039646225384,,596234,,1513266037,850063616,'',1.308996939,1.31358991071,-0.00555884128774,0.0,0.001,0.0,4500.0,0.0,0.0,0.0
1513266039655697265,,596235,,1513266037,860063616,'',1.308996939,1.3122120192,-0.0333421362198,0.0,0.001,0.0,4500.0,0.0,0.0,0.0
1513266039665820969,,596236,,1513266037,870063616,'',1.308996939,1.31358991071,-0.00602960944011,0.0,0.001,0.0,4500.0,0.0,0.0,0.0
1513266039676072554,,596237,,1513266037,880063616,'',1.308996939,1.31358991071,-0.00589308253092,0.0,0.001,0.0,4500.0,0.0,0.0,0.0
1513266039686007394,,596238,,1513266037,890063616,'',1.308996939,1.31496780223,0.0214641706025,0.0,0.001,0.0,4500.0,0.0,0.0,0.0
1513266039696042897,,596239,,1513266037,900063616,'',1.308996939,1.31358991071,-0.00469841696396,0.0,0.001,0.0,4500.0,0.0,0.0,0.0
1513266039705855554,,596240,,1513266037,910063616,'',1.308996939,1.31358991071,-0.00384626232419,0.0,0.001,0.0,4500.0,0.0,0.0,0.0
1513266039715844499,,596241,,1513266037,920063616,'',1.308996939,1.31358991071,-0.00426022198477,0.0,0.001,0.0,4500.0,0.0,0.0,0.0
1513266039725791471,,596242,,1513266037,930063616,'',1.308996939,1.31358991071,-0.00448989026277,0.0,0.001,0.0,4500.0,0.0,0.0,0.0
1513266039735653485,,596243,,1513266037,940063616,'',1.308996939,1.31358991071,-0.00517568402038,0.0,0.001,0.0,4500.0,0.0,0.0,0.0
1513266039745814445,,596244,,1513266037,950063616,'',1.308996939,1.31358991071,-0.00475249293987,0.0,0.001,0.0,4500.0,0.0,0.0,0.0
1513266039756018221,,596245,,1513266037,960063616,'',1.308996939,1.31358991071,-0.00480423105565,0.0,0.001,0.0,4500.0,0.0,0.0,0.0
1513266039766054087,,596246,,1513266037,970063616,'',1.308996939,1.31358991071,-0.00493231253452,0.0,0.001,0.0,4500.0,0.0,0.0,0.0
1513266039776014326,,596247,,1513266037,980063616,'',1.308996939,1.31496780223,0.0217870551531,0.0,0.001,0.0,4500.0,0.0,0.0,0.0
1513266039785911556,,596248,,1513266037,990063616,'',1.308996939,1.31496780223,0.0213504295762,0.0,0.001,0.0,4500.0,0.0,0.0,0.0
1513266039795871397,,596249,,1513266038,63616,'',1.308996939,1.31496780223,0.0194972709397,0.0,0.001,0.0,4500.0,0.0,0.0,0.0
1513266039805943063,,596250,,1513266038,10063616,'',1.308996939,1.31358991071,-0.00842573607132,0.0,0.001,0.0,4500.0,0.0,0.0,0.0
1513266039815825766,,596251,,1513266038,20063616,'',1.308996939,1.31358991071,-0.00690087808026,0.0,0.001,0.0,4500.0,0.0,0.0,0.0
1513266039825702546,,596252,,1513266038,30063616,'',1.308996939,1.31358991071,-0.00758694978756,0.0,0.001,0.0,4500.0,0.0,0.0,0.0
1513266039836169875,,596253,,1513266038,40063616,'',1.308996939,1.31358991071,-0.00970685015601,0.0,0.001,0.0,4500.0,0.0,0.0,0.0
1513266039846165702,,596254,,1513266038,50063616,'',1.308996939,1.31358991071,-0.00891932453133,0.0,0.001,0.0,4500.0,0.0,0.0,0.0
1513266039856082820,,596255,,1513266038,60063616,'',1.308996939,1.31496780223,0.018485223295,0.0,0.001,0.0,4500.0,0.0,0.0,0.0
1513266039866215656,,596256,,1513266038,70063616,'',1.308996939,1.31496780223,0.017102939537,0.0,0.001,0.0,4500.0,0.0,0.0,0.0
1513266039876160479,,596257,,1513266038,80063616,'',1.308996939,1.31634569374,0.0422805040833,0.0,0.001,0.0,4500.0,0.0,0.0,0.0
1513266039886073905,,596258,,1513266038,90063616,'',1.308996939,1.31496780223,0.0107864172506,0.0,0.001,0.0,4500.0,0.0,0.0,0.0
1513266039895934364,,596259,,1513266038,100063616,'',1.308996939,1.31496780223,0.0088684654851,0.0,0.001,0.0,4500.0,0.0,0.0,0.0
1513266039906030378,,596260,,1513266038,110063616,'',1.308996939,1.31496780223,0.00876132922512,0.0,0.001,0.0,4500.0,0.0,0.0,0.0
1513266039915846743,,596261,,1513266038,120063616,'',1.308996939,1.31496780223,0.00612017119212,0.0,0.001,0.0,4500.0,0.0,0.0,0.0
1513266039925896242,,596262,,1513266038,130063616,'',1.308996939,1.31496780223,0.00402015080692,0.0,0.001,0.0,4500.0,0.0,0.0,0.0
1513266039935806647,,596263,,1513266038,140063616,'',1.308996939,1.31634569374,0.0306557676019,0.0,0.001,0.0,4500.0,0.0,0.0,0.0
1513266039946190494,,596264,,1513266038,150063616,'',1.308996939,1.31358991071,-0.0260134808616,0.0,0.001,0.0,4500.0,0.0,0.0,0.0
1513266039956083963,,596265,,1513266038,160063616,'',1.308996939,1.31496780223,-7.22940721431e-06,0.0,0.001,0.0,4500.0,0.0,0.0,0.0
1513266039966175592,,596266,,1513266038,170063616,'',1.308996939,1.31358991071,-0.0272735770631,0.0,0.001,0.0,4500.0,0.0,0.0,0.0
1513266039976007560,,596267,,1513266038,180063616,'',1.308996939,1.31634569374,0.0272722890774,0.0,0.001,0.0,4500.0,0.0,0.0,0.0
1513266039986064130,,596268,,1513266038,190063616,'',1.308996939,1.31496780223,-0.00291287857854,0.0,0.001,0.0,4500.0,0.0,0.0,0.0
1513266039996067678,,596269,,1513266038,200063616,'',1.308996939,1.31634569374,0.0244583896665,0.0,0.001,0.0,4500.0,0.0,0.0,0.0
1513266040006001046,,596270,,1513266038,210063616,'',1.308996939,1.31358991071,-0.0315858242868,0.0,0.001,0.0,4500.0,0.0,0.0,0.0
1513266040016070765,,596271,,1513266038,220063616,'',1.308996939,1.31496780223,-0.0059820688255,0.0,0.001,0.0,4500.0,0.0,0.0,0.0
1513266040025997324,,596272,,1513266038,230063616,'',1.308996939,1.31634569374,0.0203414801744,0.0,0.001,0.0,4500.0,0.0,0.0,0.0
1513266040035840540,,596273,,1513266038,240063616,'',1.308996939,1.31496780223,-0.00859449703244,0.0,0.001,0.0,4500.0,0.0,0.0,0.0
1513266040045830677,,596274,,1513266038,250063616,'',1.308996939,1.31634569374,0.0182229922237,0.0,0.001,0.0,4500.0,0.0,0.0,0.0
1513266040066089306,,596275,,1513266038,270063616,'',1.308996939,1.31634569374,0.0165751801136,0.0,0.001,0.0,4500.0,0.0,0.0,0.0
1513266040076007504,,596276,,1513266038,280063616,'',1.308996939,1.31634569374,0.014559156658,0.0,0.001,0.0,4500.0,0.0,0.0,0.0
1513266040085888810,,596277,,1513266038,290063616,'',1.308996939,1.31496780223,-0.0139599823557,0.0,0.001,0.0,4500.0,0.0,0.0,0.0
1513266040095921811,,596278,,1513266038,300063616,'',1.308996939,1.31496780223,-0.0134286179724,0.0,0.001,0.0,4500.0,0.0,0.0,0.0
1513266040105928080,,596279,,1513266038,310063616,'',1.308996939,1.31634569374,0.0133465617093,0.0,0.001,0.0,4500.0,0.0,0.0,0.0
1513266040115707718,,596280,,1513266038,320063616,'',1.308996939,1.31496780223,-0.0144221676629,0.0,0.001,0.0,4500.0,0.0,0.0,0.0
1513266040126182453,,596281,,1513266038,330063616,'',1.308996939,1.31496780223,-0.0138311175855,0.0,0.001,0.0,4500.0,0.0,0.0,0.0
1513266040136117011,,596282,,1513266038,340063616,'',1.308996939,1.31496780223,-0.013801786645,0.0,0.001,0.0,4500.0,0.0,0.0,0.0
1513266040146152259,,596283,,1513266038,350063616,'',1.308996939,1.31496780223,-0.0117128412728,0.0,0.001,0.0,4500.0,0.0,0.0,0.0
1513266040156001080,,596284,,1513266038,360063616,'',1.308996939,1.31496780223,-0.0110759829784,0.0,0.001,0.0,4500.0,0.0,0.0,0.0
1513266040166048938,,596285,,1513266038,370063616,'',1.308996939,1.31634569374,0.0177538317748,0.0,0.001,0.0,4500.0,0.0,0.0,0.0
1513266040176024325,,596286,,1513266038,380063616,'',1.308996939,1.31496780223,-0.00978455570104,0.0,0.001,0.0,4500.0,0.0,0.0,0.0
1513266040186044874,,596287,,1513266038,390063616,'',1.308996939,1.31496780223,-0.0114136575902,0.0,0.001,0.0,4500.0,0.0,0.0,0.0
1513266040196044187,,596288,,1513266038,400063616,'',1.308996939,1.31634569374,0.0174044767554,0.0,0.001,0.0,4500.0,0.0,0.0,0.0
1513266040205921916,,596289,,1513266038,410063616,'',1.308996939,1.31634569374,0.0182410852604,0.0,0.001,0.0,4500.0,0.0,0.0,0.0
1513266040215802032,,596290,,1513266038,420063616,'',1.308996939,1.31634569374,0.0164368179198,0.0,0.001,0.0,4500.0,0.0,0.0,0.0
1513266040225666010,,596291,,1513266038,430063616,'',1.308996939,1.31496780223,-0.0122766864919,0.0,0.001,0.0,4500.0,0.0,0.0,0.0
1513266040236194583,,596292,,1513266038,440063616,'',1.308996939,1.31634569374,0.0137472427031,0.0,0.001,0.0,4500.0,0.0,0.0,0.0
1513266040246190271,,596293,,1513266038,450063616,'',1.308996939,1.31496780223,-0.0159559123554,0.0,0.001,0.0,4500.0,0.0,0.0,0.0
1513266040256018843,,596294,,1513266038,460063616,'',1.308996939,1.31634569374,0.0116975450729,0.0,0.001,0.0,4500.0,0.0,0.0,0.0
1513266040265979710,,596295,,1513266038,470063616,'',1.308996939,1.31634569374,0.0101025178281,0.0,0.001,0.0,4500.0,0.0,0.0,0.0
1513266040275840407,,596296,,1513266038,480063616,'',1.308996939,1.31496780223,-0.0185358701907,0.0,0.001,0.0,4500.0,0.0,0.0,0.0
1513266040285852881,,596297,,1513266038,490063616,'',1.308996939,1.31634569374,0.0105153761406,0.0,0.001,0.0,4500.0,0.0,0.0,0.0
1513266040295936415,,596298,,1513266038,500063616,'',1.308996939,1.31496780223,-0.0156761201437,0.0,0.001,0.0,4500.0,0.0,0.0,0.0
1513266040305693098,,596299,,1513266038,510063616,'',1.308996939,1.31496780223,-0.014381857033,0.0,0.001,0.0,4500.0,0.0,0.0,0.0
1513266040316114692,,596300,,1513266038,520063616,'',1.308996939,1.31634569374,0.0140403453118,0.0,0.001,0.0,4500.0,0.0,0.0,0.0
1513266040326128253,,596301,,1513266038,530063616,'',1.308996939,1.31634569374,0.0135876040686,0.0,0.001,0.0,4500.0,0.0,0.0,0.0
1513266040336112685,,596302,,1513266038,540063616,'',1.308996939,1.31634569374,0.0111230001949,0.0,0.001,0.0,4500.0,0.0,0.0,0.0
1513266040346068392,,596303,,1513266038,550063616,'',1.308996939,1.31496780223,-0.0166966455342,0.0,0.001,0.0,4500.0,0.0,0.0,0.0
1513266040356037050,,596304,,1513266038,560063616,'',1.308996939,1.31634569374,0.0116853802749,0.0,0.001,0.0,4500.0,0.0,0.0,0.0
1513266040365904391,,596305,,1513266038,570063616,'',1.308996939,1.31496780223,-0.0142117791071,0.0,0.001,0.0,4500.0,0.0,0.0,0.0
1513266040375868106,,596306,,1513266038,580063616,'',1.308996939,1.31496780223,-0.014091916181,0.0,0.001,0.0,4500.0,0.0,0.0,0.0
1513266040385789266,,596307,,1513266038,590063616,'',1.308996939,1.31496780223,-0.0125364142254,0.0,0.001,0.0,4500.0,0.0,0.0,0.0
1513266040395772233,,596308,,1513266038,600063616,'',1.308996939,1.31634569374,0.0139884495101,0.0,0.001,0.0,4500.0,0.0,0.0,0.0
1513266040405686108,,596309,,1513266038,610063616,'',1.308996939,1.31496780223,-0.013907339436,0.0,0.001,0.0,4500.0,0.0,0.0,0.0
1513266040416162723,,596310,,1513266038,620063616,'',1.308996939,1.31634569374,0.0120130065956,0.0,0.001,0.0,4500.0,0.0,0.0,0.0
1513266040426049843,,596311,,1513266038,630063616,'',1.308996939,1.31496780223,-0.0159843908221,0.0,0.001,0.0,4500.0,0.0,0.0,0.0
1513266040436032190,,596312,,1513266038,640063616,'',1.308996939,1.31496780223,-0.0151679724131,0.0,0.001,0.0,4500.0,0.0,0.0,0.0
1513266040446113819,,596313,,1513266038,650063616,'',1.308996939,1.31496780223,-0.0158213298763,0.0,0.001,0.0,4500.0,0.0,0.0,0.0
1513266040455866956,,596314,,1513266038,660063616,'',1.308996939,1.31634569374,0.0113603711671,0.0,0.001,0.0,4500.0,0.0,0.0,0.0
1513266040465844040,,596315,,1513266038,670063616,'',1.308996939,1.31634569374,0.0127847859598,0.0,0.001,0.0,4500.0,0.0,0.0,0.0
1513266040475740668,,596316,,1513266038,680063616,'',1.308996939,1.31634569374,0.0124441674479,0.0,0.001,0.0,4500.0,0.0,0.0,0.0
1513266040485694908,,596317,,1513266038,690063616,'',1.308996939,1.31634569374,0.0131250828839,0.0,0.001,0.0,4500.0,0.0,0.0,0.0
1513266040496124618,,596318,,1513266038,700063616,'',1.308996939,1.31634569374,0.0133054657381,0.0,0.001,0.0,4500.0,0.0,0.0,0.0
1513266040506236495,,596319,,1513266038,710063616,'',1.308996939,1.31496780223,-0.0139238380013,0.0,0.001,0.0,4500.0,0.0,0.0,0.0
1513266040515925502,,596320,,1513266038,720063616,'',1.308996939,1.31496780223,-0.0144098754601,0.0,0.001,0.0,4500.0,0.0,0.0,0.0
1513266040525695619,,596321,,1513266038,730063616,'',1.308996939,1.31496780223,-0.0147660607138,0.0,0.001,0.0,4500.0,0.0,0.0,0.0
1513266040535663510,,596322,,1513266038,740063616,'',1.308996939,1.31634569374,0.0116926606359,0.0,0.001,0.0,4500.0,0.0,0.0,0.0
1513266040546078271,,596323,,1513266038,750063616,'',1.308996939,1.31634569374,0.0122597412214,0.0,0.001,0.0,4500.0,0.0,0.0,0.0
1513266040556049007,,596324,,1513266038,760063616,'',1.308996939,1.31358991071,-0.0414896240648,0.0,0.001,0.0,4500.0,0.0,0.0,0.0
1513266040566063855,,596325,,1513266038,770063616,'',1.308996939,1.31496780223,-0.0141646621213,0.0,0.001,0.0,4500.0,0.0,0.0,0.0
1513266040575976540,,596326,,1513266038,780063616,'',1.308996939,1.31634569374,0.0136442775396,0.0,0.001,0.0,4500.0,0.0,0.0,0.0
1513266040585942677,,596327,,1513266038,790063616,'',1.308996939,1.31634569374,0.0141750852167,0.0,0.001,0.0,4500.0,0.0,0.0,0.0
1513266040595814424,,596328,,1513266038,800063616,'',1.308996939,1.31496780223,-0.012624354277,0.0,0.001,0.0,4500.0,0.0,0.0,0.0
1513266040605973583,,596329,,1513266038,810063616,'',1.308996939,1.31496780223,-0.0123517412105,0.0,0.001,0.0,4500.0,0.0,0.0,0.0
1513266040615806759,,596330,,1513266038,820063616,'',1.308996939,1.31496780223,-0.0146163007604,0.0,0.001,0.0,4500.0,0.0,0.0,0.0
1513266040625850301,,596331,,1513266038,830063616,'',1.308996939,1.31634569374,0.0108460600433,0.0,0.001,0.0,4500.0,0.0,0.0,0.0
1513266040635852491,,596332,,1513266038,840063616,'',1.308996939,1.31634569374,0.0113161887608,0.0,0.001,0.0,4500.0,0.0,0.0,0.0
1513266040646118628,,596333,,1513266038,850063616,'',1.308996939,1.31496780223,-0.0159585047188,0.0,0.001,0.0,4500.0,0.0,0.0,0.0
1513266040656119856,,596334,,1513266038,860063616,'',1.308996939,1.31496780223,-0.0155538775317,0.0,0.001,0.0,4500.0,0.0,0.0,0.0
1513266040666071965,,596335,,1513266038,870063616,'',1.308996939,1.31496780223,-0.0141970806397,0.0,0.001,0.0,4500.0,0.0,0.0,0.0
1513266040675993012,,596336,,1513266038,880063616,'',1.308996939,1.31496780223,-0.01356120711,0.0,0.001,0.0,4500.0,0.0,0.0,0.0
1513266040686014269,,596337,,1513266038,890063616,'',1.308996939,1.31634569374,0.0136528577806,0.0,0.001,0.0,4500.0,0.0,0.0,0.0
1513266040695918488,,596338,,1513266038,900063616,'',1.308996939,1.31634569374,0.0121998425821,0.0,0.001,0.0,4500.0,0.0,0.0,0.0
1513266040705957590,,596339,,1513266038,910063616,'',1.308996939,1.31772358526,0.0382490894931,0.0,0.001,0.0,4500.0,0.0,0.0,0.0
1513266040715997113,,596340,,1513266038,920063616,'',1.308996939,1.31634569374,0.00957620658744,0.0,0.001,0.0,4500.0,0.0,0.0,0.0
1513266040725893088,,596341,,1513266038,930063616,'',1.308996939,1.31634569374,0.00882095210056,0.0,0.001,0.0,4500.0,0.0,0.0,0.0
1513266040735858295,,596342,,1513266038,940063616,'',1.308996939,1.31634569374,0.00814064094418,0.0,0.001,0.0,4500.0,0.0,0.0,0.0
1513266040746032304,,596343,,1513266038,950063616,'',1.308996939,1.31634569374,0.00713650613708,0.0,0.001,0.0,4500.0,0.0,0.0,0.0
1513266040755882211,,596344,,1513266038,960063616,'',1.308996939,1.31772358526,0.0345942982418,0.0,0.001,0.0,4500.0,0.0,0.0,0.0
1513266040765736277,,596345,,1513266038,970063616,'',1.308996939,1.31634569374,0.00552356595855,0.0,0.001,0.0,4500.0,0.0,0.0,0.0
1513266040776174500,,596346,,1513266038,980063616,'',1.308996939,1.31634569374,0.00509382878385,0.0,0.001,0.0,4500.0,0.0,0.0,0.0
1513266040786046723,,596347,,1513266038,990063616,'',1.308996939,1.31634569374,0.00512805501784,0.0,0.001,0.0,4500.0,0.0,0.0,0.0
1513266040796147876,,596348,,1513266039,63616,'',1.308996939,1.31634569374,0.00423305841336,0.0,0.001,0.0,4500.0,0.0,0.0,0.0
1513266040805972171,,596349,,1513266039,10063616,'',1.308996939,1.31634569374,0.00249347405744,0.0,0.001,0.0,4500.0,0.0,0.0,0.0
1513266040815892286,,596350,,1513266039,20063616,'',1.308996939,1.31634569374,0.00305798744414,0.0,0.001,0.0,4500.0,0.0,0.0,0.0
1513266040826064263,,596351,,1513266039,30063616,'',1.308996939,1.31634569374,0.00496031227313,0.0,0.001,0.0,4500.0,0.0,0.0,0.0
1513266040835830005,,596352,,1513266039,40063616,'',1.308996939,1.31634569374,0.00501294076674,0.0,0.001,0.0,4500.0,0.0,0.0,0.0
1513266040846112621,,596353,,1513266039,50063616,'',1.308996939,1.31496780223,-0.0220855401605,0.0,0.001,0.0,4500.0,0.0,0.0,0.0
1513266040856248332,,596354,,1513266039,60063616,'',1.308996939,1.31496780223,-0.0210399227421,0.0,0.001,0.0,4500.0,0.0,0.0,0.0
1513266040865971163,,596355,,1513266039,70063616,'',1.308996939,1.31496780223,-0.0192643446412,0.0,0.001,0.0,4500.0,0.0,0.0,0.0
1513266040875909714,,596356,,1513266039,80063616,'',1.308996939,1.31634569374,0.00899509226151,0.0,0.001,0.0,4500.0,0.0,0.0,0.0
1513266040886232547,,596357,,1513266039,90063616,'',1.308996939,1.31634569374,0.009393822451,0.0,0.001,0.0,4500.0,0.0,0.0,0.0
1513266040896229678,,596358,,1513266039,100063616,'',1.308996939,1.31634569374,0.00913546812343,0.0,0.001,0.0,4500.0,0.0,0.0,0.0
1513266040906076572,,596359,,1513266039,110063616,'',1.308996939,1.31496780223,-0.0172781828129,0.0,0.001,0.0,4500.0,0.0,0.0,0.0
1513266040915975544,,596360,,1513266039,120063616,'',1.308996939,1.31634569374,0.0111069714973,0.0,0.001,0.0,4500.0,0.0,0.0,0.0
1513266040925881554,,596361,,1513266039,130063616,'',1.308996939,1.31634569374,0.0101744181582,0.0,0.001,0.0,4500.0,0.0,0.0,0.0
1513266040935790020,,596362,,1513266039,140063616,'',1.308996939,1.31634569374,0.00986900772626,0.0,0.001,0.0,4500.0,0.0,0.0,0.0
1513266040945734968,,596363,,1513266039,150063616,'',1.308996939,1.31496780223,-0.0175841032471,0.0,0.001,0.0,4500.0,0.0,0.0,0.0
1513266040956172276,,596364,,1513266039,160063616,'',1.308996939,1.31634569374,0.010406436368,0.0,0.001,0.0,4500.0,0.0,0.0,0.0
1513266040966185981,,596365,,1513266039,170063616,'',1.308996939,1.31634569374,0.0100584576465,0.0,0.001,0.0,4500.0,0.0,0.0,0.0
1513266040975983021,,596366,,1513266039,180063616,'',1.308996939,1.31634569374,0.00980472225765,0.0,0.001,0.0,4500.0,0.0,0.0,0.0
1513266040985998574,,596367,,1513266039,190063616,'',1.308996939,1.31634569374,0.0114865599416,0.0,0.001,0.0,4500.0,0.0,0.0,0.0
1513266040995942775,,596368,,1513266039,200063616,'',1.308996939,1.31496780223,-0.0158997462752,0.0,0.001,0.0,4500.0,0.0,0.0,0.0
1513266041005823629,,596369,,1513266039,210063616,'',1.308996939,1.31358991071,-0.0432897197782,0.0,0.001,0.0,4500.0,0.0,0.0,0.0
1513266041015790043,,596370,,1513266039,220063616,'',1.308996939,1.31496780223,-0.0156153380049,0.0,0.001,0.0,4500.0,0.0,0.0,0.0
1513266041025883051,,596371,,1513266039,230063616,'',1.308996939,1.31496780223,-0.0158361521217,0.0,0.001,0.0,4500.0,0.0,0.0,0.0
1513266041035827376,,596372,,1513266039,240063616,'',1.308996939,1.31496780223,-0.0154612395176,0.0,0.001,0.0,4500.0,0.0,0.0,0.0
1513266041045804091,,596373,,1513266039,250063616,'',1.308996939,1.31634569374,0.0126611887619,0.0,0.001,0.0,4500.0,0.0,0.0,0.0
1513266041055912481,,596374,,1513266039,260063616,'',1.308996939,1.31634569374,0.012863571731,0.0,0.001,0.0,4500.0,0.0,0.0,0.0
1513266041065786088,,596375,,1513266039,270063616,'',1.308996939,1.31634569374,0.0121049510983,0.0,0.001,0.0,4500.0,0.0,0.0,0.0
1513266041076244850,,596376,,1513266039,280063616,'',1.308996939,1.31496780223,-0.0152503951401,0.0,0.001,0.0,4500.0,0.0,0.0,0.0
1513266041086211836,,596377,,1513266039,290063616,'',1.308996939,1.31634569374,0.0113324121375,0.0,0.001,0.0,4500.0,0.0,0.0,0.0
1513266041096001603,,596378,,1513266039,300063616,'',1.308996939,1.31634569374,0.0103498300009,0.0,0.001,0.0,4500.0,0.0,0.0,0.0
1513266041105933294,,596379,,1513266039,310063616,'',1.308996939,1.31496780223,-0.0183470371203,0.0,0.001,0.0,4500.0,0.0,0.0,0.0
1513266041115847205,,596380,,1513266039,320063616,'',1.308996939,1.31496780223,-0.0179873044074,0.0,0.001,0.0,4500.0,0.0,0.0,0.0
1513266041125745745,,596381,,1513266039,330063616,'',1.308996939,1.31634569374,0.0115567358546,0.0,0.001,0.0,4500.0,0.0,0.0,0.0
1513266041135866505,,596382,,1513266039,340063616,'',1.308996939,1.31496780223,-0.0173065788841,0.0,0.001,0.0,4500.0,0.0,0.0,0.0
1513266041145693913,,596383,,1513266039,350063616,'',1.308996939,1.31496780223,-0.0161101090978,0.0,0.001,0.0,4500.0,0.0,0.0,0.0
1513266041156163472,,596384,,1513266039,360063616,'',1.308996939,1.31634569374,0.0101513352759,0.0,0.001,0.0,4500.0,0.0,0.0,0.0
1513266041166141966,,596385,,1513266039,370063616,'',1.308996939,1.31634569374,0.00935831575178,0.0,0.001,0.0,4500.0,0.0,0.0,0.0
1513266041176002842,,596386,,1513266039,380063616,'',1.308996939,1.31634569374,0.00925509134556,0.0,0.001,0.0,4500.0,0.0,0.0,0.0
1513266041185939334,,596387,,1513266039,390063616,'',1.308996939,1.31496780223,-0.0191487938063,0.0,0.001,0.0,4500.0,0.0,0.0,0.0
1513266041195879167,,596388,,1513266039,400063616,'',1.308996939,1.31634569374,0.00863736266251,0.0,0.001,0.0,4500.0,0.0,0.0,0.0
1513266041205704470,,596389,,1513266039,410063616,'',1.308996939,1.31634569374,0.00799685804434,0.0,0.001,0.0,4500.0,0.0,0.0,0.0
