rosbagTimestamp,header,seq,stamp,secs,nsecs,frame_id,set_point,process_value,process_value_dot,error,time_step,command,p,i,d,i_clamp
1513264983442345234,,490622,,1513264981,666820663,'',0.436332312999,0.416292135415,0.0025690106864,-0.0200401775838,0.001,-129.48675302,-6500.0,0.0,-300.0,0.0
1513264983452206320,,490623,,1513264981,676820663,'',0.436332312999,0.416297739946,-0.0152924123829,-0.0200345730525,0.001,-134.822669311,-6500.0,0.0,-300.0,0.0
1513264983462308252,,490624,,1513264981,686820663,'',0.436332312999,0.416305124239,0.00231255533957,-0.0200271887596,0.001,-129.482842859,-6500.0,0.0,-300.0,0.0
1513264983472074177,,490625,,1513264981,696820663,'',0.436332312999,0.416309387591,0.00222203102065,-0.0200229254072,0.001,-129.477707872,-6500.0,0.0,-300.0,0.0
1513264983482044053,,490626,,1513264981,706820663,'',0.436332312999,0.416311657594,0.00216536713613,-0.0200206554045,0.001,-129.498482565,-6500.0,0.0,-300.0,0.0
1513264983492188000,,490627,,1513264981,716820663,'',0.436332312999,0.416280994578,-0.0149666714377,-0.0200513184203,0.001,-134.964924143,-6500.0,0.0,-300.0,0.0
1513264983502062174,,490628,,1513264981,726820663,'',0.436332312999,0.416275736323,0.00288732768917,-0.0200565766761,0.001,-129.493370945,-6500.0,0.0,-300.0,0.0
1513264983512020599,,490629,,1513264981,736820663,'',0.436332312999,0.416255239985,0.00331077535863,-0.0200770730137,0.001,-129.505470271,-6500.0,0.0,-300.0,0.0
1513264983522441680,,490630,,1513264981,746820663,'',0.436332312999,0.416251987915,-0.01436500465,-0.0200803250833,0.001,-134.767464132,-6500.0,0.0,-300.0,0.0
1513264983532291460,,490631,,1513264981,756820663,'',0.436332312999,0.416249731446,0.00343141113767,-0.0200825815531,0.001,-129.505843653,-6500.0,0.0,-300.0,0.0
1513264983542191853,,490632,,1513264981,766820663,'',0.436332312999,0.416217553342,0.00408378888428,-0.020114759657,0.001,-129.488300923,-6500.0,0.0,-300.0,0.0
1513264983552200060,,490633,,1513264981,776820663,'',0.436332312999,0.416224220045,0.0039510662039,-0.0201080929534,0.001,-129.513876033,-6500.0,0.0,-300.0,0.0
1513264983562144333,,490634,,1513264981,786820663,'',0.436332312999,0.416243144907,0.00356305064594,-0.0200891680919,0.001,-129.50755098,-6500.0,0.0,-300.0,0.0
1513264983572204449,,490635,,1513264981,796820663,'',0.436332312999,0.416275071012,0.00291677633589,-0.0200572419867,0.001,-129.496163086,-6500.0,0.0,-300.0,0.0
1513264983582122400,,490636,,1513264981,806820663,'',0.436332312999,0.41628655331,0.0026859375381,-0.020045759689,0.001,-129.502745494,-6500.0,0.0,-300.0,0.0
1513264983592158260,,490637,,1513264981,816820663,'',0.436332312999,0.416310595028,0.0021989762034,-0.0200217179704,0.001,-129.478669716,-6500.0,0.0,-300.0,0.0
1513264983602091747,,490638,,1513264981,826820663,'',0.436332312999,0.416285921596,0.00269566482862,-0.020046391403,0.001,-129.490038518,-6500.0,0.0,-300.0,0.0
1513264983612089408,,490639,,1513264981,836820663,'',0.436332312999,0.416248212098,0.00346237009357,-0.0200841009002,0.001,-129.50946849,-6500.0,0.0,-300.0,0.0
1513264983622026129,,490640,,1513264981,846820663,'',0.436332312999,0.416246434492,0.00349097250707,-0.0200858785062,0.001,-129.509229396,-6500.0,0.0,-300.0,0.0
1513264983632327984,,490641,,1513264981,856820663,'',0.436332312999,0.41626023845,-0.0145369021353,-0.0200720745489,0.001,-134.864936368,-6500.0,0.0,-300.0,0.0
1513264983642299712,,490642,,1513264981,866820663,'',0.436332312999,0.416226093107,0.00390185364136,-0.0201062198919,0.001,-129.514531862,-6500.0,0.0,-300.0,0.0
1513264983652055653,,490643,,1513264981,876820663,'',0.436332312999,0.416228490467,0.00385302026204,-0.0201038225313,0.001,-129.508819226,-6500.0,0.0,-300.0,0.0
1513264983661809431,,490644,,1513264981,886820663,'',0.436332312999,0.416229831102,-0.0139180393247,-0.0201024818964,0.001,-134.859707054,-6500.0,0.0,-300.0,0.0
1513264983671941890,,490645,,1513264981,896820663,'',0.436332312999,0.4162641137,0.00313838272747,-0.0200681992981,0.001,-129.52068625,-6500.0,0.0,-300.0,0.0
1513264983681855423,,490646,,1513264981,906820663,'',0.436332312999,0.4162607357,0.00320007844881,-0.0200715772987,0.001,-129.501274348,-6500.0,0.0,-300.0,0.0
1513264983692292974,,490647,,1513264981,916820663,'',0.436332312999,0.416258365229,0.00325093706369,-0.0200739477699,0.001,-129.522906571,-6500.0,0.0,-300.0,0.0
1513264983702313500,,490648,,1513264981,926820663,'',0.436332312999,0.416287533148,0.00266122387278,-0.0200447798511,0.001,-129.488610285,-6500.0,0.0,-300.0,0.0
1513264983712254509,,490649,,1513264981,936820663,'',0.436332312999,0.41631142548,0.00217817181031,-0.0200208875191,0.001,-129.476295106,-6500.0,0.0,-300.0,0.0
1513264983722150028,,490650,,1513264981,946820663,'',0.436332312999,0.416330959969,0.00178322604852,-0.0200013530299,0.001,-129.483441011,-6500.0,0.0,-300.0,0.0
1513264983732134539,,490651,,1513264981,956820663,'',0.436332312999,0.416331109894,0.00177964194489,-0.020001203105,0.001,-129.471538761,-6500.0,0.0,-300.0,0.0
1513264983741958314,,490652,,1513264981,966820663,'',0.436332312999,0.416250478155,-0.0143396114656,-0.0200818348441,0.001,-134.860458219,-6500.0,0.0,-300.0,0.0
1513264983752181044,,490653,,1513264981,976820663,'',0.436332312999,0.416251014448,0.00339927365066,-0.020081298551,0.001,-129.504083829,-6500.0,0.0,-300.0,0.0
1513264983762038256,,490654,,1513264981,986820663,'',0.436332312999,0.416250348393,0.00340737255544,-0.0200819646053,0.001,-129.504601926,-6500.0,0.0,-300.0,0.0
1513264983772053669,,490655,,1513264981,996820663,'',0.436332312999,0.416280973844,0.0027892157923,-0.0200513391546,0.001,-129.491257321,-6500.0,0.0,-300.0,0.0
1513264983781969737,,490656,,1513264982,6820663,'',0.436332312999,0.416272819476,0.00295544144535,-0.0200594935228,0.001,-129.49540243,-6500.0,0.0,-300.0,0.0
1513264983792092083,,490657,,1513264982,16820663,'',0.436332312999,0.416250244947,-0.0143435145712,-0.020082068052,0.001,-134.847087883,-6500.0,0.0,-300.0,0.0
1513264983802241436,,490658,,1513264982,26820663,'',0.436332312999,0.416265004074,0.00310474635503,-0.0200673089249,0.001,-129.52019701,-6500.0,0.0,-300.0,0.0
1513264983812132835,,490659,,1513264982,36820663,'',0.436332312999,0.416262580336,0.00315465778587,-0.0200697326623,0.001,-129.500508398,-6500.0,0.0,-300.0,0.0
1513264983821945212,,490660,,1513264982,46820663,'',0.436332312999,0.416290986699,0.00258234788609,-0.0200413262993,0.001,-129.488713201,-6500.0,0.0,-300.0,0.0
1513264983832371453,,490661,,1513264982,56820663,'',0.436332312999,0.41631418911,0.00211488327022,-0.0200181238881,0.001,-129.480304489,-6500.0,0.0,-300.0,0.0
1513264983842245085,,490662,,1513264982,66820663,'',0.436332312999,0.416318442161,0.00202675168253,-0.0200138708372,0.001,-129.47598981,-6500.0,0.0,-300.0,0.0
1513264983852166291,,490663,,1513264982,76820663,'',0.436332312999,0.416304108167,0.00231811922473,-0.0200282048315,0.001,-129.481753435,-6500.0,0.0,-300.0,0.0
1513264983862035522,,490664,,1513264982,86820663,'',0.436332312999,0.416324937087,0.00189844988947,-0.0200073759119,0.001,-129.473378234,-6500.0,0.0,-300.0,0.0
1513264983871978516,,490665,,1513264982,96820663,'',0.436332312999,0.416324957065,0.00189632376781,-0.020007355934,0.001,-129.486154699,-6500.0,0.0,-300.0,0.0
1513264983882146949,,490666,,1513264982,106820663,'',0.436332312999,0.416342048673,0.00155226798093,-0.0199902643257,0.001,-129.466610306,-6500.0,0.0,-300.0,0.0
1513264983902342339,,490667,,1513264982,126820663,'',0.436332312999,0.416337561254,0.00164229199324,-0.0199947517444,0.001,-129.478780835,-6500.0,0.0,-300.0,0.0
1513264983912246886,,490668,,1513264982,136820663,'',0.436332312999,0.416320609953,0.00198737049819,-0.0200117030452,0.001,-129.479433139,-6500.0,0.0,-300.0,0.0
1513264983922217475,,490669,,1513264982,146820663,'',0.436332312999,0.416321039174,-0.0157685070101,-0.0200112738247,0.001,-134.817278639,-6500.0,0.0,-300.0,0.0
1513264983932066677,,490670,,1513264982,156820663,'',0.436332312999,0.416306998828,-0.0154843352878,-0.0200253141703,0.001,-134.719193092,-6500.0,0.0,-300.0,0.0
1513264983941997874,,490671,,1513264982,166820663,'',0.436332312999,0.416296060565,0.00248948744617,-0.0200362524337,0.001,-129.485887699,-6500.0,0.0,-300.0,0.0
1513264983952419238,,490672,,1513264982,176820663,'',0.436332312999,0.416318350738,0.00203870633394,-0.0200139622602,0.001,-129.489707623,-6500.0,0.0,-300.0,0.0
1513264983962319134,,490673,,1513264982,186820663,'',0.436332312999,0.416306615627,0.00228210439312,-0.0200256973711,0.001,-129.481402268,-6500.0,0.0,-300.0,0.0
1513264983972233232,,490674,,1513264982,196820663,'',0.436332312999,0.416327029267,0.00186817105659,-0.0200052837311,0.001,-129.472536979,-6500.0,0.0,-300.0,0.0
1513264983982487329,,490675,,1513264982,206820663,'',0.436332312999,0.416343714696,0.00152983574431,-0.0199885983021,0.001,-129.474635757,-6500.0,0.0,-300.0,0.0
1513264983992394657,,490676,,1513264982,216820663,'',0.436332312999,0.416339899577,-0.0161424704854,-0.0199924134221,0.001,-134.823335742,-6500.0,0.0,-300.0,0.0
1513264984002216103,,490677,,1513264982,226820663,'',0.436332312999,0.416354637327,0.00131243399101,-0.0199776756712,0.001,-129.470945532,-6500.0,0.0,-300.0,0.0
1513264984012325388,,490678,,1513264982,236820663,'',0.436332312999,0.416351691563,0.00137194200501,-0.0199806214351,0.001,-129.471776713,-6500.0,0.0,-300.0,0.0
1513264984022316873,,490679,,1513264982,246820663,'',0.436332312999,0.416332330031,0.00176157185938,-0.0199999829677,0.001,-129.469898618,-6500.0,0.0,-300.0,0.0
1513264984032353181,,490680,,1513264982,256820663,'',0.436332312999,0.416348046649,0.00144272105983,-0.01998426635,0.001,-129.473736972,-6500.0,0.0,-300.0,0.0
1513264984042137179,,490681,,1513264982,266820663,'',0.436332312999,0.416360949043,0.00118096379141,-0.0199713639552,0.001,-129.46110696,-6500.0,0.0,-300.0,0.0
1513264984052096924,,490682,,1513264982,276820663,'',0.436332312999,0.41634074493,0.0015862637197,-0.0199915680687,0.001,-129.467479796,-6500.0,0.0,-300.0,0.0
1513264984061963157,,490683,,1513264982,286820663,'',0.436332312999,0.416338517266,0.00163088911826,-0.019993795733,0.001,-129.45614432,-6500.0,0.0,-300.0,0.0
1513264984072355048,,490684,,1513264982,296820663,'',0.436332312999,0.416353111767,0.00133573694598,-0.0199792012315,0.001,-129.462434954,-6500.0,0.0,-300.0,0.0
1513264984082331313,,490685,,1513264982,306820663,'',0.436332312999,0.416350270842,0.00139630698853,-0.0199820421569,0.001,-129.463292214,-6500.0,0.0,-300.0,0.0
1513264984092290854,,490686,,1513264982,316820663,'',0.436332312999,0.416346940658,0.0014661764821,-0.0199853723401,0.001,-129.464109064,-6500.0,0.0,-300.0,0.0
1513264984102166918,,490687,,1513264982,326820663,'',0.436332312999,0.416328280441,0.00183678495506,-0.0200040325578,0.001,-129.470442074,-6500.0,0.0,-300.0,0.0
1513264984112139392,,490688,,1513264982,336820663,'',0.436332312999,0.416344757372,0.00150376808471,-0.0199875556267,0.001,-129.465951584,-6500.0,0.0,-300.0,0.0
1513264984122029092,,490689,,1513264982,346820663,'',0.436332312999,0.416325240181,0.00189060249302,-0.0200070728177,0.001,-129.488331754,-6500.0,0.0,-300.0,0.0
1513264984132026573,,490690,,1513264982,356820663,'',0.436332312999,0.416327112308,0.00185726129164,-0.020005200691,0.001,-129.472637942,-6500.0,0.0,-300.0,0.0
1513264984142146528,,490691,,1513264982,366820663,'',0.436332312999,0.416343820428,0.00152014050046,-0.0199884925704,0.001,-129.463585927,-6500.0,0.0,-300.0,0.0
1513264984151974613,,490692,,1513264982,376820663,'',0.436332312999,0.416340331874,-0.0161535637476,-0.0199919811243,0.001,-134.715800878,-6500.0,0.0,-300.0,0.0
1513264984161945334,,490693,,1513264982,386820663,'',0.436332312999,0.416320646734,-0.0157528885194,-0.020011666265,0.001,-134.850460339,-6500.0,0.0,-300.0,0.0
1513264984171966568,,490694,,1513264982,396820663,'',0.436332312999,0.416338468836,0.00163478278123,-0.0199938441626,0.001,-129.479829758,-6500.0,0.0,-300.0,0.0
1513264984181966544,,490695,,1513264982,406820663,'',0.436332312999,0.41630775405,0.00225325354078,-0.020024558949,0.001,-129.481100472,-6500.0,0.0,-300.0,0.0
1513264984192059375,,490696,,1513264982,416820663,'',0.436332312999,0.416265754831,0.00310276291643,-0.0200665581674,0.001,-129.500981412,-6500.0,0.0,-300.0,0.0
1513264984202062027,,490697,,1513264982,426820663,'',0.436332312999,0.41629352719,0.00254104269224,-0.020038785809,0.001,-129.503791047,-6500.0,0.0,-300.0,0.0
1513264984212003563,,490698,,1513264982,436820663,'',0.436332312999,0.416300451995,0.002399658647,-0.0200318610035,0.001,-129.484782918,-6500.0,0.0,-300.0,0.0
1513264984221937245,,490699,,1513264982,446820663,'',0.436332312999,0.416304827048,-0.0154335195709,-0.0200274859507,0.001,-134.734895602,-6500.0,0.0,-300.0,0.0
1513264984231917057,,490700,,1513264982,456820663,'',0.436332312999,0.416308790282,0.0022382132091,-0.0200235227169,0.001,-129.480676246,-6500.0,0.0,-300.0,0.0
1513264984242389006,,490701,,1513264982,466820663,'',0.436332312999,0.416313916137,0.00212957620682,-0.0200183968619,0.001,-129.476734389,-6500.0,0.0,-300.0,0.0
1513264984252346602,,490702,,1513264982,476820663,'',0.436332312999,0.416317537167,0.00205752530173,-0.020014775832,0.001,-129.489403846,-6500.0,0.0,-300.0,0.0
1513264984262321153,,490703,,1513264982,486820663,'',0.436332312999,0.41633597142,0.00168429451095,-0.0199963415791,0.001,-129.469062808,-6500.0,0.0,-300.0,0.0
1513264984272290056,,490704,,1513264982,496820663,'',0.436332312999,0.416336203395,0.00167603763309,-0.0199961096035,0.001,-129.470422143,-6500.0,0.0,-300.0,0.0
1513264984282187346,,490705,,1513264982,506820663,'',0.436332312999,0.41633503985,0.00169859258345,-0.0199972731481,0.001,-129.469929866,-6500.0,0.0,-300.0,0.0
1513264984292267737,,490706,,1513264982,516820663,'',0.436332312999,0.416316983376,-0.0156850222223,-0.020015329623,0.001,-134.833716816,-6500.0,0.0,-300.0,0.0
1513264984302175888,,490707,,1513264982,526820663,'',0.436332312999,0.416286195973,-0.015062575825,-0.0200461170251,0.001,-134.849360912,-6500.0,0.0,-300.0,0.0
1513264984312019925,,490708,,1513264982,536820663,'',0.436332312999,0.416260806399,-0.0145454106438,-0.0200715066,0.001,-134.847896262,-6500.0,0.0,-300.0,0.0
1513264984322022196,,490709,,1513264982,546820663,'',0.436332312999,0.416242083587,-0.0141666271828,-0.0200902294116,0.001,-134.748173084,-6500.0,0.0,-300.0,0.0
1513264984331998927,,490710,,1513264982,556820663,'',0.436332312999,0.416274146889,0.00293391752217,-0.0200581661095,0.001,-129.492319063,-6500.0,0.0,-300.0,0.0
1513264984342351926,,490711,,1513264982,566820663,'',0.436332312999,0.416268240953,-0.0146974418368,-0.0200640720459,0.001,-134.857563929,-6500.0,0.0,-300.0,0.0
1513264984352249338,,490712,,1513264982,576820663,'',0.436332312999,0.416278429671,-0.014899519794,-0.0200538833281,0.001,-134.753397896,-6500.0,0.0,-300.0,0.0
1513264984362194412,,490713,,1513264982,586820663,'',0.436332312999,0.416271936969,-0.0147622042953,-0.0200603760296,0.001,-134.843290752,-6500.0,0.0,-300.0,0.0
1513264984372204544,,490714,,1513264982,596820663,'',0.436332312999,0.416253947599,0.00335444899517,-0.0200783653997,0.001,-129.521210482,-6500.0,0.0,-300.0,0.0
1513264984382151785,,490715,,1513264982,606820663,'',0.436332312999,0.416283876877,0.00274677088883,-0.0200484361212,0.001,-129.504102893,-6500.0,0.0,-300.0,0.0
1513264984392168335,,490716,,1513264982,616820663,'',0.436332312999,0.416291941245,0.00258451849672,-0.0200403717534,0.001,-129.486831378,-6500.0,0.0,-300.0,0.0
1513264984402046794,,490717,,1513264982,626820663,'',0.436332312999,0.416283203954,0.00275410926064,-0.0200491090443,0.001,-129.509403193,-6500.0,0.0,-300.0,0.0
1513264984412049012,,490718,,1513264982,636820663,'',0.436332312999,0.416275631555,0.00290645363986,-0.0200566814435,0.001,-129.494879645,-6500.0,0.0,-300.0,0.0
1513264984422089046,,490719,,1513264982,646820663,'',0.436332312999,0.416285853238,0.00269875036706,-0.0200464597603,0.001,-129.490844772,-6500.0,0.0,-300.0,0.0
1513264984432355978,,490720,,1513264982,656820663,'',0.436332312999,0.416294775504,0.00251703985037,-0.0200375374951,0.001,-129.522161666,-6500.0,0.0,-300.0,0.0
1513264984442136365,,490721,,1513264982,666820663,'',0.436332312999,0.416284964794,0.00270540984975,-0.0200473482044,0.001,-129.490430226,-6500.0,0.0,-300.0,0.0
1513264984452048272,,490722,,1513264982,676820663,'',0.436332312999,0.416309310227,0.0022146013548,-0.0200230027721,0.001,-129.480463385,-6500.0,0.0,-300.0,0.0
1513264984462014619,,490723,,1513264982,686820663,'',0.436332312999,0.416313394451,0.00213642844143,-0.0200189185479,0.001,-129.477401963,-6500.0,0.0,-300.0,0.0
1513264984472337307,,490724,,1513264982,696820663,'',0.436332312999,0.416317412173,0.002059651136,-0.0200149008256,0.001,-129.47774053,-6500.0,0.0,-300.0,0.0
1513264984482300992,,490725,,1513264982,706820663,'',0.436332312999,0.41631874006,0.00202841000649,-0.0200135729388,0.001,-129.491256283,-6500.0,0.0,-300.0,0.0
1513264984492219178,,490726,,1513264982,716820663,'',0.436332312999,0.41630588314,0.0022914975385,-0.0200264298587,0.001,-129.48252774,-6500.0,0.0,-300.0,0.0
1513264984502216786,,490727,,1513264982,726820663,'',0.436332312999,0.416310290087,0.00219866762436,-0.020022022912,0.001,-129.475930525,-6500.0,0.0,-300.0,0.0
1513264984512174249,,490728,,1513264982,736820663,'',0.436332312999,0.416314763572,0.00210799471678,-0.0200175494264,0.001,-129.493616779,-6500.0,0.0,-300.0,0.0
1513264984522409464,,490729,,1513264982,746820663,'',0.436332312999,0.416333698097,0.00172566647893,-0.0199986149018,0.001,-129.471477046,-6500.0,0.0,-300.0,0.0
1513264984532084232,,490730,,1513264982,756820663,'',0.436332312999,0.416349200791,0.00141263418522,-0.0199831122079,0.001,-129.463724037,-6500.0,0.0,-300.0,0.0
1513264984541968428,,490731,,1513264982,766820663,'',0.436332312999,0.416361866199,0.00115689270171,-0.0199704467991,0.001,-129.460034435,-6500.0,0.0,-300.0,0.0
1513264984552145249,,490732,,1513264982,776820663,'',0.436332312999,0.416372261271,0.000946994141361,-0.0199600517274,0.001,-129.45441788,-6500.0,0.0,-300.0,0.0
1513264984562210966,,490733,,1513264982,786820663,'',0.436332312999,0.416347116428,-0.0162904896044,-0.0199851965701,0.001,-134.712152101,-6500.0,0.0,-300.0,0.0
1513264984572078093,,490734,,1513264982,796820663,'',0.436332312999,0.416343078863,0.00153646229914,-0.0199892341352,0.001,-129.475853679,-6500.0,0.0,-300.0,0.0
1513264984581965626,,490735,,1513264982,806820663,'',0.436332312999,0.416356881094,0.00125772725886,-0.0199754319048,0.001,-129.461351818,-6500.0,0.0,-300.0,0.0
1513264984591925606,,490736,,1513264982,816820663,'',0.436332312999,0.416353612666,0.00132724316749,-0.0199787003328,0.001,-129.461560913,-6500.0,0.0,-300.0,0.0
1513264984602017504,,490737,,1513264982,826820663,'',0.436332312999,0.416349081341,0.00141518985204,-0.019983231658,0.001,-129.465920145,-6500.0,0.0,-300.0,0.0
1513264984612429247,,490738,,1513264982,836820663,'',0.436332312999,0.416442785384,-0.00048164294392,-0.019889527615,0.001,-129.425957565,-6500.0,0.0,-300.0,0.0
1513264984622469108,,490739,,1513264982,846820663,'',0.436332312999,0.416712103235,0.029574441241,-0.0196202097632,0.001,-118.577775332,-6500.0,0.0,-300.0,0.0
1513264984632312785,,490740,,1513264982,856820663,'',0.436332312999,0.417061269023,0.0402700073334,-0.019271043976,0.001,-113.132067754,-6500.0,0.0,-300.0,0.0
1513264984642268768,,490741,,1513264982,866820663,'',0.436332312999,0.417539842438,0.0661022166163,-0.0187924705606,0.001,-102.643207274,-6500.0,0.0,-300.0,0.0
1513264984652248168,,490742,,1513264982,876820663,'',0.436332312999,0.41815041044,0.0537675071835,-0.018181902559,0.001,-102.004159484,-6500.0,0.0,-300.0,0.0
1513264984662398522,,490743,,1513264982,886820663,'',0.436332312999,0.418809960018,0.0759396996912,-0.0175223529806,0.001,-91.023556718,-6500.0,0.0,-300.0,0.0
1513264984672335813,,490744,,1513264982,896820663,'',0.436332312999,0.419460842948,0.0627859604792,-0.0168714700505,0.001,-91.0934411798,-6500.0,0.0,-300.0,0.0
1513264984682145155,,490745,,1513264982,906820663,'',0.436332312999,0.420040872551,0.0510645288886,-0.0162914404476,0.001,-90.5272021342,-6500.0,0.0,-300.0,0.0
1513264984691878274,,490746,,1513264982,916820663,'',0.436332312999,0.420565260534,0.0582057152807,-0.0157670524647,0.001,-85.6555036365,-6500.0,0.0,-300.0,0.0
1513264984702398334,,490747,,1513264982,926820663,'',0.436332312999,0.421023758507,0.0489483292011,-0.0153085544919,0.001,-84.7410326642,-6500.0,0.0,-300.0,0.0
1513264984712456996,,490748,,1513264982,936820663,'',0.436332312999,0.421463389664,0.0400692045557,-0.0148689233342,0.001,-84.6138126447,-6500.0,0.0,-300.0,0.0
1513264984722349045,,490749,,1513264982,946820663,'',0.436332312999,0.421903447437,0.0489221859777,-0.0144288655613,0.001,-79.0195600518,-6500.0,0.0,-300.0,0.0
1513264984732466803,,490750,,1513264982,956820663,'',0.436332312999,0.42242602869,0.0561186897055,-0.0139062843089,0.001,-73.3635923589,-6500.0,0.0,-300.0,0.0
1513264984742404955,,490751,,1513264982,966820663,'',0.436332312999,0.422946817933,0.0455995840687,-0.0133854950653,0.001,-73.2821850902,-6500.0,0.0,-300.0,0.0
1513264984752374263,,490752,,1513264982,976820663,'',0.436332312999,0.423516500961,0.0695862039752,-0.0128158120372,0.001,-62.7836214461,-6500.0,0.0,-300.0,0.0
1513264984762199455,,490753,,1513264982,986820663,'',0.436332312999,0.424110268086,0.0575879550549,-0.0122220449123,0.001,-62.1279946655,-6500.0,0.0,-300.0,0.0
1513264984772149330,,490754,,1513264982,996820663,'',0.436332312999,0.424644897016,0.0645375537128,-0.0116874159825,0.001,-56.5084569546,-6500.0,0.0,-300.0,0.0
1513264984782259849,,490755,,1513264983,6820663,'',0.436332312999,0.425194787305,0.0534234223374,-0.0111375256936,0.001,-56.2485884958,-6500.0,0.0,-300.0,0.0
1513264984792051958,,490756,,1513264983,16820663,'',0.436332312999,0.425709163734,0.0607864872382,-0.0106231492647,0.001,-51.1084600632,-6500.0,0.0,-300.0,0.0
1513264984802059771,,490757,,1513264983,26820663,'',0.436332312999,0.426222913019,0.0504086244414,-0.01010939998,0.001,-51.1998004785,-6500.0,0.0,-300.0,0.0
1513264984812471452,,490758,,1513264983,36820663,'',0.436332312999,0.426675570904,0.0412651955896,-0.00965674209427,0.001,-50.3234031637,-6500.0,0.0,-300.0,0.0
1513264984822334444,,490759,,1513264983,46820663,'',0.436332312999,0.42710992433,0.0324849653498,-0.00922238866821,0.001,-50.1485637781,-6500.0,0.0,-300.0,0.0
1513264984832121503,,490760,,1513264983,56820663,'',0.436332312999,0.427528194721,0.0417821721976,-0.00880411827788,0.001,-44.8681122683,-6500.0,0.0,-300.0,0.0
1513264984842114270,,490761,,1513264983,66820663,'',0.436332312999,0.4279211157,0.0515951871275,-0.00841119729882,0.001,-39.0665408061,-6500.0,0.0,-300.0,0.0
1513264984852173851,,490762,,1513264983,76820663,'',0.436332312999,0.428304185791,0.0261091506079,-0.00802812720735,0.001,-44.3164603515,-6500.0,0.0,-300.0,0.0
1513264984862087662,,490763,,1513264983,86820663,'',0.436332312999,0.428680478984,0.0362529352653,-0.00765183401459,0.001,-38.7936521828,-6500.0,0.0,-300.0,0.0
1513264984872020035,,490764,,1513264983,96820663,'',0.436332312999,0.429006099674,0.029676587045,-0.00732621332424,0.001,-38.8766668654,-6500.0,0.0,-300.0,0.0
1513264984882406173,,490765,,1513264983,106820663,'',0.436332312999,0.42932234145,0.0410370715051,-0.00700997154847,0.001,-33.116490936,-6500.0,0.0,-300.0,0.0
1513264984892274219,,490766,,1513264983,116820663,'',0.436332312999,0.4295952553,0.0177734933618,-0.00673705769814,0.001,-38.4244901945,-6500.0,0.0,-300.0,0.0
1513264984902291641,,490767,,1513264983,126820663,'',0.436332312999,0.429865884554,0.0300544375727,-0.00646642844474,0.001,-33.3415409901,-6500.0,0.0,-300.0,0.0
1513264984912212567,,490768,,1513264983,136820663,'',0.436332312999,0.430076018781,0.0258106414697,-0.00625629421772,0.001,-32.9137883033,-6500.0,0.0,-300.0,0.0
1513264984922124061,,490769,,1513264983,146820663,'',0.436332312999,0.430291146249,0.0214659855021,-0.0060411667496,0.001,-32.9366984854,-6500.0,0.0,-300.0,0.0
1513264984931813162,,490770,,1513264983,156820663,'',0.436332312999,0.430483987548,0.0175713464861,-0.00584832545089,0.001,-32.7137898896,-6500.0,0.0,-300.0,0.0
1513264984941974808,,490771,,1513264983,166820663,'',0.436332312999,0.430675077107,0.0137113894069,-0.00565723589185,0.001,-32.6328652172,-6500.0,0.0,-300.0,0.0
1513264984952450743,,490772,,1513264983,176820663,'',0.436332312999,0.430815026819,0.0108801850536,-0.00551728617967,0.001,-32.5630132585,-6500.0,0.0,-300.0,0.0
1513264984962180861,,490773,,1513264983,186820663,'',0.436332312999,0.430979710803,0.0253123398701,-0.00535260219562,0.001,-26.9620180837,-6500.0,0.0,-300.0,0.0
1513264984972057489,,490774,,1513264983,196820663,'',0.436332312999,0.431158867632,0.0216931711671,-0.00517344536648,0.001,-27.2118166297,-6500.0,0.0,-300.0,0.0
1513264984982080408,,490775,,1513264983,206820663,'',0.436332312999,0.431338982224,0.0180540470761,-0.00499333077463,0.001,-27.0090852411,-6500.0,0.0,-300.0,0.0
1513264984991987630,,490776,,1513264983,216820663,'',0.436332312999,0.431501062416,0.0147792920762,-0.00483125058225,0.001,-26.9468800279,-6500.0,0.0,-300.0,0.0
1513264985002145243,,490777,,1513264983,226820663,'',0.436332312999,0.431618844127,0.0123955414379,-0.00471346887113,0.001,-26.8925627167,-6500.0,0.0,-300.0,0.0
1513264985012026740,,490778,,1513264983,236820663,'',0.436332312999,0.431731619833,0.0278634523553,-0.00460069316578,0.001,-21.468601227,-6500.0,0.0,-300.0,0.0
1513264985022426776,,490779,,1513264983,246820663,'',0.436332312999,0.431838208438,0.00795891885655,-0.00449410456086,0.001,-26.819131133,-6500.0,0.0,-300.0,0.0
1513264985032513280,,490780,,1513264983,256820663,'',0.436332312999,0.431909618878,0.00651764234746,-0.00442269412098,0.001,-26.7806876583,-6500.0,0.0,-300.0,0.0
1513264985042474895,,490781,,1513264983,266820663,'',0.436332312999,0.431982889834,0.00504175116854,-0.00434942316489,0.001,-26.7842073217,-6500.0,0.0,-300.0,0.0
1513264985052320331,,490782,,1513264983,276820663,'',0.436332312999,0.43206136777,0.0212079029666,-0.00427094522829,0.001,-21.4582144665,-6500.0,0.0,-300.0,0.0
1513264985062157656,,490783,,1513264983,286820663,'',0.436332312999,0.432157646858,0.0192661900851,-0.00417466614068,0.001,-21.339550053,-6500.0,0.0,-300.0,0.0
1513264985072119606,,490784,,1513264983,296820663,'',0.436332312999,0.432298726354,0.0164130773249,-0.00403358664429,0.001,-21.2754033829,-6500.0,0.0,-300.0,0.0
1513264985082075682,,490785,,1513264983,306820663,'',0.436332312999,0.432398450897,0.0143987322169,-0.00393386210161,0.001,-21.2423151835,-6500.0,0.0,-300.0,0.0
1513264985092091273,,490786,,1513264983,316820663,'',0.436332312999,0.432511635326,0.0121156610499,-0.00382067767261,0.001,-21.1834974365,-6500.0,0.0,-300.0,0.0
1513264985101976470,,490787,,1513264983,326820663,'',0.436332312999,0.432620176869,0.00992183148392,-0.0037121361299,0.001,-21.1992337291,-6500.0,0.0,-300.0,0.0
1513264985112413168,,490788,,1513264983,336820663,'',0.436332312999,0.432691716302,-0.00927267937874,-0.00364059669619,0.001,-26.4638536778,-6500.0,0.0,-300.0,0.0
1513264985122273189,,490789,,1513264983,346820663,'',0.436332312999,0.432752600158,0.00724219434127,-0.00357971284099,0.001,-21.0827553749,-6500.0,0.0,-300.0,0.0
1513264985132034756,,490790,,1513264983,356820663,'',0.436332312999,0.432802028099,0.00624391399524,-0.00353028489921,0.001,-21.0948289594,-6500.0,0.0,-300.0,0.0
1513264985142024515,,490791,,1513264983,366820663,'',0.436332312999,0.432872655453,0.00481622724556,-0.00345965754554,0.001,-21.0325666031,-6500.0,0.0,-300.0,0.0
1513264985152313807,,490792,,1513264983,376820663,'',0.436332312999,0.432931761476,0.00362299099894,-0.00340055152245,0.001,-21.0115008787,-6500.0,0.0,-300.0,0.0
1513264985162252512,,490793,,1513264983,386820663,'',0.436332312999,0.432996776502,0.00230442861035,-0.00333553649621,0.001,-20.9987270435,-6500.0,0.0,-300.0,0.0
1513264985172170197,,490794,,1513264983,396820663,'',0.436332312999,0.433033282437,0.00156648143999,-0.00329903056202,0.001,-20.9698254116,-6500.0,0.0,-300.0,0.0
1513264985182061307,,490795,,1513264983,406820663,'',0.436332312999,0.433128712814,0.0173803794898,-0.00320360018449,0.001,-15.5688326353,-6500.0,0.0,-300.0,0.0
1513264985192062408,,490796,,1513264983,416820663,'',0.436332312999,0.433205477302,0.0158319328588,-0.00312683569616,0.001,-15.6585569022,-6500.0,0.0,-300.0,0.0
1513264985201952009,,490797,,1513264983,426820663,'',0.436332312999,0.433268252741,0.0145600635313,-0.00306406025803,0.001,-15.5051158923,-6500.0,0.0,-300.0,0.0
1513264985212026101,,490798,,1513264983,436820663,'',0.436332312999,0.433399056609,0.0119198078027,-0.00293325638914,0.001,-15.4729121961,-6500.0,0.0,-300.0,0.0
1513264985222402998,,490799,,1513264983,446820663,'',0.436332312999,0.43352250147,0.0094281203093,-0.00280981152816,0.001,-15.3705154484,-6500.0,0.0,-300.0,0.0
1513264985232365285,,490800,,1513264983,456820663,'',0.436332312999,0.433656662351,0.00672397834035,-0.00267565064793,0.001,-15.3683759034,-6500.0,0.0,-300.0,0.0
1513264985242326666,,490801,,1513264983,466820663,'',0.436332312999,0.433749012337,0.00486197052689,-0.00258330066127,0.001,-15.3216303762,-6500.0,0.0,-300.0,0.0
1513264985252323791,,490802,,1513264983,476820663,'',0.436332312999,0.43390633672,0.0194317396761,-0.00242597627901,0.001,-10.0331605609,-6500.0,0.0,-300.0,0.0
1513264985262283580,,490803,,1513264983,486820663,'',0.436332312999,0.434049044536,0.0165489835914,-0.00228326846209,0.001,-9.84187571105,-6500.0,0.0,-300.0,0.0
1513264985272373402,,490804,,1513264983,496820663,'',0.436332312999,0.43413369755,0.0148317981197,-0.00219861544826,0.001,-9.91657344,-6500.0,0.0,-300.0,0.0
1513264985282318474,,490805,,1513264983,506820663,'',0.436332312999,0.434235913943,0.0127708009601,-0.00209639905531,0.001,-9.76875027802,-6500.0,0.0,-300.0,0.0
1513264985292224416,,490806,,1513264983,516820663,'',0.436332312999,0.434318332229,0.0111069424706,-0.00201398076992,0.001,-9.73516874386,-6500.0,0.0,-300.0,0.0
1513264985302235160,,490807,,1513264983,526820663,'',0.436332312999,0.43438494778,-0.00797998348131,-0.00194736521871,0.001,-15.0081570168,-6500.0,0.0,-300.0,0.0
1513264985312209275,,490808,,1513264983,536820663,'',0.436332312999,0.434439638413,-0.00907839936908,-0.00189267458537,0.001,-15.0408305721,-6500.0,0.0,-300.0,0.0
1513264985322101244,,490809,,1513264983,546820663,'',0.436332312999,0.434500231291,0.00744680707259,0.0,0.001,0.0,-6500.0,0.0,-300.0,0.0
1513264985332072713,,490810,,1513264983,556820663,'',0.436332312999,0.434566850366,0.00609826862222,0.0,0.001,0.0,-6500.0,0.0,-300.0,0.0
1513264985342065416,,490811,,1513264983,566820663,'',0.436332312999,0.43463605747,0.00469704668783,0.0,0.001,0.0,-6500.0,0.0,-300.0,0.0
1513264985352402955,,490812,,1513264983,576820663,'',0.436332312999,0.434695588574,0.0212405971471,0.0,0.001,0.0,-6500.0,0.0,-300.0,0.0
1513264985362408675,,490813,,1513264983,586820663,'',0.436332312999,0.43480947267,0.0189377313358,0.0,0.001,0.0,-6500.0,0.0,-300.0,0.0
1513264985372321097,,490814,,1513264983,596820663,'',0.436332312999,0.434933304455,0.0164276296326,0.0,0.001,0.0,-6500.0,0.0,-300.0,0.0
1513264985382324902,,490815,,1513264983,606820663,'',0.436332312999,0.435080843555,0.0134476278174,0.0,0.001,0.0,-6500.0,0.0,-300.0,0.0
1513264985392215386,,490816,,1513264983,616820663,'',0.436332312999,0.43520137705,0.0110130865018,0.0,0.001,0.0,-6500.0,0.0,-300.0,0.0
1513264985402213153,,490817,,1513264983,626820663,'',0.436332312999,0.435317426107,0.0086693780504,0.0,0.001,0.0,-6500.0,0.0,-300.0,0.0
1513264985412269332,,490818,,1513264983,636820663,'',0.436332312999,0.435475059349,0.00548140672298,0.0,0.001,0.0,-6500.0,0.0,-300.0,0.0
1513264985422789333,,490819,,1513264983,646820663,'',0.436332312999,0.435683234986,0.0190251430679,0.0,0.001,0.0,-6500.0,0.0,-300.0,0.0
1513264985432446304,,490820,,1513264983,656820663,'',0.436332312999,0.43588722019,0.0326517800627,0.0,0.001,0.0,-6500.0,0.0,-300.0,0.0
1513264985442518972,,490821,,1513264983,666820663,'',0.436332312999,0.436100958686,0.0283272780072,0.0,0.001,0.0,-6500.0,0.0,-300.0,0.0
1513264985452507110,,490822,,1513264983,676820663,'',0.436332312999,0.43632462047,0.0238093470245,0.0,0.001,0.0,-6500.0,0.0,-300.0,0.0
1513264985462264965,,490823,,1513264983,686820663,'',0.436332312999,0.436490366821,0.0204631490057,0.0,0.001,0.0,-6500.0,0.0,-300.0,0.0
1513264985472242077,,490824,,1513264983,696820663,'',0.436332312999,0.436658349376,0.01707189442,0.0,0.001,0.0,-6500.0,0.0,-300.0,0.0
1513264985482226353,,490825,,1513264983,706820663,'',0.436332312999,0.436794195672,-0.00341984707926,0.0,0.001,0.0,-6500.0,0.0,-300.0,0.0
1513264985492137201,,490826,,1513264983,716820663,'',0.436332312999,0.436905396047,-0.0056647271679,0.0,0.001,0.0,-6500.0,0.0,-300.0,0.0
1513264985502169280,,490827,,1513264983,726820663,'',0.436332312999,0.437078381233,0.0263317097138,0.0,0.001,0.0,-6500.0,0.0,-300.0,0.0
1513264985512116477,,490828,,1513264983,736820663,'',0.436332312999,0.437284624226,0.0221586984765,0.0,0.001,0.0,-6500.0,0.0,-300.0,0.0
1513264985522014869,,490829,,1513264983,746820663,'',0.436332312999,0.437468593786,0.0184478675034,0.0,0.001,0.0,-6500.0,0.0,-300.0,0.0
1513264985531971839,,490830,,1513264983,756820663,'',0.436332312999,0.437666422286,0.0322028972131,0.0,0.001,0.0,-6500.0,0.0,-300.0,0.0
1513264985542440515,,490831,,1513264983,766820663,'',0.436332312999,0.437878643458,0.0279122253524,0.0,0.001,0.0,-6500.0,0.0,-300.0,0.0
1513264985552634744,,490832,,1513264983,776820663,'',0.436332312999,0.438114457249,0.0231499900905,0.0,0.001,0.0,-6500.0,0.0,-300.0,0.0
1513264985562791954,,490833,,1513264983,786820663,'',0.436332312999,0.438258904554,0.00248844020434,0.0,0.001,0.0,-6500.0,0.0,-300.0,0.0
1513264985572557833,,490834,,1513264983,796820663,'',0.436332312999,0.438378125945,0.017830524266,0.0,0.001,0.0,-6500.0,0.0,-300.0,0.0
1513264985582467065,,490835,,1513264983,806820663,'',0.436332312999,0.438489670606,0.0155768478238,0.0,0.001,0.0,-6500.0,0.0,-300.0,0.0
1513264985592347182,,490836,,1513264983,816820663,'',0.436332312999,0.438583732349,0.0136768047131,0.0,0.001,0.0,-6500.0,0.0,-300.0,0.0
1513264985602200120,,490837,,1513264983,826820663,'',0.436332312999,0.438690704786,0.0115163372698,0.0,0.001,0.0,-6500.0,0.0,-300.0,0.0
1513264985612226921,,490838,,1513264983,836820663,'',0.436332312999,0.438748874407,0.0103415014555,0.0,0.001,0.0,-6500.0,0.0,-300.0,0.0
1513264985622506065,,490839,,1513264983,846820663,'',0.436332312999,0.438765125442,0.0100117833278,0.0,0.001,0.0,-6500.0,0.0,-300.0,0.0
1513264985632316537,,490840,,1513264983,856820663,'',0.436332312999,0.438840509427,0.00849339143467,0.0,0.001,0.0,-6500.0,0.0,-300.0,0.0
1513264985642268520,,490841,,1513264983,866820663,'',0.436332312999,0.438900627775,0.00727495720659,0.0,0.001,0.0,-6500.0,0.0,-300.0,0.0
1513264985652420711,,490842,,1513264983,876820663,'',0.436332312999,0.43896580676,0.00595813555259,0.0,0.001,0.0,-6500.0,0.0,-300.0,0.0
1513264985662440180,,490843,,1513264983,886820663,'',0.436332312999,0.439019308759,0.00487722592865,0.0,0.001,0.0,-6500.0,0.0,-300.0,0.0
1513264985672253980,,490844,,1513264983,896820663,'',0.436332312999,0.439126973038,0.00269824102144,0.0,0.001,0.0,-6500.0,0.0,-300.0,0.0
1513264985682518580,,490845,,1513264983,906820663,'',0.436332312999,0.439278940357,0.0173680307238,0.0,0.001,0.0,-6500.0,0.0,-300.0,0.0
1513264985692494588,,490846,,1513264983,916820663,'',0.436332312999,0.439465688432,0.0135976431813,0.0,0.001,0.0,-6500.0,0.0,-300.0,0.0
1513264985702406507,,490847,,1513264983,926820663,'',0.436332312999,0.439667759761,0.00951374391306,0.0,0.001,0.0,-6500.0,0.0,-300.0,0.0
1513264985712566563,,490848,,1513264983,936820663,'',0.436332312999,0.43983002229,0.00624050544161,0.0,0.001,0.0,-6500.0,0.0,-300.0,0.0
1513264985722642884,,490849,,1513264983,946820663,'',0.436332312999,0.439931971855,0.00418463921388,0.0,0.001,0.0,-6500.0,0.0,-300.0,0.0
1513264985732452190,,490850,,1513264983,956820663,'',0.436332312999,0.440015902475,0.00250129900152,0.0,0.001,0.0,-6500.0,0.0,-300.0,0.0
1513264985742718355,,490851,,1513264983,966820663,'',0.436332312999,0.440038241796,0.00204825215263,0.0,0.001,0.0,-6500.0,0.0,-300.0,0.0
1513264985752463068,,490852,,1513264983,976820663,'',0.436332312999,0.44007269194,0.00134691982095,0.0,0.001,0.0,-6500.0,0.0,-300.0,0.0
1513264985762522025,,490853,,1513264983,986820663,'',0.436332312999,0.44014762891,-0.000161317956504,0.0,0.001,0.0,-6500.0,0.0,-300.0,0.0
1513264985772221850,,490854,,1513264983,996820663,'',0.436332312999,0.440193509757,-0.00108385912642,0.0,0.001,0.0,-6500.0,0.0,-300.0,0.0
1513264985782515286,,490855,,1513264984,6820663,'',0.436332312999,0.440327583401,0.0139539029304,0.0,0.001,0.0,-6500.0,0.0,-300.0,0.0
1513264985792474735,,490856,,1513264984,16820663,'',0.436332312999,0.44043566613,0.0117687716618,0.0,0.001,0.0,-6500.0,0.0,-300.0,0.0
1513264985802498412,,490857,,1513264984,26820663,'',0.436332312999,0.440621973526,0.0257558785565,0.0,0.001,0.0,-6500.0,0.0,-300.0,0.0
1513264985812439759,,490858,,1513264984,36820663,'',0.436332312999,0.440821494759,0.0217258150351,0.0,0.001,0.0,-6500.0,0.0,-300.0,0.0
1513264985822890781,,490859,,1513264984,46820663,'',0.436332312999,0.441048300598,0.0171404206624,0.0,0.001,0.0,-6500.0,0.0,-300.0,0.0
1513264985832693192,,490860,,1513264984,56820663,'',0.436332312999,0.44123593433,0.0133592754761,0.0,0.001,0.0,-6500.0,0.0,-300.0,0.0
1513264985842429166,,490861,,1513264984,66820663,'',0.436332312999,0.441405215247,0.00994249959996,0.0,0.001,0.0,-6500.0,0.0,-300.0,0.0
1513264985852457461,,490862,,1513264984,76820663,'',0.436332312999,0.441559294951,0.0245750786354,0.0,0.001,0.0,-6500.0,0.0,-300.0,0.0
1513264985862538179,,490863,,1513264984,86820663,'',0.436332312999,0.441652158697,0.00495132111993,0.0,0.001,0.0,-6500.0,0.0,-300.0,0.0
1513264985872639983,,490864,,1513264984,96820663,'',0.436332312999,0.441696334462,0.00405534635135,0.0,0.001,0.0,-6500.0,0.0,-300.0,0.0
1513264985882354748,,490865,,1513264984,106820663,'',0.436332312999,0.441732602203,0.00331976248562,0.0,0.001,0.0,-6500.0,0.0,-300.0,0.0
1513264985892275032,,490866,,1513264984,116820663,'',0.436332312999,0.441779704458,0.0201133014232,0.0,0.001,0.0,-6500.0,0.0,-300.0,0.0
1513264985902177624,,490867,,1513264984,126820663,'',0.436332312999,0.441817584684,0.00159726562953,0.0,0.001,0.0,-6500.0,0.0,-300.0,0.0
1513264985912290673,,490868,,1513264984,136820663,'',0.436332312999,0.441847999293,0.000981516509895,0.0,0.001,0.0,-6500.0,0.0,-300.0,0.0
1513264985922310601,,490869,,1513264984,146820663,'',0.436332312999,0.441937167563,-0.000819553043022,0.0,0.001,0.0,-6500.0,0.0,-300.0,0.0
1513264985932314912,,490870,,1513264984,156820663,'',0.436332312999,0.442073825036,0.0141662131445,0.0,0.001,0.0,-6500.0,0.0,-300.0,0.0
1513264985942120378,,490871,,1513264984,166820663,'',0.436332312999,0.442200742971,0.0116013034618,0.0,0.001,0.0,-6500.0,0.0,-300.0,0.0
1513264985952218882,,490872,,1513264984,176820663,'',0.436332312999,0.442388197215,0.0255619550629,0.0,0.001,0.0,-6500.0,0.0,-300.0,0.0
1513264985962004304,,490873,,1513264984,186820663,'',0.436332312999,0.442615870189,0.0209550257507,0.0,0.001,0.0,-6500.0,0.0,-300.0,0.0
1513264985972416249,,490874,,1513264984,196820663,'',0.436332312999,0.44282089401,0.0168180247301,0.0,0.001,0.0,-6500.0,0.0,-300.0,0.0
1513264985982529155,,490875,,1513264984,206820663,'',0.436332312999,0.442971271138,0.013784635271,0.0,0.001,0.0,-6500.0,0.0,-300.0,0.0
1513264985992303546,,490876,,1513264984,216820663,'',0.436332312999,0.443077525476,0.0116325585729,0.0,0.001,0.0,-6500.0,0.0,-300.0,0.0
1513264986002255449,,490877,,1513264984,226820663,'',0.436332312999,0.44319812591,0.00919633160574,0.0,0.001,0.0,-6500.0,0.0,-300.0,0.0
1513264986012177866,,490878,,1513264984,236820663,'',0.436332312999,0.443295887966,0.00722513693225,0.0,0.001,0.0,-6500.0,0.0,-300.0,0.0
1513264986021998497,,490879,,1513264984,246820663,'',0.436332312999,0.443360738847,0.00591425837092,0.0,0.001,0.0,-6500.0,0.0,-300.0,0.0
1513264986032003352,,490880,,1513264984,256820663,'',0.436332312999,0.443428912937,0.00453681874798,0.0,0.001,0.0,-6500.0,0.0,-300.0,0.0
1513264986042172888,,490881,,1513264984,266820663,'',0.436332312999,0.44350002795,0.00309942084732,0.0,0.001,0.0,-6500.0,0.0,-300.0,0.0
1513264986052662624,,490882,,1513264984,276820663,'',0.436332312999,0.443608631448,0.0186534955064,0.0,0.001,0.0,-6500.0,0.0,-300.0,0.0
1513264986062431594,,490883,,1513264984,286820663,'',0.436332312999,0.443680977109,-0.000560792782419,0.0,0.001,0.0,-6500.0,0.0,-300.0,0.0
1513264986072700383,,490884,,1513264984,296820663,'',0.436332312999,0.443706279015,-0.00107750833808,0.0,0.001,0.0,-6500.0,0.0,-300.0,0.0
1513264986082367643,,490885,,1513264984,306820663,'',0.436332312999,0.443759184421,-0.00214232137117,0.0,0.001,0.0,-6500.0,0.0,-300.0,0.0
1513264986092325760,,490886,,1513264984,316820663,'',0.436332312999,0.443852350827,0.0137269489345,0.0,0.001,0.0,-6500.0,0.0,-300.0,0.0
1513264986102497458,,490887,,1513264984,326820663,'',0.436332312999,0.443959324392,0.0115629258414,0.0,0.001,0.0,-6500.0,0.0,-300.0,0.0
1513264986112395975,,490888,,1513264984,336820663,'',0.436332312999,0.444063104934,0.00946692481578,0.0,0.001,0.0,-6500.0,0.0,-300.0,0.0
1513264986122362549,,490889,,1513264984,346820663,'',0.436332312999,0.444148142804,0.00774945967049,0.0,0.001,0.0,-6500.0,0.0,-300.0,0.0
1513264986132420106,,490890,,1513264984,356820663,'',0.436332312999,0.444217739843,0.00634384487591,0.0,0.001,0.0,-6500.0,0.0,-300.0,0.0
1513264986142601272,,490891,,1513264984,366820663,'',0.436332312999,0.444289277262,0.00490178392185,0.0,0.001,0.0,-6500.0,0.0,-300.0,0.0
1513264986152554272,,490892,,1513264984,376820663,'',0.436332312999,0.444432030043,0.0197622089333,0.0,0.001,0.0,-6500.0,0.0,-300.0,0.0
1513264986162647426,,490893,,1513264984,386820663,'',0.436332312999,0.444888738708,0.0637772458796,0.0,0.001,0.0,-6500.0,0.0,-300.0,0.0
1513264986172411320,,490894,,1513264984,396820663,'',0.436332312999,0.445608273587,0.084741956461,0.0,0.001,0.0,-6500.0,0.0,-300.0,0.0
1513264986182275751,,490895,,1513264984,406820663,'',0.436332312999,0.446386533442,0.0690206291585,0.0,0.001,0.0,-6500.0,0.0,-300.0,0.0
1513264986192224125,,490896,,1513264984,416820663,'',0.436332312999,0.447211972165,0.0700943242011,0.0,0.001,0.0,-6500.0,0.0,-300.0,0.0
1513264986202105651,,490897,,1513264984,426820663,'',0.436332312999,0.447840090397,0.0574045375286,0.0,0.001,0.0,-6500.0,0.0,-300.0,0.0
1513264986212689109,,490898,,1513264984,436820663,'',0.436332312999,0.448372152151,0.0466546987318,0.0120398391529,0.001,92.3815665577,-6500.0,0.0,-300.0,0.0
1513264986222647096,,490899,,1513264984,446820663,'',0.436332312999,0.448694469081,0.0224024266981,0.0123621560826,0.001,87.1119606563,-6500.0,0.0,-300.0,0.0
1513264986232442027,,490900,,1513264984,456820663,'',0.436332312999,0.449054166932,0.0328833306174,0.0127218539331,0.001,92.6034756677,-6500.0,0.0,-300.0,0.0
1513264986242382574,,490901,,1513264984,466820663,'',0.436332312999,0.449515261445,0.0590645551594,0.0131829484463,0.001,103.515036258,-6500.0,0.0,-300.0,0.0
1513264986252406654,,490902,,1513264984,476820663,'',0.436332312999,0.450044579251,0.0483697385524,0.0137122662521,0.001,103.416954669,-6500.0,0.0,-300.0,0.0
1513264986262225084,,490903,,1513264984,486820663,'',0.436332312999,0.450578366258,0.0553329154791,0.0142460532595,0.001,109.295648247,-6500.0,0.0,-300.0,0.0
1513264986272352683,,490904,,1513264984,496820663,'',0.436332312999,0.451090895377,0.0449770616041,0.0147585823787,0.001,109.505730895,-6500.0,0.0,-300.0,0.0
1513264986282071683,,490905,,1513264984,506820663,'',0.436332312999,0.45154496454,0.053551231112,0.0152126515414,0.001,115.010631624,-6500.0,0.0,-300.0,0.0
1513264986292076599,,490906,,1513264984,516820663,'',0.436332312999,0.452237019035,0.075061786805,0.0159047060363,0.001,125.945810943,-6500.0,0.0,-300.0,0.0
1513264986302503239,,490907,,1513264984,526820663,'',0.436332312999,0.452958604843,0.0782290755454,0.0166262918446,0.001,131.137140882,-6500.0,0.0,-300.0,0.0
1513264986312508466,,490908,,1513264984,536820663,'',0.436332312999,0.453647301599,0.0643124506464,0.0173149885999,0.001,132.389837583,-6500.0,0.0,-300.0,0.0
1513264986322895615,,490909,,1513264984,546820663,'',0.436332312999,0.454208850573,0.0529733689522,0.0178765375745,0.001,132.153559671,-6500.0,0.0,-300.0,0.0
1513264986332515393,,490910,,1513264984,556820663,'',0.436332312999,0.454699935702,0.0430441708833,0.0183676227034,0.001,132.394801102,-6500.0,0.0,-300.0,0.0
1513264986342467672,,490911,,1513264984,566820663,'',0.436332312999,0.455167475819,0.0513494357629,0.0188351628209,0.001,137.912052295,-6500.0,0.0,-300.0,0.0
1513264986352344398,,490912,,1513264984,576820663,'',0.436332312999,0.455579532155,0.0430241012148,0.0192472191564,0.001,137.819637425,-6500.0,0.0,-300.0,0.0
1513264986362505934,,490913,,1513264984,586820663,'',0.436332312999,0.455915906922,0.0184785638709,0.0195835939239,0.001,132.857038847,-6500.0,0.0,-300.0,0.0
1513264986372107851,,490914,,1513264984,596820663,'',0.436332312999,0.456241298423,0.0296557447316,0.0199089854247,0.001,138.353810545,-6500.0,0.0,-300.0,0.0
1513264986382198921,,490915,,1513264984,606820663,'',0.436332312999,0.456491321533,0.0246029832341,0.0201590085341,0.001,138.374012692,-6500.0,0.0,-300.0,0.0
1513264986391985241,,490916,,1513264984,616820663,'',0.436332312999,0.456728250609,0.019818517982,0.0203959376104,0.001,138.539562789,-6500.0,0.0,-300.0,0.0
1513264986402618148,,490917,,1513264984,626820663,'',0.436332312999,0.456906407899,0.016220850216,0.0205740949008,0.001,138.633337695,-6500.0,0.0,-300.0,0.0
1513264986412627465,,490918,,1513264984,636820663,'',0.436332312999,0.457068190045,0.0129530375099,0.0207358770468,0.001,138.611559675,-6500.0,0.0,-300.0,0.0
1513264986422548175,,490919,,1513264984,646820663,'',0.436332312999,0.457184555297,0.0106033330087,0.0208522422989,0.001,138.741662003,-6500.0,0.0,-300.0,0.0
1513264986432356018,,490920,,1513264984,656820663,'',0.436332312999,0.457262675344,0.00902605632151,0.0209303623458,0.001,138.764592402,-6500.0,0.0,-300.0,0.0
1513264986442356577,,490921,,1513264984,666820663,'',0.436332312999,0.457326455103,-0.0100067431836,0.0209941421048,0.001,133.499403452,-6500.0,0.0,-300.0,0.0
1513264986452495452,,490922,,1513264984,676820663,'',0.436332312999,0.457314533511,-0.0097622900747,0.0209822205128,0.001,133.43678513,-6500.0,0.0,-300.0,0.0
1513264986462262751,,490923,,1513264984,686820663,'',0.436332312999,0.457273820921,-0.00894137517255,0.0209415079221,0.001,133.399091089,-6500.0,0.0,-300.0,0.0
1513264986472229893,,490924,,1513264984,696820663,'',0.436332312999,0.457193736761,-0.00732379241786,0.0208614237624,0.001,133.456992303,-6500.0,0.0,-300.0,0.0
1513264986482512153,,490925,,1513264984,706820663,'',0.436332312999,0.457127950907,-0.00599501449182,0.0207956379081,0.001,133.360028371,-6500.0,0.0,-300.0,0.0
1513264986492222773,,490926,,1513264984,716820663,'',0.436332312999,0.457074232884,-0.00490998910203,0.0207419198857,0.001,133.374569734,-6500.0,0.0,-300.0,0.0
1513264986502275450,,490927,,1513264984,726820663,'',0.436332312999,0.456982707271,-0.0030607711353,0.0206503942726,0.001,133.321937981,-6500.0,0.0,-300.0,0.0
1513264986512183388,,490928,,1513264984,736820663,'',0.436332312999,0.456938397653,-0.00216646072864,0.0206060846544,0.001,133.28554286,-6500.0,0.0,-300.0,0.0
1513264986522300366,,490929,,1513264984,746820663,'',0.436332312999,0.456902213841,-0.00143482366658,0.0205699008424,0.001,133.281052932,-6500.0,0.0,-300.0,0.0
1513264986532204749,,490930,,1513264984,756820663,'',0.436332312999,0.456811854999,0.000392287227566,0.0204795420001,0.001,133.23463256,-6500.0,0.0,-300.0,0.0
1513264986542018358,,490931,,1513264984,766820663,'',0.436332312999,0.456704538642,-0.0151843409189,0.0203722256436,0.001,127.953963655,-6500.0,0.0,-300.0,0.0
1513264986552095456,,490932,,1513264984,776820663,'',0.436332312999,0.456647947868,-0.0140329889765,0.0203156348699,0.001,127.89278941,-6500.0,0.0,-300.0,0.0
1513264986562482541,,490933,,1513264984,786820663,'',0.436332312999,0.456587204012,0.00494050818228,0.0202548910132,0.001,133.142549468,-6500.0,0.0,-300.0,0.0
1513264986572469959,,490934,,1513264984,796820663,'',0.436332312999,0.456518108045,-0.0114135937027,0.0201857950463,0.001,127.763532974,-6500.0,0.0,-300.0,0.0
1513264986582456141,,490935,,1513264984,806820663,'',0.436332312999,0.456432333473,-0.00968028960058,0.0201000204741,0.001,127.722115918,-6500.0,0.0,-300.0,0.0
1513264986592529218,,490936,,1513264984,816820663,'',0.436332312999,0.45636198278,-0.00826102138942,0.0200296697817,0.001,127.709175747,-6500.0,0.0,-300.0,0.0
1513264986602521862,,490937,,1513264984,826820663,'',0.436332312999,0.456334955999,0.0100342705765,0.020002643,0.001,133.02986646,-6500.0,0.0,-300.0,0.0
1513264986612336033,,490938,,1513264984,836820663,'',0.436332312999,0.4563442992,0.00984197735134,0.020011986201,0.001,133.049501379,-6500.0,0.0,-300.0,0.0
1513264986622168448,,490939,,1513264984,846820663,'',0.436332312999,0.45635249945,-0.00806694028164,0.0200201864519,0.001,127.732497715,-6500.0,0.0,-300.0,0.0
1513264986632185153,,490940,,1513264984,856820663,'',0.436332312999,0.456313940424,0.0104546353534,0.0199816274256,0.001,133.030677364,-6500.0,0.0,-300.0,0.0
1513264986642083403,,490941,,1513264984,866820663,'',0.436332312999,0.456249733489,0.0117527432633,0.0199174204908,0.001,133.000997135,-6500.0,0.0,-300.0,0.0
1513264986652046878,,490942,,1513264984,876820663,'',0.436332312999,0.456263121628,0.011483009629,0.0199308086292,0.001,133.003240146,-6500.0,0.0,-300.0,0.0
1513264986662546856,,490943,,1513264984,886820663,'',0.436332312999,0.456206792139,-0.00512974805505,0.0198744791406,0.001,127.631259765,-6500.0,0.0,-300.0,0.0
1513264986672535222,,490944,,1513264984,896820663,'',0.436332312999,0.456175554528,-0.00449657389601,0.0198432415291,0.001,127.621667175,-6500.0,0.0,-300.0,0.0
1513264986682556041,,490945,,1513264984,906820663,'',0.436332312999,0.456167504291,-0.00433561306256,0.0198351912923,0.001,127.617489304,-6500.0,0.0,-300.0,0.0
1513264986692512014,,490946,,1513264984,916820663,'',0.436332312999,0.456143438154,-0.00384975857996,0.0198111251556,0.001,127.634648907,-6500.0,0.0,-300.0,0.0
1513264986702538362,,490947,,1513264984,926820663,'',0.436332312999,0.456123481006,-0.00344695280322,0.0197911680072,0.001,127.595491454,-6500.0,0.0,-300.0,0.0
1513264986712248807,,490948,,1513264984,936820663,'',0.436332312999,0.456123896142,-0.00345939952428,0.0197915831436,0.001,127.623139579,-6500.0,0.0,-300.0,0.0
1513264986722286499,,490949,,1513264984,946820663,'',0.436332312999,0.456125445864,-0.00348692355619,0.0197931328659,0.001,127.601770989,-6500.0,0.0,-300.0,0.0
1513264986732143154,,490950,,1513264984,956820663,'',0.436332312999,0.456124837787,-0.0034774052661,0.0197925247889,0.001,127.579401405,-6500.0,0.0,-300.0,0.0
1513264986742104269,,490951,,1513264984,966820663,'',0.436332312999,0.456110504917,-0.00318900145702,0.0197781919182,0.001,127.610948054,-6500.0,0.0,-300.0,0.0
1513264986752008023,,490952,,1513264984,976820663,'',0.436332312999,0.456098677574,-0.00294672949198,0.0197663645759,0.001,127.591821223,-6500.0,0.0,-300.0,0.0
1513264986762191602,,490953,,1513264984,986820663,'',0.436332312999,0.456072188514,-0.00241229093881,0.0197398755158,0.001,127.582372844,-6500.0,0.0,-300.0,0.0
1513264986772514492,,490954,,1513264984,996820663,'',0.436332312999,0.456097593766,-0.00293066774696,0.0197652807677,0.001,127.59222387,-6500.0,0.0,-300.0,0.0
1513264986782526329,,490955,,1513264985,6820663,'',0.436332312999,0.456071348251,-0.00240009196726,0.0197390352526,0.001,127.582712134,-6500.0,0.0,-300.0,0.0
1513264986792287181,,490956,,1513264985,16820663,'',0.436332312999,0.456049817674,-0.00196483272452,0.0197175046749,0.001,127.573520584,-6500.0,0.0,-300.0,0.0
1513264986802372665,,490957,,1513264985,26820663,'',0.436332312999,0.456032188654,-0.00160844685197,0.0196998756554,0.001,127.565994635,-6500.0,0.0,-300.0,0.0
1513264986812347980,,490958,,1513264985,36820663,'',0.436332312999,0.456017785806,-0.00131728081898,0.019685472807,0.001,127.578666909,-6500.0,0.0,-300.0,0.0
1513264986822357057,,490959,,1513264985,46820663,'',0.436332312999,0.456022086241,-0.00140446698586,0.019689773242,0.001,127.560870819,-6500.0,0.0,-300.0,0.0
1513264986832118421,,490960,,1513264985,56820663,'',0.436332312999,0.456009489381,-0.00114976539731,0.0196771763826,0.001,127.555640215,-6500.0,0.0,-300.0,0.0
1513264986842211791,,490961,,1513264985,66820663,'',0.436332312999,0.456014333055,-0.00124805789493,0.0196820200562,0.001,127.565215353,-6500.0,0.0,-300.0,0.0
1513264986851973535,,490962,,1513264985,76820663,'',0.436332312999,0.456019291471,-0.00134801568722,0.0196869784727,0.001,127.558056155,-6500.0,0.0,-300.0,0.0
1513264986862003604,,490963,,1513264985,86820663,'',0.436332312999,0.456007198063,-0.00110348319625,0.0196748850647,0.001,127.553334672,-6500.0,0.0,-300.0,0.0
1513264986872480269,,490964,,1513264985,96820663,'',0.436332312999,0.45599732186,-0.000903783271601,0.0196650088611,0.001,127.556327461,-6500.0,0.0,-300.0,0.0
1513264986882455378,,490965,,1513264985,106820663,'',0.436332312999,0.455989213779,-0.000739835346661,0.0196569007805,0.001,127.54674053,-6500.0,0.0,-300.0,0.0
1513264986892346985,,490966,,1513264985,116820663,'',0.436332312999,0.455982578376,-0.000605665416035,0.0196502653771,0.001,127.544291064,-6500.0,0.0,-300.0,0.0
1513264986902551594,,490967,,1513264985,126820663,'',0.436332312999,0.455977144907,-0.000495798975032,0.0196448319082,0.001,127.541780332,-6500.0,0.0,-300.0,0.0
1513264986912378186,,490968,,1513264985,136820663,'',0.436332312999,0.455972706152,-0.000406045972133,0.0196403931537,0.001,127.542945325,-6500.0,0.0,-300.0,0.0
1513264986922306873,,490969,,1513264985,146820663,'',0.436332312999,0.455969064111,-0.000332402761089,0.0196367511125,0.001,127.538854397,-6500.0,0.0,-300.0,0.0
1513264986932091530,,490970,,1513264985,156820663,'',0.436332312999,0.455966082872,-0.000272121165196,0.019633769873,0.001,127.537695062,-6500.0,0.0,-300.0,0.0
1513264986942347969,,490971,,1513264985,166820663,'',0.436332312999,0.455979798943,-0.000549216430647,0.0196474859446,0.001,127.543668771,-6500.0,0.0,-300.0,0.0
1513264986952404235,,490972,,1513264985,176820663,'',0.436332312999,0.455960015045,-0.000149066228261,0.0196277020463,0.001,127.535010657,-6500.0,0.0,-300.0,0.0
1513264986962436502,,490973,,1513264985,186820663,'',0.436332312999,0.455990155519,-0.000762720576114,0.0196578425201,0.001,127.548050405,-6500.0,0.0,-300.0,0.0
1513264986972414375,,490974,,1513264985,196820663,'',0.436332312999,0.455997877808,-0.000921633165207,0.0196655648091,0.001,127.556035506,-6500.0,0.0,-300.0,0.0
1513264986982265323,,490975,,1513264985,206820663,'',0.436332312999,0.455974981318,-0.000458591645528,0.0196426683197,0.001,127.536545833,-6500.0,0.0,-300.0,0.0
1513264986992119994,,490976,,1513264985,216820663,'',0.436332312999,0.455987373618,-0.00070480445132,0.0196550606193,0.001,127.546457069,-6500.0,0.0,-300.0,0.0
1513264987002500703,,490977,,1513264985,226820663,'',0.436332312999,0.455981069624,-0.000576940640955,0.0196487566253,0.001,127.543299737,-6500.0,0.0,-300.0,0.0
1513264987012060896,,490978,,1513264985,236820663,'',0.436332312999,0.45600859087,-0.00113175247522,0.0196762778716,0.001,127.56245377,-6500.0,0.0,-300.0,0.0
1513264987022240413,,490979,,1513264985,246820663,'',0.436332312999,0.456013622953,-0.00122981190316,0.0196813099546,0.001,127.555397882,-6500.0,0.0,-300.0,0.0
1513264987031973217,,490980,,1513264985,256820663,'',0.436332312999,0.456053986656,0.0157026441289,0.0197216736569,0.001,132.93446318,-6500.0,0.0,-300.0,0.0
1513264987041997869,,490981,,1513264985,266820663,'',0.436332312999,0.456052489287,-0.00201624112344,0.0197201762881,0.001,127.585590324,-6500.0,0.0,-300.0,0.0
1513264987052521492,,490982,,1513264985,276820663,'',0.436332312999,0.456034375684,-0.00165053067742,0.0197020626852,0.001,127.565973774,-6500.0,0.0,-300.0,0.0
1513264987062431296,,490983,,1513264985,286820663,'',0.436332312999,0.456019531295,-0.00135082508911,0.0196872182965,0.001,127.554047685,-6500.0,0.0,-300.0,0.0
1513264987072306419,,490984,,1513264985,296820663,'',0.436332312999,0.456054743457,-0.00204598448005,0.0197224304583,0.001,127.586948328,-6500.0,0.0,-300.0,0.0
1513264987082090465,,490985,,1513264985,306820663,'',0.436332312999,0.456131790333,0.0141425575668,0.0197994773344,0.001,132.931609908,-6500.0,0.0,-300.0,0.0
1513264987092049226,,490986,,1513264985,316820663,'',0.436332312999,0.456115436025,-0.00327878713891,0.0197831230266,0.001,127.60343441,-6500.0,0.0,-300.0,0.0
1513264987102192675,,490987,,1513264985,326820663,'',0.436332312999,0.456070135815,-0.00236161580875,0.0197378228165,0.001,127.579450377,-6500.0,0.0,-300.0,0.0
1513264987112058871,,490988,,1513264985,336820663,'',0.436332312999,0.45604886549,-0.00193414568803,0.0197165524911,0.001,127.589683713,-6500.0,0.0,-300.0,0.0
1513264987122348174,,490989,,1513264985,346820663,'',0.436332312999,0.456063741028,-0.00223928857297,0.0197314280295,0.001,127.577518457,-6500.0,0.0,-300.0,0.0
1513264987132407945,,490990,,1513264985,356820663,'',0.436332312999,0.456043590028,-0.0018331911976,0.0197112770299,0.001,127.569799854,-6500.0,0.0,-300.0,0.0
1513264987142348592,,490991,,1513264985,366820663,'',0.436332312999,0.456027115808,-0.0015011909163,0.0196948028098,0.001,127.562089464,-6500.0,0.0,-300.0,0.0
1513264987152459883,,490992,,1513264985,376820663,'',0.436332312999,0.456013609158,-0.00122899522117,0.0196812961592,0.001,127.556638796,-6500.0,0.0,-300.0,0.0
1513264987162162335,,490993,,1513264985,386820663,'',0.436332312999,0.456017281146,-0.00130145607032,0.0196849681479,0.001,127.56170641,-6500.0,0.0,-300.0,0.0
1513264987172029012,,490994,,1513264985,396820663,'',0.436332312999,0.456021095,-0.00137883737497,0.019688782001,0.001,127.568851971,-6500.0,0.0,-300.0,0.0
1513264987181957652,,490995,,1513264985,406820663,'',0.436332312999,0.456023795796,-0.00143462946208,0.0196914827973,0.001,127.55856808,-6500.0,0.0,-300.0,0.0
1513264987191970701,,490996,,1513264985,416820663,'',0.436332312999,0.456010896964,-0.00117462029477,0.0196785839657,0.001,127.556564881,-6500.0,0.0,-300.0,0.0
1513264987202076145,,490997,,1513264985,426820663,'',0.436332312999,0.456000329292,-0.000961601649237,0.0196680162935,0.001,127.551836664,-6500.0,0.0,-300.0,0.0
1513264987212367846,,490998,,1513264985,436820663,'',0.436332312999,0.455991693724,-0.000787529539125,0.0196593807255,0.001,127.559251041,-6500.0,0.0,-300.0,0.0
1513264987222366104,,490999,,1513264985,446820663,'',0.436332312999,0.45600138865,-0.000980113970204,0.0196690756512,0.001,127.551066573,-6500.0,0.0,-300.0,0.0
1513264987232346452,,491000,,1513264985,456820663,'',0.436332312999,0.455975146573,-0.0181982301801,0.0196428335744,0.001,122.216820583,-6500.0,0.0,-300.0,0.0
1513264987242267242,,491001,,1513264985,466820663,'',0.436332312999,0.455986888671,-0.000690691466243,0.019654575672,0.001,127.550455587,-6500.0,0.0,-300.0,0.0
1513264987252460012,,491002,,1513264985,476820663,'',0.436332312999,0.455980673858,-0.000565412261664,0.0196483608595,0.001,127.54469851,-6500.0,0.0,-300.0,0.0
1513264987262271724,,491003,,1513264985,486820663,'',0.436332312999,0.456006387933,-0.0010938338792,0.0196740749342,0.001,127.55207666,-6500.0,0.0,-300.0,0.0
1513264987272255441,,491004,,1513264985,496820663,'',0.436332312999,0.455997932445,-0.000922111125804,0.019665619446,0.001,127.556395,-6500.0,0.0,-300.0,0.0
1513264987282236721,,491005,,1513264985,506820663,'',0.436332312999,0.45595775659,-0.00010938266519,0.0196254435918,0.001,127.534189124,-6500.0,0.0,-300.0,0.0
1513264987292471681,,491006,,1513264985,516820663,'',0.436332312999,0.455857659292,-0.0158339963032,0.0195253462938,0.001,122.142420997,-6500.0,0.0,-300.0,0.0
1513264987302454956,,491007,,1513264985,526820663,'',0.436332312999,0.45569742523,-0.0125994097567,0.0193651122313,0.001,122.134129338,-6500.0,0.0,-300.0,0.0
1513264987312447382,,491008,,1513264985,536820663,'',0.436332312999,0.455439920909,-0.025145365093,0.0191076079102,0.001,116.635202017,-6500.0,0.0,-300.0,0.0
1513264987322430597,,491009,,1513264985,546820663,'',0.436332312999,0.455036705291,-0.0524871604051,0.0187043922928,0.001,106.057456295,-6500.0,0.0,-300.0,0.0
1513264987332353651,,491010,,1513264985,556820663,'',0.436332312999,0.454513645021,-0.0596577638667,0.018181332022,0.001,100.206518727,-6500.0,0.0,-300.0,0.0
1513264987342223014,,491011,,1513264985,566820663,'',0.436332312999,0.453894133876,-0.0648936450669,0.0175618208776,0.001,94.50520604,-6500.0,0.0,-300.0,0.0
1513264987352276875,,491012,,1513264985,576820663,'',0.436332312999,0.453115929194,-0.0846736716513,0.0167836161952,0.001,83.5648730564,-6500.0,0.0,-300.0,0.0
1513264987362280944,,491013,,1513264985,586820663,'',0.436332312999,0.45235421549,-0.0870317829204,0.0160219024913,0.001,77.9274563962,-6500.0,0.0,-300.0,0.0
1513264987372395926,,491014,,1513264985,596820663,'',0.436332312999,0.451617079059,-0.0721401835236,0.0152847660602,0.001,77.5953134221,-6500.0,0.0,-300.0,0.0
1513264987382271303,,491015,,1513264985,606820663,'',0.436332312999,0.45090335677,-0.0754661481862,0.0145710437714,0.001,71.9357924793,-6500.0,0.0,-300.0,0.0
1513264987392970603,,491016,,1513264985,616820663,'',0.436332312999,0.450272495742,-0.0627253826394,0.0139401827438,0.001,71.3729712863,-6500.0,0.0,-300.0,0.0
1513264987402531511,,491017,,1513264985,626820663,'',0.436332312999,0.449726657373,-0.0516935425832,0.0133943443741,0.001,71.4758718594,-6500.0,0.0,-300.0,0.0
1513264987412131380,,491018,,1513264985,636820663,'',0.436332312999,0.449247578366,-0.059761383686,0.0129152653672,0.001,66.291681405,-6500.0,0.0,-300.0,0.0
1513264987422431656,,491019,,1513264985,646820663,'',0.436332312999,0.448821027226,-0.0511499701023,0.0124887142278,0.001,65.735905244,-6500.0,0.0,-300.0,0.0
1513264987432194344,,491020,,1513264985,656820663,'',0.436332312999,0.44844193714,-0.0257453761027,0.0121096241413,0.001,70.9499168393,-6500.0,0.0,-300.0,0.0
1513264987442487140,,491021,,1513264985,666820663,'',0.436332312999,0.44809802102,-0.0365467118258,0.0117657080212,0.001,65.468952994,-6500.0,0.0,-300.0,0.0
1513264987452045648,,491022,,1513264985,676820663,'',0.436332312999,0.447770498125,-0.029930341928,0.0114381851261,0.001,65.5059181244,-6500.0,0.0,-300.0,0.0
1513264987462412393,,491023,,1513264985,686820663,'',0.436332312999,0.447517614901,-0.0248214993438,0.0111853019029,0.001,65.220776996,-6500.0,0.0,-300.0,0.0
1513264987472516109,,491024,,1513264985,696820663,'',0.436332312999,0.447294760213,-0.0203196094532,0.0109624472143,0.001,65.1412866821,-6500.0,0.0,-300.0,0.0
1513264987482449841,,491025,,1513264985,706820663,'',0.436332312999,0.447112658625,-0.0166409733843,0.0107803456269,0.001,65.1655814928,-6500.0,0.0,-300.0,0.0
1513264987492355464,,491026,,1513264985,716820663,'',0.436332312999,0.446963212508,-0.0136220108038,0.0106308995094,0.001,65.0016822691,-6500.0,0.0,-300.0,0.0
1513264987502252870,,491027,,1513264985,726820663,'',0.436332312999,0.446775975609,-0.00983625752259,0.0104436626099,0.001,64.9136006351,-6500.0,0.0,-300.0,0.0
1513264987512149513,,491028,,1513264985,736820663,'',0.436332312999,0.446671953356,-0.00773891246217,0.0103396403578,0.001,64.9192890549,-6500.0,0.0,-300.0,0.0
1513264987522099101,,491029,,1513264985,746820663,'',0.436332312999,0.446587871253,-0.00604083454243,0.0102555582544,0.001,64.8951141803,-6500.0,0.0,-300.0,0.0
1513264987532277646,,491030,,1513264985,756820663,'',0.436332312999,0.446517201632,-0.00460953753355,0.0101848886331,0.001,64.8112151569,-6500.0,0.0,-300.0,0.0
1513264987542173149,,491031,,1513264985,766820663,'',0.436332312999,0.44644317226,-0.0208595416546,0.0101108592615,0.001,59.5386955502,-6500.0,0.0,-300.0,0.0
1513264987552516196,,491032,,1513264985,776820663,'',0.436332312999,0.446352918786,-0.00128173481512,0.0100206057876,0.001,64.7521812401,-6500.0,0.0,-300.0,0.0
1513264987562513858,,491033,,1513264985,786820663,'',0.436332312999,0.446279074071,0.000202629944081,0.00994676107214,0.001,64.7137274837,-6500.0,0.0,-300.0,0.0
1513264987572504999,,491034,,1513264985,796820663,'',0.436332312999,0.446234038343,0.00110807690955,0.00990172534456,0.001,64.6879264789,-6500.0,0.0,-300.0,0.0
1513264987582350717,,491035,,1513264985,806820663,'',0.436332312999,0.446148013594,-0.014892686047,0.00981570059542,0.001,59.4578697418,-6500.0,0.0,-300.0,0.0
1513264987592185691,,491036,,1513264985,816820663,'',0.436332312999,0.446045412739,-0.0128205883927,0.00971309974002,0.001,59.2710466322,-6500.0,0.0,-300.0,0.0
1513264987602029851,,491037,,1513264985,826820663,'',0.436332312999,0.446007452859,-0.0120578266991,0.00967513986087,0.001,59.2404690824,-6500.0,0.0,-300.0,0.0
1513264987612542077,,491038,,1513264985,836820663,'',0.436332312999,0.445961414613,-0.0111353352541,0.00962910161429,0.001,59.2224949286,-6500.0,0.0,-300.0,0.0
1513264987622526443,,491039,,1513264985,846820663,'',0.436332312999,0.445907975357,-0.0100615676299,0.00957566235826,0.001,59.1958205381,-6500.0,0.0,-300.0,0.0
1513264987632438867,,491040,,1513264985,856820663,'',0.436332312999,0.445894962451,-0.00979360816438,0.00956264945229,0.001,59.2050386034,-6500.0,0.0,-300.0,0.0
1513264987642408309,,491041,,1513264985,866820663,'',0.436332312999,0.44588468752,-0.00958614695366,0.00955237452162,0.001,59.2624486019,-6500.0,0.0,-300.0,0.0
1513264987652308992,,491042,,1513264985,876820663,'',0.436332312999,0.44581452771,-0.00816757970101,0.00948221471171,0.001,59.1728165054,-6500.0,0.0,-300.0,0.0
1513264987662202593,,491043,,1513264985,886820663,'',0.436332312999,0.445806409599,0.00974397257146,0.00947409660032,0.001,64.5265601043,-6500.0,0.0,-300.0,0.0
1513264987672207831,,491044,,1513264985,896820663,'',0.436332312999,0.44578512029,0.0101745218578,0.00945280729146,0.001,64.4438757061,-6500.0,0.0,-300.0,0.0
1513264987682240462,,491045,,1513264985,906820663,'',0.436332312999,0.445733626219,-0.0065361630907,0.00940131322037,0.001,59.1373369365,-6500.0,0.0,-300.0,0.0
1513264987692029303,,491046,,1513264985,916820663,'',0.436332312999,0.445722213247,-0.00630445620043,0.00938990024888,0.001,59.1350236429,-6500.0,0.0,-300.0,0.0
1513264987701957103,,491047,,1513264985,926820663,'',0.436332312999,0.44571424912,-0.0061421143756,0.00938193612106,0.001,59.1672389059,-6500.0,0.0,-300.0,0.0
1513264987711989744,,491048,,1513264985,936820663,'',0.436332312999,0.445674652897,-0.00533753150736,0.00934233989855,0.001,59.1170957233,-6500.0,0.0,-300.0,0.0
1513264987722406580,,491049,,1513264985,946820663,'',0.436332312999,0.445659305303,-0.00503140635061,0.00932699230401,0.001,59.1107229292,-6500.0,0.0,-300.0,0.0
1513264987732465916,,491050,,1513264985,956820663,'',0.436332312999,0.445645513774,-0.00475487857236,0.00931320077577,0.001,59.1406803784,-6500.0,0.0,-300.0,0.0
1513264987742493793,,491051,,1513264985,966820663,'',0.436332312999,0.445634055982,-0.00451863514357,0.00930174298324,0.001,59.0976267544,-6500.0,0.0,-300.0,0.0
1513264987752428929,,491052,,1513264985,976820663,'',0.436332312999,0.445624893592,-0.00432925587956,0.00929258059375,0.001,59.0951816914,-6500.0,0.0,-300.0,0.0
1513264987762300509,,491053,,1513264985,986820663,'',0.436332312999,0.445601414633,-0.00385658486355,0.00926910163485,0.001,59.0855695782,-6500.0,0.0,-300.0,0.0
1513264987772382922,,491054,,1513264985,996820663,'',0.436332312999,0.445568424288,0.0145547676165,0.00923611128942,0.001,64.326070627,-6500.0,0.0,-300.0,0.0
1513264987782384247,,491055,,1513264986,6820663,'',0.436332312999,0.445556187305,-0.00294691030616,0.00922387430666,0.001,59.0617327414,-6500.0,0.0,-300.0,0.0
1513264987792245363,,491056,,1513264986,16820663,'',0.436332312999,0.445544963345,-0.00271683906136,0.00921265034686,0.001,59.0656019061,-6500.0,0.0,-300.0,0.0
1513264987802141018,,491057,,1513264986,26820663,'',0.436332312999,0.445520548001,-0.00222401013214,0.00918823500209,0.001,59.0524633732,-6500.0,0.0,-300.0,0.0
1513264987812164602,,491058,,1513264986,36820663,'',0.436332312999,0.445515266933,-0.00211338152293,0.0091829539341,0.001,59.0630066158,-6500.0,0.0,-300.0,0.0
1513264987822406670,,491059,,1513264986,46820663,'',0.436332312999,0.445528410126,0.0153685478212,0.00919609712741,0.001,64.4152910332,-6500.0,0.0,-300.0,0.0
1513264987832224288,,491060,,1513264986,56820663,'',0.436332312999,0.445507006716,-0.00194819947833,0.00917469371782,0.001,59.0628539873,-6500.0,0.0,-300.0,0.0
1513264987842061775,,491061,,1513264986,66820663,'',0.436332312999,0.445489512846,-0.00159553037218,0.00915719984767,0.001,59.0503829871,-6500.0,0.0,-300.0,0.0
1513264987852113043,,491062,,1513264986,76820663,'',0.436332312999,0.445475157342,-0.00130612940854,0.00914284434334,0.001,59.0342590226,-6500.0,0.0,-300.0,0.0
1513264987862209926,,491063,,1513264986,86820663,'',0.436332312999,0.445478595909,-0.00137281158977,0.00914628291033,0.001,59.0351889124,-6500.0,0.0,-300.0,0.0
1513264987872110302,,491064,,1513264986,96820663,'',0.436332312999,0.445466221609,-0.00112382930558,0.00913390861049,0.001,59.0312007788,-6500.0,0.0,-300.0,0.0
1513264987882379684,,491065,,1513264986,106820663,'',0.436332312999,0.445456107078,-0.000920315636505,0.00912379407896,0.001,59.03275603,-6500.0,0.0,-300.0,0.0
1513264987892237715,,491066,,1513264986,116820663,'',0.436332312999,0.445463956219,-0.00107999377916,0.00913164322038,0.001,59.0296079712,-6500.0,0.0,-300.0,0.0
1513264987902181231,,491067,,1513264986,126820663,'',0.436332312999,0.445454236025,-0.000884097811165,0.00912192302663,0.001,59.0260840516,-6500.0,0.0,-300.0,0.0
1513264987912205386,,491068,,1513264986,136820663,'',0.436332312999,0.445446293499,-0.000724028065965,0.00911398050003,0.001,59.0264678207,-6500.0,0.0,-300.0,0.0
1513264987922395725,,491069,,1513264986,146820663,'',0.436332312999,0.445439778341,-0.000592724802583,0.00910746534214,0.001,59.0192251616,-6500.0,0.0,-300.0,0.0
1513264987932200209,,491070,,1513264986,156820663,'',0.436332312999,0.445434442762,-0.000485194193753,0.00910212976345,0.001,59.0174936252,-6500.0,0.0,-300.0,0.0
1513264987942201766,,491071,,1513264986,166820663,'',0.436332312999,0.445413269756,-5.7292759279e-05,0.00908095675715,0.001,59.008616449,-6500.0,0.0,-300.0,0.0
1513264987952197191,,491072,,1513264986,176820663,'',0.436332312999,0.445412744339,-4.69194328633e-05,0.00908043134007,0.001,59.0083848424,-6500.0,0.0,-300.0,0.0
1513264987962160739,,491073,,1513264986,186820663,'',0.436332312999,0.445427844354,-0.000351275481035,0.0090955313553,0.001,59.0142050777,-6500.0,0.0,-300.0,0.0
1513264987972112183,,491074,,1513264986,196820663,'',0.436332312999,0.445457299555,-0.000943650629019,0.00912498655671,0.001,59.0325966046,-6500.0,0.0,-300.0,0.0
1513264987982005884,,491075,,1513264986,206820663,'',0.436332312999,0.445448786056,-0.000772470693123,0.00911647305711,0.001,59.0233088521,-6500.0,0.0,-300.0,0.0
1513264987992803910,,491076,,1513264986,216820663,'',0.436332312999,0.445424651192,-0.000286214396702,0.00909233819353,0.001,59.0133707001,-6500.0,0.0,-300.0,0.0
1513264988002018973,,491077,,1513264986,226820663,'',0.436332312999,0.445422064849,-0.000234388449846,0.00908975185046,0.001,59.0135788912,-6500.0,0.0,-300.0,0.0
1513264988012471670,,491078,,1513264986,236820663,'',0.436332312999,0.445404526569,0.000117186785178,0.00907221357018,0.001,59.0049309495,-6500.0,0.0,-300.0,0.0
1513264988022514358,,491079,,1513264986,246820663,'',0.436332312999,0.44542070483,-0.000214018855277,0.0090883918317,0.001,59.0118297023,-6500.0,0.0,-300.0,0.0
1513264988032494991,,491080,,1513264986,256820663,'',0.436332312999,0.445404181363,0.000119819906698,0.00907186836474,0.001,59.0041827423,-6500.0,0.0,-300.0,0.0
1513264988042390470,,491081,,1513264986,266820663,'',0.436332312999,0.44540530319,9.80923095357e-05,0.00907299019098,0.001,59.0052534264,-6500.0,0.0,-300.0,0.0
1513264988052491798,,491082,,1513264986,276820663,'',0.436332312999,0.445406221925,8.02981866455e-05,0.00907390892645,0.001,59.0056107096,-6500.0,0.0,-300.0,0.0
1513264988062278708,,491083,,1513264986,286820663,'',0.436332312999,0.445406973855,6.57347708961e-05,0.00907466085599,0.001,59.0059867675,-6500.0,0.0,-300.0,0.0
1513264988072508643,,491084,,1513264986,296820663,'',0.436332312999,0.445407588243,5.38352589863e-05,0.00907527524444,0.001,59.006202251,-6500.0,0.0,-300.0,0.0
1513264988082602472,,491085,,1513264986,306820663,'',0.436332312999,0.445375503109,0.000702105032447,0.00904319010997,0.001,58.9937446112,-6500.0,0.0,-300.0,0.0
1513264988092545545,,491086,,1513264986,316820663,'',0.436332312999,0.445367301243,0.000874970581184,0.00903498824415,0.001,58.9894738473,-6500.0,0.0,-300.0,0.0
1513264988102441504,,491087,,1513264986,326820663,'',0.436332312999,0.445375097963,0.00071656702788,0.00904278496445,0.001,58.9887997207,-6500.0,0.0,-300.0,0.0
1513264988112784143,,491088,,1513264986,336820663,'',0.436332312999,0.445363998225,0.000932324141385,0.00903168522691,0.001,58.9816067659,-6500.0,0.0,-300.0,0.0
1513264988122612267,,491089,,1513264986,346820663,'',0.436332312999,0.445372408127,0.000763231604537,0.00904009512877,0.001,58.9915943831,-6500.0,0.0,-300.0,0.0
1513264988132470305,,491090,,1513264986,356820663,'',0.436332312999,0.445379279711,0.000625069054575,0.00904696671227,0.001,58.990455609,-6500.0,0.0,-300.0,0.0
1513264988142283034,,491091,,1513264986,366820663,'',0.436332312999,0.445384918667,0.000511690153816,0.00905260566858,0.001,58.9967891447,-6500.0,0.0,-300.0,0.0
1513264988152369536,,491092,,1513264986,376820663,'',0.436332312999,0.445389533404,0.000418904585028,0.00905722040523,0.001,58.9988269602,-6500.0,0.0,-300.0,0.0
1513264988162333667,,491093,,1513264986,386820663,'',0.436332312999,0.445377481125,0.000659337450833,0.00904516812675,0.001,58.9943248545,-6500.0,0.0,-300.0,0.0
1513264988172253613,,491094,,1513264986,396820663,'',0.436332312999,0.445351875336,0.00117824544859,0.00901956233787,0.001,58.9834100242,-6500.0,0.0,-300.0,0.0
1513264988182220788,,491095,,1513264986,406820663,'',0.436332312999,0.445362483926,0.000964550980019,0.0090301709279,0.001,58.9880326622,-6500.0,0.0,-300.0,0.0
1513264988192162908,,491096,,1513264986,416820663,'',0.436332312999,0.445371168472,0.00078961356835,0.00903885547314,0.001,58.9903359007,-6500.0,0.0,-300.0,0.0
1513264988202222837,,491097,,1513264986,426820663,'',0.436332312999,0.445394402733,0.000320487696754,0.00906208973439,0.001,58.9986771212,-6500.0,0.0,-300.0,0.0
1513264988212281379,,491098,,1513264986,436820663,'',0.436332312999,0.445379785057,-0.0171323516516,0.00904747205795,0.001,53.6342058604,-6500.0,0.0,-300.0,0.0
1513264988222099466,,491099,,1513264986,446820663,'',0.436332312999,0.44538533235,0.000504897299361,0.00905301935153,0.001,58.997289785,-6500.0,0.0,-300.0,0.0
1513264988232081444,,491100,,1513264986,456820663,'',0.436332312999,0.445375289339,0.000711682431257,0.00904297634013,0.001,58.9882862746,-6500.0,0.0,-300.0,0.0
1513264988242416366,,491101,,1513264986,466820663,'',0.436332312999,0.445381651957,0.00058259583723,0.00904933895795,0.001,58.9956003536,-6500.0,0.0,-300.0,0.0
1513264988252301758,,491102,,1513264986,476820663,'',0.436332312999,0.445386860172,0.000476930088614,0.00905454717327,0.001,58.9979041142,-6500.0,0.0,-300.0,0.0
1513264988262222126,,491103,,1513264986,486820663,'',0.436332312999,0.445391116703,0.000390572376814,0.00905880370448,0.001,58.9973400858,-6500.0,0.0,-300.0,0.0
1513264988272099616,,491104,,1513264986,496820663,'',0.436332312999,0.445394120058,0.000334511447495,0.00906180705929,0.001,59.0003964237,-6500.0,0.0,-300.0,0.0
1513264988282355472,,491105,,1513264986,506820663,'',0.436332312999,0.445397067687,0.000273825241261,0.00906475468881,0.001,59.0018337922,-6500.0,0.0,-300.0,0.0
1513264988292228441,,491106,,1513264986,516820663,'',0.436332312999,0.445366627459,0.000888754726741,0.00903431446035,0.001,58.9838325678,-6500.0,0.0,-300.0,0.0
1513264988302297040,,491107,,1513264986,526820663,'',0.436332312999,0.445390979676,0.00039538814732,0.0090586666774,0.001,58.9994190534,-6500.0,0.0,-300.0,0.0
1513264988312046419,,491108,,1513264986,536820663,'',0.436332312999,0.44539449642,0.000323670193619,0.00906218342149,0.001,59.0008819478,-6500.0,0.0,-300.0,0.0
1513264988322561711,,491109,,1513264986,546820663,'',0.436332312999,0.445381288843,0.000593706493223,0.00904897584473,0.001,58.9958336871,-6500.0,0.0,-300.0,0.0
1513264988332423123,,491110,,1513264986,556820663,'',0.436332312999,0.445386551336,0.000486262046074,0.00905423833719,0.001,58.9939570841,-6500.0,0.0,-300.0,0.0
1513264988342392927,,491111,,1513264986,566820663,'',0.436332312999,0.445390872063,0.000398045636642,0.00905855906481,0.001,58.9993749976,-6500.0,0.0,-300.0,0.0
1513264988352461556,,491112,,1513264986,576820663,'',0.436332312999,0.445376906932,-0.0170689818983,0.00904459393305,0.001,53.6367615326,-6500.0,0.0,-300.0,0.0
