rosbagTimestamp,header,seq,stamp,secs,nsecs,frame_id,set_point,process_value,process_value_dot,error,time_step,command,p,i,d,i_clamp
1513264983441964675,,490605,,1513264981,666820663,'',0.488692190558,0.476959372699,0.000880730105246,-0.0117328178597,0.001,70.1291785187,6000.0,0.0,300.0,0.0
1513264983452367227,,490606,,1513264981,676820663,'',0.488692190558,0.476954103365,0.000990662296064,-0.011738087193,0.001,70.1298188999,6000.0,0.0,300.0,0.0
1513264983462305440,,490607,,1513264981,686820663,'',0.488692190558,0.476963010227,0.000811263772032,-0.0117291803315,0.001,70.1299996456,6000.0,0.0,300.0,0.0
1513264983472115320,,490608,,1513264981,696820663,'',0.488692190558,0.476970318616,0.000664061053181,-0.0117218719423,0.001,70.1296086012,6000.0,0.0,300.0,0.0
1513264983482141244,,490609,,1513264981,706820663,'',0.488692190558,0.476962366725,-0.0137275690699,-0.0117298238334,0.001,74.3982942125,6000.0,0.0,300.0,0.0
1513264983492182877,,490610,,1513264981,716820663,'',0.488692190558,0.476969792516,0.000678959623485,-0.0117223980428,0.001,70.1248530992,6000.0,0.0,300.0,0.0
1513264983502047152,,490611,,1513264981,726820663,'',0.488692190558,0.476962775772,0.000818088171056,-0.0117294147861,0.001,70.1295067302,6000.0,0.0,300.0,0.0
1513264983512020594,,490612,,1513264981,736820663,'',0.488692190558,0.476970122117,0.000669739781264,-0.0117220684415,0.001,70.1309897618,6000.0,0.0,300.0,0.0
1513264983522063829,,490613,,1513264981,746820663,'',0.488692190558,0.476962351388,0.000827214813566,-0.0117298391704,0.001,70.1347227551,6000.0,0.0,300.0,0.0
1513264983531925541,,490614,,1513264981,756820663,'',0.488692190558,0.476916971505,-0.0128162828464,-0.011775219053,0.001,74.5104699597,6000.0,0.0,300.0,0.0
1513264983542027273,,490615,,1513264981,766820663,'',0.488692190558,0.4769326632,0.00142467976147,-0.0117595273581,0.001,70.1166011417,6000.0,0.0,300.0,0.0
1513264983551973101,,490616,,1513264981,776820663,'',0.488692190558,0.476945420375,0.00116733631324,-0.0117467701837,0.001,70.1277484151,6000.0,0.0,300.0,0.0
1513264983562269125,,490617,,1513264981,786820663,'',0.488692190558,0.476955916579,0.000955602171521,-0.0117362739794,0.001,70.1291217596,6000.0,0.0,300.0,0.0
1513264983572265507,,490618,,1513264981,796820663,'',0.488692190558,0.47695246198,0.00102435556611,-0.0117397285787,0.001,70.1294022053,6000.0,0.0,300.0,0.0
1513264983582282198,,490619,,1513264981,806820663,'',0.488692190558,0.476936738408,0.0013418444178,-0.0117554521503,0.001,70.1338909504,6000.0,0.0,300.0,0.0
1513264983592358748,,490620,,1513264981,816820663,'',0.488692190558,0.476948803912,0.00109856759569,-0.0117433866465,0.001,70.1278411052,6000.0,0.0,300.0,0.0
1513264983602387883,,490621,,1513264981,826820663,'',0.488692190558,0.476931145256,0.00145592342295,-0.0117610453021,0.001,70.1268772957,6000.0,0.0,300.0,0.0
1513264983612260561,,490622,,1513264981,836820663,'',0.488692190558,0.47691929834,0.00169573131959,-0.0117728922181,0.001,70.1277652072,6000.0,0.0,300.0,0.0
1513264983622265718,,490623,,1513264981,846820663,'',0.488692190558,0.476920893636,0.00165781855406,-0.0117712969221,0.001,70.1273914943,6000.0,0.0,300.0,0.0
1513264983632230028,,490624,,1513264981,856820663,'',0.488692190558,0.476911884837,0.00184082814364,-0.0117803057211,0.001,70.1233978003,6000.0,0.0,300.0,0.0
1513264983642100145,,490625,,1513264981,866820663,'',0.488692190558,0.476914666023,0.00178862396646,-0.0117775245357,0.001,70.125384156,6000.0,0.0,300.0,0.0
1513264983652159898,,490626,,1513264981,876820663,'',0.488692190558,0.476890745115,-0.0122847466132,-0.0118014454434,0.001,74.526883103,6000.0,0.0,300.0,0.0
1513264983662196747,,490627,,1513264981,886820663,'',0.488692190558,0.476898220294,0.00212454585807,-0.0117939702641,0.001,70.1245074554,6000.0,0.0,300.0,0.0
1513264983672146203,,490628,,1513264981,896820663,'',0.488692190558,0.476879615903,0.00249993816671,-0.0118125746553,0.001,70.1395330067,6000.0,0.0,300.0,0.0
1513264983682048708,,490629,,1513264981,906820663,'',0.488692190558,0.476902049805,0.00204645460659,-0.0117901407539,0.001,70.1248320799,6000.0,0.0,300.0,0.0
1513264983692009365,,490630,,1513264981,916820663,'',0.488692190558,0.476908448775,0.00192013931343,-0.0117837417834,0.001,70.1375529763,6000.0,0.0,300.0,0.0
1513264983701970599,,490631,,1513264981,926820663,'',0.488692190558,0.476911301466,-0.0126951541491,-0.0117808890927,0.001,74.5173286753,6000.0,0.0,300.0,0.0
1513264983711904153,,490632,,1513264981,936820663,'',0.488692190558,0.47691505626,0.0017888213936,-0.0117771342989,0.001,70.1227150136,6000.0,0.0,300.0,0.0
1513264983721913151,,490633,,1513264981,946820663,'',0.488692190558,0.476931054466,0.00146447258666,-0.0117611360925,0.001,70.1365664155,6000.0,0.0,300.0,0.0
1513264983731926503,,490634,,1513264981,956820663,'',0.488692190558,0.476930078216,0.00148325713776,-0.0117621123424,0.001,70.126780614,6000.0,0.0,300.0,0.0
1513264983742451653,,490635,,1513264981,966820663,'',0.488692190558,0.476905393674,0.00198062833549,-0.0117867968849,0.001,70.1238295926,6000.0,0.0,300.0,0.0
1513264983752317649,,490636,,1513264981,976820663,'',0.488692190558,0.47693660659,0.00134841152937,-0.0117555839688,0.001,70.1272748069,6000.0,0.0,300.0,0.0
1513264983762225864,,490637,,1513264981,986820663,'',0.488692190558,0.476922748153,0.00162798606932,-0.011769442405,0.001,70.1261164564,6000.0,0.0,300.0,0.0
1513264983772234007,,490638,,1513264981,996820663,'',0.488692190558,0.476937359527,0.00133264102481,-0.0117548310317,0.001,70.1270554446,6000.0,0.0,300.0,0.0
1513264983782067206,,490639,,1513264982,6820663,'',0.488692190558,0.476949295174,0.00109138140061,-0.011742895384,0.001,70.1285218117,6000.0,0.0,300.0,0.0
1513264983792079323,,490640,,1513264982,16820663,'',0.488692190558,0.476959088769,0.000893419875229,-0.0117331017891,0.001,70.1299252654,6000.0,0.0,300.0,0.0
1513264983802069802,,490641,,1513264982,26820663,'',0.488692190558,0.476954158342,0.000995898373758,-0.0117380322166,0.001,70.1358448151,6000.0,0.0,300.0,0.0
1513264983812286400,,490642,,1513264982,36820663,'',0.488692190558,0.476963069634,0.000815260039271,-0.0117291209249,0.001,70.1300046814,6000.0,0.0,300.0,0.0
1513264983822259146,,490643,,1513264982,46820663,'',0.488692190558,0.476956593698,0.000945891175925,-0.01173559686,0.001,70.1294557217,6000.0,0.0,300.0,0.0
1513264983832198898,,490644,,1513264982,56820663,'',0.488692190558,0.476965046487,0.000774663024372,-0.0117271440714,0.001,70.1306187677,6000.0,0.0,300.0,0.0
1513264983842398265,,490645,,1513264982,66820663,'',0.488692190558,0.476958708421,0.000902078675951,-0.011733482137,0.001,70.129049384,6000.0,0.0,300.0,0.0
1513264983852412931,,490646,,1513264982,76820663,'',0.488692190558,0.476953020714,0.0010168194029,-0.0117391698442,0.001,70.1284925279,6000.0,0.0,300.0,0.0
1513264983862405376,,490647,,1513264982,86820663,'',0.488692190558,0.476948359682,0.00111386320321,-0.0117438308767,0.001,70.1280361885,6000.0,0.0,300.0,0.0
1513264983872373683,,490648,,1513264982,96820663,'',0.488692190558,0.476945597121,0.0011689144908,-0.0117465934377,0.001,70.1355950743,6000.0,0.0,300.0,0.0
1513264983882153490,,490649,,1513264982,106820663,'',0.488692190558,0.476943342129,0.00121394354795,-0.0117488484294,0.001,70.1276324404,6000.0,0.0,300.0,0.0
1513264983892182191,,490650,,1513264982,116820663,'',0.488692190558,0.476939891476,-0.0132735044748,-0.0117522990823,0.001,74.5124128671,6000.0,0.0,300.0,0.0
1513264983902134462,,490651,,1513264982,126820663,'',0.488692190558,0.476923834383,0.00160652160772,-0.0117683561753,0.001,70.1358382463,6000.0,0.0,300.0,0.0
1513264983912048958,,490652,,1513264982,136820663,'',0.488692190558,0.476938247145,0.00131510194472,-0.0117539434137,0.001,70.1298939114,6000.0,0.0,300.0,0.0
1513264983922204698,,490653,,1513264982,146820663,'',0.488692190558,0.476950045715,0.00107654006634,-0.0117421448431,0.001,70.1292114868,6000.0,0.0,300.0,0.0
1513264983932056615,,490654,,1513264982,156820663,'',0.488692190558,0.476959685503,0.000881627815746,-0.0117325050551,0.001,70.1358893968,6000.0,0.0,300.0,0.0
1513264983941981005,,490655,,1513264982,166820663,'',0.488692190558,0.476953544249,0.00100555931706,-0.0117386463096,0.001,70.128906809,6000.0,0.0,300.0,0.0
1513264983952041677,,490656,,1513264982,176820663,'',0.488692190558,0.476962551583,0.000823478805643,-0.0117296389749,0.001,70.1349540865,6000.0,0.0,300.0,0.0
1513264983961870105,,490657,,1513264982,186820663,'',0.488692190558,0.476957237415,0.000933338245036,-0.0117349531437,0.001,70.1291742232,6000.0,0.0,300.0,0.0
1513264983972356892,,490658,,1513264982,196820663,'',0.488692190558,0.476965590217,0.000764047210389,-0.0117266003413,0.001,70.1297231476,6000.0,0.0,300.0,0.0
1513264983982416477,,490659,,1513264982,206820663,'',0.488692190558,0.476972417519,0.000625674361388,-0.011719773039,0.001,70.1339955713,6000.0,0.0,300.0,0.0
1513264983992276148,,490660,,1513264982,216820663,'',0.488692190558,0.476964443823,0.000783687902851,-0.0117277467355,0.001,70.1296676064,6000.0,0.0,300.0,0.0
1513264984002209966,,490661,,1513264982,226820663,'',0.488692190558,0.476973341798,0.0151603651427,-0.0117188487605,0.001,65.8472541451,6000.0,0.0,300.0,0.0
1513264984012187675,,490662,,1513264982,236820663,'',0.488692190558,0.476964982595,0.000769611155436,-0.0117272079634,0.001,70.1348621786,6000.0,0.0,300.0,0.0
1513264984022303268,,490663,,1513264982,246820663,'',0.488692190558,0.476959500396,0.000878464608663,-0.0117326901626,0.001,70.1288712711,6000.0,0.0,300.0,0.0
1513264984032321049,,490664,,1513264982,256820663,'',0.488692190558,0.476955557047,0.000963060146683,-0.0117366335112,0.001,70.135218525,6000.0,0.0,300.0,0.0
1513264984042231828,,490665,,1513264982,266820663,'',0.488692190558,0.476951762067,0.00103982570813,-0.0117404284913,0.001,70.1303245604,6000.0,0.0,300.0,0.0
1513264984052251921,,490666,,1513264982,276820663,'',0.488692190558,0.476948616462,0.00110584859451,-0.0117435740964,0.001,70.1283805188,6000.0,0.0,300.0,0.0
1513264984062142142,,490667,,1513264982,286820663,'',0.488692190558,0.476943846419,-0.0133583841503,-0.0117483441393,0.001,74.6179498593,6000.0,0.0,300.0,0.0
1513264984072136667,,490668,,1513264982,296820663,'',0.488692190558,0.476941405563,0.00124600039454,-0.011750784995,0.001,70.1277166336,6000.0,0.0,300.0,0.0
1513264984082130561,,490669,,1513264982,306820663,'',0.488692190558,0.476938605392,0.00130373173016,-0.0117535851665,0.001,70.1271756029,6000.0,0.0,300.0,0.0
1513264984092117773,,490670,,1513264982,316820663,'',0.488692190558,0.476924029331,-0.0129554235352,-0.0117681612271,0.001,74.5232363524,6000.0,0.0,300.0,0.0
1513264984102006223,,490671,,1513264982,326820663,'',0.488692190558,0.476938407967,0.00131121213496,-0.0117537825912,0.001,70.1259254495,6000.0,0.0,300.0,0.0
1513264984112129998,,490672,,1513264982,336820663,'',0.488692190558,0.476923970297,0.00160114169214,-0.0117682202609,0.001,70.1262271916,6000.0,0.0,300.0,0.0
1513264984122127984,,490673,,1513264982,346820663,'',0.488692190558,0.476925315385,0.00157604885344,-0.0117668751734,0.001,70.1382956588,6000.0,0.0,300.0,0.0
1513264984132022569,,490674,,1513264982,356820663,'',0.488692190558,0.47691246461,0.00183847690813,-0.0117797259486,0.001,70.1246544389,6000.0,0.0,300.0,0.0
1513264984142107328,,490675,,1513264982,366820663,'',0.488692190558,0.476915753622,0.00176853707067,-0.0117764369363,0.001,70.1222884735,6000.0,0.0,300.0,0.0
1513264984151905742,,490676,,1513264982,376820663,'',0.488692190558,0.476931590861,0.0014485636822,-0.0117605996971,0.001,70.136124601,6000.0,0.0,300.0,0.0
1513264984162420346,,490677,,1513264982,386820663,'',0.488692190558,0.476904690721,-0.0125634464031,-0.0117874998372,0.001,74.5321241297,6000.0,0.0,300.0,0.0
1513264984172346068,,490678,,1513264982,396820663,'',0.488692190558,0.47691050851,0.00187445741402,-0.0117816820486,0.001,70.1380045102,6000.0,0.0,300.0,0.0
1513264984182154643,,490679,,1513264982,406820663,'',0.488692190558,0.476900640818,-0.0124847557028,-0.0117915497399,0.001,74.5126930272,6000.0,0.0,300.0,0.0
1513264984192299786,,490680,,1513264982,416820663,'',0.488692190558,0.476905486828,0.0019754658271,-0.0117867037307,0.001,70.1262653612,6000.0,0.0,300.0,0.0
1513264984202184366,,490681,,1513264982,426820663,'',0.488692190558,0.476923192668,0.00161783002405,-0.0117689978904,0.001,70.1369095212,6000.0,0.0,300.0,0.0
1513264984212192280,,490682,,1513264982,436820663,'',0.488692190558,0.476937722148,0.00132435272293,-0.0117544684104,0.001,70.1278559956,6000.0,0.0,300.0,0.0
1513264984222139619,,490683,,1513264982,446820663,'',0.488692190558,0.476949594196,0.00108455222911,-0.0117425963629,0.001,70.1354439591,6000.0,0.0,300.0,0.0
1513264984232041666,,490684,,1513264982,456820663,'',0.488692190558,0.476959335229,0.000887795553841,-0.0117328553295,0.001,70.1294315144,6000.0,0.0,300.0,0.0
1513264984241992447,,490685,,1513264982,466820663,'',0.488692190558,0.476967310441,0.00072670624625,-0.0117248801169,0.001,70.1295239711,6000.0,0.0,300.0,0.0
1513264984251935961,,490686,,1513264982,476820663,'',0.488692190558,0.476973823392,0.000595152791905,-0.011718367166,0.001,70.1343129997,6000.0,0.0,300.0,0.0
1513264984262314874,,490687,,1513264982,486820663,'',0.488692190558,0.476979168252,0.000487193318954,-0.0117130223063,0.001,70.1310877131,6000.0,0.0,300.0,0.0
1513264984272290254,,490688,,1513264982,496820663,'',0.488692190558,0.476983542812,0.000398832682797,-0.0117086477461,0.001,70.1318554509,6000.0,0.0,300.0,0.0
1513264984282179355,,490689,,1513264982,506820663,'',0.488692190558,0.476987117883,0.000326620737414,-0.0117050726757,0.001,70.131948827,6000.0,0.0,300.0,0.0
1513264984292249570,,490690,,1513264982,516820663,'',0.488692190558,0.476975999571,0.000551417835969,-0.0117161909877,0.001,70.1307422776,6000.0,0.0,300.0,0.0
1513264984302167697,,490691,,1513264982,526820663,'',0.488692190558,0.476968796023,0.000700312149386,-0.0117233945358,0.001,70.1298859783,6000.0,0.0,300.0,0.0
1513264984312121032,,490692,,1513264982,536820663,'',0.488692190558,0.476975040043,0.000573536739312,-0.0117171505151,0.001,70.1309781744,6000.0,0.0,300.0,0.0
1513264984322021642,,490693,,1513264982,546820663,'',0.488692190558,0.476980165638,0.000469469270384,-0.01171202492,0.001,70.1349628198,6000.0,0.0,300.0,0.0
1513264984331993916,,490694,,1513264982,556820663,'',0.488692190558,0.476969974518,-0.0138822505091,-0.0117222160403,0.001,74.5310121924,6000.0,0.0,300.0,0.0
1513264984341883649,,490695,,1513264982,566820663,'',0.488692190558,0.476976017165,0.000552913152645,-0.0117161733929,0.001,70.1305847805,6000.0,0.0,300.0,0.0
1513264984352326071,,490696,,1513264982,576820663,'',0.488692190558,0.47698095471,0.000452805827026,-0.0117112358486,0.001,70.1341279955,6000.0,0.0,300.0,0.0
1513264984362258822,,490697,,1513264982,586820663,'',0.488692190558,0.476947167894,0.00114127461025,-0.0117450226643,0.001,70.1285747946,6000.0,0.0,300.0,0.0
1513264984372272252,,490698,,1513264982,596820663,'',0.488692190558,0.476944920758,0.00119130395946,-0.0117472698003,0.001,70.1345135995,6000.0,0.0,300.0,0.0
1513264984381905689,,490699,,1513264982,606820663,'',0.488692190558,0.476955494368,0.000975492261267,-0.0117366961908,0.001,70.1337565241,6000.0,0.0,300.0,0.0
1513264984392385660,,490700,,1513264982,616820663,'',0.488692190558,0.476949809168,-0.0134683642333,-0.0117423813902,0.001,74.5210425745,6000.0,0.0,300.0,0.0
1513264984402456577,,490701,,1513264982,626820663,'',0.488692190558,0.476945464351,-0.0133785265373,-0.0117467262077,0.001,74.4277838866,6000.0,0.0,300.0,0.0
1513264984412400852,,490702,,1513264982,636820663,'',0.488692190558,0.476942132186,0.00124329430078,-0.0117500583725,0.001,70.1281405719,6000.0,0.0,300.0,0.0
1513264984422358231,,490703,,1513264982,646820663,'',0.488692190558,0.476953226719,0.00101774390023,-0.0117389638393,0.001,70.1291703056,6000.0,0.0,300.0,0.0
1513264984432349042,,490704,,1513264982,656820663,'',0.488692190558,0.476949328922,0.00109810590464,-0.0117428616364,0.001,70.1440326165,6000.0,0.0,300.0,0.0
1513264984442333699,,490705,,1513264982,666820663,'',0.488692190558,0.476933724788,0.00141747439983,-0.0117584657702,0.001,70.1271110202,6000.0,0.0,300.0,0.0
1513264984452224342,,490706,,1513264982,676820663,'',0.488692190558,0.476932555754,0.00143859327522,-0.0117596348041,0.001,70.1270050971,6000.0,0.0,300.0,0.0
1513264984462154370,,490707,,1513264982,686820663,'',0.488692190558,0.476945363557,0.00117810163159,-0.0117468270017,0.001,70.1274046643,6000.0,0.0,300.0,0.0
1513264984472215956,,490708,,1513264982,696820663,'',0.488692190558,0.476928741341,0.00151079830929,-0.011763449217,0.001,70.1270946999,6000.0,0.0,300.0,0.0
1513264984482192522,,490709,,1513264982,706820663,'',0.488692190558,0.476942237505,0.00123727941868,-0.011749953053,0.001,70.1367908919,6000.0,0.0,300.0,0.0
1513264984492195565,,490710,,1513264982,716820663,'',0.488692190558,0.476953311979,0.00101283951727,-0.0117388785793,0.001,70.129177533,6000.0,0.0,300.0,0.0
1513264984502217218,,490711,,1513264982,726820663,'',0.488692190558,0.476949459799,0.00109070145803,-0.0117427307598,0.001,70.1264938985,6000.0,0.0,300.0,0.0
1513264984512174246,,490712,,1513264982,736820663,'',0.488692190558,0.476947269662,0.00113750766341,-0.0117449208964,0.001,70.13659427,6000.0,0.0,300.0,0.0
1513264984522137169,,490713,,1513264982,746820663,'',0.488692190558,0.476944959673,0.00118269931994,-0.0117472308858,0.001,70.1288100396,6000.0,0.0,300.0,0.0
1513264984531872919,,490714,,1513264982,756820663,'',0.488692190558,0.476943370787,0.00121192686796,-0.0117488197714,0.001,70.1276352044,6000.0,0.0,300.0,0.0
1513264984541857800,,490715,,1513264982,766820663,'',0.488692190558,0.476927492856,-0.013023536469,-0.0117646977021,0.001,74.5028927193,6000.0,0.0,300.0,0.0
1513264984552327849,,490716,,1513264982,776820663,'',0.488692190558,0.476928793256,0.00150998867204,-0.0117633973019,0.001,70.1262292654,6000.0,0.0,300.0,0.0
1513264984562257338,,490717,,1513264982,786820663,'',0.488692190558,0.476917381771,0.00173950663185,-0.0117748087877,0.001,70.136661796,6000.0,0.0,300.0,0.0
1513264984572224135,,490718,,1513264982,796820663,'',0.488692190558,0.476920931718,0.00166634962475,-0.0117712588403,0.001,70.1359268114,6000.0,0.0,300.0,0.0
1513264984582275607,,490719,,1513264982,806820663,'',0.488692190558,0.476910901561,0.00186503820824,-0.0117812889974,0.001,70.1255824361,6000.0,0.0,300.0,0.0
1513264984592199295,,490720,,1513264982,816820663,'',0.488692190558,0.476927631815,0.00152729940143,-0.0117645587434,0.001,70.1256755384,6000.0,0.0,300.0,0.0
1513264984602059605,,490721,,1513264982,826820663,'',0.488692190558,0.476941758575,0.00124416341699,-0.0117504319832,0.001,70.1293655777,6000.0,0.0,300.0,0.0
1513264984611906960,,490722,,1513264982,836820663,'',0.488692190558,0.477033461238,0.0139424770154,-0.0116587293205,0.001,65.7435376173,6000.0,0.0,300.0,0.0
1513264984621899512,,490723,,1513264982,846820663,'',0.488692190558,0.47717471942,0.0256534365316,-0.0115174711386,0.001,61.3402828262,6000.0,0.0,300.0,0.0
1513264984632032834,,490724,,1513264982,856820663,'',0.488692190558,0.477392961774,0.0212430130413,-0.0112992287844,0.001,61.3977003319,6000.0,0.0,300.0,0.0
1513264984641967726,,490725,,1513264982,866820663,'',0.488692190558,0.477743646223,0.0432686795197,-0.010948544335,0.001,52.9212186316,6000.0,0.0,300.0,0.0
1513264984652354894,,490726,,1513264982,876820663,'',0.488692190558,0.478147630229,0.0496603838344,-0.0105445603299,0.001,48.3229062964,6000.0,0.0,300.0,0.0
1513264984662397147,,490727,,1513264982,886820663,'',0.488692190558,0.478569137983,0.0411451209639,-0.0101230525753,0.001,48.3442848999,6000.0,0.0,300.0,0.0
1513264984672332326,,490728,,1513264982,896820663,'',0.488692190558,0.478979646859,0.0474093526525,-0.00971254369955,0.001,44.2515703152,6000.0,0.0,300.0,0.0
1513264984681917737,,490729,,1513264982,906820663,'',0.488692190558,0.479340045187,0.0255749595415,-0.00935214537134,0.001,48.4170249723,6000.0,0.0,300.0,0.0
1513264984691861637,,490730,,1513264982,916820663,'',0.488692190558,0.479686732749,0.033135778789,-0.00900545780963,0.001,44.4565798467,6000.0,0.0,300.0,0.0
1513264984702389302,,490731,,1513264982,926820663,'',0.488692190558,0.479983615156,0.0271367904406,-0.0087085754022,0.001,44.0700154235,6000.0,0.0,300.0,0.0
1513264984712446792,,490732,,1513264982,936820663,'',0.488692190558,0.480281487207,0.0356740821277,-0.00841070335128,0.001,39.7541933729,6000.0,0.0,300.0,0.0
1513264984722351210,,490733,,1513264982,946820663,'',0.488692190558,0.480629905913,0.0431879132856,-0.00806228464551,0.001,35.3408940419,6000.0,0.0,300.0,0.0
1513264984732260581,,490734,,1513264982,956820663,'',0.488692190558,0.48100499371,0.0356142189599,-0.00768719684874,0.001,35.3204654419,6000.0,0.0,300.0,0.0
1513264984742379027,,490735,,1513264982,966820663,'',0.488692190558,0.481432640114,0.0560914303366,-0.00725955044476,0.001,26.681363977,6000.0,0.0,300.0,0.0
1513264984752366467,,490736,,1513264982,976820663,'',0.488692190558,0.481923176158,0.0461766827139,-0.00676901439994,0.001,27.0002360292,6000.0,0.0,300.0,0.0
1513264984762190126,,490737,,1513264982,986820663,'',0.488692190558,0.48236554484,0.0517934337216,-0.00632664571878,0.001,22.3898000169,6000.0,0.0,300.0,0.0
1513264984771989129,,490738,,1513264982,996820663,'',0.488692190558,0.482818499188,0.0426410784529,-0.00587369137083,0.001,22.3859386007,6000.0,0.0,300.0,0.0
1513264984782245686,,490739,,1513264983,6820663,'',0.488692190558,0.483281032264,0.0478547773102,-0.00541115829447,0.001,18.0081501119,6000.0,0.0,300.0,0.0
1513264984792087922,,490740,,1513264983,16820663,'',0.488692190558,0.483752656769,0.0528770116747,-0.00493953378905,0.001,14.0295780049,6000.0,0.0,300.0,0.0
1513264984802029371,,490741,,1513264983,26820663,'',0.488692190558,0.484214358966,0.0435537173237,-0.00447783159212,0.001,14.3297487756,6000.0,0.0,300.0,0.0
1513264984812461862,,490742,,1513264983,36820663,'',0.488692190558,0.484671679628,0.0343135538684,-0.00402051093063,0.001,13.7742116425,6000.0,0.0,300.0,0.0
1513264984822323581,,490743,,1513264983,46820663,'',0.488692190558,0.485110732342,0.0400023136083,-0.00358145821671,0.001,9.42789279993,6000.0,0.0,300.0,0.0
1513264984832368512,,490744,,1513264983,56820663,'',0.488692190558,0.485549256153,0.0456951337968,-0.00314293440591,0.001,5.34314787824,6000.0,0.0,300.0,0.0
1513264984842278725,,490745,,1513264983,66820663,'',0.488692190558,0.485986150467,0.0368634069638,-0.00270604009115,0.001,5.08399646475,6000.0,0.0,300.0,0.0
1513264984852310922,,490746,,1513264983,76820663,'',0.488692190558,0.486344393056,0.0296255497638,-0.00234779750284,0.001,5.15965719052,6000.0,0.0,300.0,0.0
1513264984862077342,,490747,,1513264983,86820663,'',0.488692190558,0.486728571846,0.0364270187324,-0.00196361871232,0.001,0.786792333108,6000.0,0.0,300.0,0.0
1513264984872014493,,490748,,1513264983,96820663,'',0.488692190558,0.48705572943,0.0298190914554,-0.00163646112802,0.001,1.03377762805,6000.0,0.0,300.0,0.0
1513264984881860009,,490749,,1513264983,106820663,'',0.488692190558,0.487352091289,0.038389689873,-0.00134009926894,0.001,-3.60411471025,6000.0,0.0,300.0,0.0
1513264984892010431,,490750,,1513264983,116820663,'',0.488692190558,0.487646897725,0.0324318999077,0.0,0.001,0.0,6000.0,0.0,300.0,0.0
1513264984901938834,,490751,,1513264983,126820663,'',0.488692190558,0.48792444518,0.0122752355999,0.0,0.001,0.0,6000.0,0.0,300.0,0.0
1513264984911906791,,490752,,1513264983,136820663,'',0.488692190558,0.488153419187,0.0222059960018,0.0,0.001,0.0,6000.0,0.0,300.0,0.0
1513264984921870587,,490753,,1513264983,146820663,'',0.488692190558,0.488378161251,0.0176699234734,0.0,0.001,0.0,6000.0,0.0,300.0,0.0
1513264984932367951,,490754,,1513264983,156820663,'',0.488692190558,0.488602546976,0.0131390733817,0.0,0.001,0.0,6000.0,0.0,300.0,0.0
1513264984942492066,,490755,,1513264983,166820663,'',0.488692190558,0.488799200909,0.0237171476554,0.0,0.001,0.0,6000.0,0.0,300.0,0.0
1513264984952439543,,490756,,1513264983,176820663,'',0.488692190558,0.488986794794,0.0199244567918,0.0,0.001,0.0,6000.0,0.0,300.0,0.0
1513264984962067818,,490757,,1513264983,186820663,'',0.488692190558,0.489152846936,0.0165675779426,0.0,0.001,0.0,6000.0,0.0,300.0,0.0
1513264984972044681,,490758,,1513264983,196820663,'',0.488692190558,0.489301048876,0.0135744173056,0.0,0.001,0.0,6000.0,0.0,300.0,0.0
1513264984982388930,,490759,,1513264983,206820663,'',0.488692190558,0.489422948558,0.0111124702675,0.0,0.001,0.0,6000.0,0.0,300.0,0.0
1513264984992245910,,490760,,1513264983,216820663,'',0.488692190558,0.489560082786,0.00833915384831,0.0,0.001,0.0,6000.0,0.0,300.0,0.0
1513264985002214861,,490761,,1513264983,226820663,'',0.488692190558,0.489661813048,0.00628114832141,0.0,0.001,0.0,6000.0,0.0,300.0,0.0
1513264985012188175,,490762,,1513264983,236820663,'',0.488692190558,0.489835275581,0.0173358318315,0.0,0.001,0.0,6000.0,0.0,300.0,0.0
1513264985022136840,,490763,,1513264983,246820663,'',0.488692190558,0.489964898564,0.0147200076134,0.0,0.001,0.0,6000.0,0.0,300.0,0.0
1513264985032170112,,490764,,1513264983,256820663,'',0.488692190558,0.49008443925,0.0123031739487,0.0,0.001,0.0,6000.0,0.0,300.0,0.0
1513264985042149173,,490765,,1513264983,266820663,'',0.488692190558,0.490194732222,0.0100760152785,0.0,0.001,0.0,6000.0,0.0,300.0,0.0
1513264985052186767,,490766,,1513264983,276820663,'',0.488692190558,0.49028531286,0.008246910024,0.0,0.001,0.0,6000.0,0.0,300.0,0.0
1513264985061993801,,490767,,1513264983,286820663,'',0.488692190558,0.490359343531,0.00675200016248,0.0,0.001,0.0,6000.0,0.0,300.0,0.0
1513264985072054016,,490768,,1513264983,296820663,'',0.488692190558,0.49044596448,0.0050061161165,0.0,0.001,0.0,6000.0,0.0,300.0,0.0
1513264985082217766,,490769,,1513264983,306820663,'',0.488692190558,0.490518924857,0.0180861970642,0.0,0.001,0.0,6000.0,0.0,300.0,0.0
1513264985092153019,,490770,,1513264983,316820663,'',0.488692190558,0.4905897677,0.0020972523642,0.0,0.001,0.0,6000.0,0.0,300.0,0.0
1513264985102070420,,490771,,1513264983,326820663,'',0.488692190558,0.490726826423,0.0138831525488,0.0,0.001,0.0,6000.0,0.0,300.0,0.0
1513264985111971773,,490772,,1513264983,336820663,'',0.488692190558,0.490839230004,0.0116071705027,0.0,0.001,0.0,6000.0,0.0,300.0,0.0
1513264985121931168,,490773,,1513264983,346820663,'',0.488692190558,0.490931100481,0.00975574493142,0.0,0.001,0.0,6000.0,0.0,300.0,0.0
1513264985132012761,,490774,,1513264983,356820663,'',0.488692190558,0.491005670999,0.00825316306506,0.0,0.001,0.0,6000.0,0.0,300.0,0.0
1513264985141998566,,490775,,1513264983,366820663,'',0.488692190558,0.491079763342,0.00675657199492,0.0,0.001,0.0,6000.0,0.0,300.0,0.0
1513264985152263793,,490776,,1513264983,376820663,'',0.488692190558,0.491140430563,0.00553115494488,0.0,0.001,0.0,6000.0,0.0,300.0,0.0
1513264985162246644,,490777,,1513264983,386820663,'',0.488692190558,0.491204086281,0.00424815976141,0.0,0.001,0.0,6000.0,0.0,300.0,0.0
1513264985172164086,,490778,,1513264983,396820663,'',0.488692190558,0.491242188233,0.00347803337556,0.0,0.001,0.0,6000.0,0.0,300.0,0.0
1513264985182057359,,490779,,1513264983,406820663,'',0.488692190558,0.491312454251,0.00206074229242,0.0,0.001,0.0,6000.0,0.0,300.0,0.0
1513264985192059618,,490780,,1513264983,416820663,'',0.488692190558,0.49140873005,0.00012341307698,0.0,0.001,0.0,6000.0,0.0,300.0,0.0
1513264985201952014,,490781,,1513264983,426820663,'',0.488692190558,0.491528453772,0.0122596380722,0.0,0.001,0.0,6000.0,0.0,300.0,0.0
1513264985212374225,,490782,,1513264983,436820663,'',0.488692190558,0.49162623854,0.0102806537845,0.0,0.001,0.0,6000.0,0.0,300.0,0.0
1513264985222331217,,490783,,1513264983,446820663,'',0.488692190558,0.491759679926,0.0221402916171,0.0,0.001,0.0,6000.0,0.0,300.0,0.0
1513264985232325241,,490784,,1513264983,456820663,'',0.488692190558,0.491895023862,0.0194103549136,0.0,0.001,0.0,6000.0,0.0,300.0,0.0
1513264985242253910,,490785,,1513264983,466820663,'',0.488692190558,0.492069279536,0.0158882963942,0.0,0.001,0.0,6000.0,0.0,300.0,0.0
1513264985251932412,,490786,,1513264983,476820663,'',0.488692190558,0.492183729812,0.0135717861224,0.0,0.001,0.0,6000.0,0.0,300.0,0.0
1513264985262416645,,490787,,1513264983,486820663,'',0.488692190558,0.492305562352,0.0111098924764,0.0,0.001,0.0,6000.0,0.0,300.0,0.0
1513264985272346965,,490788,,1513264983,496820663,'',0.488692190558,0.492405088652,0.00909874531583,0.0,0.001,0.0,6000.0,0.0,300.0,0.0
1513264985282284664,,490789,,1513264983,506820663,'',0.488692190558,0.492500530974,0.00716683938201,0.0,0.001,0.0,6000.0,0.0,300.0,0.0
1513264985292118494,,490790,,1513264983,516820663,'',0.488692190558,0.49256490337,0.00586664981887,0.0,0.001,0.0,6000.0,0.0,300.0,0.0
1513264985302171473,,490791,,1513264983,526820663,'',0.488692190558,0.492630952934,0.00453226839317,0.0,0.001,0.0,6000.0,0.0,300.0,0.0
1513264985312094247,,490792,,1513264983,536820663,'',0.488692190558,0.492671653126,0.00371026590899,0.0,0.001,0.0,6000.0,0.0,300.0,0.0
1513264985321919615,,490793,,1513264983,546820663,'',0.488692190558,0.492704986718,0.00303704315667,0.0,0.001,0.0,6000.0,0.0,300.0,0.0
1513264985332078715,,490794,,1513264983,556820663,'',0.488692190558,0.492756384208,0.00199602625564,0.0,0.001,0.0,6000.0,0.0,300.0,0.0
1513264985342040268,,490795,,1513264983,566820663,'',0.488692190558,0.492800532573,0.00110736761944,0.0,0.001,0.0,6000.0,0.0,300.0,0.0
1513264985351946124,,490796,,1513264983,576820663,'',0.488692190558,0.492902219917,0.0136132104888,0.0,0.001,0.0,6000.0,0.0,300.0,0.0
1513264985362399438,,490797,,1513264983,586820663,'',0.488692190558,0.493024207588,0.0111482138588,0.0,0.001,0.0,6000.0,0.0,300.0,0.0
1513264985372303498,,490798,,1513264983,596820663,'',0.488692190558,0.493216077345,0.0072677928348,0.0,0.001,0.0,6000.0,0.0,300.0,0.0
1513264985382430755,,490799,,1513264983,606820663,'',0.488692190558,0.493412657315,0.017852463258,0.0,0.001,0.0,6000.0,0.0,300.0,0.0
1513264985392207050,,490800,,1513264983,616820663,'',0.488692190558,0.493638363926,0.0132963140462,0.0,0.001,0.0,6000.0,0.0,300.0,0.0
1513264985402273610,,490801,,1513264983,626820663,'',0.488692190558,0.493875982197,0.0230508335345,0.0,0.001,0.0,6000.0,0.0,300.0,0.0
1513264985412337069,,490802,,1513264983,636820663,'',0.488692190558,0.494068731404,0.00460044996017,0.0,0.001,0.0,6000.0,0.0,300.0,0.0
1513264985422762997,,490803,,1513264983,646820663,'',0.488692190558,0.494280165556,0.0148872278294,0.0,0.001,0.0,6000.0,0.0,300.0,0.0
1513264985432391438,,490804,,1513264983,656820663,'',0.488692190558,0.494425996087,0.0119380264074,0.0,0.001,0.0,6000.0,0.0,300.0,0.0
1513264985442431540,,490805,,1513264983,666820663,'',0.488692190558,0.494546779416,0.00949811049775,0.0,0.001,0.0,6000.0,0.0,300.0,0.0
1513264985452066462,,490806,,1513264983,676820663,'',0.488692190558,0.494644279522,0.00752826008017,0.0,0.001,0.0,6000.0,0.0,300.0,0.0
1513264985462017776,,490807,,1513264983,686820663,'',0.488692190558,0.49477667737,0.019412043209,0.0,0.001,0.0,6000.0,0.0,300.0,0.0
1513264985471983003,,490808,,1513264983,696820663,'',0.488692190558,0.494846692718,0.00344261088611,0.0,0.001,0.0,6000.0,0.0,300.0,0.0
1513264985482416467,,490809,,1513264983,706820663,'',0.488692190558,0.494943469237,0.016045481145,0.0,0.001,0.0,6000.0,0.0,300.0,0.0
1513264985492317147,,490810,,1513264983,716820663,'',0.488692190558,0.495073438488,0.0134192398956,0.0,0.001,0.0,6000.0,0.0,300.0,0.0
1513264985502162758,,490811,,1513264983,726820663,'',0.488692190558,0.49522072488,0.0249943133636,0.0,0.001,0.0,6000.0,0.0,300.0,0.0
1513264985512225825,,490812,,1513264983,736820663,'',0.488692190558,0.495420179889,0.0209579811527,0.0,0.001,0.0,6000.0,0.0,300.0,0.0
1513264985522180428,,490813,,1513264983,746820663,'',0.488692190558,0.495594112526,0.00288883181278,0.0,0.001,0.0,6000.0,0.0,300.0,0.0
1513264985532172028,,490814,,1513264983,756820663,'',0.488692190558,0.495791415306,0.0134636687639,0.0,0.001,0.0,6000.0,0.0,300.0,0.0
1513264985542073524,,490815,,1513264983,766820663,'',0.488692190558,0.495991880364,0.0239682706875,0.0,0.001,0.0,6000.0,0.0,300.0,0.0
1513264985552253126,,490816,,1513264983,776820663,'',0.488692190558,0.496156440433,0.0206441371623,0.0,0.001,0.0,6000.0,0.0,300.0,0.0
1513264985562646544,,490817,,1513264983,786820663,'',0.488692190558,0.496277315709,0.0182036228346,0.0,0.001,0.0,6000.0,0.0,300.0,0.0
1513264985572585985,,490818,,1513264983,796820663,'',0.488692190558,0.496361441478,0.00194298278659,0.0,0.001,0.0,6000.0,0.0,300.0,0.0
1513264985582189922,,490819,,1513264983,806820663,'',0.488692190558,0.496443077833,0.000298582206702,0.0,0.001,0.0,6000.0,0.0,300.0,0.0
1513264985592175522,,490820,,1513264983,816820663,'',0.488692190558,0.496509784102,0.0135058538304,0.0,0.001,0.0,6000.0,0.0,300.0,0.0
1513264985602410260,,490821,,1513264983,826820663,'',0.488692190558,0.49659159268,0.0118540157581,0.0,0.001,0.0,6000.0,0.0,300.0,0.0
1513264985612402507,,490822,,1513264983,836820663,'',0.488692190558,0.496685104884,0.00996581169494,0.0,0.001,0.0,6000.0,0.0,300.0,0.0
1513264985622162907,,490823,,1513264983,846820663,'',0.488692190558,0.496747165062,0.00871280142743,0.0,0.001,0.0,6000.0,0.0,300.0,0.0
1513264985632104602,,490824,,1513264983,856820663,'',0.488692190558,0.496825424445,0.00713255552359,0.0,0.001,0.0,6000.0,0.0,300.0,0.0
1513264985642050963,,490825,,1513264983,866820663,'',0.488692190558,0.49687747574,0.00608091621316,0.0,0.001,0.0,6000.0,0.0,300.0,0.0
1513264985652195195,,490826,,1513264983,876820663,'',0.488692190558,0.496971267624,0.0041903909818,0.0,0.001,0.0,6000.0,0.0,300.0,0.0
1513264985662554419,,490827,,1513264983,886820663,'',0.488692190558,0.497101356137,0.0161146186503,0.0,0.001,0.0,6000.0,0.0,300.0,0.0
1513264985672632053,,490828,,1513264983,896820663,'',0.488692190558,0.497259537455,0.012922130382,0.0,0.001,0.0,6000.0,0.0,300.0,0.0
1513264985682435378,,490829,,1513264983,906820663,'',0.488692190558,0.497416919002,0.00974588147461,0.0,0.001,0.0,6000.0,0.0,300.0,0.0
1513264985692332222,,490830,,1513264983,916820663,'',0.488692190558,0.49758343576,0.00638429136025,0.0,0.001,0.0,6000.0,0.0,300.0,0.0
1513264985702075948,,490831,,1513264983,926820663,'',0.488692190558,0.497771421259,0.0171429962233,0.0,0.001,0.0,6000.0,0.0,300.0,0.0
1513264985712231529,,490832,,1513264983,936820663,'',0.488692190558,0.497937826885,0.0137824995825,0.0,0.001,0.0,6000.0,0.0,300.0,0.0
1513264985722614139,,490833,,1513264983,946820663,'',0.488692190558,0.498102377065,0.0250161576469,0.0,0.001,0.0,6000.0,0.0,300.0,0.0
1513264985732761584,,490834,,1513264983,956820663,'',0.488692190558,0.498208384504,0.00831868901462,0.0,0.001,0.0,6000.0,0.0,300.0,0.0
1513264985742647104,,490835,,1513264983,966820663,'',0.488692190558,0.498284716091,0.00678110055713,0.0,0.001,0.0,6000.0,0.0,300.0,0.0
1513264985752358689,,490836,,1513264983,976820663,'',0.488692190558,0.498373009793,0.0195483491573,0.0,0.001,0.0,6000.0,0.0,300.0,0.0
1513264985762286782,,490837,,1513264983,986820663,'',0.488692190558,0.49842975413,0.00384676793617,0.0,0.001,0.0,6000.0,0.0,300.0,0.0
1513264985772207858,,490838,,1513264983,996820663,'',0.488692190558,0.498476942455,0.00289477518816,0.0,0.001,0.0,6000.0,0.0,300.0,0.0
1513264985782494099,,490839,,1513264984,6820663,'',0.488692190558,0.4985442695,0.0160879393421,0.0,0.001,0.0,6000.0,0.0,300.0,0.0
1513264985792337632,,490840,,1513264984,16820663,'',0.488692190558,0.498649347305,0.0139643012996,0.0,0.001,0.0,6000.0,0.0,300.0,0.0
1513264985802384651,,490841,,1513264984,26820663,'',0.488692190558,0.498748265444,0.0119686106849,0.0,0.001,0.0,6000.0,0.0,300.0,0.0
1513264985812342709,,490842,,1513264984,36820663,'',0.488692190558,0.498855516014,0.0098004266741,0.0,0.001,0.0,6000.0,0.0,300.0,0.0
1513264985822877537,,490843,,1513264984,46820663,'',0.488692190558,0.498943432147,0.00802310882506,0.0102512415886,0.001,-500.0,6000.0,0.0,300.0,0.0
1513264985832678981,,490844,,1513264984,56820663,'',0.488692190558,0.499053776755,0.0203433255558,0.0103615861967,0.001,-68.1195189709,6000.0,0.0,300.0,0.0
1513264985842051725,,490845,,1513264984,66820663,'',0.488692190558,0.499236111553,0.0166600781853,0.0105439209947,0.001,-68.1807702012,6000.0,0.0,300.0,0.0
1513264985852168612,,490846,,1513264984,76820663,'',0.488692190558,0.499333986188,0.0146796484807,0.0106417956296,0.001,-68.2735661542,6000.0,0.0,300.0,0.0
1513264985862524480,,490847,,1513264984,86820663,'',0.488692190558,0.499451823106,0.0123003600171,0.0107596325475,0.001,-68.2786889403,6000.0,0.0,300.0,0.0
1513264985872529002,,490848,,1513264984,96820663,'',0.488692190558,0.499536068971,-0.00395196897831,0.0108438784127,0.001,-63.8960592585,6000.0,0.0,300.0,0.0
1513264985882584946,,490849,,1513264984,106820663,'',0.488692190558,0.499618813069,0.00893040875014,0.0109266225106,0.001,-68.2494216099,6000.0,0.0,300.0,0.0
1513264985892557830,,490850,,1513264984,116820663,'',0.488692190558,0.499686835986,0.00755411210776,0.0109946454272,0.001,-68.2365591206,6000.0,0.0,300.0,0.0
1513264985902472381,,490851,,1513264984,126820663,'',0.488692190558,0.499742489203,0.0064298532999,0.0110502986442,0.001,-68.2115269333,6000.0,0.0,300.0,0.0
1513264985912685711,,490852,,1513264984,136820663,'',0.488692190558,0.499773835546,0.00580082125466,0.011081644988,0.001,-68.2082184249,6000.0,0.0,300.0,0.0
1513264985922718216,,490853,,1513264984,146820663,'',0.488692190558,0.499811581652,-0.0095198132293,0.011119391094,0.001,-63.8287588381,6000.0,0.0,300.0,0.0
1513264985932558968,,490854,,1513264984,156820663,'',0.488692190558,0.499816882966,-0.00962774532463,0.0111246924078,0.001,-63.8600828691,6000.0,0.0,300.0,0.0
1513264985942328712,,490855,,1513264984,166820663,'',0.488692190558,0.499847522053,0.00430989885076,0.0111553314941,0.001,-68.2315909339,6000.0,0.0,300.0,0.0
1513264985952499987,,490856,,1513264984,176820663,'',0.488692190558,0.49988620912,0.00352829408908,0.0111940185619,0.001,-68.2280291352,6000.0,0.0,300.0,0.0
1513264985962065721,,490857,,1513264984,186820663,'',0.488692190558,0.499919387931,0.00286042087258,0.0112271973724,0.001,-68.2057769187,6000.0,0.0,300.0,0.0
1513264985972271563,,490858,,1513264984,196820663,'',0.488692190558,0.499945048671,0.0023415465028,0.0112528581128,0.001,-68.2217668818,6000.0,0.0,300.0,0.0
1513264985982380704,,490859,,1513264984,206820663,'',0.488692190558,0.499953359902,0.00217638488611,0.0112611693441,0.001,-68.225141559,6000.0,0.0,300.0,0.0
1513264985992038886,,490860,,1513264984,216820663,'',0.488692190558,0.499960821649,0.00202490948776,0.0112686310902,0.001,-68.2070014555,6000.0,0.0,300.0,0.0
1513264986002713765,,490861,,1513264984,226820663,'',0.488692190558,0.499966287259,0.00191660488544,0.0112740967004,0.001,-68.209479242,6000.0,0.0,300.0,0.0
1513264986011992959,,490862,,1513264984,236820663,'',0.488692190558,0.499983434653,0.00156905646868,0.0112912440947,0.001,-68.2180609846,6000.0,0.0,300.0,0.0
1513264986021957031,,490863,,1513264984,246820663,'',0.488692190558,0.499997480171,0.00128437778292,0.011305289613,0.001,-68.2192646602,6000.0,0.0,300.0,0.0
1513264986031960413,,490864,,1513264984,256820663,'',0.488692190558,0.500008950401,0.00105189580008,0.0113167598428,0.001,-68.216652976,6000.0,0.0,300.0,0.0
1513264986042051768,,490865,,1513264984,266820663,'',0.488692190558,0.500032747814,0.0151277262444,0.0113405572554,0.001,-72.6172818863,6000.0,0.0,300.0,0.0
1513264986052544020,,490866,,1513264984,276820663,'',0.488692190558,0.500011027609,-0.0135479154441,0.0113188370509,0.001,-63.8190742549,6000.0,0.0,300.0,0.0
1513264986062730455,,490867,,1513264984,286820663,'',0.488692190558,0.500020050515,0.000826631631605,0.011327859957,0.001,-68.2168977856,6000.0,0.0,300.0,0.0
1513264986072677951,,490868,,1513264984,296820663,'',0.488692190558,0.500027451432,0.000676679154114,0.0113352608741,0.001,-68.2154153658,6000.0,0.0,300.0,0.0
1513264986082352021,,490869,,1513264984,306820663,'',0.488692190558,0.500033495988,0.000554208380448,0.0113413054294,0.001,-68.2103976956,6000.0,0.0,300.0,0.0
1513264986092246615,,490870,,1513264984,316820663,'',0.488692190558,0.500010039808,-0.0135289859564,0.01131784925,0.001,-63.8191767329,6000.0,0.0,300.0,0.0
1513264986102497449,,490871,,1513264984,326820663,'',0.488692190558,0.500019242404,0.000841860182616,0.0113270518455,0.001,-68.2116523827,6000.0,0.0,300.0,0.0
1513264986112312748,,490872,,1513264984,336820663,'',0.488692190558,0.500026784392,0.000689256954819,0.0113345938332,0.001,-68.2148382109,6000.0,0.0,300.0,0.0
1513264986122347457,,490873,,1513264984,346820663,'',0.488692190558,0.500032964303,0.000564213731271,0.0113407737448,0.001,-68.2145178393,6000.0,0.0,300.0,0.0
1513264986132057195,,490874,,1513264984,356820663,'',0.488692190558,0.499998504317,0.00126003933963,0.0113063137582,0.001,-68.21723549,6000.0,0.0,300.0,0.0
1513264986142610660,,490875,,1513264984,366820663,'',0.488692190558,0.4999960217,0.0013136247891,0.0113038311414,0.001,-68.2198115081,6000.0,0.0,300.0,0.0
1513264986152527330,,490876,,1513264984,376820663,'',0.488692190558,0.499981044537,0.00161246322197,0.0112888539789,0.001,-68.2191814524,6000.0,0.0,300.0,0.0
1513264986162457783,,490877,,1513264984,386820663,'',0.488692190558,0.499956974026,0.00209472872194,0.0112647834675,0.001,-68.22454641,6000.0,0.0,300.0,0.0
1513264986172329979,,490878,,1513264984,396820663,'',0.488692190558,0.499910390306,-0.0115164469389,0.0112181997477,0.001,-63.8361715082,6000.0,0.0,300.0,0.0
1513264986182255776,,490879,,1513264984,406820663,'',0.488692190558,0.499834586041,-0.0099811269158,0.0111423954826,0.001,-63.8525290039,6000.0,0.0,300.0,0.0
1513264986192204894,,490880,,1513264984,416820663,'',0.488692190558,0.499785306169,0.00557471039092,0.0110931156104,0.001,-68.2389276591,6000.0,0.0,300.0,0.0
1513264986202114622,,490881,,1513264984,426820663,'',0.488692190558,0.499638997668,-0.00603467073012,0.0109468071099,0.001,-63.8999506255,6000.0,0.0,300.0,0.0
1513264986212476718,,490882,,1513264984,436820663,'',0.488692190558,0.499466327783,-0.0171000292521,0.0107741372248,0.001,-59.4676528046,6000.0,0.0,300.0,0.0
1513264986222343218,,490883,,1513264984,446820663,'',0.488692190558,0.499417735774,-0.00156196390983,0.0107255452158,0.001,-63.8811896194,6000.0,0.0,300.0,0.0
1513264986232099090,,490884,,1513264984,456820663,'',0.488692190558,0.499512075532,0.0256452574203,0.0108198849732,0.001,-72.6502531492,6000.0,0.0,300.0,0.0
1513264986242523059,,490885,,1513264984,466820663,'',0.488692190558,0.499581881607,-0.00487488285928,0.0108896910484,0.001,-63.865005864,6000.0,0.0,300.0,0.0
1513264986252409080,,490886,,1513264984,476820663,'',0.488692190558,0.499457821066,-0.0169276414216,0.0107656305075,0.001,-59.5921588967,6000.0,0.0,300.0,0.0
1513264986262323045,,490887,,1513264984,486820663,'',0.488692190558,0.499449979017,-0.00221006383233,0.0107577884586,0.001,-63.8780798998,6000.0,0.0,300.0,0.0
1513264986272464637,,490888,,1513264984,496820663,'',0.488692190558,0.499457925153,-0.00237163583334,0.0107657345945,0.001,-63.8771418462,6000.0,0.0,300.0,0.0
1513264986282444715,,490889,,1513264984,506820663,'',0.488692190558,0.499461002361,-0.00243759616638,0.010768811803,0.001,-63.8784261167,6000.0,0.0,300.0,0.0
1513264986292223819,,490890,,1513264984,516820663,'',0.488692190558,0.499452890642,-0.00227404814613,0.0107607000839,0.001,-63.8804283446,6000.0,0.0,300.0,0.0
1513264986302491607,,490891,,1513264984,526820663,'',0.488692190558,0.499459007939,0.012156503569,0.0107668173804,0.001,-68.1856849489,6000.0,0.0,300.0,0.0
1513264986312385211,,490892,,1513264984,536820663,'',0.488692190558,0.499464429325,-0.00251359602362,0.0107722387662,0.001,-63.8598330742,6000.0,0.0,300.0,0.0
1513264986322809857,,490893,,1513264984,546820663,'',0.488692190558,0.499456281198,0.0122087175961,0.0107640906394,0.001,-68.2631993052,6000.0,0.0,300.0,0.0
1513264986332133839,,490894,,1513264984,556820663,'',0.488692190558,0.499449646795,0.012343064702,0.0107574562367,0.001,-68.2744667895,6000.0,0.0,300.0,0.0
1513264986342136274,,490895,,1513264984,566820663,'',0.488692190558,0.499428949926,-0.0163493993455,0.0107367593678,0.001,-59.4920459668,6000.0,0.0,300.0,0.0
1513264986352056206,,490896,,1513264984,576820663,'',0.488692190558,0.499439112162,-0.00199748597613,0.0107469216038,0.001,-63.8918170184,6000.0,0.0,300.0,0.0
1513264986362490410,,490897,,1513264984,586820663,'',0.488692190558,0.499433417475,-0.00188150264043,0.0107412269162,0.001,-63.8813080882,6000.0,0.0,300.0,0.0
1513264986372682872,,490898,,1513264984,596820663,'',0.488692190558,0.499416525835,-0.0015401946484,0.0107243352764,0.001,-63.8816400829,6000.0,0.0,300.0,0.0
1513264986382588073,,490899,,1513264984,606820663,'',0.488692190558,0.499429342677,0.0127562831278,0.0107371521184,0.001,-68.2276968632,6000.0,0.0,300.0,0.0
1513264986392462016,,490900,,1513264984,616820663,'',0.488692190558,0.499464916484,-0.00252296066327,0.0107727259261,0.001,-63.8788218354,6000.0,0.0,300.0,0.0
1513264986402414319,,490901,,1513264984,626820663,'',0.488692190558,0.499442294816,-0.00206496606138,0.010750104258,0.001,-63.8782255239,6000.0,0.0,300.0,0.0
1513264986412462738,,490902,,1513264984,636820663,'',0.488692190558,0.499436300673,-0.00194327788726,0.0107441101149,0.001,-63.8917271334,6000.0,0.0,300.0,0.0
1513264986422488698,,490903,,1513264984,646820663,'',0.488692190558,0.499418886016,-0.00159076375338,0.0107266954577,0.001,-63.8809639809,6000.0,0.0,300.0,0.0
1513264986432341792,,490904,,1513264984,656820663,'',0.488692190558,0.499418109022,-0.00157517933694,0.0107259184638,0.001,-63.8825164019,6000.0,0.0,300.0,0.0
1513264986442356555,,490905,,1513264984,666820663,'',0.488692190558,0.49940401745,-0.00128990632033,0.0107118268917,0.001,-63.8898583477,6000.0,0.0,300.0,0.0
1513264986452441514,,490906,,1513264984,676820663,'',0.488692190558,0.499380291471,-0.000809963562434,0.0106881009123,0.001,-63.8847425879,6000.0,0.0,300.0,0.0
1513264986462139252,,490907,,1513264984,686820663,'',0.488692190558,0.499384991377,-0.000906744077938,0.0106928008183,0.001,-63.8821296599,6000.0,0.0,300.0,0.0
1513264986472220190,,490908,,1513264984,696820663,'',0.488692190558,0.499376906306,-0.000742705151589,0.0106847157473,0.001,-63.8920177386,6000.0,0.0,300.0,0.0
1513264986482082664,,490909,,1513264984,706820663,'',0.488692190558,0.499370264751,-0.000607953897774,0.010678074193,0.001,-63.8855493106,6000.0,0.0,300.0,0.0
1513264986492053663,,490910,,1513264984,716820663,'',0.488692190558,0.499377062463,-0.000746943135411,0.0106848719043,0.001,-63.8902623233,6000.0,0.0,300.0,0.0
1513264986502540579,,490911,,1513264984,726820663,'',0.488692190558,0.499382858743,-0.000863026397865,0.0106906681847,0.001,-63.8897081006,6000.0,0.0,300.0,0.0
1513264986512175446,,490912,,1513264984,736820663,'',0.488692190558,0.499388113802,-0.000968350413899,0.0106959232435,0.001,-63.8839767409,6000.0,0.0,300.0,0.0
1513264986522404363,,490913,,1513264984,746820663,'',0.488692190558,0.49939221682,-0.0010500414009,0.0107000262615,0.001,-63.8909236919,6000.0,0.0,300.0,0.0
1513264986532184316,,490914,,1513264984,756820663,'',0.488692190558,0.499382800067,-0.000859582479792,0.0106906095085,0.001,-63.8845590154,6000.0,0.0,300.0,0.0
1513264986542248012,,490915,,1513264984,766820663,'',0.488692190558,0.49937509118,-0.000703666079904,0.0106829006219,0.001,-63.890785359,6000.0,0.0,300.0,0.0
1513264986552110869,,490916,,1513264984,776820663,'',0.488692190558,0.499368791446,-0.000576250543574,0.0106766008873,0.001,-63.8891947036,6000.0,0.0,300.0,0.0
1513264986562068234,,490917,,1513264984,786820663,'',0.488692190558,0.499375889477,-0.000713533754047,0.010683698919,0.001,-63.8854332912,6000.0,0.0,300.0,0.0
1513264986571962415,,490918,,1513264984,796820663,'',0.488692190558,0.499369434771,-0.000584122503986,0.0106772442126,0.001,-63.8860181351,6000.0,0.0,300.0,0.0
1513264986582361354,,490919,,1513264984,806820663,'',0.488692190558,0.499349780975,-0.014744958081,0.0106575904166,0.001,-59.4896293939,6000.0,0.0,300.0,0.0
1513264986592358514,,490920,,1513264984,816820663,'',0.488692190558,0.499348065183,-0.000153758736532,0.0106558746244,0.001,-63.8881357041,6000.0,0.0,300.0,0.0
1513264986602038659,,490921,,1513264984,826820663,'',0.488692190558,0.499334237016,0.000122727786862,0.0106420464575,0.001,-63.8890922696,6000.0,0.0,300.0,0.0
1513264986612290950,,490922,,1513264984,836820663,'',0.488692190558,0.499307969389,-0.0139069021571,0.0106157788307,0.001,-59.493967079,6000.0,0.0,300.0,0.0
1513264986622155856,,490923,,1513264984,846820663,'',0.488692190558,0.499300087246,0.000810238672337,0.0106078966881,0.001,-63.8886044276,6000.0,0.0,300.0,0.0
1513264986631991334,,490924,,1513264984,856820663,'',0.488692190558,0.499280896857,0.0011952764729,0.0105887062989,0.001,-63.8940403208,6000.0,0.0,300.0,0.0
1513264986642060760,,490925,,1513264984,866820663,'',0.488692190558,0.499237389972,-0.0124842166453,0.0105451994132,0.001,-59.5130085788,6000.0,0.0,300.0,0.0
1513264986652464432,,490926,,1513264984,876820663,'',0.488692190558,0.499201967623,-0.0117746500158,0.0105097770642,0.001,-59.5194103086,6000.0,0.0,300.0,0.0
1513264986662474893,,490927,,1513264984,886820663,'',0.488692190558,0.499189100479,0.00304974816521,0.0104969099207,0.001,-63.9052267302,6000.0,0.0,300.0,0.0
1513264986672255154,,490928,,1513264984,896820663,'',0.488692190558,0.499177802809,-0.0112776984946,0.0104856122508,0.001,-59.5107291633,6000.0,0.0,300.0,0.0
1513264986682547479,,490929,,1513264984,906820663,'',0.488692190558,0.499140149226,-0.0105190739675,0.0104479586677,0.001,-59.5121369289,6000.0,0.0,300.0,0.0
1513264986692510586,,490930,,1513264984,916820663,'',0.488692190558,0.499098277261,-0.00966817725187,0.0104060867022,0.001,-59.5834566522,6000.0,0.0,300.0,0.0
1513264986702393487,,490931,,1513264984,926820663,'',0.488692190558,0.49906325221,-0.0089623537893,0.0103710616518,0.001,-59.5083496813,6000.0,0.0,300.0,0.0
1513264986712253127,,490932,,1513264984,936820663,'',0.488692190558,0.499047835836,0.00589966083773,0.0103556452773,0.001,-63.8793076746,6000.0,0.0,300.0,0.0
1513264986722232857,,490933,,1513264984,946820663,'',0.488692190558,0.499034340264,-0.00838624689136,0.0103421497057,0.001,-59.525380021,6000.0,0.0,300.0,0.0
1513264986732139609,,490934,,1513264984,956820663,'',0.488692190558,0.49903474654,-0.00839080745766,0.0103425559815,0.001,-59.472026363,6000.0,0.0,300.0,0.0
1513264986742085874,,490935,,1513264984,966820663,'',0.488692190558,0.499025354504,-0.00820139826324,0.0103331639457,0.001,-59.5653132203,6000.0,0.0,300.0,0.0
1513264986751988308,,490936,,1513264984,976820663,'',0.488692190558,0.498989959312,-0.00749073723372,0.010297768754,0.001,-59.5318217431,6000.0,0.0,300.0,0.0
1513264986762438084,,490937,,1513264984,986820663,'',0.488692190558,0.498962500835,-0.00693412276707,0.0102703102767,0.001,-59.5383116959,6000.0,0.0,300.0,0.0
1513264986772239434,,490938,,1513264984,996820663,'',0.488692190558,0.498952174411,-0.00671941592528,0.0102599838523,0.001,-59.5371860712,6000.0,0.0,300.0,0.0
1513264986782144805,,490939,,1513264985,6820663,'',0.488692190558,0.49894508592,0.00798450477597,0.0102528953614,0.001,-63.9175454201,6000.0,0.0,300.0,0.0
1513264986792168326,,490940,,1513264985,16820663,'',0.488692190558,0.498911487453,-0.0058968298781,0.010219296895,0.001,-59.5440413768,6000.0,0.0,300.0,0.0
1513264986802253014,,490941,,1513264985,26820663,'',0.488692190558,0.498885841164,0.00917807943278,0.0101936506053,0.001,-63.9218758093,6000.0,0.0,300.0,0.0
1513264986812230744,,490942,,1513264985,36820663,'',0.488692190558,0.498903552441,0.00881942333255,0.0102113618828,0.001,-63.794431563,6000.0,0.0,300.0,0.0
1513264986822357065,,490943,,1513264985,46820663,'',0.488692190558,0.498890375066,-0.00547292361341,0.0101981845071,0.001,-59.5424247517,6000.0,0.0,300.0,0.0
1513264986832079639,,490944,,1513264985,56820663,'',0.488692190558,0.498841297182,-0.00448040306834,0.0101491066237,0.001,-59.5465850442,6000.0,0.0,300.0,0.0
1513264986842034596,,490945,,1513264985,66820663,'',0.488692190558,0.498867654254,0.00955023985911,0.0101754636954,0.001,-63.8707888817,6000.0,0.0,300.0,0.0
1513264986852476118,,490946,,1513264985,76820663,'',0.488692190558,0.498902334754,-0.00570880767374,0.0102101441955,0.001,-59.5343992141,6000.0,0.0,300.0,0.0
1513264986861990716,,490947,,1513264985,86820663,'',0.488692190558,0.498878041884,-0.00522083769224,0.0101858513256,0.001,-59.5370612787,6000.0,0.0,300.0,0.0
1513264986871893802,,490948,,1513264985,96820663,'',0.488692190558,0.498883466505,0.00922655653196,0.0101912759465,0.001,-63.8687207375,6000.0,0.0,300.0,0.0
1513264986881944596,,490949,,1513264985,106820663,'',0.488692190558,0.498873142189,-0.00512330589418,0.0101809516305,0.001,-59.5405570241,6000.0,0.0,300.0,0.0
1513264986891966070,,490950,,1513264985,116820663,'',0.488692190558,0.498841245036,-0.00447811003942,0.0101490544776,0.001,-59.5452963497,6000.0,0.0,300.0,0.0
1513264986901964150,,490951,,1513264985,126820663,'',0.488692190558,0.498841480524,0.0100731859842,0.0101492899654,0.001,-63.9396792148,6000.0,0.0,300.0,0.0
1513264986912400269,,490952,,1513264985,136820663,'',0.488692190558,0.498827300523,0.0103540975338,0.0101351099647,0.001,-63.8662695336,6000.0,0.0,300.0,0.0
1513264986922306792,,490953,,1513264985,146820663,'',0.488692190558,0.49880292255,-0.00370820610019,0.0101107319921,0.001,-59.5498380307,6000.0,0.0,300.0,0.0
1513264986932289988,,490954,,1513264985,156820663,'',0.488692190558,0.498784014852,0.0112316720621,0.0100918242936,0.001,-63.9325661797,6000.0,0.0,300.0,0.0
1513264986942332470,,490955,,1513264985,166820663,'',0.488692190558,0.498778342795,-0.00320821836192,0.0100861522367,0.001,-59.5540048056,6000.0,0.0,300.0,0.0
1513264986952131488,,490956,,1513264985,176820663,'',0.488692190558,0.498749579607,-0.00262635443981,0.0100573890489,0.001,-59.5528439393,6000.0,0.0,300.0,0.0
1513264986962281822,,490957,,1513264985,186820663,'',0.488692190558,0.498738992451,-0.00241012672505,0.0100468018928,0.001,-59.5566495896,6000.0,0.0,300.0,0.0
1513264986972077971,,490958,,1513264985,196820663,'',0.488692190558,0.49874176793,-0.00246906504933,0.0100495773719,0.001,-59.5690882206,6000.0,0.0,300.0,0.0
1513264986981966264,,490959,,1513264985,206820663,'',0.488692190558,0.498744011992,-0.00251330322156,0.0100518214334,0.001,-59.5283438342,6000.0,0.0,300.0,0.0
1513264986992434921,,490960,,1513264985,216820663,'',0.488692190558,0.498747727842,-0.00258948862722,0.0100555372834,0.001,-59.5545168415,6000.0,0.0,300.0,0.0
1513264987002510686,,490961,,1513264985,226820663,'',0.488692190558,0.498776006369,-0.00315434082863,0.0100838158107,0.001,-59.5491548462,6000.0,0.0,300.0,0.0
1513264987012326723,,490962,,1513264985,236820663,'',0.488692190558,0.498760971462,-0.00285064709893,0.0100687809037,0.001,-59.5715284419,6000.0,0.0,300.0,0.0
1513264987022295770,,490963,,1513264985,246820663,'',0.488692190558,0.498749103017,-0.00260861721004,0.0100569124587,0.001,-59.5502466277,6000.0,0.0,300.0,0.0
1513264987032280196,,490964,,1513264985,256820663,'',0.488692190558,0.498739430461,-0.00241364212845,0.010047239903,0.001,-59.5529493631,6000.0,0.0,300.0,0.0
1513264987042213176,,490965,,1513264985,266820663,'',0.488692190558,0.498744850998,-0.00252249948211,0.0100526604401,0.001,-59.5699123522,6000.0,0.0,300.0,0.0
1513264987052304298,,490966,,1513264985,276820663,'',0.488692190558,0.498735437104,-0.00233277860893,0.0100432465458,0.001,-59.5555587174,6000.0,0.0,300.0,0.0
1513264987062138530,,490967,,1513264985,286820663,'',0.488692190558,0.498755123067,0.0118266140852,0.0100629325089,0.001,-63.9886608132,6000.0,0.0,300.0,0.0
1513264987071980241,,490968,,1513264985,296820663,'',0.488692190558,0.49875678662,-0.00275756453155,0.0100645960612,0.001,-59.5705461088,6000.0,0.0,300.0,0.0
1513264987081913188,,490969,,1513264985,306820663,'',0.488692190558,0.498783791576,-0.00330592915057,0.0100916010173,0.001,-59.5562479361,6000.0,0.0,300.0,0.0
1513264987092378262,,490970,,1513264985,316820663,'',0.488692190558,0.498779457495,-0.00322234602812,0.0100872669368,0.001,-59.5555565241,6000.0,0.0,300.0,0.0
1513264987102294748,,490971,,1513264985,326820663,'',0.488692190558,0.498763418689,-0.00290225142734,0.010071228131,0.001,-59.5515092205,6000.0,0.0,300.0,0.0
1513264987112223706,,490972,,1513264985,336820663,'',0.488692190558,0.498751195477,-0.00265671627028,0.0100590049189,0.001,-59.5783882254,6000.0,0.0,300.0,0.0
1513264987122173950,,490973,,1513264985,346820663,'',0.488692190558,0.498741693427,0.0120922433551,0.0100495028683,0.001,-63.942896115,6000.0,0.0,300.0,0.0
1513264987131943814,,490974,,1513264985,356820663,'',0.488692190558,0.498731726474,-0.00226207806177,0.0100395359155,0.001,-59.5558732645,6000.0,0.0,300.0,0.0
1513264987141993355,,490975,,1513264985,366820663,'',0.488692190558,0.498711447224,-0.00185240418061,0.0100192566656,0.001,-59.5565216407,6000.0,0.0,300.0,0.0
1513264987152234280,,490976,,1513264985,376820663,'',0.488692190558,0.498694820959,-0.00151652655297,0.0100026304011,0.001,-59.5581251711,6000.0,0.0,300.0,0.0
1513264987162566335,,490977,,1513264985,386820663,'',0.488692190558,0.498681199697,-0.00124135485234,0.00998900913809,0.001,-59.5628467457,6000.0,0.0,300.0,0.0
1513264987172419765,,490978,,1513264985,396820663,'',0.488692190558,0.498670081183,-0.00101674275783,0.0099778906241,0.001,-59.5672680855,6000.0,0.0,300.0,0.0
1513264987182582914,,490979,,1513264985,406820663,'',0.488692190558,0.498687488953,0.0131912620309,0.0099952983946,0.001,-63.9716291864,6000.0,0.0,300.0,0.0
1513264987192552474,,490980,,1513264985,416820663,'',0.488692190558,0.49868952293,0.0131499625034,0.00999733237111,0.001,-63.9400245351,6000.0,0.0,300.0,0.0
1513264987202375299,,490981,,1513264985,426820663,'',0.488692190558,0.498701888418,-0.00165433929619,0.0100096978594,0.001,-59.5584026124,6000.0,0.0,300.0,0.0
1513264987212310846,,490982,,1513264985,436820663,'',0.488692190558,0.498700756251,-0.0016363498519,0.0100085656925,0.001,-59.5813062119,6000.0,0.0,300.0,0.0
1513264987222205063,,490983,,1513264985,446820663,'',0.488692190558,0.498710326311,-0.00182624858868,0.0100181357529,0.001,-59.5554399096,6000.0,0.0,300.0,0.0
1513264987232240489,,490984,,1513264985,456820663,'',0.488692190558,0.498707494948,-0.00175941583701,0.0100153043896,0.001,-59.5599762959,6000.0,0.0,300.0,0.0
1513264987242186185,,490985,,1513264985,466820663,'',0.488692190558,0.498705117898,-0.00171375292467,0.0100129273392,0.001,-59.5685926987,6000.0,0.0,300.0,0.0
1513264987252288355,,490986,,1513264985,476820663,'',0.488692190558,0.498689633934,-0.00140290848291,0.00999744337529,0.001,-59.5619911458,6000.0,0.0,300.0,0.0
1513264987262006673,,490987,,1513264985,486820663,'',0.488692190558,0.498701087963,-0.00163955723791,0.0100088974047,0.001,-59.5550275582,6000.0,0.0,300.0,0.0
1513264987271983123,,490988,,1513264985,496820663,'',0.488692190558,0.498686373386,-0.00134294519981,0.00999418282751,0.001,-59.5678840356,6000.0,0.0,300.0,0.0
1513264987281992284,,490989,,1513264985,506820663,'',0.488692190558,0.498674288044,-0.00109933250445,0.00998209748591,0.001,-59.561060661,6000.0,0.0,300.0,0.0
1513264987292451720,,490990,,1513264985,516820663,'',0.488692190558,0.498664925366,-0.000913469006197,0.00997273480778,0.001,-59.5612722078,6000.0,0.0,300.0,0.0
1513264987302331475,,490991,,1513264985,526820663,'',0.488692190558,0.498656744138,-0.000748035107424,0.00996455357945,0.001,-59.5654145245,6000.0,0.0,300.0,0.0
1513264987312263860,,490992,,1513264985,536820663,'',0.488692190558,0.498662503037,-0.000861860478982,0.00997031247835,0.001,-59.5619908651,6000.0,0.0,300.0,0.0
1513264987322165742,,490993,,1513264985,546820663,'',0.488692190558,0.498666938101,-0.000949048091683,0.00997474754258,0.001,-59.5665985057,6000.0,0.0,300.0,0.0
1513264987332251805,,490994,,1513264985,556820663,'',0.488692190558,0.498669499228,-0.00100989461815,0.00997730866966,0.001,-59.5611482178,6000.0,0.0,300.0,0.0
1513264987342488902,,490995,,1513264985,566820663,'',0.488692190558,0.498660470812,-0.00082661512455,0.00996828025323,0.001,-59.5606654364,6000.0,0.0,300.0,0.0
1513264987352432655,,490996,,1513264985,576820663,'',0.488692190558,0.498665790416,-0.000933605028968,0.00997359985758,0.001,-59.5611938279,6000.0,0.0,300.0,0.0
1513264987362352004,,490997,,1513264985,586820663,'',0.488692190558,0.49865745468,-0.000764568141398,0.00996526412164,0.001,-59.5621692244,6000.0,0.0,300.0,0.0
1513264987372686227,,490998,,1513264985,596820663,'',0.488692190558,0.498664598094,-0.000909096999918,0.0099724075352,0.001,-59.5612364048,6000.0,0.0,300.0,0.0
1513264987382726925,,490999,,1513264985,606820663,'',0.488692190558,0.498656462304,-0.000744174509444,0.00996427174597,0.001,-59.5618246954,6000.0,0.0,300.0,0.0
1513264987392793259,,491000,,1513264985,616820663,'',0.488692190558,0.498661786218,-0.000852826753301,0.00996959565912,0.001,-59.5571385343,6000.0,0.0,300.0,0.0
1513264987402486370,,491001,,1513264985,626820663,'',0.488692190558,0.498667397187,-0.000968096370512,0.00997520662882,0.001,-59.5610482426,6000.0,0.0,300.0,0.0
1513264987412105288,,491002,,1513264985,636820663,'',0.488692190558,0.498672851741,0.0134766125879,0.00998066118244,0.001,-63.8673192034,6000.0,0.0,300.0,0.0
1513264987422397586,,491003,,1513264985,646820663,'',0.488692190558,0.498675662531,-0.00113340620314,0.00998347197263,0.001,-59.5598913107,6000.0,0.0,300.0,0.0
1513264987432195401,,491004,,1513264985,656820663,'',0.488692190558,0.498665523868,-0.000927879474888,0.0099733333098,0.001,-59.5612179791,6000.0,0.0,300.0,0.0
1513264987442449409,,491005,,1513264985,666820663,'',0.488692190558,0.49867129199,-0.00104353048916,0.00997910143128,0.001,-59.5609962468,6000.0,0.0,300.0,0.0
1513264987452338797,,491006,,1513264985,676820663,'',0.488692190558,0.498688140435,-0.00138443327427,0.00999594987636,0.001,-59.5675517354,6000.0,0.0,300.0,0.0
1513264987462277612,,491007,,1513264985,686820663,'',0.488692190558,0.49867573695,-0.00113334320371,0.00998354639147,0.001,-59.5602925988,6000.0,0.0,300.0,0.0
1513264987472410890,,491008,,1513264985,696820663,'',0.488692190558,0.498665582825,-0.000927788082297,0.00997339226695,0.001,-59.5617477739,6000.0,0.0,300.0,0.0
1513264987482110958,,491009,,1513264985,706820663,'',0.488692190558,0.498684366718,-0.00130055525221,0.0099921761599,0.001,-59.5681852466,6000.0,0.0,300.0,0.0
1513264987491969919,,491010,,1513264985,716820663,'',0.488692190558,0.498672644381,-0.00106461186418,0.00998045382258,0.001,-59.5611903972,6000.0,0.0,300.0,0.0
1513264987501963532,,491011,,1513264985,726820663,'',0.488692190558,0.498687284761,-0.00136051848456,0.00999509420251,0.001,-59.5587534338,6000.0,0.0,300.0,0.0
1513264987512433983,,491012,,1513264985,736820663,'',0.488692190558,0.49868801761,-0.00137878724406,0.00999582705155,0.001,-59.5671494119,6000.0,0.0,300.0,0.0
1513264987522503161,,491013,,1513264985,746820663,'',0.488692190558,0.498663648268,-0.000887024405713,0.00997145770991,0.001,-59.5694582896,6000.0,0.0,300.0,0.0
1513264987532545412,,491014,,1513264985,756820663,'',0.488692190558,0.498655687532,-0.000726161581957,0.00996349697343,0.001,-59.5621092235,6000.0,0.0,300.0,0.0
1513264987542355704,,491015,,1513264985,766820663,'',0.488692190558,0.498661336725,-0.000843253593685,0.00996914616612,0.001,-59.5659667238,6000.0,0.0,300.0,0.0
1513264987552123689,,491016,,1513264985,776820663,'',0.488692190558,0.498653797786,-0.000690381323365,0.009961607228,0.001,-59.5666524683,6000.0,0.0,300.0,0.0
1513264987562073988,,491017,,1513264985,786820663,'',0.488692190558,0.498647622914,-0.000565169152856,0.00995543235533,0.001,-59.5628399371,6000.0,0.0,300.0,0.0
1513264987572034001,,491018,,1513264985,796820663,'',0.488692190558,0.498656342116,-0.000741202242471,0.00996415155747,0.001,-59.5669621929,6000.0,0.0,300.0,0.0
1513264987582344158,,491019,,1513264985,806820663,'',0.488692190558,0.498663817786,-0.000888591685738,0.00997162722726,0.001,-59.5702454163,6000.0,0.0,300.0,0.0
1513264987592333630,,491020,,1513264985,816820663,'',0.488692190558,0.498681281372,-0.00124084449261,0.00998909081347,0.001,-59.560149455,6000.0,0.0,300.0,0.0
1513264987602011291,,491021,,1513264985,826820663,'',0.488692190558,0.498695549898,-0.00152389954932,0.0100033593392,0.001,-59.5570591406,6000.0,0.0,300.0,0.0
1513264987612505779,,491022,,1513264985,836820663,'',0.488692190558,0.498722121153,0.0124940898501,0.0100299305949,0.001,-63.9563993226,6000.0,0.0,300.0,0.0
1513264987622510095,,491023,,1513264985,846820663,'',0.488692190558,0.498703549903,-0.00168848307696,0.0100113593447,0.001,-59.5552039367,6000.0,0.0,300.0,0.0
1513264987632417648,,491024,,1513264985,856820663,'',0.488692190558,0.49871509807,-0.0019227538762,0.0100229075111,0.001,-59.5565870282,6000.0,0.0,300.0,0.0
1513264987642222002,,491025,,1513264985,866820663,'',0.488692190558,0.498711856631,-0.00185529495161,0.0100196660729,0.001,-59.5688474662,6000.0,0.0,300.0,0.0
1513264987652179527,,491026,,1513264985,876820663,'',0.488692190558,0.498708388607,-0.00178583458994,0.0100161980491,0.001,-59.5573341186,6000.0,0.0,300.0,0.0
1513264987662075920,,491027,,1513264985,886820663,'',0.488692190558,0.498692306897,-0.00146182519053,0.0100001163385,0.001,-59.5578381321,6000.0,0.0,300.0,0.0
1513264987672201947,,491028,,1513264985,896820663,'',0.488692190558,0.498691090997,-0.0014411821919,0.00999890043852,0.001,-59.5684787086,6000.0,0.0,300.0,0.0
1513264987682088478,,491029,,1513264985,906820663,'',0.488692190558,0.498678148758,-0.00117972662626,0.00998595819987,0.001,-59.5596478961,6000.0,0.0,300.0,0.0
1513264987692263822,,491030,,1513264985,916820663,'',0.488692190558,0.498667558342,-0.000965781942057,0.00997536778404,0.001,-59.5610336408,6000.0,0.0,300.0,0.0
1513264987702292197,,491031,,1513264985,926820663,'',0.488692190558,0.498658902696,-0.000790922930495,0.00996671213713,0.001,-59.5663885029,6000.0,0.0,300.0,0.0
1513264987712264592,,491032,,1513264985,936820663,'',0.488692190558,0.498664294495,-0.000899708278967,0.00997210393621,0.001,-59.5615894188,6000.0,0.0,300.0,0.0
1513264987722096594,,491033,,1513264985,946820663,'',0.488692190558,0.498684594675,0.0132469217723,0.00999240411655,0.001,-63.9442415682,6000.0,0.0,300.0,0.0
1513264987732278496,,491034,,1513264985,956820663,'',0.488692190558,0.49867283402,-0.0010727659134,0.00998064346124,0.001,-59.568920974,6000.0,0.0,300.0,0.0
1513264987742295545,,491035,,1513264985,966820663,'',0.488692190558,0.498675171827,-0.00112198077038,0.00998298126908,0.001,-59.5600202439,6000.0,0.0,300.0,0.0
1513264987752241049,,491036,,1513264985,976820663,'',0.488692190558,0.498678102658,-0.00118063686186,0.00998591209965,0.001,-59.5600782483,6000.0,0.0,300.0,0.0
1513264987762048741,,491037,,1513264985,986820663,'',0.488692190558,0.498692765048,-0.00147875204751,0.0100005744899,0.001,-59.558749728,6000.0,0.0,300.0,0.0
1513264987772350323,,491038,,1513264985,996820663,'',0.488692190558,0.498679549039,-0.00121108686932,0.00998735848103,0.001,-59.5679749928,6000.0,0.0,300.0,0.0
1513264987782368220,,491039,,1513264986,6820663,'',0.488692190558,0.498681127306,-0.00124253454095,0.00998893674712,0.001,-59.5575645252,6000.0,0.0,300.0,0.0
1513264987792251276,,491040,,1513264986,16820663,'',0.488692190558,0.498670003676,-0.00101734024522,0.0099778131171,0.001,-59.5619855642,6000.0,0.0,300.0,0.0
1513264987802130637,,491041,,1513264986,26820663,'',0.488692190558,0.498673590307,-0.0010895337207,0.0099813997483,0.001,-59.5604871005,6000.0,0.0,300.0,0.0
1513264987812046375,,491042,,1513264986,36820663,'',0.488692190558,0.498663549556,-0.000884502840156,0.0099713589971,0.001,-59.5667016497,6000.0,0.0,300.0,0.0
1513264987822362973,,491043,,1513264986,46820663,'',0.488692190558,0.498669107383,-0.000993825459687,0.00997691682439,0.001,-59.5603169742,6000.0,0.0,300.0,0.0
1513264987832212778,,491044,,1513264986,56820663,'',0.488692190558,0.498660158171,-0.000813625187422,0.00996796761303,0.001,-59.5683666202,6000.0,0.0,300.0,0.0
1513264987842037790,,491045,,1513264986,66820663,'',0.488692190558,0.49865284362,-0.00066634023494,0.00996065306154,0.001,-59.566809511,6000.0,0.0,300.0,0.0
1513264987851984293,,491046,,1513264986,76820663,'',0.488692190558,0.498646841285,-0.000545477912626,0.00995465072617,0.001,-59.5630689133,6000.0,0.0,300.0,0.0
1513264987862395592,,491047,,1513264986,86820663,'',0.488692190558,0.498654367656,-0.000700763538412,0.00996217709732,0.001,-59.5621782896,6000.0,0.0,300.0,0.0
1513264987872422494,,491048,,1513264986,96820663,'',0.488692190558,0.498660816327,-0.0008306604607,0.00996862576874,0.001,-59.5623637332,6000.0,0.0,300.0,0.0
1513264987882368862,,491049,,1513264986,106820663,'',0.488692190558,0.498653379908,-0.000680236586477,0.00996118934975,0.001,-59.5672253965,6000.0,0.0,300.0,0.0
1513264987892246659,,491050,,1513264986,116820663,'',0.488692190558,0.498671918873,-0.0010573959453,0.00997972831416,0.001,-59.5609431065,6000.0,0.0,300.0,0.0
1513264987902347071,,491051,,1513264986,126820663,'',0.488692190558,0.49866245642,-0.00086559891253,0.00997026586202,0.001,-59.5622438536,6000.0,0.0,300.0,0.0
1513264987912205379,,491052,,1513264986,136820663,'',0.488692190558,0.49868202299,-0.00125994870351,0.0099898324314,0.001,-59.567356157,6000.0,0.0,300.0,0.0
1513264987922407191,,491053,,1513264986,146820663,'',0.488692190558,0.498708435676,-0.0017950584876,0.0100162451176,0.001,-59.5568120913,6000.0,0.0,300.0,0.0
1513264987932141841,,491054,,1513264986,156820663,'',0.488692190558,0.49869234681,-0.00146940359478,0.0100001562519,0.001,-59.559635262,6000.0,0.0,300.0,0.0
1513264987941999074,,491055,,1513264986,166820663,'',0.488692190558,0.498679185247,-0.00120300025309,0.00998699468826,0.001,-59.5614547942,6000.0,0.0,300.0,0.0
1513264987952323901,,491056,,1513264986,176820663,'',0.488692190558,0.498668424266,-0.00098518713917,0.0099762337078,0.001,-59.562091788,6000.0,0.0,300.0,0.0
1513264987962331494,,491057,,1513264986,186820663,'',0.488692190558,0.498659595117,-0.000806476250555,0.00996740455906,0.001,-59.5610572997,6000.0,0.0,300.0,0.0
1513264987972081095,,491058,,1513264986,196820663,'',0.488692190558,0.498666124184,-0.00093835957463,0.00997393362556,0.001,-59.5671184854,6000.0,0.0,300.0,0.0
1513264987982226437,,491059,,1513264986,206820663,'',0.488692190558,0.498670431498,-0.00102779107747,0.00997824093927,0.001,-59.56106919,6000.0,0.0,300.0,0.0
1513264987992228778,,491060,,1513264986,216820663,'',0.488692190558,0.498661238241,-0.000841351923463,0.00996904768293,0.001,-59.5620906969,6000.0,0.0,300.0,0.0
1513264988002608728,,491061,,1513264986,226820663,'',0.488692190558,0.498665903376,-0.000932631267873,0.00997371281803,0.001,-59.566840803,6000.0,0.0,300.0,0.0
1513264988012606626,,491062,,1513264986,236820663,'',0.488692190558,0.498657532953,-0.000763483028512,0.00996534239465,0.001,-59.5621625892,6000.0,0.0,300.0,0.0
1513264988022610765,,491063,,1513264986,246820663,'',0.488692190558,0.498637472808,-0.000355226437089,0.0099452822493,0.001,-59.5641734402,6000.0,0.0,300.0,0.0
1513264988032467287,,491064,,1513264986,256820663,'',0.488692190558,0.498659027085,-0.000789909238582,0.00996683652639,0.001,-59.5658760153,6000.0,0.0,300.0,0.0
1513264988042384284,,491065,,1513264986,266820663,'',0.488692190558,0.498651905018,-0.000646670688299,0.00995971445976,0.001,-59.5626396647,6000.0,0.0,300.0,0.0
1513264988052336287,,491066,,1513264986,276820663,'',0.488692190558,0.498658967923,-0.000790688718604,0.00996677736464,0.001,-59.5622698957,6000.0,0.0,300.0,0.0
1513264988062535899,,491067,,1513264986,286820663,'',0.488692190558,0.498637829802,-0.000363530924741,0.00994563924372,0.001,-59.5636217187,6000.0,0.0,300.0,0.0
1513264988072388542,,491068,,1513264986,296820663,'',0.488692190558,0.498648020137,-0.00057028814768,0.00995582957906,0.001,-59.5629689829,6000.0,0.0,300.0,0.0
1513264988082301119,,491069,,1513264986,306820663,'',0.488692190558,0.498630842372,-0.000224260768306,0.00993865181404,0.001,-59.5641499295,6000.0,0.0,300.0,0.0
1513264988092322428,,491070,,1513264986,316820663,'',0.488692190558,0.498641930356,-0.000452442346907,0.0099497397971,0.001,-59.5634852088,6000.0,0.0,300.0,0.0
1513264988102419010,,491071,,1513264986,326820663,'',0.488692190558,0.498637915113,-0.000370532763937,0.00994572455489,0.001,-59.5658399992,6000.0,0.0,300.0,0.0
1513264988112434569,,491072,,1513264986,336820663,'',0.488692190558,0.498646646101,-0.000545435522454,0.00995445554287,0.001,-59.5668529279,6000.0,0.0,300.0,0.0
1513264988122604193,,491073,,1513264986,346820663,'',0.488692190558,0.498655474161,-0.000726779025702,0.00996328360226,0.001,-59.5623371114,6000.0,0.0,300.0,0.0
1513264988132405221,,491074,,1513264986,356820663,'',0.488692190558,0.498728436419,0.0123573787923,0.0100362458607,0.001,-63.8619548922,6000.0,0.0,300.0,0.0
1513264988142504935,,491075,,1513264986,366820663,'',0.488692190558,0.498708722464,-0.00180190692056,0.0100165319055,0.001,-59.5578232958,6000.0,0.0,300.0,0.0
1513264988152358310,,491076,,1513264986,376820663,'',0.488692190558,0.49869258921,-0.00147516434543,0.0100003986521,0.001,-59.5587656602,6000.0,0.0,300.0,0.0
1513264988162333656,,491077,,1513264986,386820663,'',0.488692190558,0.498679370337,-0.00120744594259,0.00998717977832,0.001,-59.5591802176,6000.0,0.0,300.0,0.0
1513264988172240018,,491078,,1513264986,396820663,'',0.488692190558,0.498708915586,0.0127509426341,0.0100167250279,0.001,-63.9458660283,6000.0,0.0,300.0,0.0
1513264988182212747,,491079,,1513264986,406820663,'',0.488692190558,0.498692744181,-0.00148141921822,0.0100005536227,0.001,-59.5583254673,6000.0,0.0,300.0,0.0
1513264988192160039,,491080,,1513264986,416820663,'',0.488692190558,0.498704503283,-0.00171676932321,0.0100123127245,0.001,-59.5597889701,6000.0,0.0,300.0,0.0
1513264988202001457,,491081,,1513264986,426820663,'',0.488692190558,0.498689159587,-0.00140596089971,0.00999696902865,0.001,-59.5683944177,6000.0,0.0,300.0,0.0
1513264988212593736,,491082,,1513264986,436820663,'',0.488692190558,0.498676569094,-0.00115092253009,0.00998437853603,0.001,-59.5595537604,6000.0,0.0,300.0,0.0
1513264988222425830,,491083,,1513264986,446820663,'',0.488692190558,0.498666263156,-0.000942161065475,0.00997407259782,0.001,-59.5608115584,6000.0,0.0,300.0,0.0
1513264988232262546,,491084,,1513264986,456820663,'',0.488692190558,0.498645839511,-0.000532005010721,0.00995364895243,0.001,-59.5665038367,6000.0,0.0,300.0,0.0
1513264988242388636,,491085,,1513264986,466820663,'',0.488692190558,0.498653500624,-0.000683833679784,0.00996131006532,0.001,-59.5623073734,6000.0,0.0,300.0,0.0
1513264988252100656,,491086,,1513264986,476820663,'',0.488692190558,0.498647379515,-0.000559806364301,0.00995518895632,0.001,-59.5626603652,6000.0,0.0,300.0,0.0
1513264988261969039,,491087,,1513264986,486820663,'',0.488692190558,0.498629415302,-0.000193525057964,0.00993722474327,0.001,-59.5655614606,6000.0,0.0,300.0,0.0
1513264988272493632,,491088,,1513264986,496820663,'',0.488692190558,0.49862766275,-0.000158429081922,0.00993547219187,0.001,-59.5647985808,6000.0,0.0,300.0,0.0
1513264988282551757,,491089,,1513264986,506820663,'',0.488692190558,0.49861416669,0.000113114126934,0.00992197613164,0.001,-59.5658387123,6000.0,0.0,300.0,0.0
1513264988292421973,,491090,,1513264986,516820663,'',0.488692190558,0.498615177485,9.26413911083e-05,0.00992298692614,0.001,-59.5651923724,6000.0,0.0,300.0,0.0
1513264988302412574,,491091,,1513264986,526820663,'',0.488692190558,0.498602540947,0.000348271838692,0.00991035038855,0.001,-59.5669246947,6000.0,0.0,300.0,0.0
1513264988312065215,,491092,,1513264986,536820663,'',0.488692190558,0.498605662693,0.000285100133186,0.00991347213472,0.001,-59.5666624049,6000.0,0.0,300.0,0.0
1513264988322159899,,491093,,1513264986,546820663,'',0.488692190558,0.498608763352,0.000225732025514,0.00991657279403,0.001,-59.5665052415,6000.0,0.0,300.0,0.0
1513264988332199981,,491094,,1513264986,556820663,'',0.488692190558,0.498610751892,0.000184880775002,0.00991856133407,0.001,-59.5648018588,6000.0,0.0,300.0,0.0
1513264988342058371,,491095,,1513264986,566820663,'',0.488692190558,0.498598880397,0.000421302959614,0.00990668983884,0.001,-59.5672563674,6000.0,0.0,300.0,0.0
1513264988352375909,,491096,,1513264986,576820663,'',0.488692190558,0.498602666117,0.000344884416578,0.00991047555822,0.001,-59.5670380397,6000.0,0.0,300.0,0.0
