rosbagTimestamp,header,seq,stamp,secs,nsecs,frame_id,set_point,process_value,process_value_dot,error,time_step,command,p,i,d,i_clamp
1513265117977113232,,504068,,1513265116,199017549,'',1.29154364648,1.29505229806,-0.00433764868342,0.00350865158906,0.001,17.5432579453,-5000.0,0.0,0.0,0.0
1513265117987060612,,504069,,1513265116,209017549,'',1.29154364648,1.29505229806,-0.00306099002989,0.00350865158906,0.001,17.5432579453,-5000.0,0.0,0.0,0.0
1513265117997006783,,504070,,1513265116,219017549,'',1.29154364648,1.29505229806,-0.00247020208353,0.00350865158906,0.001,17.5432579453,-5000.0,0.0,0.0,0.0
1513265118006899757,,504071,,1513265116,229017549,'',1.29154364648,1.29640177945,0.0251438378474,0.00485813296947,0.001,24.2906648473,-5000.0,0.0,0.0,0.0
1513265118016856353,,504072,,1513265116,239017549,'',1.29154364648,1.29640177945,0.0244988799362,0.00485813296947,0.001,24.2906648473,-5000.0,0.0,0.0,0.0
1513265118026898558,,504073,,1513265116,249017549,'',1.29154364648,1.29505229806,-0.00281943512912,0.00350865158906,0.001,17.5432579453,-5000.0,0.0,0.0,0.0
1513265118036932923,,504074,,1513265116,259017549,'',1.29154364648,1.29505229806,-0.00378431684841,0.00350865158906,0.001,17.5432579453,-5000.0,0.0,0.0,0.0
1513265118046878697,,504075,,1513265116,269017549,'',1.29154364648,1.29505229806,-0.0045030663532,0.00350865158906,0.001,17.5432579453,-5000.0,0.0,0.0,0.0
1513265118057152459,,504076,,1513265116,279017549,'',1.29154364648,1.29640177945,0.0244329343478,0.00485813296947,0.001,24.2906648473,-5000.0,0.0,0.0,0.0
1513265118067117019,,504077,,1513265116,289017549,'',1.29154364648,1.29505229806,-0.00278557302249,0.00350865158906,0.001,17.5432579453,-5000.0,0.0,0.0,0.0
1513265118077076313,,504078,,1513265116,299017549,'',1.29154364648,1.29505229806,-0.00227484700071,0.00350865158906,0.001,17.5432579453,-5000.0,0.0,0.0,0.0
1513265118086991680,,504079,,1513265116,309017549,'',1.29154364648,1.29505229806,-0.0028187411089,0.00350865158906,0.001,17.5432579453,-5000.0,0.0,0.0,0.0
1513265118096894969,,504080,,1513265116,319017549,'',1.29154364648,1.29505229806,-0.00329581734044,0.00350865158906,0.001,17.5432579453,-5000.0,0.0,0.0,0.0
1513265118106802258,,504081,,1513265116,329017549,'',1.29154364648,1.29505229806,-0.00465816775633,0.00350865158906,0.001,17.5432579453,-5000.0,0.0,0.0,0.0
1513265118116816779,,504082,,1513265116,339017549,'',1.29154364648,1.29640177945,0.0205332179804,0.00485813296947,0.001,24.2906648473,-5000.0,0.0,0.0,0.0
1513265118126634450,,504083,,1513265116,349017549,'',1.29154364648,1.29505229806,-0.0064649097598,0.00350865158906,0.001,17.5432579453,-5000.0,0.0,0.0,0.0
1513265118137107731,,504084,,1513265116,359017549,'',1.29154364648,1.29505229806,-0.00624556376256,0.00350865158906,0.001,17.5432579453,-5000.0,0.0,0.0,0.0
1513265118147010344,,504085,,1513265116,369017549,'',1.29154364648,1.29640177945,0.0202159915718,0.00485813296947,0.001,24.2906648473,-5000.0,0.0,0.0,0.0
1513265118157000933,,504086,,1513265116,379017549,'',1.29154364648,1.29640177945,0.0200137379914,0.00485813296947,0.001,24.2906648473,-5000.0,0.0,0.0,0.0
1513265118166860520,,504087,,1513265116,389017549,'',1.29154364648,1.29505229806,-0.00790732658877,0.00350865158906,0.001,17.5432579453,-5000.0,0.0,0.0,0.0
1513265118176903026,,504088,,1513265116,399017549,'',1.29154364648,1.29370281668,-0.0327402650845,0.00215917020865,0.001,10.7958510433,-5000.0,0.0,0.0,0.0
1513265118186801368,,504089,,1513265116,409017549,'',1.29154364648,1.29505229806,-0.00497135021241,0.00350865158906,0.001,17.5432579453,-5000.0,0.0,0.0,0.0
1513265118196679442,,504090,,1513265116,419017549,'',1.29154364648,1.29505229806,-0.00504394138509,0.00350865158906,0.001,17.5432579453,-5000.0,0.0,0.0,0.0
1513265118206710853,,504091,,1513265116,429017549,'',1.29154364648,1.29370281668,-0.0323144079068,0.00215917020865,0.001,10.7958510433,-5000.0,0.0,0.0,0.0
1513265118217094467,,504092,,1513265116,439017549,'',1.29154364648,1.29370281668,-0.0316904668161,0.00215917020865,0.001,10.7958510433,-5000.0,0.0,0.0,0.0
1513265118227110459,,504093,,1513265116,449017549,'',1.29154364648,1.29505229806,-0.00456234583095,0.00350865158906,0.001,17.5432579453,-5000.0,0.0,0.0,0.0
1513265118237109007,,504094,,1513265116,459017549,'',1.29154364648,1.29505229806,-0.00372608677924,0.00350865158906,0.001,17.5432579453,-5000.0,0.0,0.0,0.0
1513265118247034770,,504095,,1513265116,469017549,'',1.29154364648,1.29505229806,-0.00450207358117,0.00350865158906,0.001,17.5432579453,-5000.0,0.0,0.0,0.0
1513265118257016813,,504096,,1513265116,479017549,'',1.29154364648,1.29370281668,-0.0323049397105,0.00215917020865,0.001,10.7958510433,-5000.0,0.0,0.0,0.0
1513265118266903557,,504097,,1513265116,489017549,'',1.29154364648,1.29640177945,0.020680869161,0.00485813296947,0.001,24.2906648473,-5000.0,0.0,0.0,0.0
1513265118276883664,,504098,,1513265116,499017549,'',1.29154364648,1.29505229806,-0.00690246980036,0.00350865158906,0.001,17.5432579453,-5000.0,0.0,0.0,0.0
1513265118286894277,,504099,,1513265116,509017549,'',1.29154364648,1.29505229806,-0.00711100006935,0.00350865158906,0.001,17.5432579453,-5000.0,0.0,0.0,0.0
1513265118296976795,,504100,,1513265116,519017549,'',1.29154364648,1.29505229806,-0.00585495692771,0.00350865158906,0.001,17.5432579453,-5000.0,0.0,0.0,0.0
1513265118306817506,,504101,,1513265116,529017549,'',1.29154364648,1.29370281668,-0.0325140177262,0.00215917020865,0.001,10.7958510433,-5000.0,0.0,0.0,0.0
1513265118316753958,,504102,,1513265116,539017549,'',1.29154364648,1.29505229806,-0.0052184896026,0.00350865158906,0.001,17.5432579453,-5000.0,0.0,0.0,0.0
1513265118326639121,,504103,,1513265116,549017549,'',1.29154364648,1.29505229806,-0.002757444089,0.00350865158906,0.001,17.5432579453,-5000.0,0.0,0.0,0.0
1513265118337324259,,504104,,1513265116,559017549,'',1.29154364648,1.29505229806,-0.00326976062487,0.00350865158906,0.001,17.5432579453,-5000.0,0.0,0.0,0.0
1513265118346678857,,504105,,1513265116,569017549,'',1.29154364648,1.29640177945,0.0235734078708,0.00485813296947,0.001,24.2906648473,-5000.0,0.0,0.0,0.0
1513265118356715752,,504106,,1513265116,579017549,'',1.29154364648,1.29640177945,0.0232193210593,0.00485813296947,0.001,24.2906648473,-5000.0,0.0,0.0,0.0
1513265118366663486,,504107,,1513265116,589017549,'',1.29154364648,1.29505229806,-0.00377778959292,0.00350865158906,0.001,17.5432579453,-5000.0,0.0,0.0,0.0
1513265118377099383,,504108,,1513265116,599017549,'',1.29154364648,1.29370281668,-0.0298459060613,0.00215917020865,0.001,10.7958510433,-5000.0,0.0,0.0,0.0
1513265118387089105,,504109,,1513265116,609017549,'',1.29154364648,1.29505229806,-0.00162788069897,0.00350865158906,0.001,17.5432579453,-5000.0,0.0,0.0,0.0
1513265118397031045,,504110,,1513265116,619017549,'',1.29154364648,1.29505229806,-0.00276515493369,0.00350865158906,0.001,17.5432579453,-5000.0,0.0,0.0,0.0
1513265118406839849,,504111,,1513265116,629017549,'',1.29154364648,1.29505229806,-0.00181638017295,0.00350865158906,0.001,17.5432579453,-5000.0,0.0,0.0,0.0
1513265118416777050,,504112,,1513265116,639017549,'',1.29154364648,1.29505229806,7.09279937333e-07,0.00350865158906,0.001,17.5432579453,-5000.0,0.0,0.0,0.0
1513265118426755426,,504113,,1513265116,649017549,'',1.29154364648,1.29640177945,0.0253699962935,0.00485813296947,0.001,24.2906648473,-5000.0,0.0,0.0,0.0
1513265118437073000,,504114,,1513265116,659017549,'',1.29154364648,1.29505229806,-0.00347014548823,0.00350865158906,0.001,17.5432579453,-5000.0,0.0,0.0,0.0
1513265118446973964,,504115,,1513265116,669017549,'',1.29154364648,1.29505229806,-0.00336174845787,0.00350865158906,0.001,17.5432579453,-5000.0,0.0,0.0,0.0
1513265118456922858,,504116,,1513265116,679017549,'',1.29154364648,1.29505229806,-0.00378392188836,0.00350865158906,0.001,17.5432579453,-5000.0,0.0,0.0,0.0
1513265118466882281,,504117,,1513265116,689017549,'',1.29154364648,1.29640177945,0.0235806805796,0.00485813296947,0.001,24.2906648473,-5000.0,0.0,0.0,0.0
1513265118476806538,,504118,,1513265116,699017549,'',1.29154364648,1.29505229806,-0.00447352224952,0.00350865158906,0.001,17.5432579453,-5000.0,0.0,0.0,0.0
1513265118486823596,,504119,,1513265116,709017549,'',1.29154364648,1.29505229806,-0.00516051539972,0.00350865158906,0.001,17.5432579453,-5000.0,0.0,0.0,0.0
1513265118497110738,,504120,,1513265116,719017549,'',1.29154364648,1.29505229806,-0.00517591695035,0.00350865158906,0.001,17.5432579453,-5000.0,0.0,0.0,0.0
1513265118507119984,,504121,,1513265116,729017549,'',1.29154364648,1.29505229806,-0.00518116590266,0.00350865158906,0.001,17.5432579453,-5000.0,0.0,0.0,0.0
1513265118516995709,,504122,,1513265116,739017549,'',1.29154364648,1.29505229806,-0.00478676053989,0.00350865158906,0.001,17.5432579453,-5000.0,0.0,0.0,0.0
1513265118526982263,,504123,,1513265116,749017549,'',1.29154364648,1.29505229806,-0.00537288626144,0.00350865158906,0.001,17.5432579453,-5000.0,0.0,0.0,0.0
1513265118537025999,,504124,,1513265116,759017549,'',1.29154364648,1.29640177945,0.0218411728742,0.00485813296947,0.001,24.2906648473,-5000.0,0.0,0.0,0.0
1513265118546865598,,504125,,1513265116,769017549,'',1.29154364648,1.29505229806,-0.00443980386656,0.00350865158906,0.001,17.5432579453,-5000.0,0.0,0.0,0.0
1513265118556833490,,504126,,1513265116,779017549,'',1.29154364648,1.29505229806,-0.00412655731853,0.00350865158906,0.001,17.5432579453,-5000.0,0.0,0.0,0.0
1513265118567115247,,504127,,1513265116,789017549,'',1.29154364648,1.29505229806,-0.00296210484315,0.00350865158906,0.001,17.5432579453,-5000.0,0.0,0.0,0.0
1513265118577056113,,504128,,1513265116,799017549,'',1.29154364648,1.29505229806,-0.00196937760473,0.00350865158906,0.001,17.5432579453,-5000.0,0.0,0.0,0.0
1513265118586851021,,504129,,1513265116,809017549,'',1.29154364648,1.29505229806,-0.00255450037774,0.00350865158906,0.001,17.5432579453,-5000.0,0.0,0.0,0.0
1513265118596916847,,504130,,1513265116,819017549,'',1.29154364648,1.29640177945,0.0236262858658,0.00485813296947,0.001,24.2906648473,-5000.0,0.0,0.0,0.0
1513265118606826293,,504131,,1513265116,829017549,'',1.29154364648,1.29640177945,0.0232741784891,0.00485813296947,0.001,24.2906648473,-5000.0,0.0,0.0,0.0
1513265118616802287,,504132,,1513265116,839017549,'',1.29154364648,1.29505229806,-0.00470109472748,0.00350865158906,0.001,17.5432579453,-5000.0,0.0,0.0,0.0
1513265118626718594,,504133,,1513265116,849017549,'',1.29154364648,1.29505229806,-0.00331926472492,0.00350865158906,0.001,17.5432579453,-5000.0,0.0,0.0,0.0
1513265118637168331,,504134,,1513265116,859017549,'',1.29154364648,1.29505229806,-0.00268026884404,0.00350865158906,0.001,17.5432579453,-5000.0,0.0,0.0,0.0
1513265118646859559,,504135,,1513265116,869017549,'',1.29154364648,1.29505229806,-0.00218101354147,0.00350865158906,0.001,17.5432579453,-5000.0,0.0,0.0,0.0
1513265118657148417,,504136,,1513265116,879017549,'',1.29154364648,1.29640177945,0.0244096886575,0.00485813296947,0.001,24.2906648473,-5000.0,0.0,0.0,0.0
1513265118667139867,,504137,,1513265116,889017549,'',1.29154364648,1.29370281668,-0.0305548071382,0.00215917020865,0.001,10.7958510433,-5000.0,0.0,0.0,0.0
1513265118676973676,,504138,,1513265116,899017549,'',1.29154364648,1.29505229806,-0.00171714838882,0.00350865158906,0.001,17.5432579453,-5000.0,0.0,0.0,0.0
1513265118686879880,,504139,,1513265116,909017549,'',1.29154364648,1.29505229806,-0.00285048189302,0.00350865158906,0.001,17.5432579453,-5000.0,0.0,0.0,0.0
1513265118696878271,,504140,,1513265116,919017549,'',1.29154364648,1.29505229806,-0.00290059017972,0.00350865158906,0.001,17.5432579453,-5000.0,0.0,0.0,0.0
1513265118706783370,,504141,,1513265116,929017549,'',1.29154364648,1.29505229806,-0.00336796374162,0.00350865158906,0.001,17.5432579453,-5000.0,0.0,0.0,0.0
1513265118716720518,,504142,,1513265116,939017549,'',1.29154364648,1.29505229806,-0.00322898335519,0.00350865158906,0.001,17.5432579453,-5000.0,0.0,0.0,0.0
1513265118726727551,,504143,,1513265116,949017549,'',1.29154364648,1.29505229806,-0.00310351083124,0.00350865158906,0.001,17.5432579453,-5000.0,0.0,0.0,0.0
1513265118737108909,,504144,,1513265116,959017549,'',1.29154364648,1.29505229806,-0.00216538644176,0.00350865158906,0.001,17.5432579453,-5000.0,0.0,0.0,0.0
1513265118746977805,,504145,,1513265116,969017549,'',1.29154364648,1.29505229806,-0.00130112616756,0.00350865158906,0.001,17.5432579453,-5000.0,0.0,0.0,0.0
1513265118756937712,,504146,,1513265116,979017549,'',1.29154364648,1.29505229806,-0.00161630094891,0.00350865158906,0.001,17.5432579453,-5000.0,0.0,0.0,0.0
1513265118766861619,,504147,,1513265116,989017549,'',1.29154364648,1.29505229806,-0.00282553652544,0.00350865158906,0.001,17.5432579453,-5000.0,0.0,0.0,0.0
1513265118776942617,,504148,,1513265116,999017549,'',1.29154364648,1.29505229806,-0.00225060602128,0.00350865158906,0.001,17.5432579453,-5000.0,0.0,0.0,0.0
1513265118786838486,,504149,,1513265117,9017549,'',1.29154364648,1.29505229806,-0.00181689727419,0.00350865158906,0.001,17.5432579453,-5000.0,0.0,0.0,0.0
1513265118796716787,,504150,,1513265117,19017549,'',1.29154364648,1.29505229806,-0.00296219932122,0.00350865158906,0.001,17.5432579453,-5000.0,0.0,0.0,0.0
1513265118806664530,,504151,,1513265117,29017549,'',1.29154364648,1.29640177945,0.0252540952554,0.00485813296947,0.001,24.2906648473,-5000.0,0.0,0.0,0.0
1513265118816681874,,504152,,1513265117,39017549,'',1.29154364648,1.29505229806,-0.000650336347251,0.00350865158906,0.001,17.5432579453,-5000.0,0.0,0.0,0.0
1513265118826618331,,504153,,1513265117,49017549,'',1.29154364648,1.29640177945,0.0272476661785,0.00485813296947,0.001,24.2906648473,-5000.0,0.0,0.0,0.0
1513265118837124457,,504154,,1513265117,59017549,'',1.29154364648,1.29505229806,-0.00101888242557,0.00350865158906,0.001,17.5432579453,-5000.0,0.0,0.0,0.0
1513265118847128184,,504155,,1513265117,69017549,'',1.29154364648,1.29505229806,-0.000828332388296,0.00350865158906,0.001,17.5432579453,-5000.0,0.0,0.0,0.0
1513265118857027103,,504156,,1513265117,79017549,'',1.29154364648,1.29505229806,-0.000663507730867,0.00350865158906,0.001,17.5432579453,-5000.0,0.0,0.0,0.0
1513265118866965248,,504157,,1513265117,89017549,'',1.29154364648,1.29505229806,-0.00203689171726,0.00350865158906,0.001,17.5432579453,-5000.0,0.0,0.0,0.0
1513265118876964907,,504158,,1513265117,99017549,'',1.29154364648,1.29505229806,-0.00272048420676,0.00350865158906,0.001,17.5432579453,-5000.0,0.0,0.0,0.0
1513265118886940791,,504159,,1513265117,109017549,'',1.29154364648,1.29505229806,-0.00231034911804,0.00350865158906,0.001,17.5432579453,-5000.0,0.0,0.0,0.0
1513265118896776458,,504160,,1513265117,119017549,'',1.29154364648,1.29505229806,-0.00231551027955,0.00350865158906,0.001,17.5432579453,-5000.0,0.0,0.0,0.0
1513265118906761835,,504161,,1513265117,129017549,'',1.29154364648,1.29505229806,-0.00339880989075,0.00350865158906,0.001,17.5432579453,-5000.0,0.0,0.0,0.0
1513265118917171787,,504162,,1513265117,139017549,'',1.29154364648,1.29505229806,-0.0027559522556,0.00350865158906,0.001,17.5432579453,-5000.0,0.0,0.0,0.0
1513265118927078213,,504163,,1513265117,149017549,'',1.29154364648,1.29505229806,-0.00230323918085,0.00350865158906,0.001,17.5432579453,-5000.0,0.0,0.0,0.0
1513265118937021293,,504164,,1513265117,159017549,'',1.29154364648,1.29505229806,-0.00188569714719,0.00350865158906,0.001,17.5432579453,-5000.0,0.0,0.0,0.0
1513265118946935523,,504165,,1513265117,169017549,'',1.29154364648,1.29640177945,0.0252019409223,0.00485813296947,0.001,24.2906648473,-5000.0,0.0,0.0,0.0
1513265118956859834,,504166,,1513265117,179017549,'',1.29154364648,1.29505229806,-0.00216014356969,0.00350865158906,0.001,17.5432579453,-5000.0,0.0,0.0,0.0
1513265118966882875,,504167,,1513265117,189017549,'',1.29154364648,1.29505229806,-0.00176843295508,0.00350865158906,0.001,17.5432579453,-5000.0,0.0,0.0,0.0
1513265118976823113,,504168,,1513265117,199017549,'',1.29154364648,1.29370281668,-0.0291198589608,0.00215917020865,0.001,10.7958510433,-5000.0,0.0,0.0,0.0
1513265118986764814,,504169,,1513265117,209017549,'',1.29154364648,1.29505229806,-0.00245814711157,0.00350865158906,0.001,17.5432579453,-5000.0,0.0,0.0,0.0
1513265118997118960,,504170,,1513265117,219017549,'',1.29154364648,1.29370281668,-0.0296188675055,0.00215917020865,0.001,10.7958510433,-5000.0,0.0,0.0,0.0
1513265119007134677,,504171,,1513265117,229017549,'',1.29154364648,1.29505229806,-0.00196401882528,0.00350865158906,0.001,17.5432579453,-5000.0,0.0,0.0,0.0
1513265119017049874,,504172,,1513265117,239017549,'',1.29154364648,1.29505229806,-0.00261868308637,0.00350865158906,0.001,17.5432579453,-5000.0,0.0,0.0,0.0
1513265119027105078,,504173,,1513265117,249017549,'',1.29154364648,1.29505229806,-0.00305356887967,0.00350865158906,0.001,17.5432579453,-5000.0,0.0,0.0,0.0
1513265119036990152,,504174,,1513265117,259017549,'',1.29154364648,1.29505229806,-0.00342405856435,0.00350865158906,0.001,17.5432579453,-5000.0,0.0,0.0,0.0
1513265119046940958,,504175,,1513265117,269017549,'',1.29154364648,1.29505229806,-0.00377862126299,0.00350865158906,0.001,17.5432579453,-5000.0,0.0,0.0,0.0
1513265119056885344,,504176,,1513265117,279017549,'',1.29154364648,1.29370281668,-0.0308427704725,0.00215917020865,0.001,10.7958510433,-5000.0,0.0,0.0,0.0
1513265119066709664,,504177,,1513265117,289017549,'',1.29154364648,1.29505229806,-0.00241832523537,0.00350865158906,0.001,17.5432579453,-5000.0,0.0,0.0,0.0
1513265119076772835,,504178,,1513265117,299017549,'',1.29154364648,1.29505229806,-0.00296174732964,0.00350865158906,0.001,17.5432579453,-5000.0,0.0,0.0,0.0
1513265119087194015,,504179,,1513265117,309017549,'',1.29154364648,1.29505229806,-0.00291632210557,0.00350865158906,0.001,17.5432579453,-5000.0,0.0,0.0,0.0
1513265119097020838,,504180,,1513265117,319017549,'',1.29154364648,1.29370281668,-0.0296042242934,0.00215917020865,0.001,10.7958510433,-5000.0,0.0,0.0,0.0
1513265119106953736,,504181,,1513265117,329017549,'',1.29154364648,1.29505229806,-0.00337523031184,0.00350865158906,0.001,17.5432579453,-5000.0,0.0,0.0,0.0
1513265119116790065,,504182,,1513265117,339017549,'',1.29154364648,1.29505229806,-0.00363223802324,0.00350865158906,0.001,17.5432579453,-5000.0,0.0,0.0,0.0
1513265119126781301,,504183,,1513265117,349017549,'',1.29154364648,1.29505229806,-0.00247627115811,0.00350865158906,0.001,17.5432579453,-5000.0,0.0,0.0,0.0
1513265119137208034,,504184,,1513265117,359017549,'',1.29154364648,1.29640177945,0.024182947764,0.00485813296947,0.001,24.2906648473,-5000.0,0.0,0.0,0.0
1513265119147175622,,504185,,1513265117,369017549,'',1.29154364648,1.29640177945,0.0212293897697,0.00485813296947,0.001,24.2906648473,-5000.0,0.0,0.0,0.0
1513265119157110276,,504186,,1513265117,379017549,'',1.29154364648,1.29505229806,-0.00694981405163,0.00350865158906,0.001,17.5432579453,-5000.0,0.0,0.0,0.0
1513265119167037431,,504187,,1513265117,389017549,'',1.29154364648,1.29640177945,0.0194769274674,0.00485813296947,0.001,24.2906648473,-5000.0,0.0,0.0,0.0
1513265119177159299,,504188,,1513265117,399017549,'',1.29154364648,1.29640177945,0.0159091825826,0.00485813296947,0.001,24.2906648473,-5000.0,0.0,0.0,0.0
1513265119187144916,,504189,,1513265117,409017549,'',1.29154364648,1.29775126083,0.0382794038556,0.00620761434988,0.001,31.0380717494,-5000.0,0.0,0.0,0.0
1513265119197073711,,504190,,1513265117,419017549,'',1.29154364648,1.29775126083,0.033343573033,0.00620761434988,0.001,31.0380717494,-5000.0,0.0,0.0,0.0
1513265119206840335,,504191,,1513265117,429017549,'',1.29154364648,1.29775126083,0.0292974562716,0.00620761434988,0.001,31.0380717494,-5000.0,0.0,0.0,0.0
1513265119216709865,,504192,,1513265117,439017549,'',1.29154364648,1.29775126083,0.0254495580838,0.00620761434988,0.001,31.0380717494,-5000.0,0.0,0.0,0.0
1513265119227159642,,504193,,1513265117,449017549,'',1.29154364648,1.29775126083,0.0237845760504,0.00620761434988,0.001,31.0380717494,-5000.0,0.0,0.0,0.0
1513265119237037207,,504194,,1513265117,459017549,'',1.29154364648,1.29640177945,-0.00435124469448,0.00485813296947,0.001,24.2906648473,-5000.0,0.0,0.0,0.0
1513265119247113470,,504195,,1513265117,469017549,'',1.29154364648,1.29775126083,0.0211351001889,0.00620761434988,0.001,31.0380717494,-5000.0,0.0,0.0,0.0
1513265119256853798,,504196,,1513265117,479017549,'',1.29154364648,1.29775126083,0.0177473752443,0.00620761434988,0.001,31.0380717494,-5000.0,0.0,0.0,0.0
1513265119266813494,,504197,,1513265117,489017549,'',1.29154364648,1.29910074221,0.0402947472557,0.00755709573028,0.001,37.7854786514,-5000.0,0.0,0.0,0.0
1513265119277154615,,504198,,1513265117,499017549,'',1.29154364648,1.29775126083,0.0101879488877,0.00620761434988,0.001,31.0380717494,-5000.0,0.0,0.0,0.0
1513265119286909239,,504199,,1513265117,509017549,'',1.29154364648,1.29910074221,0.0331224494187,0.00755709573028,0.001,37.7854786514,-5000.0,0.0,0.0,0.0
1513265119296823492,,504200,,1513265117,519017549,'',1.29154364648,1.29775126083,0.00238195029074,0.00620761434988,0.001,31.0380717494,-5000.0,0.0,0.0,0.0
1513265119307230719,,504201,,1513265117,529017549,'',1.29154364648,1.29775126083,-0.00143261689859,0.00620761434988,0.001,31.0380717494,-5000.0,0.0,0.0,0.0
1513265119317117002,,504202,,1513265117,539017549,'',1.29154364648,1.29910074221,0.0237342788873,0.00755709573028,0.001,37.7854786514,-5000.0,0.0,0.0,0.0
1513265119327119628,,504203,,1513265117,549017549,'',1.29154364648,1.29910074221,0.0219362893432,0.00755709573028,0.001,37.7854786514,-5000.0,0.0,0.0,0.0
1513265119337026669,,504204,,1513265117,559017549,'',1.29154364648,1.29910074221,0.0193611141383,0.00755709573028,0.001,37.7854786514,-5000.0,0.0,0.0,0.0
1513265119347071740,,504205,,1513265117,569017549,'',1.29154364648,1.30045022359,0.0434813576433,0.00890657711069,0.001,44.5328855535,-5000.0,0.0,0.0,0.0
1513265119356918711,,504206,,1513265117,579017549,'',1.29154364648,1.29775126083,-0.0124933628855,0.00620761434988,0.001,31.0380717494,-5000.0,0.0,0.0,0.0
1513265119366902258,,504207,,1513265117,589017549,'',1.29154364648,1.29775126083,-0.0141982212704,0.00620761434988,0.001,31.0380717494,-5000.0,0.0,0.0,0.0
1513265119376823745,,504208,,1513265117,599017549,'',1.29154364648,1.29910074221,0.00970885951783,0.00755709573028,0.001,37.7854786514,-5000.0,0.0,0.0,0.0
1513265119386872066,,504209,,1513265117,609017549,'',1.29154364648,1.29775126083,-0.0188046389159,0.00620761434988,0.001,31.0380717494,-5000.0,0.0,0.0,0.0
1513265119397115639,,504210,,1513265117,619017549,'',1.29154364648,1.30045022359,0.033169938218,0.00890657711069,0.001,44.5328855535,-5000.0,0.0,0.0,0.0
1513265119407047071,,504211,,1513265117,629017549,'',1.29154364648,1.29910074221,0.00336166048371,0.00755709573028,0.001,37.7854786514,-5000.0,0.0,0.0,0.0
1513265119416821302,,504212,,1513265117,639017549,'',1.29154364648,1.30045022359,0.0275755502099,0.00890657711069,0.001,44.5328855535,-5000.0,0.0,0.0,0.0
1513265119426850146,,504213,,1513265117,649017549,'',1.29154364648,1.29910074221,-0.000156282835106,0.00755709573028,0.001,37.7854786514,-5000.0,0.0,0.0,0.0
1513265119437148053,,504214,,1513265117,659017549,'',1.29154364648,1.29910074221,-0.000683437093567,0.00755709573028,0.001,37.7854786514,-5000.0,0.0,0.0,0.0
1513265119447063104,,504215,,1513265117,669017549,'',1.29154364648,1.29910074221,-0.00163116451129,0.00755709573028,0.001,37.7854786514,-5000.0,0.0,0.0,0.0
1513265119457098624,,504216,,1513265117,679017549,'',1.29154364648,1.29910074221,-0.00284560579155,0.00755709573028,0.001,37.7854786514,-5000.0,0.0,0.0,0.0
1513265119466861241,,504217,,1513265117,689017549,'',1.29154364648,1.29910074221,-0.00323376289408,0.00755709573028,0.001,37.7854786514,-5000.0,0.0,0.0,0.0
1513265119477145501,,504218,,1513265117,699017549,'',1.29154364648,1.29910074221,-0.00401166302122,0.00755709573028,0.001,37.7854786514,-5000.0,0.0,0.0,0.0
1513265119487157690,,504219,,1513265117,709017549,'',1.29154364648,1.30045022359,0.0209241010665,0.00890657711069,0.001,44.5328855535,-5000.0,0.0,0.0,0.0
1513265119497102926,,504220,,1513265117,719017549,'',1.29154364648,1.29910074221,-0.00568937599237,0.00755709573028,0.001,37.7854786514,-5000.0,0.0,0.0,0.0
1513265119507120488,,504221,,1513265117,729017549,'',1.29154364648,1.29910074221,-0.00470044368619,0.00755709573028,0.001,37.7854786514,-5000.0,0.0,0.0,0.0
1513265119517057067,,504222,,1513265117,739017549,'',1.29154364648,1.29910074221,-0.00534652299036,0.00755709573028,0.001,37.7854786514,-5000.0,0.0,0.0,0.0
1513265119526971437,,504223,,1513265117,749017549,'',1.29154364648,1.30045022359,0.0218691091749,0.00890657711069,0.001,44.5328855535,-5000.0,0.0,0.0,0.0
1513265119536798220,,504224,,1513265117,759017549,'',1.29154364648,1.30045022359,0.021332755563,0.00890657711069,0.001,44.5328855535,-5000.0,0.0,0.0,0.0
1513265119546965037,,504225,,1513265117,769017549,'',1.29154364648,1.29775126083,-0.0340300415448,0.00620761434988,0.001,31.0380717494,-5000.0,0.0,0.0,0.0
1513265119557244574,,504226,,1513265117,779017549,'',1.29154364648,1.29910074221,-0.00555161861538,0.00755709573028,0.001,37.7854786514,-5000.0,0.0,0.0,0.0
1513265119566962531,,504227,,1513265117,789017549,'',1.29154364648,1.29775126083,-0.032207739438,0.00620761434988,0.001,31.0380717494,-5000.0,0.0,0.0,0.0
1513265119576977453,,504228,,1513265117,799017549,'',1.29154364648,1.29910074221,-0.0050685767155,0.00755709573028,0.001,37.7854786514,-5000.0,0.0,0.0,0.0
1513265119586678557,,504229,,1513265117,809017549,'',1.29154364648,1.29910074221,-0.00418327536715,0.00755709573028,0.001,37.7854786514,-5000.0,0.0,0.0,0.0
1513265119597196576,,504230,,1513265117,819017549,'',1.29154364648,1.30045022359,0.0224027078636,0.00890657711069,0.001,44.5328855535,-5000.0,0.0,0.0,0.0
1513265119607144973,,504231,,1513265117,829017549,'',1.29154364648,1.29910074221,-0.00242391789069,0.00755709573028,0.001,37.7854786514,-5000.0,0.0,0.0,0.0
1513265119617076728,,504232,,1513265117,839017549,'',1.29154364648,1.30045022359,0.0233110147145,0.00890657711069,0.001,44.5328855535,-5000.0,0.0,0.0,0.0
1513265119626950401,,504233,,1513265117,849017549,'',1.29154364648,1.30045022359,0.022548139235,0.00890657711069,0.001,44.5328855535,-5000.0,0.0,0.0,0.0
1513265119636917801,,504234,,1513265117,859017549,'',1.29154364648,1.29910074221,-0.00444604858925,0.00755709573028,0.001,37.7854786514,-5000.0,0.0,0.0,0.0
1513265119646969863,,504235,,1513265117,869017549,'',1.29154364648,1.30045022359,0.0235257135887,0.00890657711069,0.001,44.5328855535,-5000.0,0.0,0.0,0.0
1513265119656975926,,504236,,1513265117,879017549,'',1.29154364648,1.29910074221,-0.00400194561794,0.00755709573028,0.001,37.7854786514,-5000.0,0.0,0.0,0.0
1513265119666856744,,504237,,1513265117,889017549,'',1.29154364648,1.29910074221,-0.0042739559563,0.00755709573028,0.001,37.7854786514,-5000.0,0.0,0.0,0.0
1513265119676873411,,504238,,1513265117,899017549,'',1.29154364648,1.29775126083,-0.0316895302537,0.00620761434988,0.001,31.0380717494,-5000.0,0.0,0.0,0.0
1513265119686778746,,504239,,1513265117,909017549,'',1.29154364648,1.29910074221,-0.00356754135718,0.00755709573028,0.001,37.7854786514,-5000.0,0.0,0.0,0.0
1513265119697147008,,504240,,1513265117,919017549,'',1.29154364648,1.29775126083,-0.028621562693,0.00620761434988,0.001,31.0380717494,-5000.0,0.0,0.0,0.0
1513265119707083849,,504241,,1513265117,929017549,'',1.29154364648,1.29910074221,-0.00104854267589,0.00755709573028,0.001,37.7854786514,-5000.0,0.0,0.0,0.0
1513265119716983394,,504242,,1513265117,939017549,'',1.29154364648,1.29910074221,-0.00134200760136,0.00755709573028,0.001,37.7854786514,-5000.0,0.0,0.0,0.0
1513265119726901802,,504243,,1513265117,949017549,'',1.29154364648,1.29775126083,-0.0288523723409,0.00620761434988,0.001,31.0380717494,-5000.0,0.0,0.0,0.0
1513265119736847652,,504244,,1513265117,959017549,'',1.29154364648,1.29910074221,0.000129175673906,0.00755709573028,0.001,37.7854786514,-5000.0,0.0,0.0,0.0
1513265119746899428,,504245,,1513265117,969017549,'',1.29154364648,1.30045022359,0.0262655980311,0.00890657711069,0.001,44.5328855535,-5000.0,0.0,0.0,0.0
1513265119756898429,,504246,,1513265117,979017549,'',1.29154364648,1.29775126083,-0.0270590724292,0.00620761434988,0.001,31.0380717494,-5000.0,0.0,0.0,0.0
1513265119766759685,,504247,,1513265117,989017549,'',1.29154364648,1.29910074221,0.00214232239718,0.00755709573028,0.001,37.7854786514,-5000.0,0.0,0.0,0.0
1513265119777210495,,504248,,1513265117,999017549,'',1.29154364648,1.29775126083,-0.0229455626108,0.00620761434988,0.001,31.0380717494,-5000.0,0.0,0.0,0.0
1513265119787160412,,504249,,1513265118,9017549,'',1.29154364648,1.29775126083,-0.0211999580179,0.00620761434988,0.001,31.0380717494,-5000.0,0.0,0.0,0.0
1513265119796970871,,504250,,1513265118,19017549,'',1.29154364648,1.30045022359,0.0341789915265,0.00890657711069,0.001,44.5328855535,-5000.0,0.0,0.0,0.0
1513265119806888926,,504251,,1513265118,29017549,'',1.29154364648,1.29910074221,0.0076617356819,0.00755709573028,0.001,37.7854786514,-5000.0,0.0,0.0,0.0
1513265119816874887,,504252,,1513265118,39017549,'',1.29154364648,1.29910074221,0.00879173222704,0.00755709573028,0.001,37.7854786514,-5000.0,0.0,0.0,0.0
1513265119827181258,,504253,,1513265118,49017549,'',1.29154364648,1.29775126083,-0.0166107160881,0.00620761434988,0.001,31.0380717494,-5000.0,0.0,0.0,0.0
1513265119837050917,,504254,,1513265118,59017549,'',1.29154364648,1.29775126083,-0.0175977659107,0.00620761434988,0.001,31.0380717494,-5000.0,0.0,0.0,0.0
1513265119846949877,,504255,,1513265118,69017549,'',1.29154364648,1.29910074221,0.00937216760688,0.00755709573028,0.001,37.7854786514,-5000.0,0.0,0.0,0.0
1513265119856918454,,504256,,1513265118,79017549,'',1.29154364648,1.29910074221,0.00915940131922,0.00755709573028,0.001,37.7854786514,-5000.0,0.0,0.0,0.0
1513265119866776271,,504257,,1513265118,89017549,'',1.29154364648,1.29775126083,-0.0172652090505,0.00620761434988,0.001,31.0380717494,-5000.0,0.0,0.0,0.0
1513265119876770628,,504258,,1513265118,99017549,'',1.29154364648,1.29775126083,-0.018520108368,0.00620761434988,0.001,31.0380717494,-5000.0,0.0,0.0,0.0
1513265119887188566,,504259,,1513265118,109017549,'',1.29154364648,1.29775126083,-0.0175780906501,0.00620761434988,0.001,31.0380717494,-5000.0,0.0,0.0,0.0
1513265119897072252,,504260,,1513265118,119017549,'',1.29154364648,1.29775126083,-0.0168201307491,0.00620761434988,0.001,31.0380717494,-5000.0,0.0,0.0,0.0
1513265119907030439,,504261,,1513265118,129017549,'',1.29154364648,1.30045022359,0.036258804958,0.00890657711069,0.001,44.5328855535,-5000.0,0.0,0.0,0.0
1513265119917215412,,504262,,1513265118,139017549,'',1.29154364648,1.29775126083,-0.0170064228664,0.00620761434988,0.001,31.0380717494,-5000.0,0.0,0.0,0.0
1513265119927087211,,504263,,1513265118,149017549,'',1.29154364648,1.29910074221,0.0103799427319,0.00755709573028,0.001,37.7854786514,-5000.0,0.0,0.0,0.0
1513265119936963980,,504264,,1513265118,159017549,'',1.29154364648,1.29775126083,-0.0172599563596,0.00620761434988,0.001,31.0380717494,-5000.0,0.0,0.0,0.0
1513265119946912539,,504265,,1513265118,169017549,'',1.29154364648,1.29910074221,0.0116706492232,0.00755709573028,0.001,37.7854786514,-5000.0,0.0,0.0,0.0
1513265119957011143,,504266,,1513265118,179017549,'',1.29154364648,1.29775126083,-0.0147013198365,0.00620761434988,0.001,31.0380717494,-5000.0,0.0,0.0,0.0
1513265119966930974,,504267,,1513265118,189017549,'',1.29154364648,1.29910074221,0.0151970975254,0.00755709573028,0.001,37.7854786514,-5000.0,0.0,0.0,0.0
1513265119976856180,,504268,,1513265118,199017549,'',1.29154364648,1.29775126083,-0.00976387789454,0.00620761434988,0.001,31.0380717494,-5000.0,0.0,0.0,0.0
1513265119986809895,,504269,,1513265118,209017549,'',1.29154364648,1.29910074221,0.0196921853547,0.00755709573028,0.001,37.7854786514,-5000.0,0.0,0.0,0.0
1513265119997220662,,504270,,1513265118,219017549,'',1.29154364648,1.29640177945,-0.0314221735045,0.00485813296947,0.001,24.2906648473,-5000.0,0.0,0.0,0.0
1513265120007100874,,504271,,1513265118,229017549,'',1.29154364648,1.29775126083,-0.00387224720783,0.00620761434988,0.001,31.0380717494,-5000.0,0.0,0.0,0.0
1513265120017040090,,504272,,1513265118,239017549,'',1.29154364648,1.29775126083,-0.00113140704699,0.00620761434988,0.001,31.0380717494,-5000.0,0.0,0.0,0.0
1513265120027063210,,504273,,1513265118,249017549,'',1.29154364648,1.29775126083,0.00140584050801,0.00620761434988,0.001,31.0380717494,-5000.0,0.0,0.0,0.0
1513265120036825985,,504274,,1513265118,259017549,'',1.29154364648,1.29640177945,-0.0251756203751,0.00485813296947,0.001,24.2906648473,-5000.0,0.0,0.0,0.0
1513265120046876412,,504275,,1513265118,269017549,'',1.29154364648,1.29640177945,-0.022009835437,0.00485813296947,0.001,24.2906648473,-5000.0,0.0,0.0,0.0
1513265120057170540,,504276,,1513265118,279017549,'',1.29154364648,1.29640177945,-0.0214609442215,0.00485813296947,0.001,24.2906648473,-5000.0,0.0,0.0,0.0
1513265120067178849,,504277,,1513265118,289017549,'',1.29154364648,1.29640177945,-0.0204897940527,0.00485813296947,0.001,24.2906648473,-5000.0,0.0,0.0,0.0
1513265120077118619,,504278,,1513265118,299017549,'',1.29154364648,1.29640177945,-0.019261277062,0.00485813296947,0.001,24.2906648473,-5000.0,0.0,0.0,0.0
1513265120087037059,,504279,,1513265118,309017549,'',1.29154364648,1.29640177945,-0.0167208998127,0.00485813296947,0.001,24.2906648473,-5000.0,0.0,0.0,0.0
1513265120097052349,,504280,,1513265118,319017549,'',1.29154364648,1.29775126083,0.0125362009988,0.00620761434988,0.001,31.0380717494,-5000.0,0.0,0.0,0.0
1513265120106952335,,504281,,1513265118,329017549,'',1.29154364648,1.29640177945,-0.0139628499878,0.00485813296947,0.001,24.2906648473,-5000.0,0.0,0.0,0.0
1513265120116882829,,504282,,1513265118,339017549,'',1.29154364648,1.29640177945,-0.0114680409912,0.00485813296947,0.001,24.2906648473,-5000.0,0.0,0.0,0.0
1513265120126780584,,504283,,1513265118,349017549,'',1.29154364648,1.29505229806,-0.0356303429514,0.00350865158906,0.001,17.5432579453,-5000.0,0.0,0.0,0.0
1513265120136798021,,504284,,1513265118,359017549,'',1.29154364648,1.29640177945,-0.00682264522802,0.00485813296947,0.001,24.2906648473,-5000.0,0.0,0.0,0.0
1513265120146814820,,504285,,1513265118,369017549,'',1.29154364648,1.29775126083,0.0225740385195,0.00620761434988,0.001,31.0380717494,-5000.0,0.0,0.0,0.0
1513265120156788974,,504286,,1513265118,379017549,'',1.29154364648,1.29505229806,-0.0295454797356,0.00350865158906,0.001,17.5432579453,-5000.0,0.0,0.0,0.0
1513265120166761018,,504287,,1513265118,389017549,'',1.29154364648,1.29370281668,-0.053355731685,0.00215917020865,0.001,10.7958510433,-5000.0,0.0,0.0,0.0
1513265120177230913,,504288,,1513265118,399017549,'',1.29154364648,1.29505229806,-0.0212964276231,0.00350865158906,0.001,17.5432579453,-5000.0,0.0,0.0,0.0
1513265120187270863,,504289,,1513265118,409017549,'',1.29154364648,1.29370281668,-0.0417068944275,0.00215917020865,0.001,10.7958510433,-5000.0,0.0,0.0,0.0
1513265120197134497,,504290,,1513265118,419017549,'',1.29154364648,1.29370281668,-0.037083062652,0.00215917020865,0.001,10.7958510433,-5000.0,0.0,0.0,0.0
1513265120207176222,,504291,,1513265118,429017549,'',1.29154364648,1.29505229806,-0.00509227470111,0.00350865158906,0.001,17.5432579453,-5000.0,0.0,0.0,0.0
1513265120217156978,,504292,,1513265118,439017549,'',1.29154364648,1.29370281668,-0.028505019796,0.00215917020865,0.001,10.7958510433,-5000.0,0.0,0.0,0.0
1513265120226856072,,504293,,1513265118,449017549,'',1.29154364648,1.29370281668,-0.026321556099,0.00215917020865,0.001,10.7958510433,-5000.0,0.0,0.0,0.0
1513265120236908417,,504294,,1513265118,459017549,'',1.29154364648,1.29505229806,0.0032668527888,0.00350865158906,0.001,17.5432579453,-5000.0,0.0,0.0,0.0
1513265120247200052,,504295,,1513265118,469017549,'',1.29154364648,1.29370281668,-0.0216640946006,0.00215917020865,0.001,10.7958510433,-5000.0,0.0,0.0,0.0
1513265120257180665,,504296,,1513265118,479017549,'',1.29154364648,1.29370281668,-0.0191892613877,0.00215917020865,0.001,10.7958510433,-5000.0,0.0,0.0,0.0
1513265120267071173,,504297,,1513265118,489017549,'',1.29154364648,1.29370281668,-0.0171551150929,0.00215917020865,0.001,10.7958510433,-5000.0,0.0,0.0,0.0
1513265120276964584,,504298,,1513265118,499017549,'',1.29154364648,1.29370281668,-0.0154943947007,0.00215917020865,0.001,10.7958510433,-5000.0,0.0,0.0,0.0
1513265120286956289,,504299,,1513265118,509017549,'',1.29154364648,1.29370281668,-0.0130689531672,0.00215917020865,0.001,10.7958510433,-5000.0,0.0,0.0,0.0
1513265120296957567,,504300,,1513265118,519017549,'',1.29154364648,1.29370281668,-0.00922458746103,0.00215917020865,0.001,10.7958510433,-5000.0,0.0,0.0,0.0
1513265120307294117,,504301,,1513265118,529017549,'',1.29154364648,1.29370281668,-0.00750408251098,0.00215917020865,0.001,10.7958510433,-5000.0,0.0,0.0,0.0
1513265120317271915,,504302,,1513265118,539017549,'',1.29154364648,1.29370281668,-0.00367225564742,0.00215917020865,0.001,10.7958510433,-5000.0,0.0,0.0,0.0
1513265120327015897,,504303,,1513265118,549017549,'',1.29154364648,1.29370281668,0.00134495555168,0.0,0.001,0.0,-5000.0,0.0,0.0,0.0
1513265120336998662,,504304,,1513265118,559017549,'',1.29154364648,1.2923533353,-0.0216931041935,0.0,0.001,0.0,-5000.0,0.0,0.0,0.0
1513265120346882730,,504305,,1513265118,569017549,'',1.29154364648,1.2923533353,-0.0162981037878,0.0,0.001,0.0,-5000.0,0.0,0.0,0.0
1513265120357064284,,504306,,1513265118,579017549,'',1.29154364648,1.29100385392,-0.0365942442613,0.0,0.001,0.0,-5000.0,0.0,0.0,0.0
1513265120366956813,,504307,,1513265118,589017549,'',1.29154364648,1.29100385392,-0.0314054053228,0.0,0.001,0.0,-5000.0,0.0,0.0,0.0
1513265120376806764,,504308,,1513265118,599017549,'',1.29154364648,1.29100385392,-0.0266768844859,0.0,0.001,0.0,-5000.0,0.0,0.0,0.0
1513265120387144458,,504309,,1513265118,609017549,'',1.29154364648,1.29100385392,-0.0237778897543,0.0,0.001,0.0,-5000.0,0.0,0.0,0.0
1513265120397095848,,504310,,1513265118,619017549,'',1.29154364648,1.29100385392,-0.0204268948132,0.0,0.001,0.0,-5000.0,0.0,0.0,0.0
1513265120407077376,,504311,,1513265118,629017549,'',1.29154364648,1.2923533353,0.0100450796003,0.0,0.001,0.0,-5000.0,0.0,0.0,0.0
1513265120416901506,,504312,,1513265118,639017549,'',1.29154364648,1.29100385392,-0.0145844692551,0.0,0.001,0.0,-5000.0,0.0,0.0,0.0
1513265120426804947,,504313,,1513265118,649017549,'',1.29154364648,1.29100385392,-0.0123975403596,0.0,0.001,0.0,-5000.0,0.0,0.0,0.0
1513265120436853997,,504314,,1513265118,659017549,'',1.29154364648,1.28965437254,-0.0359460594398,0.0,0.001,0.0,-5000.0,0.0,0.0,0.0
1513265120446762576,,504315,,1513265118,669017549,'',1.29154364648,1.29100385392,-0.00426446828365,0.0,0.001,0.0,-5000.0,0.0,0.0,0.0
1513265120457232817,,504316,,1513265118,679017549,'',1.29154364648,1.28965437254,-0.0287228353671,0.0,0.001,0.0,-5000.0,0.0,0.0,0.0
1513265120467128026,,504317,,1513265118,689017549,'',1.29154364648,1.29100385392,0.000307184176499,0.0,0.001,0.0,-5000.0,0.0,0.0,0.0
1513265120477051614,,504318,,1513265118,699017549,'',1.29154364648,1.29100385392,0.00223723011622,0.0,0.001,0.0,-5000.0,0.0,0.0,0.0
1513265120486853476,,504319,,1513265118,709017549,'',1.29154364648,1.28965437254,-0.0219360676607,0.0,0.001,0.0,-5000.0,0.0,0.0,0.0
1513265120496886117,,504320,,1513265118,719017549,'',1.29154364648,1.29100385392,0.00976916507485,0.0,0.001,0.0,-5000.0,0.0,0.0,0.0
1513265120506806812,,504321,,1513265118,729017549,'',1.29154364648,1.28965437254,-0.0108597697331,0.0,0.001,0.0,-5000.0,0.0,0.0,0.0
1513265120516813283,,504322,,1513265118,739017549,'',1.29154364648,1.28830489116,-0.0321908296872,0.0,0.001,0.0,-5000.0,0.0,0.0,0.0
1513265120526760150,,504323,,1513265118,749017549,'',1.29154364648,1.28695540978,-0.0516362310529,0.0,0.001,0.0,-5000.0,0.0,0.0,0.0
1513265120536736058,,504324,,1513265118,759017549,'',1.29154364648,1.28695540978,-0.0426870691704,0.0,0.001,0.0,-5000.0,0.0,0.0,0.0
1513265120547199858,,504325,,1513265118,769017549,'',1.29154364648,1.2856059284,-0.0606863327847,0.0,0.001,0.0,-5000.0,0.0,0.0,0.0
1513265120557076773,,504326,,1513265118,779017549,'',1.29154364648,1.2856059284,-0.0501007261167,0.0,0.001,0.0,-5000.0,0.0,0.0,0.0
1513265120567000114,,504327,,1513265118,789017549,'',1.29154364648,1.2856059284,-0.04201545977,0.0,0.001,0.0,-5000.0,0.0,0.0,0.0
1513265120576911375,,504328,,1513265118,799017549,'',1.29154364648,1.2856059284,-0.0353329874905,0.0,0.001,0.0,-5000.0,0.0,0.0,0.0
1513265120586916914,,504329,,1513265118,809017549,'',1.29154364648,1.2856059284,-0.0318019767987,0.0,0.001,0.0,-5000.0,0.0,0.0,0.0
1513265120596853335,,504330,,1513265118,819017549,'',1.29154364648,1.2856059284,-0.0260471957792,0.0,0.001,0.0,-5000.0,0.0,0.0,0.0
1513265120606923869,,504331,,1513265118,829017549,'',1.29154364648,1.2856059284,-0.0223171572197,0.0,0.001,0.0,-5000.0,0.0,0.0,0.0
1513265120617177562,,504332,,1513265118,839017549,'',1.29154364648,1.28695540978,0.00641761259604,0.0,0.001,0.0,-5000.0,0.0,0.0,0.0
1513265120627051573,,504333,,1513265118,849017549,'',1.29154364648,1.2856059284,-0.0155290224664,0.0,0.001,0.0,-5000.0,0.0,0.0,0.0
1513265120636935467,,504334,,1513265118,859017549,'',1.29154364648,1.28830489116,0.0394250416093,0.0,0.001,0.0,-5000.0,0.0,0.0,0.0
1513265120646917506,,504335,,1513265118,869017549,'',1.29154364648,1.29505229806,0.151390148166,0.0,0.001,0.0,-5000.0,0.0,0.0,0.0
1513265120656926754,,504336,,1513265118,879017549,'',1.29154364648,1.29775126083,0.168437200657,0.0,0.001,0.0,-5000.0,0.0,0.0,0.0
1513265120666799246,,504337,,1513265118,889017549,'',1.29154364648,1.29775126083,0.138409717061,0.0,0.001,0.0,-5000.0,0.0,0.0,0.0
1513265120676884089,,504338,,1513265118,899017549,'',1.29154364648,1.29640177945,0.0865158591707,0.0,0.001,0.0,-5000.0,0.0,0.0,0.0
1513265120686789896,,504339,,1513265118,909017549,'',1.29154364648,1.29775126083,0.0922684513606,0.0,0.001,0.0,-5000.0,0.0,0.0,0.0
1513265120697105687,,504340,,1513265118,919017549,'',1.29154364648,1.29640177945,0.0498022612289,0.0,0.001,0.0,-5000.0,0.0,0.0,0.0
1513265120707098033,,504341,,1513265118,929017549,'',1.29154364648,1.29775126083,0.0630517494837,0.0,0.001,0.0,-5000.0,0.0,0.0,0.0
1513265120716989107,,504342,,1513265118,939017549,'',1.29154364648,1.29775126083,0.0530153076939,0.0,0.001,0.0,-5000.0,0.0,0.0,0.0
1513265120726864771,,504343,,1513265118,949017549,'',1.29154364648,1.29910074221,0.0695861391453,0.0,0.001,0.0,-5000.0,0.0,0.0,0.0
1513265120736839864,,504344,,1513265118,959017549,'',1.29154364648,1.29640177945,0.00697825059889,0.0,0.001,0.0,-5000.0,0.0,0.0,0.0
1513265120746788485,,504345,,1513265118,969017549,'',1.29154364648,1.29910074221,0.0533072309834,0.0,0.001,0.0,-5000.0,0.0,0.0,0.0
1513265120756718498,,504346,,1513265118,979017549,'',1.29154364648,1.29775126083,0.0208015052935,0.0,0.001,0.0,-5000.0,0.0,0.0,0.0
1513265120766684913,,504347,,1513265118,989017549,'',1.29154364648,1.29775126083,0.016114268372,0.0,0.001,0.0,-5000.0,0.0,0.0,0.0
1513265120777169393,,504348,,1513265118,999017549,'',1.29154364648,1.29910074221,0.0375258930019,0.0,0.001,0.0,-5000.0,0.0,0.0,0.0
1513265120787115398,,504349,,1513265119,9017549,'',1.29154364648,1.29910074221,0.0313047919687,0.0,0.001,0.0,-5000.0,0.0,0.0,0.0
1513265120797043321,,504350,,1513265119,19017549,'',1.29154364648,1.29910074221,0.02667688906,0.0,0.001,0.0,-5000.0,0.0,0.0,0.0
1513265120806692778,,504351,,1513265119,29017549,'',1.29154364648,1.29910074221,0.0223840336927,0.0,0.001,0.0,-5000.0,0.0,0.0,0.0
1513265120817212856,,504352,,1513265119,39017549,'',1.29154364648,1.29910074221,0.0179126367656,0.0,0.001,0.0,-5000.0,0.0,0.0,0.0
1513265120827152125,,504353,,1513265119,49017549,'',1.29154364648,1.29775126083,-0.00965593114803,0.0,0.001,0.0,-5000.0,0.0,0.0,0.0
1513265120837130225,,504354,,1513265119,59017549,'',1.29154364648,1.29775126083,-0.010415029084,0.0,0.001,0.0,-5000.0,0.0,0.0,0.0
1513265120847032972,,504355,,1513265119,69017549,'',1.29154364648,1.29775126083,-0.0128959127953,0.0,0.001,0.0,-5000.0,0.0,0.0,0.0
1513265120856934986,,504356,,1513265119,79017549,'',1.29154364648,1.29910074221,0.0131891571853,0.0,0.001,0.0,-5000.0,0.0,0.0,0.0
1513265120866840543,,504357,,1513265119,89017549,'',1.29154364648,1.29910074221,0.0117221302909,0.0,0.001,0.0,-5000.0,0.0,0.0,0.0
1513265120876842077,,504358,,1513265119,99017549,'',1.29154364648,1.29910074221,0.0111197231063,0.0,0.001,0.0,-5000.0,0.0,0.0,0.0
1513265120887010607,,504359,,1513265119,109017549,'',1.29154364648,1.29775126083,-0.016120703671,0.0,0.001,0.0,-5000.0,0.0,0.0,0.0
1513265120896972795,,504360,,1513265119,119017549,'',1.29154364648,1.29910074221,0.00866914258398,0.0,0.001,0.0,-5000.0,0.0,0.0,0.0
1513265120906887559,,504361,,1513265119,129017549,'',1.29154364648,1.30045022359,0.0344432009106,0.0,0.001,0.0,-5000.0,0.0,0.0,0.0
1513265120916753308,,504362,,1513265119,139017549,'',1.29154364648,1.29910074221,0.0048778110272,0.0,0.001,0.0,-5000.0,0.0,0.0,0.0
1513265120926764743,,504363,,1513265119,149017549,'',1.29154364648,1.29775126083,-0.0203321271997,0.0,0.001,0.0,-5000.0,0.0,0.0,0.0
1513265120937167084,,504364,,1513265119,159017549,'',1.29154364648,1.29910074221,0.00659410124172,0.0,0.001,0.0,-5000.0,0.0,0.0,0.0
1513265120947196527,,504365,,1513265119,169017549,'',1.29154364648,1.29775126083,-0.0193897323283,0.0,0.001,0.0,-5000.0,0.0,0.0,0.0
1513265120957097653,,504366,,1513265119,179017549,'',1.29154364648,1.29775126083,-0.0182520230844,0.0,0.001,0.0,-5000.0,0.0,0.0,0.0
1513265120967127931,,504367,,1513265119,189017549,'',1.29154364648,1.30045022359,0.0345678371872,0.0,0.001,0.0,-5000.0,0.0,0.0,0.0
1513265120977075135,,504368,,1513265119,199017549,'',1.29154364648,1.29910074221,0.00699761598008,0.0,0.001,0.0,-5000.0,0.0,0.0,0.0
1513265120986901541,,504369,,1513265119,209017549,'',1.29154364648,1.30045022359,0.0349065539852,0.0,0.001,0.0,-5000.0,0.0,0.0,0.0
1513265120996868002,,504370,,1513265119,219017549,'',1.29154364648,1.29910074221,0.00632252908411,0.0,0.001,0.0,-5000.0,0.0,0.0,0.0
1513265121006724601,,504371,,1513265119,229017549,'',1.29154364648,1.30045022359,0.0328671263203,0.0,0.001,0.0,-5000.0,0.0,0.0,0.0
1513265121016721341,,504372,,1513265119,239017549,'',1.29154364648,1.30045022359,0.0322543349226,0.0,0.001,0.0,-5000.0,0.0,0.0,0.0
1513265121026718372,,504373,,1513265119,249017549,'',1.29154364648,1.30045022359,0.031296990871,0.0,0.001,0.0,-5000.0,0.0,0.0,0.0
1513265121036769307,,504374,,1513265119,259017549,'',1.29154364648,1.29910074221,0.00429565684874,0.0,0.001,0.0,-5000.0,0.0,0.0,0.0
1513265121047186430,,504375,,1513265119,269017549,'',1.29154364648,1.29775126083,-0.0212552769362,0.0,0.001,0.0,-5000.0,0.0,0.0,0.0
1513265121057178497,,504376,,1513265119,279017549,'',1.29154364648,1.29910074221,0.00545171193003,0.0,0.001,0.0,-5000.0,0.0,0.0,0.0
1513265121067075596,,504377,,1513265119,289017549,'',1.29154364648,1.29910074221,0.00450966776632,0.0,0.001,0.0,-5000.0,0.0,0.0,0.0
1513265121077080292,,504378,,1513265119,299017549,'',1.29154364648,1.29775126083,-0.0220462255146,0.0,0.001,0.0,-5000.0,0.0,0.0,0.0
1513265121087068423,,504379,,1513265119,309017549,'',1.29154364648,1.30045022359,0.0310273351932,0.0,0.001,0.0,-5000.0,0.0,0.0,0.0
1513265121096762173,,504380,,1513265119,319017549,'',1.29154364648,1.30045022359,0.0307140243404,0.0,0.001,0.0,-5000.0,0.0,0.0,0.0
1513265121106754248,,504381,,1513265119,329017549,'',1.29154364648,1.29910074221,0.00374699272715,0.0,0.001,0.0,-5000.0,0.0,0.0,0.0
1513265121117154030,,504382,,1513265119,339017549,'',1.29154364648,1.30045022359,0.0307344504617,0.0,0.001,0.0,-5000.0,0.0,0.0,0.0
1513265121127169805,,504383,,1513265119,349017549,'',1.29154364648,1.29775126083,-0.0243140878228,0.0,0.001,0.0,-5000.0,0.0,0.0,0.0
1513265121137028283,,504384,,1513265119,359017549,'',1.29154364648,1.30045022359,0.0296403597691,0.0,0.001,0.0,-5000.0,0.0,0.0,0.0
1513265121147017137,,504385,,1513265119,369017549,'',1.29154364648,1.30045022359,0.0281351668633,0.0,0.001,0.0,-5000.0,0.0,0.0,0.0
1513265121156909956,,504386,,1513265119,379017549,'',1.29154364648,1.30045022359,0.0259985684874,0.0,0.001,0.0,-5000.0,0.0,0.0,0.0
1513265121167045956,,504387,,1513265119,389017549,'',1.29154364648,1.29910074221,-0.000116204696561,0.0,0.001,0.0,-5000.0,0.0,0.0,0.0
1513265121177148272,,504388,,1513265119,399017549,'',1.29154364648,1.29910074221,0.000893939610235,0.0,0.001,0.0,-5000.0,0.0,0.0,0.0
1513265121187044239,,504389,,1513265119,409017549,'',1.29154364648,1.29910074221,0.00123735122143,0.0,0.001,0.0,-5000.0,0.0,0.0,0.0
1513265121196995790,,504390,,1513265119,419017549,'',1.29154364648,1.30045022359,0.0287726622564,0.0,0.001,0.0,-5000.0,0.0,0.0,0.0
1513265121207036023,,504391,,1513265119,429017549,'',1.29154364648,1.29910074221,0.0016845466457,0.0,0.001,0.0,-5000.0,0.0,0.0,0.0
1513265121216915828,,504392,,1513265119,439017549,'',1.29154364648,1.30045022359,0.0286070534349,0.0,0.001,0.0,-5000.0,0.0,0.0,0.0
1513265121226895041,,504393,,1513265119,449017549,'',1.29154364648,1.29775126083,-0.0250878835633,0.0,0.001,0.0,-5000.0,0.0,0.0,0.0
1513265121237264171,,504394,,1513265119,459017549,'',1.29154364648,1.29910074221,0.00223453582183,0.0,0.001,0.0,-5000.0,0.0,0.0,0.0
1513265121247131710,,504395,,1513265119,469017549,'',1.29154364648,1.29775126083,-0.0229881275607,0.0,0.001,0.0,-5000.0,0.0,0.0,0.0
1513265121257154025,,504396,,1513265119,479017549,'',1.29154364648,1.29910074221,0.00498908938757,0.0,0.001,0.0,-5000.0,0.0,0.0,0.0
1513265121267041405,,504397,,1513265119,489017549,'',1.29154364648,1.29910074221,0.0040132051281,0.0,0.001,0.0,-5000.0,0.0,0.0,0.0
1513265121277027147,,504398,,1513265119,499017549,'',1.29154364648,1.29910074221,0.00384059488735,0.0,0.001,0.0,-5000.0,0.0,0.0,0.0
1513265121287172405,,504399,,1513265119,509017549,'',1.29154364648,1.29910074221,0.00405916097838,0.0,0.001,0.0,-5000.0,0.0,0.0,0.0
1513265121296753444,,504400,,1513265119,519017549,'',1.29154364648,1.29910074221,0.00386634295677,0.0,0.001,0.0,-5000.0,0.0,0.0,0.0
1513265121306791683,,504401,,1513265119,529017549,'',1.29154364648,1.29910074221,0.0036134088289,0.0,0.001,0.0,-5000.0,0.0,0.0,0.0
1513265121316876387,,504402,,1513265119,539017549,'',1.29154364648,1.29910074221,0.00397697849347,0.0,0.001,0.0,-5000.0,0.0,0.0,0.0
1513265121327270611,,504403,,1513265119,549017549,'',1.29154364648,1.29775126083,-0.022498643369,0.0,0.001,0.0,-5000.0,0.0,0.0,0.0
1513265121337111148,,504404,,1513265119,559017549,'',1.29154364648,1.29775126083,-0.0212926790309,0.0,0.001,0.0,-5000.0,0.0,0.0,0.0
1513265121347048794,,504405,,1513265119,569017549,'',1.29154364648,1.29775126083,-0.0218612046498,0.0,0.001,0.0,-5000.0,0.0,0.0,0.0
1513265121357013061,,504406,,1513265119,579017549,'',1.29154364648,1.29775126083,-0.0237219395803,0.0,0.001,0.0,-5000.0,0.0,0.0,0.0
1513265121366956579,,504407,,1513265119,589017549,'',1.29154364648,1.29910074221,0.00248032018229,0.0,0.001,0.0,-5000.0,0.0,0.0,0.0
1513265121376826630,,504408,,1513265119,599017549,'',1.29154364648,1.29910074221,0.00257690863919,0.0,0.001,0.0,-5000.0,0.0,0.0,0.0
1513265121386748420,,504409,,1513265119,609017549,'',1.29154364648,1.29910074221,0.00363999627684,0.0,0.001,0.0,-5000.0,0.0,0.0,0.0
1513265121396764367,,504410,,1513265119,619017549,'',1.29154364648,1.29910074221,0.00446681416032,0.0,0.001,0.0,-5000.0,0.0,0.0,0.0
1513265121407153161,,504411,,1513265119,629017549,'',1.29154364648,1.29910074221,0.0031250732783,0.0,0.001,0.0,-5000.0,0.0,0.0,0.0
1513265121417167611,,504412,,1513265119,639017549,'',1.29154364648,1.29910074221,0.00249661726052,0.0,0.001,0.0,-5000.0,0.0,0.0,0.0
1513265121427194788,,504413,,1513265119,649017549,'',1.29154364648,1.29910074221,0.00246844261357,0.0,0.001,0.0,-5000.0,0.0,0.0,0.0
1513265121437167909,,504414,,1513265119,659017549,'',1.29154364648,1.29910074221,0.00249800326343,0.0,0.001,0.0,-5000.0,0.0,0.0,0.0
1513265121447108851,,504415,,1513265119,669017549,'',1.29154364648,1.29910074221,0.00156446667502,0.0,0.001,0.0,-5000.0,0.0,0.0,0.0
1513265121457146970,,504416,,1513265119,679017549,'',1.29154364648,1.29910074221,0.00130657627123,0.0,0.001,0.0,-5000.0,0.0,0.0,0.0
1513265121467022746,,504417,,1513265119,689017549,'',1.29154364648,1.29910074221,0.000132023533438,0.0,0.001,0.0,-5000.0,0.0,0.0,0.0
1513265121476962861,,504418,,1513265119,699017549,'',1.29154364648,1.29910074221,-0.000396349685938,0.0,0.001,0.0,-5000.0,0.0,0.0,0.0
1513265121486842673,,504419,,1513265119,709017549,'',1.29154364648,1.29910074221,-0.000825095347296,0.0,0.001,0.0,-5000.0,0.0,0.0,0.0
1513265121496946697,,504420,,1513265119,719017549,'',1.29154364648,1.30045022359,0.0269615023219,0.0,0.001,0.0,-5000.0,0.0,0.0,0.0
1513265121506801879,,504421,,1513265119,729017549,'',1.29154364648,1.29910074221,-0.000321807600867,0.0,0.001,0.0,-5000.0,0.0,0.0,0.0
1513265121516776128,,504422,,1513265119,739017549,'',1.29154364648,1.29910074221,0.000687544913562,0.0,0.001,0.0,-5000.0,0.0,0.0,0.0
1513265121527177266,,504423,,1513265119,749017549,'',1.29154364648,1.29775126083,-0.0266445330056,0.0,0.001,0.0,-5000.0,0.0,0.0,0.0
1513265121537015574,,504424,,1513265119,759017549,'',1.29154364648,1.29910074221,0.000527341543236,0.0,0.001,0.0,-5000.0,0.0,0.0,0.0
1513265121546946991,,504425,,1513265119,769017549,'',1.29154364648,1.29910074221,3.50408052245e-05,0.0,0.001,0.0,-5000.0,0.0,0.0,0.0
1513265121556693209,,504426,,1513265119,779017549,'',1.29154364648,1.29910074221,0.00151202017537,0.0,0.001,0.0,-5000.0,0.0,0.0,0.0
1513265121566789382,,504427,,1513265119,789017549,'',1.29154364648,1.29775126083,-0.0254513558484,0.0,0.001,0.0,-5000.0,0.0,0.0,0.0
1513265121577221804,,504428,,1513265119,799017549,'',1.29154364648,1.29910074221,0.00196451205284,0.0,0.001,0.0,-5000.0,0.0,0.0,0.0
1513265121587178541,,504429,,1513265119,809017549,'',1.29154364648,1.29910074221,0.000650375294816,0.0,0.001,0.0,-5000.0,0.0,0.0,0.0
1513265121597102486,,504430,,1513265119,819017549,'',1.29154364648,1.30045022359,0.0277532217642,0.0,0.001,0.0,-5000.0,0.0,0.0,0.0
1513265121607162140,,504431,,1513265119,829017549,'',1.29154364648,1.29910074221,3.84900789546e-05,0.0,0.001,0.0,-5000.0,0.0,0.0,0.0
1513265121617147369,,504432,,1513265119,839017549,'',1.29154364648,1.29775126083,-0.0247901821439,0.0,0.001,0.0,-5000.0,0.0,0.0,0.0
1513265121626913852,,504433,,1513265119,849017549,'',1.29154364648,1.29910074221,0.000560157270622,0.0,0.001,0.0,-5000.0,0.0,0.0,0.0
1513265121636895905,,504434,,1513265119,859017549,'',1.29154364648,1.29910074221,-0.00055968323804,0.0,0.001,0.0,-5000.0,0.0,0.0,0.0
1513265121646881863,,504435,,1513265119,869017549,'',1.29154364648,1.29910074221,-0.000435286055407,0.0,0.001,0.0,-5000.0,0.0,0.0,0.0
1513265121656845023,,504436,,1513265119,879017549,'',1.29154364648,1.30045022359,0.0274321471312,0.0,0.001,0.0,-5000.0,0.0,0.0,0.0
1513265121666730991,,504437,,1513265119,889017549,'',1.29154364648,1.29910074221,0.00215214898474,0.0,0.001,0.0,-5000.0,0.0,0.0,0.0
1513265121677115241,,504438,,1513265119,899017549,'',1.29154364648,1.29910074221,0.00123885354393,0.0,0.001,0.0,-5000.0,0.0,0.0,0.0
1513265121687100045,,504439,,1513265119,909017549,'',1.29154364648,1.29775126083,-0.0262318926946,0.0,0.001,0.0,-5000.0,0.0,0.0,0.0
1513265121697018398,,504440,,1513265119,919017549,'',1.29154364648,1.29910074221,0.00090714813876,0.0,0.001,0.0,-5000.0,0.0,0.0,0.0
1513265121707041630,,504441,,1513265119,929017549,'',1.29154364648,1.29910074221,0.0021333495781,0.0,0.001,0.0,-5000.0,0.0,0.0,0.0
1513265121717046909,,504442,,1513265119,939017549,'',1.29154364648,1.29910074221,0.00231107989184,0.0,0.001,0.0,-5000.0,0.0,0.0,0.0
1513265121726720749,,504443,,1513265119,949017549,'',1.29154364648,1.30045022359,0.0290628486482,0.0,0.001,0.0,-5000.0,0.0,0.0,0.0
1513265121736888829,,504444,,1513265119,959017549,'',1.29154364648,1.29910074221,0.00245508221329,0.0,0.001,0.0,-5000.0,0.0,0.0,0.0
1513265121747233842,,504445,,1513265119,969017549,'',1.29154364648,1.29775126083,-0.024659465366,0.0,0.001,0.0,-5000.0,0.0,0.0,0.0
1513265121757126728,,504446,,1513265119,979017549,'',1.29154364648,1.29910074221,0.00307418134886,0.0,0.001,0.0,-5000.0,0.0,0.0,0.0
1513265121766998095,,504447,,1513265119,989017549,'',1.29154364648,1.30045022359,0.029718840163,0.0,0.001,0.0,-5000.0,0.0,0.0,0.0
1513265121776903122,,504448,,1513265119,999017549,'',1.29154364648,1.29910074221,0.00298120638052,0.0,0.001,0.0,-5000.0,0.0,0.0,0.0
1513265121786933895,,504449,,1513265120,9017549,'',1.29154364648,1.29910074221,0.000907463949489,0.0,0.001,0.0,-5000.0,0.0,0.0,0.0
1513265121796897962,,504450,,1513265120,19017549,'',1.29154364648,1.29775126083,-0.0250303005445,0.0,0.001,0.0,-5000.0,0.0,0.0,0.0
1513265121806745762,,504451,,1513265120,29017549,'',1.29154364648,1.29775126083,-0.0229877717007,0.0,0.001,0.0,-5000.0,0.0,0.0,0.0
1513265121816985187,,504452,,1513265120,39017549,'',1.29154364648,1.29910074221,0.00297718480128,0.0,0.001,0.0,-5000.0,0.0,0.0,0.0
1513265121827194170,,504453,,1513265120,49017549,'',1.29154364648,1.29910074221,0.00290372874273,0.0,0.001,0.0,-5000.0,0.0,0.0,0.0
1513265121837125785,,504454,,1513265120,59017549,'',1.29154364648,1.30045022359,0.0310535997658,0.0,0.001,0.0,-5000.0,0.0,0.0,0.0
1513265121846968379,,504455,,1513265120,69017549,'',1.29154364648,1.30045022359,0.0292392219234,0.0,0.001,0.0,-5000.0,0.0,0.0,0.0
1513265121856883062,,504456,,1513265120,79017549,'',1.29154364648,1.29910074221,0.00122638803449,0.0,0.001,0.0,-5000.0,0.0,0.0,0.0
1513265121867139123,,504457,,1513265120,89017549,'',1.29154364648,1.29775126083,-0.0267492503621,0.0,0.001,0.0,-5000.0,0.0,0.0,0.0
1513265121877027636,,504458,,1513265120,99017549,'',1.29154364648,1.30045022359,0.0261492331695,0.0,0.001,0.0,-5000.0,0.0,0.0,0.0
1513265121886884705,,504459,,1513265120,109017549,'',1.29154364648,1.30045022359,0.0253177403776,0.0,0.001,0.0,-5000.0,0.0,0.0,0.0
1513265121896952686,,504460,,1513265120,119017549,'',1.29154364648,1.29910074221,-0.00012666567969,0.0,0.001,0.0,-5000.0,0.0,0.0,0.0
1513265121906664350,,504461,,1513265120,129017549,'',1.29154364648,1.29910074221,-0.00114002873845,0.0,0.001,0.0,-5000.0,0.0,0.0,0.0
1513265121917247300,,504462,,1513265120,139017549,'',1.29154364648,1.29910074221,8.89769780785e-06,0.0,0.001,0.0,-5000.0,0.0,0.0,0.0
1513265121927144879,,504463,,1513265120,149017549,'',1.29154364648,1.29775126083,-0.0271650344316,0.0,0.001,0.0,-5000.0,0.0,0.0,0.0
1513265121936814511,,504464,,1513265120,159017549,'',1.29154364648,1.29775126083,-0.0271295978965,0.0,0.001,0.0,-5000.0,0.0,0.0,0.0
1513265121946707826,,504465,,1513265120,169017549,'',1.29154364648,1.29910074221,7.93848983176e-05,0.0,0.001,0.0,-5000.0,0.0,0.0,0.0
1513265121957265932,,504466,,1513265120,179017549,'',1.29154364648,1.29910074221,7.9552518173e-05,0.0,0.001,0.0,-5000.0,0.0,0.0,0.0
1513265121967288921,,504467,,1513265120,189017549,'',1.29154364648,1.29910074221,5.44183697393e-05,0.0,0.001,0.0,-5000.0,0.0,0.0,0.0
1513265121977417177,,504468,,1513265120,199017549,'',1.29154364648,1.29910074221,0.000593577581676,0.0,0.001,0.0,-5000.0,0.0,0.0,0.0
1513265121987098440,,504469,,1513265120,209017549,'',1.29154364648,1.30045022359,0.0268075637241,0.0,0.001,0.0,-5000.0,0.0,0.0,0.0
1513265121997294101,,504470,,1513265120,219017549,'',1.29154364648,1.29910074221,-0.000821804809074,0.0,0.001,0.0,-5000.0,0.0,0.0,0.0
1513265122007106597,,504471,,1513265120,229017549,'',1.29154364648,1.29775126083,-0.0259229370739,0.0,0.001,0.0,-5000.0,0.0,0.0,0.0
1513265122017148353,,504472,,1513265120,239017549,'',1.29154364648,1.29910074221,0.00103343331959,0.0,0.001,0.0,-5000.0,0.0,0.0,0.0
1513265122027117050,,504473,,1513265120,249017549,'',1.29154364648,1.29775126083,-0.0259521521777,0.0,0.001,0.0,-5000.0,0.0,0.0,0.0
1513265122037272590,,504474,,1513265120,259017549,'',1.29154364648,1.29910074221,0.000101946812491,0.0,0.001,0.0,-5000.0,0.0,0.0,0.0
1513265122047081333,,504475,,1513265120,269017549,'',1.29154364648,1.30045022359,0.0258690637238,0.0,0.001,0.0,-5000.0,0.0,0.0,0.0
1513265122057038748,,504476,,1513265120,279017549,'',1.29154364648,1.29910074221,-0.00113972198322,0.0,0.001,0.0,-5000.0,0.0,0.0,0.0
1513265122066995904,,504477,,1513265120,289017549,'',1.29154364648,1.29910074221,4.36206941527e-05,0.0,0.001,0.0,-5000.0,0.0,0.0,0.0
1513265122076901719,,504478,,1513265120,299017549,'',1.29154364648,1.29910074221,0.000553982241845,0.0,0.001,0.0,-5000.0,0.0,0.0,0.0
1513265122086873157,,504479,,1513265120,309017549,'',1.29154364648,1.30045022359,0.025261983721,0.0,0.001,0.0,-5000.0,0.0,0.0,0.0
1513265122097065275,,504480,,1513265120,319017549,'',1.29154364648,1.29775126083,-0.0297396377462,0.0,0.001,0.0,-5000.0,0.0,0.0,0.0
1513265122106969401,,504481,,1513265120,329017549,'',1.29154364648,1.29910074221,-0.00307059385334,0.0,0.001,0.0,-5000.0,0.0,0.0,0.0
1513265122116821392,,504482,,1513265120,339017549,'',1.29154364648,1.29775126083,-0.0292580694527,0.0,0.001,0.0,-5000.0,0.0,0.0,0.0
1513265122126824918,,504483,,1513265120,349017549,'',1.29154364648,1.29910074221,-0.00169739375536,0.0,0.001,0.0,-5000.0,0.0,0.0,0.0
1513265122136900632,,504484,,1513265120,359017549,'',1.29154364648,1.29910074221,0.00011543970256,0.0,0.001,0.0,-5000.0,0.0,0.0,0.0
1513265122147231802,,504485,,1513265120,369017549,'',1.29154364648,1.29910074221,-0.000365452402767,0.0,0.001,0.0,-5000.0,0.0,0.0,0.0
1513265122157112560,,504486,,1513265120,379017549,'',1.29154364648,1.29910074221,-0.00122243269236,0.0,0.001,0.0,-5000.0,0.0,0.0,0.0
1513265122167065905,,504487,,1513265120,389017549,'',1.29154364648,1.30045022359,0.0263368985265,0.0,0.001,0.0,-5000.0,0.0,0.0,0.0
1513265122177019719,,504488,,1513265120,399017549,'',1.29154364648,1.29910074221,-0.000818513832797,0.0,0.001,0.0,-5000.0,0.0,0.0,0.0
1513265122186915880,,504489,,1513265120,409017549,'',1.29154364648,1.30045022359,0.0260259400862,0.0,0.001,0.0,-5000.0,0.0,0.0,0.0
1513265122196783960,,504490,,1513265120,419017549,'',1.29154364648,1.29910074221,-0.000921700700284,0.0,0.001,0.0,-5000.0,0.0,0.0,0.0
1513265122207108617,,504491,,1513265120,429017549,'',1.29154364648,1.29910074221,-0.000713916177378,0.0,0.001,0.0,-5000.0,0.0,0.0,0.0
1513265122216985505,,504492,,1513265120,439017549,'',1.29154364648,1.29910074221,0.000428175760839,0.0,0.001,0.0,-5000.0,0.0,0.0,0.0
1513265122226980481,,504493,,1513265120,449017549,'',1.29154364648,1.29910074221,-0.000597059226987,0.0,0.001,0.0,-5000.0,0.0,0.0,0.0
1513265122236993611,,504494,,1513265120,459017549,'',1.29154364648,1.29910074221,-0.000964693480044,0.0,0.001,0.0,-5000.0,0.0,0.0,0.0
1513265122246808374,,504495,,1513265120,469017549,'',1.29154364648,1.29775126083,-0.0285099083957,0.0,0.001,0.0,-5000.0,0.0,0.0,0.0
1513265122256783831,,504496,,1513265120,479017549,'',1.29154364648,1.29775126083,-0.0266948230262,0.0,0.001,0.0,-5000.0,0.0,0.0,0.0
1513265122267142639,,504497,,1513265120,489017549,'',1.29154364648,1.29910074221,0.000525464687898,0.0,0.001,0.0,-5000.0,0.0,0.0,0.0
1513265122276999751,,504498,,1513265120,499017549,'',1.29154364648,1.30045022359,0.0271488807815,0.0,0.001,0.0,-5000.0,0.0,0.0,0.0
1513265122286949710,,504499,,1513265120,509017549,'',1.29154364648,1.29775126083,-0.0268545156771,0.0,0.001,0.0,-5000.0,0.0,0.0,0.0
1513265122296920397,,504500,,1513265120,519017549,'',1.29154364648,1.29910074221,-0.000275928818667,0.0,0.001,0.0,-5000.0,0.0,0.0,0.0
1513265122306911548,,504501,,1513265120,529017549,'',1.29154364648,1.29910074221,0.000326248994277,0.0,0.001,0.0,-5000.0,0.0,0.0,0.0
1513265122317231637,,504502,,1513265120,539017549,'',1.29154364648,1.29910074221,0.0013262495194,0.0,0.001,0.0,-5000.0,0.0,0.0,0.0
1513265122327066399,,504503,,1513265120,549017549,'',1.29154364648,1.29910074221,0.00152743801795,0.0,0.001,0.0,-5000.0,0.0,0.0,0.0
1513265122336941042,,504504,,1513265120,559017549,'',1.29154364648,1.29775126083,-0.026430095821,0.0,0.001,0.0,-5000.0,0.0,0.0,0.0
1513265122346939960,,504505,,1513265120,569017549,'',1.29154364648,1.29910074221,-0.00178779821671,0.0,0.001,0.0,-5000.0,0.0,0.0,0.0
1513265122356848560,,504506,,1513265120,579017549,'',1.29154364648,1.29910074221,-0.00202894547813,0.0,0.001,0.0,-5000.0,0.0,0.0,0.0
1513265122366893302,,504507,,1513265120,589017549,'',1.29154364648,1.29910074221,-0.00207691914991,0.0,0.001,0.0,-5000.0,0.0,0.0,0.0
1513265122376841499,,504508,,1513265120,599017549,'',1.29154364648,1.29910074221,-0.00221967783641,0.0,0.001,0.0,-5000.0,0.0,0.0,0.0
1513265122386724697,,504509,,1513265120,609017549,'',1.29154364648,1.29910074221,-0.0019161209917,0.0,0.001,0.0,-5000.0,0.0,0.0,0.0
1513265122396780080,,504510,,1513265120,619017549,'',1.29154364648,1.29910074221,-0.0031370044757,0.0,0.001,0.0,-5000.0,0.0,0.0,0.0
1513265122407192601,,504511,,1513265120,629017549,'',1.29154364648,1.29910074221,-0.00214790578471,0.0,0.001,0.0,-5000.0,0.0,0.0,0.0
1513265122417166365,,504512,,1513265120,639017549,'',1.29154364648,1.30045022359,0.0244724540798,0.0,0.001,0.0,-5000.0,0.0,0.0,0.0
1513265122427269658,,504513,,1513265120,649017549,'',1.29154364648,1.30045022359,0.0244276984826,0.0,0.001,0.0,-5000.0,0.0,0.0,0.0
1513265122437157546,,504514,,1513265120,659017549,'',1.29154364648,1.29910074221,-0.00130302085568,0.0,0.001,0.0,-5000.0,0.0,0.0,0.0
1513265122447134300,,504515,,1513265120,669017549,'',1.29154364648,1.29910074221,-0.000954881053143,0.0,0.001,0.0,-5000.0,0.0,0.0,0.0
1513265122457063488,,504516,,1513265120,679017549,'',1.29154364648,1.29910074221,-0.00181124579987,0.0,0.001,0.0,-5000.0,0.0,0.0,0.0
1513265122467178023,,504517,,1513265120,689017549,'',1.29154364648,1.30045022359,0.026228518446,0.0,0.001,0.0,-5000.0,0.0,0.0,0.0
1513265122477154729,,504518,,1513265120,699017549,'',1.29154364648,1.30045022359,0.0263977733672,0.0,0.001,0.0,-5000.0,0.0,0.0,0.0
1513265122486984679,,504519,,1513265120,709017549,'',1.29154364648,1.29775126083,-0.0269256757878,0.0,0.001,0.0,-5000.0,0.0,0.0,0.0
1513265122496927765,,504520,,1513265120,719017549,'',1.29154364648,1.29910074221,-0.000267206074875,0.0,0.001,0.0,-5000.0,0.0,0.0,0.0
1513265122506902125,,504521,,1513265120,729017549,'',1.29154364648,1.30045022359,0.0270576329062,0.0,0.001,0.0,-5000.0,0.0,0.0,0.0
1513265122516900274,,504522,,1513265120,739017549,'',1.29154364648,1.30045022359,0.0255264525605,0.0,0.001,0.0,-5000.0,0.0,0.0,0.0
1513265122526942549,,504523,,1513265120,749017549,'',1.29154364648,1.29910074221,-0.000488221130207,0.0,0.001,0.0,-5000.0,0.0,0.0,0.0
1513265122536812370,,504524,,1513265120,759017549,'',1.29154364648,1.29910074221,-0.000306003327233,0.0,0.001,0.0,-5000.0,0.0,0.0,0.0
1513265122546802139,,504525,,1513265120,769017549,'',1.29154364648,1.29910074221,-0.000736384625278,0.0,0.001,0.0,-5000.0,0.0,0.0,0.0
1513265122557230184,,504526,,1513265120,779017549,'',1.29154364648,1.30045022359,0.0261178516641,0.0,0.001,0.0,-5000.0,0.0,0.0,0.0
1513265122567252853,,504527,,1513265120,789017549,'',1.29154364648,1.30045022359,0.0257770518648,0.0,0.001,0.0,-5000.0,0.0,0.0,0.0
1513265122577250416,,504528,,1513265120,799017549,'',1.29154364648,1.29910074221,-0.0017715007995,0.0,0.001,0.0,-5000.0,0.0,0.0,0.0
1513265122587034484,,504529,,1513265120,809017549,'',1.29154364648,1.29910074221,-0.00195161122828,0.0,0.001,0.0,-5000.0,0.0,0.0,0.0
1513265122596944193,,504530,,1513265120,819017549,'',1.29154364648,1.29910074221,-0.00266148945254,0.0,0.001,0.0,-5000.0,0.0,0.0,0.0
1513265122607016598,,504531,,1513265120,829017549,'',1.29154364648,1.29910074221,-0.00218678688747,0.0,0.001,0.0,-5000.0,0.0,0.0,0.0
1513265122616966530,,504532,,1513265120,839017549,'',1.29154364648,1.29775126083,-0.0303992374827,0.0,0.001,0.0,-5000.0,0.0,0.0,0.0
1513265122626805372,,504533,,1513265120,849017549,'',1.29154364648,1.29910074221,-0.00354060999263,0.0,0.001,0.0,-5000.0,0.0,0.0,0.0
1513265122636753063,,504534,,1513265120,859017549,'',1.29154364648,1.29910074221,-0.00288237965938,0.0,0.001,0.0,-5000.0,0.0,0.0,0.0
1513265122647198792,,504535,,1513265120,869017549,'',1.29154364648,1.30045022359,0.0228997995128,0.0,0.001,0.0,-5000.0,0.0,0.0,0.0
1513265122657195899,,504536,,1513265120,879017549,'',1.29154364648,1.30045022359,0.0236590977358,0.0,0.001,0.0,-5000.0,0.0,0.0,0.0
1513265122667189832,,504537,,1513265120,889017549,'',1.29154364648,1.29910074221,-0.00347195792155,0.0,0.001,0.0,-5000.0,0.0,0.0,0.0
1513265122677035011,,504538,,1513265120,899017549,'',1.29154364648,1.30045022359,0.0233625328263,0.0,0.001,0.0,-5000.0,0.0,0.0,0.0
1513265122686951798,,504539,,1513265120,909017549,'',1.29154364648,1.29910074221,-0.00311474211717,0.0,0.001,0.0,-5000.0,0.0,0.0,0.0
1513265122696883670,,504540,,1513265120,919017549,'',1.29154364648,1.29775126083,-0.0297940239351,0.0,0.001,0.0,-5000.0,0.0,0.0,0.0
1513265122706903720,,504541,,1513265120,929017549,'',1.29154364648,1.29910074221,-0.00163096821017,0.0,0.001,0.0,-5000.0,0.0,0.0,0.0
1513265122716879812,,504542,,1513265120,939017549,'',1.29154364648,1.30045022359,0.0243791183989,0.0,0.001,0.0,-5000.0,0.0,0.0,0.0
1513265122727230870,,504543,,1513265120,949017549,'',1.29154364648,1.29910074221,-0.00138199867819,0.0,0.001,0.0,-5000.0,0.0,0.0,0.0
1513265122737226334,,504544,,1513265120,959017549,'',1.29154364648,1.29775126083,-0.0283006374215,0.0,0.001,0.0,-5000.0,0.0,0.0,0.0
1513265122747049283,,504545,,1513265120,969017549,'',1.29154364648,1.29910074221,-0.00183424364068,0.0,0.001,0.0,-5000.0,0.0,0.0,0.0
1513265122756991370,,504546,,1513265120,979017549,'',1.29154364648,1.29910074221,-0.00241348679423,0.0,0.001,0.0,-5000.0,0.0,0.0,0.0
1513265122766885870,,504547,,1513265120,989017549,'',1.29154364648,1.30045022359,0.0237713422344,0.0,0.001,0.0,-5000.0,0.0,0.0,0.0
1513265122776919860,,504548,,1513265120,999017549,'',1.29154364648,1.30045022359,0.0238173736649,0.0,0.001,0.0,-5000.0,0.0,0.0,0.0
1513265122786816219,,504549,,1513265121,9017549,'',1.29154364648,1.30045022359,0.0230119000686,0.0,0.001,0.0,-5000.0,0.0,0.0,0.0
1513265122797235165,,504550,,1513265121,19017549,'',1.29154364648,1.30045022359,0.0230973960006,0.0,0.001,0.0,-5000.0,0.0,0.0,0.0
1513265122807042889,,504551,,1513265121,29017549,'',1.29154364648,1.30045022359,0.0223085528439,0.0,0.001,0.0,-5000.0,0.0,0.0,0.0
1513265122817090394,,504552,,1513265121,39017549,'',1.29154364648,1.30045022359,0.0211822247514,0.0,0.001,0.0,-5000.0,0.0,0.0,0.0
1513265122827013254,,504553,,1513265121,49017549,'',1.29154364648,1.29910074221,-0.00497785442595,0.0,0.001,0.0,-5000.0,0.0,0.0,0.0
1513265122836893831,,504554,,1513265121,59017549,'',1.29154364648,1.30045022359,0.0221643706951,0.0,0.001,0.0,-5000.0,0.0,0.0,0.0
1513265122846760722,,504555,,1513265121,69017549,'',1.29154364648,1.29910074221,-0.00465484820661,0.0,0.001,0.0,-5000.0,0.0,0.0,0.0
1513265122857300457,,504556,,1513265121,79017549,'',1.29154364648,1.30045022359,0.0200148971347,0.0,0.001,0.0,-5000.0,0.0,0.0,0.0
1513265122867180062,,504557,,1513265121,89017549,'',1.29154364648,1.29775126083,-0.0326881066544,0.0,0.001,0.0,-5000.0,0.0,0.0,0.0
1513265122877129264,,504558,,1513265121,99017549,'',1.29154364648,1.30045022359,0.0207751578571,0.0,0.001,0.0,-5000.0,0.0,0.0,0.0
1513265122887044808,,504559,,1513265121,109017549,'',1.29154364648,1.30045022359,0.0204416740742,0.0,0.001,0.0,-5000.0,0.0,0.0,0.0
1513265122897089099,,504560,,1513265121,119017549,'',1.29154364648,1.30045022359,0.0201091355731,0.0,0.001,0.0,-5000.0,0.0,0.0,0.0
