rosbagTimestamp,header,seq,stamp,secs,nsecs,frame_id,set_point,process_value,process_value_dot,error,time_step,command,p,i,d,i_clamp
1513265117987118948,,504056,,1513265116,209017549,'',0.750491578358,0.400251842784,-0.00963623073173,-0.350239735574,0.001,550.0,3100.0,0.0,3000.0,0.0
1513265117997097054,,504057,,1513265116,219017549,'',0.750491578358,0.400239424428,-0.00342931699528,-0.350252153929,0.001,550.0,3100.0,0.0,3000.0,0.0
1513265118007052344,,504058,,1513265116,229017549,'',0.750491578358,0.400236134879,0.00259093949828,-0.350255443479,0.001,550.0,3100.0,0.0,3000.0,0.0
1513265118017074866,,504059,,1513265116,239017549,'',0.750491578358,0.400220719147,-0.00305466584904,-0.35027085921,0.001,550.0,3100.0,0.0,3000.0,0.0
1513265118026907629,,504060,,1513265116,249017549,'',0.750491578358,0.400198805541,-0.00857407277064,-0.350292772817,0.001,550.0,3100.0,0.0,3000.0,0.0
1513265118036932928,,504061,,1513265116,259017549,'',0.750491578358,0.400180216447,0.00371161648537,-0.35031136191,0.001,550.0,3100.0,0.0,3000.0,0.0
1513265118047042539,,504062,,1513265116,269017549,'',0.750491578358,0.400165136623,0.004016278292,-0.350326441734,0.001,550.0,3100.0,0.0,3000.0,0.0
1513265118057161781,,504063,,1513265116,279017549,'',0.750491578358,0.400147992573,0.00436040862276,-0.350343585784,0.001,550.0,3100.0,0.0,3000.0,0.0
1513265118067127484,,504064,,1513265116,289017549,'',0.750491578358,0.400140199475,0.00451781117878,-0.350351378883,0.001,550.0,3100.0,0.0,3000.0,0.0
1513265118077000077,,504065,,1513265116,299017549,'',0.750491578358,0.400164637804,0.00402774100624,-0.350326940553,0.001,550.0,3100.0,0.0,3000.0,0.0
1513265118086984668,,504066,,1513265116,309017549,'',0.750491578358,0.400168261859,-0.00795277370207,-0.350323316499,0.001,550.0,3100.0,0.0,3000.0,0.0
1513265118096944012,,504067,,1513265116,319017549,'',0.750491578358,0.400177998792,0.00376358599086,-0.350313579565,0.001,550.0,3100.0,0.0,3000.0,0.0
1513265118106830772,,504068,,1513265116,329017549,'',0.750491578358,0.40016801654,-0.00794502040942,-0.350323561818,0.001,550.0,3100.0,0.0,3000.0,0.0
1513265118116828331,,504069,,1513265116,339017549,'',0.750491578358,0.40016725618,0.00398447905608,-0.350324322177,0.001,550.0,3100.0,0.0,3000.0,0.0
1513265118126778972,,504070,,1513265116,349017549,'',0.750491578358,0.400171906194,0.00389004513127,-0.350319672163,0.001,550.0,3100.0,0.0,3000.0,0.0
1513265118137203639,,504071,,1513265116,359017549,'',0.750491578358,0.400190392169,0.00351689531085,-0.350301186189,0.001,550.0,3100.0,0.0,3000.0,0.0
1513265118147274303,,504072,,1513265116,369017549,'',0.750491578358,0.400200002524,0.00927839562276,-0.350291575833,0.001,550.0,3100.0,0.0,3000.0,0.0
1513265118157122305,,504073,,1513265116,379017549,'',0.750491578358,0.400182537418,-0.00228281715954,-0.350309040939,0.001,550.0,3100.0,0.0,3000.0,0.0
1513265118167066489,,504074,,1513265116,389017549,'',0.750491578358,0.40017195575,-0.0080241622254,-0.350319622607,0.001,550.0,3100.0,0.0,3000.0,0.0
1513265118176909422,,504075,,1513265116,399017549,'',0.750491578358,0.400165501346,0.00401491477866,-0.350326077012,0.001,550.0,3100.0,0.0,3000.0,0.0
1513265118186834752,,504076,,1513265116,409017549,'',0.750491578358,0.40018077872,0.0037077055598,-0.350310799638,0.001,550.0,3100.0,0.0,3000.0,0.0
1513265118197142677,,504077,,1513265116,419017549,'',0.750491578358,0.400187438819,-0.00238419732403,-0.350304139538,0.001,550.0,3100.0,0.0,3000.0,0.0
1513265118207060415,,504078,,1513265116,429017549,'',0.750491578358,0.400198061873,-0.00259831482384,-0.350293516485,0.001,550.0,3100.0,0.0,3000.0,0.0
1513265118217023318,,504079,,1513265116,439017549,'',0.750491578358,0.400169423648,-0.0020199306348,-0.350322154709,0.001,550.0,3100.0,0.0,3000.0,0.0
1513265118226807891,,504080,,1513265116,449017549,'',0.750491578358,0.400162306068,-0.00187288217508,-0.350329272289,0.001,550.0,3100.0,0.0,3000.0,0.0
1513265118237009067,,504081,,1513265116,459017549,'',0.750491578358,0.400177756817,0.00377071781921,-0.35031382154,0.001,550.0,3100.0,0.0,3000.0,0.0
1513265118246931532,,504082,,1513265116,469017549,'',0.750491578358,0.400173104844,0.00386231523918,-0.350318473514,0.001,550.0,3100.0,0.0,3000.0,0.0
1513265118256923142,,504083,,1513265116,479017549,'',0.750491578358,0.400158624801,-0.0077585033444,-0.350332953556,0.001,550.0,3100.0,0.0,3000.0,0.0
1513265118266651388,,504084,,1513265116,489017549,'',0.750491578358,0.400172972435,-0.0020930425663,-0.350318605923,0.001,550.0,3100.0,0.0,3000.0,0.0
1513265118277205725,,504085,,1513265116,499017549,'',0.750491578358,0.400176429397,0.00379353736691,-0.350315148961,0.001,550.0,3100.0,0.0,3000.0,0.0
1513265118286896204,,504086,,1513265116,509017549,'',0.750491578358,0.400172984939,-0.00209226449594,-0.350318593418,0.001,550.0,3100.0,0.0,3000.0,0.0
1513265118296976798,,504087,,1513265116,519017549,'',0.750491578358,0.400164621731,-0.00192283907676,-0.350326956627,0.001,550.0,3100.0,0.0,3000.0,0.0
1513265118306809920,,504088,,1513265116,529017549,'',0.750491578358,0.400141829518,-0.00145894917721,-0.35034974884,0.001,550.0,3100.0,0.0,3000.0,0.0
1513265118316745832,,504089,,1513265116,539017549,'',0.750491578358,0.400113317637,0.00506993165142,-0.350378260721,0.001,550.0,3100.0,0.0,3000.0,0.0
1513265118326640787,,504090,,1513265116,549017549,'',0.750491578358,0.400089543666,-0.000404848231993,-0.350402034691,0.001,550.0,3100.0,0.0,3000.0,0.0
1513265118336758158,,504091,,1513265116,559017549,'',0.750491578358,0.400097657438,0.00538771241635,-0.350393920919,0.001,550.0,3100.0,0.0,3000.0,0.0
1513265118347147773,,504092,,1513265116,569017549,'',0.750491578358,0.400119271386,0.00494807428409,-0.350372306972,0.001,550.0,3100.0,0.0,3000.0,0.0
1513265118357089446,,504093,,1513265116,579017549,'',0.750491578358,0.400127071582,0.00478955065499,-0.350364506776,0.001,550.0,3100.0,0.0,3000.0,0.0
1513265118367098172,,504094,,1513265116,589017549,'',0.750491578358,0.400148582346,0.00435302223322,-0.350342996011,0.001,550.0,3100.0,0.0,3000.0,0.0
1513265118376913928,,504095,,1513265116,599017549,'',0.750491578358,0.40012845728,-0.00715172122819,-0.350363121078,0.001,550.0,3100.0,0.0,3000.0,0.0
1513265118386880651,,504096,,1513265116,609017549,'',0.750491578358,0.400133294937,-0.0012912228202,-0.35035828342,0.001,550.0,3100.0,0.0,3000.0,0.0
1513265118396787586,,504097,,1513265116,619017549,'',0.750491578358,0.400116861465,-0.000957260224252,-0.350374716893,0.001,550.0,3100.0,0.0,3000.0,0.0
1513265118406803566,,504098,,1513265116,629017549,'',0.750491578358,0.400134776178,-0.00131843309904,-0.350356802179,0.001,550.0,3100.0,0.0,3000.0,0.0
1513265118417172225,,504099,,1513265116,639017549,'',0.750491578358,0.400138870239,-0.00140080763786,-0.350352708119,0.001,550.0,3100.0,0.0,3000.0,0.0
1513265118427194376,,504100,,1513265116,649017549,'',0.750491578358,0.400121961018,-0.00106009346086,-0.350369617339,0.001,550.0,3100.0,0.0,3000.0,0.0
1513265118437082248,,504101,,1513265116,659017549,'',0.750491578358,0.400133132919,-0.00128460591327,-0.350358445439,0.001,550.0,3100.0,0.0,3000.0,0.0
1513265118446966337,,504102,,1513265116,669017549,'',0.750491578358,0.400110290582,-0.00677778373581,-0.350381287776,0.001,550.0,3100.0,0.0,3000.0,0.0
1513265118456939783,,504103,,1513265116,679017549,'',0.750491578358,0.400091766349,-0.000445321285555,-0.350399812009,0.001,550.0,3100.0,0.0,3000.0,0.0
1513265118466891862,,504104,,1513265116,689017549,'',0.750491578358,0.400098551072,0.00537501952505,-0.350393027286,0.001,550.0,3100.0,0.0,3000.0,0.0
1513265118476807237,,504105,,1513265116,699017549,'',0.750491578358,0.400093856387,-0.000489759030933,-0.35039772197,0.001,550.0,3100.0,0.0,3000.0,0.0
1513265118486844367,,504106,,1513265116,709017549,'',0.750491578358,0.400084360863,-0.00030028474558,-0.350407217494,0.001,550.0,3100.0,0.0,3000.0,0.0
1513265118497112411,,504107,,1513265116,719017549,'',0.750491578358,0.400109628865,0.00514417026934,-0.350381949493,0.001,550.0,3100.0,0.0,3000.0,0.0
1513265118507060781,,504108,,1513265116,729017549,'',0.750491578358,0.400140112721,0.00452983168698,-0.350351465637,0.001,550.0,3100.0,0.0,3000.0,0.0
1513265118516980308,,504109,,1513265116,739017549,'',0.750491578358,0.400158661343,-0.0018028146204,-0.350332917015,0.001,550.0,3100.0,0.0,3000.0,0.0
1513265118527026860,,504110,,1513265116,749017549,'',0.750491578358,0.400164004948,-0.00190772558351,-0.35032757341,0.001,550.0,3100.0,0.0,3000.0,0.0
1513265118536968078,,504111,,1513265116,759017549,'',0.750491578358,0.400168562181,0.00395405298415,-0.350323016177,0.001,550.0,3100.0,0.0,3000.0,0.0
1513265118546865601,,504112,,1513265116,769017549,'',0.750491578358,0.400167227088,0.00398161782631,-0.35032435127,0.001,550.0,3100.0,0.0,3000.0,0.0
1513265118557167244,,504113,,1513265116,779017549,'',0.750491578358,0.400187534626,0.00357192947711,-0.350304043732,0.001,550.0,3100.0,0.0,3000.0,0.0
1513265118567120079,,504114,,1513265116,789017549,'',0.750491578358,0.40019175137,0.00348467669292,-0.350299826988,0.001,550.0,3100.0,0.0,3000.0,0.0
1513265118577050729,,504115,,1513265116,799017549,'',0.750491578358,0.400202083624,0.00327772243731,-0.350289494733,0.001,550.0,3100.0,0.0,3000.0,0.0
1513265118587004087,,504116,,1513265116,809017549,'',0.750491578358,0.400221142862,0.00289180311911,-0.350270435495,0.001,550.0,3100.0,0.0,3000.0,0.0
1513265118596919770,,504117,,1513265116,819017549,'',0.750491578358,0.400209102783,-0.00281948514305,-0.350282475574,0.001,550.0,3100.0,0.0,3000.0,0.0
1513265118606860363,,504118,,1513265116,829017549,'',0.750491578358,0.400205860434,-0.00275632987535,-0.350285717924,0.001,550.0,3100.0,0.0,3000.0,0.0
1513265118616840595,,504119,,1513265116,839017549,'',0.750491578358,0.400223322002,0.00284489724584,-0.350268256355,0.001,550.0,3100.0,0.0,3000.0,0.0
1513265118627102694,,504120,,1513265116,849017549,'',0.750491578358,0.400232304737,-0.00329181208813,-0.35025927362,0.001,550.0,3100.0,0.0,3000.0,0.0
1513265118637042796,,504121,,1513265116,859017549,'',0.750491578358,0.4002562545,0.00218121086356,-0.350235323858,0.001,550.0,3100.0,0.0,3000.0,0.0
1513265118646985211,,504122,,1513265116,869017549,'',0.750491578358,0.400255222463,0.00220291609301,-0.350236355894,0.001,550.0,3100.0,0.0,3000.0,0.0
1513265118656835796,,504123,,1513265116,879017549,'',0.750491578358,0.400275549466,0.00179146165371,-0.350216028892,0.001,550.0,3100.0,0.0,3000.0,0.0
1513265118666728944,,504124,,1513265116,889017549,'',0.750491578358,0.400243399055,0.0024397827241,-0.350248179303,0.001,550.0,3100.0,0.0,3000.0,0.0
1513265118677228703,,504125,,1513265116,899017549,'',0.750491578358,0.400227194375,-0.00318697017389,-0.350264383982,0.001,550.0,3100.0,0.0,3000.0,0.0
1513265118687166509,,504126,,1513265116,909017549,'',0.750491578358,0.400215057143,-0.00294161499823,-0.350276521215,0.001,550.0,3100.0,0.0,3000.0,0.0
1513265118697059916,,504127,,1513265116,919017549,'',0.750491578358,0.400220932174,0.00289743478935,-0.350270646184,0.001,550.0,3100.0,0.0,3000.0,0.0
1513265118707031264,,504128,,1513265116,929017549,'',0.750491578358,0.400220583008,0.0029055106112,-0.350270995349,0.001,550.0,3100.0,0.0,3000.0,0.0
1513265118717013022,,504129,,1513265116,939017549,'',0.750491578358,0.400235198202,-0.00334614449378,-0.350256380156,0.001,550.0,3100.0,0.0,3000.0,0.0
1513265118726911733,,504130,,1513265116,949017549,'',0.750491578358,0.400231464824,0.00268830733377,-0.350260113534,0.001,550.0,3100.0,0.0,3000.0,0.0
1513265118736764183,,504131,,1513265116,959017549,'',0.750491578358,0.400235158507,0.00261394751618,-0.35025641985,0.001,550.0,3100.0,0.0,3000.0,0.0
1513265118746698140,,504132,,1513265116,969017549,'',0.750491578358,0.400214848515,-0.00293212979268,-0.350276729842,0.001,550.0,3100.0,0.0,3000.0,0.0
1513265118756738610,,504133,,1513265116,979017549,'',0.750491578358,0.40021967199,-0.00302987232723,-0.350271906368,0.001,550.0,3100.0,0.0,3000.0,0.0
1513265118767129215,,504134,,1513265116,989017549,'',0.750491578358,0.40021471118,0.00302562343799,-0.350276867178,0.001,550.0,3100.0,0.0,3000.0,0.0
1513265118777047440,,504135,,1513265116,999017549,'',0.750491578358,0.400215698344,-0.00295141870762,-0.350275880013,0.001,550.0,3100.0,0.0,3000.0,0.0
1513265118786935705,,504136,,1513265117,9017549,'',0.750491578358,0.400200656259,0.00330847871455,-0.350290922099,0.001,550.0,3100.0,0.0,3000.0,0.0
1513265118796992213,,504137,,1513265117,19017549,'',0.750491578358,0.400230753106,0.00269644635669,-0.350260825252,0.001,550.0,3100.0,0.0,3000.0,0.0
1513265118806881435,,504138,,1513265117,29017549,'',0.750491578358,0.400233309622,0.00264412378813,-0.350258268736,0.001,550.0,3100.0,0.0,3000.0,0.0
1513265118816873245,,504139,,1513265117,39017549,'',0.750491578358,0.400235083066,0.00260837912487,-0.350256495292,0.001,550.0,3100.0,0.0,3000.0,0.0
1513265118826751070,,504140,,1513265117,49017549,'',0.750491578358,0.400232220922,-0.00329330890095,-0.350259357435,0.001,550.0,3100.0,0.0,3000.0,0.0
1513265118836873252,,504141,,1513265117,59017549,'',0.750491578358,0.40023508183,0.00260509718919,-0.350256496528,0.001,550.0,3100.0,0.0,3000.0,0.0
1513265118846897070,,504142,,1513265117,69017549,'',0.750491578358,0.400252776063,-0.00370597349071,-0.350238802295,0.001,550.0,3100.0,0.0,3000.0,0.0
1513265118856884983,,504143,,1513265117,79017549,'',0.750491578358,0.400256433097,0.00217476676813,-0.350235145261,0.001,550.0,3100.0,0.0,3000.0,0.0
1513265118866714390,,504144,,1513265117,89017549,'',0.750491578358,0.400243919918,-0.00352599488202,-0.35024765844,0.001,550.0,3100.0,0.0,3000.0,0.0
1513265118876783922,,504145,,1513265117,99017549,'',0.750491578358,0.40023397336,0.00262949141641,-0.350257604997,0.001,550.0,3100.0,0.0,3000.0,0.0
1513265118887134234,,504146,,1513265117,109017549,'',0.750491578358,0.400257611888,0.00215284590461,-0.35023396647,0.001,550.0,3100.0,0.0,3000.0,0.0
1513265118897139353,,504147,,1513265117,119017549,'',0.750491578358,0.400265558414,-0.00396348218903,-0.350226019944,0.001,550.0,3100.0,0.0,3000.0,0.0
1513265118907157862,,504148,,1513265117,129017549,'',0.750491578358,0.400278499833,0.00173025675082,-0.350213078524,0.001,550.0,3100.0,0.0,3000.0,0.0
1513265118917093898,,504149,,1513265117,139017549,'',0.750491578358,0.400278499072,0.00173084866916,-0.350213079286,0.001,550.0,3100.0,0.0,3000.0,0.0
1513265118927029495,,504150,,1513265117,149017549,'',0.750491578358,0.400278337536,0.00173492013663,-0.350213240821,0.001,550.0,3100.0,0.0,3000.0,0.0
1513265118936925837,,504151,,1513265117,159017549,'',0.750491578358,0.400278760952,0.00172915249843,-0.350212817405,0.001,550.0,3100.0,0.0,3000.0,0.0
1513265118946898285,,504152,,1513265117,169017549,'',0.750491578358,0.400261410359,-0.00983596872696,-0.350230167999,0.001,550.0,3100.0,0.0,3000.0,0.0
1513265118956791304,,504153,,1513265117,179017549,'',0.750491578358,0.400259212394,0.00212196001445,-0.350232365964,0.001,550.0,3100.0,0.0,3000.0,0.0
1513265118966666986,,504154,,1513265117,189017549,'',0.750491578358,0.400273186891,0.0018401721784,-0.350218391466,0.001,550.0,3100.0,0.0,3000.0,0.0
1513265118976691924,,504155,,1513265117,199017549,'',0.750491578358,0.400278763314,-0.00422716706599,-0.350212815043,0.001,550.0,3100.0,0.0,3000.0,0.0
1513265118987097695,,504156,,1513265117,209017549,'',0.750491578358,0.400288279561,0.00153548639318,-0.350203298797,0.001,550.0,3100.0,0.0,3000.0,0.0
1513265118997111526,,504157,,1513265117,219017549,'',0.750491578358,0.400286441592,0.00157179211842,-0.350205136765,0.001,550.0,3100.0,0.0,3000.0,0.0
1513265119006920647,,504158,,1513265117,229017549,'',0.750491578358,0.400290561927,0.00149018815546,-0.35020101643,0.001,550.0,3100.0,0.0,3000.0,0.0
1513265119016880965,,504159,,1513265117,239017549,'',0.750491578358,0.400283143205,0.00163942276501,-0.350208435152,0.001,550.0,3100.0,0.0,3000.0,0.0
1513265119026892393,,504160,,1513265117,249017549,'',0.750491578358,0.400265977951,0.0019840125217,-0.350225600406,0.001,550.0,3100.0,0.0,3000.0,0.0
1513265119036747386,,504161,,1513265117,259017549,'',0.750491578358,0.400258759385,0.00213135520826,-0.350232818973,0.001,550.0,3100.0,0.0,3000.0,0.0
1513265119046913456,,504162,,1513265117,269017549,'',0.750491578358,0.400240051986,-0.00344764983308,-0.350251526372,0.001,550.0,3100.0,0.0,3000.0,0.0
1513265119056909879,,504163,,1513265117,279017549,'',0.750491578358,0.400240582938,0.00249669442653,-0.35025099542,0.001,550.0,3100.0,0.0,3000.0,0.0
1513265119066726312,,504164,,1513265117,289017549,'',-0.25,0.400236595283,0.00257823963471,0.650236595283,0.001,-550.0,3100.0,0.0,3000.0,0.0
1513265119077156259,,504165,,1513265117,299017549,'',-0.25,0.400237094795,-0.00934243453221,0.650237094795,0.001,-550.0,3100.0,0.0,3000.0,0.0
1513265119087090025,,504166,,1513265117,309017549,'',-0.25,0.400249423067,0.00232188583087,0.650249423067,0.001,-550.0,3100.0,0.0,3000.0,0.0
1513265119097032871,,504167,,1513265117,319017549,'',-0.25,0.400255334478,0.00220188465545,0.650255334478,0.001,-550.0,3100.0,0.0,3000.0,0.0
1513265119106863029,,504168,,1513265117,329017549,'',-0.25,0.400252671752,-0.00370126783627,0.650252671752,0.001,-550.0,3100.0,0.0,3000.0,0.0
1513265119116836625,,504169,,1513265117,339017549,'',-0.25,0.399909915712,-0.0682432810696,0.649909915712,0.001,-550.0,3100.0,0.0,3000.0,0.0
1513265119126814465,,504170,,1513265117,349017549,'',-0.25,0.398522867691,-0.195077204379,0.648522867691,0.001,-550.0,3100.0,0.0,3000.0,0.0
1513265119136811956,,504171,,1513265117,359017549,'',-0.25,0.395685099437,-0.364063770929,0.645685099437,0.001,-550.0,3100.0,0.0,3000.0,0.0
1513265119147208857,,504172,,1513265117,369017549,'',-0.25,0.391207366248,-0.511870241552,0.641207366248,0.001,-550.0,3100.0,0.0,3000.0,0.0
1513265119157143501,,504173,,1513265117,379017549,'',-0.25,0.385444978491,-0.633686335206,0.635444978491,0.001,-57.5949672289,3100.0,0.0,3000.0,0.0
1513265119167206993,,504174,,1513265117,389017549,'',-0.25,0.378630796592,-0.710433917549,0.628630796592,0.001,180.78067978,3100.0,0.0,3000.0,0.0
1513265119177046727,,504175,,1513265117,399017549,'',-0.25,0.371471856178,-0.714703538689,0.621471856178,0.001,236.953711583,3100.0,0.0,3000.0,0.0
1513265119186943354,,504176,,1513265117,409017549,'',-0.25,0.364746514542,-0.638395009562,0.614746514542,0.001,-19.3023159164,3100.0,0.0,3000.0,0.0
1513265119196905841,,504177,,1513265117,419017549,'',-0.25,0.358793120005,-0.553863793971,0.608793120005,0.001,-249.438819163,3100.0,0.0,3000.0,0.0
1513265119206846260,,504178,,1513265117,429017549,'',-0.25,0.353746450571,-0.469779128902,0.603746450571,0.001,-455.291654181,3100.0,0.0,3000.0,0.0
1513265119217209093,,504179,,1513265117,439017549,'',-0.25,0.349313024269,-0.43381988955,0.599313024269,0.001,-547.143238687,3100.0,0.0,3000.0,0.0
1513265119226716049,,504180,,1513265117,449017549,'',-0.25,0.345057944617,-0.437196171163,0.595057944617,0.001,-525.325971852,3100.0,0.0,3000.0,0.0
1513265119236768367,,504181,,1513265117,459017549,'',-0.25,0.340486531505,-0.481825931492,0.590486531505,0.001,-380.635423025,3100.0,0.0,3000.0,0.0
1513265119247200033,,504182,,1513265117,469017549,'',-0.25,0.335277062189,-0.543353056972,0.585277062189,0.001,-98.449181207,3100.0,0.0,3000.0,0.0
1513265119257102595,,504183,,1513265117,479017549,'',-0.25,0.329617994993,-0.583871658428,0.579617994993,0.001,-32.6823858,3100.0,0.0,3000.0,0.0
1513265119266957067,,504184,,1513265117,489017549,'',-0.25,0.323734202929,-0.590078446651,0.573734202929,0.001,-1.22154087419,3100.0,0.0,3000.0,0.0
1513265119276931252,,504185,,1513265117,499017549,'',-0.25,0.31794277818,-0.562422440878,0.56794277818,0.001,-59.668887606,3100.0,0.0,3000.0,0.0
1513265119286895385,,504186,,1513265117,509017549,'',-0.25,0.312560603898,-0.51920676359,0.562560603898,0.001,-178.55494149,3100.0,0.0,3000.0,0.0
1513265119296791660,,504187,,1513265117,519017549,'',-0.25,0.307704334714,-0.462794097545,0.557704334714,0.001,-329.235921256,3100.0,0.0,3000.0,0.0
1513265119307141753,,504188,,1513265117,529017549,'',-0.25,0.303309083485,-0.421650772838,0.553309083485,0.001,-445.223437549,3100.0,0.0,3000.0,0.0
1513265119317116999,,504189,,1513265117,539017549,'',-0.25,0.299234382985,-0.392940470746,0.549234382985,0.001,-544.053739097,3100.0,0.0,3000.0,0.0
1513265119327090109,,504190,,1513265117,549017549,'',-0.25,0.295279583929,-0.390472443275,0.545279583929,0.001,-511.992181669,3100.0,0.0,3000.0,0.0
1513265119336907488,,504191,,1513265117,559017549,'',-0.25,0.291320080654,-0.393865560478,0.541320080654,0.001,-488.339553879,3100.0,0.0,3000.0,0.0
1513265119346909642,,504192,,1513265117,569017549,'',-0.25,0.287314862806,-0.414204320541,0.537314862806,0.001,-424.366426346,3100.0,0.0,3000.0,0.0
1513265119356849369,,504193,,1513265117,579017549,'',-0.25,0.283087442189,-0.436004291588,0.533087442189,0.001,-333.947685563,3100.0,0.0,3000.0,0.0
1513265119366691612,,504194,,1513265117,589017549,'',-0.25,0.278644665006,-0.453456467223,0.528644665006,0.001,-303.421683466,3100.0,0.0,3000.0,0.0
1513265119377118400,,504195,,1513265117,599017549,'',-0.25,0.274261746729,-0.43042822099,0.524261746729,0.001,-319.714680292,3100.0,0.0,3000.0,0.0
1513265119387044962,,504196,,1513265117,609017549,'',-0.25,0.270195461183,-0.395936370459,0.520195461183,0.001,-418.609531655,3100.0,0.0,3000.0,0.0
1513265119397016907,,504197,,1513265117,619017549,'',-0.25,0.266469210758,-0.356395551497,0.516469210758,0.001,-525.270367562,3100.0,0.0,3000.0,0.0
1513265119406863607,,504198,,1513265117,629017549,'',-0.25,0.263050540249,-0.329024896881,0.513050540249,0.001,-550.0,3100.0,0.0,3000.0,0.0
1513265119416803836,,504199,,1513265117,639017549,'',-0.25,0.259942515911,-0.301972198558,0.509942515911,0.001,-550.0,3100.0,0.0,3000.0,0.0
1513265119426871914,,504200,,1513265117,649017549,'',-0.25,0.25708237519,-0.273968452944,0.50708237519,0.001,-550.0,3100.0,0.0,3000.0,0.0
1513265119437157509,,504201,,1513265117,659017549,'',-0.25,0.254490708664,-0.251393548803,0.504490708664,0.001,-550.0,3100.0,0.0,3000.0,0.0
1513265119447136027,,504202,,1513265117,669017549,'',-0.25,0.252137002032,-0.22766946721,0.502137002032,0.001,-550.0,3100.0,0.0,3000.0,0.0
1513265119457191089,,504203,,1513265117,679017549,'',-0.25,0.249983600143,-0.207989319416,0.499983600143,0.001,-550.0,3100.0,0.0,3000.0,0.0
1513265119467020966,,504204,,1513265117,689017549,'',-0.25,0.248002784853,-0.191795834986,0.498002784853,0.001,-550.0,3100.0,0.0,3000.0,0.0
1513265119476830224,,504205,,1513265117,699017549,'',-0.25,0.246175905658,-0.178714532195,0.496175905658,0.001,-550.0,3100.0,0.0,3000.0,0.0
1513265119486875874,,504206,,1513265117,709017549,'',-0.25,0.24451611963,-0.157093402291,0.49451611963,0.001,-550.0,3100.0,0.0,3000.0,0.0
1513265119496885242,,504207,,1513265117,719017549,'',-0.25,0.242952348425,-0.149324595027,0.492952348425,0.001,-550.0,3100.0,0.0,3000.0,0.0
1513265119506838039,,504208,,1513265117,729017549,'',-0.25,0.241510833082,-0.138070152244,0.491510833082,0.001,-550.0,3100.0,0.0,3000.0,0.0
1513265119517199891,,504209,,1513265117,739017549,'',-0.25,0.240194396633,-0.12338876829,0.490194396633,0.001,-550.0,3100.0,0.0,3000.0,0.0
1513265119527129041,,504210,,1513265117,749017549,'',-0.25,0.238955509247,-0.12218402792,0.488955509247,0.001,-550.0,3100.0,0.0,3000.0,0.0
1513265119537074905,,504211,,1513265117,759017549,'',-0.25,0.237796143525,-0.116631539024,0.487796143525,0.001,-550.0,3100.0,0.0,3000.0,0.0
1513265119547224350,,504212,,1513265117,769017549,'',-0.25,0.23670401041,-0.106478449521,0.48670401041,0.001,-550.0,3100.0,0.0,3000.0,0.0
1513265119557011686,,504213,,1513265117,779017549,'',-0.25,0.235684410473,-0.0977936919161,0.485684410473,0.001,-550.0,3100.0,0.0,3000.0,0.0
1513265119566861257,,504214,,1513265117,789017549,'',-0.25,0.234729094499,-0.0963616463792,0.484729094499,0.001,-550.0,3100.0,0.0,3000.0,0.0
1513265119577045644,,504215,,1513265117,799017549,'',-0.25,0.233840675129,-0.0903267463372,0.483840675129,0.001,-550.0,3100.0,0.0,3000.0,0.0
1513265119587148873,,504216,,1513265117,809017549,'',-0.25,0.233001997104,-0.0793415472662,0.483001997104,0.001,-550.0,3100.0,0.0,3000.0,0.0
1513265119597058304,,504217,,1513265117,819017549,'',-0.25,0.232220357925,-0.0754608303527,0.482220357925,0.001,-550.0,3100.0,0.0,3000.0,0.0
1513265119607024842,,504218,,1513265117,829017549,'',-0.25,0.23150451425,-0.0669549854838,0.48150451425,0.001,-550.0,3100.0,0.0,3000.0,0.0
1513265119616922935,,504219,,1513265117,839017549,'',-0.25,0.230842216271,-0.0654856824035,0.480842216271,0.001,-550.0,3100.0,0.0,3000.0,0.0
1513265119626795990,,504220,,1513265117,849017549,'',-0.25,0.230249014099,-0.0594590115214,0.480249014099,0.001,-550.0,3100.0,0.0,3000.0,0.0
1513265119637171574,,504221,,1513265117,859017549,'',-0.25,0.229710939983,-0.0426348430492,0.479710939983,0.001,-550.0,3100.0,0.0,3000.0,0.0
1513265119647083474,,504222,,1513265117,869017549,'',-0.25,0.229339923426,-0.0291833535877,0.479339923426,0.001,-550.0,3100.0,0.0,3000.0,0.0
1513265119656992900,,504223,,1513265117,879017549,'',-0.25,0.229100719832,-0.0183841559106,0.479100719832,0.001,-550.0,3100.0,0.0,3000.0,0.0
1513265119666867410,,504224,,1513265117,889017549,'',-0.25,0.228980553231,-0.00404738651971,0.478980553231,0.001,-550.0,3100.0,0.0,3000.0,0.0
1513265119676802486,,504225,,1513265117,899017549,'',-0.25,0.22893990139,0.00272927878106,0.47893990139,0.001,-550.0,3100.0,0.0,3000.0,0.0
1513265119686848403,,504226,,1513265117,909017549,'',-0.25,0.228985707594,0.00775477581114,0.478985707594,0.001,-550.0,3100.0,0.0,3000.0,0.0
1513265119697255826,,504227,,1513265117,919017549,'',-0.25,0.229040139453,0.0126155908663,0.479040139453,0.001,-550.0,3100.0,0.0,3000.0,0.0
1513265119707243795,,504228,,1513265117,929017549,'',-0.25,0.229121345298,0.0050172579704,0.479121345298,0.001,-550.0,3100.0,0.0,3000.0,0.0
1513265119717204140,,504229,,1513265117,939017549,'',-0.25,0.229204261819,0.00929878546091,0.479204261819,0.001,-550.0,3100.0,0.0,3000.0,0.0
1513265119727181750,,504230,,1513265117,949017549,'',-0.25,0.229287631097,0.0076129126828,0.479287631097,0.001,-550.0,3100.0,0.0,3000.0,0.0
1513265119737123159,,504231,,1513265117,959017549,'',-0.25,0.229361627495,0.000159292223191,0.479361627495,0.001,-550.0,3100.0,0.0,3000.0,0.0
1513265119747070169,,504232,,1513265117,969017549,'',-0.25,0.229405935956,0.005218308337,0.479405935956,0.001,-550.0,3100.0,0.0,3000.0,0.0
1513265119757042876,,504233,,1513265117,979017549,'',-0.25,0.229463343469,0.0100135213459,0.479463343469,0.001,-550.0,3100.0,0.0,3000.0,0.0
1513265119766945391,,504234,,1513265117,989017549,'',-0.25,0.229472708324,-0.00208980343996,0.479472708324,0.001,-550.0,3100.0,0.0,3000.0,0.0
1513265119776786363,,504235,,1513265117,999017549,'',-0.25,0.229486241998,0.0035905173184,0.479486241998,0.001,-550.0,3100.0,0.0,3000.0,0.0
1513265119786976911,,504236,,1513265118,9017549,'',-0.25,0.229506551965,-0.00277548575005,0.479506551965,0.001,-550.0,3100.0,0.0,3000.0,0.0
1513265119797191216,,504237,,1513265118,19017549,'',-0.25,0.229507905409,-0.00280095518441,0.479507905409,0.001,-550.0,3100.0,0.0,3000.0,0.0
1513265119806708938,,504238,,1513265118,29017549,'',-0.25,0.229471864716,-0.0020728845087,0.479471864716,0.001,-550.0,3100.0,0.0,3000.0,0.0
1513265119817115816,,504239,,1513265118,39017549,'',-0.25,0.229448411373,-0.00159830846896,0.479448411373,0.001,-550.0,3100.0,0.0,3000.0,0.0
1513265119827027021,,504240,,1513265118,49017549,'',-0.25,0.229407797123,-0.000781817721641,0.479407797123,0.001,-550.0,3100.0,0.0,3000.0,0.0
1513265119836987252,,504241,,1513265118,59017549,'',-0.25,0.229367221258,-0.0118730215856,0.479367221258,0.001,-550.0,3100.0,0.0,3000.0,0.0
1513265119846936345,,504242,,1513265118,69017549,'',-0.25,0.22927104622,-0.00992648942781,0.47927104622,0.001,-550.0,3100.0,0.0,3000.0,0.0
1513265119856940719,,504243,,1513265118,79017549,'',-0.25,0.229170325728,-0.0138501326352,0.479170325728,0.001,-550.0,3100.0,0.0,3000.0,0.0
1513265119866873296,,504244,,1513265118,89017549,'',-0.25,0.229039311567,-0.0171583214594,0.479039311567,0.001,-550.0,3100.0,0.0,3000.0,0.0
1513265119877034278,,504245,,1513265118,99017549,'',-0.25,0.228857639263,-0.0134907783542,0.478857639263,0.001,-550.0,3100.0,0.0,3000.0,0.0
1513265119886873230,,504246,,1513265118,109017549,'',-0.25,0.228659749678,-0.0273592178852,0.478659749678,0.001,-550.0,3100.0,0.0,3000.0,0.0
1513265119896817809,,504247,,1513265118,119017549,'',-0.25,0.22827923212,-0.0554066683978,0.47827923212,0.001,-550.0,3100.0,0.0,3000.0,0.0
1513265119907245303,,504248,,1513265118,129017549,'',-0.25,0.227195726374,-0.16454456989,0.477195726374,0.001,-550.0,3100.0,0.0,3000.0,0.0
1513265119917352622,,504249,,1513265118,139017549,'',-0.25,0.224512888088,-0.372395508224,0.474512888088,0.001,-370.824560706,3100.0,0.0,3000.0,0.0
1513265119927105441,,504250,,1513265118,149017549,'',-0.25,0.219296310294,-0.648183025816,0.469296310294,0.001,495.677162204,3100.0,0.0,3000.0,0.0
1513265119937058409,,504251,,1513265118,159017549,'',-0.25,0.211416819879,-0.876130107311,0.461416819879,0.001,550.0,3100.0,0.0,3000.0,0.0
1513265119947020138,,504252,,1513265118,169017549,'',-0.25,0.202406286941,-0.872778388218,0.452406286941,0.001,550.0,3100.0,0.0,3000.0,0.0
1513265119957011146,,504253,,1513265118,179017549,'',-0.25,0.194491114796,-0.718837228759,0.444491114796,0.001,550.0,3100.0,0.0,3000.0,0.0
1513265119966918337,,504254,,1513265118,189017549,'',-0.25,0.187954654033,-0.598702689208,0.437954654033,0.001,404.154372022,3100.0,0.0,3000.0,0.0
1513265119976955318,,504255,,1513265118,199017549,'',-0.25,0.182550849485,-0.495496096354,0.432550849485,0.001,157.638184443,3100.0,0.0,3000.0,0.0
1513265119986840115,,504256,,1513265118,209017549,'',-0.25,0.178147207071,-0.394624841517,0.428147207071,0.001,-137.200623303,3100.0,0.0,3000.0,0.0
1513265119996891338,,504257,,1513265118,219017549,'',-0.25,0.174534868096,-0.327606225504,0.424534868096,0.001,-328.34459742,3100.0,0.0,3000.0,0.0
1513265120006955180,,504258,,1513265118,229017549,'',-0.25,0.171567661829,-0.273621904223,0.421567661829,0.001,-484.28308745,3100.0,0.0,3000.0,0.0
1513265120017234046,,504259,,1513265118,239017549,'',-0.25,0.169109666541,-0.223965335571,0.419109666541,0.001,-550.0,3100.0,0.0,3000.0,0.0
1513265120027177798,,504260,,1513265118,249017549,'',-0.25,0.167089756112,-0.183161163906,0.417089756112,0.001,-550.0,3100.0,0.0,3000.0,0.0
1513265120037046698,,504261,,1513265118,259017549,'',-0.25,0.165428652676,-0.155559524619,0.415428652676,0.001,-550.0,3100.0,0.0,3000.0,0.0
1513265120046940380,,504262,,1513265118,269017549,'',-0.25,0.164040109815,-0.127510194229,0.414040109815,0.001,-550.0,3100.0,0.0,3000.0,0.0
1513265120056959603,,504263,,1513265118,279017549,'',-0.25,0.162634628057,-0.170587092276,0.412634628057,0.001,-550.0,3100.0,0.0,3000.0,0.0
1513265120066940777,,504264,,1513265118,289017549,'',-0.25,0.160177469615,-0.329396484133,0.410177469615,0.001,-299.132842011,3100.0,0.0,3000.0,0.0
1513265120076803255,,504265,,1513265118,299017549,'',-0.25,0.155267585861,-0.635203330951,0.405267585861,0.001,550.0,3100.0,0.0,3000.0,0.0
1513265120086851921,,504266,,1513265118,309017549,'',-0.25,0.147230045611,-0.907603966298,0.397230045611,0.001,550.0,3100.0,0.0,3000.0,0.0
1513265120097247343,,504267,,1513265118,319017549,'',-0.25,0.137961778556,-0.887133930168,0.387961778556,0.001,550.0,3100.0,0.0,3000.0,0.0
1513265120107232111,,504268,,1513265118,329017549,'',-0.25,0.130042065766,-0.721188687276,0.380042065766,0.001,550.0,3100.0,0.0,3000.0,0.0
1513265120117162982,,504269,,1513265118,339017549,'',-0.25,0.12356311333,-0.590304672908,0.37356311333,0.001,550.0,3100.0,0.0,3000.0,0.0
1513265120127084837,,504270,,1513265118,349017549,'',-0.25,0.118259606031,-0.489121892637,0.368259606031,0.001,301.97961874,3100.0,0.0,3000.0,0.0
1513265120137049577,,504271,,1513265118,359017549,'',-0.25,0.113873390461,-0.400515451246,0.363873390461,0.001,77.2067191006,3100.0,0.0,3000.0,0.0
1513265120146915785,,504272,,1513265118,369017549,'',-0.25,0.110332770301,-0.323036133533,0.360332770301,0.001,-142.170393308,3100.0,0.0,3000.0,0.0
1513265120156795028,,504273,,1513265118,379017549,'',-0.25,0.107412557511,-0.264044141793,0.357412557511,0.001,-310.9561443,3100.0,0.0,3000.0,0.0
1513265120167295325,,504274,,1513265118,389017549,'',-0.25,0.105017900115,-0.209711519084,0.355017900115,0.001,-470.261665705,3100.0,0.0,3000.0,0.0
1513265120177230946,,504275,,1513265118,399017549,'',-0.25,0.103096775545,-0.176859327826,0.353096775545,0.001,-550.0,3100.0,0.0,3000.0,0.0
1513265120187278516,,504276,,1513265118,409017549,'',-0.25,0.101522879496,-0.145062221424,0.351522879496,0.001,-550.0,3100.0,0.0,3000.0,0.0
1513265120197124374,,504277,,1513265118,419017549,'',-0.25,0.100220389129,-0.118749936267,0.350220389129,0.001,-550.0,3100.0,0.0,3000.0,0.0
1513265120206813487,,504278,,1513265118,429017549,'',-0.25,0.0991600565517,-0.0973305708426,0.349160056552,0.001,-550.0,3100.0,0.0,3000.0,0.0
1513265120216707074,,504279,,1513265118,439017549,'',-0.25,0.0982917441827,-0.0797895052358,0.348291744183,0.001,-550.0,3100.0,0.0,3000.0,0.0
1513265120226713714,,504280,,1513265118,449017549,'',-0.25,0.0973879140489,-0.103220990027,0.347387914049,0.001,-550.0,3100.0,0.0,3000.0,0.0
1513265120237173760,,504281,,1513265118,459017549,'',-0.25,0.0956399588212,-0.258490266888,0.345639958821,0.001,-308.574510996,3100.0,0.0,3000.0,0.0
1513265120247208344,,504282,,1513265118,469017549,'',-0.25,0.0913901538575,-0.577629740948,0.341390153857,0.001,550.0,3100.0,0.0,3000.0,0.0
1513265120257060295,,504283,,1513265118,479017549,'',-0.25,0.0839188494572,-0.855513434807,0.333918849457,0.001,550.0,3100.0,0.0,3000.0,0.0
1513265120266983668,,504284,,1513265118,489017549,'',-0.25,0.0754259670318,-0.803060239049,0.325425967032,0.001,550.0,3100.0,0.0,3000.0,0.0
1513265120276866125,,504285,,1513265118,499017549,'',-0.25,0.0683342769295,-0.64193265206,0.318334276929,0.001,550.0,3100.0,0.0,3000.0,0.0
1513265120286960529,,504286,,1513265118,509017549,'',-0.25,0.0625954422189,-0.520045552616,0.312595442219,0.001,550.0,3100.0,0.0,3000.0,0.0
1513265120297063337,,504287,,1513265118,519017549,'',-0.25,0.0579378974197,-0.419999623524,0.30793789742,0.001,313.188902257,3100.0,0.0,3000.0,0.0
1513265120307278934,,504288,,1513265118,529017549,'',-0.25,0.054166566654,-0.337857371915,0.304166566654,0.001,99.3930553425,3100.0,0.0,3000.0,0.0
1513265120317169308,,504289,,1513265118,539017549,'',-0.25,0.0511028904091,-0.281926229737,0.301102890409,0.001,-83.4332897224,3100.0,0.0,3000.0,0.0
1513265120327119336,,504290,,1513265118,549017549,'',-0.25,0.0486092684053,-0.225593609199,0.298609268405,0.001,-261.179699097,3100.0,0.0,3000.0,0.0
1513265120337122960,,504291,,1513265118,559017549,'',-0.25,0.0465730096838,-0.184459427984,0.296573009684,0.001,-361.511599526,3100.0,0.0,3000.0,0.0
1513265120347097770,,504292,,1513265118,569017549,'',-0.25,0.044879155666,-0.156197022794,0.294879155666,0.001,-442.751545863,3100.0,0.0,3000.0,0.0
1513265120357023270,,504293,,1513265118,579017549,'',-0.25,0.043488686857,-0.122152566782,0.293488686857,0.001,-542.595795805,3100.0,0.0,3000.0,0.0
1513265120366926108,,504294,,1513265118,589017549,'',-0.25,0.0423385543133,-0.104874215625,0.292338554313,0.001,-550.0,3100.0,0.0,3000.0,0.0
1513265120376890237,,504295,,1513265118,599017549,'',-0.25,0.0414037864368,-0.0859904172619,0.291403786437,0.001,-550.0,3100.0,0.0,3000.0,0.0
1513265120386761666,,504296,,1513265118,609017549,'',-0.25,0.0406320512285,-0.0703999914158,0.290632051228,0.001,-550.0,3100.0,0.0,3000.0,0.0
1513265120396699630,,504297,,1513265118,619017549,'',-0.25,0.0399604012954,-0.0687434389444,0.289960401295,0.001,-550.0,3100.0,0.0,3000.0,0.0
1513265120407222255,,504298,,1513265118,629017549,'',-0.25,0.0389522643931,-0.137715444079,0.288952264393,0.001,-480.95457077,3100.0,0.0,3000.0,0.0
1513265120417155672,,504299,,1513265118,639017549,'',-0.25,0.0366719622776,-0.312011195349,0.286671962278,0.001,56.7445237701,3100.0,0.0,3000.0,0.0
1513265120427124906,,504300,,1513265118,649017549,'',-0.25,0.0323651159775,-0.522788587666,0.282365115977,0.001,550.0,3100.0,0.0,3000.0,0.0
1513265120437001594,,504301,,1513265118,659017549,'',-0.25,0.0264806058721,-0.618445518756,0.276480605872,0.001,550.0,3100.0,0.0,3000.0,0.0
1513265120446990557,,504302,,1513265118,669017549,'',-0.25,0.0209155959195,-0.506025638897,0.270915595919,0.001,550.0,3100.0,0.0,3000.0,0.0
1513265120456870759,,504303,,1513265118,679017549,'',-0.25,0.0164305949673,-0.406144351967,0.266430594967,0.001,400.927666502,3100.0,0.0,3000.0,0.0
1513265120466874636,,504304,,1513265118,689017549,'',-0.25,0.0128889433375,-0.316041112688,0.262888943338,0.001,134.934760275,3100.0,0.0,3000.0,0.0
1513265120476803785,,504305,,1513265118,699017549,'',-0.25,0.0101130829166,-0.250687053019,0.260113082917,0.001,-33.6841514792,3100.0,0.0,3000.0,0.0
1513265120486935537,,504306,,1513265118,709017549,'',-0.25,0.00799432581978,-0.189329970958,0.25799432582,0.001,-229.504617144,3100.0,0.0,3000.0,0.0
1513265120497276502,,504307,,1513265118,719017549,'',-0.25,0.00635418247371,-0.14691821368,0.256354182474,0.001,-349.937061688,3100.0,0.0,3000.0,0.0
1513265120507148215,,504308,,1513265118,729017549,'',-0.25,0.0050543983249,-0.111383266655,0.255054398325,0.001,-453.804879665,3100.0,0.0,3000.0,0.0
1513265120517006006,,504309,,1513265118,739017549,'',-0.25,0.00401382123958,-0.0996434207508,0.25401382124,0.001,-486.74081204,3100.0,0.0,3000.0,0.0
1513265120527014795,,504310,,1513265118,749017549,'',-0.25,0.0031521631689,-0.08223655909,0.253152163169,0.001,-536.540771571,3100.0,0.0,3000.0,0.0
1513265120537005614,,504311,,1513265118,759017549,'',-0.25,0.00244576756621,-0.067964268558,0.252445767566,0.001,-550.0,3100.0,0.0,3000.0,0.0
1513265120547023800,,504312,,1513265118,769017549,'',-0.25,0.00178247425713,-0.0823993476233,0.251782474257,0.001,-537.568208936,3100.0,0.0,3000.0,0.0
1513265120556911923,,504313,,1513265118,779017549,'',-0.25,0.000611481153701,-0.17009366913,0.250611481154,0.001,-246.515970757,3100.0,0.0,3000.0,0.0
1513265120567262464,,504314,,1513265118,789017549,'',-0.25,-0.00216286538908,-0.392397239433,0.247837134611,0.001,412.199155017,3100.0,0.0,3000.0,0.0
1513265120576746879,,504315,,1513265118,799017549,'',-0.25,-0.00780645998648,-0.686647838492,0.242193540014,0.001,550.0,3100.0,0.0,3000.0,0.0
1513265120587253661,,504316,,1513265118,809017549,'',-0.25,-0.0152116960306,-0.731895292418,0.234788303969,0.001,550.0,3100.0,0.0,3000.0,0.0
1513265120597272505,,504317,,1513265118,819017549,'',-0.25,-0.0216563042529,-0.58314778992,0.228343695747,0.001,550.0,3100.0,0.0,3000.0,0.0
1513265120607106478,,504318,,1513265118,829017549,'',-0.25,-0.0268912539474,-0.477393315129,0.223108746053,0.001,550.0,3100.0,0.0,3000.0,0.0
1513265120617113211,,504319,,1513265118,839017549,'',-0.25,-0.0308773472309,-0.331914859218,0.219122652769,0.001,326.458717988,3100.0,0.0,3000.0,0.0
1513265120626985479,,504320,,1513265118,849017549,'',-0.25,-0.03337523967,-0.188673974911,0.21662476033,0.001,-116.883831064,3100.0,0.0,3000.0,0.0
1513265120636949094,,504321,,1513265118,859017549,'',-0.25,-0.0346323781857,-0.0890495474879,0.215367621814,0.001,-405.347663929,3100.0,0.0,3000.0,0.0
1513265120646929739,,504322,,1513265118,869017549,'',-0.25,-0.0352426468997,-0.0396094494373,0.2147573531,0.001,-546.346066483,3100.0,0.0,3000.0,0.0
1513265120656999424,,504323,,1513265118,879017549,'',-0.25,-0.0355816755944,-0.0327602752975,0.214418324406,0.001,-550.0,3100.0,0.0,3000.0,0.0
1513265120666929452,,504324,,1513265118,889017549,'',-0.25,-0.0358754515072,-0.0268245360231,0.214124548493,0.001,-550.0,3100.0,0.0,3000.0,0.0
1513265120676884365,,504325,,1513265118,899017549,'',-0.25,-0.0361926864853,-0.0389702702285,0.213807313515,0.001,-545.428766869,3100.0,0.0,3000.0,0.0
1513265120686807506,,504326,,1513265118,909017549,'',-0.25,-0.0366492773203,-0.0668558532158,0.21335072268,0.001,-464.015591881,3100.0,0.0,3000.0,0.0
1513265120696780363,,504327,,1513265118,919017549,'',-0.25,-0.0376662088211,-0.139097740579,0.212333791179,0.001,-229.108183654,3100.0,0.0,3000.0,0.0
1513265120706852730,,504328,,1513265118,929017549,'',-0.25,-0.0399194776322,-0.316258754228,0.210080522368,0.001,301.350212257,3100.0,0.0,3000.0,0.0
1513265120716750004,,504329,,1513265118,939017549,'',-0.25,-0.0444161824138,-0.550167751283,0.205583817586,0.001,550.0,3100.0,0.0,3000.0,0.0
1513265120727142036,,504330,,1513265118,949017549,'',-0.25,-0.0501439840177,-0.555070709087,0.199856015982,0.001,550.0,3100.0,0.0,3000.0,0.0
1513265120737203443,,504331,,1513265118,959017549,'',-0.25,-0.0551123521761,-0.454707307569,0.194887647824,0.001,550.0,3100.0,0.0,3000.0,0.0
1513265120747201465,,504332,,1513265118,969017549,'',-0.25,-0.0591378119732,-0.354830347455,0.190862188027,0.001,477.105710106,3100.0,0.0,3000.0,0.0
1513265120757126477,,504333,,1513265118,979017549,'',-0.25,-0.0621335811706,-0.257195415259,0.187866418829,0.001,175.969113729,3100.0,0.0,3000.0,0.0
1513265120767010206,,504334,,1513265118,989017549,'',-0.25,-0.0643583188542,-0.202973422922,0.185641681146,0.001,35.8976231617,3100.0,0.0,3000.0,0.0
1513265120776911620,,504335,,1513265118,999017549,'',-0.25,-0.0661556417203,-0.157387143759,0.18384435828,0.001,-94.8173431926,3100.0,0.0,3000.0,0.0
1513265120786923574,,504336,,1513265119,9017549,'',-0.25,-0.0676004861896,-0.128198206618,0.18239951381,0.001,-179.277230041,3100.0,0.0,3000.0,0.0
1513265120796822579,,504337,,1513265119,19017549,'',-0.25,-0.0687510086771,-0.104957332173,0.181248991323,0.001,-245.034722396,3100.0,0.0,3000.0,0.0
1513265120806782705,,504338,,1513265119,29017549,'',-0.25,-0.06966573105,-0.0772006661707,0.18033426895,0.001,-331.39517221,3100.0,0.0,3000.0,0.0
1513265120817222750,,504339,,1513265119,39017549,'',-0.25,-0.07040114955,-0.071626521393,0.17959885045,0.001,-340.595064324,3100.0,0.0,3000.0,0.0
1513265120827162148,,504340,,1513265119,49017549,'',-0.25,-0.0709674646285,-0.0509076401531,0.179032535371,0.001,-401.843540509,3100.0,0.0,3000.0,0.0
1513265120837013039,,504341,,1513265119,59017549,'',-0.25,-0.0713385170648,-0.0248562859872,0.178661482935,0.001,-478.837732749,3100.0,0.0,3000.0,0.0
1513265120846876731,,504342,,1513265119,69017549,'',-0.25,-0.0715703628158,-0.0201725248573,0.178429637184,0.001,-492.31166146,3100.0,0.0,3000.0,0.0
1513265120856921619,,504343,,1513265119,79017549,'',-0.25,-0.0717515400889,-0.0165125623388,0.178248459911,0.001,-502.927971117,3100.0,0.0,3000.0,0.0
1513265120867248218,,504344,,1513265119,89017549,'',-0.25,-0.0720479843654,-0.0569142131832,0.177952015635,0.001,-383.628046363,3100.0,0.0,3000.0,0.0
1513265120877190963,,504345,,1513265119,99017549,'',-0.25,-0.0732773770586,-0.208369888334,0.176722622941,0.001,79.183876073,3100.0,0.0,3000.0,0.0
1513265120887171412,,504346,,1513265119,109017549,'',-0.25,-0.0770383659963,-0.522085713051,0.172961634004,0.001,550.0,3100.0,0.0,3000.0,0.0
1513265120897064076,,504347,,1513265119,119017549,'',-0.25,-0.0835949706985,-0.714379556382,0.166405029302,0.001,550.0,3100.0,0.0,3000.0,0.0
1513265120906989684,,504348,,1513265119,129017549,'',-0.25,-0.0901775077203,-0.59995929771,0.15982249228,0.001,550.0,3100.0,0.0,3000.0,0.0
1513265120916872493,,504349,,1513265119,139017549,'',-0.25,-0.0955589230033,-0.491249475657,0.154441076997,0.001,550.0,3100.0,0.0,3000.0,0.0
1513265120926867379,,504350,,1513265119,149017549,'',-0.25,-0.0998648837278,-0.376426195697,0.150135116272,0.001,550.0,3100.0,0.0,3000.0,0.0
1513265120936810214,,504351,,1513265119,159017549,'',-0.25,-0.103114169071,-0.282948485118,0.146885830929,0.001,397.945957387,3100.0,0.0,3000.0,0.0
1513265120946805522,,504352,,1513265119,169017549,'',-0.25,-0.105611253257,-0.223226120491,0.144388746743,0.001,225.582188033,3100.0,0.0,3000.0,0.0
1513265120957190718,,504353,,1513265119,179017549,'',-0.25,-0.107589669974,-0.173980842994,0.142410330026,0.001,84.0880675688,3100.0,0.0,3000.0,0.0
1513265120967144076,,504354,,1513265119,189017549,'',-0.25,-0.109136584046,-0.133454419233,0.140863415954,0.001,-33.5412066384,3100.0,0.0,3000.0,0.0
1513265120977107223,,504355,,1513265119,199017549,'',-0.25,-0.110290857102,-0.100857776759,0.139709142898,0.001,-128.354723421,3100.0,0.0,3000.0,0.0
1513265120987080267,,504356,,1513265119,209017549,'',-0.25,-0.111152810489,-0.0741639375921,0.138847189511,0.001,-206.328414568,3100.0,0.0,3000.0,0.0
1513265120997004095,,504357,,1513265119,219017549,'',-0.25,-0.111835757775,-0.060366136978,0.138164242225,0.001,-246.071112274,3100.0,0.0,3000.0,0.0
1513265121007203383,,504358,,1513265119,229017549,'',-0.25,-0.112369603793,-0.0495831886454,0.137630396207,0.001,-276.969613713,3100.0,0.0,3000.0,0.0
1513265121016996781,,504359,,1513265119,239017549,'',-0.25,-0.112804874192,-0.0407870489247,0.137195125808,0.001,-304.903238066,3100.0,0.0,3000.0,0.0
1513265121026835647,,504360,,1513265119,249017549,'',-0.25,-0.113121054862,-0.034400295264,0.136878945138,0.001,-320.562329372,3100.0,0.0,3000.0,0.0
1513265121036780808,,504361,,1513265119,259017549,'',-0.25,-0.113379097349,-0.0199101565104,0.136620902651,0.001,-363.405649944,3100.0,0.0,3000.0,0.0
1513265121047185862,,504362,,1513265119,269017549,'',-0.25,-0.113574458307,-0.0159670381551,0.136425541693,0.001,-374.909105179,3100.0,0.0,3000.0,0.0
1513265121057185072,,504363,,1513265119,279017549,'',-0.25,-0.113717912599,-0.0130695913007,0.136282087401,0.001,-382.86483367,3100.0,0.0,3000.0,0.0
1513265121067056759,,504364,,1513265119,289017549,'',-0.25,-0.113818898829,-0.0110280350766,0.136181101171,0.001,-389.633928405,3100.0,0.0,3000.0,0.0
1513265121077043893,,504365,,1513265119,299017549,'',-0.25,-0.113858445494,-0.000950396446848,0.136141554506,0.001,-419.157372306,3100.0,0.0,3000.0,0.0
1513265121086978371,,504366,,1513265119,309017549,'',-0.25,-0.113917301781,-0.0090407677907,0.136082698219,0.001,-394.615221418,3100.0,0.0,3000.0,0.0
1513265121096948344,,504367,,1513265119,319017549,'',-0.25,-0.114087261194,-0.0334445142057,0.135912738806,0.001,-320.274321351,3100.0,0.0,3000.0,0.0
1513265121106865809,,504368,,1513265119,329017549,'',-0.25,-0.115057567331,-0.171570523011,0.134942432669,0.001,87.0784395113,3100.0,0.0,3000.0,0.0
1513265121116942269,,504369,,1513265119,339017549,'',-0.25,-0.117886449649,-0.383498328809,0.132113550351,0.001,550.0,3100.0,0.0,3000.0,0.0
1513265121127325554,,504370,,1513265119,349017549,'',-0.25,-0.122744640618,-0.526597721657,0.127255359382,0.001,550.0,3100.0,0.0,3000.0,0.0
1513265121137358372,,504371,,1513265119,359017549,'',-0.25,-0.127564004321,-0.438519024738,0.122435995679,0.001,550.0,3100.0,0.0,3000.0,0.0
1513265121147178196,,504372,,1513265119,369017549,'',-0.25,-0.131524132227,-0.367796555472,0.118475867773,0.001,550.0,3100.0,0.0,3000.0,0.0
1513265121157225521,,504373,,1513265119,379017549,'',-0.25,-0.134643108897,-0.276952943015,0.115356891103,0.001,463.203535345,3100.0,0.0,3000.0,0.0
1513265121167060065,,504374,,1513265119,389017549,'',-0.25,-0.136983390452,-0.201842115973,0.113016609548,0.001,241.146142437,3100.0,0.0,3000.0,0.0
1513265121176945534,,504375,,1513265119,399017549,'',-0.25,-0.138752145148,-0.15683267691,0.111247854852,0.001,128.891779686,3100.0,0.0,3000.0,0.0
1513265121186966076,,504376,,1513265119,409017549,'',-0.25,-0.140116774186,-0.119990456499,0.109883225814,0.001,20.7806405004,3100.0,0.0,3000.0,0.0
1513265121196985172,,504377,,1513265119,419017549,'',-0.25,-0.141168211344,-0.0987515495499,0.108831788656,0.001,-39.9374285334,3100.0,0.0,3000.0,0.0
1513265121206924027,,504378,,1513265119,429017549,'',-0.25,-0.141961023446,-0.0641801709297,0.108038976554,0.001,-147.270024091,3100.0,0.0,3000.0,0.0
1513265121216932110,,504379,,1513265119,439017549,'',-0.25,-0.14256329207,-0.0520165727618,0.10743670793,0.001,-179.550315442,3100.0,0.0,3000.0,0.0
1513265121226906900,,504380,,1513265119,449017549,'',-0.25,-0.143061260386,-0.0419538593002,0.106938739614,0.001,-205.029749075,3100.0,0.0,3000.0,0.0
1513265121237264167,,504381,,1513265119,459017549,'',-0.25,-0.14344684868,-0.0341635742083,0.10655315132,0.001,-227.31909433,3100.0,0.0,3000.0,0.0
1513265121247123673,,504382,,1513265119,469017549,'',-0.25,-0.143752916323,-0.027980245489,0.106247083677,0.001,-246.871004949,3100.0,0.0,3000.0,0.0
1513265121257076847,,504383,,1513265119,479017549,'',-0.25,-0.144004199251,-0.0229037044772,0.105995800749,0.001,-259.256030949,3100.0,0.0,3000.0,0.0
1513265121267106555,,504384,,1513265119,489017549,'',-0.25,-0.144192761351,-0.0190962746391,0.105807238649,0.001,-270.202854272,3100.0,0.0,3000.0,0.0
1513265121277041964,,504385,,1513265119,499017549,'',-0.25,-0.144363777489,-0.0156393992208,0.105636222511,0.001,-280.277952744,3100.0,0.0,3000.0,0.0
1513265121287177012,,504386,,1513265119,509017549,'',-0.25,-0.144478504629,-0.00404511618979,0.105521495371,0.001,-314.905695777,3100.0,0.0,3000.0,0.0
1513265121297025698,,504387,,1513265119,519017549,'',-0.25,-0.144558366674,-0.0117102932641,0.105441633326,0.001,-291.495455386,3100.0,0.0,3000.0,0.0
1513265121306982347,,504388,,1513265119,529017549,'',-0.25,-0.144620005909,-0.00118732911177,0.105379994091,0.001,-323.108694684,3100.0,0.0,3000.0,0.0
1513265121317011251,,504389,,1513265119,539017549,'',-0.25,-0.144662943831,-0.00031925627472,0.105337056169,0.001,-325.587794887,3100.0,0.0,3000.0,0.0
1513265121326929604,,504390,,1513265119,549017549,'',-0.25,-0.144691432529,0.000254883354914,0.105308567471,0.001,-327.237587092,3100.0,0.0,3000.0,0.0
1513265121336878410,,504391,,1513265119,559017549,'',-0.25,-0.144816985969,-0.025047272905,0.105183014031,0.001,-250.04869026,3100.0,0.0,3000.0,0.0
1513265121346866533,,504392,,1513265119,569017549,'',-0.25,-0.14535178445,-0.0884687468042,0.10464821555,0.001,-63.5749894386,3100.0,0.0,3000.0,0.0
1513265121357268972,,504393,,1513265119,579017549,'',-0.25,-0.146945161441,-0.223291934755,0.103054838559,0.001,355.180785281,3100.0,0.0,3000.0,0.0
1513265121366942773,,504394,,1513265119,589017549,'',-0.25,-0.149916988722,-0.339546289706,0.100083011278,0.001,550.0,3100.0,0.0,3000.0,0.0
1513265121376803015,,504395,,1513265119,599017549,'',-0.25,-0.153226125497,-0.309812337352,0.0967738745033,0.001,550.0,3100.0,0.0,3000.0,0.0
1513265121387251029,,504396,,1513265119,609017549,'',-0.25,-0.155984714238,-0.254086057614,0.0940152857617,0.001,458.621927898,3100.0,0.0,3000.0,0.0
1513265121397234854,,504397,,1513265119,619017549,'',-0.25,-0.158197744797,-0.190828314051,0.0918022552028,0.001,291.404232984,3100.0,0.0,3000.0,0.0
1513265121407161645,,504398,,1513265119,629017549,'',-0.25,-0.15982346966,-0.139426773463,0.0901765303396,0.001,139.984330059,3100.0,0.0,3000.0,0.0
1513265121417174511,,504399,,1513265119,639017549,'',-0.25,-0.160940035271,-0.0983112289395,0.0890599647286,0.001,21.2212632288,3100.0,0.0,3000.0,0.0
1513265121427228560,,504400,,1513265119,649017549,'',-0.25,-0.16176180547,-0.0724265386352,0.0882381945298,0.001,-59.5740280078,3100.0,0.0,3000.0,0.0
1513265121437187922,,504401,,1513265119,659017549,'',-0.25,-0.162403039426,-0.0501956741204,0.087596960574,0.001,-123.55621998,3100.0,0.0,3000.0,0.0
1513265121447019854,,504402,,1513265119,669017549,'',-0.25,-0.162895181091,-0.0495322425834,0.0871048189091,0.001,-120.981663697,3100.0,0.0,3000.0,0.0
1513265121457050449,,504403,,1513265119,679017549,'',-0.25,-0.163264893133,-0.0327835885872,0.0867351068667,0.001,-169.827800964,3100.0,0.0,3000.0,0.0
1513265121466984769,,504404,,1513265119,689017549,'',-0.25,-0.163542504467,-0.0271781731766,0.0864574955325,0.001,-187.894493867,3100.0,0.0,3000.0,0.0
1513265121476974639,,504405,,1513265119,699017549,'',-0.25,-0.163786522583,-0.0222480032609,0.086213477417,0.001,-200.130036653,3100.0,0.0,3000.0,0.0
1513265121486835685,,504406,,1513265119,709017549,'',-0.25,-0.16397850202,-0.0183715038622,0.0860214979802,0.001,-211.344982434,3100.0,0.0,3000.0,0.0
1513265121496743325,,504407,,1513265119,719017549,'',-0.25,-0.164134434782,-0.0152208731095,0.0858655652182,0.001,-220.206814711,3100.0,0.0,3000.0,0.0
1513265121507268653,,504408,,1513265119,729017549,'',-0.25,-0.164270766864,-0.0124660190285,0.0857292331359,0.001,-228.933790505,3100.0,0.0,3000.0,0.0
1513265121517099702,,504409,,1513265119,739017549,'',-0.25,-0.164358020311,-0.0107047486705,0.085641979689,0.001,-233.26128779,3100.0,0.0,3000.0,0.0
1513265121527079567,,504410,,1513265119,749017549,'',-0.25,-0.164445638694,-0.00893395615484,0.0855543613063,0.001,-238.372660369,3100.0,0.0,3000.0,0.0
1513265121536977667,,504411,,1513265119,759017549,'',-0.25,-0.16450866882,-0.00765335087522,0.0854913311801,0.001,-242.519472123,3100.0,0.0,3000.0,0.0
1513265121546954436,,504412,,1513265119,769017549,'',-0.25,-0.164545804667,-0.00690217945,0.0854541953328,0.001,-244.040531186,3100.0,0.0,3000.0,0.0
1513265121556814806,,504413,,1513265119,779017549,'',-0.25,-0.164607692831,-0.00565272553924,0.0853923071687,0.001,-247.662953203,3100.0,0.0,3000.0,0.0
1513265121566799747,,504414,,1513265119,789017549,'',-0.25,-0.164746168496,-0.0306895466749,0.0852538315039,0.001,-171.657018656,3100.0,0.0,3000.0,0.0
1513265121577236835,,504415,,1513265119,799017549,'',-0.25,-0.165290964107,-0.08463463013,0.084709035893,0.001,-6.38070397631,3100.0,0.0,3000.0,0.0
1513265121587188917,,504416,,1513265119,809017549,'',-0.25,-0.166572285464,-0.170087300166,0.0834277145362,0.001,243.387021495,3100.0,0.0,3000.0,0.0
1513265121597085400,,504417,,1513265119,819017549,'',-0.25,-0.168662674162,-0.229923278911,0.0813373258376,0.001,440.41158995,3100.0,0.0,3000.0,0.0
1513265121607048726,,504418,,1513265119,829017549,'',-0.25,-0.170828383518,-0.195450998957,0.079171616482,0.001,324.941779676,3100.0,0.0,3000.0,0.0
1513265121617045343,,504419,,1513265119,839017549,'',-0.25,-0.172631852515,-0.159017622512,0.0773681474853,0.001,241.10113331,3100.0,0.0,3000.0,0.0
1513265121627246761,,504420,,1513265119,849017549,'',-0.25,-0.174067329059,-0.130021846397,0.0759326709408,0.001,156.722131432,3100.0,0.0,3000.0,0.0
1513265121637107921,,504421,,1513265119,859017549,'',-0.25,-0.175206360957,-0.0977359140878,0.0747936390428,0.001,57.1631071638,3100.0,0.0,3000.0,0.0
1513265121647174514,,504422,,1513265119,869017549,'',-0.25,-0.176040232169,-0.071613886215,0.0739597678306,0.001,-13.5725296862,3100.0,0.0,3000.0,0.0
1513265121656875355,,504423,,1513265119,879017549,'',-0.25,-0.176574202809,-0.0422670211901,0.0734257971914,0.001,-99.9054269543,3100.0,0.0,3000.0,0.0
1513265121667296282,,504424,,1513265119,889017549,'',-0.25,-0.176927576917,-0.0258526560169,0.0730724230827,0.001,-148.805579756,3100.0,0.0,3000.0,0.0
1513265121677087608,,504425,,1513265119,899017549,'',-0.25,-0.177166143114,-0.0210293371473,0.072833856886,0.001,-163.587492554,3100.0,0.0,3000.0,0.0
1513265121687047618,,504426,,1513265119,909017549,'',-0.25,-0.177354958494,-0.0172156443859,0.0726450415058,0.001,-173.286697609,3100.0,0.0,3000.0,0.0
1513265121697020833,,504427,,1513265119,919017549,'',-0.25,-0.177483786474,-0.00533107974062,0.0725162135256,0.001,-208.703868169,3100.0,0.0,3000.0,0.0
1513265121707039882,,504428,,1513265119,929017549,'',-0.25,-0.177598920112,-0.0122867677986,0.0724010798883,0.001,-187.424679145,3100.0,0.0,3000.0,0.0
1513265121717079508,,504429,,1513265119,939017549,'',-0.25,-0.177675600992,-0.00146130044791,0.0723243990077,0.001,-219.675262909,3100.0,0.0,3000.0,0.0
1513265121726720569,,504430,,1513265119,949017549,'',-0.25,-0.177755193533,-0.00912691395123,0.0722448064671,0.001,-196.449108523,3100.0,0.0,3000.0,0.0
1513265121737207793,,504431,,1513265119,959017549,'',-0.25,-0.177837205168,-0.00747131083007,0.072162794832,0.001,-201.050041423,3100.0,0.0,3000.0,0.0
1513265121747003062,,504432,,1513265119,969017549,'',-0.25,-0.177896514653,-0.00627570884223,0.0721034853475,0.001,-204.605540959,3100.0,0.0,3000.0,0.0
1513265121756997884,,504433,,1513265119,979017549,'',-0.25,-0.177971123149,-0.0140500431744,0.0720288768512,0.001,-179.986530804,3100.0,0.0,3000.0,0.0
1513265121766968341,,504434,,1513265119,989017549,'',-0.25,-0.178131842265,-0.020084229877,0.0718681577355,0.001,-163.697853674,3100.0,0.0,3000.0,0.0
1513265121776934461,,504435,,1513265119,999017549,'',-0.25,-0.178551710229,-0.0579984546037,0.0714482897714,0.001,-46.1036013027,3100.0,0.0,3000.0,0.0
1513265121786986871,,504436,,1513265120,9017549,'',-0.25,-0.179366307375,-0.106490881785,0.0706336926246,0.001,108.544806908,3100.0,0.0,3000.0,0.0
1513265121796943952,,504437,,1513265120,19017549,'',-0.25,-0.180630285796,-0.136626202929,0.0693697142038,0.001,197.254077384,3100.0,0.0,3000.0,0.0
1513265121806751550,,504438,,1513265120,29017549,'',-0.25,-0.182034411168,-0.12681487527,0.0679655888325,0.001,171.640237626,3100.0,0.0,3000.0,0.0
1513265121817334045,,504439,,1513265120,39017549,'',-0.25,-0.183221113114,-0.112119500896,0.0667788868858,0.001,124.941312077,3100.0,0.0,3000.0,0.0
1513265121826768655,,504440,,1513265120,49017549,'',-0.25,-0.184202162619,-0.0830229085516,0.0657978373811,0.001,43.8120060483,3100.0,0.0,3000.0,0.0
1513265121837309824,,504441,,1513265120,59017549,'',-0.25,-0.184998340842,-0.0762164620556,0.065001659158,0.001,28.2810882924,3100.0,0.0,3000.0,0.0
1513265121847277320,,504442,,1513265120,69017549,'',-0.25,-0.185665478858,-0.0627413017094,0.0643345211418,0.001,-9.92090393616,3100.0,0.0,3000.0,0.0
1513265121857200741,,504443,,1513265120,79017549,'',-0.25,-0.186220227786,-0.0515342848915,0.0637797722138,0.001,-41.8673685374,3100.0,0.0,3000.0,0.0
1513265121867169233,,504444,,1513265120,89017549,'',-0.25,-0.186650159847,-0.0335704334082,0.0633498401525,0.001,-94.6444732211,3100.0,0.0,3000.0,0.0
1513265121877121481,,504445,,1513265120,99017549,'',-0.25,-0.186991829824,-0.0359494998786,0.063008170176,0.001,-86.5131752513,3100.0,0.0,3000.0,0.0
1513265121887026462,,504446,,1513265120,109017549,'',-0.25,-0.187297956067,-0.0297641121972,0.0627020439328,0.001,-104.564630126,3100.0,0.0,3000.0,0.0
1513265121897057070,,504447,,1513265120,119017549,'',-0.25,-0.18755623697,-0.0245459940707,0.0624437630299,0.001,-119.421250741,3100.0,0.0,3000.0,0.0
1513265121906869114,,504448,,1513265120,129017549,'',-0.25,-0.187750906946,-0.0206119024738,0.0622490930544,0.001,-132.069643181,3100.0,0.0,3000.0,0.0
1513265121916961718,,504449,,1513265120,139017549,'',-0.25,-0.187893719743,-0.00844795140851,0.0621062802573,0.001,-167.038973542,3100.0,0.0,3000.0,0.0
1513265121926809312,,504450,,1513265120,149017549,'',-0.25,-0.188011111966,-0.00607975046346,0.0619888880336,0.001,-173.809863586,3100.0,0.0,3000.0,0.0
1513265121936829496,,504451,,1513265120,159017549,'',-0.25,-0.188114317404,-0.00399609262235,0.061885682596,0.001,-179.777789622,3100.0,0.0,3000.0,0.0
1513265121947175085,,504452,,1513265120,169017549,'',-0.25,-0.188224749766,-0.0110430479589,0.0617752502345,0.001,-158.926580283,3100.0,0.0,3000.0,0.0
1513265121957279109,,504453,,1513265120,179017549,'',-0.25,-0.188307084493,-0.000101753537965,0.0616929155068,0.001,-190.958377707,3100.0,0.0,3000.0,0.0
1513265121967299786,,504454,,1513265120,189017549,'',-0.25,-0.188477862452,-0.0244854417546,0.0615221375483,0.001,-116.979169917,3100.0,0.0,3000.0,0.0
1513265121977226977,,504455,,1513265120,199017549,'',-0.25,-0.188962556231,-0.0610858909384,0.0610374437688,0.001,-5.05672683271,3100.0,0.0,3000.0,0.0
1513265121987332896,,504456,,1513265120,209017549,'',-0.25,-0.189920500858,-0.115961402648,0.0600794991421,0.001,163.443933963,3100.0,0.0,3000.0,0.0
1513265121997050163,,504457,,1513265120,219017549,'',-0.25,-0.191164901186,-0.118658564762,0.0588350988139,0.001,176.119788812,3100.0,0.0,3000.0,0.0
1513265122007427093,,504458,,1513265120,229017549,'',-0.25,-0.192244003208,-0.0968598217593,0.0577559967923,0.001,112.689658685,3100.0,0.0,3000.0,0.0
1513265122017791238,,504459,,1513265120,239017549,'',-0.25,-0.193130025047,-0.0789583877765,0.0568699749534,0.001,61.7521247135,3100.0,0.0,3000.0,0.0
1513265122027453953,,504460,,1513265120,249017549,'',-0.25,-0.193855707479,-0.0642999023107,0.0561442925214,0.001,19.9890919648,3100.0,0.0,3000.0,0.0
1513265122037199861,,504461,,1513265120,259017549,'',-0.25,-0.194467317798,-0.0612247084593,0.0555326822017,0.001,12.5993957104,3100.0,0.0,3000.0,0.0
1513265122047051175,,504462,,1513265120,269017549,'',-0.25,-0.194999142744,-0.0504801814369,0.0550008572564,0.001,-22.0027260095,3100.0,0.0,3000.0,0.0
1513265122056900701,,504463,,1513265120,279017549,'',-0.25,-0.195402413133,-0.0330503881343,0.0545975868669,0.001,-71.7066519026,3100.0,0.0,3000.0,0.0
1513265122066901898,,504464,,1513265120,289017549,'',-0.25,-0.195731887666,-0.0263964510374,0.0542681123342,0.001,-88.7276184265,3100.0,0.0,3000.0,0.0
1513265122077209482,,504465,,1513265120,299017549,'',-0.25,-0.195993595515,-0.0211092068556,0.0540064044848,0.001,-103.718636709,3100.0,0.0,3000.0,0.0
1513265122087209542,,504466,,1513265120,309017549,'',-0.25,-0.196233232659,-0.0162674866646,0.0537667673407,0.001,-117.491081241,3100.0,0.0,3000.0,0.0
1513265122097081202,,504467,,1513265120,319017549,'',-0.25,-0.196412581374,-0.021923044127,0.0535874186259,0.001,-99.8196655021,3100.0,0.0,3000.0,0.0
1513265122107022438,,504468,,1513265120,329017549,'',-0.25,-0.196568045623,-0.0187807934953,0.0534319543768,0.001,-110.43685445,3100.0,0.0,3000.0,0.0
1513265122116922130,,504469,,1513265120,339017549,'',-0.25,-0.196694163322,-0.00695207486527,0.0533058366782,0.001,-144.718872961,3100.0,0.0,3000.0,0.0
1513265122126828356,,504470,,1513265120,349017549,'',-0.25,-0.196815555083,-0.0137791204945,0.0531844449172,0.001,-123.240246692,3100.0,0.0,3000.0,0.0
1513265122137236651,,504471,,1513265120,359017549,'',-0.25,-0.196907178661,-0.0119289284896,0.0530928213389,0.001,-128.538724012,3100.0,0.0,3000.0,0.0
1513265122147231797,,504472,,1513265120,369017549,'',-0.25,-0.196988448933,-0.0102893336523,0.053011551067,0.001,-133.306788749,3100.0,0.0,3000.0,0.0
1513265122157142155,,504473,,1513265120,379017549,'',-0.25,-0.197063089378,-0.00878160389483,0.0529369106221,0.001,-137.62254921,3100.0,0.0,3000.0,0.0
1513265122167077939,,504474,,1513265120,389017549,'',-0.25,-0.197133636577,-0.00735460464967,0.0528663634225,0.001,-141.813243843,3100.0,0.0,3000.0,0.0
1513265122177039344,,504475,,1513265120,399017549,'',-0.25,-0.197328226076,-0.0312562845514,0.0526717739237,0.001,-68.8301663883,3100.0,0.0,3000.0,0.0
1513265122186966766,,504476,,1513265120,409017549,'',-0.25,-0.197850537783,-0.0763764413944,0.0521494622174,0.001,68.8384318146,3100.0,0.0,3000.0,0.0
1513265122196846020,,504477,,1513265120,419017549,'',-0.25,-0.198767542669,-0.104246122005,0.0512324573309,0.001,155.479176031,3100.0,0.0,3000.0,0.0
1513265122207233114,,504478,,1513265120,429017549,'',-0.25,-0.199746870019,-0.0937394525403,0.0502531299812,0.001,126.842094564,3100.0,0.0,3000.0,0.0
1513265122217173781,,504479,,1513265120,439017549,'',-0.25,-0.200554726454,-0.0681406916544,0.0494452735463,0.001,52.8091596786,3100.0,0.0,3000.0,0.0
1513265122227151863,,504480,,1513265120,449017549,'',-0.25,-0.20124832057,-0.0634070310601,0.0487516794295,0.001,40.0949479541,3100.0,0.0,3000.0,0.0
1513265122237140103,,504481,,1513265120,459017549,'',-0.25,-0.201809808339,-0.0520646257593,0.0481901916607,0.001,7.59173037501,3100.0,0.0,3000.0,0.0
1513265122247105921,,504482,,1513265120,469017549,'',-0.25,-0.202277278876,-0.0426216340561,0.0477227211239,0.001,-19.276923823,3100.0,0.0,3000.0,0.0
1513265122257003083,,504483,,1513265120,479017549,'',-0.25,-0.202669299294,-0.0439822590984,0.0473307007058,0.001,-13.1646721639,3100.0,0.0,3000.0,0.0
1513265122266826858,,504484,,1513265120,489017549,'',-0.25,-0.202980145595,-0.0284238958392,0.047019854405,0.001,-61.8472472116,3100.0,0.0,3000.0,0.0
1513265122277238124,,504485,,1513265120,499017549,'',-0.25,-0.203235367855,-0.0232683043258,0.0467646321447,0.001,-74.4611936519,3100.0,0.0,3000.0,0.0
1513265122287237125,,504486,,1513265120,509017549,'',-0.25,-0.203444184901,-0.0190501166582,0.0465558150985,0.001,-86.9402184497,3100.0,0.0,3000.0,0.0
1513265122297126814,,504487,,1513265120,519017549,'',-0.25,-0.203606323307,-0.0157751546053,0.0463936766932,0.001,-96.1551624242,3100.0,0.0,3000.0,0.0
1513265122307016358,,504488,,1513265120,529017549,'',-0.25,-0.203739344451,-0.0130898027015,0.0462606555491,0.001,-104.816974236,3100.0,0.0,3000.0,0.0
1513265122316924121,,504489,,1513265120,539017549,'',-0.25,-0.20385688424,-0.0107150843705,0.0461431157601,0.001,-110.672020488,3100.0,0.0,3000.0,0.0
1513265122327190573,,504490,,1513265120,549017549,'',-0.25,-0.203953038154,-0.00877243614709,0.0460469618461,0.001,-116.299969828,3100.0,0.0,3000.0,0.0
1513265122337139607,,504491,,1513265120,559017549,'',-0.25,-0.20403181696,-0.00718082638472,0.0459681830397,0.001,-120.744918037,3100.0,0.0,3000.0,0.0
1513265122347151470,,504492,,1513265120,569017549,'',-0.25,-0.204096244416,-0.00587916453257,0.0459037555842,0.001,-124.578161526,3100.0,0.0,3000.0,0.0
1513265122357032265,,504493,,1513265120,579017549,'',-0.25,-0.204148912491,-0.00481508362938,0.0458510875085,0.001,-127.605303285,3100.0,0.0,3000.0,0.0
1513265122367029461,,504494,,1513265120,589017549,'',-0.25,-0.2041921495,-0.00394154354471,0.0458078504998,0.001,-130.13344766,3100.0,0.0,3000.0,0.0
1513265122376968767,,504495,,1513265120,599017549,'',-0.25,-0.204253343399,-0.0119819564219,0.0457466566013,0.001,-105.572892081,3100.0,0.0,3000.0,0.0
1513265122386948419,,504496,,1513265120,609017549,'',-0.25,-0.204462801682,-0.0263064556116,0.045537198318,0.001,-63.5938089512,3100.0,0.0,3000.0,0.0
1513265122396949346,,504497,,1513265120,619017549,'',-0.25,-0.204854169468,-0.0462413380476,0.0451458305318,0.001,0.455374642734,3100.0,0.0,3000.0,0.0
1513265122406968157,,504498,,1513265120,629017549,'',-0.25,-0.205445492678,-0.0621281553189,0.0445545073224,0.001,49.2378674691,3100.0,0.0,3000.0,0.0
1513265122417299888,,504499,,1513265120,639017549,'',-0.25,-0.206012311643,-0.0599565201282,0.043987688357,0.001,44.5746625397,3100.0,0.0,3000.0,0.0
1513265122427332262,,504500,,1513265120,649017549,'',-0.25,-0.206492430012,-0.050255483515,0.043507569988,0.001,16.7928741962,3100.0,0.0,3000.0,0.0
1513265122437042319,,504501,,1513265120,659017549,'',-0.25,-0.206918572005,-0.0416477210403,0.0430814279947,0.001,-7.86560051361,3100.0,0.0,3000.0,0.0
1513265122447067715,,504502,,1513265120,669017549,'',-0.25,-0.207291647836,-0.0341111239031,0.0427083521638,0.001,-31.6957288738,3100.0,0.0,3000.0,0.0
1513265122456859598,,504503,,1513265120,679017549,'',-0.25,-0.207589790643,-0.0280901056615,0.0424102093569,0.001,-48.4705442126,3100.0,0.0,3000.0,0.0
1513265122467188433,,504504,,1513265120,689017549,'',-0.25,-0.207859924462,-0.031910182552,0.0421400755383,0.001,-34.427866689,3100.0,0.0,3000.0,0.0
1513265122477155395,,504505,,1513265120,699017549,'',-0.25,-0.208063033144,-0.0185282421555,0.0419369668558,0.001,-74.035673503,3100.0,0.0,3000.0,0.0
1513265122487115110,,504506,,1513265120,709017549,'',-0.25,-0.208253636912,-0.0146777185145,0.0417463630879,0.001,-85.2032435033,3100.0,0.0,3000.0,0.0
1513265122497055247,,504507,,1513265120,719017549,'',-0.25,-0.208417882641,-0.0113607644355,0.0415821173591,0.001,-94.6223951296,3100.0,0.0,3000.0,0.0
1513265122506988070,,504508,,1513265120,729017549,'',-0.25,-0.208536376335,-0.00896671642924,0.041463623665,0.001,-102.074828239,3100.0,0.0,3000.0,0.0
1513265122516943503,,504509,,1513265120,739017549,'',-0.25,-0.208658102366,-0.0157862428833,0.0413418976342,0.001,-80.6586360854,3100.0,0.0,3000.0,0.0
1513265122526871227,,504510,,1513265120,749017549,'',-0.25,-0.2087500407,-0.0139290292052,0.0412499593003,0.001,-85.8819913705,3100.0,0.0,3000.0,0.0
1513265122537325075,,504511,,1513265120,759017549,'',-0.25,-0.208824558041,-0.00314363637772,0.0411754419589,0.001,-117.808990202,3100.0,0.0,3000.0,0.0
1513265122547158706,,504512,,1513265120,769017549,'',-0.25,-0.208879065152,-0.0113232631498,0.0411209348477,0.001,-93.3076680603,3100.0,0.0,3000.0,0.0
1513265122557041458,,504513,,1513265120,779017549,'',-0.25,-0.20890566659,-0.00150848547986,0.0410943334096,0.001,-122.860804545,3100.0,0.0,3000.0,0.0
1513265122567027660,,504514,,1513265120,789017549,'',-0.25,-0.208994836935,-0.00898359279679,0.0410051630651,0.001,-99.9483247276,3100.0,0.0,3000.0,0.0
1513265122576927803,,504515,,1513265120,799017549,'',-0.25,-0.209126926678,-0.0155934770991,0.0408730733218,0.001,-78.4659879438,3100.0,0.0,3000.0,0.0
1513265122586713816,,504516,,1513265120,809017549,'',-0.25,-0.209343569091,-0.0297744551021,0.0406564309094,0.001,-36.269575286,3100.0,0.0,3000.0,0.0
1513265122597238984,,504517,,1513265120,819017549,'',-0.25,-0.209670889203,-0.0324407175654,0.040329110797,0.001,-27.0994887951,3100.0,0.0,3000.0,0.0
1513265122607204608,,504518,,1513265120,829017549,'',-0.25,-0.210037578358,-0.0343139786123,0.0399624216422,0.001,-20.4395514117,3100.0,0.0,3000.0,0.0
1513265122617116804,,504519,,1513265120,839017549,'',-0.25,-0.2103542963,-0.027914908407,0.0396457036997,0.001,-38.4049251169,3100.0,0.0,3000.0,0.0
1513265122627180579,,504520,,1513265120,849017549,'',-0.25,-0.210654331454,-0.0311301768847,0.0393456685456,0.001,-30.0964463391,3100.0,0.0,3000.0,0.0
1513265122637036773,,504521,,1513265120,859017549,'',-0.25,-0.210925847227,-0.0256451541353,0.0390741527734,0.001,-45.3689607451,3100.0,0.0,3000.0,0.0
1513265122646992103,,504522,,1513265120,869017549,'',-0.25,-0.211164289876,-0.020828506054,0.0388357101237,0.001,-57.7769043921,3100.0,0.0,3000.0,0.0
1513265122657032915,,504523,,1513265120,879017549,'',-0.25,-0.211360219931,-0.0168741772772,0.0386397800686,0.001,-68.9100917707,3100.0,0.0,3000.0,0.0
1513265122666993075,,504524,,1513265120,889017549,'',-0.25,-0.211543369688,-0.0131693985339,0.0384566303117,0.001,-79.547508794,3100.0,0.0,3000.0,0.0
1513265122676981221,,504525,,1513265120,899017549,'',-0.25,-0.211694716738,-0.0193927295536,0.0383052832618,0.001,-61.6848931266,3100.0,0.0,3000.0,0.0
1513265122686853981,,504526,,1513265120,909017549,'',-0.25,-0.211810183657,-0.00778688179193,0.0381898163435,0.001,-95.9667049713,3100.0,0.0,3000.0,0.0
1513265122697325811,,504527,,1513265120,919017549,'',-0.25,-0.211906884337,-0.015125621455,0.0380931156635,0.001,-71.3480517939,3100.0,0.0,3000.0,0.0
1513265122707288209,,504528,,1513265120,929017549,'',-0.25,-0.21201762087,-0.0128802996483,0.0379823791301,0.001,-78.9500598249,3100.0,0.0,3000.0,0.0
1513265122717189137,,504529,,1513265120,939017549,'',-0.25,-0.212100670792,-0.0111998500372,0.037899329208,0.001,-83.815526531,3100.0,0.0,3000.0,0.0
1513265122726990922,,504530,,1513265120,949017549,'',-0.25,-0.212184410862,-0.00950651772959,0.0378155891378,0.001,-89.1129916799,3100.0,0.0,3000.0,0.0
1513265122736930192,,504531,,1513265120,959017549,'',-0.25,-0.212269663748,-0.00778279746618,0.0377303362524,0.001,-93.9409594951,3100.0,0.0,3000.0,0.0
1513265122746840868,,504532,,1513265120,969017549,'',-0.25,-0.212357588342,-0.0152841507305,0.0376424116583,0.001,-70.4405934883,3100.0,0.0,3000.0,0.0
1513265122756942728,,504533,,1513265120,979017549,'',-0.25,-0.212445545633,-0.0135077835142,0.0375544543674,0.001,-75.7517416906,3100.0,0.0,3000.0,0.0
1513265122767254115,,504534,,1513265120,989017549,'',-0.25,-0.212542312512,-0.00227092989251,0.037457687488,0.001,-109.273868366,3100.0,0.0,3000.0,0.0
1513265122777114162,,504535,,1513265120,999017549,'',-0.25,-0.212645566476,-0.00946199265888,0.0373544335237,0.001,-87.7330409711,3100.0,0.0,3000.0,0.0
1513265122787119480,,504536,,1513265121,9017549,'',-0.25,-0.212772023899,-0.0069107279638,0.0372279761014,0.001,-94.5402413338,3100.0,0.0,3000.0,0.0
1513265122796876601,,504537,,1513265121,19017549,'',-0.25,-0.212909368113,-0.0134129404222,0.0370906318869,0.001,-74.4729803606,3100.0,0.0,3000.0,0.0
1513265122806903158,,504538,,1513265121,29017549,'',-0.25,-0.21302974161,-0.0109806987832,0.0369702583897,0.001,-81.5405382325,3100.0,0.0,3000.0,0.0
1513265122816681337,,504539,,1513265121,39017549,'',-0.25,-0.213162111675,-0.0175851868549,0.0368378883254,0.001,-62.3042929439,3100.0,0.0,3000.0,0.0
1513265122826720175,,504540,,1513265121,49017549,'',-0.25,-0.213287954877,-0.0150409360346,0.0367120451229,0.001,-68.4611189409,3100.0,0.0,3000.0,0.0
1513265122837167487,,504541,,1513265121,59017549,'',-0.25,-0.213422952407,-0.0123137159356,0.0365770475931,0.001,-76.3359660075,3100.0,0.0,3000.0,0.0
1513265122846768213,,504542,,1513265121,69017549,'',-0.25,-0.213533510276,-0.0100802258561,0.0364664897236,0.001,-82.597449214,3100.0,0.0,3000.0,0.0
1513265122857308273,,504543,,1513265121,79017549,'',-0.25,-0.213640850546,-0.00791352105186,0.0363591494542,0.001,-88.8320512142,3100.0,0.0,3000.0,0.0
1513265122867229929,,504544,,1513265121,89017549,'',-0.25,-0.213728345742,-0.0154247827422,0.0362716542578,0.001,-66.9136139972,3100.0,0.0,3000.0,0.0
1513265122877140443,,504545,,1513265121,99017549,'',-0.25,-0.213834087338,-0.0132912361522,0.036165912662,0.001,-71.8937090095,3100.0,0.0,3000.0,0.0
1513265122887038547,,504546,,1513265121,109017549,'',-0.25,-0.213936049809,-0.0112301928306,0.0360639501907,0.001,-77.95095494,3100.0,0.0,3000.0,0.0
1513265122896978487,,504547,,1513265121,119017549,'',-0.25,-0.214021286555,-0.00950797255163,0.0359787134453,0.001,-82.8438206416,3100.0,0.0,3000.0,0.0
