rosbagTimestamp,header,seq,stamp,secs,nsecs,frame_id,set_point,process_value,process_value_dot,error,time_step,command,p,i,d,i_clamp
1513267172733400514,,709519,,1513267170,915445376,'',1.36135681656,1.3537094375,0.00919457480714,0.0,0.001,0.0,4300.0,0.0,0.0,0.0
1513267172743360012,,709520,,1513267170,925445376,'',1.36135681656,1.35232180824,-0.0179497467822,0.0,0.001,0.0,4300.0,0.0,0.0,0.0
1513267172753501575,,709521,,1513267170,935445376,'',1.36135681656,1.3537094375,0.0102817608909,0.0,0.001,0.0,4300.0,0.0,0.0,0.0
1513267172763336211,,709522,,1513267170,945445376,'',1.36135681656,1.35232180824,-0.0185816132675,0.0,0.001,0.0,4300.0,0.0,0.0,0.0
1513267172773420323,,709523,,1513267170,955445376,'',1.36135681656,1.35232180824,-0.0177312668673,0.0,0.001,0.0,4300.0,0.0,0.0,0.0
1513267172783292801,,709524,,1513267170,965445376,'',1.36135681656,1.35232180824,-0.0190949611544,0.0,0.001,0.0,4300.0,0.0,0.0,0.0
1513267172793730399,,709525,,1513267170,975445376,'',1.36135681656,1.3537094375,0.00729164063432,0.0,0.001,0.0,4300.0,0.0,0.0,0.0
1513267172803535751,,709526,,1513267170,985445376,'',1.36135681656,1.35232180824,-0.0205201688993,0.0,0.001,0.0,4300.0,0.0,0.0,0.0
1513267172813591533,,709527,,1513267170,995445376,'',1.36135681656,1.35232180824,-0.0192511755071,0.0,0.001,0.0,4300.0,0.0,0.0,0.0
1513267172823521101,,709528,,1513267171,5445376,'',1.36135681656,1.3537094375,0.00918221432588,0.0,0.001,0.0,4300.0,0.0,0.0,0.0
1513267172833396013,,709529,,1513267171,15445376,'',1.36135681656,1.35232180824,-0.0193860369434,0.0,0.001,0.0,4300.0,0.0,0.0,0.0
1513267172843291579,,709530,,1513267171,25445376,'',1.36135681656,1.3537094375,0.00758830453595,0.0,0.001,0.0,4300.0,0.0,0.0,0.0
1513267172853274379,,709531,,1513267171,35445376,'',1.36135681656,1.3537094375,0.00923130891968,0.0,0.001,0.0,4300.0,0.0,0.0,0.0
1513267172863160181,,709532,,1513267171,45445376,'',1.36135681656,1.3537094375,0.00856060591979,0.0,0.001,0.0,4300.0,0.0,0.0,0.0
1513267172873227126,,709533,,1513267171,55445376,'',1.36135681656,1.35232180824,-0.0169553176579,0.0,0.001,0.0,4300.0,0.0,0.0,0.0
1513267172883662150,,709534,,1513267171,65445376,'',1.36135681656,1.35232180824,-0.0184078164933,0.0,0.001,0.0,4300.0,0.0,0.0,0.0
1513267172893962872,,709535,,1513267171,75445376,'',1.36135681656,1.35232180824,-0.0184971606518,0.0,0.001,0.0,4300.0,0.0,0.0,0.0
1513267172903331498,,709536,,1513267171,85445376,'',1.36135681656,1.35232180824,-0.0181255032336,0.0,0.001,0.0,4300.0,0.0,0.0,0.0
1513267172913267081,,709537,,1513267171,95445376,'',1.36135681656,1.35232180824,-0.017874531643,0.0,0.001,0.0,4300.0,0.0,0.0,0.0
1513267172923303238,,709538,,1513267171,105445376,'',1.36135681656,1.3537094375,0.0103172112357,0.0,0.001,0.0,4300.0,0.0,0.0,0.0
1513267172933691541,,709539,,1513267171,115445376,'',1.36135681656,1.35232180824,-0.0190036861945,0.0,0.001,0.0,4300.0,0.0,0.0,0.0
1513267172943622589,,709540,,1513267171,125445376,'',1.36135681656,1.35232180824,-0.0185154441197,0.0,0.001,0.0,4300.0,0.0,0.0,0.0
1513267172953559289,,709541,,1513267171,135445376,'',1.36135681656,1.3537094375,0.0077744354024,0.0,0.001,0.0,4300.0,0.0,0.0,0.0
1513267172963695195,,709542,,1513267171,145445376,'',1.36135681656,1.35509706676,0.0364301956337,0.0,0.001,0.0,4300.0,0.0,0.0,0.0
1513267172973557120,,709543,,1513267171,155445376,'',1.36135681656,1.3537094375,0.00840764714882,0.0,0.001,0.0,4300.0,0.0,0.0,0.0
1513267172983490059,,709544,,1513267171,165445376,'',1.36135681656,1.35232180824,-0.0175968575694,0.0,0.001,0.0,4300.0,0.0,0.0,0.0
1513267172993489625,,709545,,1513267171,175445376,'',1.36135681656,1.35232180824,-0.0164919398927,0.0,0.001,0.0,4300.0,0.0,0.0,0.0
1513267173003372329,,709546,,1513267171,185445376,'',1.36135681656,1.35232180824,-0.0145411863287,0.0,0.001,0.0,4300.0,0.0,0.0,0.0
1513267173013333143,,709547,,1513267171,195445376,'',1.36135681656,1.3537094375,0.0135389734084,0.0,0.001,0.0,4300.0,0.0,0.0,0.0
1513267173023589579,,709548,,1513267171,205445376,'',1.36135681656,1.3537094375,0.0111704490356,0.0,0.001,0.0,4300.0,0.0,0.0,0.0
1513267173033453588,,709549,,1513267171,215445376,'',1.36135681656,1.35232180824,-0.016280300585,0.0,0.001,0.0,4300.0,0.0,0.0,0.0
1513267173043527994,,709550,,1513267171,225445376,'',1.36135681656,1.35232180824,-0.0173645214653,0.0,0.001,0.0,4300.0,0.0,0.0,0.0
1513267173053411994,,709551,,1513267171,235445376,'',1.36135681656,1.3537094375,0.0107854439196,0.0,0.001,0.0,4300.0,0.0,0.0,0.0
1513267173063505606,,709552,,1513267171,245445376,'',1.36135681656,1.35509706676,0.0383570919813,0.0,0.001,0.0,4300.0,0.0,0.0,0.0
1513267173073466329,,709553,,1513267171,255445376,'',1.36135681656,1.35232180824,-0.015980705796,0.0,0.001,0.0,4300.0,0.0,0.0,0.0
1513267173083481284,,709554,,1513267171,265445376,'',1.36135681656,1.3537094375,0.0108291847392,0.0,0.001,0.0,4300.0,0.0,0.0,0.0
1513267173093445225,,709555,,1513267171,275445376,'',1.36135681656,1.35232180824,-0.016155708793,0.0,0.001,0.0,4300.0,0.0,0.0,0.0
1513267173103294396,,709556,,1513267171,285445376,'',1.36135681656,1.3537094375,0.0127254908282,0.0,0.001,0.0,4300.0,0.0,0.0,0.0
1513267173113327483,,709557,,1513267171,295445376,'',1.36135681656,1.3537094375,0.0119330187243,0.0,0.001,0.0,4300.0,0.0,0.0,0.0
1513267173123216275,,709558,,1513267171,305445376,'',1.36135681656,1.3537094375,0.0107537004841,0.0,0.001,0.0,4300.0,0.0,0.0,0.0
1513267173133661894,,709559,,1513267171,315445376,'',1.36135681656,1.35232180824,-0.0161375113148,0.0,0.001,0.0,4300.0,0.0,0.0,0.0
1513267173143576962,,709560,,1513267171,325445376,'',1.36135681656,1.3537094375,0.0101981035109,0.0,0.001,0.0,4300.0,0.0,0.0,0.0
1513267173153375875,,709561,,1513267171,335445376,'',1.36135681656,1.3537094375,0.00928474806261,0.0,0.001,0.0,4300.0,0.0,0.0,0.0
1513267173163353925,,709562,,1513267171,345445376,'',1.36135681656,1.3537094375,0.00961792645564,0.0,0.001,0.0,4300.0,0.0,0.0,0.0
1513267173173342085,,709563,,1513267171,355445376,'',1.36135681656,1.3537094375,0.00837133181354,0.0,0.001,0.0,4300.0,0.0,0.0,0.0
1513267173183414847,,709564,,1513267171,365445376,'',1.36135681656,1.35232180824,-0.0166401552764,0.0,0.001,0.0,4300.0,0.0,0.0,0.0
1513267173193345812,,709565,,1513267171,375445376,'',1.36135681656,1.3537094375,0.0118439948702,0.0,0.001,0.0,4300.0,0.0,0.0,0.0
1513267173203296589,,709566,,1513267171,385445376,'',1.36135681656,1.35232180824,-0.0158059139691,0.0,0.001,0.0,4300.0,0.0,0.0,0.0
1513267173213195754,,709567,,1513267171,395445376,'',1.36135681656,1.3537094375,0.0125338587465,0.0,0.001,0.0,4300.0,0.0,0.0,0.0
1513267173223670116,,709568,,1513267171,405445376,'',1.36135681656,1.35232180824,-0.0156719195109,0.0,0.001,0.0,4300.0,0.0,0.0,0.0
1513267173233636094,,709569,,1513267171,415445376,'',1.36135681656,1.35232180824,-0.0163574728087,0.0,0.001,0.0,4300.0,0.0,0.0,0.0
1513267173243555713,,709570,,1513267171,425445376,'',1.36135681656,1.35232180824,-0.0148740222569,0.0,0.001,0.0,4300.0,0.0,0.0,0.0
1513267173253649002,,709571,,1513267171,435445376,'',1.36135681656,1.35232180824,-0.0136472461769,0.0,0.001,0.0,4300.0,0.0,0.0,0.0
1513267173263349206,,709572,,1513267171,445445376,'',1.36135681656,1.35509706676,0.0412720254177,0.0,0.001,0.0,4300.0,0.0,0.0,0.0
1513267173273387855,,709573,,1513267171,455445376,'',1.36135681656,1.35232180824,-0.0131191807629,0.0,0.001,0.0,4300.0,0.0,0.0,0.0
1513267173283422857,,709574,,1513267171,465445376,'',1.36135681656,1.35232180824,-0.0147334028257,0.0,0.001,0.0,4300.0,0.0,0.0,0.0
1513267173293306621,,709575,,1513267171,475445376,'',1.36135681656,1.35232180824,-0.0160271480513,0.0,0.001,0.0,4300.0,0.0,0.0,0.0
1513267173303497861,,709576,,1513267171,485445376,'',1.36135681656,1.3537094375,0.011386250345,0.0,0.001,0.0,4300.0,0.0,0.0,0.0
1513267173313483764,,709577,,1513267171,495445376,'',1.36135681656,1.35232180824,-0.0175697888506,0.0,0.001,0.0,4300.0,0.0,0.0,0.0
1513267173323467241,,709578,,1513267171,505445376,'',1.36135681656,1.35232180824,-0.0169181796373,0.0,0.001,0.0,4300.0,0.0,0.0,0.0
1513267173333321995,,709579,,1513267171,515445376,'',1.36135681656,1.3537094375,0.0115805805536,0.0,0.001,0.0,4300.0,0.0,0.0,0.0
1513267173343218238,,709580,,1513267171,525445376,'',1.36135681656,1.3537094375,0.0130210755808,0.0,0.001,0.0,4300.0,0.0,0.0,0.0
1513267173353197809,,709581,,1513267171,535445376,'',1.36135681656,1.3537094375,0.0127114264082,0.0,0.001,0.0,4300.0,0.0,0.0,0.0
1513267173363674249,,709582,,1513267171,545445376,'',1.36135681656,1.3537094375,0.0124108506491,0.0,0.001,0.0,4300.0,0.0,0.0,0.0
1513267173373583064,,709583,,1513267171,555445376,'',1.36135681656,1.35232180824,-0.0159017089983,0.0,0.001,0.0,4300.0,0.0,0.0,0.0
1513267173383454093,,709584,,1513267171,565445376,'',1.36135681656,1.3537094375,0.0109663783643,0.0,0.001,0.0,4300.0,0.0,0.0,0.0
1513267173393383887,,709585,,1513267171,575445376,'',1.36135681656,1.35232180824,-0.0169851824446,0.0,0.001,0.0,4300.0,0.0,0.0,0.0
1513267173403852856,,709586,,1513267171,585445376,'',1.36135681656,1.35232180824,-0.0168489346941,0.0,0.001,0.0,4300.0,0.0,0.0,0.0
1513267173413661369,,709587,,1513267171,595445376,'',1.36135681656,1.35232180824,-0.016228774333,0.0,0.001,0.0,4300.0,0.0,0.0,0.0
1513267173423600505,,709588,,1513267171,605445376,'',1.36135681656,1.3537094375,0.0117074398622,0.0,0.001,0.0,4300.0,0.0,0.0,0.0
1513267173433463712,,709589,,1513267171,615445376,'',1.36135681656,1.35232180824,-0.0154205676314,0.0,0.001,0.0,4300.0,0.0,0.0,0.0
1513267173443304477,,709590,,1513267171,625445376,'',1.36135681656,1.3537094375,0.0118172896695,0.0,0.001,0.0,4300.0,0.0,0.0,0.0
1513267173453365243,,709591,,1513267171,635445376,'',1.36135681656,1.3537094375,0.0126326558704,0.0,0.001,0.0,4300.0,0.0,0.0,0.0
1513267173463772172,,709592,,1513267171,645445376,'',1.36135681656,1.3537094375,0.0128768571205,0.0,0.001,0.0,4300.0,0.0,0.0,0.0
1513267173473280692,,709593,,1513267171,655445376,'',1.36135681656,1.3537094375,0.0121220910459,0.0,0.001,0.0,4300.0,0.0,0.0,0.0
1513267173483652771,,709594,,1513267171,665445376,'',1.36135681656,1.35232180824,-0.0174143679429,0.0,0.001,0.0,4300.0,0.0,0.0,0.0
1513267173493772788,,709595,,1513267171,675445376,'',1.36135681656,1.35232180824,-0.0172249360428,0.0,0.001,0.0,4300.0,0.0,0.0,0.0
1513267173503565787,,709596,,1513267171,685445376,'',1.36135681656,1.35509706676,0.0373887257066,0.0,0.001,0.0,4300.0,0.0,0.0,0.0
1513267173513423056,,709597,,1513267171,695445376,'',1.36135681656,1.35232180824,-0.0172940670254,0.0,0.001,0.0,4300.0,0.0,0.0,0.0
1513267173523371649,,709598,,1513267171,705445376,'',1.36135681656,1.3537094375,0.0113421557844,0.0,0.001,0.0,4300.0,0.0,0.0,0.0
1513267173533196572,,709599,,1513267171,715445376,'',1.36135681656,1.35093417897,-0.0430796307503,0.0,0.001,0.0,4300.0,0.0,0.0,0.0
1513267173543846338,,709600,,1513267171,725445376,'',1.36135681656,1.3537094375,0.0145949419936,0.0,0.001,0.0,4300.0,0.0,0.0,0.0
1513267173553554101,,709601,,1513267171,735445376,'',1.36135681656,1.35232180824,-0.0130061355788,0.0,0.001,0.0,4300.0,0.0,0.0,0.0
1513267173563554480,,709602,,1513267171,745445376,'',1.36135681656,1.35232180824,-0.0122169033346,0.0,0.001,0.0,4300.0,0.0,0.0,0.0
1513267173573501531,,709603,,1513267171,755445376,'',1.36135681656,1.35232180824,-0.0125420258096,0.0,0.001,0.0,4300.0,0.0,0.0,0.0
1513267173583371227,,709604,,1513267171,765445376,'',1.36135681656,1.3537094375,0.0141081895183,0.0,0.001,0.0,4300.0,0.0,0.0,0.0
1513267173593366662,,709605,,1513267171,775445376,'',1.36135681656,1.3537094375,0.0155328214731,0.0,0.001,0.0,4300.0,0.0,0.0,0.0
1513267173603729167,,709606,,1513267171,785445376,'',1.36135681656,1.3537094375,0.0147621524922,0.0,0.001,0.0,4300.0,0.0,0.0,0.0
1513267173613573732,,709607,,1513267171,795445376,'',1.36135681656,1.35232180824,-0.0113496378453,0.0,0.001,0.0,4300.0,0.0,0.0,0.0
1513267173623528549,,709608,,1513267171,805445376,'',1.36135681656,1.35232180824,-0.0112228438224,0.0,0.001,0.0,4300.0,0.0,0.0,0.0
1513267173633562854,,709609,,1513267171,815445376,'',1.36135681656,1.35232180824,-0.0106284129173,0.0,0.001,0.0,4300.0,0.0,0.0,0.0
1513267173643496072,,709610,,1513267171,825445376,'',1.36135681656,1.3537094375,0.0163237296738,0.0,0.001,0.0,4300.0,0.0,0.0,0.0
1513267173653467674,,709611,,1513267171,835445376,'',1.36135681656,1.3537094375,0.0159133835731,0.0,0.001,0.0,4300.0,0.0,0.0,0.0
1513267173663742748,,709612,,1513267171,845445376,'',1.36135681656,1.35232180824,-0.0104370652282,0.0,0.001,0.0,4300.0,0.0,0.0,0.0
1513267173673731840,,709613,,1513267171,855445376,'',1.36135681656,1.3537094375,0.0173870830533,0.0,0.001,0.0,4300.0,0.0,0.0,0.0
1513267173683567975,,709614,,1513267171,865445376,'',1.36135681656,1.3537094375,0.0156707033214,0.0,0.001,0.0,4300.0,0.0,0.0,0.0
1513267173693466184,,709615,,1513267171,875445376,'',1.36135681656,1.35232180824,-0.0111435318028,0.0,0.001,0.0,4300.0,0.0,0.0,0.0
1513267173703417576,,709616,,1513267171,885445376,'',1.36135681656,1.3537094375,0.017387808161,0.0,0.001,0.0,4300.0,0.0,0.0,0.0
1513267173713328863,,709617,,1513267171,895445376,'',1.36135681656,1.3537094375,0.017271559945,0.0,0.001,0.0,4300.0,0.0,0.0,0.0
1513267173723292683,,709618,,1513267171,905445376,'',1.36135681656,1.35232180824,-0.0113405580377,0.0,0.001,0.0,4300.0,0.0,0.0,0.0
1513267173733732472,,709619,,1513267171,915445376,'',1.36135681656,1.35232180824,-0.0108229651776,0.0,0.001,0.0,4300.0,0.0,0.0,0.0
1513267173743680194,,709620,,1513267171,925445376,'',1.36135681656,1.3537094375,0.0175350730241,0.0,0.001,0.0,4300.0,0.0,0.0,0.0
1513267173753695229,,709621,,1513267171,935445376,'',1.36135681656,1.3537094375,0.01682014249,0.0,0.001,0.0,4300.0,0.0,0.0,0.0
1513267173763635532,,709622,,1513267171,945445376,'',1.36135681656,1.35232180824,-0.0116689123694,0.0,0.001,0.0,4300.0,0.0,0.0,0.0
1513267173773604080,,709623,,1513267171,955445376,'',1.36135681656,1.35232180824,-0.011076349855,0.0,0.001,0.0,4300.0,0.0,0.0,0.0
1513267173783440731,,709624,,1513267171,965445376,'',1.36135681656,1.35232180824,-0.0111106513875,0.0,0.001,0.0,4300.0,0.0,0.0,0.0
1513267173793364870,,709625,,1513267171,975445376,'',1.36135681656,1.35232180824,-0.0111042469293,0.0,0.001,0.0,4300.0,0.0,0.0,0.0
1513267173803638674,,709626,,1513267171,985445376,'',1.36135681656,1.35232180824,-0.0115425185975,0.0,0.001,0.0,4300.0,0.0,0.0,0.0
1513267173813411638,,709627,,1513267171,995445376,'',1.36135681656,1.35232180824,-0.0114295943445,0.0,0.001,0.0,4300.0,0.0,0.0,0.0
1513267173823563270,,709628,,1513267172,5445376,'',1.36135681656,1.35232180824,-0.00983212052459,0.0,0.001,0.0,4300.0,0.0,0.0,0.0
1513267173833427047,,709629,,1513267172,15445376,'',1.36135681656,1.35232180824,-0.0105510365415,0.0,0.001,0.0,4300.0,0.0,0.0,0.0
1513267173843401368,,709630,,1513267172,25445376,'',1.36135681656,1.35232180824,-0.0102261449336,0.0,0.001,0.0,4300.0,0.0,0.0,0.0
1513267173853628644,,709631,,1513267172,35445376,'',1.36135681656,1.35232180824,-0.00893135349528,0.0,0.001,0.0,4300.0,0.0,0.0,0.0
1513267173863772963,,709632,,1513267172,45445376,'',1.36135681656,1.35232180824,-0.00886953461132,0.0,0.001,0.0,4300.0,0.0,0.0,0.0
1513267173873686177,,709633,,1513267172,55445376,'',1.36135681656,1.3537094375,0.0182548494548,0.0,0.001,0.0,4300.0,0.0,0.0,0.0
1513267173883341525,,709634,,1513267172,65445376,'',1.36135681656,1.3537094375,0.018017135782,0.0,0.001,0.0,4300.0,0.0,0.0,0.0
1513267173893345906,,709635,,1513267172,75445376,'',1.36135681656,1.3537094375,0.0168559599713,0.0,0.001,0.0,4300.0,0.0,0.0,0.0
1513267173903790785,,709636,,1513267172,85445376,'',1.36135681656,1.35232180824,-0.0110916834354,0.0,0.001,0.0,4300.0,0.0,0.0,0.0
1513267173913768902,,709637,,1513267172,95445376,'',1.36135681656,1.35232180824,-0.0110690232406,0.0,0.001,0.0,4300.0,0.0,0.0,0.0
1513267173923622396,,709638,,1513267172,105445376,'',1.36135681656,1.35232180824,-0.0116277577795,0.0,0.001,0.0,4300.0,0.0,0.0,0.0
1513267173933631654,,709639,,1513267172,115445376,'',1.36135681656,1.3537094375,0.0173500214509,0.0,0.001,0.0,4300.0,0.0,0.0,0.0
1513267173943599059,,709640,,1513267172,125445376,'',1.36135681656,1.35232180824,-0.011279480221,0.0,0.001,0.0,4300.0,0.0,0.0,0.0
1513267173953565860,,709641,,1513267172,135445376,'',1.36135681656,1.3537094375,0.0161806295175,0.0,0.001,0.0,4300.0,0.0,0.0,0.0
1513267173963476383,,709642,,1513267172,145445376,'',1.36135681656,1.35232180824,-0.01378016642,0.0,0.001,0.0,4300.0,0.0,0.0,0.0
1513267173973497459,,709643,,1513267172,155445376,'',1.36135681656,1.35509706676,0.0401243937502,0.0,0.001,0.0,4300.0,0.0,0.0,0.0
1513267173983457112,,709644,,1513267172,165445376,'',1.36135681656,1.3537094375,0.00879114076063,0.0,0.001,0.0,4300.0,0.0,0.0,0.0
1513267173993309395,,709645,,1513267172,175445376,'',1.36135681656,1.35509706676,0.0335696651336,0.0,0.001,0.0,4300.0,0.0,0.0,0.0
1513267174003796822,,709646,,1513267172,185445376,'',1.36135681656,1.3537094375,0.00251147121744,0.0,0.001,0.0,4300.0,0.0,0.0,0.0
1513267174013662693,,709647,,1513267172,195445376,'',1.36135681656,1.35509706676,0.0270653444088,0.0,0.001,0.0,4300.0,0.0,0.0,0.0
1513267174023491533,,709648,,1513267172,205445376,'',1.36135681656,1.35509706676,0.0221605021005,0.0,0.001,0.0,4300.0,0.0,0.0,0.0
1513267174033518345,,709649,,1513267172,215445376,'',1.36135681656,1.35509706676,0.0191246134596,0.0,0.001,0.0,4300.0,0.0,0.0,0.0
1513267174043483602,,709650,,1513267172,225445376,'',1.36135681656,1.35509706676,0.0171683307682,0.0,0.001,0.0,4300.0,0.0,0.0,0.0
1513267174053525918,,709651,,1513267172,235445376,'',1.36135681656,1.35509706676,0.0144924230255,0.0,0.001,0.0,4300.0,0.0,0.0,0.0
1513267174063516796,,709652,,1513267172,245445376,'',1.36135681656,1.35509706676,0.0133328780754,0.0,0.001,0.0,4300.0,0.0,0.0,0.0
1513267174073546294,,709653,,1513267172,255445376,'',1.36135681656,1.35509706676,0.010915831217,0.0,0.001,0.0,4300.0,0.0,0.0,0.0
1513267174083475495,,709654,,1513267172,265445376,'',1.36135681656,1.35509706676,0.00948328720316,0.0,0.001,0.0,4300.0,0.0,0.0,0.0
1513267174093645075,,709655,,1513267172,275445376,'',1.36135681656,1.35648469603,0.0352484873881,0.0,0.001,0.0,4300.0,0.0,0.0,0.0
1513267174103663761,,709656,,1513267172,285445376,'',1.36135681656,1.35509706676,0.0054079028336,0.0,0.001,0.0,4300.0,0.0,0.0,0.0
1513267174113606757,,709657,,1513267172,295445376,'',1.36135681656,1.35509706676,0.00442744832025,0.0,0.001,0.0,4300.0,0.0,0.0,0.0
1513267174123494399,,709658,,1513267172,305445376,'',1.36135681656,1.35509706676,0.00261530791038,0.0,0.001,0.0,4300.0,0.0,0.0,0.0
1513267174133483562,,709659,,1513267172,315445376,'',1.36135681656,1.35509706676,-0.000411356731038,0.0,0.001,0.0,4300.0,0.0,0.0,0.0
1513267174143309177,,709660,,1513267172,325445376,'',1.36135681656,1.35648469603,0.0246574053835,0.0,0.001,0.0,4300.0,0.0,0.0,0.0
1513267174153321907,,709661,,1513267172,335445376,'',1.36135681656,1.35648469603,0.0237299376353,0.0,0.001,0.0,4300.0,0.0,0.0,0.0
1513267174163513623,,709662,,1513267172,345445376,'',1.36135681656,1.35648469603,0.0214029004375,0.0,0.001,0.0,4300.0,0.0,0.0,0.0
1513267174173507508,,709663,,1513267172,355445376,'',1.36135681656,1.35648469603,0.0180892743142,0.0,0.001,0.0,4300.0,0.0,0.0,0.0
1513267174183371086,,709664,,1513267172,365445376,'',1.36135681656,1.35509706676,-0.0122198150593,0.0,0.001,0.0,4300.0,0.0,0.0,0.0
1513267174193312072,,709665,,1513267172,375445376,'',1.36135681656,1.35509706676,-0.013014819865,0.0,0.001,0.0,4300.0,0.0,0.0,0.0
1513267174203676078,,709666,,1513267172,385445376,'',1.36135681656,1.35648469603,0.0128143298967,0.0,0.001,0.0,4300.0,0.0,0.0,0.0
1513267174213804723,,709667,,1513267172,395445376,'',1.36135681656,1.35648469603,0.0104929889256,0.0,0.001,0.0,4300.0,0.0,0.0,0.0
1513267174223639215,,709668,,1513267172,405445376,'',1.36135681656,1.35648469603,0.00807557535208,0.0,0.001,0.0,4300.0,0.0,0.0,0.0
1513267174233696497,,709669,,1513267172,415445376,'',1.36135681656,1.35648469603,0.00506205397664,0.0,0.001,0.0,4300.0,0.0,0.0,0.0
1513267174243975090,,709670,,1513267172,425445376,'',1.36135681656,1.35648469603,0.00212017277686,0.0,0.001,0.0,4300.0,0.0,0.0,0.0
1513267174253751787,,709671,,1513267172,435445376,'',1.36135681656,1.35787232529,0.0287453844719,0.0,0.001,0.0,4300.0,0.0,0.0,0.0
1513267174263655035,,709672,,1513267172,445445376,'',1.36135681656,1.35648469603,0.000581805038128,0.0,0.001,0.0,4300.0,0.0,0.0,0.0
1513267174273549489,,709673,,1513267172,455445376,'',1.36135681656,1.35648469603,-0.0005628153547,0.0,0.001,0.0,4300.0,0.0,0.0,0.0
1513267174283509511,,709674,,1513267172,465445376,'',1.36135681656,1.35648469603,-0.00191195950537,0.0,0.001,0.0,4300.0,0.0,0.0,0.0
1513267174293585708,,709675,,1513267172,475445376,'',1.36135681656,1.35648469603,-0.00351615060538,0.0,0.001,0.0,4300.0,0.0,0.0,0.0
1513267174303787941,,709676,,1513267172,485445376,'',1.36135681656,1.35648469603,-0.00395965108465,0.0,0.001,0.0,4300.0,0.0,0.0,0.0
1513267174313730639,,709677,,1513267172,495445376,'',1.36135681656,1.35648469603,-0.00427307464007,0.0,0.001,0.0,4300.0,0.0,0.0,0.0
1513267174323706853,,709678,,1513267172,505445376,'',1.36135681656,1.35648469603,-0.00494883021453,0.0,0.001,0.0,4300.0,0.0,0.0,0.0
1513267174333698585,,709679,,1513267172,515445376,'',1.36135681656,1.35648469603,-0.00506625978444,0.0,0.001,0.0,4300.0,0.0,0.0,0.0
1513267174343582423,,709680,,1513267172,525445376,'',1.36135681656,1.35648469603,-0.00606980412764,0.0,0.001,0.0,4300.0,0.0,0.0,0.0
1513267174353665458,,709681,,1513267172,535445376,'',1.36135681656,1.35787232529,0.0214928214221,0.0,0.001,0.0,4300.0,0.0,0.0,0.0
1513267174364133453,,709682,,1513267172,545445376,'',1.36135681656,1.35648469603,-0.00695316997818,0.0,0.001,0.0,4300.0,0.0,0.0,0.0
1513267174373441217,,709683,,1513267172,555445376,'',1.36135681656,1.35648469603,-0.00763887455486,0.0,0.001,0.0,4300.0,0.0,0.0,0.0
1513267174383465919,,709684,,1513267172,565445376,'',1.36135681656,1.35648469603,-0.0108139749599,0.0,0.001,0.0,4300.0,0.0,0.0,0.0
1513267174393433688,,709685,,1513267172,575445376,'',1.36135681656,1.35787232529,0.0170978782619,0.0,0.001,0.0,4300.0,0.0,0.0,0.0
1513267174403414522,,709686,,1513267172,585445376,'',1.36135681656,1.35787232529,0.0170361843106,0.0,0.001,0.0,4300.0,0.0,0.0,0.0
1513267174413499971,,709687,,1513267172,595445376,'',1.36135681656,1.35648469603,-0.0110653727128,0.0,0.001,0.0,4300.0,0.0,0.0,0.0
1513267174423523319,,709688,,1513267172,605445376,'',1.36135681656,1.35648469603,-0.0110142158349,0.0,0.001,0.0,4300.0,0.0,0.0,0.0
1513267174433435429,,709689,,1513267172,615445376,'',1.36135681656,1.35787232529,0.0154811431082,0.0,0.001,0.0,4300.0,0.0,0.0,0.0
1513267174443708654,,709690,,1513267172,625445376,'',1.36135681656,1.35787232529,0.0162142045664,0.0,0.001,0.0,4300.0,0.0,0.0,0.0
1513267174453882903,,709691,,1513267172,635445376,'',1.36135681656,1.35787232529,0.0142873400156,0.0,0.001,0.0,4300.0,0.0,0.0,0.0
1513267174463647873,,709692,,1513267172,645445376,'',1.36135681656,1.35648469603,-0.0142539715265,0.0,0.001,0.0,4300.0,0.0,0.0,0.0
1513267174473561647,,709693,,1513267172,655445376,'',1.36135681656,1.35648469603,-0.0141881772826,0.0,0.001,0.0,4300.0,0.0,0.0,0.0
1513267174483772956,,709694,,1513267172,665445376,'',1.36135681656,1.35787232529,0.0132561137197,0.0,0.001,0.0,4300.0,0.0,0.0,0.0
1513267174493465304,,709695,,1513267172,675445376,'',1.36135681656,1.35787232529,0.0123824832326,0.0,0.001,0.0,4300.0,0.0,0.0,0.0
1513267174503459956,,709696,,1513267172,685445376,'',1.36135681656,1.35787232529,0.0126191680858,0.0,0.001,0.0,4300.0,0.0,0.0,0.0
1513267174513447491,,709697,,1513267172,695445376,'',1.36135681656,1.35787232529,0.0114026354605,0.0,0.001,0.0,4300.0,0.0,0.0,0.0
1513267174523417193,,709698,,1513267172,705445376,'',1.36135681656,1.35787232529,0.0108593939456,0.0,0.001,0.0,4300.0,0.0,0.0,0.0
1513267174533856036,,709699,,1513267172,715445376,'',1.36135681656,1.35787232529,0.00945625614156,0.0,0.001,0.0,4300.0,0.0,0.0,0.0
1513267174543817231,,709700,,1513267172,725445376,'',1.36135681656,1.35787232529,0.00871463675629,0.0,0.001,0.0,4300.0,0.0,0.0,0.0
1513267174553823001,,709701,,1513267172,735445376,'',1.36135681656,1.35787232529,0.00913042774766,0.0,0.001,0.0,4300.0,0.0,0.0,0.0
1513267174563645621,,709702,,1513267172,745445376,'',1.36135681656,1.35787232529,0.0100131600189,0.0,0.001,0.0,4300.0,0.0,0.0,0.0
1513267174573601972,,709703,,1513267172,755445376,'',1.36135681656,1.35787232529,0.00911107754439,0.0,0.001,0.0,4300.0,0.0,0.0,0.0
1513267174583546336,,709704,,1513267172,765445376,'',1.36135681656,1.35787232529,0.00788169792675,0.0,0.001,0.0,4300.0,0.0,0.0,0.0
1513267174593481855,,709705,,1513267172,775445376,'',1.36135681656,1.35648469603,-0.0195950633456,0.0,0.001,0.0,4300.0,0.0,0.0,0.0
1513267174603389127,,709706,,1513267172,785445376,'',1.36135681656,1.35648469603,-0.0190211234519,0.0,0.001,0.0,4300.0,0.0,0.0,0.0
1513267174613293782,,709707,,1513267172,795445376,'',1.36135681656,1.35648469603,-0.0174809402438,0.0,0.001,0.0,4300.0,0.0,0.0,0.0
1513267174623270106,,709708,,1513267172,805445376,'',1.36135681656,1.35648469603,-0.0163336308793,0.0,0.001,0.0,4300.0,0.0,0.0,0.0
1513267174633717840,,709709,,1513267172,815445376,'',1.36135681656,1.35648469603,-0.014875975008,0.0,0.001,0.0,4300.0,0.0,0.0,0.0
1513267174643677380,,709710,,1513267172,825445376,'',1.36135681656,1.35648469603,-0.015190647816,0.0,0.001,0.0,4300.0,0.0,0.0,0.0
1513267174653625415,,709711,,1513267172,835445376,'',1.36135681656,1.35787232529,0.0130789258726,0.0,0.001,0.0,4300.0,0.0,0.0,0.0
1513267174663676514,,709712,,1513267172,845445376,'',1.36135681656,1.35787232529,0.0126758898323,0.0,0.001,0.0,4300.0,0.0,0.0,0.0
1513267174673641885,,709713,,1513267172,855445376,'',1.36135681656,1.35787232529,0.0122904798408,0.0,0.001,0.0,4300.0,0.0,0.0,0.0
1513267174683585476,,709714,,1513267172,865445376,'',1.36135681656,1.35787232529,0.0115999058796,0.0,0.001,0.0,4300.0,0.0,0.0,0.0
1513267174693513293,,709715,,1513267172,875445376,'',1.36135681656,1.35648469603,-0.0148957941511,0.0,0.001,0.0,4300.0,0.0,0.0,0.0
1513267174703499611,,709716,,1513267172,885445376,'',1.36135681656,1.35787232529,0.0123074904666,0.0,0.001,0.0,4300.0,0.0,0.0,0.0
1513267174713523662,,709717,,1513267172,895445376,'',1.36135681656,1.35787232529,0.0110427948345,0.0,0.001,0.0,4300.0,0.0,0.0,0.0
1513267174723358594,,709718,,1513267172,905445376,'',1.36135681656,1.35648469603,-0.0169115799014,0.0,0.001,0.0,4300.0,0.0,0.0,0.0
1513267174733358203,,709719,,1513267172,915445376,'',1.36135681656,1.35648469603,-0.0173388921214,0.0,0.001,0.0,4300.0,0.0,0.0,0.0
1513267174743439100,,709720,,1513267172,925445376,'',1.36135681656,1.35925995456,0.0382245789289,0.0,0.001,0.0,4300.0,0.0,0.0,0.0
1513267174753409958,,709721,,1513267172,935445376,'',1.36135681656,1.35787232529,0.00985798952057,0.0,0.001,0.0,4300.0,0.0,0.0,0.0
1513267174763338024,,709722,,1513267172,945445376,'',1.36135681656,1.35648469603,-0.0184410288779,0.0,0.001,0.0,4300.0,0.0,0.0,0.0
1513267174773280575,,709723,,1513267172,955445376,'',1.36135681656,1.35648469603,-0.018262441622,0.0,0.001,0.0,4300.0,0.0,0.0,0.0
1513267174783241265,,709724,,1513267172,965445376,'',1.36135681656,1.35787232529,0.0100000909352,0.0,0.001,0.0,4300.0,0.0,0.0,0.0
1513267174793753111,,709725,,1513267172,975445376,'',1.36135681656,1.35787232529,0.0106925578159,0.0,0.001,0.0,4300.0,0.0,0.0,0.0
1513267174803672846,,709726,,1513267172,985445376,'',1.36135681656,1.35787232529,0.00970741378276,0.0,0.001,0.0,4300.0,0.0,0.0,0.0
1513267174813800730,,709727,,1513267172,995445376,'',1.36135681656,1.35787232529,0.00945215586843,0.0,0.001,0.0,4300.0,0.0,0.0,0.0
1513267174823552542,,709728,,1513267173,5445376,'',1.36135681656,1.35648469603,-0.0181495964521,0.0,0.001,0.0,4300.0,0.0,0.0,0.0
1513267174833485141,,709729,,1513267173,15445376,'',1.36135681656,1.35648469603,-0.0179254710516,0.0,0.001,0.0,4300.0,0.0,0.0,0.0
1513267174843429053,,709730,,1513267173,25445376,'',1.36135681656,1.35787232529,0.00984098072404,0.0,0.001,0.0,4300.0,0.0,0.0,0.0
1513267174853407089,,709731,,1513267173,35445376,'',1.36135681656,1.35925995456,0.0370591085148,0.0,0.001,0.0,4300.0,0.0,0.0,0.0
1513267174863314843,,709732,,1513267173,45445376,'',1.36135681656,1.35787232529,0.00836590094757,0.0,0.001,0.0,4300.0,0.0,0.0,0.0
1513267174873249141,,709733,,1513267173,55445376,'',1.36135681656,1.35787232529,0.0078230023798,0.0,0.001,0.0,4300.0,0.0,0.0,0.0
1513267174883330290,,709734,,1513267173,65445376,'',1.36135681656,1.35648469603,-0.0200890923905,0.0,0.001,0.0,4300.0,0.0,0.0,0.0
1513267174893342523,,709735,,1513267173,75445376,'',1.36135681656,1.35648469603,-0.0203875848504,0.0,0.001,0.0,4300.0,0.0,0.0,0.0
1513267174903795318,,709736,,1513267173,85445376,'',1.36135681656,1.35787232529,0.00680177918217,0.0,0.001,0.0,4300.0,0.0,0.0,0.0
1513267174913682563,,709737,,1513267173,95445376,'',1.36135681656,1.35787232529,0.00814183318296,0.0,0.001,0.0,4300.0,0.0,0.0,0.0
1513267174923676124,,709738,,1513267173,105445376,'',1.36135681656,1.35787232529,0.00817858514828,0.0,0.001,0.0,4300.0,0.0,0.0,0.0
1513267174933594239,,709739,,1513267173,115445376,'',1.36135681656,1.35787232529,0.00522170414439,0.0,0.001,0.0,4300.0,0.0,0.0,0.0
1513267174943552007,,709740,,1513267173,125445376,'',1.36135681656,1.35787232529,0.00580884439081,0.0,0.001,0.0,4300.0,0.0,0.0,0.0
1513267174953568966,,709741,,1513267173,135445376,'',1.36135681656,1.35787232529,0.00428118741671,0.0,0.001,0.0,4300.0,0.0,0.0,0.0
1513267174963483549,,709742,,1513267173,145445376,'',1.36135681656,1.35787232529,0.00494140433253,0.0,0.001,0.0,4300.0,0.0,0.0,0.0
1513267174973519092,,709743,,1513267173,155445376,'',1.36135681656,1.35648469603,-0.023444435243,0.0,0.001,0.0,4300.0,0.0,0.0,0.0
1513267174983334364,,709744,,1513267173,165445376,'',1.36135681656,1.35648469603,-0.0226911915458,0.0,0.001,0.0,4300.0,0.0,0.0,0.0
1513267174993443828,,709745,,1513267173,175445376,'',1.36135681656,1.35648469603,-0.0201454125095,0.0,0.001,0.0,4300.0,0.0,0.0,0.0
1513267175003305028,,709746,,1513267173,185445376,'',1.36135681656,1.35648469603,-0.0190268846348,0.0,0.001,0.0,4300.0,0.0,0.0,0.0
1513267175013807119,,709747,,1513267173,195445376,'',1.36135681656,1.35787232529,0.00882485527946,0.0,0.001,0.0,4300.0,0.0,0.0,0.0
1513267175023719493,,709748,,1513267173,205445376,'',1.36135681656,1.35787232529,0.0102443509602,0.0,0.001,0.0,4300.0,0.0,0.0,0.0
1513267175033635439,,709749,,1513267173,215445376,'',1.36135681656,1.35787232529,0.0103846194381,0.0,0.001,0.0,4300.0,0.0,0.0,0.0
1513267175043701194,,709750,,1513267173,225445376,'',1.36135681656,1.35787232529,0.0100608311984,0.0,0.001,0.0,4300.0,0.0,0.0,0.0
1513267175053593905,,709751,,1513267173,235445376,'',1.36135681656,1.35648469603,-0.0177673248349,0.0,0.001,0.0,4300.0,0.0,0.0,0.0
1513267175063591094,,709752,,1513267173,245445376,'',1.36135681656,1.35648469603,-0.0155050746134,0.0,0.001,0.0,4300.0,0.0,0.0,0.0
1513267175073577102,,709753,,1513267173,255445376,'',1.36135681656,1.35787232529,0.013196004445,0.0,0.001,0.0,4300.0,0.0,0.0,0.0
1513267175083500826,,709754,,1513267173,265445376,'',1.36135681656,1.35787232529,0.0133517022667,0.0,0.001,0.0,4300.0,0.0,0.0,0.0
1513267175093432372,,709755,,1513267173,275445376,'',1.36135681656,1.35925995456,0.0398551115515,0.0,0.001,0.0,4300.0,0.0,0.0,0.0
1513267175103343817,,709756,,1513267173,285445376,'',1.36135681656,1.35787232529,0.00867338848424,0.0,0.001,0.0,4300.0,0.0,0.0,0.0
1513267175113373857,,709757,,1513267173,295445376,'',1.36135681656,1.35648469603,-0.0203921599345,0.0,0.001,0.0,4300.0,0.0,0.0,0.0
1513267175123315133,,709758,,1513267173,305445376,'',1.36135681656,1.35787232529,0.00619548036345,0.0,0.001,0.0,4300.0,0.0,0.0,0.0
1513267175133300576,,709759,,1513267173,315445376,'',1.36135681656,1.35787232529,0.0061038520738,0.0,0.001,0.0,4300.0,0.0,0.0,0.0
1513267175143270254,,709760,,1513267173,325445376,'',1.36135681656,1.35787232529,0.00502805751431,0.0,0.001,0.0,4300.0,0.0,0.0,0.0
1513267175153710906,,709761,,1513267173,335445376,'',1.36135681656,1.35787232529,0.00562971135947,0.0,0.001,0.0,4300.0,0.0,0.0,0.0
1513267175163729922,,709762,,1513267173,345445376,'',1.36135681656,1.35787232529,0.0046086473091,0.0,0.001,0.0,4300.0,0.0,0.0,0.0
1513267175173717441,,709763,,1513267173,355445376,'',1.36135681656,1.35787232529,0.00481092710964,0.0,0.001,0.0,4300.0,0.0,0.0,0.0
1513267175183490548,,709764,,1513267173,365445376,'',1.36135681656,1.35648469603,-0.0235363250482,0.0,0.001,0.0,4300.0,0.0,0.0,0.0
1513267175193498502,,709765,,1513267173,375445376,'',1.36135681656,1.35925995456,0.0292331545604,0.0,0.001,0.0,4300.0,0.0,0.0,0.0
1513267175203472967,,709766,,1513267173,385445376,'',1.36135681656,1.35787232529,0.000552072850409,0.0,0.001,0.0,4300.0,0.0,0.0,0.0
1513267175213459726,,709767,,1513267173,395445376,'',1.36135681656,1.35648469603,-0.0269922901524,0.0,0.001,0.0,4300.0,0.0,0.0,0.0
1513267175223392995,,709768,,1513267173,405445376,'',1.36135681656,1.35787232529,0.000894863052101,0.0,0.001,0.0,4300.0,0.0,0.0,0.0
1513267175233347522,,709769,,1513267173,415445376,'',1.36135681656,1.35925995456,0.0293158796152,0.0,0.001,0.0,4300.0,0.0,0.0,0.0
1513267175243352739,,709770,,1513267173,425445376,'',1.36135681656,1.35787232529,0.000560111545323,0.0,0.001,0.0,4300.0,0.0,0.0,0.0
1513267175253537776,,709771,,1513267173,435445376,'',1.36135681656,1.35787232529,-0.000133982005812,0.0,0.001,0.0,4300.0,0.0,0.0,0.0
1513267175263445713,,709772,,1513267173,445445376,'',1.36135681656,1.35925995456,0.0273721871403,0.0,0.001,0.0,4300.0,0.0,0.0,0.0
1513267175273512664,,709773,,1513267173,455445376,'',1.36135681656,1.35648469603,-0.0270271585707,0.0,0.001,0.0,4300.0,0.0,0.0,0.0
1513267175283511343,,709774,,1513267173,465445376,'',1.36135681656,1.35787232529,-0.00215100260399,0.0,0.001,0.0,4300.0,0.0,0.0,0.0
1513267175293429093,,709775,,1513267173,475445376,'',1.36135681656,1.35787232529,-0.00325001669251,0.0,0.001,0.0,4300.0,0.0,0.0,0.0
1513267175303388811,,709776,,1513267173,485445376,'',1.36135681656,1.35787232529,-0.00356511372807,0.0,0.001,0.0,4300.0,0.0,0.0,0.0
1513267175313428234,,709777,,1513267173,495445376,'',1.36135681656,1.35787232529,-0.00389926322377,0.0,0.001,0.0,4300.0,0.0,0.0,0.0
1513267175323380869,,709778,,1513267173,505445376,'',1.36135681656,1.35925995456,0.0248524216528,0.0,0.001,0.0,4300.0,0.0,0.0,0.0
1513267175333381367,,709779,,1513267173,515445376,'',1.36135681656,1.35787232529,-0.00363352555313,0.0,0.001,0.0,4300.0,0.0,0.0,0.0
1513267175343316096,,709780,,1513267173,525445376,'',1.36135681656,1.35787232529,-0.00453579611263,0.0,0.001,0.0,4300.0,0.0,0.0,0.0
1513267175353301662,,709781,,1513267173,535445376,'',1.36135681656,1.35787232529,-0.00422573661681,0.0,0.001,0.0,4300.0,0.0,0.0,0.0
1513267175363889054,,709782,,1513267173,545445376,'',1.36135681656,1.35787232529,-0.00441397873987,0.0,0.001,0.0,4300.0,0.0,0.0,0.0
1513267175373645558,,709783,,1513267173,555445376,'',1.36135681656,1.35925995456,0.0218390487002,0.0,0.001,0.0,4300.0,0.0,0.0,0.0
1513267175383612093,,709784,,1513267173,565445376,'',1.36135681656,1.35787232529,-0.0045144538366,0.0,0.001,0.0,4300.0,0.0,0.0,0.0
1513267175393489347,,709785,,1513267173,575445376,'',1.36135681656,1.35787232529,-0.00318990024036,0.0,0.001,0.0,4300.0,0.0,0.0,0.0
1513267175403489401,,709786,,1513267173,585445376,'',1.36135681656,1.35925995456,0.02331057758,0.0,0.001,0.0,4300.0,0.0,0.0,0.0
1513267175413554445,,709787,,1513267173,595445376,'',1.36135681656,1.35925995456,0.0247134533575,0.0,0.001,0.0,4300.0,0.0,0.0,0.0
1513267175423578980,,709788,,1513267173,605445376,'',1.36135681656,1.35787232529,-0.00320299731966,0.0,0.001,0.0,4300.0,0.0,0.0,0.0
1513267175433616128,,709789,,1513267173,615445376,'',1.36135681656,1.35787232529,-0.00408871407433,0.0,0.001,0.0,4300.0,0.0,0.0,0.0
1513267175443492114,,709790,,1513267173,625445376,'',1.36135681656,1.35787232529,-0.00332347629858,0.0,0.001,0.0,4300.0,0.0,0.0,0.0
1513267175453567062,,709791,,1513267173,635445376,'',1.36135681656,1.35787232529,-0.00326267583956,0.0,0.001,0.0,4300.0,0.0,0.0,0.0
1513267175463426341,,709792,,1513267173,645445376,'',1.36135681656,1.35787232529,-0.00220465112866,0.0,0.001,0.0,4300.0,0.0,0.0,0.0
1513267175473370618,,709793,,1513267173,655445376,'',1.36135681656,1.35787232529,-0.00133276434291,0.0,0.001,0.0,4300.0,0.0,0.0,0.0
1513267175483294283,,709794,,1513267173,665445376,'',1.36135681656,1.35787232529,-0.00112134648116,0.0,0.001,0.0,4300.0,0.0,0.0,0.0
1513267175493431446,,709795,,1513267173,675445376,'',1.36135681656,1.35787232529,-0.00141763239471,0.0,0.001,0.0,4300.0,0.0,0.0,0.0
1513267175503409015,,709796,,1513267173,685445376,'',1.36135681656,1.35787232529,-0.00165906172679,0.0,0.001,0.0,4300.0,0.0,0.0,0.0
1513267175513334193,,709797,,1513267173,695445376,'',1.36135681656,1.35787232529,-0.00183254456717,0.0,0.001,0.0,4300.0,0.0,0.0,0.0
1513267175523494730,,709798,,1513267173,705445376,'',1.36135681656,1.35787232529,-0.00136226360547,0.0,0.001,0.0,4300.0,0.0,0.0,0.0
1513267175533359148,,709799,,1513267173,715445376,'',1.36135681656,1.35648469603,-0.0291540119764,0.0,0.001,0.0,4300.0,0.0,0.0,0.0
1513267175543347144,,709800,,1513267173,725445376,'',1.36135681656,1.35787232529,-0.000964101443894,0.0,0.001,0.0,4300.0,0.0,0.0,0.0
1513267175553311802,,709801,,1513267173,735445376,'',1.36135681656,1.35925995456,0.0271821922559,0.0,0.001,0.0,4300.0,0.0,0.0,0.0
1513267175563271887,,709802,,1513267173,745445376,'',1.36135681656,1.35925995456,0.0272449929082,0.0,0.001,0.0,4300.0,0.0,0.0,0.0
1513267175573326626,,709803,,1513267173,755445376,'',1.36135681656,1.35787232529,-0.0021359906092,0.0,0.001,0.0,4300.0,0.0,0.0,0.0
1513267175583738256,,709804,,1513267173,765445376,'',1.36135681656,1.35787232529,-0.00268879871127,0.0,0.001,0.0,4300.0,0.0,0.0,0.0
1513267175593706505,,709805,,1513267173,775445376,'',1.36135681656,1.35787232529,-0.00477683864188,0.0,0.001,0.0,4300.0,0.0,0.0,0.0
1513267175603794823,,709806,,1513267173,785445376,'',1.36135681656,1.35787232529,-0.00489451585285,0.0,0.001,0.0,4300.0,0.0,0.0,0.0
1513267175613737102,,709807,,1513267173,795445376,'',1.36135681656,1.35787232529,-0.00403419766747,0.0,0.001,0.0,4300.0,0.0,0.0,0.0
1513267175623416508,,709808,,1513267173,805445376,'',1.36135681656,1.35925995456,0.0242630959505,0.0,0.001,0.0,4300.0,0.0,0.0,0.0
1513267175633717931,,709809,,1513267173,815445376,'',1.36135681656,1.35925995456,0.024339872359,0.0,0.001,0.0,4300.0,0.0,0.0,0.0
1513267175643588413,,709810,,1513267173,825445376,'',1.36135681656,1.35925995456,0.0244409051719,0.0,0.001,0.0,4300.0,0.0,0.0,0.0
1513267175653547112,,709811,,1513267173,835445376,'',1.36135681656,1.35787232529,-0.00243349436326,0.0,0.001,0.0,4300.0,0.0,0.0,0.0
1513267175663513834,,709812,,1513267173,845445376,'',1.36135681656,1.35787232529,-0.000529287135892,0.0,0.001,0.0,4300.0,0.0,0.0,0.0
1513267175673539581,,709813,,1513267173,855445376,'',1.36135681656,1.35787232529,-0.000440630909239,0.0,0.001,0.0,4300.0,0.0,0.0,0.0
1513267175683355284,,709814,,1513267173,865445376,'',1.36135681656,1.35787232529,0.000660518798505,0.0,0.001,0.0,4300.0,0.0,0.0,0.0
1513267175693383902,,709815,,1513267173,875445376,'',1.36135681656,1.35787232529,0.000550575620752,0.0,0.001,0.0,4300.0,0.0,0.0,0.0
1513267175703704793,,709816,,1513267173,885445376,'',1.36135681656,1.35787232529,-0.000465748474981,0.0,0.001,0.0,4300.0,0.0,0.0,0.0
1513267175713633290,,709817,,1513267173,895445376,'',1.36135681656,1.35787232529,-0.000391997427589,0.0,0.001,0.0,4300.0,0.0,0.0,0.0
1513267175723594007,,709818,,1513267173,905445376,'',1.36135681656,1.35787232529,-0.0018497271253,0.0,0.001,0.0,4300.0,0.0,0.0,0.0
1513267175733513570,,709819,,1513267173,915445376,'',1.36135681656,1.35925995456,0.0259345570108,0.0,0.001,0.0,4300.0,0.0,0.0,0.0
1513267175743566279,,709820,,1513267173,925445376,'',1.36135681656,1.35925995456,0.0252332183554,0.0,0.001,0.0,4300.0,0.0,0.0,0.0
1513267175753609340,,709821,,1513267173,935445376,'',1.36135681656,1.35787232529,-0.00380611602373,0.0,0.001,0.0,4300.0,0.0,0.0,0.0
1513267175763505549,,709822,,1513267173,945445376,'',1.36135681656,1.35787232529,-0.00421634454622,0.0,0.001,0.0,4300.0,0.0,0.0,0.0
1513267175773898564,,709823,,1513267173,955445376,'',1.36135681656,1.35787232529,-0.0029168136622,0.0,0.001,0.0,4300.0,0.0,0.0,0.0
1513267175783438373,,709824,,1513267173,965445376,'',1.36135681656,1.35787232529,-0.00352011814041,0.0,0.001,0.0,4300.0,0.0,0.0,0.0
1513267175793432412,,709825,,1513267173,975445376,'',1.36135681656,1.35787232529,-0.0043674953086,0.0,0.001,0.0,4300.0,0.0,0.0,0.0
1513267175803449902,,709826,,1513267173,985445376,'',1.36135681656,1.35787232529,-0.00505347988633,0.0,0.001,0.0,4300.0,0.0,0.0,0.0
1513267175813847464,,709827,,1513267173,995445376,'',1.36135681656,1.35787232529,-0.00414730462114,0.0,0.001,0.0,4300.0,0.0,0.0,0.0
1513267175823730516,,709828,,1513267174,5445376,'',1.36135681656,1.35925995456,0.025561276798,0.0,0.001,0.0,4300.0,0.0,0.0,0.0
1513267175833640951,,709829,,1513267174,15445376,'',1.36135681656,1.35925995456,0.0249786248204,0.0,0.001,0.0,4300.0,0.0,0.0,0.0
1513267175843547913,,709830,,1513267174,25445376,'',1.36135681656,1.35787232529,-0.00202963218945,0.0,0.001,0.0,4300.0,0.0,0.0,0.0
1513267175853607748,,709831,,1513267174,35445376,'',1.36135681656,1.35787232529,-0.0001205229614,0.0,0.001,0.0,4300.0,0.0,0.0,0.0
1513267175863548002,,709832,,1513267174,45445376,'',1.36135681656,1.35787232529,0.000353189721275,0.0,0.001,0.0,4300.0,0.0,0.0,0.0
1513267175873433809,,709833,,1513267174,55445376,'',1.36135681656,1.35787232529,0.000672857677756,0.0,0.001,0.0,4300.0,0.0,0.0,0.0
1513267175883525637,,709834,,1513267174,65445376,'',1.36135681656,1.35787232529,1.63854033077e-05,0.0,0.001,0.0,4300.0,0.0,0.0,0.0
1513267175893346446,,709835,,1513267174,75445376,'',1.36135681656,1.35648469603,-0.0294622421309,0.0,0.001,0.0,4300.0,0.0,0.0,0.0
1513267175903339247,,709836,,1513267174,85445376,'',1.36135681656,1.35787232529,-0.00369693853814,0.0,0.001,0.0,4300.0,0.0,0.0,0.0
1513267175913763725,,709837,,1513267174,95445376,'',1.36135681656,1.35648469603,-0.0299926431357,0.0,0.001,0.0,4300.0,0.0,0.0,0.0
1513267175923363279,,709838,,1513267174,105445376,'',1.36135681656,1.35787232529,-0.000607391255707,0.0,0.001,0.0,4300.0,0.0,0.0,0.0
1513267175933342005,,709839,,1513267174,115445376,'',1.36135681656,1.35787232529,-0.000960364991512,0.0,0.001,0.0,4300.0,0.0,0.0,0.0
1513267175943382049,,709840,,1513267174,125445376,'',1.36135681656,1.35925995456,0.0261868250286,0.0,0.001,0.0,4300.0,0.0,0.0,0.0
1513267175953797166,,709841,,1513267174,135445376,'',1.36135681656,1.35648469603,-0.028574017569,0.0,0.001,0.0,4300.0,0.0,0.0,0.0
1513267175963593230,,709842,,1513267174,145445376,'',1.36135681656,1.35925995456,0.0264979728318,0.0,0.001,0.0,4300.0,0.0,0.0,0.0
1513267175973483080,,709843,,1513267174,155445376,'',1.36135681656,1.35787232529,-0.00227759981707,0.0,0.001,0.0,4300.0,0.0,0.0,0.0
1513267175983382078,,709844,,1513267174,165445376,'',1.36135681656,1.35787232529,-0.000889049381297,0.0,0.001,0.0,4300.0,0.0,0.0,0.0
1513267175993320950,,709845,,1513267174,175445376,'',1.36135681656,1.35787232529,-0.000213992790723,0.0,0.001,0.0,4300.0,0.0,0.0,0.0
1513267176003303459,,709846,,1513267174,185445376,'',1.36135681656,1.35648469603,-0.0265550417359,0.0,0.001,0.0,4300.0,0.0,0.0,0.0
1513267176013685165,,709847,,1513267174,195445376,'',1.36135681656,1.35648469603,-0.0242212599353,0.0,0.001,0.0,4300.0,0.0,0.0,0.0
1513267176023719872,,709848,,1513267174,205445376,'',1.36135681656,1.35787232529,0.00316088727037,0.0,0.001,0.0,4300.0,0.0,0.0,0.0
1513267176033610757,,709849,,1513267174,215445376,'',1.36135681656,1.35925995456,0.030038996277,0.0,0.001,0.0,4300.0,0.0,0.0,0.0
1513267176043428873,,709850,,1513267174,225445376,'',1.36135681656,1.35648469603,-0.0263799856736,0.0,0.001,0.0,4300.0,0.0,0.0,0.0
1513267176053337454,,709851,,1513267174,235445376,'',1.36135681656,1.35648469603,-0.0256139825604,0.0,0.001,0.0,4300.0,0.0,0.0,0.0
1513267176063273759,,709852,,1513267174,245445376,'',1.36135681656,1.35648469603,-0.0245419291843,0.0,0.001,0.0,4300.0,0.0,0.0,0.0
1513267176073838956,,709853,,1513267174,255445376,'',1.36135681656,1.35925995456,0.0308211033557,0.0,0.001,0.0,4300.0,0.0,0.0,0.0
1513267176083768410,,709854,,1513267174,265445376,'',1.36135681656,1.35787232529,0.00271332233917,0.0,0.001,0.0,4300.0,0.0,0.0,0.0
1513267176093808984,,709855,,1513267174,275445376,'',1.36135681656,1.35925995456,0.0292329596031,0.0,0.001,0.0,4300.0,0.0,0.0,0.0
1513267176103827304,,709856,,1513267174,285445376,'',1.36135681656,1.35787232529,0.00245506028171,0.0,0.001,0.0,4300.0,0.0,0.0,0.0
1513267176113673871,,709857,,1513267174,295445376,'',1.36135681656,1.35787232529,0.00255337278529,0.0,0.001,0.0,4300.0,0.0,0.0,0.0
1513267176123690677,,709858,,1513267174,305445376,'',1.36135681656,1.35787232529,0.00119414824676,0.0,0.001,0.0,4300.0,0.0,0.0,0.0
1513267176133792538,,709859,,1513267174,315445376,'',1.36135681656,1.35648469603,-0.0264949760752,0.0,0.001,0.0,4300.0,0.0,0.0,0.0
1513267176143813823,,709860,,1513267174,325445376,'',1.36135681656,1.35925995456,0.0292602286953,0.0,0.001,0.0,4300.0,0.0,0.0,0.0
1513267176153645567,,709861,,1513267174,335445376,'',1.36135681656,1.35648469603,-0.0260114339615,0.0,0.001,0.0,4300.0,0.0,0.0,0.0
1513267176163714783,,709862,,1513267174,345445376,'',1.36135681656,1.35787232529,0.00164920482054,0.0,0.001,0.0,4300.0,0.0,0.0,0.0
1513267176173664788,,709863,,1513267174,355445376,'',1.36135681656,1.35648469603,-0.0255936368033,0.0,0.001,0.0,4300.0,0.0,0.0,0.0
1513267176183615396,,709864,,1513267174,365445376,'',1.36135681656,1.35787232529,0.00245652845688,0.0,0.001,0.0,4300.0,0.0,0.0,0.0
1513267176193592340,,709865,,1513267174,375445376,'',1.36135681656,1.35787232529,0.00241580723322,0.0,0.001,0.0,4300.0,0.0,0.0,0.0
1513267176203489392,,709866,,1513267174,385445376,'',1.36135681656,1.35787232529,0.00102879868179,0.0,0.001,0.0,4300.0,0.0,0.0,0.0
1513267176213524030,,709867,,1513267174,395445376,'',1.36135681656,1.35787232529,0.000879110770427,0.0,0.001,0.0,4300.0,0.0,0.0,0.0
1513267176223593073,,709868,,1513267174,405445376,'',1.36135681656,1.35925995456,0.028243809884,0.0,0.001,0.0,4300.0,0.0,0.0,0.0
1513267176233484427,,709869,,1513267174,415445376,'',1.36135681656,1.35787232529,-0.00228030542935,0.0,0.001,0.0,4300.0,0.0,0.0,0.0
1513267176243565719,,709870,,1513267174,425445376,'',1.36135681656,1.35787232529,-0.00389626813347,0.0,0.001,0.0,4300.0,0.0,0.0,0.0
1513267176253526346,,709871,,1513267174,435445376,'',1.36135681656,1.35787232529,-0.00417763975843,0.0,0.001,0.0,4300.0,0.0,0.0,0.0
1513267176263299582,,709872,,1513267174,445445376,'',1.36135681656,1.35925995456,0.022098576817,0.0,0.001,0.0,4300.0,0.0,0.0,0.0
1513267176273279333,,709873,,1513267174,455445376,'',1.36135681656,1.35787232529,-0.00589120109157,0.0,0.001,0.0,4300.0,0.0,0.0,0.0
1513267176283701437,,709874,,1513267174,465445376,'',1.36135681656,1.35648469603,-0.0348610017085,0.0,0.001,0.0,4300.0,0.0,0.0,0.0
1513267176293805690,,709875,,1513267174,475445376,'',1.36135681656,1.35925995456,0.0199245936871,0.0,0.001,0.0,4300.0,0.0,0.0,0.0
1513267176303641982,,709876,,1513267174,485445376,'',1.36135681656,1.35787232529,-0.0101386345021,0.0,0.001,0.0,4300.0,0.0,0.0,0.0
1513267176313569344,,709877,,1513267174,495445376,'',1.36135681656,1.35925995456,0.0186953623313,0.0,0.001,0.0,4300.0,0.0,0.0,0.0
1513267176323455977,,709878,,1513267174,505445376,'',1.36135681656,1.35787232529,-0.00917627163524,0.0,0.001,0.0,4300.0,0.0,0.0,0.0
1513267176333350722,,709879,,1513267174,515445376,'',1.36135681656,1.35925995456,0.0195040072523,0.0,0.001,0.0,4300.0,0.0,0.0,0.0
1513267176343681814,,709880,,1513267174,525445376,'',1.36135681656,1.35787232529,-0.00852989881554,0.0,0.001,0.0,4300.0,0.0,0.0,0.0
1513267176353646403,,709881,,1513267174,535445376,'',1.36135681656,1.35787232529,-0.00760231600739,0.0,0.001,0.0,4300.0,0.0,0.0,0.0
1513267176363498001,,709882,,1513267174,545445376,'',1.36135681656,1.35787232529,-0.0093331254118,0.0,0.001,0.0,4300.0,0.0,0.0,0.0
1513267176373643186,,709883,,1513267174,555445376,'',1.36135681656,1.35787232529,-0.00967455050762,0.0,0.001,0.0,4300.0,0.0,0.0,0.0
1513267176383569661,,709884,,1513267174,565445376,'',1.36135681656,1.35787232529,-0.00891867383968,0.0,0.001,0.0,4300.0,0.0,0.0,0.0
1513267176393440647,,709885,,1513267174,575445376,'',1.36135681656,1.35787232529,-0.00725642760627,0.0,0.001,0.0,4300.0,0.0,0.0,0.0
1513267176403804480,,709886,,1513267174,585445376,'',1.36135681656,1.35787232529,-0.00640249887741,0.0,0.001,0.0,4300.0,0.0,0.0,0.0
1513267176413693591,,709887,,1513267174,595445376,'',1.36135681656,1.35787232529,-0.00676701979553,0.0,0.001,0.0,4300.0,0.0,0.0,0.0
1513267176423813736,,709888,,1513267174,605445376,'',1.36135681656,1.35925995456,0.0219642745742,0.0,0.001,0.0,4300.0,0.0,0.0,0.0
1513267176433758016,,709889,,1513267174,615445376,'',1.36135681656,1.35787232529,-0.00597896556398,0.0,0.001,0.0,4300.0,0.0,0.0,0.0
1513267176443826889,,709890,,1513267174,625445376,'',1.36135681656,1.35925995456,0.0225466290707,0.0,0.001,0.0,4300.0,0.0,0.0,0.0
1513267176453710253,,709891,,1513267174,635445376,'',1.36135681656,1.35787232529,-0.00599315851398,0.0,0.001,0.0,4300.0,0.0,0.0,0.0
1513267176463697474,,709892,,1513267174,645445376,'',1.36135681656,1.35787232529,-0.00598856840154,0.0,0.001,0.0,4300.0,0.0,0.0,0.0
1513267176473595202,,709893,,1513267174,655445376,'',1.36135681656,1.35787232529,-0.00593763110777,0.0,0.001,0.0,4300.0,0.0,0.0,0.0
1513267176483603767,,709894,,1513267174,665445376,'',1.36135681656,1.35787232529,-0.006880336026,0.0,0.001,0.0,4300.0,0.0,0.0,0.0
1513267176493615034,,709895,,1513267174,675445376,'',1.36135681656,1.35787232529,-0.00824623290711,0.0,0.001,0.0,4300.0,0.0,0.0,0.0
1513267176503532279,,709896,,1513267174,685445376,'',1.36135681656,1.35925995456,0.0186979294158,0.0,0.001,0.0,4300.0,0.0,0.0,0.0
1513267176513855263,,709897,,1513267174,695445376,'',1.36135681656,1.35787232529,-0.00859911884021,0.0,0.001,0.0,4300.0,0.0,0.0,0.0
1513267176523844997,,709898,,1513267174,705445376,'',1.36135681656,1.35925995456,0.0193311337505,0.0,0.001,0.0,4300.0,0.0,0.0,0.0
1513267176533662912,,709899,,1513267174,715445376,'',1.36135681656,1.35925995456,0.0198277990985,0.0,0.001,0.0,4300.0,0.0,0.0,0.0
1513267176543522083,,709900,,1513267174,725445376,'',1.36135681656,1.35787232529,-0.00826561474706,0.0,0.001,0.0,4300.0,0.0,0.0,0.0
1513267176553496912,,709901,,1513267174,735445376,'',1.36135681656,1.35787232529,-0.00828065974865,0.0,0.001,0.0,4300.0,0.0,0.0,0.0
1513267176563649102,,709902,,1513267174,745445376,'',1.36135681656,1.35925995456,0.0177117156098,0.0,0.001,0.0,4300.0,0.0,0.0,0.0
1513267176573581636,,709903,,1513267174,755445376,'',1.36135681656,1.35787232529,-0.0104495013432,0.0,0.001,0.0,4300.0,0.0,0.0,0.0
1513267176583610852,,709904,,1513267174,765445376,'',1.36135681656,1.35787232529,-0.0110153401666,0.0,0.001,0.0,4300.0,0.0,0.0,0.0
1513267176593515292,,709905,,1513267174,775445376,'',1.36135681656,1.35925995456,0.0159004837139,0.0,0.001,0.0,4300.0,0.0,0.0,0.0
1513267176603528079,,709906,,1513267174,785445376,'',1.36135681656,1.35787232529,-0.0134900283593,0.0,0.001,0.0,4300.0,0.0,0.0,0.0
1513267176613399895,,709907,,1513267174,795445376,'',1.36135681656,1.35787232529,-0.0134960728537,0.0,0.001,0.0,4300.0,0.0,0.0,0.0
1513267176623760684,,709908,,1513267174,805445376,'',1.36135681656,1.35925995456,0.014849295711,0.0,0.001,0.0,4300.0,0.0,0.0,0.0
1513267176633800683,,709909,,1513267174,815445376,'',1.36135681656,1.35925995456,0.0151658377385,0.0,0.001,0.0,4300.0,0.0,0.0,0.0
1513267176643796871,,709910,,1513267174,825445376,'',1.36135681656,1.35787232529,-0.0126262883857,0.0,0.001,0.0,4300.0,0.0,0.0,0.0
1513267176653714133,,709911,,1513267174,835445376,'',1.36135681656,1.35787232529,-0.01182602561,0.0,0.001,0.0,4300.0,0.0,0.0,0.0
1513267176663732934,,709912,,1513267174,845445376,'',1.36135681656,1.35925995456,0.0152348627061,0.0,0.001,0.0,4300.0,0.0,0.0,0.0
1513267176673689716,,709913,,1513267174,855445376,'',1.36135681656,1.35925995456,0.0149855747239,0.0,0.001,0.0,4300.0,0.0,0.0,0.0
1513267176683643140,,709914,,1513267174,865445376,'',1.36135681656,1.35925995456,0.0147682683129,0.0,0.001,0.0,4300.0,0.0,0.0,0.0
1513267176693552489,,709915,,1513267174,875445376,'',1.36135681656,1.35925995456,0.013652198018,0.0,0.001,0.0,4300.0,0.0,0.0,0.0
1513267176703413340,,709916,,1513267174,885445376,'',1.36135681656,1.35787232529,-0.0132651441032,0.0,0.001,0.0,4300.0,0.0,0.0,0.0
1513267176713831297,,709917,,1513267174,895445376,'',1.36135681656,1.35925995456,0.0151720346124,0.0,0.001,0.0,4300.0,0.0,0.0,0.0
1513267176723657724,,709918,,1513267174,905445376,'',1.36135681656,1.35787232529,-0.0115608151715,0.0,0.001,0.0,4300.0,0.0,0.0,0.0
1513267176733699428,,709919,,1513267174,915445376,'',1.36135681656,1.35925995456,0.0164416251763,0.0,0.001,0.0,4300.0,0.0,0.0,0.0
1513267176743643605,,709920,,1513267174,925445376,'',1.36135681656,1.35925995456,0.0164178628608,0.0,0.001,0.0,4300.0,0.0,0.0,0.0
1513267176753620870,,709921,,1513267174,935445376,'',1.36135681656,1.35787232529,-0.00955627420392,0.0,0.001,0.0,4300.0,0.0,0.0,0.0
1513267176763581638,,709922,,1513267174,945445376,'',1.36135681656,1.35648469603,-0.0352959277665,0.0,0.001,0.0,4300.0,0.0,0.0,0.0
1513267176773445444,,709923,,1513267174,955445376,'',1.36135681656,1.35787232529,-0.00846937179733,0.0,0.001,0.0,4300.0,0.0,0.0,0.0
1513267176783392488,,709924,,1513267174,965445376,'',1.36135681656,1.35925995456,0.0205404710907,0.0,0.001,0.0,4300.0,0.0,0.0,0.0
1513267176793298277,,709925,,1513267174,975445376,'',1.36135681656,1.35787232529,-0.0091277630435,0.0,0.001,0.0,4300.0,0.0,0.0,0.0
1513267176803363500,,709926,,1513267174,985445376,'',1.36135681656,1.35925995456,0.0174748993292,0.0,0.001,0.0,4300.0,0.0,0.0,0.0
1513267176813263945,,709927,,1513267174,995445376,'',1.36135681656,1.35925995456,0.0168408639934,0.0,0.001,0.0,4300.0,0.0,0.0,0.0
1513267176823753915,,709928,,1513267175,5445376,'',1.36135681656,1.35925995456,0.0167778778442,0.0,0.001,0.0,4300.0,0.0,0.0,0.0
1513267176833681907,,709929,,1513267175,15445376,'',1.36135681656,1.35925995456,0.0163153622717,0.0,0.001,0.0,4300.0,0.0,0.0,0.0
1513267176843641611,,709930,,1513267175,25445376,'',1.36135681656,1.35787232529,-0.0126410859887,0.0,0.001,0.0,4300.0,0.0,0.0,0.0
1513267176853894164,,709931,,1513267175,35445376,'',1.36135681656,1.35787232529,-0.0129522521653,0.0,0.001,0.0,4300.0,0.0,0.0,0.0
1513267176863575629,,709932,,1513267175,45445376,'',1.36135681656,1.35787232529,-0.0141154254391,0.0,0.001,0.0,4300.0,0.0,0.0,0.0
1513267176873636399,,709933,,1513267175,55445376,'',1.36135681656,1.35787232529,-0.0151347507867,0.0,0.001,0.0,4300.0,0.0,0.0,0.0
1513267176883544619,,709934,,1513267175,65445376,'',1.36135681656,1.35925995456,0.0119887039205,0.0,0.001,0.0,4300.0,0.0,0.0,0.0
1513267176893511477,,709935,,1513267175,75445376,'',1.36135681656,1.35787232529,-0.0155997806416,0.0,0.001,0.0,4300.0,0.0,0.0,0.0
1513267176903371321,,709936,,1513267175,85445376,'',1.36135681656,1.35787232529,-0.0142626058466,0.0,0.001,0.0,4300.0,0.0,0.0,0.0
1513267176913287050,,709937,,1513267175,95445376,'',1.36135681656,1.35925995456,0.0137950242552,0.0,0.001,0.0,4300.0,0.0,0.0,0.0
1513267176923267688,,709938,,1513267175,105445376,'',1.36135681656,1.35925995456,0.013355106767,0.0,0.001,0.0,4300.0,0.0,0.0,0.0
1513267176933695876,,709939,,1513267175,115445376,'',1.36135681656,1.35925995456,0.0144534876415,0.0,0.001,0.0,4300.0,0.0,0.0,0.0
1513267176943319002,,709940,,1513267175,125445376,'',1.36135681656,1.35925995456,0.014831427633,0.0,0.001,0.0,4300.0,0.0,0.0,0.0
1513267176953288069,,709941,,1513267175,135445376,'',1.36135681656,1.35787232529,-0.012344160258,0.0,0.001,0.0,4300.0,0.0,0.0,0.0
1513267176963723860,,709942,,1513267175,145445376,'',1.36135681656,1.35787232529,-0.0126522068821,0.0,0.001,0.0,4300.0,0.0,0.0,0.0
1513267176973846915,,709943,,1513267175,155445376,'',1.36135681656,1.35787232529,-0.0128972561057,0.0,0.001,0.0,4300.0,0.0,0.0,0.0
1513267176983562093,,709944,,1513267175,165445376,'',1.36135681656,1.35787232529,-0.0145598499152,0.0,0.001,0.0,4300.0,0.0,0.0,0.0
1513267176993508991,,709945,,1513267175,175445376,'',1.36135681656,1.35787232529,-0.0144929853826,0.0,0.001,0.0,4300.0,0.0,0.0,0.0
1513267177003503290,,709946,,1513267175,185445376,'',1.36135681656,1.35925995456,0.0141160797396,0.0,0.001,0.0,4300.0,0.0,0.0,0.0
1513267177013421862,,709947,,1513267175,195445376,'',1.36135681656,1.35787232529,-0.0148848763247,0.0,0.001,0.0,4300.0,0.0,0.0,0.0
1513267177023291929,,709948,,1513267175,205445376,'',1.36135681656,1.35787232529,-0.015144407299,0.0,0.001,0.0,4300.0,0.0,0.0,0.0
1513267177033356451,,709949,,1513267175,215445376,'',1.36135681656,1.35925995456,0.0115639453504,0.0,0.001,0.0,4300.0,0.0,0.0,0.0
1513267177043815053,,709950,,1513267175,225445376,'',1.36135681656,1.35925995456,0.00995185832166,0.0,0.001,0.0,4300.0,0.0,0.0,0.0
1513267177053775445,,709951,,1513267175,235445376,'',1.36135681656,1.35787232529,-0.0178252968055,0.0,0.001,0.0,4300.0,0.0,0.0,0.0
1513267177063851296,,709952,,1513267175,245445376,'',1.36135681656,1.35925995456,0.0103216475076,0.0,0.001,0.0,4300.0,0.0,0.0,0.0
1513267177073723883,,709953,,1513267175,255445376,'',1.36135681656,1.35787232529,-0.0165916757988,0.0,0.001,0.0,4300.0,0.0,0.0,0.0
1513267177083546316,,709954,,1513267175,265445376,'',1.36135681656,1.35925995456,0.011807560372,0.0,0.001,0.0,4300.0,0.0,0.0,0.0
1513267177093591185,,709955,,1513267175,275445376,'',1.36135681656,1.35787232529,-0.0153011069107,0.0,0.001,0.0,4300.0,0.0,0.0,0.0
1513267177103533118,,709956,,1513267175,285445376,'',1.36135681656,1.35925995456,0.0139617117415,0.0,0.001,0.0,4300.0,0.0,0.0,0.0
1513267177113534360,,709957,,1513267175,295445376,'',1.36135681656,1.35925995456,0.0128994478978,0.0,0.001,0.0,4300.0,0.0,0.0,0.0
1513267177123409671,,709958,,1513267175,305445376,'',1.36135681656,1.35925995456,0.0126478242936,0.0,0.001,0.0,4300.0,0.0,0.0,0.0
1513267177133499303,,709959,,1513267175,315445376,'',1.36135681656,1.35787232529,-0.0160899532945,0.0,0.001,0.0,4300.0,0.0,0.0,0.0
1513267177143479264,,709960,,1513267175,325445376,'',1.36135681656,1.35787232529,-0.0167179630995,0.0,0.001,0.0,4300.0,0.0,0.0,0.0
1513267177153782597,,709961,,1513267175,335445376,'',1.36135681656,1.35787232529,-0.016703581463,0.0,0.001,0.0,4300.0,0.0,0.0,0.0
1513267177163644612,,709962,,1513267175,345445376,'',1.36135681656,1.35925995456,0.0117632535515,0.0,0.001,0.0,4300.0,0.0,0.0,0.0
1513267177173681453,,709963,,1513267175,355445376,'',1.36135681656,1.35925995456,0.0141235210906,0.0,0.001,0.0,4300.0,0.0,0.0,0.0
1513267177183562851,,709964,,1513267175,365445376,'',1.36135681656,1.35787232529,-0.0124301117893,0.0,0.001,0.0,4300.0,0.0,0.0,0.0
1513267177193552910,,709965,,1513267175,375445376,'',1.36135681656,1.35648469603,-0.039071917433,0.0,0.001,0.0,4300.0,0.0,0.0,0.0
1513267177203534831,,709966,,1513267175,385445376,'',1.36135681656,1.35787232529,-0.0104845441203,0.0,0.001,0.0,4300.0,0.0,0.0,0.0
1513267177213441443,,709967,,1513267175,395445376,'',1.36135681656,1.35648469603,-0.0375710734406,0.0,0.001,0.0,4300.0,0.0,0.0,0.0
1513267177223788442,,709968,,1513267175,405445376,'',1.36135681656,1.35787232529,-0.00880050649291,0.0,0.001,0.0,4300.0,0.0,0.0,0.0
1513267177233928721,,709969,,1513267175,415445376,'',1.36135681656,1.35925995456,0.0187335883238,0.0,0.001,0.0,4300.0,0.0,0.0,0.0
1513267177243765506,,709970,,1513267175,425445376,'',1.36135681656,1.35925995456,0.0158883299256,0.0,0.001,0.0,4300.0,0.0,0.0,0.0
1513267177253571411,,709971,,1513267175,435445376,'',1.36135681656,1.35787232529,-0.0139424177105,0.0,0.001,0.0,4300.0,0.0,0.0,0.0
1513267177263569576,,709972,,1513267175,445445376,'',1.36135681656,1.35787232529,-0.0148859098504,0.0,0.001,0.0,4300.0,0.0,0.0,0.0
1513267177273538127,,709973,,1513267175,455445376,'',1.36135681656,1.35925995456,0.0122771493022,0.0,0.001,0.0,4300.0,0.0,0.0,0.0
1513267177283532639,,709974,,1513267175,465445376,'',1.36135681656,1.35925995456,0.0140255009819,0.0,0.001,0.0,4300.0,0.0,0.0,0.0
1513267177293680843,,709975,,1513267175,475445376,'',1.36135681656,1.35787232529,-0.0139490529193,0.0,0.001,0.0,4300.0,0.0,0.0,0.0
1513267177303575050,,709976,,1513267175,485445376,'',1.36135681656,1.35925995456,0.0135814627056,0.0,0.001,0.0,4300.0,0.0,0.0,0.0
1513267177313665918,,709977,,1513267175,495445376,'',1.36135681656,1.35787232529,-0.0148240647573,0.0,0.001,0.0,4300.0,0.0,0.0,0.0
1513267177323539693,,709978,,1513267175,505445376,'',1.36135681656,1.35925995456,0.011346082782,0.0,0.001,0.0,4300.0,0.0,0.0,0.0
1513267177333618612,,709979,,1513267175,515445376,'',1.36135681656,1.35925995456,0.0117853747077,0.0,0.001,0.0,4300.0,0.0,0.0,0.0
1513267177343326874,,709980,,1513267175,525445376,'',1.36135681656,1.35925995456,0.0110253126833,0.0,0.001,0.0,4300.0,0.0,0.0,0.0
1513267177353307481,,709981,,1513267175,535445376,'',1.36135681656,1.35925995456,0.00998150032881,0.0,0.001,0.0,4300.0,0.0,0.0,0.0
1513267177363835289,,709982,,1513267175,545445376,'',1.36135681656,1.35787232529,-0.0168150845133,0.0,0.001,0.0,4300.0,0.0,0.0,0.0
1513267177373706923,,709983,,1513267175,555445376,'',1.36135681656,1.35925995456,0.0102275995578,0.0,0.001,0.0,4300.0,0.0,0.0,0.0
1513267177383711337,,709984,,1513267175,565445376,'',1.36135681656,1.35787232529,-0.0181441160479,0.0,0.001,0.0,4300.0,0.0,0.0,0.0
1513267177393695445,,709985,,1513267175,575445376,'',1.36135681656,1.35925995456,0.0101744000491,0.0,0.001,0.0,4300.0,0.0,0.0,0.0
1513267177403446211,,709986,,1513267175,585445376,'',1.36135681656,1.35925995456,0.0113032755675,0.0,0.001,0.0,4300.0,0.0,0.0,0.0
1513267177413728481,,709987,,1513267175,595445376,'',1.36135681656,1.35925995456,0.0111751504856,0.0,0.001,0.0,4300.0,0.0,0.0,0.0
1513267177423624352,,709988,,1513267175,605445376,'',1.36135681656,1.35925995456,0.00975925638482,0.0,0.001,0.0,4300.0,0.0,0.0,0.0
1513267177433479894,,709989,,1513267175,615445376,'',1.36135681656,1.35925995456,0.0085788416789,0.0,0.001,0.0,4300.0,0.0,0.0,0.0
1513267177443443753,,709990,,1513267175,625445376,'',1.36135681656,1.35925995456,0.0086195471325,0.0,0.001,0.0,4300.0,0.0,0.0,0.0
1513267177453526882,,709991,,1513267175,635445376,'',1.36135681656,1.35787232529,-0.0188598155323,0.0,0.001,0.0,4300.0,0.0,0.0,0.0
1513267177463489471,,709992,,1513267175,645445376,'',1.36135681656,1.35925995456,0.00900791162546,0.0,0.001,0.0,4300.0,0.0,0.0,0.0
1513267177473448758,,709993,,1513267175,655445376,'',1.36135681656,1.35925995456,0.00787836925795,0.0,0.001,0.0,4300.0,0.0,0.0,0.0
1513267177483359239,,709994,,1513267175,665445376,'',1.36135681656,1.35925995456,0.0074305859724,0.0,0.001,0.0,4300.0,0.0,0.0,0.0
1513267177493360045,,709995,,1513267175,675445376,'',1.36135681656,1.35925995456,0.00754637095394,0.0,0.001,0.0,4300.0,0.0,0.0,0.0
1513267177503932206,,709996,,1513267175,685445376,'',1.36135681656,1.35787232529,-0.0187400674762,0.0,0.001,0.0,4300.0,0.0,0.0,0.0
1513267177513731945,,709997,,1513267175,695445376,'',1.36135681656,1.35787232529,-0.0188357597123,0.0,0.001,0.0,4300.0,0.0,0.0,0.0
1513267177523806452,,709998,,1513267175,705445376,'',1.36135681656,1.35925995456,0.00961083201456,0.0,0.001,0.0,4300.0,0.0,0.0,0.0
1513267177533703522,,709999,,1513267175,715445376,'',1.36135681656,1.35925995456,0.00841369630584,0.0,0.001,0.0,4300.0,0.0,0.0,0.0
1513267177543683206,,710000,,1513267175,725445376,'',1.36135681656,1.35925995456,0.00687275109376,0.0,0.001,0.0,4300.0,0.0,0.0,0.0
1513267177553647816,,710001,,1513267175,735445376,'',1.36135681656,1.35648469603,-0.0483838055346,0.0,0.001,0.0,4300.0,0.0,0.0,0.0
1513267177563532692,,710002,,1513267175,745445376,'',1.36135681656,1.35787232529,-0.02018426874,0.0,0.001,0.0,4300.0,0.0,0.0,0.0
1513267177573508514,,710003,,1513267175,755445376,'',1.36135681656,1.35925995456,0.00739560343948,0.0,0.001,0.0,4300.0,0.0,0.0,0.0
1513267177583450045,,710004,,1513267175,765445376,'',1.36135681656,1.35925995456,0.00810783199509,0.0,0.001,0.0,4300.0,0.0,0.0,0.0
1513267177593912565,,710005,,1513267175,775445376,'',1.36135681656,1.35925995456,0.00921938053202,0.0,0.001,0.0,4300.0,0.0,0.0,0.0
1513267177603307033,,710006,,1513267175,785445376,'',1.36135681656,1.35925995456,0.00804169251816,0.0,0.001,0.0,4300.0,0.0,0.0,0.0
1513267177613813086,,710007,,1513267175,795445376,'',1.36135681656,1.35925995456,0.00816123980532,0.0,0.001,0.0,4300.0,0.0,0.0,0.0
1513267177623839273,,710008,,1513267175,805445376,'',1.36135681656,1.35787232529,-0.0188296207914,0.0,0.001,0.0,4300.0,0.0,0.0,0.0
1513267177633844741,,710009,,1513267175,815445376,'',1.36135681656,1.35925995456,0.00950719121614,0.0,0.001,0.0,4300.0,0.0,0.0,0.0
