rosbagTimestamp,header,seq,stamp,secs,nsecs,frame_id,set_point,process_value,process_value_dot,error,time_step,command,p,i,d,i_clamp
1513265215184532397,,513775,,1513265213,404618502,'',0.593411945678,0.362534728422,0.00187149544265,-0.230877217256,0.001,550.0,3100.0,0.0,3000.0,0.0
1513265215194399807,,513776,,1513265213,414618502,'',0.593411945678,0.362515118364,-0.00368918035282,-0.230896827314,0.001,550.0,3100.0,0.0,3000.0,0.0
1513265215204408013,,513777,,1513265213,424618502,'',0.593411945678,0.362524229221,-0.00387123670648,-0.230887716457,0.001,550.0,3100.0,0.0,3000.0,0.0
1513265215214470408,,513778,,1513265213,434618502,'',0.593411945678,0.362542642221,0.00171373702408,-0.230869303457,0.001,550.0,3100.0,0.0,3000.0,0.0
1513265215224546064,,513779,,1513265213,444618502,'',0.593411945678,0.362585434157,0.000850758746831,-0.230826511521,0.001,550.0,3100.0,0.0,3000.0,0.0
1513265215234171811,,513780,,1513265213,454618502,'',0.593411945678,0.362598557776,0.000587646469889,-0.230813387902,0.001,550.0,3100.0,0.0,3000.0,0.0
1513265215244655945,,513781,,1513265213,464618502,'',0.593411945678,0.362625315308,4.85980572164e-05,-0.23078663037,0.001,550.0,3100.0,0.0,3000.0,0.0
1513265215254534054,,513782,,1513265213,474618502,'',0.593411945678,0.362657630492,-0.000601895805507,-0.230754315186,0.001,550.0,3100.0,0.0,3000.0,0.0
1513265215264492736,,513783,,1513265213,484618502,'',0.593411945678,0.362662744992,-0.000704414658309,-0.230749200686,0.001,550.0,3100.0,0.0,3000.0,0.0
1513265215274348531,,513784,,1513265213,494618502,'',0.593411945678,0.362683978062,0.00481885615591,-0.230727967617,0.001,550.0,3100.0,0.0,3000.0,0.0
1513265215284191939,,513785,,1513265213,504618502,'',0.593411945678,0.362690115741,-0.00126296185453,-0.230721829937,0.001,550.0,3100.0,0.0,3000.0,0.0
1513265215294631584,,513786,,1513265213,514618502,'',0.593411945678,0.36269504733,0.00459098669045,-0.230716898348,0.001,550.0,3100.0,0.0,3000.0,0.0
1513265215304494326,,513787,,1513265213,524618502,'',0.593411945678,0.362699152366,0.00450775217658,-0.230712793312,0.001,550.0,3100.0,0.0,3000.0,0.0
1513265215314504781,,513788,,1513265213,534618502,'',0.593411945678,0.362707079573,0.00435053757296,-0.230704866105,0.001,550.0,3100.0,0.0,3000.0,0.0
1513265215324560200,,513789,,1513265213,544618502,'',0.593411945678,0.362724063139,-0.00194801173537,-0.230687882539,0.001,550.0,3100.0,0.0,3000.0,0.0
1513265215334475733,,513790,,1513265213,554618502,'',0.593411945678,0.362749413558,0.00349486251873,-0.23066253212,0.001,550.0,3100.0,0.0,3000.0,0.0
1513265215344401740,,513791,,1513265213,564618502,'',0.593411945678,0.362752727394,-0.00252822662324,-0.230659218284,0.001,550.0,3100.0,0.0,3000.0,0.0
1513265215354238463,,513792,,1513265213,574618502,'',0.593411945678,0.362762406706,0.0032314998681,-0.230649538972,0.001,550.0,3100.0,0.0,3000.0,0.0
1513265215364643076,,513793,,1513265213,584618502,'',0.593411945678,0.362760232245,0.00327622909225,-0.230651713433,0.001,550.0,3100.0,0.0,3000.0,0.0
1513265215374555790,,513794,,1513265213,594618502,'',0.593411945678,0.362741617073,-0.00230461247912,-0.230670328605,0.001,550.0,3100.0,0.0,3000.0,0.0
1513265215384486921,,513795,,1513265213,604618502,'',0.593411945678,0.362731327898,0.00385737643627,-0.23068061778,0.001,550.0,3100.0,0.0,3000.0,0.0
1513265215394537651,,513796,,1513265213,614618502,'',0.593411945678,0.362739555746,0.00369206679495,-0.230672389932,0.001,550.0,3100.0,0.0,3000.0,0.0
1513265215404403048,,513797,,1513265213,624618502,'',0.593411945678,0.362744849586,-0.00237207085516,-0.230667096092,0.001,550.0,3100.0,0.0,3000.0,0.0
1513265215414314452,,513798,,1513265213,634618502,'',0.593411945678,0.362733872168,-0.0021510826981,-0.23067807351,0.001,550.0,3100.0,0.0,3000.0,0.0
1513265215424351918,,513799,,1513265213,644618502,'',0.593411945678,0.362731702881,0.00384888216558,-0.230680242797,0.001,550.0,3100.0,0.0,3000.0,0.0
1513265215434211851,,513800,,1513265213,654618502,'',0.593411945678,0.36274440317,-0.00236157852569,-0.230667542508,0.001,550.0,3100.0,0.0,3000.0,0.0
1513265215444269965,,513801,,1513265213,664618502,'',0.593411945678,0.36276588496,0.00316222467411,-0.230646060718,0.001,550.0,3100.0,0.0,3000.0,0.0
1513265215454249150,,513802,,1513265213,674618502,'',0.593411945678,0.362778157801,0.00291577642732,-0.230633787877,0.001,550.0,3100.0,0.0,3000.0,0.0
1513265215464585841,,513803,,1513265213,684618502,'',0.593411945678,0.362756205234,0.00335836026598,-0.230655740444,0.001,550.0,3100.0,0.0,3000.0,0.0
1513265215474483236,,513804,,1513265213,694618502,'',0.593411945678,0.362733358645,-0.00213925221823,-0.230678587033,0.001,550.0,3100.0,0.0,3000.0,0.0
1513265215484428771,,513805,,1513265213,704618502,'',0.593411945678,0.362729798916,-0.002063179537,-0.230682146762,0.001,550.0,3100.0,0.0,3000.0,0.0
1513265215494425624,,513806,,1513265213,714618502,'',0.593411945678,0.362738915153,0.00370938049227,-0.230673030525,0.001,550.0,3100.0,0.0,3000.0,0.0
1513265215504428598,,513807,,1513265213,724618502,'',0.593411945678,0.362745212805,-0.00237562264793,-0.230666732873,0.001,550.0,3100.0,0.0,3000.0,0.0
1513265215514400278,,513808,,1513265213,734618502,'',0.593411945678,0.362755644686,0.00336811955975,-0.230656300992,0.001,550.0,3100.0,0.0,3000.0,0.0
1513265215524208928,,513809,,1513265213,744618502,'',0.593411945678,0.362742860213,-0.00233091778536,-0.230669085465,0.001,550.0,3100.0,0.0,3000.0,0.0
1513265215534678622,,513810,,1513265213,754618502,'',0.593411945678,0.362728011931,-0.00203100517708,-0.230683933747,0.001,550.0,3100.0,0.0,3000.0,0.0
1513265215544599177,,513811,,1513265213,764618502,'',0.593411945678,0.362720521309,-0.00187960156137,-0.23069142437,0.001,550.0,3100.0,0.0,3000.0,0.0
1513265215554565306,,513812,,1513265213,774618502,'',0.593411945678,0.362741002214,0.00365745344094,-0.230670943464,0.001,550.0,3100.0,0.0,3000.0,0.0
1513265215564511723,,513813,,1513265213,784618502,'',0.593411945678,0.362779229362,0.00288613835672,-0.230632716316,0.001,550.0,3100.0,0.0,3000.0,0.0
1513265215574436695,,513814,,1513265213,794618502,'',0.593411945678,0.362768769339,-0.00285731246617,-0.230643176339,0.001,550.0,3100.0,0.0,3000.0,0.0
1513265215584449773,,513815,,1513265213,804618502,'',0.593411945678,0.36275925468,-0.00266887309806,-0.230652690998,0.001,550.0,3100.0,0.0,3000.0,0.0
1513265215594318656,,513816,,1513265213,814618502,'',0.593411945678,0.36276795791,-0.00284370906604,-0.230643987768,0.001,550.0,3100.0,0.0,3000.0,0.0
1513265215604325532,,513817,,1513265213,824618502,'',0.593411945678,0.362769743895,0.00307646292966,-0.230642201783,0.001,550.0,3100.0,0.0,3000.0,0.0
1513265215614397442,,513818,,1513265213,834618502,'',0.593411945678,0.362781154396,0.00284808257082,-0.230630791282,0.001,550.0,3100.0,0.0,3000.0,0.0
1513265215624348952,,513819,,1513265213,844618502,'',0.593411945678,0.362784876995,0.00277350076646,-0.230627068683,0.001,550.0,3100.0,0.0,3000.0,0.0
1513265215634279910,,513820,,1513265213,854618502,'',0.593411945678,0.362782886523,0.0028153051439,-0.230629059155,0.001,550.0,3100.0,0.0,3000.0,0.0
1513265215644292820,,513821,,1513265213,864618502,'',0.593411945678,0.36278686312,0.00273305729518,-0.230625082559,0.001,550.0,3100.0,0.0,3000.0,0.0
1513265215654641948,,513822,,1513265213,874618502,'',0.593411945678,0.362785072391,0.00276822109133,-0.230626873287,0.001,550.0,3100.0,0.0,3000.0,0.0
1513265215664612354,,513823,,1513265213,884618502,'',0.593411945678,0.362773456506,0.0030065401079,-0.230638489173,0.001,550.0,3100.0,0.0,3000.0,0.0
1513265215674385859,,513824,,1513265213,894618502,'',0.593411945678,0.362778310395,0.00290692855622,-0.230633635283,0.001,550.0,3100.0,0.0,3000.0,0.0
1513265215684277665,,513825,,1513265213,904618502,'',0.593411945678,0.362793774391,-0.00335851191625,-0.230618171287,0.001,550.0,3100.0,0.0,3000.0,0.0
1513265215694272869,,513826,,1513265213,914618502,'',0.593411945678,0.362784439459,0.00278366061697,-0.230627506219,0.001,550.0,3100.0,0.0,3000.0,0.0
1513265215704613524,,513827,,1513265213,924618502,'',0.593411945678,0.362788181253,0.00270933947065,-0.230623764425,0.001,550.0,3100.0,0.0,3000.0,0.0
1513265215714426647,,513828,,1513265213,934618502,'',0.593411945678,0.362760867661,0.00326063349319,-0.230651078017,0.001,550.0,3100.0,0.0,3000.0,0.0
1513265215724622935,,513829,,1513265213,944618502,'',0.593411945678,0.362751888519,-0.00846947753144,-0.230660057159,0.001,550.0,3100.0,0.0,3000.0,0.0
1513265215734466435,,513830,,1513265213,954618502,'',0.593411945678,0.362751048178,0.00345846776414,-0.2306608975,0.001,550.0,3100.0,0.0,3000.0,0.0
1513265215744703526,,513831,,1513265213,964618502,'',0.593411945678,0.362759974316,0.00327663282305,-0.230651971362,0.001,550.0,3100.0,0.0,3000.0,0.0
1513265215754702563,,513832,,1513265213,974618502,'',0.593411945678,0.362784087435,-0.00316820660585,-0.230627858243,0.001,550.0,3100.0,0.0,3000.0,0.0
1513265215764513732,,513833,,1513265213,984618502,'',0.593411945678,0.362792926393,0.00260964235929,-0.230619019285,0.001,550.0,3100.0,0.0,3000.0,0.0
1513265215774447288,,513834,,1513265213,994618502,'',0.593411945678,0.362805684324,0.00235034149436,-0.230606261354,0.001,550.0,3100.0,0.0,3000.0,0.0
1513265215784526706,,513835,,1513265214,4618502,'',0.593411945678,0.362822016999,0.00202282479362,-0.230589928679,0.001,550.0,3100.0,0.0,3000.0,0.0
1513265215794569079,,513836,,1513265214,14618502,'',0.593411945678,0.362840175978,0.00165671787876,-0.2305717697,0.001,550.0,3100.0,0.0,3000.0,0.0
1513265215804512082,,513837,,1513265214,24618502,'',0.593411945678,0.362827547261,-0.00404316202701,-0.230584398417,0.001,550.0,3100.0,0.0,3000.0,0.0
1513265215814488213,,513838,,1513265214,34618502,'',0.593411945678,0.362839595249,0.00762947887148,-0.230572350429,0.001,550.0,3100.0,0.0,3000.0,0.0
1513265215824518875,,513839,,1513265214,44618502,'',0.593411945678,0.362833457781,0.00179900080906,-0.230578487897,0.001,550.0,3100.0,0.0,3000.0,0.0
1513265215834373234,,513840,,1513265214,54618502,'',0.593411945678,0.362828258222,0.00190373108167,-0.230583687456,0.001,550.0,3100.0,0.0,3000.0,0.0
1513265215844415469,,513841,,1513265214,64618502,'',0.593411945678,0.362818121357,-0.00384785594631,-0.230593824321,0.001,550.0,3100.0,0.0,3000.0,0.0
1513265215854185352,,513842,,1513265214,74618502,'',0.593411945678,0.362826268585,0.00194444544227,-0.230585677093,0.001,550.0,3100.0,0.0,3000.0,0.0
1513265215864575476,,513843,,1513265214,84618502,'',0.593411945678,0.36282804776,-0.00404706326468,-0.230583897918,0.001,550.0,3100.0,0.0,3000.0,0.0
1513265215874472126,,513844,,1513265214,94618502,'',0.593411945678,0.36283005352,0.00782230657304,-0.230581892158,0.001,550.0,3100.0,0.0,3000.0,0.0
1513265215884441640,,513845,,1513265214,104618502,'',0.593411945678,0.362815092852,0.00216423452802,-0.230596852826,0.001,550.0,3100.0,0.0,3000.0,0.0
1513265215894147662,,513846,,1513265214,114618502,'',0.593411945678,0.362834540615,0.00177181587201,-0.230577405063,0.001,550.0,3100.0,0.0,3000.0,0.0
1513265215904164791,,513847,,1513265214,124618502,'',0.593411945678,0.362850463142,0.00145052975336,-0.230561482537,0.001,550.0,3100.0,0.0,3000.0,0.0
1513265215914614582,,513848,,1513265214,134618502,'',0.593411945678,0.362858408622,0.00129032771275,-0.230553537056,0.001,550.0,3100.0,0.0,3000.0,0.0
1513265215924615285,,513849,,1513265214,144618502,'',0.593411945678,0.362874875491,0.0009565219356,-0.230537070187,0.001,550.0,3100.0,0.0,3000.0,0.0
1513265215934577890,,513850,,1513265214,154618502,'',0.593411945678,0.362872626775,-0.0049532048118,-0.230539318903,0.001,550.0,3100.0,0.0,3000.0,0.0
1513265215944469791,,513851,,1513265214,164618502,'',0.593411945678,0.362866226834,0.00113129814019,-0.230545718844,0.001,550.0,3100.0,0.0,3000.0,0.0
1513265215954394974,,513852,,1513265214,174618502,'',0.593411945678,0.362881236613,0.000825788163425,-0.230530709065,0.001,550.0,3100.0,0.0,3000.0,0.0
1513265215964327095,,513853,,1513265214,184618502,'',0.593411945678,0.362888570354,-0.00527759310714,-0.230523375324,0.001,550.0,3100.0,0.0,3000.0,0.0
1513265215974641429,,513854,,1513265214,194618502,'',0.593411945678,0.362895253274,0.00054266816096,-0.230516692404,0.001,550.0,3100.0,0.0,3000.0,0.0
1513265215984608424,,513855,,1513265214,204618502,'',0.593411945678,0.362910255053,0.000239234762286,-0.230501690625,0.001,550.0,3100.0,0.0,3000.0,0.0
1513265215994543399,,513856,,1513265214,214618502,'',0.593411945678,0.362922952355,-1.87428856191e-05,-0.230488993323,0.001,550.0,3100.0,0.0,3000.0,0.0
1513265216004533501,,513857,,1513265214,224618502,'',0.593411945678,0.362917852961,8.44940865731e-05,-0.230494092717,0.001,550.0,3100.0,0.0,3000.0,0.0
1513265216014520681,,513858,,1513265214,234618502,'',0.593411945678,0.362913800687,0.000168869004665,-0.230498144991,0.001,550.0,3100.0,0.0,3000.0,0.0
1513265216024493576,,513859,,1513265214,244618502,'',0.593411945678,0.362904411779,0.000358191288378,-0.230507533899,0.001,550.0,3100.0,0.0,3000.0,0.0
1513265216034479998,,513860,,1513265214,254618502,'',0.593411945678,0.362902792276,0.00634875955315,-0.230509153402,0.001,550.0,3100.0,0.0,3000.0,0.0
1513265216044507377,,513861,,1513265214,264618502,'',0.593411945678,0.362896122556,-0.00542841676088,-0.230515823122,0.001,550.0,3100.0,0.0,3000.0,0.0
1513265216054335987,,513862,,1513265214,274618502,'',0.593411945678,0.362901709296,0.000415100748909,-0.230510236382,0.001,550.0,3100.0,0.0,3000.0,0.0
1513265216064253235,,513863,,1513265214,284618502,'',0.593411945678,0.362905740697,0.000334699068197,-0.230506204981,0.001,550.0,3100.0,0.0,3000.0,0.0
1513265216074307307,,513864,,1513265214,294618502,'',0.593411945678,0.362918859311,7.11793740429e-05,-0.230493086367,0.001,550.0,3100.0,0.0,3000.0,0.0
1513265216084655750,,513865,,1513265214,304618502,'',0.593411945678,0.362909209807,0.000265136580879,-0.230502735871,0.001,550.0,3100.0,0.0,3000.0,0.0
1513265216094501273,,513866,,1513265214,314618502,'',0.593411945678,0.362890565569,-0.00531286703148,-0.230521380109,0.001,550.0,3100.0,0.0,3000.0,0.0
1513265216104518771,,513867,,1513265214,324618502,'',0.593411945678,0.362891134106,0.000632071589349,-0.230520811573,0.001,550.0,3100.0,0.0,3000.0,0.0
1513265216114530860,,513868,,1513265214,334618502,'',0.593411945678,0.362897435225,0.00646167260188,-0.230514510453,0.001,550.0,3100.0,0.0,3000.0,0.0
1513265216124412067,,513869,,1513265214,344618502,'',0.593411945678,0.362927548349,-0.000102417328149,-0.23048439733,0.001,550.0,3100.0,0.0,3000.0,0.0
1513265216134382225,,513870,,1513265214,354618502,'',0.593411945678,0.362920675711,-0.0059198799163,-0.230491269967,0.001,550.0,3100.0,0.0,3000.0,0.0
1513265216144501618,,513871,,1513265214,364618502,'',0.593411945678,0.362915671806,0.000136770815204,-0.230496273872,0.001,550.0,3100.0,0.0,3000.0,0.0
1513265216154368633,,513872,,1513265214,374618502,'',0.593411945678,0.362927610366,-0.000106087488152,-0.230484335312,0.001,550.0,3100.0,0.0,3000.0,0.0
1513265216164276301,,513873,,1513265214,384618502,'',0.593411945678,0.362926655876,-8.68397126219e-05,-0.230485289802,0.001,550.0,3100.0,0.0,3000.0,0.0
1513265216174685315,,513874,,1513265214,394618502,'',0.593411945678,0.362921185554,0.00597700076539,-0.230490760124,0.001,550.0,3100.0,0.0,3000.0,0.0
1513265216184532152,,513875,,1513265214,404618502,'',0.593411945678,0.362910641404,0.00023387317368,-0.230501304274,0.001,550.0,3100.0,0.0,3000.0,0.0
1513265216194216899,,513876,,1513265214,414618502,'',0.593411945678,0.362907765308,0.000291135863492,-0.230504180371,0.001,550.0,3100.0,0.0,3000.0,0.0
1513265216204653274,,513877,,1513265214,424618502,'',0.593411945678,0.362905529639,0.000338126009007,-0.230506416039,0.001,550.0,3100.0,0.0,3000.0,0.0
1513265216214553385,,513878,,1513265214,434618502,'',0.593411945678,0.362909735759,0.000252395539083,-0.230502209919,0.001,550.0,3100.0,0.0,3000.0,0.0
1513265216224618134,,513879,,1513265214,444618502,'',0.593411945678,0.362918273732,8.12917406982e-05,-0.230493671946,0.001,550.0,3100.0,0.0,3000.0,0.0
1513265216234562195,,513880,,1513265214,454618502,'',0.593411945678,0.362919012819,6.6550666004e-05,-0.230492932859,0.001,550.0,3100.0,0.0,3000.0,0.0
1513265216244540996,,513881,,1513265214,464618502,'',-0.25,0.362919617986,5.44805924706e-05,0.612919617986,0.001,-550.0,3100.0,0.0,3000.0,0.0
1513265216254289141,,513882,,1513265214,474618502,'',-0.25,0.362910149641,0.000246043603883,0.612910149641,0.001,-550.0,3100.0,0.0,3000.0,0.0
1513265216264651137,,513883,,1513265214,484618502,'',-0.25,0.362906593331,0.000316501663206,0.612906593331,0.001,-550.0,3100.0,0.0,3000.0,0.0
1513265216274595121,,513884,,1513265214,494618502,'',-0.25,0.362903642474,-0.00558016408888,0.612903642474,0.001,-550.0,3100.0,0.0,3000.0,0.0
1513265216284460812,,513885,,1513265214,504618502,'',-0.25,0.362878533432,-0.0110284581375,0.612878533432,0.001,-550.0,3100.0,0.0,3000.0,0.0
1513265216294692438,,513886,,1513265214,514618502,'',-0.25,0.362441176243,-0.079617136791,0.612441176243,0.001,-550.0,3100.0,0.0,3000.0,0.0
1513265216304629825,,513887,,1513265214,524618502,'',-0.25,0.36097032231,-0.204755202055,0.61097032231,0.001,-550.0,3100.0,0.0,3000.0,0.0
1513265216314561365,,513888,,1513265214,534618502,'',-0.25,0.358081417167,-0.354851290325,0.608081417167,0.001,-550.0,3100.0,0.0,3000.0,0.0
1513265216324694764,,513889,,1513265214,544618502,'',-0.25,0.353653718256,-0.515538264958,0.603653718256,0.001,-315.139525472,3100.0,0.0,3000.0,0.0
1513265216334638373,,513890,,1513265214,554618502,'',-0.25,0.347781611354,-0.635143497054,0.597781611354,0.001,59.9700844659,3100.0,0.0,3000.0,0.0
1513265216344557476,,513891,,1513265214,564618502,'',-0.25,0.340985641476,-0.700351053397,0.590985641476,0.001,277.446672694,3100.0,0.0,3000.0,0.0
1513265216354463397,,513892,,1513265214,574618502,'',-0.25,0.333998720932,-0.684279985331,0.583998720932,0.001,207.191899705,3100.0,0.0,3000.0,0.0
1513265216364399748,,513893,,1513265214,584618502,'',-0.25,0.327516490384,-0.612887495401,0.577516490384,0.001,49.9890000026,3100.0,0.0,3000.0,0.0
1513265216374418181,,513894,,1513265214,594618502,'',-0.25,0.321919628346,-0.517690845041,0.571919628346,0.001,-210.277128518,3100.0,0.0,3000.0,0.0
1513265216384253806,,513895,,1513265214,604618502,'',-0.25,0.317206764918,-0.434393776944,0.567206764918,0.001,-449.922274591,3100.0,0.0,3000.0,0.0
1513265216394188047,,513896,,1513265214,614618502,'',-0.25,0.313212192631,-0.389431048218,0.563212192631,0.001,-550.0,3100.0,0.0,3000.0,0.0
1513265216404554071,,513897,,1513265214,624618502,'',-0.25,0.309376581278,-0.389370218017,0.559376581278,0.001,-550.0,3100.0,0.0,3000.0,0.0
1513265216414458309,,513898,,1513265214,634618502,'',-0.25,0.305122970253,-0.46424761487,0.555122970253,0.001,-320.859506893,3100.0,0.0,3000.0,0.0
1513265216424459335,,513899,,1513265214,644618502,'',-0.25,0.300126313953,-0.536023294412,0.550126313953,0.001,-90.8491233674,3100.0,0.0,3000.0,0.0
1513265216434671429,,513900,,1513265214,654618502,'',-0.25,0.294438720553,-0.587888798999,0.544438720553,0.001,85.12301168,3100.0,0.0,3000.0,0.0
1513265216444665652,,513901,,1513265214,664618502,'',-0.25,0.288509149441,-0.581262009601,0.538509149441,0.001,88.5619813115,3100.0,0.0,3000.0,0.0
1513265216454409689,,513902,,1513265214,674618502,'',-0.25,0.28282363631,-0.54383138866,0.53282363631,0.001,-46.6931360219,3100.0,0.0,3000.0,0.0
1513265216464325972,,513903,,1513265214,684618502,'',-0.25,0.277660706832,-0.493135837905,0.527660706832,0.001,-147.184050207,3100.0,0.0,3000.0,0.0
1513265216474238996,,513904,,1513265214,694618502,'',-0.25,0.273116514421,-0.42515881843,0.523116514421,0.001,-339.822353132,3100.0,0.0,3000.0,0.0
1513265216484228437,,513905,,1513265214,704618502,'',-0.25,0.26904768511,-0.390606415406,0.51904768511,0.001,-403.993756948,3100.0,0.0,3000.0,0.0
1513265216494291531,,513906,,1513265214,714618502,'',-0.25,0.265227330287,-0.384898292753,0.515227330287,0.001,-437.851963851,3100.0,0.0,3000.0,0.0
1513265216504639989,,513907,,1513265214,724618502,'',-0.25,0.261171178519,-0.422077339082,0.511171178519,0.001,-313.304094155,3100.0,0.0,3000.0,0.0
1513265216514676398,,513908,,1513265214,734618502,'',-0.25,0.256747073193,-0.463732337877,0.506747073193,0.001,-158.712966192,3100.0,0.0,3000.0,0.0
1513265216524589189,,513909,,1513265214,744618502,'',-0.25,0.252099377698,-0.471087957033,0.502099377698,0.001,-136.194728899,3100.0,0.0,3000.0,0.0
1513265216534475060,,513910,,1513265214,754618502,'',-0.25,0.247435646987,-0.460252517998,0.497435646987,0.001,-152.736125681,3100.0,0.0,3000.0,0.0
1513265216544545777,,513911,,1513265214,764618502,'',-0.25,0.242891213051,-0.445873374191,0.492891213051,0.001,-212.006214531,3100.0,0.0,3000.0,0.0
1513265216554563689,,513912,,1513265214,774618502,'',-0.25,0.238564666982,-0.423985531172,0.488564666982,0.001,-264.421221066,3100.0,0.0,3000.0,0.0
1513265216564800032,,513913,,1513265214,784618502,'',-0.25,0.234509101563,-0.389703822117,0.484509101563,0.001,-329.283318321,3100.0,0.0,3000.0,0.0
1513265216574657050,,513914,,1513265214,794618502,'',-0.25,0.230643318853,-0.377121721351,0.480643318853,0.001,-354.067421695,3100.0,0.0,3000.0,0.0
1513265216584601445,,513915,,1513265214,804618502,'',-0.25,0.226876918229,-0.372502483521,0.476876918229,0.001,-378.902292667,3100.0,0.0,3000.0,0.0
1513265216594513651,,513916,,1513265214,814618502,'',-0.25,0.223218842051,-0.364115024343,0.473218842051,0.001,-371.267649698,3100.0,0.0,3000.0,0.0
1513265216604514229,,513917,,1513265214,824618502,'',-0.25,0.219448850854,-0.383254205386,0.469448850854,0.001,-263.78231386,3100.0,0.0,3000.0,0.0
1513265216614358694,,513918,,1513265214,834618502,'',-0.25,0.215575900395,-0.394349548273,0.465575900395,0.001,-254.042025116,3100.0,0.0,3000.0,0.0
1513265216624435001,,513919,,1513265214,844618502,'',-0.25,0.211538195316,-0.41402849104,0.461538195316,0.001,-208.494039463,3100.0,0.0,3000.0,0.0
1513265216634258144,,513920,,1513265214,854618502,'',-0.25,0.207507373355,-0.398112934721,0.457507373355,0.001,-244.41843377,3100.0,0.0,3000.0,0.0
1513265216644218809,,513921,,1513265214,864618502,'',-0.25,0.203668962595,-0.374174390651,0.453668962595,0.001,-280.400802564,3100.0,0.0,3000.0,0.0
1513265216654593659,,513922,,1513265214,874618502,'',-0.25,0.200089139987,-0.349504130289,0.450089139987,0.001,-341.523355148,3100.0,0.0,3000.0,0.0
1513265216664472706,,513923,,1513265214,884618502,'',-0.25,0.196768652166,-0.318163014361,0.446768652166,0.001,-442.967638716,3100.0,0.0,3000.0,0.0
1513265216674400621,,513924,,1513265214,894618502,'',-0.25,0.193727236239,-0.286505305589,0.443727236239,0.001,-529.76622412,3100.0,0.0,3000.0,0.0
1513265216684346377,,513925,,1513265214,904618502,'',-0.25,0.190964197334,-0.266422096234,0.440964197334,0.001,-550.0,3100.0,0.0,3000.0,0.0
1513265216694341268,,513926,,1513265214,914618502,'',-0.25,0.188421075392,-0.238871534723,0.438421075392,0.001,-550.0,3100.0,0.0,3000.0,0.0
1513265216704146717,,513927,,1513265214,924618502,'',-0.25,0.186133371264,-0.22243376953,0.436133371264,0.001,-550.0,3100.0,0.0,3000.0,0.0
1513265216714585493,,513928,,1513265214,934618502,'',-0.25,0.18407789622,-0.19877791986,0.43407789622,0.001,-550.0,3100.0,0.0,3000.0,0.0
1513265216724530716,,513929,,1513265214,944618502,'',-0.25,0.182188650995,-0.178476976791,0.432188650995,0.001,-550.0,3100.0,0.0,3000.0,0.0
1513265216734454102,,513930,,1513265214,954618502,'',-0.25,0.180465891649,-0.167501620892,0.430465891649,0.001,-550.0,3100.0,0.0,3000.0,0.0
1513265216744363079,,513931,,1513265214,964618502,'',-0.25,0.178917873241,-0.142185174092,0.428917873241,0.001,-550.0,3100.0,0.0,3000.0,0.0
1513265216754649602,,513932,,1513265214,974618502,'',-0.25,0.177510422516,-0.137578583304,0.427510422516,0.001,-550.0,3100.0,0.0,3000.0,0.0
1513265216764470770,,513933,,1513265214,984618502,'',-0.25,0.176243982632,-0.117949937635,0.426243982632,0.001,-550.0,3100.0,0.0,3000.0,0.0
1513265216774343172,,513934,,1513265214,994618502,'',-0.25,0.175086905928,-0.112441877135,0.425086905928,0.001,-550.0,3100.0,0.0,3000.0,0.0
1513265216784330852,,513935,,1513265215,4618502,'',-0.25,0.174076064147,-0.103932472019,0.424076064147,0.001,-550.0,3100.0,0.0,3000.0,0.0
1513265216794281664,,513936,,1513265215,14618502,'',-0.25,0.173163186325,-0.0854890976803,0.423163186325,0.001,-550.0,3100.0,0.0,3000.0,0.0
1513265216804348059,,513937,,1513265215,24618502,'',-0.25,0.172340906908,-0.0807876487151,0.422340906908,0.001,-550.0,3100.0,0.0,3000.0,0.0
1513265216814710862,,513938,,1513265215,34618502,'',-0.25,0.171589390362,-0.0715611297817,0.421589390362,0.001,-550.0,3100.0,0.0,3000.0,0.0
1513265216824699532,,513939,,1513265215,44618502,'',-0.25,0.170918793956,-0.0639676712997,0.420918793956,0.001,-550.0,3100.0,0.0,3000.0,0.0
1513265216834695305,,513940,,1513265215,54618502,'',-0.25,0.170289976796,-0.0631740589529,0.420289976796,0.001,-550.0,3100.0,0.0,3000.0,0.0
1513265216844429206,,513941,,1513265215,64618502,'',-0.25,0.169705796614,-0.0573301076594,0.419705796614,0.001,-550.0,3100.0,0.0,3000.0,0.0
1513265216854329733,,513942,,1513265215,74618502,'',-0.25,0.169207261022,-0.0472682775868,0.419207261022,0.001,-550.0,3100.0,0.0,3000.0,0.0
1513265216864112737,,513943,,1513265215,84618502,'',-0.25,0.168770435394,-0.0444009163162,0.418770435394,0.001,-550.0,3100.0,0.0,3000.0,0.0
1513265216874596099,,513944,,1513265215,94618502,'',-0.25,0.168387552892,-0.0426200235147,0.418387552892,0.001,-550.0,3100.0,0.0,3000.0,0.0
1513265216884473813,,513945,,1513265215,104618502,'',-0.25,0.168070322685,-0.0242991261224,0.418070322685,0.001,-550.0,3100.0,0.0,3000.0,0.0
1513265216894384365,,513946,,1513265215,114618502,'',-0.25,0.167826760412,-0.0193777144989,0.417826760412,0.001,-550.0,3100.0,0.0,3000.0,0.0
1513265216904254938,,513947,,1513265215,124618502,'',-0.25,0.16765372286,-0.00992762901486,0.41765372286,0.001,-550.0,3100.0,0.0,3000.0,0.0
1513265216914277199,,513948,,1513265215,134618502,'',-0.25,0.167555471606,-0.00198578575782,0.417555471606,0.001,-550.0,3100.0,0.0,3000.0,0.0
1513265216924184634,,513949,,1513265215,144618502,'',-0.25,0.167532469461,-0.0015205991723,0.417532469461,0.001,-550.0,3100.0,0.0,3000.0,0.0
1513265216934351525,,513950,,1513265215,154618502,'',-0.25,0.167535647139,0.00437122843799,0.417535647139,0.001,-550.0,3100.0,0.0,3000.0,0.0
1513265216944686863,,513951,,1513265215,164618502,'',-0.25,0.167559321431,0.00389319248439,0.417559321431,0.001,-550.0,3100.0,0.0,3000.0,0.0
1513265216954347171,,513952,,1513265215,174618502,'',-0.25,0.167665245666,0.0136649095266,0.417665245666,0.001,-550.0,3100.0,0.0,3000.0,0.0
1513265216964697621,,513953,,1513265215,184618502,'',-0.25,0.167810609931,0.0226395757872,0.417810609931,0.001,-550.0,3100.0,0.0,3000.0,0.0
1513265216974590220,,513954,,1513265215,194618502,'',-0.25,0.168019848338,0.0243688070123,0.418019848338,0.001,-550.0,3100.0,0.0,3000.0,0.0
1513265216984579868,,513955,,1513265215,204618502,'',-0.25,0.168229267716,0.0260894627176,0.418229267716,0.001,-550.0,3100.0,0.0,3000.0,0.0
1513265216994684402,,513956,,1513265215,214618502,'',-0.25,0.168474139071,0.0270986457022,0.418474139071,0.001,-550.0,3100.0,0.0,3000.0,0.0
1513265217004562901,,513957,,1513265215,224618502,'',-0.25,0.168727672936,0.021980284032,0.418727672936,0.001,-550.0,3100.0,0.0,3000.0,0.0
1513265217014556848,,513958,,1513265215,234618502,'',-0.25,0.168973199384,0.022975515983,0.418973199384,0.001,-550.0,3100.0,0.0,3000.0,0.0
1513265217024427532,,513959,,1513265215,244618502,'',-0.25,0.169173375018,0.0189309915756,0.419173375018,0.001,-550.0,3100.0,0.0,3000.0,0.0
1513265217034481635,,513960,,1513265215,254618502,'',-0.25,0.169331623976,0.00977871870829,0.419331623976,0.001,-550.0,3100.0,0.0,3000.0,0.0
1513265217044358408,,513961,,1513265215,264618502,'',-0.25,0.169435350258,0.0076847336666,0.419435350258,0.001,-550.0,3100.0,0.0,3000.0,0.0
1513265217054540543,,513962,,1513265215,274618502,'',-0.25,0.169562688818,0.0110694819795,0.419562688818,0.001,-550.0,3100.0,0.0,3000.0,0.0
1513265217064298844,,513963,,1513265215,284618502,'',-0.25,0.169640765114,0.00353611719293,0.419640765114,0.001,-550.0,3100.0,0.0,3000.0,0.0
1513265217074716897,,513964,,1513265215,294618502,'',-0.25,0.169725045469,0.00778860216109,0.419725045469,0.001,-550.0,3100.0,0.0,3000.0,0.0
1513265217084540590,,513965,,1513265215,304618502,'',-0.25,0.169789327919,0.00649136346442,0.419789327919,0.001,-550.0,3100.0,0.0,3000.0,0.0
1513265217094529021,,513966,,1513265215,314618502,'',-0.25,0.169830445464,-0.00625276879903,0.419830445464,0.001,-550.0,3100.0,0.0,3000.0,0.0
1513265217104298826,,513967,,1513265215,324618502,'',-0.25,0.169864567742,0.00496911919989,0.419864567742,0.001,-550.0,3100.0,0.0,3000.0,0.0
1513265217114252245,,513968,,1513265215,334618502,'',-0.25,0.169920683722,0.00383400797713,0.419920683722,0.001,-550.0,3100.0,0.0,3000.0,0.0
1513265217124305687,,513969,,1513265215,344618502,'',-0.25,0.16994975666,0.00324825529278,0.41994975666,0.001,-550.0,3100.0,0.0,3000.0,0.0
1513265217134627105,,513970,,1513265215,354618502,'',-0.25,0.169973456736,0.00277023436041,0.419973456736,0.001,-550.0,3100.0,0.0,3000.0,0.0
1513265217144515730,,513971,,1513265215,364618502,'',-0.25,0.1699933337,0.00236965544371,0.4199933337,0.001,-550.0,3100.0,0.0,3000.0,0.0
1513265217154543156,,513972,,1513265215,374618502,'',-0.25,0.170010184069,0.00798377192719,0.420010184069,0.001,-550.0,3100.0,0.0,3000.0,0.0
1513265217164442643,,513973,,1513265215,384618502,'',-0.25,0.169994924811,-0.00957533768065,0.419994924811,0.001,-550.0,3100.0,0.0,3000.0,0.0
1513265217174475286,,513974,,1513265215,394618502,'',-0.25,0.169768541821,-0.0407342589938,0.419768541821,0.001,-550.0,3100.0,0.0,3000.0,0.0
1513265217184357866,,513975,,1513265215,404618502,'',-0.25,0.168921493498,-0.130828387889,0.418921493498,0.001,-550.0,3100.0,0.0,3000.0,0.0
1513265217194462863,,513976,,1513265215,414618502,'',-0.25,0.166880774224,-0.286141790083,0.416880774224,0.001,-447.817598599,3100.0,0.0,3000.0,0.0
1513265217204223722,,513977,,1513265215,424618502,'',-0.25,0.162476724201,-0.584298576872,0.412476724201,0.001,442.008907435,3100.0,0.0,3000.0,0.0
1513265217214402266,,513978,,1513265215,434618502,'',-0.25,0.154947986184,-0.849112312729,0.404947986184,0.001,550.0,3100.0,0.0,3000.0,0.0
1513265217224287857,,513979,,1513265215,444618502,'',-0.25,0.146602298491,-0.787724817336,0.396602298491,0.001,550.0,3100.0,0.0,3000.0,0.0
1513265217234444403,,513980,,1513265215,454618502,'',-0.25,0.13957071484,-0.64567737917,0.38957071484,0.001,550.0,3100.0,0.0,3000.0,0.0
1513265217244316871,,513981,,1513265215,464618502,'',-0.25,0.133811671243,-0.523377631186,0.383811671243,0.001,345.412195824,3100.0,0.0,3000.0,0.0
1513265217254220814,,513982,,1513265215,474618502,'',-0.25,0.129140003252,-0.423047107594,0.379140003252,0.001,94.9275134686,3100.0,0.0,3000.0,0.0
1513265217264679318,,513983,,1513265215,484618502,'',-0.25,0.125466646139,-0.33097375862,0.375466646139,0.001,-168.000792255,3100.0,0.0,3000.0,0.0
1513265217274707143,,513984,,1513265215,494618502,'',-0.25,0.122553534317,-0.26617410329,0.372553534317,0.001,-372.626668151,3100.0,0.0,3000.0,0.0
1513265217284564625,,513985,,1513265215,504618502,'',-0.25,0.120142452029,-0.217464309091,0.370142452029,0.001,-493.071736294,3100.0,0.0,3000.0,0.0
1513265217294377741,,513986,,1513265215,514618502,'',-0.25,0.11819181183,-0.172102356312,0.36819181183,0.001,-550.0,3100.0,0.0,3000.0,0.0
1513265217304343847,,513987,,1513265215,524618502,'',-0.25,0.116576947512,-0.151389552533,0.366576947512,0.001,-550.0,3100.0,0.0,3000.0,0.0
1513265217314392220,,513988,,1513265215,534618502,'',-0.25,0.115262917304,-0.11888867809,0.365262917304,0.001,-550.0,3100.0,0.0,3000.0,0.0
1513265217324302791,,513989,,1513265215,544618502,'',-0.25,0.114094882614,-0.125071913886,0.364094882614,0.001,-550.0,3100.0,0.0,3000.0,0.0
1513265217334248470,,513990,,1513265215,554618502,'',-0.25,0.112599096649,-0.190146808617,0.362599096649,0.001,-550.0,3100.0,0.0,3000.0,0.0
1513265217344133746,,513991,,1513265215,564618502,'',-0.25,0.109720340823,-0.40000164895,0.359720340823,0.001,91.9940274279,3100.0,0.0,3000.0,0.0
1513265217354797941,,513992,,1513265215,574618502,'',-0.25,0.103904428698,-0.729195100769,0.353904428698,0.001,550.0,3100.0,0.0,3000.0,0.0
1513265217364586617,,513993,,1513265215,584618502,'',-0.25,0.0955295809351,-0.875658797492,0.345529580935,0.001,550.0,3100.0,0.0,3000.0,0.0
1513265217374565852,,513994,,1513265215,594618502,'',-0.25,0.0874209830786,-0.741634615127,0.337420983079,0.001,550.0,3100.0,0.0,3000.0,0.0
1513265217384492004,,513995,,1513265215,604618502,'',-0.25,0.0807806225643,-0.601532692508,0.330780622564,0.001,550.0,3100.0,0.0,3000.0,0.0
1513265217394470634,,513996,,1513265215,614618502,'',-0.25,0.0754540553055,-0.470108060807,0.325454055305,0.001,379.916678606,3100.0,0.0,3000.0,0.0
1513265217404240273,,513997,,1513265215,624618502,'',-0.25,0.0714658052009,-0.341891956425,0.321465805201,0.001,33.2585319004,3100.0,0.0,3000.0,0.0
1513265217414723175,,513998,,1513265215,634618502,'',-0.25,0.0685722782762,-0.247703889674,0.318572278276,0.001,-240.754486351,3100.0,0.0,3000.0,0.0
1513265217424700898,,513999,,1513265215,644618502,'',-0.25,0.0663769251336,-0.197398994037,0.316376925134,0.001,-386.756465447,3100.0,0.0,3000.0,0.0
1513265217434610383,,514000,,1513265215,654618502,'',-0.25,0.064621786442,-0.155988322981,0.314621786442,0.001,-505.029458949,3100.0,0.0,3000.0,0.0
1513265217444422429,,514001,,1513265215,664618502,'',-0.25,0.0632080685879,-0.121476002668,0.313208068588,0.001,-550.0,3100.0,0.0,3000.0,0.0
1513265217454478390,,514002,,1513265215,674618502,'',-0.25,0.0620697946304,-0.10443460787,0.31206979463,0.001,-550.0,3100.0,0.0,3000.0,0.0
1513265217464409935,,514003,,1513265215,684618502,'',-0.25,0.0611486614481,-0.079870365907,0.311148661448,0.001,-550.0,3100.0,0.0,3000.0,0.0
1513265217474185596,,514004,,1513265215,694618502,'',-0.25,0.0603773981255,-0.0702450189437,0.310377398126,0.001,-550.0,3100.0,0.0,3000.0,0.0
1513265217484620936,,514005,,1513265215,704618502,'',-0.25,0.0594938489764,-0.105994070241,0.309493848976,0.001,-550.0,3100.0,0.0,3000.0,0.0
1513265217494550700,,514006,,1513265215,714618502,'',-0.25,0.0578809875579,-0.216348824465,0.307880987558,0.001,-315.259489006,3100.0,0.0,3000.0,0.0
1513265217504389455,,514007,,1513265215,724618502,'',-0.25,0.0545663105482,-0.429307822482,0.304566310548,0.001,348.964301623,3100.0,0.0,3000.0,0.0
1513265217514306405,,514008,,1513265215,734618502,'',-0.25,0.0491761357912,-0.624164076759,0.299176135791,0.001,550.0,3100.0,0.0,3000.0,0.0
1513265217524211155,,514009,,1513265215,744618502,'',-0.25,0.0425445239128,-0.66291486678,0.292544523913,0.001,550.0,3100.0,0.0,3000.0,0.0
1513265217534767740,,514010,,1513265215,754618502,'',-0.25,0.0366804802347,-0.52658796103,0.286680480235,0.001,550.0,3100.0,0.0,3000.0,0.0
1513265217544856641,,514011,,1513265215,764618502,'',-0.25,0.0319602963235,-0.425279716034,0.281960296324,0.001,408.117040293,3100.0,0.0,3000.0,0.0
1513265217554550113,,514012,,1513265215,774618502,'',-0.25,0.02828398065,-0.32123400838,0.27828398065,0.001,114.642585594,3100.0,0.0,3000.0,0.0
1513265217564244042,,514013,,1513265215,784618502,'',-0.25,0.0255768974505,-0.236769582606,0.275576897451,0.001,-140.444940431,3100.0,0.0,3000.0,0.0
1513265217574705700,,514014,,1513265215,794618502,'',-0.25,0.0235711224071,-0.178381614466,0.273571122407,0.001,-311.419651158,3100.0,0.0,3000.0,0.0
1513265217584613247,,514015,,1513265215,804618502,'',-0.25,0.0220151129692,-0.146949808626,0.272015112969,0.001,-401.586712952,3100.0,0.0,3000.0,0.0
1513265217594640746,,514016,,1513265215,814618502,'',-0.25,0.0207392381818,-0.115218401054,0.270739238182,0.001,-491.499899749,3100.0,0.0,3000.0,0.0
1513265217604493778,,514017,,1513265215,824618502,'',-0.25,0.019699297065,-0.094209976514,0.269699297065,0.001,-550.0,3100.0,0.0,3000.0,0.0
1513265217614588003,,514018,,1513265215,834618502,'',-0.25,0.0188550919684,-0.0771557946515,0.268855091968,0.001,-550.0,3100.0,0.0,3000.0,0.0
1513265217624535732,,514019,,1513265215,844618502,'',-0.25,0.0181507793119,-0.0688838494455,0.268150779312,0.001,-550.0,3100.0,0.0,3000.0,0.0
1513265217634365303,,514020,,1513265215,854618502,'',-0.25,0.0173258303846,-0.105821297515,0.267325830385,0.001,-509.898439373,3100.0,0.0,3000.0,0.0
1513265217644440443,,514021,,1513265215,864618502,'',-0.25,0.0157134161146,-0.228094057424,0.265713416115,0.001,-149.853683602,3100.0,0.0,3000.0,0.0
1513265217654731288,,514022,,1513265215,874618502,'',-0.25,0.0115706573978,-0.614154756611,0.261570657398,0.001,550.0,3100.0,0.0,3000.0,0.0
1513265217664725988,,514023,,1513265215,884618502,'',-0.25,0.00341008382219,-0.913224518135,0.253410083822,0.001,550.0,3100.0,0.0,3000.0,0.0
1513265217674612537,,514024,,1513265215,894618502,'',-0.25,-0.00527014315419,-0.774981293206,0.244729856846,0.001,550.0,3100.0,0.0,3000.0,0.0
1513265217684333882,,514025,,1513265215,904618502,'',-0.25,-0.0121993408779,-0.64428200667,0.237800659122,0.001,550.0,3100.0,0.0,3000.0,0.0
1513265217694320480,,514026,,1513265215,914618502,'',-0.25,-0.0178105304656,-0.484539205036,0.232189469534,0.001,550.0,3100.0,0.0,3000.0,0.0
1513265217704687079,,514027,,1513265215,924618502,'',-0.25,-0.0222040455039,-0.405063118417,0.227795954496,0.001,515.078144402,3100.0,0.0,3000.0,0.0
1513265217714649266,,514028,,1513265215,934618502,'',-0.25,-0.0258249469186,-0.331914005182,0.224175053081,0.001,302.89040846,3100.0,0.0,3000.0,0.0
1513265217724661336,,514029,,1513265215,944618502,'',-0.25,-0.0287345390182,-0.25458132577,0.221265460982,0.001,78.6851183902,3100.0,0.0,3000.0,0.0
1513265217734529841,,514030,,1513265215,954618502,'',-0.25,-0.0309660711278,-0.200221872737,0.219033928872,0.001,-75.9207567106,3100.0,0.0,3000.0,0.0
1513265217744416310,,514031,,1513265215,964618502,'',-0.25,-0.0327724084066,-0.16372945288,0.217227591593,0.001,-180.232565376,3100.0,0.0,3000.0,0.0
1513265217754520474,,514032,,1513265215,974618502,'',-0.25,-0.0342664221439,-0.133551821749,0.215733577856,0.001,-268.148667759,3100.0,0.0,3000.0,0.0
1513265217764604882,,514033,,1513265215,984618502,'',-0.25,-0.0354810838974,-0.118292865085,0.214518916103,0.001,-315.882764054,3100.0,0.0,3000.0,0.0
1513265217774470251,,514034,,1513265215,994618502,'',-0.25,-0.0365099553551,-0.0975122173322,0.213490044645,0.001,-367.838306581,3100.0,0.0,3000.0,0.0
1513265217784457982,,514035,,1513265216,4618502,'',-0.25,-0.0373694326748,-0.0801457264417,0.212630567325,0.001,-417.5213157,3100.0,0.0,3000.0,0.0
1513265217794412987,,514036,,1513265216,14618502,'',-0.25,-0.03807087371,-0.0566971403234,0.21192912629,0.001,-486.370556489,3100.0,0.0,3000.0,0.0
1513265217804742309,,514037,,1513265216,24618502,'',-0.25,-0.038629256899,-0.0546983666797,0.211370743101,0.001,-490.504874894,3100.0,0.0,3000.0,0.0
1513265217814706441,,514038,,1513265216,34618502,'',-0.25,-0.0389845010978,-0.0289673234088,0.211015498902,0.001,-550.0,3100.0,0.0,3000.0,0.0
1513265217824914946,,514039,,1513265216,44618502,'',-0.25,-0.0392524833344,-0.0235508337975,0.210747516666,0.001,-550.0,3100.0,0.0,3000.0,0.0
1513265217834511482,,514040,,1513265216,54618502,'',-0.25,-0.0394903508632,-0.0280258223737,0.210509649137,0.001,-550.0,3100.0,0.0,3000.0,0.0
1513265217844529340,,514041,,1513265216,64618502,'',-0.25,-0.0399899950621,-0.0921645731836,0.210010004938,0.001,-366.727843032,3100.0,0.0,3000.0,0.0
1513265217854378138,,514042,,1513265216,74618502,'',-0.25,-0.0421731151146,-0.344961090672,0.207826884885,0.001,394.785231574,3100.0,0.0,3000.0,0.0
1513265217864438422,,514043,,1513265216,84618502,'',-0.25,-0.0475844195783,-0.690773682044,0.202415580422,0.001,550.0,3100.0,0.0,3000.0,0.0
1513265217874302644,,514044,,1513265216,94618502,'',-0.25,-0.0553135407054,-0.775783508394,0.194686459295,0.001,550.0,3100.0,0.0,3000.0,0.0
1513265217884743397,,514045,,1513265216,104618502,'',-0.25,-0.0622707346416,-0.635169570382,0.187729265358,0.001,550.0,3100.0,0.0,3000.0,0.0
1513265217894619435,,514046,,1513265216,114618502,'',-0.25,-0.0679772827032,-0.519833905944,0.182022717297,0.001,550.0,3100.0,0.0,3000.0,0.0
1513265217904535998,,514047,,1513265216,124618502,'',-0.25,-0.072506154676,-0.409739861014,0.177493845324,0.001,550.0,3100.0,0.0,3000.0,0.0
1513265217914568165,,514048,,1513265216,134618502,'',-0.25,-0.0760717537168,-0.319107369889,0.173928246283,0.001,423.309799038,3100.0,0.0,3000.0,0.0
1513265217924662100,,514049,,1513265216,144618502,'',-0.25,-0.0789386750032,-0.261159449486,0.171061324997,0.001,243.275310046,3100.0,0.0,3000.0,0.0
1513265217934507392,,514050,,1513265216,154618502,'',-0.25,-0.0811544526765,-0.197814320985,0.168845547324,0.001,58.9199575438,3100.0,0.0,3000.0,0.0
1513265217944539817,,514051,,1513265216,164618502,'',-0.25,-0.0828435676826,-0.154389542201,0.167156432317,0.001,-52.9858662161,3100.0,0.0,3000.0,0.0
1513265217954433150,,514052,,1513265216,174618502,'',-0.25,-0.0841455687111,-0.118791622077,0.165854431289,0.001,-156.137647205,3100.0,0.0,3000.0,0.0
1513265217964746753,,514053,,1513265216,184618502,'',-0.25,-0.0851931881226,-0.0976169008828,0.164806811877,0.001,-222.983360854,3100.0,0.0,3000.0,0.0
1513265217974695977,,514054,,1513265216,194618502,'',-0.25,-0.0860012617006,-0.0720027270964,0.163998738299,0.001,-291.467733308,3100.0,0.0,3000.0,0.0
1513265217984602358,,514055,,1513265216,204618502,'',-0.25,-0.0865958305573,-0.0507029127634,0.163404169443,0.001,-353.957822203,3100.0,0.0,3000.0,0.0
1513265217994681248,,514056,,1513265216,214618502,'',-0.25,-0.0870254663361,-0.0420165011329,0.162974533664,0.001,-378.52563898,3100.0,0.0,3000.0,0.0
1513265218004581895,,514057,,1513265216,224618502,'',-0.25,-0.0873599307087,-0.0259750438107,0.162640069291,0.001,-427.604405141,3100.0,0.0,3000.0,0.0
1513265218014401378,,514058,,1513265216,234618502,'',-0.25,-0.0876417009297,-0.0202784001114,0.16235829907,0.001,-442.301595038,3100.0,0.0,3000.0,0.0
1513265218024293232,,514059,,1513265216,244618502,'',-0.25,-0.0878567029705,-0.0252076192907,0.162143297029,0.001,-426.606494544,3100.0,0.0,3000.0,0.0
1513265218034367432,,514060,,1513265216,254618502,'',-0.25,-0.0880147799733,-0.0127322520952,0.161985220027,0.001,-463.763347755,3100.0,0.0,3000.0,0.0
1513265218044417410,,514061,,1513265216,264618502,'',-0.25,-0.0881537269546,-0.00992417394666,0.161846273045,0.001,-472.499937059,3100.0,0.0,3000.0,0.0
1513265218054280911,,514062,,1513265216,274618502,'',-0.25,-0.0882856861919,-0.0165357778723,0.161714313808,0.001,-451.495330657,3100.0,0.0,3000.0,0.0
1513265218064641962,,514063,,1513265216,284618502,'',-0.25,-0.0887716859784,-0.0902216488823,0.161228314022,0.001,-227.301747158,3100.0,0.0,3000.0,0.0
1513265218074610321,,514064,,1513265216,294618502,'',-0.25,-0.0906648048186,-0.293213336602,0.159335195181,0.001,371.428423928,3100.0,0.0,3000.0,0.0
1513265218084760503,,514065,,1513265216,304618502,'',-0.25,-0.0952581606574,-0.580837892832,0.154741839343,0.001,550.0,3100.0,0.0,3000.0,0.0
1513265218094524434,,514066,,1513265216,314618502,'',-0.25,-0.101432923635,-0.595276902375,0.148567076365,0.001,550.0,3100.0,0.0,3000.0,0.0
1513265218104552224,,514067,,1513265216,324618502,'',-0.25,-0.106843980852,-0.495245653741,0.143156019148,0.001,550.0,3100.0,0.0,3000.0,0.0
1513265218114341836,,514068,,1513265216,334618502,'',-0.25,-0.111198244794,-0.398002919468,0.138801755206,0.001,550.0,3100.0,0.0,3000.0,0.0
1513265218124713564,,514069,,1513265216,344618502,'',-0.25,-0.114601730709,-0.301414331072,0.135398269291,0.001,490.077192644,3100.0,0.0,3000.0,0.0
1513265218134628033,,514070,,1513265216,354618502,'',-0.25,-0.117240572057,-0.238828951283,0.132759427943,0.001,309.163499572,3100.0,0.0,3000.0,0.0
1513265218144563064,,514071,,1513265216,364618502,'',-0.25,-0.119384492267,-0.195517065781,0.130615507733,0.001,184.541693909,3100.0,0.0,3000.0,0.0
1513265218154421477,,514072,,1513265216,374618502,'',-0.25,-0.121102332592,-0.151535623456,0.128897667408,0.001,48.509428209,3100.0,0.0,3000.0,0.0
1513265218164692721,,514073,,1513265216,384618502,'',-0.25,-0.122480000719,-0.123703103428,0.127519999281,0.001,-28.3584166667,3100.0,0.0,3000.0,0.0
1513265218174639359,,514074,,1513265216,394618502,'',-0.25,-0.123572555842,-0.101631300647,0.126427444158,0.001,-85.4543789917,3100.0,0.0,3000.0,0.0
1513265218184464960,,514075,,1513265216,404618502,'',-0.25,-0.124458688352,-0.0744521723855,0.125541311648,0.001,-164.725632514,3100.0,0.0,3000.0,0.0
1513265218194329163,,514076,,1513265216,414618502,'',-0.25,-0.125141323872,-0.0606599747424,0.124858676128,0.001,-203.966987103,3100.0,0.0,3000.0,0.0
1513265218204691484,,514077,,1513265216,424618502,'',-0.25,-0.125685893115,-0.0496582763427,0.124314106885,0.001,-235.486138717,3100.0,0.0,3000.0,0.0
1513265218214534057,,514078,,1513265216,434618502,'',-0.25,-0.126114476919,-0.0317212303697,0.123885523081,0.001,-288.597587855,3100.0,0.0,3000.0,0.0
1513265218224433354,,514079,,1513265216,444618502,'',-0.25,-0.126441504636,-0.0343916593728,0.123558495364,0.001,-279.344456428,3100.0,0.0,3000.0,0.0
1513265218234406048,,514080,,1513265216,454618502,'',-0.25,-0.126690426652,-0.0200860236739,0.123309573348,0.001,-321.693137332,3100.0,0.0,3000.0,0.0
1513265218244717481,,514081,,1513265216,464618502,'',-0.25,-0.126879527014,-0.0162659757025,0.123120472986,0.001,-332.638797471,3100.0,0.0,3000.0,0.0
1513265218254465158,,514082,,1513265216,474618502,'',-0.25,-0.127033096282,-0.0131607064107,0.122966903718,0.001,-341.506524584,3100.0,0.0,3000.0,0.0
1513265218264418715,,514083,,1513265216,484618502,'',-0.25,-0.127174742205,-0.0102991001466,0.122825257795,0.001,-350.477788851,3100.0,0.0,3000.0,0.0
1513265218274474002,,514084,,1513265216,494618502,'',-0.25,-0.127283539217,-0.00809909476851,0.122716460783,0.001,-355.870218593,3100.0,0.0,3000.0,0.0
1513265218284842495,,514085,,1513265216,504618502,'',-0.25,-0.127363867494,-0.0064770145006,0.122636132506,0.001,-360.617892848,3100.0,0.0,3000.0,0.0
1513265218294650492,,514086,,1513265216,514618502,'',-0.25,-0.127439776475,-0.00494390139359,0.122560223525,0.001,-365.024619018,3100.0,0.0,3000.0,0.0
1513265218304520280,,514087,,1513265216,524618502,'',-0.25,-0.127501301291,-0.0037031602971,0.122498698709,0.001,-368.581127002,3100.0,0.0,3000.0,0.0
1513265218314501386,,514088,,1513265216,534618502,'',-0.25,-0.127826988926,-0.0620740193712,0.122173011074,0.001,-191.410546517,3100.0,0.0,3000.0,0.0
1513265218324452731,,514089,,1513265216,544618502,'',-0.25,-0.129236689906,-0.219163328631,0.120763310094,0.001,285.767149187,3100.0,0.0,3000.0,0.0
1513265218334363461,,514090,,1513265216,554618502,'',-0.25,-0.132561495199,-0.421067455612,0.117438504801,0.001,550.0,3100.0,0.0,3000.0,0.0
1513265218344256837,,514091,,1513265216,564618502,'',-0.25,-0.136985914108,-0.424475181728,0.113014085892,0.001,550.0,3100.0,0.0,3000.0,0.0
1513265218354304773,,514092,,1513265216,574618502,'',-0.25,-0.140820299822,-0.347011782916,0.109179700178,0.001,550.0,3100.0,0.0,3000.0,0.0
1513265218364653004,,514093,,1513265216,584618502,'',-0.25,-0.143918551445,-0.275142567333,0.106081448555,0.001,480.041542322,3100.0,0.0,3000.0,0.0
1513265218374607114,,514094,,1513265216,594618502,'',-0.25,-0.146325038265,-0.207975740583,0.103674961735,0.001,305.804015016,3100.0,0.0,3000.0,0.0
1513265218384608444,,514095,,1513265216,604618502,'',-0.25,-0.148128801755,-0.162258958265,0.101871198245,0.001,163.213964011,3100.0,0.0,3000.0,0.0
1513265218394544468,,514096,,1513265216,614618502,'',-0.25,-0.149551316244,-0.124243499531,0.100448683756,0.001,63.2073126422,3100.0,0.0,3000.0,0.0
1513265218404559409,,514097,,1513265216,624618502,'',-0.25,-0.150666253406,-0.0924398854526,0.0993337465937,0.001,-28.8828504053,3100.0,0.0,3000.0,0.0
1513265218414495161,,514098,,1513265216,634618502,'',-0.25,-0.151579346207,-0.0832741782767,0.0984206537927,0.001,-54.2658084494,3100.0,0.0,3000.0,0.0
1513265218424457352,,514099,,1513265216,644618502,'',-0.25,-0.152251398849,-0.0604176553384,0.0977486011508,0.001,-120.629566019,3100.0,0.0,3000.0,0.0
1513265218434773626,,514100,,1513265216,654618502,'',-0.25,-0.152787414848,-0.0495946447447,0.0972125851518,0.001,-144.878113044,3100.0,0.0,3000.0,0.0
1513265218444713377,,514101,,1513265216,664618502,'',-0.25,-0.153213567936,-0.0409837324954,0.0967864320641,0.001,-176.585514138,3100.0,0.0,3000.0,0.0
1513265218454666458,,514102,,1513265216,674618502,'',-0.25,-0.153548203414,-0.034226840869,0.0964517965856,0.001,-195.811028194,3100.0,0.0,3000.0,0.0
1513265218464698997,,514103,,1513265216,684618502,'',-0.25,-0.153807568107,-0.0289880335073,0.0961924318928,0.001,-210.615393579,3100.0,0.0,3000.0,0.0
1513265218474624569,,514104,,1513265216,694618502,'',-0.25,-0.154016290609,-0.0154964142678,0.0959837093912,0.001,-250.742561981,3100.0,0.0,3000.0,0.0
1513265218484635653,,514105,,1513265216,704618502,'',-0.25,-0.154196873161,-0.0211258672943,0.095803126839,0.001,-233.430162261,3100.0,0.0,3000.0,0.0
1513265218494488753,,514106,,1513265216,714618502,'',-0.25,-0.15432786715,-0.00919945471751,0.0956721328501,0.001,-268.874249695,3100.0,0.0,3000.0,0.0
1513265218504374467,,514107,,1513265216,724618502,'',-0.25,-0.154410283287,-0.00753414091961,0.0955897167133,0.001,-273.640236317,3100.0,0.0,3000.0,0.0
1513265218514408682,,514108,,1513265216,734618502,'',-0.25,-0.154477914131,-0.00616758113463,0.0955220858689,0.001,-277.510121201,3100.0,0.0,3000.0,0.0
1513265218524241338,,514109,,1513265216,744618502,'',-0.25,-0.154559035237,-0.0138077213673,0.0954409647634,0.001,-254.20334755,3100.0,0.0,3000.0,0.0
1513265218534646268,,514110,,1513265216,754618502,'',-0.25,-0.154599597608,-0.00370892362053,0.0954004023916,0.001,-284.808399432,3100.0,0.0,3000.0,0.0
1513265218544701203,,514111,,1513265216,764618502,'',-0.25,-0.154650601718,-0.0119569208014,0.0953493982818,0.001,-259.570898265,3100.0,0.0,3000.0,0.0
1513265218554594932,,514112,,1513265216,774618502,'',-0.25,-0.154699651329,-0.0109669768984,0.0953003486707,0.001,-262.371710997,3100.0,0.0,3000.0,0.0
1513265218564668206,,514113,,1513265216,784618502,'',-0.25,-0.154869681917,-0.0353681263506,0.0951303180827,0.001,-187.741936594,3100.0,0.0,3000.0,0.0
1513265218574321210,,514114,,1513265216,794618502,'',-0.25,-0.155591464109,-0.113566839226,0.0944085358907,0.001,42.6007267945,3100.0,0.0,3000.0,0.0
1513265218584294091,,514115,,1513265216,804618502,'',-0.25,-0.157426251168,-0.243513421928,0.092573748832,0.001,447.383805314,3100.0,0.0,3000.0,0.0
1513265218594452214,,514116,,1513265216,814618502,'',-0.25,-0.160362356661,-0.304820180964,0.0896376433386,0.001,550.0,3100.0,0.0,3000.0,0.0
1513265218604303121,,514117,,1513265216,824618502,'',-0.25,-0.16317468117,-0.257284610239,0.0868253188296,0.001,506.549519214,3100.0,0.0,3000.0,0.0
1513265218614687009,,514118,,1513265216,834618502,'',-0.25,-0.165479176444,-0.201453908114,0.0845208235562,0.001,334.447282583,3100.0,0.0,3000.0,0.0
1513265218624704811,,514119,,1513265216,844618502,'',-0.25,-0.167335336532,-0.163956696414,0.0826646634682,0.001,237.709004661,3100.0,0.0,3000.0,0.0
1513265218634597508,,514120,,1513265216,854618502,'',-0.25,-0.168679500035,-0.108966233917,0.081320499965,0.001,76.5203365128,3100.0,0.0,3000.0,0.0
1513265218644679897,,514121,,1513265216,864618502,'',-0.25,-0.169665384995,-0.0890512797037,0.0803346150046,0.001,18.6150647851,3100.0,0.0,3000.0,0.0
1513265218654306377,,514122,,1513265216,874618502,'',-0.25,-0.17043839869,-0.0641569028922,0.0795616013104,0.001,-53.3928220526,3100.0,0.0,3000.0,0.0
1513265218664338232,,514123,,1513265216,884618502,'',-0.25,-0.171004352482,-0.0434475083651,0.0789956475184,0.001,-117.192121405,3100.0,0.0,3000.0,0.0
1513265218674633545,,514124,,1513265216,894618502,'',-0.25,-0.171409322432,-0.0352503776723,0.0785906775677,0.001,-136.6441721,3100.0,0.0,3000.0,0.0
1513265218684698478,,514125,,1513265216,904618502,'',-0.25,-0.171750272865,-0.0283666826875,0.0782497271347,0.001,-157.077197671,3100.0,0.0,3000.0,0.0
1513265218694526163,,514126,,1513265216,914618502,'',-0.25,-0.172005027741,-0.0232223544725,0.0779949722592,0.001,-171.792421961,3100.0,0.0,3000.0,0.0
1513265218704397811,,514127,,1513265216,924618502,'',-0.25,-0.172213560101,-0.0190114089379,0.0777864398987,0.001,-183.796504415,3100.0,0.0,3000.0,0.0
1513265218714202644,,514128,,1513265216,934618502,'',-0.25,-0.172383959153,-0.0155704987403,0.077616040847,0.001,-194.636770506,3100.0,0.0,3000.0,0.0
1513265218724755263,,514129,,1513265216,944618502,'',-0.25,-0.172515059879,-0.0129255357309,0.0774849401213,0.001,-201.150295188,3100.0,0.0,3000.0,0.0
1513265218734728445,,514130,,1513265216,954618502,'',-0.25,-0.172631099826,-0.0105818796743,0.0773689001739,0.001,-207.963424529,3100.0,0.0,3000.0,0.0
1513265218744715454,,514131,,1513265216,964618502,'',-0.25,-0.172726123972,-0.00866267925959,0.0772738760279,0.001,-213.425809202,3100.0,0.0,3000.0,0.0
1513265218754615412,,514132,,1513265216,974618502,'',-0.25,-0.172803781612,-0.00709422976047,0.0771962183883,0.001,-218.299327134,3100.0,0.0,3000.0,0.0
1513265218764594699,,514133,,1513265216,984618502,'',-0.25,-0.172867463725,-0.00580804363594,0.0771325362752,0.001,-221.965384808,3100.0,0.0,3000.0,0.0
1513265218774533597,,514134,,1513265216,994618502,'',-0.25,-0.172919610354,-0.00475483940721,0.077080389646,0.001,-224.61049722,3100.0,0.0,3000.0,0.0
1513265218784678742,,514135,,1513265217,4618502,'',-0.25,-0.172954031451,-0.0040596230789,0.0770459685492,0.001,-226.611980498,3100.0,0.0,3000.0,0.0
1513265218794537304,,514136,,1513265217,14618502,'',-0.25,-0.172990420638,-0.0033246741165,0.0770095793623,0.001,-228.924753868,3100.0,0.0,3000.0,0.0
1513265218804786045,,514137,,1513265217,24618502,'',-0.25,-0.173097747438,-0.0197153161118,0.0769022525617,0.001,-179.558095187,3100.0,0.0,3000.0,0.0
1513265218815120232,,514138,,1513265217,34618502,'',-0.25,-0.173575203701,-0.0750207315496,0.0764247962989,0.001,-10.5250843567,3100.0,0.0,3000.0,0.0
1513265218824829851,,514139,,1513265217,44618502,'',-0.25,-0.174723125316,-0.153892196337,0.0752768746841,0.001,230.615130171,3100.0,0.0,3000.0,0.0
1513265218834876773,,514140,,1513265217,54618502,'',-0.25,-0.176661133247,-0.216801409994,0.0733388667527,0.001,427.553512974,3100.0,0.0,3000.0,0.0
1513265218844628351,,514141,,1513265217,64618502,'',-0.25,-0.178655064645,-0.185800551426,0.0713449353553,0.001,339.549977509,3100.0,0.0,3000.0,0.0
1513265218854728464,,514142,,1513265217,74618502,'',-0.25,-0.180314293549,-0.152280391034,0.0696857064509,0.001,241.669217703,3100.0,0.0,3000.0,0.0
1513265218864359924,,514143,,1513265217,84618502,'',-0.25,-0.181681628006,-0.124658829518,0.068318371994,0.001,162.61822951,3100.0,0.0,3000.0,0.0
1513265218874744562,,514144,,1513265217,94618502,'',-0.25,-0.182733290563,-0.0941264199225,0.0672667094372,0.001,75.2927893463,3100.0,0.0,3000.0,0.0
1513265218884638132,,514145,,1513265217,104618502,'',-0.25,-0.1835173465,-0.0690092572891,0.0664826535003,0.001,1.99560693569,3100.0,0.0,3000.0,0.0
1513265218894523596,,514146,,1513265217,114618502,'',-0.25,-0.184086451144,-0.04823655825,0.0659135488564,0.001,-58.7017978055,3100.0,0.0,3000.0,0.0
1513265218904556443,,514147,,1513265217,124618502,'',-0.25,-0.184467476162,-0.031261921849,0.0655325238381,0.001,-108.966000344,3100.0,0.0,3000.0,0.0
1513265218914483228,,514148,,1513265217,134618502,'',-0.25,-0.184756153302,-0.0254318033345,0.0652438466976,0.001,-125.415892196,3100.0,0.0,3000.0,0.0
1513265218924338640,,514149,,1513265217,144618502,'',-0.25,-0.184975840333,-0.0209965655792,0.0650241596667,0.001,-139.460552812,3100.0,0.0,3000.0,0.0
1513265218934566603,,514150,,1513265217,154618502,'',-0.25,-0.185146491027,-0.00827275666718,0.0648535089728,0.001,-175.801875608,3100.0,0.0,3000.0,0.0
1513265218944439080,,514151,,1513265217,164618502,'',-0.25,-0.185295621655,-0.0145384274971,0.0647043783448,0.001,-156.789491146,3100.0,0.0,3000.0,0.0
1513265218954387889,,514152,,1513265217,174618502,'',-0.25,-0.185383521171,-0.0034844361632,0.064616478829,0.001,-189.779920353,3100.0,0.0,3000.0,0.0
1513265218964769324,,514153,,1513265217,184618502,'',-0.25,-0.185456549624,-0.00201723108092,0.0645434503756,0.001,-194.127173999,3100.0,0.0,3000.0,0.0
1513265218974331929,,514154,,1513265217,194618502,'',-0.25,-0.185515675753,-0.000821830404672,0.0644843242475,0.001,-197.444280156,3100.0,0.0,3000.0,0.0
1513265218984270503,,514155,,1513265217,204618502,'',-0.25,-0.185547328875,-0.000179609937318,0.0644526711255,0.001,-199.271155723,3100.0,0.0,3000.0,0.0
1513265218994685506,,514156,,1513265217,214618502,'',-0.25,-0.18559247649,-0.00854732189274,0.0644075235102,0.001,-174.450518027,3100.0,0.0,3000.0,0.0
1513265219004619039,,514157,,1513265217,224618502,'',-0.25,-0.185603622478,0.000955957100006,0.0643963775224,0.001,-202.46469725,3100.0,0.0,3000.0,0.0
1513265219014462620,,514158,,1513265217,234618502,'',-0.25,-0.185671391659,-0.0162320240113,0.0643286083413,0.001,-150.495273148,3100.0,0.0,3000.0,0.0
1513265219024306865,,514159,,1513265217,244618502,'',-0.25,-0.185811264852,-0.0226814833335,0.0641887351476,0.001,-130.606805973,3100.0,0.0,3000.0,0.0
1513265219034635522,,514160,,1513265217,254618502,'',-0.25,-0.186257727913,-0.0693355876505,0.0637422720866,0.001,17.1408749888,3100.0,0.0,3000.0,0.0
1513265219044590321,,514161,,1513265217,264618502,'',-0.25,-0.18715588832,-0.116140670089,0.0628441116804,0.001,154.6563696,3100.0,0.0,3000.0,0.0
1513265219054583840,,514162,,1513265217,274618502,'',-0.25,-0.188470345884,-0.145255022528,0.0615296541159,0.001,237.535045815,3100.0,0.0,3000.0,0.0
1513265219064653911,,514163,,1513265217,284618502,'',-0.25,-0.189758653994,-0.119227605772,0.0602413460061,0.001,174.524958324,3100.0,0.0,3000.0,0.0
1513265219074511866,,514164,,1513265217,294618502,'',-0.25,-0.190828493476,-0.0976153263708,0.0591715065239,0.001,110.590560185,3100.0,0.0,3000.0,0.0
1513265219085024004,,514165,,1513265217,304618502,'',-0.25,-0.191705026613,-0.0799081101227,0.0582949733869,0.001,60.4346638168,3100.0,0.0,3000.0,0.0
1513265219094468435,,514166,,1513265217,314618502,'',-0.25,-0.192428556419,-0.0652898986024,0.0575714435813,0.001,18.3793099019,3100.0,0.0,3000.0,0.0
1513265219104184518,,514167,,1513265217,324618502,'',-0.25,-0.193031613299,-0.0531089161397,0.0569683867005,0.001,-16.3275534038,3100.0,0.0,3000.0,0.0
1513265219114587451,,514168,,1513265217,334618502,'',-0.25,-0.193508515366,-0.0434748624119,0.0564914846344,0.001,-43.514871803,3100.0,0.0,3000.0,0.0
1513265219124454561,,514169,,1513265217,344618502,'',-0.25,-0.193898654502,-0.0355935348383,0.0561013454977,0.001,-66.6012879767,3100.0,0.0,3000.0,0.0
1513265219134366035,,514170,,1513265217,354618502,'',-0.25,-0.194217606447,-0.0291502828737,0.0557823935527,0.001,-84.9544019718,3100.0,0.0,3000.0,0.0
1513265219144417754,,514171,,1513265217,364618502,'',-0.25,-0.194471636573,-0.0240180125782,0.055528363427,0.001,-99.8793097153,3100.0,0.0,3000.0,0.0
1513265219154270121,,514172,,1513265217,374618502,'',-0.25,-0.194687255471,-0.0196623203341,0.0553127445292,0.001,-112.315068516,3100.0,0.0,3000.0,0.0
1513265219164633717,,514173,,1513265217,384618502,'',-0.25,-0.19485484955,-0.00699945233859,0.0551451504502,0.001,-150.208114312,3100.0,0.0,3000.0,0.0
1513265219174473044,,514174,,1513265217,394618502,'',-0.25,-0.195000642023,-0.013331929563,0.0549993579771,0.001,-130.302859592,3100.0,0.0,3000.0,0.0
1513265219184271670,,514175,,1513265217,404618502,'',-0.25,-0.195112673556,-0.0110681457967,0.0548873264439,0.001,-136.80295409,3100.0,0.0,3000.0,0.0
1513265219194781272,,514176,,1513265217,414618502,'',-0.25,-0.195212048267,-0.0090607529084,0.0547879517325,0.001,-142.490690207,3100.0,0.0,3000.0,0.0
1513265219204755288,,514177,,1513265217,424618502,'',-0.25,-0.195302183924,-0.0165169566852,0.0546978160763,0.001,-120.797945893,3100.0,0.0,3000.0,0.0
1513265219214603527,,514178,,1513265217,434618502,'',-0.25,-0.195367187768,-0.0059251146656,0.0546328122316,0.001,-151.868205347,3100.0,0.0,3000.0,0.0
1513265219224390743,,514179,,1513265217,444618502,'',-0.25,-0.195420392919,-0.00485068130857,0.0545796070814,0.001,-154.563504834,3100.0,0.0,3000.0,0.0
1513265219234401197,,514180,,1513265217,454618502,'',-0.25,-0.195489951244,-0.0127260285515,0.0545100487558,0.001,-130.604722765,3100.0,0.0,3000.0,0.0
1513265219244710124,,514181,,1513265217,464618502,'',-0.25,-0.195682372202,-0.0273965055991,0.054317627798,0.001,-85.9473852872,3100.0,0.0,3000.0,0.0
1513265219254721673,,514182,,1513265217,474618502,'',-0.25,-0.196226707759,-0.0720703925543,0.0537732922407,0.001,44.9147720859,3100.0,0.0,3000.0,0.0
1513265219264656226,,514183,,1513265217,484618502,'',-0.25,-0.197180421298,-0.108473440984,0.052819578702,0.001,163.380841631,3100.0,0.0,3000.0,0.0
1513265219274661549,,514184,,1513265217,494618502,'',-0.25,-0.198217561227,-0.0968051184766,0.0517824387727,0.001,144.267842641,3100.0,0.0,3000.0,0.0
1513265219284664571,,514185,,1513265217,504618502,'',-0.25,-0.199100679505,-0.0882449069603,0.0508993204949,0.001,108.247856309,3100.0,0.0,3000.0,0.0
1513265219294612769,,514186,,1513265217,514618502,'',-0.25,-0.199883216304,-0.0724372497502,0.0501167836962,0.001,63.0124766019,3100.0,0.0,3000.0,0.0
1513265219304456125,,514187,,1513265217,524618502,'',-0.25,-0.200525303505,-0.059465010912,0.0494746964948,0.001,26.626280804,3100.0,0.0,3000.0,0.0
1513265219314439421,,514188,,1513265217,534618502,'',-0.25,-0.201051953601,-0.0488226496723,0.0489480463993,0.001,0.0392661003865,3100.0,0.0,3000.0,0.0
1513265219324381849,,514189,,1513265217,544618502,'',-0.25,-0.201479260766,-0.0309130989868,0.0485207392339,0.001,-59.1650963146,3100.0,0.0,3000.0,0.0
1513265219334722219,,514190,,1513265217,554618502,'',-0.25,-0.20184006915,-0.0329025637714,0.0481599308502,0.001,-50.2005818187,3100.0,0.0,3000.0,0.0
1513265219344699820,,514191,,1513265217,564618502,'',-0.25,-0.202135438914,-0.0269351349235,0.0478645610861,0.001,-67.413169121,3100.0,0.0,3000.0,0.0
1513265219354661294,,514192,,1513265217,574618502,'',-0.25,-0.20236050783,-0.0223855743328,0.04763949217,0.001,-81.7423572464,3100.0,0.0,3000.0,0.0
1513265219364486622,,514193,,1513265217,584618502,'',-0.25,-0.202553485162,-0.0184887150853,0.0474465148376,0.001,-90.9979705286,3100.0,0.0,3000.0,0.0
1513265219374510199,,514194,,1513265217,594618502,'',-0.25,-0.202694476959,-0.0156374268269,0.0473055230407,0.001,-99.4389656743,3100.0,0.0,3000.0,0.0
1513265219384443361,,514195,,1513265217,604618502,'',-0.25,-0.202834873525,-0.0128015627633,0.047165126475,0.001,-107.759236269,3100.0,0.0,3000.0,0.0
1513265219394315653,,514196,,1513265217,614618502,'',-0.25,-0.202933254012,-0.0108132408014,0.0470667459884,0.001,-113.782645315,3100.0,0.0,3000.0,0.0
1513265219404488821,,514197,,1513265217,624618502,'',-0.25,-0.203014919637,-0.00916401159745,0.0469850803626,0.001,-118.01237408,3100.0,0.0,3000.0,0.0
1513265219414758088,,514198,,1513265217,634618502,'',-0.25,-0.203089445993,-0.00765907080232,0.0469105540073,0.001,-122.299398922,3100.0,0.0,3000.0,0.0
1513265219424606600,,514199,,1513265217,644618502,'',-0.25,-0.203150464407,-0.00642843695759,0.0468495355927,0.001,-125.854307424,3100.0,0.0,3000.0,0.0
1513265219434662050,,514200,,1513265217,654618502,'',-0.25,-0.20319998693,-0.00542996386781,0.0468000130703,0.001,-129.042408366,3100.0,0.0,3000.0,0.0
1513265219444491037,,514201,,1513265217,664618502,'',-0.25,-0.203256647681,-0.00428654824543,0.0467433523193,0.001,-132.004722388,3100.0,0.0,3000.0,0.0
1513265219454327273,,514202,,1513265217,674618502,'',-0.25,-0.203382101809,-0.0203094159094,0.0466178981913,0.001,-83.164343693,3100.0,0.0,3000.0,0.0
1513265219464320517,,514203,,1513265217,684618502,'',-0.25,-0.203685472158,-0.0420146707554,0.0463145278417,0.001,-19.4602740756,3100.0,0.0,3000.0,0.0
1513265219474657899,,514204,,1513265217,694618502,'',-0.25,-0.204191444133,-0.0596219642109,0.0458085558666,0.001,37.7626403523,3100.0,0.0,3000.0,0.0
1513265219484451634,,514205,,1513265217,704618502,'',-0.25,-0.204778262346,-0.0570452704227,0.0452217376542,0.001,31.8149709263,3100.0,0.0,3000.0,0.0
1513265219494468858,,514206,,1513265217,714618502,'',-0.25,-0.205333324221,-0.0458330135209,0.0446666757788,0.001,0.0270848689695,3100.0,0.0,3000.0,0.0
1513265219504388957,,514207,,1513265217,724618502,'',-0.25,-0.205827027412,-0.045139242884,0.0441729725878,0.001,-3.83595983089,3100.0,0.0,3000.0,0.0
1513265219514369250,,514208,,1513265217,734618502,'',-0.25,-0.206241490423,-0.0460459428517,0.0437585095772,0.001,3.3125547666,3100.0,0.0,3000.0,0.0
1513265219524331941,,514209,,1513265217,744618502,'',-0.25,-0.206571458949,-0.0301014516395,0.0434285410507,0.001,-43.8469467153,3100.0,0.0,3000.0,0.0
1513265219534723636,,514210,,1513265217,754618502,'',-0.25,-0.2068501398,-0.0244721401061,0.0431498602003,0.001,-60.1195969635,3100.0,0.0,3000.0,0.0
1513265219544654655,,514211,,1513265217,764618502,'',-0.25,-0.207095607091,-0.0287941877716,0.0429043929091,0.001,-45.9232058541,3100.0,0.0,3000.0,0.0
1513265219554536774,,514212,,1513265217,774618502,'',-0.25,-0.207286785946,-0.0156544582852,0.0427132140541,0.001,-86.1687156309,3100.0,0.0,3000.0,0.0
1513265219564327753,,514213,,1513265217,784618502,'',-0.25,-0.207451340759,-0.0123304910316,0.0425486592413,0.001,-95.6662450598,3100.0,0.0,3000.0,0.0
1513265219574840322,,514214,,1513265217,794618502,'',-0.25,-0.207585840582,-0.00960713285861,0.0424141594178,0.001,-102.443616205,3100.0,0.0,3000.0,0.0
1513265219584833866,,514215,,1513265217,804618502,'',-0.25,-0.207696170733,-0.00737458551383,0.0423038292667,0.001,-108.926538973,3100.0,0.0,3000.0,0.0
1513265219594720052,,514216,,1513265217,814618502,'',-0.25,-0.207802875168,-0.00522051251515,0.0421971248316,0.001,-115.365420508,3100.0,0.0,3000.0,0.0
1513265219604617730,,514217,,1513265217,824618502,'',-0.25,-0.207900436114,-0.0125293487006,0.0420995638856,0.001,-92.7176608469,3100.0,0.0,3000.0,0.0
1513265219614559613,,514218,,1513265217,834618502,'',-0.25,-0.207986604967,-0.0015102472895,0.0420133950333,0.001,-125.685869168,3100.0,0.0,3000.0,0.0
1513265219624477154,,514219,,1513265217,844618502,'',-0.25,-0.208058691533,-0.00933208380113,0.0419413084666,0.001,-101.892770626,3100.0,0.0,3000.0,0.0
1513265219634440416,,514220,,1513265217,854618502,'',-0.25,-0.208168902357,-0.0163857010092,0.0418310976429,0.001,-81.2571410556,3100.0,0.0,3000.0,0.0
1513265219644560780,,514221,,1513265217,864618502,'',-0.25,-0.208341984144,-0.0128908233993,0.0416580158561,0.001,-90.2678314049,3100.0,0.0,3000.0,0.0
1513265219654606268,,514222,,1513265217,874618502,'',-0.25,-0.208617220643,-0.0258886968759,0.0413827793572,0.001,-48.5837733189,3100.0,0.0,3000.0,0.0
1513265219664497033,,514223,,1513265217,884618502,'',-0.25,-0.208943039308,-0.0378627140673,0.0410569606918,0.001,-13.0070908953,3100.0,0.0,3000.0,0.0
1513265219674337456,,514224,,1513265217,894618502,'',-0.25,-0.209259102528,-0.0314795472762,0.0407408974716,0.001,-33.7744397574,3100.0,0.0,3000.0,0.0
1513265219684278967,,514225,,1513265217,904618502,'',-0.25,-0.20954172609,-0.0257702062096,0.0404582739102,0.001,-47.724253347,3100.0,0.0,3000.0,0.0
1513265219694357090,,514226,,1513265217,914618502,'',-0.25,-0.209773116051,-0.0210958464233,0.0402268839486,0.001,-61.2219314375,3100.0,0.0,3000.0,0.0
1513265219704768835,,514227,,1513265217,924618502,'',-0.25,-0.209987820067,-0.0260392266594,0.0400121799329,0.001,-45.6124540966,3100.0,0.0,3000.0,0.0
1513265219714717861,,514228,,1513265217,934618502,'',-0.25,-0.210203862836,-0.0123939569099,0.0397961371642,0.001,-86.0714168331,3100.0,0.0,3000.0,0.0
1513265219724620851,,514229,,1513265217,944618502,'',-0.25,-0.21037280209,-0.00897997194771,0.0396271979096,0.001,-95.7654937252,3100.0,0.0,3000.0,0.0
1513265219734524508,,514230,,1513265217,954618502,'',-0.25,-0.210521148413,-0.0152622653273,0.0394788515868,0.001,-76.4109351127,3100.0,0.0,3000.0,0.0
1513265219744367491,,514231,,1513265217,964618502,'',-0.25,-0.210666943947,-0.0123152735258,0.0393330560533,0.001,-84.8302906636,3100.0,0.0,3000.0,0.0
1513265219754374462,,514232,,1513265217,974618502,'',-0.25,-0.210803366296,-0.0188384419929,0.0391966337039,0.001,-64.8156410533,3100.0,0.0,3000.0,0.0
1513265219764251435,,514233,,1513265217,984618502,'',-0.25,-0.210889213065,-0.00782563256981,0.039110786935,0.001,-97.6884408423,3100.0,0.0,3000.0,0.0
1513265219774750891,,514234,,1513265217,994618502,'',-0.25,-0.210975521782,-0.00608214225723,0.0390244782183,0.001,-103.054269493,3100.0,0.0,3000.0,0.0
1513265219784716795,,514235,,1513265218,4618502,'',-0.25,-0.211055893277,-0.0137381981879,0.0389441067232,0.001,-79.3043384732,3100.0,0.0,3000.0,0.0
1513265219794684747,,514236,,1513265218,14618502,'',-0.25,-0.211139330738,-0.0120499526466,0.0388606692621,0.001,-84.0839867039,3100.0,0.0,3000.0,0.0
1513265219804686555,,514237,,1513265218,24618502,'',-0.25,-0.211223056704,-0.0103576820596,0.0387769432964,0.001,-89.0572367535,3100.0,0.0,3000.0,0.0
1513265219814561879,,514238,,1513265218,34618502,'',-0.25,-0.211308073194,-0.00863613037053,0.0386919268063,0.001,-93.3071328767,3100.0,0.0,3000.0,0.0
1513265219824489798,,514239,,1513265218,44618502,'',-0.25,-0.211420463087,-0.0156460120317,0.0385795369128,0.001,-72.4499362554,3100.0,0.0,3000.0,0.0
1513265219834383975,,514240,,1513265218,54618502,'',-0.25,-0.21157793296,-0.0217456175558,0.0384220670403,0.001,-53.4705699897,3100.0,0.0,3000.0,0.0
1513265219844443868,,514241,,1513265218,64618502,'',-0.25,-0.211782084319,-0.0176221512787,0.0382179156805,0.001,-65.3218819529,3100.0,0.0,3000.0,0.0
1513265219854709639,,514242,,1513265218,74618502,'',-0.25,-0.212007631287,-0.0223458994878,0.0379923687133,0.001,-50.1241139305,3100.0,0.0,3000.0,0.0
1513265219864661063,,514243,,1513265218,84618502,'',-0.25,-0.212216143624,-0.018134095563,0.0377838563756,0.001,-62.3863774118,3100.0,0.0,3000.0,0.0
1513265219874600832,,514244,,1513265218,94618502,'',-0.25,-0.212445621407,-0.0227747241053,0.0375543785934,0.001,-49.0430049504,3100.0,0.0,3000.0,0.0
1513265219884526858,,514245,,1513265218,104618502,'',-0.25,-0.212642119698,-0.0188039202185,0.0373578803021,0.001,-59.1019103943,3100.0,0.0,3000.0,0.0
1513265219894460555,,514246,,1513265218,114618502,'',-0.25,-0.212802879494,-0.0155572432246,0.037197120506,0.001,-68.3498304783,3100.0,0.0,3000.0,0.0
1513265219904353088,,514247,,1513265218,124618502,'',-0.25,-0.212942602244,-0.0127353739883,0.0370573977564,0.001,-76.4256075136,3100.0,0.0,3000.0,0.0
1513265219914309603,,514248,,1513265218,134618502,'',-0.25,-0.213074160231,-0.0100767778497,0.0369258397686,0.001,-84.0109240397,3100.0,0.0,3000.0,0.0
1513265219924669979,,514249,,1513265218,144618502,'',-0.25,-0.213164651075,-0.00824950076495,0.036835348925,0.001,-89.3014348057,3100.0,0.0,3000.0,0.0
1513265219934761944,,514250,,1513265218,154618502,'',-0.25,-0.213247141271,-0.0065817362196,0.0367528587294,0.001,-94.0520377111,3100.0,0.0,3000.0,0.0
1513265219944552409,,514251,,1513265218,164618502,'',-0.25,-0.213332187075,-0.014143492456,0.0366678129246,0.001,-71.8661987344,3100.0,0.0,3000.0,0.0
1513265219954537269,,514252,,1513265218,174618502,'',-0.25,-0.213425837608,-0.0122494875298,0.0365741623924,0.001,-76.4669950617,3100.0,0.0,3000.0,0.0
1513265219964443811,,514253,,1513265218,184618502,'',-0.25,-0.213468919649,-0.00209916458595,0.0365310803511,0.001,-106.888360019,3100.0,0.0,3000.0,0.0
1513265219974969713,,514254,,1513265218,194618502,'',-0.25,-0.213557094679,-0.00959985018209,0.0364429053214,0.001,-78.3879548923,3100.0,0.0,3000.0,0.0
1513265219984400581,,514255,,1513265218,204618502,'',-0.25,-0.21363335664,-0.00805805835843,0.0363666433601,0.001,-88.9399705548,3100.0,0.0,3000.0,0.0
1513265219994329773,,514256,,1513265218,214618502,'',-0.25,-0.21369818182,-0.00675134887049,0.0363018181797,0.001,-92.0722575555,3100.0,0.0,3000.0,0.0
1513265220004388016,,514257,,1513265218,224618502,'',-0.25,-0.213776383313,-0.0144510455772,0.0362236166871,0.001,-68.6377274289,3100.0,0.0,3000.0,0.0
1513265220014336626,,514258,,1513265218,234618502,'',-0.25,-0.21385599149,-0.00356259264475,0.0361440085099,0.001,-101.750266238,3100.0,0.0,3000.0,0.0
1513265220024825173,,514259,,1513265218,244618502,'',-0.25,-0.213963442492,-0.0106694582535,0.0360365575084,0.001,-79.4650146412,3100.0,0.0,3000.0,0.0
1513265220034806359,,514260,,1513265218,254618502,'',-0.25,-0.214093231968,-0.0173234834634,0.0359067680324,0.001,-58.9628835428,3100.0,0.0,3000.0,0.0
1513265220044790845,,514261,,1513265218,264618502,'',-0.25,-0.214248605084,-0.0141873015827,0.0357513949159,0.001,-68.0445608364,3100.0,0.0,3000.0,0.0
1513265220054752474,,514262,,1513265218,274618502,'',-0.25,-0.214426591041,-0.0198719869347,0.035573408959,0.001,-53.4878421004,3100.0,0.0,3000.0,0.0
1513265220064653368,,514263,,1513265218,284618502,'',-0.25,-0.214571815111,-0.0169409255712,0.0354281848894,0.001,-58.7540760935,3100.0,0.0,3000.0,0.0
1513265220074580398,,514264,,1513265218,294618502,'',-0.25,-0.214732545739,-0.0136950309048,0.0352674542612,0.001,-68.2431383638,3100.0,0.0,3000.0,0.0
1513265220084475773,,514265,,1513265218,304618502,'',-0.25,-0.21486418559,-0.0110373601695,0.0351358144095,0.001,-76.3881200073,3100.0,0.0,3000.0,0.0
1513265220094440288,,514266,,1513265218,314618502,'',-0.25,-0.214988279838,-0.00852854111166,0.0350117201615,0.001,-82.8775512913,3100.0,0.0,3000.0,0.0
1513265220104473761,,514267,,1513265218,324618502,'',-0.25,-0.215072936702,-0.00681787142663,0.0349270632979,0.001,-87.6382180446,3100.0,0.0,3000.0,0.0
1513265220114203440,,514268,,1513265218,334618502,'',-0.25,-0.215134008691,-0.00558391884614,0.0348659913087,0.001,-91.5910418582,3100.0,0.0,3000.0,0.0
1513265220124784706,,514269,,1513265218,344618502,'',-0.25,-0.215218726185,-0.00387273478265,0.034781273815,0.001,-96.1718423441,3100.0,0.0,3000.0,0.0
1513265220134843759,,514270,,1513265218,354618502,'',-0.25,-0.215287806611,-0.0117579705633,0.0347121933887,0.001,-72.2366857656,3100.0,0.0,3000.0,0.0
1513265220144867724,,514271,,1513265218,364618502,'',-0.25,-0.21536083138,-0.0102795815709,0.03463916862,0.001,-76.4494343911,3100.0,0.0,3000.0,0.0
1513265220154769308,,514272,,1513265218,374618502,'',-0.25,-0.215436414578,-0.00875444834948,0.0345635854224,0.001,-81.4166810245,3100.0,0.0,3000.0,0.0
1513265220164531520,,514273,,1513265218,384618502,'',-0.25,-0.215515035071,-0.00716582880803,0.0344849649289,0.001,-85.1538139833,3100.0,0.0,3000.0,0.0
