rosbagTimestamp,header,seq,stamp,secs,nsecs,frame_id,set_point,process_value,process_value_dot,error,time_step,command,p,i,d,i_clamp
1513265346108971661,,526875,,1513265344,326751426,'',1.2217304764,1.19551970141,-0.0170254172146,-0.0262107749858,0.001,112.706332439,4300.0,0.0,0.0,0.0
1513265346119014726,,526876,,1513265344,336751426,'',1.2217304764,1.19690733067,0.0110898365486,-0.0248231457218,0.001,106.739526604,4300.0,0.0,0.0,0.0
1513265346128938524,,526877,,1513265344,346751426,'',1.2217304764,1.19690733067,0.0101023614729,-0.0248231457218,0.001,106.739526604,4300.0,0.0,0.0,0.0
1513265346139013360,,526878,,1513265344,356751426,'',1.2217304764,1.19551970141,-0.0161089300545,-0.0262107749858,0.001,112.706332439,4300.0,0.0,0.0,0.0
1513265346148965969,,526879,,1513265344,366751426,'',1.2217304764,1.19690733067,0.0107925781548,-0.0248231457218,0.001,106.739526604,4300.0,0.0,0.0,0.0
1513265346159329108,,526880,,1513265344,376751426,'',1.2217304764,1.19690733067,0.0093675380077,-0.0248231457218,0.001,106.739526604,4300.0,0.0,0.0,0.0
1513265346169243385,,526881,,1513265344,386751426,'',1.2217304764,1.19690733067,0.00918927369805,-0.0248231457218,0.001,106.739526604,4300.0,0.0,0.0,0.0
1513265346179242357,,526882,,1513265344,396751426,'',1.2217304764,1.19690733067,0.0105184209038,-0.0248231457218,0.001,106.739526604,4300.0,0.0,0.0,0.0
1513265346189259307,,526883,,1513265344,406751426,'',1.2217304764,1.19690733067,0.0106455859012,-0.0248231457218,0.001,106.739526604,4300.0,0.0,0.0,0.0
1513265346199025392,,526884,,1513265344,416751426,'',1.2217304764,1.19690733067,0.0117400324876,-0.0248231457218,0.001,106.739526604,4300.0,0.0,0.0,0.0
1513265346209072881,,526885,,1513265344,426751426,'',1.2217304764,1.19690733067,0.0106173385224,-0.0248231457218,0.001,106.739526604,4300.0,0.0,0.0,0.0
1513265346218987306,,526886,,1513265344,436751426,'',1.2217304764,1.19690733067,0.0101677520019,-0.0248231457218,0.001,106.739526604,4300.0,0.0,0.0,0.0
1513265346228928403,,526887,,1513265344,446751426,'',1.2217304764,1.19690733067,0.00992464907797,-0.0248231457218,0.001,106.739526604,4300.0,0.0,0.0,0.0
1513265346239041577,,526888,,1513265344,456751426,'',1.2217304764,1.19690733067,0.00956712186547,-0.0248231457218,0.001,106.739526604,4300.0,0.0,0.0,0.0
1513265346249297162,,526889,,1513265344,466751426,'',1.2217304764,1.19690733067,0.00880776701015,-0.0248231457218,0.001,106.739526604,4300.0,0.0,0.0,0.0
1513265346259361003,,526890,,1513265344,476751426,'',1.2217304764,1.19690733067,0.00972896304439,-0.0248231457218,0.001,106.739526604,4300.0,0.0,0.0,0.0
1513265346269145920,,526891,,1513265344,486751426,'',1.2217304764,1.19551970141,-0.0164828815246,-0.0262107749858,0.001,112.706332439,4300.0,0.0,0.0,0.0
1513265346278958461,,526892,,1513265344,496751426,'',1.2217304764,1.19551970141,-0.0160247168237,-0.0262107749858,0.001,112.706332439,4300.0,0.0,0.0,0.0
1513265346288891473,,526893,,1513265344,506751426,'',1.2217304764,1.19690733067,0.0118477668941,-0.0248231457218,0.001,106.739526604,4300.0,0.0,0.0,0.0
1513265346298802788,,526894,,1513265344,516751426,'',1.2217304764,1.19551970141,-0.015764668078,-0.0262107749858,0.001,112.706332439,4300.0,0.0,0.0,0.0
1513265346309279056,,526895,,1513265344,526751426,'',1.2217304764,1.19551970141,-0.0163723164996,-0.0262107749858,0.001,112.706332439,4300.0,0.0,0.0,0.0
1513265346319246572,,526896,,1513265344,536751426,'',1.2217304764,1.19551970141,-0.0168972977404,-0.0262107749858,0.001,112.706332439,4300.0,0.0,0.0,0.0
1513265346329208432,,526897,,1513265344,546751426,'',1.2217304764,1.19690733067,0.00966375418668,-0.0248231457218,0.001,106.739526604,4300.0,0.0,0.0,0.0
1513265346339174274,,526898,,1513265344,556751426,'',1.2217304764,1.19690733067,0.00885133040879,-0.0248231457218,0.001,106.739526604,4300.0,0.0,0.0,0.0
1513265346350845158,,526899,,1513265344,566751426,'',1.2217304764,1.19551970141,-0.0192778702194,-0.0262107749858,0.001,112.706332439,4300.0,0.0,0.0,0.0
1513265346358994083,,526900,,1513265344,576751426,'',1.2217304764,1.19690733067,0.00811846440034,-0.0248231457218,0.001,106.739526604,4300.0,0.0,0.0,0.0
1513265346368968664,,526901,,1513265344,586751426,'',1.2217304764,1.19690733067,0.00715579493899,-0.0248231457218,0.001,106.739526604,4300.0,0.0,0.0,0.0
1513265346378861489,,526902,,1513265344,596751426,'',1.2217304764,1.19690733067,0.00783668044773,-0.0248231457218,0.001,106.739526604,4300.0,0.0,0.0,0.0
1513265346389001530,,526903,,1513265344,606751426,'',1.2217304764,1.19551970141,-0.020552946513,-0.0262107749858,0.001,112.706332439,4300.0,0.0,0.0,0.0
1513265346398845314,,526904,,1513265344,616751426,'',1.2217304764,1.19690733067,0.00752707914472,-0.0248231457218,0.001,106.739526604,4300.0,0.0,0.0,0.0
1513265346408856644,,526905,,1513265344,626751426,'',1.2217304764,1.19690733067,0.00667440159986,-0.0248231457218,0.001,106.739526604,4300.0,0.0,0.0,0.0
1513265346418969904,,526906,,1513265344,636751426,'',1.2217304764,1.19551970141,-0.0215256878001,-0.0262107749858,0.001,112.706332439,4300.0,0.0,0.0,0.0
1513265346428939344,,526907,,1513265344,646751426,'',1.2217304764,1.19551970141,-0.0221453364838,-0.0262107749858,0.001,112.706332439,4300.0,0.0,0.0,0.0
1513265346439054877,,526908,,1513265344,656751426,'',1.2217304764,1.19551970141,-0.0231666798507,-0.0262107749858,0.001,112.706332439,4300.0,0.0,0.0,0.0
1513265346449362465,,526909,,1513265344,666751426,'',1.2217304764,1.19551970141,-0.0219547867006,-0.0262107749858,0.001,112.706332439,4300.0,0.0,0.0,0.0
1513265346459284203,,526910,,1513265344,676751426,'',1.2217304764,1.19690733067,0.00500900198255,-0.0248231457218,0.001,106.739526604,4300.0,0.0,0.0,0.0
1513265346469200785,,526911,,1513265344,686751426,'',1.2217304764,1.19690733067,0.0046878694217,-0.0248231457218,0.001,106.739526604,4300.0,0.0,0.0,0.0
1513265346479234928,,526912,,1513265344,696751426,'',1.2217304764,1.19690733067,0.00527712743619,-0.0248231457218,0.001,106.739526604,4300.0,0.0,0.0,0.0
1513265346489008991,,526913,,1513265344,706751426,'',1.2217304764,1.19690733067,0.00728369957184,-0.0248231457218,0.001,106.739526604,4300.0,0.0,0.0,0.0
1513265346499015224,,526914,,1513265344,716751426,'',1.2217304764,1.19690733067,0.00907324759661,-0.0248231457218,0.001,106.739526604,4300.0,0.0,0.0,0.0
1513265346508922998,,526915,,1513265344,726751426,'',1.2217304764,1.19690733067,0.00884086682289,-0.0248231457218,0.001,106.739526604,4300.0,0.0,0.0,0.0
1513265346518871737,,526916,,1513265344,736751426,'',1.2217304764,1.19690733067,0.00922892356301,-0.0248231457218,0.001,106.739526604,4300.0,0.0,0.0,0.0
1513265346529409829,,526917,,1513265344,746751426,'',1.2217304764,1.19690733067,0.00864107820804,-0.0248231457218,0.001,106.739526604,4300.0,0.0,0.0,0.0
1513265346539152724,,526918,,1513265344,756751426,'',1.2217304764,1.19690733067,0.00810872763132,-0.0248231457218,0.001,106.739526604,4300.0,0.0,0.0,0.0
1513265346549122518,,526919,,1513265344,766751426,'',1.2217304764,1.19690733067,0.00868036427684,-0.0248231457218,0.001,106.739526604,4300.0,0.0,0.0,0.0
1513265346558988733,,526920,,1513265344,776751426,'',1.2217304764,1.19690733067,0.00753378819098,-0.0248231457218,0.001,106.739526604,4300.0,0.0,0.0,0.0
1513265346568974959,,526921,,1513265344,786751426,'',1.2217304764,1.19690733067,0.00761956888207,-0.0248231457218,0.001,106.739526604,4300.0,0.0,0.0,0.0
1513265346578981911,,526922,,1513265344,796751426,'',1.2217304764,1.19690733067,0.00676712461712,-0.0248231457218,0.001,106.739526604,4300.0,0.0,0.0,0.0
1513265346589058506,,526923,,1513265344,806751426,'',1.2217304764,1.19690733067,0.00650409216154,-0.0248231457218,0.001,106.739526604,4300.0,0.0,0.0,0.0
1513265346598858908,,526924,,1513265344,816751426,'',1.2217304764,1.19690733067,0.00685484587638,-0.0248231457218,0.001,106.739526604,4300.0,0.0,0.0,0.0
1513265346609277460,,526925,,1513265344,826751426,'',1.2217304764,1.19551970141,-0.0198225542783,-0.0262107749858,0.001,112.706332439,4300.0,0.0,0.0,0.0
1513265346619203642,,526926,,1513265344,836751426,'',1.2217304764,1.19690733067,0.00832412079211,-0.0248231457218,0.001,106.739526604,4300.0,0.0,0.0,0.0
1513265346629200984,,526927,,1513265344,846751426,'',1.2217304764,1.19690733067,0.00785806881121,-0.0248231457218,0.001,106.739526604,4300.0,0.0,0.0,0.0
1513265346639113666,,526928,,1513265344,856751426,'',1.2217304764,1.19690733067,0.00691947104976,-0.0248231457218,0.001,106.739526604,4300.0,0.0,0.0,0.0
1513265346649056847,,526929,,1513265344,866751426,'',1.2217304764,1.19690733067,0.00719400030101,-0.0248231457218,0.001,106.739526604,4300.0,0.0,0.0,0.0
1513265346658944389,,526930,,1513265344,876751426,'',1.2217304764,1.19690733067,0.00695452643509,-0.0248231457218,0.001,106.739526604,4300.0,0.0,0.0,0.0
1513265346668889230,,526931,,1513265344,886751426,'',1.2217304764,1.19690733067,0.00518740349541,-0.0248231457218,0.001,106.739526604,4300.0,0.0,0.0,0.0
1513265346678902103,,526932,,1513265344,896751426,'',1.2217304764,1.19690733067,0.00574784206682,-0.0248231457218,0.001,106.739526604,4300.0,0.0,0.0,0.0
1513265346688799721,,526933,,1513265344,906751426,'',1.2217304764,1.19551970141,-0.0222701809929,-0.0262107749858,0.001,112.706332439,4300.0,0.0,0.0,0.0
1513265346699314347,,526934,,1513265344,916751426,'',1.2217304764,1.19690733067,0.00573255280182,-0.0248231457218,0.001,106.739526604,4300.0,0.0,0.0,0.0
1513265346709163089,,526935,,1513265344,926751426,'',1.2217304764,1.19829495994,0.0331787161375,-0.0234355164579,0.001,100.772720769,4300.0,0.0,0.0,0.0
1513265346719107998,,526936,,1513265344,936751426,'',1.2217304764,1.19551970141,-0.0227075465808,-0.0262107749858,0.001,112.706332439,4300.0,0.0,0.0,0.0
1513265346729026514,,526937,,1513265344,946751426,'',1.2217304764,1.19690733067,0.00696238138185,-0.0248231457218,0.001,106.739526604,4300.0,0.0,0.0,0.0
1513265346738937409,,526938,,1513265344,956751426,'',1.2217304764,1.19690733067,0.00625809923644,-0.0248231457218,0.001,106.739526604,4300.0,0.0,0.0,0.0
1513265346749382431,,526939,,1513265344,966751426,'',1.2217304764,1.19690733067,0.00620480736933,-0.0248231457218,0.001,106.739526604,4300.0,0.0,0.0,0.0
1513265346759321462,,526940,,1513265344,976751426,'',1.2217304764,1.19690733067,0.00561734623331,-0.0248231457218,0.001,106.739526604,4300.0,0.0,0.0,0.0
1513265346769057933,,526941,,1513265344,986751426,'',1.2217304764,1.19690733067,0.00704617742134,-0.0248231457218,0.001,106.739526604,4300.0,0.0,0.0,0.0
1513265346779200822,,526942,,1513265344,996751426,'',1.2217304764,1.19551970141,-0.0191824321372,-0.0262107749858,0.001,112.706332439,4300.0,0.0,0.0,0.0
1513265346789220873,,526943,,1513265345,6751426,'',1.2217304764,1.19551970141,-0.0181906564792,-0.0262107749858,0.001,112.706332439,4300.0,0.0,0.0,0.0
1513265346799047675,,526944,,1513265345,16751426,'',1.2217304764,1.19551970141,-0.0163107464047,-0.0262107749858,0.001,112.706332439,4300.0,0.0,0.0,0.0
1513265346809325248,,526945,,1513265345,26751426,'',1.2217304764,1.19551970141,-0.0158154699676,-0.0262107749858,0.001,112.706332439,4300.0,0.0,0.0,0.0
1513265346819235457,,526946,,1513265345,36751426,'',1.2217304764,1.19690733067,0.0124399920566,-0.0248231457218,0.001,106.739526604,4300.0,0.0,0.0,0.0
1513265346829197947,,526947,,1513265345,46751426,'',1.2217304764,1.19690733067,0.0126912876423,-0.0248231457218,0.001,106.739526604,4300.0,0.0,0.0,0.0
1513265346838991750,,526948,,1513265345,56751426,'',1.2217304764,1.19690733067,0.0113858386199,-0.0248231457218,0.001,106.739526604,4300.0,0.0,0.0,0.0
1513265346848830747,,526949,,1513265345,66751426,'',1.2217304764,1.19690733067,0.00984501577518,-0.0248231457218,0.001,106.739526604,4300.0,0.0,0.0,0.0
1513265346859219681,,526950,,1513265345,76751426,'',1.2217304764,1.19690733067,0.0095712710521,-0.0248231457218,0.001,106.739526604,4300.0,0.0,0.0,0.0
1513265346869118182,,526951,,1513265345,86751426,'',1.2217304764,1.19690733067,0.0108158319042,-0.0248231457218,0.001,106.739526604,4300.0,0.0,0.0,0.0
1513265346878921793,,526952,,1513265345,96751426,'',1.2217304764,1.19690733067,0.0108357377344,-0.0248231457218,0.001,106.739526604,4300.0,0.0,0.0,0.0
1513265346888971317,,526953,,1513265345,106751426,'',1.2217304764,1.19551970141,-0.0166016634467,-0.0262107749858,0.001,112.706332439,4300.0,0.0,0.0,0.0
1513265346899195240,,526954,,1513265345,116751426,'',1.2217304764,1.19551970141,-0.0155828395194,-0.0262107749858,0.001,112.706332439,4300.0,0.0,0.0,0.0
1513265346908953548,,526955,,1513265345,126751426,'',1.2217304764,1.19551970141,-0.0142775551114,-0.0262107749858,0.001,112.706332439,4300.0,0.0,0.0,0.0
1513265346918996997,,526956,,1513265345,136751426,'',1.2217304764,1.19690733067,0.0147895638121,-0.0248231457218,0.001,106.739526604,4300.0,0.0,0.0,0.0
1513265346928828893,,526957,,1513265345,146751426,'',1.2217304764,1.19690733067,0.0135920546747,-0.0248231457218,0.001,106.739526604,4300.0,0.0,0.0,0.0
1513265346938852270,,526958,,1513265345,156751426,'',1.2217304764,1.19690733067,0.0126570237923,-0.0248231457218,0.001,106.739526604,4300.0,0.0,0.0,0.0
1513265346948832682,,526959,,1513265345,166751426,'',1.2217304764,1.19551970141,-0.0146181129373,-0.0262107749858,0.001,112.706332439,4300.0,0.0,0.0,0.0
1513265346958839257,,526960,,1513265345,176751426,'',1.2217304764,1.19690733067,0.0125016033235,-0.0248231457218,0.001,106.739526604,4300.0,0.0,0.0,0.0
1513265346969249536,,526961,,1513265345,186751426,'',1.2217304764,1.19551970141,-0.0151785808525,-0.0262107749858,0.001,112.706332439,4300.0,0.0,0.0,0.0
1513265346979194748,,526962,,1513265345,196751426,'',1.2217304764,1.19551970141,-0.0154295460747,-0.0262107749858,0.001,112.706332439,4300.0,0.0,0.0,0.0
1513265346989199620,,526963,,1513265345,206751426,'',1.2217304764,1.19551970141,-0.0150898301791,-0.0262107749858,0.001,112.706332439,4300.0,0.0,0.0,0.0
1513265346999076336,,526964,,1513265345,216751426,'',1.2217304764,1.19690733067,0.0135371339426,-0.0248231457218,0.001,106.739526604,4300.0,0.0,0.0,0.0
1513265347009085675,,526965,,1513265345,226751426,'',1.2217304764,1.19551970141,-0.0149209606719,-0.0262107749858,0.001,112.706332439,4300.0,0.0,0.0,0.0
1513265347018996784,,526966,,1513265345,236751426,'',1.2217304764,1.19690733067,0.0132509446156,-0.0248231457218,0.001,106.739526604,4300.0,0.0,0.0,0.0
1513265347028893177,,526967,,1513265345,246751426,'',1.2217304764,1.19690733067,0.0134136621416,-0.0248231457218,0.001,106.739526604,4300.0,0.0,0.0,0.0
1513265347038835022,,526968,,1513265345,256751426,'',1.2217304764,1.19690733067,0.0124625519959,-0.0248231457218,0.001,106.739526604,4300.0,0.0,0.0,0.0
1513265347048778423,,526969,,1513265345,266751426,'',1.2217304764,1.19690733067,0.0127297148873,-0.0248231457218,0.001,106.739526604,4300.0,0.0,0.0,0.0
1513265347059308095,,526970,,1513265345,276751426,'',1.2217304764,1.19690733067,0.0124609786132,-0.0248231457218,0.001,106.739526604,4300.0,0.0,0.0,0.0
1513265347069276932,,526971,,1513265345,286751426,'',1.2217304764,1.19690733067,0.0116721453994,-0.0248231457218,0.001,106.739526604,4300.0,0.0,0.0,0.0
1513265347079232672,,526972,,1513265345,296751426,'',1.2217304764,1.19551970141,-0.0154397350368,-0.0262107749858,0.001,112.706332439,4300.0,0.0,0.0,0.0
1513265347089248801,,526973,,1513265345,306751426,'',1.2217304764,1.19690733067,0.0122798360315,-0.0248231457218,0.001,106.739526604,4300.0,0.0,0.0,0.0
1513265347099129967,,526974,,1513265345,316751426,'',1.2217304764,1.19690733067,0.0120386968605,-0.0248231457218,0.001,106.739526604,4300.0,0.0,0.0,0.0
1513265347109178306,,526975,,1513265345,326751426,'',1.2217304764,1.19690733067,0.0114262864209,-0.0248231457218,0.001,106.739526604,4300.0,0.0,0.0,0.0
1513265347119012292,,526976,,1513265345,336751426,'',1.2217304764,1.19551970141,-0.0166514189731,-0.0262107749858,0.001,112.706332439,4300.0,0.0,0.0,0.0
1513265347128867870,,526977,,1513265345,346751426,'',1.2217304764,1.19551970141,-0.0177146720821,-0.0262107749858,0.001,112.706332439,4300.0,0.0,0.0,0.0
1513265347138818630,,526978,,1513265345,356751426,'',1.2217304764,1.19551970141,-0.0180028289792,-0.0262107749858,0.001,112.706332439,4300.0,0.0,0.0,0.0
1513265347148810738,,526979,,1513265345,366751426,'',1.2217304764,1.19551970141,-0.0183038684054,-0.0262107749858,0.001,112.706332439,4300.0,0.0,0.0,0.0
1513265347159281020,,526980,,1513265345,376751426,'',1.2217304764,1.19551970141,-0.0179766620328,-0.0262107749858,0.001,112.706332439,4300.0,0.0,0.0,0.0
1513265347169168323,,526981,,1513265345,386751426,'',1.2217304764,1.19690733067,0.0107712857944,-0.0248231457218,0.001,106.739526604,4300.0,0.0,0.0,0.0
1513265347179175195,,526982,,1513265345,396751426,'',1.2217304764,1.19551970141,-0.0186917045825,-0.0262107749858,0.001,112.706332439,4300.0,0.0,0.0,0.0
1513265347189131624,,526983,,1513265345,406751426,'',1.2217304764,1.19551970141,-0.0188826401764,-0.0262107749858,0.001,112.706332439,4300.0,0.0,0.0,0.0
1513265347199144374,,526984,,1513265345,416751426,'',1.2217304764,1.19690733067,0.00896645258446,-0.0248231457218,0.001,106.739526604,4300.0,0.0,0.0,0.0
1513265347209172399,,526985,,1513265345,426751426,'',1.2217304764,1.19551970141,-0.0191535397133,-0.0262107749858,0.001,112.706332439,4300.0,0.0,0.0,0.0
1513265347219065615,,526986,,1513265345,436751426,'',1.2217304764,1.19690733067,0.00871809423706,-0.0248231457218,0.001,106.739526604,4300.0,0.0,0.0,0.0
1513265347229028945,,526987,,1513265345,446751426,'',1.2217304764,1.19551970141,-0.0172533051931,-0.0262107749858,0.001,112.706332439,4300.0,0.0,0.0,0.0
1513265347238837556,,526988,,1513265345,456751426,'',1.2217304764,1.19551970141,-0.0161328641024,-0.0262107749858,0.001,112.706332439,4300.0,0.0,0.0,0.0
1513265347249393248,,526989,,1513265345,466751426,'',1.2217304764,1.19551970141,-0.0161125617907,-0.0262107749858,0.001,112.706332439,4300.0,0.0,0.0,0.0
1513265347259290271,,526990,,1513265345,476751426,'',1.2217304764,1.19690733067,0.0113246687471,-0.0248231457218,0.001,106.739526604,4300.0,0.0,0.0,0.0
1513265347269254045,,526991,,1513265345,486751426,'',1.2217304764,1.19551970141,-0.0172128674187,-0.0262107749858,0.001,112.706332439,4300.0,0.0,0.0,0.0
1513265347279032936,,526992,,1513265345,496751426,'',1.2217304764,1.19690733067,0.0103178238203,-0.0248231457218,0.001,106.739526604,4300.0,0.0,0.0,0.0
1513265347288880024,,526993,,1513265345,506751426,'',1.2217304764,1.19690733067,0.0119813978232,-0.0248231457218,0.001,106.739526604,4300.0,0.0,0.0,0.0
1513265347298889227,,526994,,1513265345,516751426,'',1.2217304764,1.19413207215,-0.0425661955503,-0.0275984042497,0.001,118.673138274,4300.0,0.0,0.0,0.0
1513265347308839615,,526995,,1513265345,526751426,'',1.2217304764,1.19551970141,-0.012961821569,-0.0262107749858,0.001,112.706332439,4300.0,0.0,0.0,0.0
1513265347319196785,,526996,,1513265345,536751426,'',1.2217304764,1.19690733067,0.0144665846838,-0.0248231457218,0.001,106.739526604,4300.0,0.0,0.0,0.0
1513265347329121765,,526997,,1513265345,546751426,'',1.2217304764,1.19690733067,0.0138392427326,-0.0248231457218,0.001,106.739526604,4300.0,0.0,0.0,0.0
1513265347339054647,,526998,,1513265345,556751426,'',1.2217304764,1.19829495994,0.0414054050173,-0.0234355164579,0.001,100.772720769,4300.0,0.0,0.0,0.0
1513265347349077163,,526999,,1513265345,566751426,'',1.2217304764,1.19690733067,0.012496441478,-0.0248231457218,0.001,106.739526604,4300.0,0.0,0.0,0.0
1513265347359079843,,527000,,1513265345,576751426,'',1.2217304764,1.19690733067,0.0122976892417,-0.0248231457218,0.001,106.739526604,4300.0,0.0,0.0,0.0
1513265347368995284,,527001,,1513265345,586751426,'',1.2217304764,1.19690733067,0.0120231366423,-0.0248231457218,0.001,106.739526604,4300.0,0.0,0.0,0.0
1513265347379004639,,527002,,1513265345,596751426,'',1.2217304764,1.19551970141,-0.0161180287941,-0.0262107749858,0.001,112.706332439,4300.0,0.0,0.0,0.0
1513265347388999294,,527003,,1513265345,606751426,'',1.2217304764,1.19690733067,0.012757866781,-0.0248231457218,0.001,106.739526604,4300.0,0.0,0.0,0.0
1513265347398932745,,527004,,1513265345,616751426,'',1.2217304764,1.19551970141,-0.0150420849416,-0.0262107749858,0.001,112.706332439,4300.0,0.0,0.0,0.0
1513265347409260026,,527005,,1513265345,626751426,'',1.2217304764,1.19551970141,-0.014890416157,-0.0262107749858,0.001,112.706332439,4300.0,0.0,0.0,0.0
1513265347419215745,,527006,,1513265345,636751426,'',1.2217304764,1.19551970141,-0.0136785527708,-0.0262107749858,0.001,112.706332439,4300.0,0.0,0.0,0.0
1513265347429270970,,527007,,1513265345,646751426,'',1.2217304764,1.19690733067,0.0163042646999,-0.0248231457218,0.001,106.739526604,4300.0,0.0,0.0,0.0
1513265347439278712,,527008,,1513265345,656751426,'',1.2217304764,1.19551970141,-0.0110105072826,-0.0262107749858,0.001,112.706332439,4300.0,0.0,0.0,0.0
1513265347449162605,,527009,,1513265345,666751426,'',1.2217304764,1.19551970141,-0.0105095190469,-0.0262107749858,0.001,112.706332439,4300.0,0.0,0.0,0.0
1513265347459071210,,527010,,1513265345,676751426,'',1.2217304764,1.19690733067,0.0157966472834,-0.0248231457218,0.001,106.739526604,4300.0,0.0,0.0,0.0
1513265347469031457,,527011,,1513265345,686751426,'',1.2217304764,1.19551970141,-0.014582908564,-0.0262107749858,0.001,112.706332439,4300.0,0.0,0.0,0.0
1513265347478865430,,527012,,1513265345,696751426,'',1.2217304764,1.19690733067,0.011486533441,-0.0248231457218,0.001,106.739526604,4300.0,0.0,0.0,0.0
1513265347488862179,,527013,,1513265345,706751426,'',1.2217304764,1.19690733067,0.00888315315776,-0.0248231457218,0.001,106.739526604,4300.0,0.0,0.0,0.0
1513265347499174654,,527014,,1513265345,716751426,'',1.2217304764,1.19829495994,0.0337861140907,-0.0234355164579,0.001,100.772720769,4300.0,0.0,0.0,0.0
1513265347509185108,,527015,,1513265345,726751426,'',1.2217304764,1.19829495994,0.0316949831659,-0.0234355164579,0.001,100.772720769,4300.0,0.0,0.0,0.0
1513265347519107926,,527016,,1513265345,736751426,'',1.2217304764,1.1996825892,0.0553588082402,-0.0220478871939,0.001,94.8059149339,4300.0,0.0,0.0,0.0
1513265347528969982,,527017,,1513265345,746751426,'',1.2217304764,1.19829495994,0.0258585956209,-0.0234355164579,0.001,100.772720769,4300.0,0.0,0.0,0.0
1513265347538828403,,527018,,1513265345,756751426,'',1.2217304764,1.19690733067,-0.00414391596795,-0.0248231457218,0.001,106.739526604,4300.0,0.0,0.0,0.0
1513265347549340680,,527019,,1513265345,766751426,'',1.2217304764,1.19829495994,0.0230710880036,-0.0234355164579,0.001,100.772720769,4300.0,0.0,0.0,0.0
1513265347559463667,,527020,,1513265345,776751426,'',1.2217304764,1.19690733067,-0.00511242975116,-0.0248231457218,0.001,106.739526604,4300.0,0.0,0.0,0.0
1513265347569381838,,527021,,1513265345,786751426,'',1.2217304764,1.19829495994,0.022206110162,-0.0234355164579,0.001,100.772720769,4300.0,0.0,0.0,0.0
1513265347579121666,,527022,,1513265345,796751426,'',1.2217304764,1.19829495994,0.0211696054232,-0.0234355164579,0.001,100.772720769,4300.0,0.0,0.0,0.0
1513265347589266526,,527023,,1513265345,806751426,'',1.2217304764,1.19690733067,-0.00870954445628,-0.0248231457218,0.001,106.739526604,4300.0,0.0,0.0,0.0
1513265347599208305,,527024,,1513265345,816751426,'',1.2217304764,1.19829495994,0.0153452293057,-0.0234355164579,0.001,100.772720769,4300.0,0.0,0.0,0.0
1513265347609062397,,527025,,1513265345,826751426,'',1.2217304764,1.19690733067,-0.0154345906695,-0.0248231457218,0.001,106.739526604,4300.0,0.0,0.0,0.0
1513265347619113400,,527026,,1513265345,836751426,'',1.2217304764,1.1996825892,0.0377710233064,-0.0220478871939,0.001,94.8059149339,4300.0,0.0,0.0,0.0
1513265347629133794,,527027,,1513265345,846751426,'',1.2217304764,1.1996825892,0.0359660757236,-0.0220478871939,0.001,94.8059149339,4300.0,0.0,0.0,0.0
1513265347639226868,,527028,,1513265345,856751426,'',1.2217304764,1.1996825892,0.033505525941,-0.0220478871939,0.001,94.8059149339,4300.0,0.0,0.0,0.0
1513265347649358909,,527029,,1513265345,866751426,'',1.2217304764,1.1996825892,0.0303926663237,-0.0220478871939,0.001,94.8059149339,4300.0,0.0,0.0,0.0
1513265347659402789,,527030,,1513265345,876751426,'',1.2217304764,1.1996825892,0.0278396246307,-0.0220478871939,0.001,94.8059149339,4300.0,0.0,0.0,0.0
1513265347669600862,,527031,,1513265345,886751426,'',1.2217304764,1.19829495994,-0.00467829583848,-0.0234355164579,0.001,100.772720769,4300.0,0.0,0.0,0.0
1513265347679221088,,527032,,1513265345,896751426,'',1.2217304764,1.1996825892,0.0206441515177,-0.0220478871939,0.001,94.8059149339,4300.0,0.0,0.0,0.0
1513265347689306485,,527033,,1513265345,906751426,'',1.2217304764,1.1996825892,0.016907002624,-0.0220478871939,0.001,94.8059149339,4300.0,0.0,0.0,0.0
1513265347699313581,,527034,,1513265345,916751426,'',1.2217304764,1.1996825892,0.0138412296298,-0.0220478871939,0.001,94.8059149339,4300.0,0.0,0.0,0.0
1513265347709589898,,527035,,1513265345,926751426,'',1.2217304764,1.1996825892,0.0103668202152,-0.0220478871939,0.001,94.8059149339,4300.0,0.0,0.0,0.0
1513265347719589527,,527036,,1513265345,936751426,'',1.2217304764,1.1996825892,0.00748001321222,-0.0220478871939,0.001,94.8059149339,4300.0,0.0,0.0,0.0
1513265347729537937,,527037,,1513265345,946751426,'',1.2217304764,1.20107021847,0.0325366279254,-0.02066025793,0.001,88.8391090989,4300.0,0.0,0.0,0.0
1513265347739395222,,527038,,1513265345,956751426,'',1.2217304764,1.20107021847,0.0301457984436,-0.02066025793,0.001,88.8391090989,4300.0,0.0,0.0,0.0
1513265347749063796,,527039,,1513265345,966751426,'',1.2217304764,1.20107021847,0.0276181721786,-0.02066025793,0.001,88.8391090989,4300.0,0.0,0.0,0.0
1513265347759201413,,527040,,1513265345,976751426,'',1.2217304764,1.20245784773,0.0505202031571,-0.019272628666,0.001,82.8723032639,4300.0,0.0,0.0,0.0
1513265347768902953,,527041,,1513265345,986751426,'',1.2217304764,1.20245784773,0.0438554810839,-0.019272628666,0.001,82.8723032639,4300.0,0.0,0.0,0.0
1513265347778953975,,527042,,1513265345,996751426,'',1.2217304764,1.20245784773,0.0368776913179,-0.019272628666,0.001,82.8723032639,4300.0,0.0,0.0,0.0
1513265347788961692,,527043,,1513265346,6751426,'',1.2217304764,1.20245784773,0.0302420872744,-0.019272628666,0.001,82.8723032639,4300.0,0.0,0.0,0.0
1513265347798869859,,527044,,1513265346,16751426,'',1.2217304764,1.20107021847,-0.00223991057092,-0.02066025793,0.001,88.8391090989,4300.0,0.0,0.0,0.0
1513265347809343633,,527045,,1513265346,26751426,'',1.2217304764,1.20107021847,-0.00483155351721,-0.02066025793,0.001,88.8391090989,4300.0,0.0,0.0,0.0
1513265347819333955,,527046,,1513265346,36751426,'',1.2217304764,1.20245784773,0.0194836145627,-0.019272628666,0.001,82.8723032639,4300.0,0.0,0.0,0.0
1513265347829228070,,527047,,1513265346,46751426,'',1.2217304764,1.20245784773,0.0153781992026,-0.019272628666,0.001,82.8723032639,4300.0,0.0,0.0,0.0
1513265347839380562,,527048,,1513265346,56751426,'',1.2217304764,1.20384547699,0.0385133820617,-0.0178849994021,0.001,76.9054974289,4300.0,0.0,0.0,0.0
1513265347849265901,,527049,,1513265346,66751426,'',1.2217304764,1.20384547699,0.0319512846954,-0.0178849994021,0.001,76.9054974289,4300.0,0.0,0.0,0.0
1513265347858937401,,527050,,1513265346,76751426,'',1.2217304764,1.20384547699,0.0256685689689,-0.0178849994021,0.001,76.9054974289,4300.0,0.0,0.0,0.0
1513265347869072573,,527051,,1513265346,86751426,'',1.2217304764,1.20384547699,0.0210194592148,-0.0178849994021,0.001,76.9054974289,4300.0,0.0,0.0,0.0
1513265347879479983,,527052,,1513265346,96751426,'',1.2217304764,1.20523310626,0.0446868813816,-0.0164973701381,0.001,70.9386915939,4300.0,0.0,0.0,0.0
1513265347889154140,,527053,,1513265346,106751426,'',1.2217304764,1.20384547699,0.0136255916339,-0.0178849994021,0.001,76.9054974289,4300.0,0.0,0.0,0.0
1513265347899183984,,527054,,1513265346,116751426,'',1.2217304764,1.20384547699,0.0091053164891,-0.0178849994021,0.001,76.9054974289,4300.0,0.0,0.0,0.0
1513265347909126811,,527055,,1513265346,126751426,'',1.2217304764,1.20523310626,0.0343458492085,-0.0164973701381,0.001,70.9386915939,4300.0,0.0,0.0,0.0
1513265347919043838,,527056,,1513265346,136751426,'',1.2217304764,1.20523310626,0.031226195427,-0.0164973701381,0.001,70.9386915939,4300.0,0.0,0.0,0.0
1513265347929394052,,527057,,1513265346,146751426,'',1.2217304764,1.20523310626,0.0255592692939,-0.0164973701381,0.001,70.9386915939,4300.0,0.0,0.0,0.0
1513265347939453528,,527058,,1513265346,156751426,'',1.2217304764,1.20523310626,0.0213678002122,-0.0164973701381,0.001,70.9386915939,4300.0,0.0,0.0,0.0
1513265347949368201,,527059,,1513265346,166751426,'',1.2217304764,1.20523310626,0.018511227208,-0.0164973701381,0.001,70.9386915939,4300.0,0.0,0.0,0.0
1513265347959181013,,527060,,1513265346,176751426,'',1.2217304764,1.20523310626,0.0161873681278,-0.0164973701381,0.001,70.9386915939,4300.0,0.0,0.0,0.0
1513265347969119069,,527061,,1513265346,186751426,'',1.2217304764,1.20523310626,0.0148590575543,-0.0164973701381,0.001,70.9386915939,4300.0,0.0,0.0,0.0
1513265347979354667,,527062,,1513265346,196751426,'',1.2217304764,1.20523310626,0.0127043031933,-0.0164973701381,0.001,70.9386915939,4300.0,0.0,0.0,0.0
1513265347989160949,,527063,,1513265346,206751426,'',1.2217304764,1.20523310626,0.00940768677407,-0.0164973701381,0.001,70.9386915939,4300.0,0.0,0.0,0.0
1513265347999230820,,527064,,1513265346,216751426,'',1.2217304764,1.20662073552,0.0357001418433,-0.0151097408742,0.001,64.9718857589,4300.0,0.0,0.0,0.0
1513265348009641984,,527065,,1513265346,226751426,'',1.2217304764,1.20523310626,0.00522117783829,-0.0164973701381,0.001,70.9386915939,4300.0,0.0,0.0,0.0
1513265348018949369,,527066,,1513265346,236751426,'',1.2217304764,1.20800836479,0.0571506097168,-0.0137221116102,0.001,59.0050799239,4300.0,0.0,0.0,0.0
1513265348028904149,,527067,,1513265346,246751426,'',1.2217304764,1.20662073552,0.0269014401173,-0.0151097408742,0.001,64.9718857589,4300.0,0.0,0.0,0.0
1513265348039332502,,527068,,1513265346,256751426,'',1.2217304764,1.20523310626,-0.00138623805298,-0.0164973701381,0.001,70.9386915939,4300.0,0.0,0.0,0.0
1513265348049273505,,527069,,1513265346,266751426,'',1.2217304764,1.20523310626,-0.0036107337063,-0.0164973701381,0.001,70.9386915939,4300.0,0.0,0.0,0.0
1513265348059219560,,527070,,1513265346,276751426,'',1.2217304764,1.20662073552,0.0229540797281,-0.0151097408742,0.001,64.9718857589,4300.0,0.0,0.0,0.0
1513265348069107170,,527071,,1513265346,286751426,'',1.2217304764,1.20662073552,0.0202859132399,-0.0151097408742,0.001,64.9718857589,4300.0,0.0,0.0,0.0
1513265348079169102,,527072,,1513265346,296751426,'',1.2217304764,1.20523310626,-0.00943843846857,-0.0164973701381,0.001,70.9386915939,4300.0,0.0,0.0,0.0
1513265348089016715,,527073,,1513265346,306751426,'',1.2217304764,1.20662073552,0.0173658004769,-0.0151097408742,0.001,64.9718857589,4300.0,0.0,0.0,0.0
1513265348099306714,,527074,,1513265346,316751426,'',1.2217304764,1.20662073552,0.0157115834661,-0.0151097408742,0.001,64.9718857589,4300.0,0.0,0.0,0.0
1513265348109418341,,527075,,1513265346,326751426,'',1.2217304764,1.20800836479,0.0408475065507,-0.0137221116102,0.001,59.0050799239,4300.0,0.0,0.0,0.0
1513265348119163602,,527076,,1513265346,336751426,'',1.2217304764,1.20662073552,0.00944273008498,-0.0151097408742,0.001,64.9718857589,4300.0,0.0,0.0,0.0
1513265348128997377,,527077,,1513265346,346751426,'',1.2217304764,1.20662073552,0.00709347468636,-0.0151097408742,0.001,64.9718857589,4300.0,0.0,0.0,0.0
1513265348138938135,,527078,,1513265346,356751426,'',1.2217304764,1.20662073552,0.00632736705037,-0.0151097408742,0.001,64.9718857589,4300.0,0.0,0.0,0.0
1513265348149654860,,527079,,1513265346,366751426,'',1.2217304764,1.20662073552,0.00468594077334,-0.0151097408742,0.001,64.9718857589,4300.0,0.0,0.0,0.0
1513265348159229913,,527080,,1513265346,376751426,'',1.2217304764,1.20662073552,0.00439595504154,-0.0151097408742,0.001,64.9718857589,4300.0,0.0,0.0,0.0
1513265348169355908,,527081,,1513265346,386751426,'',1.2217304764,1.20662073552,0.00303416879923,-0.0151097408742,0.001,64.9718857589,4300.0,0.0,0.0,0.0
1513265348179228683,,527082,,1513265346,396751426,'',1.2217304764,1.20523310626,-0.0255049054846,-0.0164973701381,0.001,70.9386915939,4300.0,0.0,0.0,0.0
1513265348189048141,,527083,,1513265346,406751426,'',1.2217304764,1.20662073552,-0.000458804243525,-0.0151097408742,0.001,64.9718857589,4300.0,0.0,0.0,0.0
1513265348199518922,,527084,,1513265346,416751426,'',1.2217304764,1.20800836479,0.0251131458651,-0.0137221116102,0.001,59.0050799239,4300.0,0.0,0.0,0.0
1513265348209650716,,527085,,1513265346,426751426,'',1.2217304764,1.20800836479,0.0220548168914,-0.0137221116102,0.001,59.0050799239,4300.0,0.0,0.0,0.0
1513265348219339928,,527086,,1513265346,436751426,'',1.2217304764,1.20800836479,0.0164453603378,-0.0137221116102,0.001,59.0050799239,4300.0,0.0,0.0,0.0
1513265348229242632,,527087,,1513265346,446751426,'',1.2217304764,1.20800836479,0.0113467770125,-0.0137221116102,0.001,59.0050799239,4300.0,0.0,0.0,0.0
1513265348239002467,,527088,,1513265346,456751426,'',1.2217304764,1.20939599405,0.0347639906011,-0.0123344823462,0.001,53.0382740889,4300.0,0.0,0.0,0.0
1513265348249296460,,527089,,1513265346,466751426,'',1.2217304764,1.20939599405,0.0294512771443,-0.0123344823462,0.001,53.0382740889,4300.0,0.0,0.0,0.0
1513265348259584720,,527090,,1513265346,476751426,'',1.2217304764,1.20939599405,0.0230853298892,-0.0123344823462,0.001,53.0382740889,4300.0,0.0,0.0,0.0
1513265348269483862,,527091,,1513265346,486751426,'',1.2217304764,1.21217125258,0.0723255394899,-0.00955922381834,0.001,41.1046624189,4300.0,0.0,0.0,0.0
1513265348279365393,,527092,,1513265346,496751426,'',1.2217304764,1.20939599405,0.00925869697486,-0.0123344823462,0.001,53.0382740889,4300.0,0.0,0.0,0.0
1513265348289373340,,527093,,1513265346,506751426,'',1.2217304764,1.21078362331,0.030469715222,-0.0109468530823,0.001,47.0714682539,4300.0,0.0,0.0,0.0
1513265348299365812,,527094,,1513265346,516751426,'',1.2217304764,1.21217125258,0.0519481401037,-0.00955922381834,0.001,41.1046624189,4300.0,0.0,0.0,0.0
1513265348309038205,,527095,,1513265346,526751426,'',1.2217304764,1.20939599405,-0.00691899197613,-0.0123344823462,0.001,53.0382740889,4300.0,0.0,0.0,0.0
1513265348319082602,,527096,,1513265346,536751426,'',1.2217304764,1.21217125258,0.0442876797494,-0.00955922381834,0.001,41.1046624189,4300.0,0.0,0.0,0.0
1513265348329449950,,527097,,1513265346,546751426,'',1.2217304764,1.21078362331,0.0113212300813,-0.0109468530823,0.001,47.0714682539,4300.0,0.0,0.0,0.0
1513265348339340416,,527098,,1513265346,556751426,'',1.2217304764,1.21078362331,0.00679012713683,-0.0109468530823,0.001,47.0714682539,4300.0,0.0,0.0,0.0
1513265348349630145,,527099,,1513265346,566751426,'',1.2217304764,1.21217125258,0.0314580388132,-0.00955922381834,0.001,41.1046624189,4300.0,0.0,0.0,0.0
1513265348359333403,,527100,,1513265346,576751426,'',1.2217304764,1.21217125258,0.0287381572744,-0.00955922381834,0.001,41.1046624189,4300.0,0.0,0.0,0.0
1513265348369462942,,527101,,1513265346,586751426,'',1.2217304764,1.21078362331,-0.00138726660004,-0.0109468530823,0.001,47.0714682539,4300.0,0.0,0.0,0.0
1513265348379210328,,527102,,1513265346,596751426,'',1.2217304764,1.21217125258,0.0218227617216,-0.00955922381834,0.001,41.1046624189,4300.0,0.0,0.0,0.0
1513265348388973701,,527103,,1513265346,606751426,'',1.2217304764,1.21217125258,0.0173947071851,-0.00955922381834,0.001,41.1046624189,4300.0,0.0,0.0,0.0
1513265348399272064,,527104,,1513265346,616751426,'',1.2217304764,1.21217125258,0.0148220466205,-0.00955922381834,0.001,41.1046624189,4300.0,0.0,0.0,0.0
1513265348409105654,,527105,,1513265346,626751426,'',1.2217304764,1.21355888184,0.0376177344532,-0.00817159455439,0.001,35.1378565839,4300.0,0.0,0.0,0.0
1513265348419236320,,527106,,1513265346,636751426,'',1.2217304764,1.21355888184,0.0337553383472,-0.00817159455439,0.001,35.1378565839,4300.0,0.0,0.0,0.0
1513265348429238891,,527107,,1513265346,646751426,'',1.2217304764,1.21355888184,0.0284686024042,-0.00817159455439,0.001,35.1378565839,4300.0,0.0,0.0,0.0
1513265348439057045,,527108,,1513265346,656751426,'',1.2217304764,1.21494651111,0.0487043526144,-0.00678396529044,0.001,29.1710507489,4300.0,0.0,0.0,0.0
1513265348449290659,,527109,,1513265346,666751426,'',1.2217304764,1.21633414037,0.066313921125,-0.00539633602648,0.001,23.2042449139,4300.0,0.0,0.0,0.0
1513265348459168150,,527110,,1513265346,676751426,'',1.2217304764,1.21494651111,0.0292303036511,-0.00678396529044,0.001,29.1710507489,4300.0,0.0,0.0,0.0
1513265348469275387,,527111,,1513265346,686751426,'',1.2217304764,1.21494651111,0.0194727307309,-0.00678396529044,0.001,29.1710507489,4300.0,0.0,0.0,0.0
1513265348479275121,,527112,,1513265346,696751426,'',1.2217304764,1.21494651111,0.0139580005649,-0.00678396529044,0.001,29.1710507489,4300.0,0.0,0.0,0.0
1513265348489051389,,527113,,1513265346,706751426,'',1.2217304764,1.21633414037,0.0348057308211,-0.00539633602648,0.001,23.2042449139,4300.0,0.0,0.0,0.0
1513265348499063757,,527114,,1513265346,716751426,'',1.2217304764,1.21633414037,0.030529871787,-0.00539633602648,0.001,23.2042449139,4300.0,0.0,0.0,0.0
1513265348509466230,,527115,,1513265346,726751426,'',1.2217304764,1.21633414037,0.0264880037465,-0.00539633602648,0.001,23.2042449139,4300.0,0.0,0.0,0.0
1513265348519354567,,527116,,1513265346,736751426,'',1.2217304764,1.21633414037,0.0242213175972,-0.00539633602648,0.001,23.2042449139,4300.0,0.0,0.0,0.0
1513265348529241510,,527117,,1513265346,746751426,'',1.2217304764,1.21633414037,0.0223030297912,-0.00539633602648,0.001,23.2042449139,4300.0,0.0,0.0,0.0
1513265348539297755,,527118,,1513265346,756751426,'',1.2217304764,1.21494651111,-0.00723192797971,-0.00678396529044,0.001,29.1710507489,4300.0,0.0,0.0,0.0
1513265348548994819,,527119,,1513265346,766751426,'',1.2217304764,1.21494651111,-0.00793459084612,-0.00678396529044,0.001,29.1710507489,4300.0,0.0,0.0,0.0
1513265348559604512,,527120,,1513265346,776751426,'',1.2217304764,1.21494651111,-0.011071363618,-0.00678396529044,0.001,29.1710507489,4300.0,0.0,0.0,0.0
1513265348569311605,,527121,,1513265346,786751426,'',1.2217304764,1.21633414037,0.0143006651752,-0.00539633602648,0.001,23.2042449139,4300.0,0.0,0.0,0.0
1513265348579563195,,527122,,1513265346,796751426,'',1.2217304764,1.21772176963,0.0351703629484,-0.00400870676253,0.001,17.2374390789,4300.0,0.0,0.0,0.0
1513265348589311162,,527123,,1513265346,806751426,'',1.2217304764,1.2191093989,0.053744291659,-0.00262107749858,0.001,11.2706332439,4300.0,0.0,0.0,0.0
1513265348599234685,,527124,,1513265346,816751426,'',1.2217304764,1.22049702816,0.0693885492817,-0.00123344823463,0.001,5.30382740889,4300.0,0.0,0.0,0.0
1513265348609359743,,527125,,1513265346,826751426,'',1.2217304764,1.22049702816,0.0597916163251,-0.00123344823463,0.001,5.30382740889,4300.0,0.0,0.0,0.0
1513265348619553089,,527126,,1513265346,836751426,'',1.2217304764,1.22049702816,0.0498797710776,-0.00123344823463,0.001,5.30382740889,4300.0,0.0,0.0,0.0
1513265348629691653,,527127,,1513265346,846751426,'',1.2217304764,1.22049702816,0.0418403625622,-0.00123344823463,0.001,5.30382740889,4300.0,0.0,0.0,0.0
1513265348639725260,,527128,,1513265346,856751426,'',1.2217304764,1.2191093989,0.00673028070941,0.0,0.001,0.0,4300.0,0.0,0.0,0.0
1513265348649457060,,527129,,1513265346,866751426,'',1.2217304764,1.2191093989,0.00244248987227,0.0,0.001,0.0,4300.0,0.0,0.0,0.0
1513265348659402103,,527130,,1513265346,876751426,'',1.2217304764,1.22049702816,0.027445814558,0.0,0.001,0.0,4300.0,0.0,0.0,0.0
1513265348669184334,,527131,,1513265346,886751426,'',1.2217304764,1.22188465743,0.0508907937432,0.0,0.001,0.0,4300.0,0.0,0.0,0.0
1513265348679002473,,527132,,1513265346,896751426,'',1.2217304764,1.22049702816,0.0197780610519,0.0,0.001,0.0,4300.0,0.0,0.0,0.0
1513265348689635790,,527133,,1513265346,906751426,'',1.2217304764,1.2191093989,-0.0102884687384,0.0,0.001,0.0,4300.0,0.0,0.0,0.0
1513265348699560155,,527134,,1513265346,916751426,'',1.2217304764,1.22049702816,0.0149916827398,0.0,0.001,0.0,4300.0,0.0,0.0,0.0
1513265348709604833,,527135,,1513265346,926751426,'',1.2217304764,1.22327228669,0.0657753603443,0.0,0.001,0.0,4300.0,0.0,0.0,0.0
1513265348719625805,,527136,,1513265346,936751426,'',1.2217304764,1.22465991595,0.0832434607083,0.0,0.001,0.0,4300.0,0.0,0.0,0.0
1513265348729230071,,527137,,1513265346,946751426,'',1.2217304764,1.22604754522,0.0934712728021,0.0,0.001,0.0,4300.0,0.0,0.0,0.0
1513265348739120412,,527138,,1513265346,956751426,'',1.2217304764,1.22743517448,0.101381258676,0.0,0.001,0.0,4300.0,0.0,0.0,0.0
1513265348749031881,,527139,,1513265346,966751426,'',1.2217304764,1.23021043301,0.131364961563,0.0,0.001,0.0,4300.0,0.0,0.0,0.0
1513265348759063760,,527140,,1513265346,976751426,'',1.2217304764,1.23159806227,0.134420813365,0.0,0.001,0.0,4300.0,0.0,0.0,0.0
1513265348769241500,,527141,,1513265346,986751426,'',1.2217304764,1.23159806227,0.114032515542,0.0,0.001,0.0,4300.0,0.0,0.0,0.0
1513265348779013006,,527142,,1513265346,996751426,'',1.2217304764,1.23021043301,0.0663898750771,0.0,0.001,0.0,4300.0,0.0,0.0,0.0
1513265348789452997,,527143,,1513265347,6751426,'',1.2217304764,1.23159806227,0.0783302205291,0.0,0.001,0.0,4300.0,0.0,0.0,0.0
1513265348799254543,,527144,,1513265347,16751426,'',1.2217304764,1.23159806227,0.06321934687,0.0,0.001,0.0,4300.0,0.0,0.0,0.0
1513265348809148086,,527145,,1513265347,26751426,'',1.2217304764,1.23159806227,0.0517554379129,0.0,0.001,0.0,4300.0,0.0,0.0,0.0
1513265348819500810,,527146,,1513265347,36751426,'',1.2217304764,1.23159806227,0.0403751821434,0.0,0.001,0.0,4300.0,0.0,0.0,0.0
1513265348829388355,,527147,,1513265347,46751426,'',1.2217304764,1.23298569154,0.0554331663804,0.011255215141,0.001,-48.3974251061,4300.0,0.0,0.0,0.0
1513265348839281813,,527148,,1513265347,56751426,'',1.2217304764,1.23298569154,0.0418304349796,0.011255215141,0.001,-48.3974251061,4300.0,0.0,0.0,0.0
1513265348849487387,,527149,,1513265347,66751426,'',1.2217304764,1.2343733208,0.059558433858,0.0126428444049,0.001,-54.3642309411,4300.0,0.0,0.0,0.0
1513265348859094659,,527150,,1513265347,76751426,'',1.2217304764,1.2343733208,0.0487479753978,0.0126428444049,0.001,-54.3642309411,4300.0,0.0,0.0,0.0
1513265348868963060,,527151,,1513265347,86751426,'',1.2217304764,1.2343733208,0.039887692336,0.0126428444049,0.001,-54.3642309411,4300.0,0.0,0.0,0.0
1513265348878975583,,527152,,1513265347,96751426,'',1.2217304764,1.2343733208,0.031654823829,0.0126428444049,0.001,-54.3642309411,4300.0,0.0,0.0,0.0
1513265348889459315,,527153,,1513265347,106751426,'',1.2217304764,1.23576095006,0.0513834771076,0.0140304736689,0.001,-60.3310367761,4300.0,0.0,0.0,0.0
1513265348899430808,,527154,,1513265347,116751426,'',1.2217304764,1.2343733208,0.0176507480712,0.0126428444049,0.001,-54.3642309411,4300.0,0.0,0.0,0.0
1513265348909474318,,527155,,1513265347,126751426,'',1.2217304764,1.23576095006,0.0393435595498,0.0140304736689,0.001,-60.3310367761,4300.0,0.0,0.0,0.0
1513265348919229176,,527156,,1513265347,136751426,'',1.2217304764,1.23576095006,0.0342249411781,0.0140304736689,0.001,-60.3310367761,4300.0,0.0,0.0,0.0
1513265348929047847,,527157,,1513265347,146751426,'',1.2217304764,1.23576095006,0.0300114264085,0.0140304736689,0.001,-60.3310367761,4300.0,0.0,0.0,0.0
1513265348938942658,,527158,,1513265347,156751426,'',1.2217304764,1.23576095006,0.0241317364145,0.0140304736689,0.001,-60.3310367761,4300.0,0.0,0.0,0.0
1513265348949427237,,527159,,1513265347,166751426,'',1.2217304764,1.2343733208,-0.00675002583693,0.0126428444049,0.001,-54.3642309411,4300.0,0.0,0.0,0.0
1513265348959613130,,527160,,1513265347,176751426,'',1.2217304764,1.23576095006,0.0179682947171,0.0140304736689,0.001,-60.3310367761,4300.0,0.0,0.0,0.0
1513265348969563691,,527161,,1513265347,186751426,'',1.2217304764,1.2343733208,-0.0138678068833,0.0126428444049,0.001,-54.3642309411,4300.0,0.0,0.0,0.0
1513265348979452553,,527162,,1513265347,196751426,'',1.2217304764,1.2343733208,-0.0154131089992,0.0126428444049,0.001,-54.3642309411,4300.0,0.0,0.0,0.0
1513265348989333327,,527163,,1513265347,206751426,'',1.2217304764,1.23576095006,0.00990138277315,0.0140304736689,0.001,-60.3310367761,4300.0,0.0,0.0,0.0
1513265348999077005,,527164,,1513265347,216751426,'',1.2217304764,1.23576095006,0.00711792690959,0.0140304736689,0.001,-60.3310367761,4300.0,0.0,0.0,0.0
1513265349009157119,,527165,,1513265347,226751426,'',1.2217304764,1.23853620859,0.0598187936758,0.0168057321968,0.001,-72.2646484461,4300.0,0.0,0.0,0.0
1513265349019025178,,527166,,1513265347,236751426,'',1.2217304764,1.23576095006,0.00198818710823,0.0140304736689,0.001,-60.3310367761,4300.0,0.0,0.0,0.0
1513265349029614594,,527167,,1513265347,246751426,'',1.2217304764,1.23714857933,0.0261016739357,0.0154181029328,0.001,-66.2978426111,4300.0,0.0,0.0,0.0
1513265349039504680,,527168,,1513265347,256751426,'',1.2217304764,1.23576095006,-0.00416635486446,0.0140304736689,0.001,-60.3310367761,4300.0,0.0,0.0,0.0
1513265349049219535,,527169,,1513265347,266751426,'',1.2217304764,1.23714857933,0.019528371636,0.0154181029328,0.001,-66.2978426111,4300.0,0.0,0.0,0.0
1513265349059175834,,527170,,1513265347,276751426,'',1.2217304764,1.23714857933,0.0165321900364,0.0154181029328,0.001,-66.2978426111,4300.0,0.0,0.0,0.0
1513265349069102273,,527171,,1513265347,286751426,'',1.2217304764,1.23576095006,-0.0129813431389,0.0140304736689,0.001,-60.3310367761,4300.0,0.0,0.0,0.0
1513265349079257837,,527172,,1513265347,296751426,'',1.2217304764,1.23714857933,0.0123238891556,0.0154181029328,0.001,-66.2978426111,4300.0,0.0,0.0,0.0
1513265349088899293,,527173,,1513265347,306751426,'',1.2217304764,1.23714857933,0.0110900911744,0.0154181029328,0.001,-66.2978426111,4300.0,0.0,0.0,0.0
1513265349099533272,,527174,,1513265347,316751426,'',1.2217304764,1.23714857933,0.00908144584964,0.0154181029328,0.001,-66.2978426111,4300.0,0.0,0.0,0.0
1513265349109496381,,527175,,1513265347,326751426,'',1.2217304764,1.23714857933,0.00889171851085,0.0154181029328,0.001,-66.2978426111,4300.0,0.0,0.0,0.0
1513265349119204371,,527176,,1513265347,336751426,'',1.2217304764,1.23714857933,0.0063009456422,0.0154181029328,0.001,-66.2978426111,4300.0,0.0,0.0,0.0
1513265349129611360,,527177,,1513265347,346751426,'',1.2217304764,1.23714857933,0.00469779811725,0.0154181029328,0.001,-66.2978426111,4300.0,0.0,0.0,0.0
1513265349139322964,,527178,,1513265347,356751426,'',1.2217304764,1.23714857933,0.00335950888899,0.0154181029328,0.001,-66.2978426111,4300.0,0.0,0.0,0.0
1513265349149137399,,527179,,1513265347,366751426,'',1.2217304764,1.23714857933,0.00066582088186,0.0154181029328,0.001,-66.2978426111,4300.0,0.0,0.0,0.0
1513265349159126819,,527180,,1513265347,376751426,'',1.2217304764,1.23714857933,-0.000443119479948,0.0154181029328,0.001,-66.2978426111,4300.0,0.0,0.0,0.0
1513265349169029624,,527181,,1513265347,386751426,'',1.2217304764,1.23714857933,-0.00136245465393,0.0154181029328,0.001,-66.2978426111,4300.0,0.0,0.0,0.0
1513265349179310256,,527182,,1513265347,396751426,'',1.2217304764,1.23714857933,-0.00211159669816,0.0154181029328,0.001,-66.2978426111,4300.0,0.0,0.0,0.0
1513265349189332863,,527183,,1513265347,406751426,'',1.2217304764,1.23714857933,-0.0021977157383,0.0154181029328,0.001,-66.2978426111,4300.0,0.0,0.0,0.0
1513265349199262149,,527184,,1513265347,416751426,'',1.2217304764,1.23714857933,-0.00234364573019,0.0154181029328,0.001,-66.2978426111,4300.0,0.0,0.0,0.0
1513265349209212384,,527185,,1513265347,426751426,'',1.2217304764,1.23714857933,-0.0034295908672,0.0154181029328,0.001,-66.2978426111,4300.0,0.0,0.0,0.0
1513265349219142321,,527186,,1513265347,436751426,'',1.2217304764,1.23714857933,-0.00333892910763,0.0154181029328,0.001,-66.2978426111,4300.0,0.0,0.0,0.0
1513265349229034080,,527187,,1513265347,446751426,'',1.2217304764,1.23714857933,-0.00478319521005,0.0154181029328,0.001,-66.2978426111,4300.0,0.0,0.0,0.0
1513265349239474527,,527188,,1513265347,456751426,'',1.2217304764,1.23714857933,-0.00492068373696,0.0154181029328,0.001,-66.2978426111,4300.0,0.0,0.0,0.0
1513265349249261745,,527189,,1513265347,466751426,'',1.2217304764,1.23714857933,-0.00599794134066,0.0154181029328,0.001,-66.2978426111,4300.0,0.0,0.0,0.0
1513265349259183484,,527190,,1513265347,476751426,'',1.2217304764,1.23714857933,-0.00491039558292,0.0154181029328,0.001,-66.2978426111,4300.0,0.0,0.0,0.0
1513265349269133888,,527191,,1513265347,486751426,'',1.2217304764,1.23714857933,-0.00496740667829,0.0154181029328,0.001,-66.2978426111,4300.0,0.0,0.0,0.0
1513265349279127202,,527192,,1513265347,496751426,'',1.2217304764,1.23714857933,-0.00656928545491,0.0154181029328,0.001,-66.2978426111,4300.0,0.0,0.0,0.0
1513265349289381434,,527193,,1513265347,506751426,'',1.2217304764,1.23853620859,0.0205856556688,0.0168057321968,0.001,-72.2646484461,4300.0,0.0,0.0,0.0
1513265349299378165,,527194,,1513265347,516751426,'',1.2217304764,1.23714857933,-0.00863209085868,0.0154181029328,0.001,-66.2978426111,4300.0,0.0,0.0,0.0
1513265349309391421,,527195,,1513265347,526751426,'',1.2217304764,1.23714857933,-0.00854261679552,0.0154181029328,0.001,-66.2978426111,4300.0,0.0,0.0,0.0
1513265349319299783,,527196,,1513265347,536751426,'',1.2217304764,1.23714857933,-0.00804900659819,0.0154181029328,0.001,-66.2978426111,4300.0,0.0,0.0,0.0
1513265349329481608,,527197,,1513265347,546751426,'',1.2217304764,1.23714857933,-0.00706542798755,0.0154181029328,0.001,-66.2978426111,4300.0,0.0,0.0,0.0
1513265349339541590,,527198,,1513265347,556751426,'',1.2217304764,1.23714857933,-0.00574371543338,0.0154181029328,0.001,-66.2978426111,4300.0,0.0,0.0,0.0
1513265349349409154,,527199,,1513265347,566751426,'',1.2217304764,1.23714857933,-0.00417707623778,0.0154181029328,0.001,-66.2978426111,4300.0,0.0,0.0,0.0
1513265349359314154,,527200,,1513265347,576751426,'',1.2217304764,1.23853620859,0.0226173372352,0.0168057321968,0.001,-72.2646484461,4300.0,0.0,0.0,0.0
1513265349369310585,,527201,,1513265347,586751426,'',1.2217304764,1.23714857933,-0.00388783842585,0.0154181029328,0.001,-66.2978426111,4300.0,0.0,0.0,0.0
1513265349379373655,,527202,,1513265347,596751426,'',1.2217304764,1.23853620859,0.0237775018125,0.0168057321968,0.001,-72.2646484461,4300.0,0.0,0.0,0.0
1513265349389311210,,527203,,1513265347,606751426,'',1.2217304764,1.23714857933,-0.00403460516588,0.0154181029328,0.001,-66.2978426111,4300.0,0.0,0.0,0.0
1513265349399203130,,527204,,1513265347,616751426,'',1.2217304764,1.23714857933,-0.00427972395371,0.0154181029328,0.001,-66.2978426111,4300.0,0.0,0.0,0.0
1513265349409061883,,527205,,1513265347,626751426,'',1.2217304764,1.23853620859,0.0229399075203,0.0168057321968,0.001,-72.2646484461,4300.0,0.0,0.0,0.0
1513265349419511990,,527206,,1513265347,636751426,'',1.2217304764,1.23853620859,0.022768216671,0.0168057321968,0.001,-72.2646484461,4300.0,0.0,0.0,0.0
1513265349429001955,,527207,,1513265347,646751426,'',1.2217304764,1.23714857933,-0.00429172786751,0.0154181029328,0.001,-66.2978426111,4300.0,0.0,0.0,0.0
1513265349439106429,,527208,,1513265347,656751426,'',1.2217304764,1.23714857933,-0.00404356838884,0.0154181029328,0.001,-66.2978426111,4300.0,0.0,0.0,0.0
1513265349448990258,,527209,,1513265347,666751426,'',1.2217304764,1.23714857933,-0.00532199555293,0.0154181029328,0.001,-66.2978426111,4300.0,0.0,0.0,0.0
1513265349459155296,,527210,,1513265347,676751426,'',1.2217304764,1.23853620859,0.0216356000907,0.0168057321968,0.001,-72.2646484461,4300.0,0.0,0.0,0.0
1513265349469412684,,527211,,1513265347,686751426,'',1.2217304764,1.23714857933,-0.00624928914702,0.0154181029328,0.001,-66.2978426111,4300.0,0.0,0.0,0.0
1513265349479459912,,527212,,1513265347,696751426,'',1.2217304764,1.23714857933,-0.00617297460005,0.0154181029328,0.001,-66.2978426111,4300.0,0.0,0.0,0.0
1513265349489258360,,527213,,1513265347,706751426,'',1.2217304764,1.23576095006,-0.0335172671806,0.0140304736689,0.001,-60.3310367761,4300.0,0.0,0.0,0.0
1513265349499279642,,527214,,1513265347,716751426,'',1.2217304764,1.23714857933,-0.00499817478818,0.0154181029328,0.001,-66.2978426111,4300.0,0.0,0.0,0.0
1513265349509281069,,527215,,1513265347,726751426,'',1.2217304764,1.23853620859,0.023854587464,0.0168057321968,0.001,-72.2646484461,4300.0,0.0,0.0,0.0
1513265349519213698,,527216,,1513265347,736751426,'',1.2217304764,1.23714857933,-0.00594879420861,0.0154181029328,0.001,-66.2978426111,4300.0,0.0,0.0,0.0
1513265349529283718,,527217,,1513265347,746751426,'',1.2217304764,1.23714857933,-0.00539933454398,0.0154181029328,0.001,-66.2978426111,4300.0,0.0,0.0,0.0
1513265349539385996,,527218,,1513265347,756751426,'',1.2217304764,1.23714857933,-0.00546361628243,0.0154181029328,0.001,-66.2978426111,4300.0,0.0,0.0,0.0
1513265349549332892,,527219,,1513265347,766751426,'',1.2217304764,1.23714857933,-0.00596795162079,0.0154181029328,0.001,-66.2978426111,4300.0,0.0,0.0,0.0
1513265349559283289,,527220,,1513265347,776751426,'',1.2217304764,1.23714857933,-0.00645829692781,0.0154181029328,0.001,-66.2978426111,4300.0,0.0,0.0,0.0
1513265349569434834,,527221,,1513265347,786751426,'',1.2217304764,1.23714857933,-0.00626313910861,0.0154181029328,0.001,-66.2978426111,4300.0,0.0,0.0,0.0
1513265349579065752,,527222,,1513265347,796751426,'',1.2217304764,1.23853620859,0.0218882944856,0.0168057321968,0.001,-72.2646484461,4300.0,0.0,0.0,0.0
1513265349589433176,,527223,,1513265347,806751426,'',1.2217304764,1.23714857933,-0.00503054775052,0.0154181029328,0.001,-66.2978426111,4300.0,0.0,0.0,0.0
1513265349599401068,,527224,,1513265347,816751426,'',1.2217304764,1.23714857933,-0.00662644900516,0.0154181029328,0.001,-66.2978426111,4300.0,0.0,0.0,0.0
1513265349609381130,,527225,,1513265347,826751426,'',1.2217304764,1.23714857933,-0.00542157064125,0.0154181029328,0.001,-66.2978426111,4300.0,0.0,0.0,0.0
1513265349619215107,,527226,,1513265347,836751426,'',1.2217304764,1.23853620859,0.021472335949,0.0168057321968,0.001,-72.2646484461,4300.0,0.0,0.0,0.0
1513265349629425130,,527227,,1513265347,846751426,'',1.2217304764,1.23853620859,0.0215740227045,0.0168057321968,0.001,-72.2646484461,4300.0,0.0,0.0,0.0
1513265349639410493,,527228,,1513265347,856751426,'',1.2217304764,1.23853620859,0.0206008190284,0.0168057321968,0.001,-72.2646484461,4300.0,0.0,0.0,0.0
1513265349649338640,,527229,,1513265347,866751426,'',1.2217304764,1.23714857933,-0.00608453740924,0.0154181029328,0.001,-66.2978426111,4300.0,0.0,0.0,0.0
1513265349659579319,,527230,,1513265347,876751426,'',1.2217304764,1.23714857933,-0.00443557626757,0.0154181029328,0.001,-66.2978426111,4300.0,0.0,0.0,0.0
1513265349669587919,,527231,,1513265347,886751426,'',1.2217304764,1.23714857933,-0.00312182102743,0.0154181029328,0.001,-66.2978426111,4300.0,0.0,0.0,0.0
1513265349679426246,,527232,,1513265347,896751426,'',1.2217304764,1.23714857933,-0.00306854415458,0.0154181029328,0.001,-66.2978426111,4300.0,0.0,0.0,0.0
1513265349689159542,,527233,,1513265347,906751426,'',1.2217304764,1.23714857933,-0.00251201248014,0.0154181029328,0.001,-66.2978426111,4300.0,0.0,0.0,0.0
1513265349699210526,,527234,,1513265347,916751426,'',1.2217304764,1.23714857933,-0.00206643255196,0.0154181029328,0.001,-66.2978426111,4300.0,0.0,0.0,0.0
1513265349709104598,,527235,,1513265347,926751426,'',1.2217304764,1.23714857933,-0.00263362015116,0.0154181029328,0.001,-66.2978426111,4300.0,0.0,0.0,0.0
1513265349719447102,,527236,,1513265347,936751426,'',1.2217304764,1.23714857933,-0.00215640102315,0.0154181029328,0.001,-66.2978426111,4300.0,0.0,0.0,0.0
1513265349729445237,,527237,,1513265347,946751426,'',1.2217304764,1.23714857933,-0.00230094032037,0.0154181029328,0.001,-66.2978426111,4300.0,0.0,0.0,0.0
1513265349739307132,,527238,,1513265347,956751426,'',1.2217304764,1.23714857933,-0.00238557279177,0.0154181029328,0.001,-66.2978426111,4300.0,0.0,0.0,0.0
1513265349749413952,,527239,,1513265347,966751426,'',1.2217304764,1.23714857933,-0.00147185347678,0.0154181029328,0.001,-66.2978426111,4300.0,0.0,0.0,0.0
1513265349759107146,,527240,,1513265347,976751426,'',1.2217304764,1.23714857933,-0.00120496000424,0.0154181029328,0.001,-66.2978426111,4300.0,0.0,0.0,0.0
1513265349769032706,,527241,,1513265347,986751426,'',1.2217304764,1.23714857933,-0.00102026862904,0.0154181029328,0.001,-66.2978426111,4300.0,0.0,0.0,0.0
1513265349779422271,,527242,,1513265347,996751426,'',1.2217304764,1.23714857933,-0.0013794358023,0.0154181029328,0.001,-66.2978426111,4300.0,0.0,0.0,0.0
1513265349789016318,,527243,,1513265348,6751426,'',1.2217304764,1.23714857933,-0.00215857726587,0.0154181029328,0.001,-66.2978426111,4300.0,0.0,0.0,0.0
1513265349799236210,,527244,,1513265348,16751426,'',1.2217304764,1.23714857933,-0.00167053937279,0.0154181029328,0.001,-66.2978426111,4300.0,0.0,0.0,0.0
1513265349809081753,,527245,,1513265348,26751426,'',1.2217304764,1.23714857933,-0.0019040662025,0.0154181029328,0.001,-66.2978426111,4300.0,0.0,0.0,0.0
1513265349819231713,,527246,,1513265348,36751426,'',1.2217304764,1.23714857933,-0.00159313247187,0.0154181029328,0.001,-66.2978426111,4300.0,0.0,0.0,0.0
1513265349829149347,,527247,,1513265348,46751426,'',1.2217304764,1.23714857933,-0.000796608784761,0.0154181029328,0.001,-66.2978426111,4300.0,0.0,0.0,0.0
1513265349839384630,,527248,,1513265348,56751426,'',1.2217304764,1.23714857933,0.000320906814698,0.0154181029328,0.001,-66.2978426111,4300.0,0.0,0.0,0.0
1513265349849601165,,527249,,1513265348,66751426,'',1.2217304764,1.23714857933,0.00120828613338,0.0154181029328,0.001,-66.2978426111,4300.0,0.0,0.0,0.0
1513265349859326259,,527250,,1513265348,76751426,'',1.2217304764,1.23714857933,0.00195297361261,0.0154181029328,0.001,-66.2978426111,4300.0,0.0,0.0,0.0
1513265349869229735,,527251,,1513265348,86751426,'',1.2217304764,1.23714857933,0.0026782803004,0.0154181029328,0.001,-66.2978426111,4300.0,0.0,0.0,0.0
1513265349879525959,,527252,,1513265348,96751426,'',1.2217304764,1.23714857933,0.00174313321019,0.0154181029328,0.001,-66.2978426111,4300.0,0.0,0.0,0.0
1513265349889086212,,527253,,1513265348,106751426,'',1.2217304764,1.23714857933,0.00244445020043,0.0154181029328,0.001,-66.2978426111,4300.0,0.0,0.0,0.0
1513265349899006672,,527254,,1513265348,116751426,'',1.2217304764,1.23714857933,0.00300357844133,0.0154181029328,0.001,-66.2978426111,4300.0,0.0,0.0,0.0
1513265349908948976,,527255,,1513265348,126751426,'',1.2217304764,1.23714857933,0.00191152963295,0.0154181029328,0.001,-66.2978426111,4300.0,0.0,0.0,0.0
1513265349918840045,,527256,,1513265348,136751426,'',1.2217304764,1.23714857933,0.0020502570639,0.0154181029328,0.001,-66.2978426111,4300.0,0.0,0.0,0.0
1513265349929339138,,527257,,1513265348,146751426,'',1.2217304764,1.23714857933,0.00272234061338,0.0154181029328,0.001,-66.2978426111,4300.0,0.0,0.0,0.0
1513265349939224296,,527258,,1513265348,156751426,'',1.2217304764,1.23714857933,0.00270895096514,0.0154181029328,0.001,-66.2978426111,4300.0,0.0,0.0,0.0
1513265349949128194,,527259,,1513265348,166751426,'',1.2217304764,1.23714857933,0.00171233359737,0.0154181029328,0.001,-66.2978426111,4300.0,0.0,0.0,0.0
1513265349959047283,,527260,,1513265348,176751426,'',1.2217304764,1.23714857933,0.00184721634756,0.0154181029328,0.001,-66.2978426111,4300.0,0.0,0.0,0.0
1513265349968924928,,527261,,1513265348,186751426,'',1.2217304764,1.23714857933,0.00200387525715,0.0154181029328,0.001,-66.2978426111,4300.0,0.0,0.0,0.0
1513265349978934030,,527262,,1513265348,196751426,'',1.2217304764,1.23714857933,0.00264721729122,0.0154181029328,0.001,-66.2978426111,4300.0,0.0,0.0,0.0
1513265349989030310,,527263,,1513265348,206751426,'',1.2217304764,1.23576095006,-0.023778365556,0.0140304736689,0.001,-60.3310367761,4300.0,0.0,0.0,0.0
1513265349999237855,,527264,,1513265348,216751426,'',1.2217304764,1.23714857933,0.00594376832519,0.0154181029328,0.001,-66.2978426111,4300.0,0.0,0.0,0.0
1513265350009257238,,527265,,1513265348,226751426,'',1.2217304764,1.23714857933,0.00689196947404,0.0154181029328,0.001,-66.2978426111,4300.0,0.0,0.0,0.0
1513265350019348941,,527266,,1513265348,236751426,'',1.2217304764,1.23714857933,0.00618535881849,0.0154181029328,0.001,-66.2978426111,4300.0,0.0,0.0,0.0
1513265350029219201,,527267,,1513265348,246751426,'',1.2217304764,1.23576095006,-0.0209282214634,0.0140304736689,0.001,-60.3310367761,4300.0,0.0,0.0,0.0
1513265350039096545,,527268,,1513265348,256751426,'',1.2217304764,1.23576095006,-0.0202000130831,0.0140304736689,0.001,-60.3310367761,4300.0,0.0,0.0,0.0
1513265350049048626,,527269,,1513265348,266751426,'',1.2217304764,1.23714857933,0.00844842013058,0.0154181029328,0.001,-66.2978426111,4300.0,0.0,0.0,0.0
1513265350058987958,,527270,,1513265348,276751426,'',1.2217304764,1.23576095006,-0.0195357962096,0.0140304736689,0.001,-60.3310367761,4300.0,0.0,0.0,0.0
1513265350069029320,,527271,,1513265348,286751426,'',1.2217304764,1.23714857933,0.00848679009433,0.0154181029328,0.001,-66.2978426111,4300.0,0.0,0.0,0.0
1513265350078934463,,527272,,1513265348,296751426,'',1.2217304764,1.23576095006,-0.0180127705314,0.0140304736689,0.001,-60.3310367761,4300.0,0.0,0.0,0.0
1513265350089361999,,527273,,1513265348,306751426,'',1.2217304764,1.23714857933,0.00925504445252,0.0154181029328,0.001,-66.2978426111,4300.0,0.0,0.0,0.0
1513265350099275186,,527274,,1513265348,316751426,'',1.2217304764,1.23576095006,-0.0194021293083,0.0140304736689,0.001,-60.3310367761,4300.0,0.0,0.0,0.0
1513265350109263579,,527275,,1513265348,326751426,'',1.2217304764,1.23714857933,0.00906902701002,0.0154181029328,0.001,-66.2978426111,4300.0,0.0,0.0,0.0
1513265350119287903,,527276,,1513265348,336751426,'',1.2217304764,1.23714857933,0.0104462009514,0.0154181029328,0.001,-66.2978426111,4300.0,0.0,0.0,0.0
1513265350129208686,,527277,,1513265348,346751426,'',1.2217304764,1.23714857933,0.0100071636193,0.0154181029328,0.001,-66.2978426111,4300.0,0.0,0.0,0.0
1513265350139277443,,527278,,1513265348,356751426,'',1.2217304764,1.23714857933,0.00968398788774,0.0154181029328,0.001,-66.2978426111,4300.0,0.0,0.0,0.0
1513265350149301501,,527279,,1513265348,366751426,'',1.2217304764,1.2343733208,-0.0445065788602,0.0126428444049,0.001,-54.3642309411,4300.0,0.0,0.0,0.0
1513265350159366224,,527280,,1513265348,376751426,'',1.2217304764,1.23576095006,-0.0155159411081,0.0140304736689,0.001,-60.3310367761,4300.0,0.0,0.0,0.0
1513265350169237763,,527281,,1513265348,386751426,'',1.2217304764,1.23576095006,-0.0152363927211,0.0140304736689,0.001,-60.3310367761,4300.0,0.0,0.0,0.0
1513265350179228293,,527282,,1513265348,396751426,'',1.2217304764,1.23714857933,0.0139980256168,0.0154181029328,0.001,-66.2978426111,4300.0,0.0,0.0,0.0
1513265350189207521,,527283,,1513265348,406751426,'',1.2217304764,1.23714857933,0.0139959408831,0.0154181029328,0.001,-66.2978426111,4300.0,0.0,0.0,0.0
1513265350199178075,,527284,,1513265348,416751426,'',1.2217304764,1.23714857933,0.0114577620494,0.0154181029328,0.001,-66.2978426111,4300.0,0.0,0.0,0.0
1513265350209076106,,527285,,1513265348,426751426,'',1.2217304764,1.23714857933,0.0103608123056,0.0154181029328,0.001,-66.2978426111,4300.0,0.0,0.0,0.0
1513265350219034151,,527286,,1513265348,436751426,'',1.2217304764,1.23576095006,-0.0180528704583,0.0140304736689,0.001,-60.3310367761,4300.0,0.0,0.0,0.0
1513265350228882351,,527287,,1513265348,446751426,'',1.2217304764,1.23576095006,-0.0183432436674,0.0140304736689,0.001,-60.3310367761,4300.0,0.0,0.0,0.0
1513265350239355594,,527288,,1513265348,456751426,'',1.2217304764,1.23576095006,-0.0170565435618,0.0140304736689,0.001,-60.3310367761,4300.0,0.0,0.0,0.0
1513265350249289729,,527289,,1513265348,466751426,'',1.2217304764,1.23576095006,-0.0175426589307,0.0140304736689,0.001,-60.3310367761,4300.0,0.0,0.0,0.0
1513265350259158873,,527290,,1513265348,476751426,'',1.2217304764,1.23853620859,0.0380453749552,0.0168057321968,0.001,-72.2646484461,4300.0,0.0,0.0,0.0
1513265350269134839,,527291,,1513265348,486751426,'',1.2217304764,1.23714857933,0.00866234554096,0.0154181029328,0.001,-66.2978426111,4300.0,0.0,0.0,0.0
1513265350279060191,,527292,,1513265348,496751426,'',1.2217304764,1.23714857933,0.00811250554563,0.0154181029328,0.001,-66.2978426111,4300.0,0.0,0.0,0.0
1513265350288960623,,527293,,1513265348,506751426,'',1.2217304764,1.23714857933,0.00814316925378,0.0154181029328,0.001,-66.2978426111,4300.0,0.0,0.0,0.0
1513265350298920785,,527294,,1513265348,516751426,'',1.2217304764,1.23714857933,0.00769694347724,0.0154181029328,0.001,-66.2978426111,4300.0,0.0,0.0,0.0
1513265350308966750,,527295,,1513265348,526751426,'',1.2217304764,1.23576095006,-0.0207580274716,0.0140304736689,0.001,-60.3310367761,4300.0,0.0,0.0,0.0
1513265350319007525,,527296,,1513265348,536751426,'',1.2217304764,1.23576095006,-0.0200019909284,0.0140304736689,0.001,-60.3310367761,4300.0,0.0,0.0,0.0
1513265350329375650,,527297,,1513265348,546751426,'',1.2217304764,1.23576095006,-0.020431907528,0.0140304736689,0.001,-60.3310367761,4300.0,0.0,0.0,0.0
1513265350339389369,,527298,,1513265348,556751426,'',1.2217304764,1.23714857933,0.00823588724807,0.0154181029328,0.001,-66.2978426111,4300.0,0.0,0.0,0.0
1513265350349284667,,527299,,1513265348,566751426,'',1.2217304764,1.23714857933,0.00820158786367,0.0154181029328,0.001,-66.2978426111,4300.0,0.0,0.0,0.0
1513265350359314164,,527300,,1513265348,576751426,'',1.2217304764,1.23714857933,0.00823002097817,0.0154181029328,0.001,-66.2978426111,4300.0,0.0,0.0,0.0
1513265350369278967,,527301,,1513265348,586751426,'',1.2217304764,1.23576095006,-0.0191808511365,0.0140304736689,0.001,-60.3310367761,4300.0,0.0,0.0,0.0
1513265350379065332,,527302,,1513265348,596751426,'',1.2217304764,1.23714857933,0.0108253655877,0.0154181029328,0.001,-66.2978426111,4300.0,0.0,0.0,0.0
1513265350389077456,,527303,,1513265348,606751426,'',1.2217304764,1.23576095006,-0.0165574359951,0.0140304736689,0.001,-60.3310367761,4300.0,0.0,0.0,0.0
1513265350399277489,,527304,,1513265348,616751426,'',1.2217304764,1.23576095006,-0.0165610229704,0.0140304736689,0.001,-60.3310367761,4300.0,0.0,0.0,0.0
1513265350409085603,,527305,,1513265348,626751426,'',1.2217304764,1.23714857933,0.00996861015401,0.0154181029328,0.001,-66.2978426111,4300.0,0.0,0.0,0.0
1513265350419008522,,527306,,1513265348,636751426,'',1.2217304764,1.23576095006,-0.016290019083,0.0140304736689,0.001,-60.3310367761,4300.0,0.0,0.0,0.0
1513265350429383883,,527307,,1513265348,646751426,'',1.2217304764,1.23576095006,-0.0153783566953,0.0140304736689,0.001,-60.3310367761,4300.0,0.0,0.0,0.0
1513265350439266406,,527308,,1513265348,656751426,'',1.2217304764,1.23714857933,0.0129480947559,0.0154181029328,0.001,-66.2978426111,4300.0,0.0,0.0,0.0
1513265350449173510,,527309,,1513265348,666751426,'',1.2217304764,1.23576095006,-0.0148497876364,0.0140304736689,0.001,-60.3310367761,4300.0,0.0,0.0,0.0
1513265350459123173,,527310,,1513265348,676751426,'',1.2217304764,1.23576095006,-0.0146878125334,0.0140304736689,0.001,-60.3310367761,4300.0,0.0,0.0,0.0
1513265350469035493,,527311,,1513265348,686751426,'',1.2217304764,1.23714857933,0.0129259520039,0.0154181029328,0.001,-66.2978426111,4300.0,0.0,0.0,0.0
1513265350478864602,,527312,,1513265348,696751426,'',1.2217304764,1.23576095006,-0.0138597985551,0.0140304736689,0.001,-60.3310367761,4300.0,0.0,0.0,0.0
1513265350489211529,,527313,,1513265348,706751426,'',1.2217304764,1.23714857933,0.0121453668185,0.0154181029328,0.001,-66.2978426111,4300.0,0.0,0.0,0.0
1513265350499115091,,527314,,1513265348,716751426,'',1.2217304764,1.23853620859,0.0403837477412,0.0168057321968,0.001,-72.2646484461,4300.0,0.0,0.0,0.0
1513265350509143480,,527315,,1513265348,726751426,'',1.2217304764,1.23576095006,-0.014773406726,0.0140304736689,0.001,-60.3310367761,4300.0,0.0,0.0,0.0
1513265350519122554,,527316,,1513265348,736751426,'',1.2217304764,1.23576095006,-0.0111108858145,0.0140304736689,0.001,-60.3310367761,4300.0,0.0,0.0,0.0
1513265350529044655,,527317,,1513265348,746751426,'',1.2217304764,1.23576095006,-0.0100594945997,0.0140304736689,0.001,-60.3310367761,4300.0,0.0,0.0,0.0
1513265350538954197,,527318,,1513265348,756751426,'',1.2217304764,1.23714857933,0.0166971517179,0.0154181029328,0.001,-66.2978426111,4300.0,0.0,0.0,0.0
1513265350549315266,,527319,,1513265348,766751426,'',1.2217304764,1.23576095006,-0.0107673827544,0.0140304736689,0.001,-60.3310367761,4300.0,0.0,0.0,0.0
1513265350559087477,,527320,,1513265348,776751426,'',1.2217304764,1.23576095006,-0.0103182075831,0.0140304736689,0.001,-60.3310367761,4300.0,0.0,0.0,0.0
1513265350569668538,,527321,,1513265348,786751426,'',1.2217304764,1.23576095006,-0.0109910144909,0.0140304736689,0.001,-60.3310367761,4300.0,0.0,0.0,0.0
1513265350578990265,,527322,,1513265348,796751426,'',1.2217304764,1.23714857933,0.0159636945165,0.0154181029328,0.001,-66.2978426111,4300.0,0.0,0.0,0.0
1513265350588994229,,527323,,1513265348,806751426,'',1.2217304764,1.23714857933,0.0145733279799,0.0154181029328,0.001,-66.2978426111,4300.0,0.0,0.0,0.0
1513265350598902991,,527324,,1513265348,816751426,'',1.2217304764,1.23714857933,0.0139844846387,0.0154181029328,0.001,-66.2978426111,4300.0,0.0,0.0,0.0
1513265350609423976,,527325,,1513265348,826751426,'',1.2217304764,1.23714857933,0.0124066562799,0.0154181029328,0.001,-66.2978426111,4300.0,0.0,0.0,0.0
1513265350619275927,,527326,,1513265348,836751426,'',1.2217304764,1.23576095006,-0.0143609030768,0.0140304736689,0.001,-60.3310367761,4300.0,0.0,0.0,0.0
1513265350629274481,,527327,,1513265348,846751426,'',1.2217304764,1.23576095006,-0.0162625078784,0.0140304736689,0.001,-60.3310367761,4300.0,0.0,0.0,0.0
1513265350639132117,,527328,,1513265348,856751426,'',1.2217304764,1.23714857933,0.0106637710389,0.0154181029328,0.001,-66.2978426111,4300.0,0.0,0.0,0.0
1513265350649091259,,527329,,1513265348,866751426,'',1.2217304764,1.23714857933,0.00976382353587,0.0154181029328,0.001,-66.2978426111,4300.0,0.0,0.0,0.0
1513265350659003856,,527330,,1513265348,876751426,'',1.2217304764,1.23576095006,-0.0184420907763,0.0140304736689,0.001,-60.3310367761,4300.0,0.0,0.0,0.0
1513265350668979879,,527331,,1513265348,886751426,'',1.2217304764,1.23714857933,0.00835799896265,0.0154181029328,0.001,-66.2978426111,4300.0,0.0,0.0,0.0
1513265350678912215,,527332,,1513265348,896751426,'',1.2217304764,1.23853620859,0.0352613344807,0.0168057321968,0.001,-72.2646484461,4300.0,0.0,0.0,0.0
1513265350689400046,,527333,,1513265348,906751426,'',1.2217304764,1.23714857933,0.00692037181982,0.0154181029328,0.001,-66.2978426111,4300.0,0.0,0.0,0.0
1513265350699354663,,527334,,1513265348,916751426,'',1.2217304764,1.23714857933,0.00766318067158,0.0154181029328,0.001,-66.2978426111,4300.0,0.0,0.0,0.0
1513265350709240967,,527335,,1513265348,926751426,'',1.2217304764,1.23714857933,0.00771807000102,0.0154181029328,0.001,-66.2978426111,4300.0,0.0,0.0,0.0
1513265350719199661,,527336,,1513265348,936751426,'',1.2217304764,1.23714857933,0.007890507944,0.0154181029328,0.001,-66.2978426111,4300.0,0.0,0.0,0.0
1513265350729139568,,527337,,1513265348,946751426,'',1.2217304764,1.23576095006,-0.0195318446449,0.0140304736689,0.001,-60.3310367761,4300.0,0.0,0.0,0.0
1513265350739063506,,527338,,1513265348,956751426,'',1.2217304764,1.23714857933,0.00746258661929,0.0154181029328,0.001,-66.2978426111,4300.0,0.0,0.0,0.0
1513265350749041368,,527339,,1513265348,966751426,'',1.2217304764,1.23714857933,0.00713285115489,0.0154181029328,0.001,-66.2978426111,4300.0,0.0,0.0,0.0
1513265350758874246,,527340,,1513265348,976751426,'',1.2217304764,1.23714857933,0.00682382750715,0.0154181029328,0.001,-66.2978426111,4300.0,0.0,0.0,0.0
1513265350769304279,,527341,,1513265348,986751426,'',1.2217304764,1.23714857933,0.00613370547442,0.0154181029328,0.001,-66.2978426111,4300.0,0.0,0.0,0.0
1513265350779316884,,527342,,1513265348,996751426,'',1.2217304764,1.23714857933,0.00809782686963,0.0154181029328,0.001,-66.2978426111,4300.0,0.0,0.0,0.0
1513265350789108111,,527343,,1513265349,6751426,'',1.2217304764,1.23714857933,0.00869425437274,0.0154181029328,0.001,-66.2978426111,4300.0,0.0,0.0,0.0
1513265350798999580,,527344,,1513265349,16751426,'',1.2217304764,1.23576095006,-0.0198306889551,0.0140304736689,0.001,-60.3310367761,4300.0,0.0,0.0,0.0
1513265350808976839,,527345,,1513265349,26751426,'',1.2217304764,1.23714857933,0.00722958045601,0.0154181029328,0.001,-66.2978426111,4300.0,0.0,0.0,0.0
1513265350819392425,,527346,,1513265349,36751426,'',1.2217304764,1.23576095006,-0.0191372394218,0.0140304736689,0.001,-60.3310367761,4300.0,0.0,0.0,0.0
1513265350829366041,,527347,,1513265349,46751426,'',1.2217304764,1.23714857933,0.00823999161529,0.0154181029328,0.001,-66.2978426111,4300.0,0.0,0.0,0.0
1513265350839205273,,527348,,1513265349,56751426,'',1.2217304764,1.23714857933,0.00872891821373,0.0154181029328,0.001,-66.2978426111,4300.0,0.0,0.0,0.0
1513265350849238710,,527349,,1513265349,66751426,'',1.2217304764,1.23714857933,0.0086998557391,0.0154181029328,0.001,-66.2978426111,4300.0,0.0,0.0,0.0
1513265350859196878,,527350,,1513265349,76751426,'',1.2217304764,1.23714857933,0.00912416089717,0.0154181029328,0.001,-66.2978426111,4300.0,0.0,0.0,0.0
1513265350869089315,,527351,,1513265349,86751426,'',1.2217304764,1.23714857933,0.0105123342224,0.0154181029328,0.001,-66.2978426111,4300.0,0.0,0.0,0.0
