rosbagTimestamp,header,seq,stamp,secs,nsecs,frame_id,set_point,process_value,process_value_dot,error,time_step,command,p,i,d,i_clamp
1513265279938055398,,520250,,1513265278,156751426,'',0.750491578358,0.372078949371,-0.000344776089805,-0.378412628987,0.001,550.0,3100.0,0.0,3000.0,0.0
1513265279948023447,,520251,,1513265278,166751426,'',0.750491578358,0.372086267481,-0.000485020408109,-0.378405310877,0.001,550.0,3100.0,0.0,3000.0,0.0
1513265279957962280,,520252,,1513265278,176751426,'',0.750491578358,0.372092324822,-0.000607819865456,-0.378399253535,0.001,550.0,3100.0,0.0,3000.0,0.0
1513265279968021140,,520253,,1513265278,186751426,'',0.750491578358,0.372097395875,-0.000713233946576,-0.378394182483,0.001,550.0,3100.0,0.0,3000.0,0.0
1513265279977918700,,520254,,1513265278,196751426,'',0.750491578358,0.372107068068,-0.00091052421053,-0.378384510289,0.001,550.0,3100.0,0.0,3000.0,0.0
1513265279987828624,,520255,,1513265278,206751426,'',0.750491578358,0.372115862224,0.00486535963157,-0.378375716134,0.001,550.0,3100.0,0.0,3000.0,0.0
1513265279997823158,,520256,,1513265278,216751426,'',0.750491578358,0.372121755671,-0.00121030479606,-0.378369822687,0.001,550.0,3100.0,0.0,3000.0,0.0
1513265280007741388,,520257,,1513265278,226751426,'',0.750491578358,0.372121907107,-0.00120674816459,-0.378369671251,0.001,550.0,3100.0,0.0,3000.0,0.0
1513265280018053234,,520258,,1513265278,236751426,'',0.750491578358,0.372115879828,0.00487117730591,-0.37837569853,0.001,550.0,3100.0,0.0,3000.0,0.0
1513265280028030958,,520259,,1513265278,246751426,'',0.750491578358,0.372111379153,0.00495914442856,-0.378380199204,0.001,550.0,3100.0,0.0,3000.0,0.0
1513265280037951122,,520260,,1513265278,256751426,'',0.750491578358,0.372102114402,-0.000807998035575,-0.378389463955,0.001,550.0,3100.0,0.0,3000.0,0.0
1513265280047958716,,520261,,1513265278,266751426,'',0.750491578358,0.372126937109,0.00464961453616,-0.378364641249,0.001,550.0,3100.0,0.0,3000.0,0.0
1513265280057802155,,520262,,1513265278,276751426,'',0.750491578358,0.372115494978,0.00488013681303,-0.378376083379,0.001,550.0,3100.0,0.0,3000.0,0.0
1513265280067724999,,520263,,1513265278,286751426,'',0.750491578358,0.372100233698,-0.00672892553914,-0.37839134466,0.001,550.0,3100.0,0.0,3000.0,0.0
1513265280077676674,,520264,,1513265278,296751426,'',0.750491578358,0.372109526152,-0.00096027469047,-0.378382052205,0.001,550.0,3100.0,0.0,3000.0,0.0
1513265280087992132,,520265,,1513265278,306751426,'',0.750491578358,0.372139110826,0.00439584304147,-0.378352467531,0.001,550.0,3100.0,0.0,3000.0,0.0
1513265280097915749,,520266,,1513265278,316751426,'',0.750491578358,0.372129663707,-0.00732620422374,-0.378361914651,0.001,550.0,3100.0,0.0,3000.0,0.0
1513265280107821281,,520267,,1513265278,326751426,'',0.750491578358,0.372116859082,-0.00111474684552,-0.378374719276,0.001,550.0,3100.0,0.0,3000.0,0.0
1513265280117763640,,520268,,1513265278,336751426,'',0.750491578358,0.372112192112,-0.00102391967081,-0.378379386245,0.001,550.0,3100.0,0.0,3000.0,0.0
1513265280127823302,,520269,,1513265278,346751426,'',0.750491578358,0.37212399869,0.00469333927119,-0.378367579668,0.001,550.0,3100.0,0.0,3000.0,0.0
1513265280137690302,,520270,,1513265278,356751426,'',0.750491578358,0.372128751885,-0.00731112262614,-0.378362826472,0.001,550.0,3100.0,0.0,3000.0,0.0
1513265280147721576,,520271,,1513265278,366751426,'',0.750491578358,0.372148499732,0.00420319477048,-0.378343078625,0.001,550.0,3100.0,0.0,3000.0,0.0
1513265280157544290,,520272,,1513265278,376751426,'',0.750491578358,0.372148977398,-0.00176075103973,-0.378342600959,0.001,550.0,3100.0,0.0,3000.0,0.0
1513265280167985943,,520273,,1513265278,386751426,'',0.750491578358,0.372145004872,0.00427973407692,-0.378346573485,0.001,550.0,3100.0,0.0,3000.0,0.0
1513265280178007970,,520274,,1513265278,396751426,'',0.750491578358,0.37215196331,-0.00181758472361,-0.378339615048,0.001,550.0,3100.0,0.0,3000.0,0.0
1513265280187862658,,520275,,1513265278,406751426,'',0.750491578358,0.372161975546,-0.00202113699119,-0.378329602811,0.001,550.0,3100.0,0.0,3000.0,0.0
1513265280197876420,,520276,,1513265278,416751426,'',0.750491578358,0.372164796785,-0.00207737182925,-0.378326781573,0.001,550.0,3100.0,0.0,3000.0,0.0
1513265280207765668,,520277,,1513265278,426751426,'',0.750491578358,0.372150835909,-0.00179677054387,-0.378340742448,0.001,550.0,3100.0,0.0,3000.0,0.0
1513265280217645042,,520278,,1513265278,436751426,'',0.750491578358,0.372155075103,-0.00783985092794,-0.378336503254,0.001,550.0,3100.0,0.0,3000.0,0.0
1513265280227617411,,520279,,1513265278,446751426,'',0.750491578358,0.372153813903,-0.00186080337285,-0.378337764454,0.001,550.0,3100.0,0.0,3000.0,0.0
1513265280238073420,,520280,,1513265278,456751426,'',0.750491578358,0.372158643227,0.00399880556148,-0.378332935131,0.001,550.0,3100.0,0.0,3000.0,0.0
1513265280247916064,,520281,,1513265278,466751426,'',0.750491578358,0.372151256394,-0.00180719264178,-0.378340321964,0.001,550.0,3100.0,0.0,3000.0,0.0
1513265280257882754,,520282,,1513265278,476751426,'',0.750491578358,0.372162925124,-0.00204041004353,-0.378328653233,0.001,550.0,3100.0,0.0,3000.0,0.0
1513265280267869366,,520283,,1513265278,486751426,'',0.750491578358,0.372149848022,-0.00177965034787,-0.378341730335,0.001,550.0,3100.0,0.0,3000.0,0.0
1513265280277694742,,520284,,1513265278,496751426,'',0.750491578358,0.372122492737,-0.00122834651351,-0.37836908562,0.001,550.0,3100.0,0.0,3000.0,0.0
1513265280287675197,,520285,,1513265278,506751426,'',0.750491578358,0.372121853569,-0.00121572685588,-0.378369724789,0.001,550.0,3100.0,0.0,3000.0,0.0
1513265280298072332,,520286,,1513265278,516751426,'',0.750491578358,0.372132162684,-0.00142653484396,-0.378359415673,0.001,550.0,3100.0,0.0,3000.0,0.0
1513265280307988296,,520287,,1513265278,526751426,'',0.750491578358,0.372113751867,-0.00105209742742,-0.37837782649,0.001,550.0,3100.0,0.0,3000.0,0.0
1513265280318110240,,520288,,1513265278,536751426,'',0.750491578358,0.372114583362,-0.00107060973947,-0.378376994995,0.001,550.0,3100.0,0.0,3000.0,0.0
1513265280327918849,,520289,,1513265278,546751426,'',0.750491578358,0.372131787295,0.00453543175366,-0.378359791062,0.001,550.0,3100.0,0.0,3000.0,0.0
1513265280337964504,,520290,,1513265278,556751426,'',0.750491578358,0.372136066364,0.00444919969779,-0.378355511994,0.001,550.0,3100.0,0.0,3000.0,0.0
1513265280347878281,,520291,,1513265278,566751426,'',0.750491578358,0.372154672466,-0.00188197923054,-0.378336905891,0.001,550.0,3100.0,0.0,3000.0,0.0
1513265280357863667,,520292,,1513265278,576751426,'',0.750491578358,0.37218059315,0.00355032116649,-0.378310985207,0.001,550.0,3100.0,0.0,3000.0,0.0
1513265280367831813,,520293,,1513265278,586751426,'',0.750491578358,0.372218051956,0.00874755755285,-0.378273526402,0.001,550.0,3100.0,0.0,3000.0,0.0
1513265280377674618,,520294,,1513265278,596751426,'',0.750491578358,0.372232931951,0.00249232122831,-0.378258646406,0.001,550.0,3100.0,0.0,3000.0,0.0
1513265280387983384,,520295,,1513265278,606751426,'',0.750491578358,0.372207194305,-0.00294299963218,-0.378284384053,0.001,550.0,3100.0,0.0,3000.0,0.0
1513265280397872335,,520296,,1513265278,616751426,'',0.750491578358,0.372213026361,0.0028973755882,-0.378278551997,0.001,550.0,3100.0,0.0,3000.0,0.0
1513265280407810833,,520297,,1513265278,626751426,'',0.750491578358,0.372208360002,0.00299187892316,-0.378283218355,0.001,550.0,3100.0,0.0,3000.0,0.0
1513265280417724502,,520298,,1513265278,636751426,'',0.750491578358,0.372219197646,0.00277257710149,-0.378272380712,0.001,550.0,3100.0,0.0,3000.0,0.0
1513265280427799836,,520299,,1513265278,646751426,'',0.750491578358,0.372222675095,-0.00325262921313,-0.378268903262,0.001,550.0,3100.0,0.0,3000.0,0.0
1513265280437627684,,520300,,1513265278,656751426,'',0.750491578358,0.372225101871,-0.00330694065511,-0.378266476487,0.001,550.0,3100.0,0.0,3000.0,0.0
1513265280448024074,,520301,,1513265278,666751426,'',0.750491578358,0.372226483776,-0.0033342224661,-0.378265094582,0.001,550.0,3100.0,0.0,3000.0,0.0
1513265280457953056,,520302,,1513265278,676751426,'',0.750491578358,0.372233980451,0.00247093459074,-0.378257597907,0.001,550.0,3100.0,0.0,3000.0,0.0
1513265280467871232,,520303,,1513265278,686751426,'',0.750491578358,0.372218631989,-0.0031748186333,-0.378272946369,0.001,550.0,3100.0,0.0,3000.0,0.0
1513265280477761633,,520304,,1513265278,696751426,'',0.750491578358,0.372238349915,0.00833657173119,-0.378253228443,0.001,550.0,3100.0,0.0,3000.0,0.0
1513265280487655966,,520305,,1513265278,706751426,'',0.750491578358,0.372248486717,-0.00377883507653,-0.378243091641,0.001,550.0,3100.0,0.0,3000.0,0.0
1513265280498096720,,520306,,1513265278,716751426,'',0.750491578358,0.37224603618,-0.00372685195404,-0.378245542177,0.001,550.0,3100.0,0.0,3000.0,0.0
1513265280507931818,,520307,,1513265278,726751426,'',0.750491578358,0.372228890586,-0.00337991600544,-0.378262687771,0.001,550.0,3100.0,0.0,3000.0,0.0
1513265280517974970,,520308,,1513265278,736751426,'',0.750491578358,0.372231296187,0.00252843943326,-0.378260282171,0.001,550.0,3100.0,0.0,3000.0,0.0
1513265280527928179,,520309,,1513265278,746751426,'',0.750491578358,0.372206067053,-0.00291771890261,-0.378285511305,0.001,550.0,3100.0,0.0,3000.0,0.0
1513265280537689940,,520310,,1513265278,756751426,'',0.750491578358,0.372183999683,-0.00842707316261,-0.378307578674,0.001,550.0,3100.0,0.0,3000.0,0.0
1513265280547629428,,520311,,1513265278,766751426,'',0.750491578358,0.372205003991,-0.00289562893794,-0.378286574367,0.001,550.0,3100.0,0.0,3000.0,0.0
1513265280558047929,,520312,,1513265278,776751426,'',0.750491578358,0.372216933191,0.00282051978153,-0.378274645167,0.001,550.0,3100.0,0.0,3000.0,0.0
1513265280567979459,,520313,,1513265278,786751426,'',0.750491578358,0.372225886142,0.00263557115261,-0.378265692216,0.001,550.0,3100.0,0.0,3000.0,0.0
1513265280577941688,,520314,,1513265278,796751426,'',0.750491578358,0.372237036287,-0.00950311788907,-0.37825454207,0.001,550.0,3100.0,0.0,3000.0,0.0
1513265280587868946,,520315,,1513265278,806751426,'',0.750491578358,0.372243718829,0.00227374923541,-0.378247859528,0.001,550.0,3100.0,0.0,3000.0,0.0
1513265280597789234,,520316,,1513265278,816751426,'',0.750491578358,0.372231864515,0.00251324851227,-0.378259713843,0.001,550.0,3100.0,0.0,3000.0,0.0
1513265280607776383,,520317,,1513265278,826751426,'',0.750491578358,0.372228687672,0.00257616076383,-0.378262890685,0.001,550.0,3100.0,0.0,3000.0,0.0
1513265280617677865,,520318,,1513265278,836751426,'',0.750491578358,0.372230339794,0.00254465061677,-0.378261238563,0.001,550.0,3100.0,0.0,3000.0,0.0
1513265280627660335,,520319,,1513265278,846751426,'',0.750491578358,0.372241841242,-0.00364172469765,-0.378249737115,0.001,550.0,3100.0,0.0,3000.0,0.0
1513265280637557434,,520320,,1513265278,856751426,'',0.750491578358,0.372230459822,0.00254726341382,-0.378261118535,0.001,550.0,3100.0,0.0,3000.0,0.0
1513265280648012229,,520321,,1513265278,866751426,'',0.750491578358,0.372231493712,-0.00342806154757,-0.378260084646,0.001,550.0,3100.0,0.0,3000.0,0.0
1513265280658023806,,520322,,1513265278,876751426,'',0.750491578358,0.372237371473,0.00240873884954,-0.378254206885,0.001,550.0,3100.0,0.0,3000.0,0.0
1513265280667971343,,520323,,1513265278,886751426,'',0.750491578358,0.372258956496,0.00197470472417,-0.378232621862,0.001,550.0,3100.0,0.0,3000.0,0.0
1513265280677977354,,520324,,1513265278,896751426,'',0.750491578358,0.372260019001,-0.00400592205757,-0.378231559357,0.001,550.0,3100.0,0.0,3000.0,0.0
1513265280687790824,,520325,,1513265278,906751426,'',0.750491578358,0.372277227007,-0.00435261369883,-0.37821435135,0.001,550.0,3100.0,0.0,3000.0,0.0
1513265280697709719,,520326,,1513265278,916751426,'',0.750491578358,0.372291273954,0.0013181290591,-0.378200304403,0.001,550.0,3100.0,0.0,3000.0,0.0
1513265280707722637,,520327,,1513265278,926751426,'',0.750491578358,0.372287906851,0.00138596630686,-0.378203671507,0.001,550.0,3100.0,0.0,3000.0,0.0
1513265280717651684,,520328,,1513265278,936751426,'',0.750491578358,0.372300513479,0.00113320677218,-0.378191064879,0.001,550.0,3100.0,0.0,3000.0,0.0
1513265280728025015,,520329,,1513265278,946751426,'',0.750491578358,0.372310679853,0.000927658701573,-0.378180898505,0.001,550.0,3100.0,0.0,3000.0,0.0
1513265280737929047,,520330,,1513265278,956751426,'',0.750491578358,0.37230807585,-0.00497327709763,-0.378183502508,0.001,550.0,3100.0,0.0,3000.0,0.0
1513265280747790222,,520331,,1513265278,966751426,'',0.750491578358,0.372300792146,0.0011282910106,-0.378190786212,0.001,550.0,3100.0,0.0,3000.0,0.0
1513265280758063209,,520332,,1513265278,976751426,'',0.750491578358,0.372327685505,0.00654203705955,-0.378163892853,0.001,550.0,3100.0,0.0,3000.0,0.0
1513265280768011814,,520333,,1513265278,986751426,'',0.750491578358,0.372333066947,0.000478180614788,-0.37815851141,0.001,550.0,3100.0,0.0,3000.0,0.0
1513265280777919433,,520334,,1513265278,996751426,'',0.750491578358,0.372347997272,0.000170727738295,-0.378143581085,0.001,550.0,3100.0,0.0,3000.0,0.0
1513265280787854132,,520335,,1513265279,6751426,'',0.750491578358,0.372344305167,0.000246477558017,-0.378147273191,0.001,550.0,3100.0,0.0,3000.0,0.0
1513265280797805032,,520336,,1513265279,16751426,'',0.750491578358,0.372345924797,-0.0057383383569,-0.37814565356,0.001,550.0,3100.0,0.0,3000.0,0.0
1513265280807743914,,520337,,1513265279,26751426,'',0.750491578358,0.372336821312,-0.0055539283647,-0.378154757045,0.001,550.0,3100.0,0.0,3000.0,0.0
1513265280817711565,,520338,,1513265279,36751426,'',0.750491578358,0.372340619214,0.000323879814913,-0.378150959144,0.001,550.0,3100.0,0.0,3000.0,0.0
1513265280827657616,,520339,,1513265279,46751426,'',0.750491578358,0.372322555409,-0.00526736239732,-0.378169022948,0.001,550.0,3100.0,0.0,3000.0,0.0
1513265280837981128,,520340,,1513265279,56751426,'',0.750491578358,0.372318063565,0.000777183051646,-0.378173514792,0.001,550.0,3100.0,0.0,3000.0,0.0
1513265280847971708,,520341,,1513265279,66751426,'',0.750491578358,0.372331724443,0.00646025516674,-0.378159853914,0.001,550.0,3100.0,0.0,3000.0,0.0
1513265280857764438,,520342,,1513265279,76751426,'',0.750491578358,0.372320139805,0.000738500712316,-0.378171438553,0.001,550.0,3100.0,0.0,3000.0,0.0
1513265280867787112,,520343,,1513265279,86751426,'',0.750491578358,0.372320804179,-0.00524252776434,-0.378170774179,0.001,550.0,3100.0,0.0,3000.0,0.0
1513265280877742098,,520344,,1513265279,96751426,'',0.750491578358,0.37233817572,0.000361660965836,-0.378153402638,0.001,550.0,3100.0,0.0,3000.0,0.0
1513265280887622233,,520345,,1513265279,106751426,'',-0.25,0.372358779581,0.005903171445,0.622358779581,0.001,-550.0,3100.0,0.0,3000.0,0.0
1513265280898038364,,520346,,1513265279,116751426,'',-0.25,0.372378894462,-0.000461352671054,0.622378894462,0.001,-550.0,3100.0,0.0,3000.0,0.0
1513265280907906785,,520347,,1513265279,126751426,'',-0.25,0.372396071699,-0.000806133873332,0.622396071699,0.001,-550.0,3100.0,0.0,3000.0,0.0
1513265280917852243,,520348,,1513265279,136751426,'',-0.25,0.372377946424,-0.00639354843944,0.622377946424,0.001,-550.0,3100.0,0.0,3000.0,0.0
1513265280927750567,,520349,,1513265279,146751426,'',-0.25,0.372395072061,-0.000789200477914,0.622395072061,0.001,-550.0,3100.0,0.0,3000.0,0.0
1513265280937731812,,520350,,1513265279,156751426,'',-0.25,0.372232042562,-0.0391851383861,0.622232042562,0.001,-550.0,3100.0,0.0,3000.0,0.0
1513265280947657611,,520351,,1513265279,166751426,'',-0.25,0.371299769365,-0.145417027827,0.621299769365,0.001,-550.0,3100.0,0.0,3000.0,0.0
1513265280957835507,,520352,,1513265279,176751426,'',-0.25,0.369063692531,-0.290828261853,0.619063692531,0.001,-550.0,3100.0,0.0,3000.0,0.0
1513265280967799380,,520353,,1513265279,186751426,'',-0.25,0.365218545942,-0.457342526963,0.615218545942,0.001,-507.522313051,3100.0,0.0,3000.0,0.0
1513265280977785417,,520354,,1513265279,196751426,'',-0.25,0.359791353985,-0.609751109823,0.609791353985,0.001,-90.750555753,3100.0,0.0,3000.0,0.0
1513265280987770808,,520355,,1513265279,206751426,'',-0.25,0.353149279906,-0.701895089002,0.603149279906,0.001,270.232696249,3100.0,0.0,3000.0,0.0
1513265280997676505,,520356,,1513265279,216751426,'',-0.25,0.346039699265,-0.713119697062,0.596039699265,0.001,306.91892618,3100.0,0.0,3000.0,0.0
1513265281007722402,,520357,,1513265279,226751426,'',-0.25,0.339276744563,-0.642010656975,0.589276744563,0.001,111.180242763,3100.0,0.0,3000.0,0.0
1513265281017619843,,520358,,1513265279,236751426,'',-0.25,0.33341000234,-0.541359666867,0.58341000234,0.001,-263.189081087,3100.0,0.0,3000.0,0.0
1513265281027593592,,520359,,1513265279,246751426,'',-0.25,0.328464488935,-0.453360035268,0.578464488935,0.001,-444.05747987,3100.0,0.0,3000.0,0.0
1513265281038064865,,520360,,1513265279,256751426,'',-0.25,0.324250857109,-0.398017494352,0.574250857109,0.001,-550.0,3100.0,0.0,3000.0,0.0
1513265281047899717,,520361,,1513265279,266751426,'',-0.25,0.320254418745,-0.406623643594,0.570254418745,0.001,-540.662959232,3100.0,0.0,3000.0,0.0
1513265281057850330,,520362,,1513265279,276751426,'',-0.25,0.315891052592,-0.467371949565,0.565891052592,0.001,-347.861659169,3100.0,0.0,3000.0,0.0
1513265281067751852,,520363,,1513265279,286751426,'',-0.25,0.310780382087,-0.542803290003,0.560780382087,0.001,-88.5647647617,3100.0,0.0,3000.0,0.0
1513265281077804245,,520364,,1513265279,296751426,'',-0.25,0.304973033751,-0.598201702996,0.554973033751,0.001,83.5643739031,3100.0,0.0,3000.0,0.0
1513265281087731664,,520365,,1513265279,306751426,'',-0.25,0.298938241235,-0.595406354237,0.548938241235,0.001,99.0025674717,3100.0,0.0,3000.0,0.0
1513265281097658359,,520366,,1513265279,316751426,'',-0.25,0.293184175161,-0.5565889589,0.543184175161,0.001,-44.3747992193,3100.0,0.0,3000.0,0.0
1513265281108049551,,520367,,1513265279,326751426,'',-0.25,0.288038065401,-0.488366555056,0.538038065401,0.001,-195.517105459,3100.0,0.0,3000.0,0.0
1513265281117960800,,520368,,1513265279,336751426,'',-0.25,0.283535689858,-0.421236199998,0.533535689858,0.001,-382.434917029,3100.0,0.0,3000.0,0.0
1513265281127955863,,520369,,1513265279,346751426,'',-0.25,0.279482066066,-0.386998164353,0.529482066066,0.001,-465.40288593,3100.0,0.0,3000.0,0.0
1513265281137752008,,520370,,1513265279,356751426,'',-0.25,0.27553089161,-0.402471580271,0.52553089161,0.001,-413.114895918,3100.0,0.0,3000.0,0.0
1513265281147734577,,520371,,1513265279,366751426,'',-0.25,0.271266759598,-0.4533067215,0.521266759598,0.001,-279.355183673,3100.0,0.0,3000.0,0.0
1513265281157592225,,520372,,1513265279,376751426,'',-0.25,0.266617980906,-0.478508772031,0.516617980906,0.001,-158.486789188,3100.0,0.0,3000.0,0.0
1513265281167604526,,520373,,1513265279,386751426,'',-0.25,0.261865315171,-0.471839472626,0.511865315171,0.001,-152.62969405,3100.0,0.0,3000.0,0.0
1513265281177917367,,520374,,1513265279,396751426,'',-0.25,0.25722019619,-0.461382442824,0.50722019619,0.001,-177.0159065,3100.0,0.0,3000.0,0.0
1513265281187894217,,520375,,1513265279,406751426,'',-0.25,0.252783825747,-0.43131793396,0.502783825747,0.001,-286.899307524,3100.0,0.0,3000.0,0.0
1513265281197909457,,520376,,1513265279,416751426,'',-0.25,0.248571343931,-0.411730876322,0.498571343931,0.001,-311.660427769,3100.0,0.0,3000.0,0.0
1513265281207825499,,520377,,1513265279,426751426,'',-0.25,0.244611024473,-0.385327350698,0.494611024473,0.001,-371.54799391,3100.0,0.0,3000.0,0.0
1513265281217531782,,520378,,1513265279,436751426,'',-0.25,0.240882445334,-0.369558429356,0.490882445334,0.001,-408.320784069,3100.0,0.0,3000.0,0.0
1513265281228087602,,520379,,1513265279,446751426,'',-0.25,0.237231539021,-0.367276366223,0.487231539021,0.001,-401.762190934,3100.0,0.0,3000.0,0.0
1513265281238076989,,520380,,1513265279,456751426,'',-0.25,0.233458866616,-0.386353440725,0.483458866616,0.001,-360.663753551,3100.0,0.0,3000.0,0.0
1513265281247942895,,520381,,1513265279,466751426,'',-0.25,0.229561637173,-0.396965048461,0.479561637173,0.001,-275.469245264,3100.0,0.0,3000.0,0.0
1513265281257882285,,520382,,1513265279,476751426,'',-0.25,0.225703416057,-0.378583826245,0.475703416057,0.001,-333.277231322,3100.0,0.0,3000.0,0.0
1513265281267940662,,520383,,1513265279,486751426,'',-0.25,0.222068602179,-0.346847281878,0.472068602179,0.001,-418.699991586,3100.0,0.0,3000.0,0.0
1513265281277810022,,520384,,1513265279,496751426,'',-0.25,0.218752988756,-0.321556073242,0.468752988756,0.001,-505.964226446,3100.0,0.0,3000.0,0.0
1513265281287931282,,520385,,1513265279,506751426,'',-0.25,0.215722461655,-0.290111797524,0.465722461655,0.001,-550.0,3100.0,0.0,3000.0,0.0
1513265281297620829,,520386,,1513265279,516751426,'',-0.25,0.212968131494,-0.258295066547,0.462968131494,0.001,-550.0,3100.0,0.0,3000.0,0.0
1513265281307639847,,520387,,1513265279,526751426,'',-0.25,0.210417776759,-0.24250544705,0.460417776759,0.001,-550.0,3100.0,0.0,3000.0,0.0
1513265281317582566,,520388,,1513265279,536751426,'',-0.25,0.208038973894,-0.230185574416,0.458038973894,0.001,-550.0,3100.0,0.0,3000.0,0.0
1513265281327980433,,520389,,1513265279,546751426,'',-0.25,0.205845125899,-0.209687967468,0.455845125899,0.001,-550.0,3100.0,0.0,3000.0,0.0
1513265281337937263,,520390,,1513265279,556751426,'',-0.25,0.203804514534,-0.204202506637,0.453804514534,0.001,-550.0,3100.0,0.0,3000.0,0.0
1513265281348015206,,520391,,1513265279,566751426,'',-0.25,0.201960815487,-0.178867698969,0.451960815487,0.001,-550.0,3100.0,0.0,3000.0,0.0
1513265281357833714,,520392,,1513265279,576751426,'',-0.25,0.200218400645,-0.167490667584,0.450218400645,0.001,-550.0,3100.0,0.0,3000.0,0.0
1513265281367867657,,520393,,1513265279,586751426,'',-0.25,0.198586342408,-0.158345330608,0.448586342408,0.001,-550.0,3100.0,0.0,3000.0,0.0
1513265281377810252,,520394,,1513265279,596751426,'',-0.25,0.197078187426,-0.145743825173,0.447078187426,0.001,-550.0,3100.0,0.0,3000.0,0.0
1513265281387670339,,520395,,1513265279,606751426,'',-0.25,0.195653190378,-0.1348259704,0.445653190378,0.001,-550.0,3100.0,0.0,3000.0,0.0
1513265281397690367,,520396,,1513265279,616751426,'',-0.25,0.194300959543,-0.137293077367,0.444300959543,0.001,-550.0,3100.0,0.0,3000.0,0.0
1513265281408132157,,520397,,1513265279,626751426,'',-0.25,0.19304521364,-0.117879071253,0.44304521364,0.001,-550.0,3100.0,0.0,3000.0,0.0
1513265281417667579,,520398,,1513265279,636751426,'',-0.25,0.191889777,-0.112405240226,0.441889777,0.001,-550.0,3100.0,0.0,3000.0,0.0
1513265281427614704,,520399,,1513265279,646751426,'',-0.25,0.190836997118,-0.0970961441489,0.440836997118,0.001,-550.0,3100.0,0.0,3000.0,0.0
1513265281437616412,,520400,,1513265279,656751426,'',-0.25,0.189856304536,-0.095152971019,0.439856304536,0.001,-550.0,3100.0,0.0,3000.0,0.0
1513265281448080193,,520401,,1513265279,666751426,'',-0.25,0.18896065426,-0.0889727791827,0.43896065426,0.001,-550.0,3100.0,0.0,3000.0,0.0
1513265281458022655,,520402,,1513265279,676751426,'',-0.25,0.188135732083,-0.0782629198212,0.438135732083,0.001,-550.0,3100.0,0.0,3000.0,0.0
1513265281467860730,,520403,,1513265279,686751426,'',-0.25,0.187373944885,-0.0688280039277,0.437373944885,0.001,-550.0,3100.0,0.0,3000.0,0.0
1513265281477690846,,520404,,1513265279,696751426,'',-0.25,0.186622415239,-0.0715138353863,0.436622415239,0.001,-550.0,3100.0,0.0,3000.0,0.0
1513265281487655578,,520405,,1513265279,706751426,'',-0.25,0.185915342537,-0.0691361981007,0.435915342537,0.001,-550.0,3100.0,0.0,3000.0,0.0
1513265281498081761,,520406,,1513265279,716751426,'',-0.25,0.185223517652,-0.0670723843888,0.435223517652,0.001,-550.0,3100.0,0.0,3000.0,0.0
1513265281507919107,,520407,,1513265279,726751426,'',-0.25,0.184565579796,-0.0656908997863,0.434565579796,0.001,-550.0,3100.0,0.0,3000.0,0.0
1513265281517879849,,520408,,1513265279,736751426,'',-0.25,0.183969634507,-0.0596066011409,0.433969634507,0.001,-550.0,3100.0,0.0,3000.0,0.0
1513265281527911153,,520409,,1513265279,746751426,'',-0.25,0.183405897884,-0.0541771830154,0.433405897884,0.001,-550.0,3100.0,0.0,3000.0,0.0
1513265281537758467,,520410,,1513265279,756751426,'',-0.25,0.182886427621,-0.055590844577,0.432886427621,0.001,-550.0,3100.0,0.0,3000.0,0.0
1513265281547631550,,520411,,1513265279,766751426,'',-0.25,0.182393068578,-0.0515811782891,0.432393068578,0.001,-550.0,3100.0,0.0,3000.0,0.0
1513265281557753346,,520412,,1513265279,776751426,'',-0.25,0.181966456675,-0.0429602632773,0.431966456675,0.001,-550.0,3100.0,0.0,3000.0,0.0
1513265281567719317,,520413,,1513265279,786751426,'',-0.25,0.181608582629,-0.02977957989,0.431608582629,0.001,-550.0,3100.0,0.0,3000.0,0.0
1513265281578100262,,520414,,1513265279,796751426,'',-0.25,0.181374384038,-0.0190918698411,0.431374384038,0.001,-550.0,3100.0,0.0,3000.0,0.0
1513265281588056801,,520415,,1513265279,806751426,'',-0.25,0.18122515217,-0.0101233225268,0.43122515217,0.001,-550.0,3100.0,0.0,3000.0,0.0
1513265281597978162,,520416,,1513265279,816751426,'',-0.25,0.181167295157,-0.00299765093258,0.431167295157,0.001,-550.0,3100.0,0.0,3000.0,0.0
1513265281607773102,,520417,,1513265279,826751426,'',-0.25,0.181168173858,0.00294227805337,0.431168173858,0.001,-550.0,3100.0,0.0,3000.0,0.0
1513265281617814981,,520418,,1513265279,836751426,'',-0.25,0.181178471934,0.00273852481712,0.431178471934,0.001,-550.0,3100.0,0.0,3000.0,0.0
1513265281627748295,,520419,,1513265279,846751426,'',-0.25,0.181191378122,-0.00347892001545,0.431191378122,0.001,-550.0,3100.0,0.0,3000.0,0.0
1513265281637749927,,520420,,1513265279,856751426,'',-0.25,0.181224369673,0.00180881419663,0.431224369673,0.001,-550.0,3100.0,0.0,3000.0,0.0
1513265281647736451,,520421,,1513265279,866751426,'',-0.25,0.181234481461,-0.00435108902183,0.431234481461,0.001,-550.0,3100.0,0.0,3000.0,0.0
1513265281657806200,,520422,,1513265279,876751426,'',-0.25,0.18123791684,0.00153282400711,0.43123791684,0.001,-550.0,3100.0,0.0,3000.0,0.0
1513265281667996818,,520423,,1513265279,886751426,'',-0.25,0.18124598498,0.00136819073378,0.43124598498,0.001,-550.0,3100.0,0.0,3000.0,0.0
1513265281677932501,,520424,,1513265279,896751426,'',-0.25,0.181258503994,0.00111431628193,0.431258503994,0.001,-550.0,3100.0,0.0,3000.0,0.0
1513265281687718838,,520425,,1513265279,906751426,'',-0.25,0.18126325421,0.0010174518636,0.43126325421,0.001,-550.0,3100.0,0.0,3000.0,0.0
1513265281697545915,,520426,,1513265279,916751426,'',-0.25,0.181277294125,0.000733132522617,0.431277294125,0.001,-550.0,3100.0,0.0,3000.0,0.0
1513265281708019041,,520427,,1513265279,926751426,'',-0.25,0.181332145651,0.00558033656494,0.431332145651,0.001,-550.0,3100.0,0.0,3000.0,0.0
1513265281718241181,,520428,,1513265279,936751426,'',-0.25,0.181430682666,0.00954520698335,0.431430682666,0.001,-550.0,3100.0,0.0,3000.0,0.0
1513265281727875478,,520429,,1513265279,946751426,'',-0.25,0.181490104859,0.00834695758458,0.431490104859,0.001,-550.0,3100.0,0.0,3000.0,0.0
1513265281737711725,,520430,,1513265279,956751426,'',-0.25,0.18156490047,0.00683638922582,0.43156490047,0.001,-550.0,3100.0,0.0,3000.0,0.0
1513265281748038831,,520431,,1513265279,966751426,'',-0.25,0.181653310488,0.0110042699985,0.431653310488,0.001,-550.0,3100.0,0.0,3000.0,0.0
1513265281757653937,,520432,,1513265279,976751426,'',-0.25,0.181742504089,0.00920130053537,0.431742504089,0.001,-550.0,3100.0,0.0,3000.0,0.0
1513265281767618113,,520433,,1513265279,986751426,'',-0.25,0.181835292937,0.00732722764077,0.431835292937,0.001,-550.0,3100.0,0.0,3000.0,0.0
1513265281777631473,,520434,,1513265279,996751426,'',-0.25,0.181861465835,-0.00511232411347,0.431861465835,0.001,-550.0,3100.0,0.0,3000.0,0.0
1513265281787546286,,520435,,1513265280,6751426,'',-0.25,0.181554374474,-0.0584644358173,0.431554374474,0.001,-550.0,3100.0,0.0,3000.0,0.0
1513265281797540788,,520436,,1513265280,16751426,'',-0.25,0.180263977552,-0.193199724249,0.430263977552,0.001,-550.0,3100.0,0.0,3000.0,0.0
1513265281808094557,,520437,,1513265280,26751426,'',-0.25,0.17701094714,-0.443142092757,0.42701094714,0.001,20.6317501596,3100.0,0.0,3000.0,0.0
1513265281817972768,,520438,,1513265280,36751426,'',-0.25,0.170872618282,-0.753903116023,0.420872618282,0.001,550.0,3100.0,0.0,3000.0,0.0
1513265281827890657,,520439,,1513265280,46751426,'',-0.25,0.162308289935,-0.89058990889,0.412308289935,0.001,550.0,3100.0,0.0,3000.0,0.0
1513265281837803048,,520440,,1513265280,56751426,'',-0.25,0.153984707456,-0.764135355715,0.403984707456,0.001,550.0,3100.0,0.0,3000.0,0.0
1513265281847858425,,520441,,1513265280,66751426,'',-0.25,0.147177297858,-0.614705496457,0.397177297858,0.001,550.0,3100.0,0.0,3000.0,0.0
1513265281857564269,,520442,,1513265280,76751426,'',-0.25,0.141709973613,-0.492353074966,0.391709973613,0.001,267.253730979,3100.0,0.0,3000.0,0.0
1513265281868058288,,520443,,1513265280,86751426,'',-0.25,0.137578826054,-0.349334392519,0.387578826054,0.001,-102.818105063,3100.0,0.0,3000.0,0.0
1513265281878022928,,520444,,1513265280,96751426,'',-0.25,0.134862484594,-0.217036798788,0.384862484594,0.001,-539.348571775,3100.0,0.0,3000.0,0.0
1513265281887856220,,520445,,1513265280,106751426,'',-0.25,0.133307911897,-0.108204205937,0.383307911897,0.001,-550.0,3100.0,0.0,3000.0,0.0
1513265281897737537,,520446,,1513265280,116751426,'',-0.25,0.132774214272,-0.00808812391288,0.382774214272,0.001,-550.0,3100.0,0.0,3000.0,0.0
1513265281907655632,,520447,,1513265280,126751426,'',-0.25,0.133184390283,0.0729584575431,0.383184390283,0.001,-550.0,3100.0,0.0,3000.0,0.0
1513265281918005230,,520448,,1513265280,136751426,'',-0.25,0.133866156733,0.0651423992729,0.383866156733,0.001,-550.0,3100.0,0.0,3000.0,0.0
1513265281927990580,,520449,,1513265280,146751426,'',-0.25,0.13431832701,0.0202742431289,0.38431832701,0.001,-550.0,3100.0,0.0,3000.0,0.0
1513265281937971918,,520450,,1513265280,156751426,'',-0.25,0.133444008336,-0.194335626043,0.383444008336,0.001,-550.0,3100.0,0.0,3000.0,0.0
1513265281947888979,,520451,,1513265280,166751426,'',-0.25,0.129680331446,-0.559029740883,0.379680331446,0.001,508.439404733,3100.0,0.0,3000.0,0.0
1513265281957728412,,520452,,1513265280,176751426,'',-0.25,0.121215731506,-1.0908013833,0.371215731506,0.001,550.0,3100.0,0.0,3000.0,0.0
1513265281967618614,,520453,,1513265280,186751426,'',-0.25,0.109029906841,-1.22580733888,0.359029906841,0.001,550.0,3100.0,0.0,3000.0,0.0
1513265281977578048,,520454,,1513265280,196751426,'',-0.25,0.0982223475936,-0.965792414986,0.348222347594,0.001,550.0,3100.0,0.0,3000.0,0.0
1513265281987715997,,520455,,1513265280,206751426,'',-0.25,0.0895504254359,-0.784650533751,0.339550425436,0.001,550.0,3100.0,0.0,3000.0,0.0
1513265281997993500,,520456,,1513265280,216751426,'',-0.25,0.0825047365803,-0.642318699693,0.33250473658,0.001,550.0,3100.0,0.0,3000.0,0.0
1513265282007938166,,520457,,1513265280,226751426,'',-0.25,0.0767737870718,-0.514634947997,0.326773787072,0.001,540.458367173,3100.0,0.0,3000.0,0.0
1513265282017979107,,520458,,1513265280,236751426,'',-0.25,0.0721162411139,-0.426502868708,0.322116241114,0.001,288.861813304,3100.0,0.0,3000.0,0.0
1513265282027844506,,520459,,1513265280,246751426,'',-0.25,0.0683347828023,-0.344154953397,0.318334782802,0.001,28.8966198911,3100.0,0.0,3000.0,0.0
1513265282037665850,,520460,,1513265280,256751426,'',-0.25,0.0652664405703,-0.282172860716,0.31526644057,0.001,-126.595298113,3100.0,0.0,3000.0,0.0
1513265282048125190,,520461,,1513265280,266751426,'',-0.25,0.06276617997,-0.219753350294,0.31276617997,0.001,-301.639464664,3100.0,0.0,3000.0,0.0
1513265282058078520,,520462,,1513265280,276751426,'',-0.25,0.0607947259314,-0.185882156997,0.310794725931,0.001,-404.118210812,3100.0,0.0,3000.0,0.0
1513265282067959514,,520463,,1513265280,286751426,'',-0.25,0.059233191391,-0.142425239784,0.309233191391,0.001,-532.206508706,3100.0,0.0,3000.0,0.0
1513265282078007917,,520464,,1513265280,296751426,'',-0.25,0.0579868258395,-0.123202902826,0.30798682584,0.001,-550.0,3100.0,0.0,3000.0,0.0
1513265282087916496,,520465,,1513265280,306751426,'',-0.25,0.056954711586,-0.0904405198662,0.306954711586,0.001,-550.0,3100.0,0.0,3000.0,0.0
1513265282097940540,,520466,,1513265280,316751426,'',-0.25,0.0561989070643,-0.0692169940436,0.306198907064,0.001,-550.0,3100.0,0.0,3000.0,0.0
1513265282107824912,,520467,,1513265280,326751426,'',-0.25,0.0555550043063,-0.0621658499692,0.305555004306,0.001,-550.0,3100.0,0.0,3000.0,0.0
1513265282117833161,,520468,,1513265280,336751426,'',-0.25,0.0550353181556,-0.0457120636174,0.305035318156,0.001,-550.0,3100.0,0.0,3000.0,0.0
1513265282127669344,,520469,,1513265280,346751426,'',-0.25,0.0545934383713,-0.0367862085326,0.304593438371,0.001,-550.0,3100.0,0.0,3000.0,0.0
1513265282138111571,,520470,,1513265280,356751426,'',-0.25,0.0540058793932,-0.0904326545534,0.304005879393,0.001,-550.0,3100.0,0.0,3000.0,0.0
1513265282148028158,,520471,,1513265280,366751426,'',-0.25,0.0520926777115,-0.313825175748,0.302092677712,0.001,-34.9524603122,3100.0,0.0,3000.0,0.0
1513265282157983859,,520472,,1513265280,376751426,'',-0.25,0.0471669384832,-0.607403697825,0.297166938483,0.001,550.0,3100.0,0.0,3000.0,0.0
1513265282167926440,,520473,,1513265280,386751426,'',-0.25,0.0401803838608,-0.734273873409,0.290180383861,0.001,550.0,3100.0,0.0,3000.0,0.0
1513265282177961041,,520474,,1513265280,396751426,'',-0.25,0.0333371523381,-0.619855238446,0.283337152338,0.001,550.0,3100.0,0.0,3000.0,0.0
1513265282188010814,,520475,,1513265280,406751426,'',-0.25,0.0277450466604,-0.506888740853,0.27774504666,0.001,550.0,3100.0,0.0,3000.0,0.0
1513265282197878622,,520476,,1513265280,416751426,'',-0.25,0.0232094818929,-0.409308584757,0.273209481893,0.001,387.381985149,3100.0,0.0,3000.0,0.0
1513265282207741734,,520477,,1513265280,426751426,'',-0.25,0.0195765314189,-0.324008098515,0.269576531419,0.001,119.635230515,3100.0,0.0,3000.0,0.0
1513265282217806594,,520478,,1513265280,436751426,'',-0.25,0.0166418549776,-0.264726102375,0.266641854978,0.001,-30.0050685952,3100.0,0.0,3000.0,0.0
1513265282227724296,,520479,,1513265280,446751426,'',-0.25,0.0142585173907,-0.216576492718,0.264258517391,0.001,-160.92584912,3100.0,0.0,3000.0,0.0
1513265282237700134,,520480,,1513265280,456751426,'',-0.25,0.0123139686497,-0.177294715635,0.26231396865,0.001,-274.297633745,3100.0,0.0,3000.0,0.0
1513265282247993398,,520481,,1513265280,466751426,'',-0.25,0.0107177859292,-0.145048897393,0.260717785929,0.001,-369.559804897,3100.0,0.0,3000.0,0.0
1513265282258073389,,520482,,1513265280,476751426,'',-0.25,0.00942763246803,-0.118983635479,0.259427632468,0.001,-446.53244065,3100.0,0.0,3000.0,0.0
1513265282267990152,,520483,,1513265280,486751426,'',-0.25,0.00840246159654,-0.0923183886656,0.258402461597,0.001,-522.918365678,3100.0,0.0,3000.0,0.0
1513265282277893310,,520484,,1513265280,496751426,'',-0.25,0.00756999773344,-0.075500550527,0.257569997733,0.001,-550.0,3100.0,0.0,3000.0,0.0
1513265282287897578,,520485,,1513265280,506751426,'',-0.25,0.00689235679764,-0.0618110976047,0.256892356798,0.001,-550.0,3100.0,0.0,3000.0,0.0
1513265282297841204,,520486,,1513265280,516751426,'',-0.25,0.00634319289138,-0.0507188184743,0.256343192891,0.001,-550.0,3100.0,0.0,3000.0,0.0
1513265282307756343,,520487,,1513265280,526751426,'',-0.25,0.00582657928734,-0.0581530664628,0.255826579287,0.001,-550.0,3100.0,0.0,3000.0,0.0
1513265282317788998,,520488,,1513265280,536751426,'',-0.25,0.00476221324837,-0.179711526493,0.254762213248,0.001,-248.468621389,3100.0,0.0,3000.0,0.0
1513265282327860827,,520489,,1513265280,546751426,'',-0.25,0.00107241000826,-0.550536613559,0.251072410008,0.001,550.0,3100.0,0.0,3000.0,0.0
1513265282337780916,,520490,,1513265280,556751426,'',-0.25,-0.00650873192211,-0.889139739186,0.243491268078,0.001,550.0,3100.0,0.0,3000.0,0.0
1513265282347598172,,520491,,1513265280,566751426,'',-0.25,-0.015345077329,-0.821975315762,0.234654922671,0.001,550.0,3100.0,0.0,3000.0,0.0
1513265282358133243,,520492,,1513265280,576751426,'',-0.25,-0.0226681809976,-0.674038276427,0.227331819002,0.001,550.0,3100.0,0.0,3000.0,0.0
1513265282368119887,,520493,,1513265280,586751426,'',-0.25,-0.0286188069701,-0.544548075845,0.22138119303,0.001,550.0,3100.0,0.0,3000.0,0.0
1513265282377969666,,520494,,1513265280,596751426,'',-0.25,-0.0333152012677,-0.421839012743,0.216684798732,0.001,550.0,3100.0,0.0,3000.0,0.0
1513265282387903947,,520495,,1513265280,606751426,'',-0.25,-0.0370163845252,-0.328514998902,0.212983615475,0.001,330.210681186,3100.0,0.0,3000.0,0.0
1513265282397816000,,520496,,1513265280,616751426,'',-0.25,-0.0399715788415,-0.259539469846,0.210028421158,0.001,130.658450919,3100.0,0.0,3000.0,0.0
1513265282407851578,,520497,,1513265280,626751426,'',-0.25,-0.0422834076948,-0.203558421509,0.207716592305,0.001,-30.203221888,3100.0,0.0,3000.0,0.0
1513265282417987751,,520498,,1513265280,636751426,'',-0.25,-0.0441073240887,-0.166712825076,0.205892675911,0.001,-147.799233673,3100.0,0.0,3000.0,0.0
1513265282427736540,,520499,,1513265280,646751426,'',-0.25,-0.0455879683333,-0.136800883464,0.204412031667,0.001,-217.866076396,3100.0,0.0,3000.0,0.0
1513265282437798828,,520500,,1513265280,656751426,'',-0.25,-0.0467581341142,-0.11316192179,0.203241865886,0.001,-288.869586198,3100.0,0.0,3000.0,0.0
1513265282447691515,,520501,,1513265280,666751426,'',-0.25,-0.0476907222407,-0.0850435796136,0.202309277759,0.001,-370.199813136,3100.0,0.0,3000.0,0.0
1513265282457624225,,520502,,1513265280,676751426,'',-0.25,-0.0484287207016,-0.0701326740743,0.201571279298,0.001,-413.869677686,3100.0,0.0,3000.0,0.0
1513265282468147178,,520503,,1513265280,686751426,'',-0.25,-0.0490404503441,-0.057774731361,0.200959549656,0.001,-450.862321171,3100.0,0.0,3000.0,0.0
1513265282477906631,,520504,,1513265280,696751426,'',-0.25,-0.0495153003039,-0.0389041201901,0.200484699696,0.001,-504.198512204,3100.0,0.0,3000.0,0.0
1513265282487830453,,520505,,1513265280,706751426,'',-0.25,-0.0498649928158,-0.0318404648357,0.200135007184,0.001,-523.055270778,3100.0,0.0,3000.0,0.0
1513265282497621446,,520506,,1513265280,716751426,'',-0.25,-0.0501504424312,-0.0260744914876,0.199849557569,0.001,-540.894744141,3100.0,0.0,3000.0,0.0
1513265282508144712,,520507,,1513265280,726751426,'',-0.25,-0.0503687237703,-0.0216665326292,0.19963127623,0.001,-550.0,3100.0,0.0,3000.0,0.0
1513265282518055609,,520508,,1513265280,736751426,'',-0.25,-0.0505734089727,-0.0268088472817,0.199426591027,0.001,-537.389632395,3100.0,0.0,3000.0,0.0
1513265282528017446,,520509,,1513265280,746751426,'',-0.25,-0.051307723349,-0.141871109136,0.198692276651,0.001,-193.326265845,3100.0,0.0,3000.0,0.0
1513265282537900684,,520510,,1513265280,756751426,'',-0.25,-0.0541751902047,-0.445800181331,0.195824809795,0.001,550.0,3100.0,0.0,3000.0,0.0
1513265282547774630,,520511,,1513265280,766751426,'',-0.25,-0.0604397039677,-0.755340690664,0.189560296032,0.001,550.0,3100.0,0.0,3000.0,0.0
1513265282557663289,,520512,,1513265280,776751426,'',-0.25,-0.0680777533518,-0.721661371066,0.181922246648,0.001,550.0,3100.0,0.0,3000.0,0.0
1513265282567664055,,520513,,1513265280,786751426,'',-0.25,-0.0745459852981,-0.581715515111,0.175454014702,0.001,550.0,3100.0,0.0,3000.0,0.0
1513265282577780858,,520514,,1513265280,796751426,'',-0.25,-0.0797998483862,-0.475586896578,0.170200151614,0.001,550.0,3100.0,0.0,3000.0,0.0
1513265282588069965,,520515,,1513265280,806751426,'',-0.25,-0.0840575662201,-0.380296077111,0.16594243378,0.001,550.0,3100.0,0.0,3000.0,0.0
1513265282598039732,,520516,,1513265280,816751426,'',-0.25,-0.0874321265044,-0.312125701851,0.162567873496,0.001,438.192772947,3100.0,0.0,3000.0,0.0
1513265282608054345,,520517,,1513265280,826751426,'',-0.25,-0.0901420718685,-0.248101179859,0.159857928132,0.001,254.053224637,3100.0,0.0,3000.0,0.0
1513265282617934187,,520518,,1513265280,836751426,'',-0.25,-0.0923061824325,-0.204378143029,0.157693817568,0.001,113.16866913,3100.0,0.0,3000.0,0.0
1513265282627757280,,520519,,1513265280,846751426,'',-0.25,-0.0940413665836,-0.150769865785,0.155958633416,0.001,-24.7712046855,3100.0,0.0,3000.0,0.0
1513265282637692420,,520520,,1513265280,856751426,'',-0.25,-0.0954101941831,-0.123117107956,0.154589805817,0.001,-107.236919218,3100.0,0.0,3000.0,0.0
1513265282648034463,,520521,,1513265280,866751426,'',-0.25,-0.0965153396133,-0.100791611308,0.153484660387,0.001,-171.557509867,3100.0,0.0,3000.0,0.0
1513265282658053599,,520522,,1513265280,876751426,'',-0.25,-0.0973614747136,-0.0744213430319,0.152638525286,0.001,-249.022431576,3100.0,0.0,3000.0,0.0
1513265282667990219,,520523,,1513265280,886751426,'',-0.25,-0.0980299012938,-0.0609185271914,0.151970098706,0.001,-287.270423806,3100.0,0.0,3000.0,0.0
1513265282677896205,,520524,,1513265280,896751426,'',-0.25,-0.0985755719849,-0.0498949110735,0.151424428015,0.001,-318.98955556,3100.0,0.0,3000.0,0.0
1513265282687928722,,520525,,1513265280,906751426,'',-0.25,-0.0990242450469,-0.0408308369388,0.150975754953,0.001,-342.683213919,3100.0,0.0,3000.0,0.0
1513265282697936482,,520526,,1513265280,916751426,'',-0.25,-0.0993726375141,-0.0245132911152,0.150627362486,0.001,-392.808523184,3100.0,0.0,3000.0,0.0
1513265282707725729,,520527,,1513265280,926751426,'',-0.25,-0.0996836112556,-0.027507967154,0.150316388744,0.001,-382.782562799,3100.0,0.0,3000.0,0.0
1513265282717705632,,520528,,1513265280,936751426,'',-0.25,-0.0999211498802,-0.022708100602,0.15007885012,0.001,-398.347005932,3100.0,0.0,3000.0,0.0
1513265282728133329,,520529,,1513265280,946751426,'',-0.25,-0.100099738004,-0.0191005980872,0.149900261996,0.001,-406.626298349,3100.0,0.0,3000.0,0.0
1513265282737926091,,520530,,1513265280,956751426,'',-0.25,-0.100221294603,-0.0166480765564,0.149778705397,0.001,-412.955338491,3100.0,0.0,3000.0,0.0
1513265282747932871,,520531,,1513265280,966751426,'',-0.25,-0.100311599786,-0.00554811866059,0.149688400214,0.001,-447.296462305,3100.0,0.0,3000.0,0.0
1513265282757752517,,520532,,1513265280,976751426,'',-0.25,-0.100379037153,-0.0134627246321,0.149620962847,0.001,-424.086747252,3100.0,0.0,3000.0,0.0
1513265282767646269,,520533,,1513265280,986751426,'',-0.25,-0.100521271344,-0.029142858649,0.149478728656,0.001,-374.88306619,3100.0,0.0,3000.0,0.0
1513265282778075114,,520534,,1513265280,996751426,'',-0.25,-0.101551517368,-0.18461985342,0.148448482632,0.001,95.9029047703,3100.0,0.0,3000.0,0.0
1513265282788139725,,520535,,1513265281,6751426,'',-0.25,-0.10501302101,-0.47655552971,0.14498697899,0.001,550.0,3100.0,0.0,3000.0,0.0
1513265282798060145,,520536,,1513265281,16751426,'',-0.25,-0.110925941881,-0.626177925677,0.139074058119,0.001,550.0,3100.0,0.0,3000.0,0.0
1513265282808014187,,520537,,1513265281,26751426,'',-0.25,-0.11664109211,-0.529280923612,0.13335890789,0.001,550.0,3100.0,0.0,3000.0,0.0
1513265282817952983,,520538,,1513265281,36751426,'',-0.25,-0.121329779395,-0.425284875188,0.128670220605,0.001,550.0,3100.0,0.0,3000.0,0.0
1513265282827923179,,520539,,1513265281,46751426,'',-0.25,-0.12509904877,-0.339863930746,0.12490095123,0.001,550.0,3100.0,0.0,3000.0,0.0
1513265282837771138,,520540,,1513265281,56751426,'',-0.25,-0.128052648994,-0.261644409064,0.121947351006,0.001,410.793258599,3100.0,0.0,3000.0,0.0
1513265282847871178,,520541,,1513265281,66751426,'',-0.25,-0.130350225431,-0.205950842262,0.119649774569,0.001,250.600593587,3100.0,0.0,3000.0,0.0
1513265282857878121,,520542,,1513265281,76751426,'',-0.25,-0.13217883809,-0.159734777643,0.11782116191,0.001,106.173073724,3100.0,0.0,3000.0,0.0
1513265282867708609,,520543,,1513265281,86751426,'',-0.25,-0.133638038232,-0.130256330492,0.116361961768,0.001,34.7992503332,3100.0,0.0,3000.0,0.0
1513265282877634925,,520544,,1513265281,96751426,'',-0.25,-0.134789630724,-0.106987758669,0.115210369276,0.001,-34.5931770373,3100.0,0.0,3000.0,0.0
1513265282888088863,,520545,,1513265281,106751426,'',-0.25,-0.135717119309,-0.0789761176173,0.114282880691,0.001,-116.181637699,3100.0,0.0,3000.0,0.0
1513265282898092110,,520546,,1513265281,116751426,'',-0.25,-0.13647492591,-0.0636654325205,0.11352507409,0.001,-159.987461777,3100.0,0.0,3000.0,0.0
1513265282908005248,,520547,,1513265281,126751426,'',-0.25,-0.137045256996,-0.0521435022451,0.112954743004,0.001,-196.421153528,3100.0,0.0,3000.0,0.0
1513265282917988866,,520548,,1513265281,136751426,'',-0.25,-0.137522280782,-0.051783456744,0.112477719218,0.001,-195.998240389,3100.0,0.0,3000.0,0.0
1513265282927895954,,520549,,1513265281,146751426,'',-0.25,-0.137912606105,-0.0346184426163,0.112087393895,0.001,-242.243602285,3100.0,0.0,3000.0,0.0
1513265282937908790,,520550,,1513265281,156751426,'',-0.25,-0.138240508347,-0.0279929211381,0.111759491653,0.001,-260.005434915,3100.0,0.0,3000.0,0.0
1513265282947766430,,520551,,1513265281,166751426,'',-0.25,-0.138482481328,-0.0231053113495,0.111517518672,0.001,-276.036357825,3100.0,0.0,3000.0,0.0
1513265282957640279,,520552,,1513265281,176751426,'',-0.25,-0.138681358696,-0.0190878092691,0.111318641304,0.001,-288.746164026,3100.0,0.0,3000.0,0.0
1513265282968033969,,520553,,1513265281,186751426,'',-0.25,-0.138836903719,-0.0159494143839,0.111163096281,0.001,-296.189956281,3100.0,0.0,3000.0,0.0
1513265282977964987,,520554,,1513265281,196751426,'',-0.25,-0.138971559576,-0.01322863433,0.111028440424,0.001,-304.183807773,3100.0,0.0,3000.0,0.0
1513265282987829347,,520555,,1513265281,206751426,'',-0.25,-0.139058120579,-0.0114838638173,0.110941879421,0.001,-309.029801796,3100.0,0.0,3000.0,0.0
1513265282997785304,,520556,,1513265281,216751426,'',-0.25,-0.139102926965,-0.00129549607482,0.110897073035,0.001,-339.871192079,3100.0,0.0,3000.0,0.0
1513265283007711131,,520557,,1513265281,226751426,'',-0.25,-0.139156270349,-0.000222583022268,0.110843729651,0.001,-342.975319442,3100.0,0.0,3000.0,0.0
1513265283017631814,,520558,,1513265281,236751426,'',-0.25,-0.139192628987,-0.00876700078003,0.110807371013,0.001,-316.928939976,3100.0,0.0,3000.0,0.0
1513265283028038226,,520559,,1513265281,246751426,'',-0.25,-0.139220422507,0.00107345751419,0.110779577493,0.001,-346.704449069,3100.0,0.0,3000.0,0.0
1513265283038014875,,520560,,1513265281,256751426,'',-0.25,-0.139372542565,-0.0236858221572,0.110627457435,0.001,-271.607774649,3100.0,0.0,3000.0,0.0
1513265283048119223,,520561,,1513265281,266751426,'',-0.25,-0.140146795953,-0.137946012547,0.109853204047,0.001,79.1274707799,3100.0,0.0,3000.0,0.0
1513265283057928491,,520562,,1513265281,276751426,'',-0.25,-0.142493844989,-0.322492787987,0.107506155011,0.001,550.0,3100.0,0.0,3000.0,0.0
1513265283067782776,,520563,,1513265281,286751426,'',-0.25,-0.146371468958,-0.401890407852,0.103628531042,0.001,550.0,3100.0,0.0,3000.0,0.0
1513265283077668086,,520564,,1513265281,296751426,'',-0.25,-0.150071822961,-0.34569733486,0.0999281770386,0.001,550.0,3100.0,0.0,3000.0,0.0
1513265283088060933,,520565,,1513265281,306751426,'',-0.25,-0.153112470693,-0.274993189738,0.0968875293067,0.001,543.829093268,3100.0,0.0,3000.0,0.0
1513265283098038666,,520566,,1513265281,316751426,'',-0.25,-0.155516826434,-0.217143017876,0.0944831735656,0.001,359.726873938,3100.0,0.0,3000.0,0.0
1513265283107962409,,520567,,1513265281,326751426,'',-0.25,-0.157296016541,-0.153363442992,0.0927039834586,0.001,174.553130175,3100.0,0.0,3000.0,0.0
1513265283118028736,,520568,,1513265281,336751426,'',-0.25,-0.158629731566,-0.117139092003,0.0913702684339,0.001,69.9255278019,3100.0,0.0,3000.0,0.0
1513265283127972448,,520569,,1513265281,346751426,'',-0.25,-0.159688726676,-0.0957466406247,0.0903112733237,0.001,8.70917862588,3100.0,0.0,3000.0,0.0
1513265283137988082,,520570,,1513265281,356751426,'',-0.25,-0.160554604428,-0.078255221689,0.0894453955717,0.001,-41.0611112632,3100.0,0.0,3000.0,0.0
1513265283147875700,,520571,,1513265281,366751426,'',-0.25,-0.161257225186,-0.0640614077632,0.0887427748136,0.001,-80.2005791488,3100.0,0.0,3000.0,0.0
1513265283157718841,,520572,,1513265281,376751426,'',-0.25,-0.161814935034,-0.0527943279226,0.0881850649658,0.001,-114.503730111,3100.0,0.0,3000.0,0.0
1513265283167672893,,520573,,1513265281,386751426,'',-0.25,-0.162230735163,-0.0351160981089,0.0877692648374,0.001,-166.106848201,3100.0,0.0,3000.0,0.0
1513265283177674609,,520574,,1513265281,396751426,'',-0.25,-0.162578727629,-0.0280872318084,0.0874212723712,0.001,-186.324416153,3100.0,0.0,3000.0,0.0
1513265283187632621,,520575,,1513265281,406751426,'',-0.25,-0.162855143028,-0.0225002703484,0.0871448569724,0.001,-203.668358832,3100.0,0.0,3000.0,0.0
1513265283198000064,,520576,,1513265281,416751426,'',-0.25,-0.16306506321,-0.0182619064244,0.0869349367902,0.001,-214.4375665,3100.0,0.0,3000.0,0.0
1513265283207881213,,520577,,1513265281,426751426,'',-0.25,-0.163245270929,-0.0146217128378,0.0867547290709,0.001,-224.400345717,3100.0,0.0,3000.0,0.0
1513265283217834501,,520578,,1513265281,436751426,'',-0.25,-0.163385271408,-0.0117949965393,0.0866147285916,0.001,-232.94754516,3100.0,0.0,3000.0,0.0
1513265283227585682,,520579,,1513265281,446751426,'',-0.25,-0.163491138464,-0.00965614548866,0.0865088615364,0.001,-239.032423703,3100.0,0.0,3000.0,0.0
1513265283238059856,,520580,,1513265281,456751426,'',-0.25,-0.163577641979,-0.00790849950098,0.0864223580213,0.001,-244.570406031,3100.0,0.0,3000.0,0.0
1513265283247840547,,520581,,1513265281,466751426,'',-0.25,-0.163656615104,-0.00631295450074,0.0863433848958,0.001,-248.44128841,3100.0,0.0,3000.0,0.0
1513265283257723476,,520582,,1513265281,476751426,'',-0.25,-0.16371333891,-0.00516695998507,0.0862866610897,0.001,-251.568343751,3100.0,0.0,3000.0,0.0
1513265283267659782,,520583,,1513265281,486751426,'',-0.25,-0.163759648794,-0.00423135857342,0.0862403512057,0.001,-254.536862261,3100.0,0.0,3000.0,0.0
1513265283278037178,,520584,,1513265281,496751426,'',-0.25,-0.163789421334,-0.0036283158655,0.0862105786661,0.001,-256.320354822,3100.0,0.0,3000.0,0.0
1513265283287936739,,520585,,1513265281,506751426,'',-0.25,-0.163831143604,-0.0120645628661,0.0861688563958,0.001,-230.747678795,3100.0,0.0,3000.0,0.0
1513265283297906771,,520586,,1513265281,516751426,'',-0.25,-0.163907918125,-0.0105131481697,0.0860920818754,0.001,-235.884439765,3100.0,0.0,3000.0,0.0
1513265283307915015,,520587,,1513265281,526751426,'',-0.25,-0.164370494705,-0.0753970073982,0.0856295052955,0.001,-36.9895282915,3100.0,0.0,3000.0,0.0
1513265283317926759,,520588,,1513265281,536751426,'',-0.25,-0.165698163708,-0.178472752287,0.0843018362924,0.001,275.723375254,3100.0,0.0,3000.0,0.0
1513265283328096848,,520589,,1513265281,546751426,'',-0.25,-0.168052631416,-0.260807874257,0.0819473685838,0.001,532.288228973,3100.0,0.0,3000.0,0.0
1513265283337934195,,520590,,1513265281,556751426,'',-0.25,-0.170523211386,-0.220177207504,0.0794767886137,0.001,402.815606453,3100.0,0.0,3000.0,0.0
1513265283347886198,,520591,,1513265281,566751426,'',-0.25,-0.172575596703,-0.187998180002,0.0774244032974,0.001,330.856449779,3100.0,0.0,3000.0,0.0
1513265283357808041,,520592,,1513265281,576751426,'',-0.25,-0.174247904462,-0.154217897172,0.0757520955384,0.001,240.921942671,3100.0,0.0,3000.0,0.0
1513265283367773212,,520593,,1513265281,586751426,'',-0.25,-0.175527979921,-0.119077843854,0.0744720200787,0.001,129.604273994,3100.0,0.0,3000.0,0.0
1513265283377809780,,520594,,1513265281,596751426,'',-0.25,-0.176469722171,-0.0814911906313,0.0735302778291,0.001,17.519759611,3100.0,0.0,3000.0,0.0
1513265283387751601,,520595,,1513265281,606751426,'',-0.25,-0.177191143901,-0.0669180447053,0.0728088560992,0.001,-28.201174922,3100.0,0.0,3000.0,0.0
1513265283397698030,,520596,,1513265281,616751426,'',-0.25,-0.177717265089,-0.0470091787331,0.0722827349114,0.001,-82.4701372373,3100.0,0.0,3000.0,0.0
1513265283407634044,,520597,,1513265281,626751426,'',-0.25,-0.178147284656,-0.0383211131314,0.0718527153439,0.001,-107.053557395,3100.0,0.0,3000.0,0.0
1513265283418052832,,520598,,1513265281,636751426,'',-0.25,-0.178465788838,-0.0226066341893,0.0715342111625,0.001,-153.708180287,3100.0,0.0,3000.0,0.0
1513265283427916338,,520599,,1513265281,646751426,'',-0.25,-0.178735296772,-0.0264427359141,0.0712647032283,0.001,-141.163575929,3100.0,0.0,3000.0,0.0
1513265283437846240,,520600,,1513265281,656751426,'',-0.25,-0.17892206919,-0.0133973983321,0.0710779308097,0.001,-179.953251822,3100.0,0.0,3000.0,0.0
1513265283447890745,,520601,,1513265281,666751426,'',-0.25,-0.179074708583,-0.0103103339723,0.070925291417,0.001,-188.493579334,3100.0,0.0,3000.0,0.0
1513265283457767181,,520602,,1513265281,676751426,'',-0.25,-0.179192901326,-0.00792320648356,0.0708070986744,0.001,-195.608994141,3100.0,0.0,3000.0,0.0
1513265283467691350,,520603,,1513265281,686751426,'',-0.25,-0.17929616311,-0.00584091129993,0.0707038368901,0.001,-201.523309423,3100.0,0.0,3000.0,0.0
1513265283478005300,,520604,,1513265281,696751426,'',-0.25,-0.179348442627,-0.00478441547684,0.0706515573734,0.001,-204.918063657,3100.0,0.0,3000.0,0.0
1513265283487946173,,520605,,1513265281,706751426,'',-0.25,-0.17941568181,-0.00342863787286,0.0705843181897,0.001,-208.568698843,3100.0,0.0,3000.0,0.0
1513265283497865045,,520606,,1513265281,716751426,'',-0.25,-0.179445872036,-0.00281763963594,0.0705541279635,0.001,-210.293237692,3100.0,0.0,3000.0,0.0
1513265283507840794,,520607,,1513265281,726751426,'',-0.25,-0.17948056836,-0.0113973939765,0.07051943164,0.001,-183.366522807,3100.0,0.0,3000.0,0.0
1513265283517785883,,520608,,1513265281,736751426,'',-0.25,-0.179499532136,-0.00173619966951,0.0705004678637,0.001,-213.250335032,3100.0,0.0,3000.0,0.0
1513265283527733503,,520609,,1513265281,746751426,'',-0.25,-0.179557376292,-0.0098419552068,0.0704426237077,0.001,-188.462124014,3100.0,0.0,3000.0,0.0
1513265283537773594,,520610,,1513265281,756751426,'',-0.25,-0.179663377437,-0.0169772869649,0.0703366225632,0.001,-166.955524354,3100.0,0.0,3000.0,0.0
1513265283548137465,,520611,,1513265281,766751426,'',-0.25,-0.18008155293,-0.0641985613149,0.0699184470697,0.001,-21.4237703355,3100.0,0.0,3000.0,0.0
1513265283558011638,,520612,,1513265281,776751426,'',-0.25,-0.181095383693,-0.136502462332,0.0689046163066,0.001,198.046366135,3100.0,0.0,3000.0,0.0
1513265283568055200,,520613,,1513265281,786751426,'',-0.25,-0.182702879611,-0.168980238528,0.067297120389,0.001,289.002834566,3100.0,0.0,3000.0,0.0
1513265283577976765,,520614,,1513265281,796751426,'',-0.25,-0.184320341088,-0.145584069897,0.0656796589117,0.001,234.896784059,3100.0,0.0,3000.0,0.0
1513265283588033492,,520615,,1513265281,806751426,'',-0.25,-0.185669926139,-0.118320473651,0.0643300738611,0.001,157.9872039,3100.0,0.0,3000.0,0.0
1513265283598172228,,520616,,1513265281,816751426,'',-0.25,-0.186764788105,-0.105477874848,0.0632352118949,0.001,121.987619007,3100.0,0.0,3000.0,0.0
1513265283608307313,,520617,,1513265281,826751426,'',-0.25,-0.187686455514,-0.0868654318761,0.0623135444857,0.001,65.0702225958,3100.0,0.0,3000.0,0.0
1513265283617928889,,520618,,1513265281,836751426,'',-0.25,-0.188398426112,-0.0632025791982,0.0616015738877,0.001,-0.374904842298,3100.0,0.0,3000.0,0.0
1513265283627835151,,520619,,1513265281,846751426,'',-0.25,-0.188982314631,-0.0514088963092,0.061017685369,0.001,-33.9871679698,3100.0,0.0,3000.0,0.0
1513265283637901702,,520620,,1513265281,856751426,'',-0.25,-0.18944286758,-0.0421043047276,0.0605571324202,0.001,-63.5934578185,3100.0,0.0,3000.0,0.0
1513265283648127119,,520621,,1513265281,866751426,'',-0.25,-0.189812351497,-0.0346422619665,0.0601876485033,0.001,-81.3281498617,3100.0,0.0,3000.0,0.0
1513265283658096688,,520622,,1513265281,876751426,'',-0.25,-0.190064714488,-0.020270906238,0.0599352855123,0.001,-124.716142607,3100.0,0.0,3000.0,0.0
1513265283667799292,,520623,,1513265281,886751426,'',-0.25,-0.190280071306,-0.0159140135307,0.0597199286938,0.001,-137.2570309,3100.0,0.0,3000.0,0.0
1513265283678131398,,520624,,1513265281,896751426,'',-0.25,-0.190454899933,-0.0123813071876,0.059545100067,0.001,-148.058052495,3100.0,0.0,3000.0,0.0
1513265283688364901,,520625,,1513265281,906751426,'',-0.25,-0.1906075643,-0.0185797075328,0.0593924356998,0.001,-127.330368692,3100.0,0.0,3000.0,0.0
1513265283698280842,,520626,,1513265281,916751426,'',-0.25,-0.190733159275,-0.00676292541301,0.0592668407252,0.001,-163.37583765,3100.0,0.0,3000.0,0.0
1513265283708841761,,520627,,1513265281,926751426,'',-0.25,-0.190837376906,-0.0139333940428,0.0591626230935,0.001,-142.583925893,3100.0,0.0,3000.0,0.0
1513265283718003588,,520628,,1513265281,936751426,'',-0.25,-0.190911183397,-0.0031619479434,0.0590888166034,0.001,-173.656319786,3100.0,0.0,3000.0,0.0
1513265283727912910,,520629,,1513265281,946751426,'',-0.25,-0.190980707957,-0.00175525934714,0.0590192920433,0.001,-177.782811918,3100.0,0.0,3000.0,0.0
1513265283737840351,,520630,,1513265281,956751426,'',-0.25,-0.191028768802,-0.000783167070941,0.0589712311977,0.001,-180.453977542,3100.0,0.0,3000.0,0.0
1513265283748115090,,520631,,1513265281,966751426,'',-0.25,-0.191110664265,-0.00840791033721,0.0588893357351,0.001,-157.180102849,3100.0,0.0,3000.0,0.0
1513265283758126736,,520632,,1513265281,976751426,'',-0.25,-0.191212293256,-0.0156342237564,0.0587877067437,0.001,-135.150373615,3100.0,0.0,3000.0,0.0
1513265283768217910,,520633,,1513265281,986751426,'',-0.25,-0.191422967324,-0.0299332486574,0.0585770326759,0.001,-91.2273138424,3100.0,0.0,3000.0,0.0
1513265283778162618,,520634,,1513265281,996751426,'',-0.25,-0.191964863425,-0.0746578377713,0.0580351365754,0.001,40.7073483255,3100.0,0.0,3000.0,0.0
1513265283788091226,,520635,,1513265282,6751426,'',-0.25,-0.192913365777,-0.111166839942,0.0570866342233,0.001,166.633959184,3100.0,0.0,3000.0,0.0
1513265283798079529,,520636,,1513265282,16751426,'',-0.25,-0.194002007723,-0.0984541078776,0.0559979922773,0.001,122.957646738,3100.0,0.0,3000.0,0.0
1513265283808114856,,520637,,1513265282,26751426,'',-0.25,-0.194935756555,-0.0795864971361,0.0550642434446,0.001,69.2658255579,3100.0,0.0,3000.0,0.0
