rosbagTimestamp,header,seq,stamp,secs,nsecs,frame_id,set_point,process_value,process_value_dot,error,time_step,command,p,i,d,i_clamp
1513265279937529411,,520268,,1513265278,156751426,'',0.383972435439,0.361721910359,-0.00201538125002,-0.0222505250799,0.001,-145.233963804,-6500.0,0.0,-300.0,0.0
1513265279947895915,,520269,,1513265278,166751426,'',0.383972435439,0.36173697154,-0.00231780225741,-0.0222354638991,0.001,-145.207245617,-6500.0,0.0,-300.0,0.0
1513265279957848338,,520270,,1513265278,176751426,'',0.383972435439,0.361716177887,-0.00189796403708,-0.0222562575517,0.001,-145.23765416,-6500.0,0.0,-300.0,0.0
1513265279967838861,,520271,,1513265278,186751426,'',0.383972435439,0.361698493152,-0.00153703786507,-0.0222739422866,0.001,-145.244997406,-6500.0,0.0,-300.0,0.0
1513265279977775969,,520272,,1513265278,196751426,'',0.383972435439,0.361718779952,0.0170787245714,-0.0222536554866,0.001,-139.608756165,-6500.0,0.0,-300.0,0.0
1513265279987652213,,520273,,1513265278,206751426,'',0.383972435439,0.361701246762,-0.0015938475807,-0.0222711886768,0.001,-145.248124418,-6500.0,0.0,-300.0,0.0
1513265279997820592,,520274,,1513265278,216751426,'',0.383972435439,0.361686916138,-0.00130498206299,-0.0222855193007,0.001,-145.250560474,-6500.0,0.0,-300.0,0.0
1513265280007741378,,520275,,1513265278,226751426,'',0.383972435439,0.361708758824,-0.00176372519258,-0.0222636766146,0.001,-145.242377643,-6500.0,0.0,-300.0,0.0
1513265280017563091,,520276,,1513265278,236751426,'',0.383972435439,0.361693095131,-0.00144464994963,-0.022279340308,0.001,-145.247652869,-6500.0,0.0,-300.0,0.0
1513265280027533512,,520277,,1513265278,246751426,'',0.383972435439,0.361680241891,-0.00118282469063,-0.0222921935477,0.001,-145.249779404,-6500.0,0.0,-300.0,0.0
1513265280037537775,,520278,,1513265278,256751426,'',0.383972435439,0.361669724946,-0.000968590628217,-0.0223027104924,0.001,-145.25722045,-6500.0,0.0,-300.0,0.0
1513265280047977440,,520279,,1513265278,266751426,'',0.383972435439,0.361661083143,-0.000792553892597,-0.0223113522956,0.001,-145.260815128,-6500.0,0.0,-300.0,0.0
1513265280057850225,,520280,,1513265278,276751426,'',0.383972435439,0.361670797269,-0.000984780630364,-0.0223016381702,0.001,-145.256142774,-6500.0,0.0,-300.0,0.0
1513265280067724306,,520281,,1513265278,286751426,'',0.383972435439,0.361698453241,0.0174793787558,-0.0222739821974,0.001,-139.481994522,-6500.0,0.0,-300.0,0.0
1513265280077667013,,520282,,1513265278,296751426,'',0.383972435439,0.361719500705,-0.00197105140578,-0.0222529347337,0.001,-145.237552883,-6500.0,0.0,-300.0,0.0
1513265280087975667,,520283,,1513265278,306751426,'',0.383972435439,0.361701873176,-0.00161405315131,-0.0222705622631,0.001,-145.248479852,-6500.0,0.0,-300.0,0.0
1513265280097548248,,520284,,1513265278,316751426,'',0.383972435439,0.361687434312,-0.00132163274958,-0.0222850011271,0.001,-145.250827617,-6500.0,0.0,-300.0,0.0
1513265280108033692,,520285,,1513265278,326751426,'',0.383972435439,0.361658534431,-0.000745945326258,-0.0223139010075,0.001,-145.265198581,-6500.0,0.0,-300.0,0.0
1513265280117865029,,520286,,1513265278,336751426,'',0.383972435439,0.361668869564,-0.000964446590278,-0.0223035658748,0.001,-145.251029559,-6500.0,0.0,-300.0,0.0
1513265280127820252,,520287,,1513265278,346751426,'',0.383972435439,0.361694630087,0.0175354785852,-0.0222778053521,0.001,-139.633122624,-6500.0,0.0,-300.0,0.0
1513265280137803627,,520288,,1513265278,356751426,'',0.383972435439,0.361697464631,-0.00154189067461,-0.022274970808,0.001,-145.236745139,-6500.0,0.0,-300.0,0.0
1513265280147900998,,520289,,1513265278,366751426,'',0.383972435439,0.361683807422,-0.00126219492783,-0.0222886280169,0.001,-145.253704183,-6500.0,0.0,-300.0,0.0
1513265280157675126,,520290,,1513265278,376751426,'',0.383972435439,0.36169043232,-0.00139289264606,-0.0222820031187,0.001,-145.248842628,-6500.0,0.0,-300.0,0.0
1513265280167615918,,520291,,1513265278,386751426,'',0.383972435439,0.361678043032,-0.00114006716779,-0.0222943924071,0.001,-145.256913926,-6500.0,0.0,-300.0,0.0
1513265280177537105,,520292,,1513265278,396751426,'',0.383972435439,0.36168471046,-0.00126901640812,-0.022287724979,0.001,-145.250811676,-6500.0,0.0,-300.0,0.0
1513265280188017424,,520293,,1513265278,406751426,'',0.383972435439,0.361705910745,-0.00170180211071,-0.0222665246941,0.001,-145.243506213,-6500.0,0.0,-300.0,0.0
1513265280197912746,,520294,,1513265278,416751426,'',0.383972435439,0.361690760989,-0.00139390277577,-0.0222816744501,0.001,-145.240301499,-6500.0,0.0,-300.0,0.0
1513265280207885029,,520295,,1513265278,426751426,'',0.383972435439,0.36172842052,-0.00215828642292,-0.022244014919,0.001,-145.239704492,-6500.0,0.0,-300.0,0.0
1513265280217875171,,520296,,1513265278,436751426,'',0.383972435439,0.361744776065,-0.0024906089332,-0.0222276593734,0.001,-145.225958253,-6500.0,0.0,-300.0,0.0
1513265280227939520,,520297,,1513265278,446751426,'',0.383972435439,0.361722681499,-0.00204612191899,-0.0222497539397,0.001,-145.241115275,-6500.0,0.0,-300.0,0.0
1513265280237758768,,520298,,1513265278,456751426,'',0.383972435439,0.361702716911,-0.00163559895851,-0.0222697185277,0.001,-145.244184002,-6500.0,0.0,-300.0,0.0
1513265280247731662,,520299,,1513265278,466751426,'',0.383972435439,0.361703982984,-0.00166370755389,-0.0222684524546,0.001,-145.2442701,-6500.0,0.0,-300.0,0.0
1513265280257624348,,520300,,1513265278,476751426,'',0.383972435439,0.36170652968,-0.00171784436351,-0.0222659057584,0.001,-145.243137832,-6500.0,0.0,-300.0,0.0
1513265280267882764,,520301,,1513265278,486751426,'',0.383972435439,0.361709292473,-0.00176229321456,-0.0222631429654,0.001,-145.23034323,-6500.0,0.0,-300.0,0.0
1513265280277791432,,520302,,1513265278,496751426,'',0.383972435439,0.361711080557,-0.00179870759967,-0.0222613548815,0.001,-145.228354369,-6500.0,0.0,-300.0,0.0
1513265280287726565,,520303,,1513265278,506751426,'',0.383972435439,0.361712472168,-0.00182739156872,-0.022259963271,0.001,-145.245783157,-6500.0,0.0,-300.0,0.0
1513265280297548859,,520304,,1513265278,516751426,'',0.383972435439,0.361727569585,-0.00213309033197,-0.0222448658533,0.001,-145.232923975,-6500.0,0.0,-300.0,0.0
1513265280308003508,,520305,,1513265278,526751426,'',0.383972435439,0.361740614403,-0.0024002536736,-0.0222318210361,0.001,-145.235459981,-6500.0,0.0,-300.0,0.0
1513265280318108350,,520306,,1513265278,536751426,'',0.383972435439,0.361737895216,0.0166810793708,-0.0222345402226,0.001,-139.49363839,-6500.0,0.0,-300.0,0.0
1513265280327900618,,520307,,1513265278,546751426,'',0.383972435439,0.361733479799,-0.002260007279,-0.0222389556394,0.001,-145.231119682,-6500.0,0.0,-300.0,0.0
1513265280337964500,,520308,,1513265278,556751426,'',0.383972435439,0.36174764352,-0.00254958983715,-0.022224791919,0.001,-145.209209394,-6500.0,0.0,-300.0,0.0
1513265280347722097,,520309,,1513265278,566751426,'',0.383972435439,0.361724927072,-0.00208797553334,-0.0222475083665,0.001,-145.206289397,-6500.0,0.0,-300.0,0.0
1513265280357858407,,520310,,1513265278,576751426,'',0.383972435439,0.361756382811,-0.00272228814029,-0.0222160526277,0.001,-145.22017633,-6500.0,0.0,-300.0,0.0
1513265280367876999,,520311,,1513265278,586751426,'',0.383972435439,0.361749578383,-0.00258366442477,-0.0222228570556,0.001,-145.211328776,-6500.0,0.0,-300.0,0.0
1513265280377668183,,520312,,1513265278,596751426,'',0.383972435439,0.361744554704,-0.00248313991405,-0.0222278807349,0.001,-145.225156778,-6500.0,0.0,-300.0,0.0
1513265280387981033,,520313,,1513265278,606751426,'',0.383972435439,0.361758318809,-0.00276377081208,-0.0222141166294,0.001,-145.223534056,-6500.0,0.0,-300.0,0.0
1513265280397867284,,520314,,1513265278,616751426,'',0.383972435439,0.361733638192,-0.00226274143787,-0.0222387972469,0.001,-145.231054837,-6500.0,0.0,-300.0,0.0
1513265280407888580,,520315,,1513265278,626751426,'',0.383972435439,0.361749037361,-0.00257219243967,-0.0222233980781,0.001,-145.224750531,-6500.0,0.0,-300.0,0.0
1513265280417787758,,520316,,1513265278,636751426,'',0.383972435439,0.361726038833,-0.00210588325238,-0.0222463966061,0.001,-145.230376349,-6500.0,0.0,-300.0,0.0
1513265280427773916,,520317,,1513265278,646751426,'',0.383972435439,0.361725252573,-0.00208844692861,-0.0222471828657,0.001,-145.220649864,-6500.0,0.0,-300.0,0.0
1513265280437618638,,520318,,1513265278,656751426,'',0.383972435439,0.361742285147,-0.00241882200975,-0.0222301502921,0.001,-145.229092624,-6500.0,0.0,-300.0,0.0
1513265280447715931,,520319,,1513265278,666751426,'',0.383972435439,0.361720485401,-0.00197980728393,-0.0222519500379,0.001,-145.243758267,-6500.0,0.0,-300.0,0.0
1513265280457674237,,520320,,1513265278,676751426,'',0.383972435439,0.361738571734,-0.00234486908135,-0.0222338637052,0.001,-145.229035082,-6500.0,0.0,-300.0,0.0
1513265280467520168,,520321,,1513265278,686751426,'',0.383972435439,0.361699186731,-0.00154930000037,-0.0222732487075,0.001,-145.245608622,-6500.0,0.0,-300.0,0.0
1513265280477698052,,520322,,1513265278,696751426,'',0.383972435439,0.361719069242,-0.00195320197961,-0.0222533661969,0.001,-145.224011383,-6500.0,0.0,-300.0,0.0
1513265280487918738,,520323,,1513265278,706751426,'',0.383972435439,0.3617382637,0.0166783459143,-0.0222341717386,0.001,-139.447691065,-6500.0,0.0,-300.0,0.0
1513265280497919835,,520324,,1513265278,716751426,'',0.383972435439,0.361751809586,-0.00261930716015,-0.0222206258529,0.001,-145.233266346,-6500.0,0.0,-300.0,0.0
1513265280507730990,,520325,,1513265278,726751426,'',0.383972435439,0.361728323668,-0.00214476339967,-0.0222441117704,0.001,-145.234624949,-6500.0,0.0,-300.0,0.0
1513265280517910823,,520326,,1513265278,736751426,'',0.383972435439,0.361725886697,-0.00209317636566,-0.0222465487421,0.001,-145.233622763,-6500.0,0.0,-300.0,0.0
1513265280527504874,,520327,,1513265278,746751426,'',0.383972435439,0.361707076618,-0.00171353574084,-0.0222653588205,0.001,-145.229540196,-6500.0,0.0,-300.0,0.0
1513265280538018927,,520328,,1513265278,756751426,'',0.383972435439,0.361691713273,-0.00140345995467,-0.0222807221654,0.001,-145.238477449,-6500.0,0.0,-300.0,0.0
1513265280547973458,,520329,,1513265278,766751426,'',0.383972435439,0.361728509287,-0.0021475562552,-0.0222439261516,0.001,-145.240449754,-6500.0,0.0,-300.0,0.0
1513265280557839625,,520330,,1513265278,776751426,'',0.383972435439,0.361727986939,0.0168879197559,-0.0222444484997,0.001,-139.497694765,-6500.0,0.0,-300.0,0.0
1513265280567837923,,520331,,1513265278,786751426,'',0.383972435439,0.361726804067,-0.002113903696,-0.0222456313717,0.001,-145.233852678,-6500.0,0.0,-300.0,0.0
1513265280577764354,,520332,,1513265278,796751426,'',0.383972435439,0.361726553793,0.0169160417425,-0.0222458816462,0.001,-139.503170048,-6500.0,0.0,-300.0,0.0
1513265280587713237,,520333,,1513265278,806751426,'',0.383972435439,0.361724524966,-0.00207203267016,-0.0222479104724,0.001,-145.236727776,-6500.0,0.0,-300.0,0.0
1513265280597689786,,520334,,1513265278,816751426,'',0.383972435439,0.361722618561,-0.00202901566769,-0.0222498168781,0.001,-145.222814518,-6500.0,0.0,-300.0,0.0
1513265280607626656,,520335,,1513265278,826751426,'',0.383972435439,0.361723328026,0.0169837107222,-0.0222491074132,0.001,-139.443160317,-6500.0,0.0,-300.0,0.0
1513265280617580331,,520336,,1513265278,836751426,'',0.383972435439,0.361721805094,-0.00201129990841,-0.0222506303452,0.001,-145.232845678,-6500.0,0.0,-300.0,0.0
1513265280627536238,,520337,,1513265278,846751426,'',0.383972435439,0.361703730631,-0.00164641505334,-0.0222687048076,0.001,-145.245322423,-6500.0,0.0,-300.0,0.0
1513265280638001254,,520338,,1513265278,856751426,'',0.383972435439,0.36168894315,-0.00134788734107,-0.0222834922888,0.001,-145.250229731,-6500.0,0.0,-300.0,0.0
1513265280647976040,,520339,,1513265278,866751426,'',0.383972435439,0.361695278262,0.0175458226149,-0.0222771571769,0.001,-139.601084067,-6500.0,0.0,-300.0,0.0
1513265280657936953,,520340,,1513265278,876751426,'',0.383972435439,0.361697954145,-0.00153251011436,-0.022274481294,0.001,-145.245221219,-6500.0,0.0,-300.0,0.0
1513265280667543209,,520341,,1513265278,886751426,'',0.383972435439,0.361701508211,-0.00160414474851,-0.0222709272281,0.001,-145.245250745,-6500.0,0.0,-300.0,0.0
1513265280677975700,,520342,,1513265278,896751426,'',0.383972435439,0.361704045554,-0.00165914055477,-0.0222683898851,0.001,-145.242691878,-6500.0,0.0,-300.0,0.0
1513265280687777293,,520343,,1513265278,906751426,'',0.383972435439,0.361722941654,-0.00203998049933,-0.0222494937852,0.001,-145.221318149,-6500.0,0.0,-300.0,0.0
1513265280697662078,,520344,,1513265278,916751426,'',0.383972435439,0.361704667686,-0.00167002785607,-0.0222677677527,0.001,-145.241951959,-6500.0,0.0,-300.0,0.0
1513265280707641605,,520345,,1513265278,926751426,'',0.383972435439,0.361724918802,-0.00207884832808,-0.0222475166366,0.001,-145.239723501,-6500.0,0.0,-300.0,0.0
1513265280718004090,,520346,,1513265278,936751426,'',0.383972435439,0.361724523179,-0.00207171833163,-0.0222479122598,0.001,-145.234786457,-6500.0,0.0,-300.0,0.0
1513265280727894842,,520347,,1513265278,946751426,'',0.383972435439,0.361705958804,-0.00169593721528,-0.0222664766343,0.001,-145.243487169,-6500.0,0.0,-300.0,0.0
1513265280737786281,,520348,,1513265278,956751426,'',0.383972435439,0.361709225847,-0.0017490062817,-0.0222632095922,0.001,-145.227838732,-6500.0,0.0,-300.0,0.0
1513265280747772443,,520349,,1513265278,966751426,'',0.383972435439,0.361727297604,-0.00211588429372,-0.0222451378343,0.001,-145.239481522,-6500.0,0.0,-300.0,0.0
1513265280758055904,,520350,,1513265278,976751426,'',0.383972435439,0.361726346856,-0.00210420662534,-0.0222460885832,0.001,-145.247422451,-6500.0,0.0,-300.0,0.0
1513265280768315580,,520351,,1513265278,986751426,'',0.383972435439,0.361707533869,-0.00172419254256,-0.0222649015693,0.001,-145.230780622,-6500.0,0.0,-300.0,0.0
1513265280777694625,,520352,,1513265278,996751426,'',0.383972435439,0.36169205412,-0.00141150838268,-0.0222803813187,0.001,-145.248487018,-6500.0,0.0,-300.0,0.0
1513265280787744604,,520353,,1513265279,6751426,'',0.383972435439,0.361679379185,-0.0011554802404,-0.022293056254,0.001,-145.254353495,-6500.0,0.0,-300.0,0.0
1513265280797573671,,520354,,1513265279,16751426,'',0.383972435439,0.361703999622,-0.0016509039298,-0.0222684358172,0.001,-145.242113839,-6500.0,0.0,-300.0,0.0
1513265280807549192,,520355,,1513265279,26751426,'',0.383972435439,0.361707562257,-0.00171933587955,-0.0222648731813,0.001,-145.230765355,-6500.0,0.0,-300.0,0.0
1513265280817951745,,520356,,1513265279,36751426,'',0.383972435439,0.36169207436,-0.00140747207725,-0.0222803610786,0.001,-145.247662687,-6500.0,0.0,-300.0,0.0
1513265280827850315,,520357,,1513265279,46751426,'',0.383972435439,0.361679400665,-0.00115227496138,-0.0222930347737,0.001,-145.253593376,-6500.0,0.0,-300.0,0.0
1513265280837767186,,520358,,1513265279,56751426,'',0.383972435439,0.361702814789,-0.00162285328329,-0.0222696206499,0.001,-145.244262203,-6500.0,0.0,-300.0,0.0
1513265280847960392,,520359,,1513265279,66751426,'',0.383972435439,0.361723772592,0.0169808893362,-0.0222486628467,0.001,-139.447914042,-6500.0,0.0,-300.0,0.0
1513265280857963252,,520360,,1513265279,76751426,'',0.383972435439,0.361722170512,-0.00200831001392,-0.0222502649267,0.001,-145.235165837,-6500.0,0.0,-300.0,0.0
1513265280867890733,,520361,,1513265279,86751426,'',0.383972435439,0.361704028195,-0.00164393622191,-0.0222684072436,0.001,-145.256321852,-6500.0,0.0,-300.0,0.0
1513265280877869742,,520362,,1513265279,96751426,'',0.383972435439,0.361689220639,-0.00134653840329,-0.0222832148,0.001,-145.24884764,-6500.0,0.0,-300.0,0.0
1513265280887839609,,520363,,1513265279,106751426,'',0.383972435439,0.361658319081,-0.019748728399,-0.0223141163575,0.001,-150.997563581,-6500.0,0.0,-300.0,0.0
1513265280897742584,,520364,,1513265279,116751426,'',0.383972435439,0.361652271736,-0.000598594211683,-0.0223201637025,0.001,-145.264189962,-6500.0,0.0,-300.0,0.0
1513265280907611023,,520365,,1513265279,126751426,'',0.383972435439,0.361662635684,-0.000805030649305,-0.0223097997547,0.001,-145.254927155,-6500.0,0.0,-300.0,0.0
1513265280917617511,,520366,,1513265279,136751426,'',0.383972435439,0.361655304113,-0.000659153764957,-0.0223171313259,0.001,-145.262737422,-6500.0,0.0,-300.0,0.0
1513265280928028437,,520367,,1513265279,146751426,'',0.383972435439,0.361649295251,-0.000539594941075,-0.0223231401876,0.001,-145.26578213,-6500.0,0.0,-300.0,0.0
1513265280937949761,,520368,,1513265279,156751426,'',0.383972435439,0.361644376714,-0.000441730396539,-0.0223280587248,0.001,-145.267889465,-6500.0,0.0,-300.0,0.0
1513265280947880039,,520369,,1513265279,166751426,'',0.383972435439,0.361658320696,-0.000730376338795,-0.0223141147432,0.001,-145.263894146,-6500.0,0.0,-300.0,0.0
1513265280957829728,,520370,,1513265279,176751426,'',0.383972435439,0.36185882965,0.0332704050969,-0.022113605789,0.001,-133.689226013,-6500.0,0.0,-300.0,0.0
1513265280967748480,,520371,,1513265279,186751426,'',0.383972435439,0.362336604552,0.061671883589,-0.0216358308866,0.001,-121.760787779,-6500.0,0.0,-300.0,0.0
1513265280977691372,,520372,,1513265279,196751426,'',0.383972435439,0.363066047868,0.0849848133851,-0.0209063875705,0.001,-110.811703509,-6500.0,0.0,-300.0,0.0
1513265280987638940,,520373,,1513265279,206751426,'',0.383972435439,0.363988323307,0.104393441196,-0.0199841121319,0.001,-98.0680787551,-6500.0,0.0,-300.0,0.0
1513265280997994418,,520374,,1513265279,216751426,'',0.383972435439,0.365047579223,0.102017468326,-0.0189248562155,0.001,-92.1869491863,-6500.0,0.0,-300.0,0.0
1513265281008064083,,520375,,1513265279,226751426,'',0.383972435439,0.366118426678,0.0994062569516,-0.0178540087613,0.001,-86.043305427,-6500.0,0.0,-300.0,0.0
1513265281018009602,,520376,,1513265279,236751426,'',0.383972435439,0.366993393568,0.0817277665852,-0.0169790418703,0.001,-87.0313167404,-6500.0,0.0,-300.0,0.0
1513265281028001055,,520377,,1513265279,246751426,'',0.383972435439,0.367760901289,0.0662223925851,-0.01621153415,0.001,-85.665167246,-6500.0,0.0,-300.0,0.0
1513265281037798598,,520378,,1513265279,256751426,'',0.383972435439,0.368477130927,0.0707780582899,-0.0154953045114,0.001,-79.2244684322,-6500.0,0.0,-300.0,0.0
1513265281047706489,,520379,,1513265279,266751426,'',0.383972435439,0.369130741838,0.0575756618873,-0.0148416936004,0.001,-79.093683366,-6500.0,0.0,-300.0,0.0
1513265281057639614,,520380,,1513265279,276751426,'',0.383972435439,0.36976923477,0.0637102718419,-0.0142032006687,0.001,-73.1500793077,-6500.0,0.0,-300.0,0.0
1513265281067750507,,520381,,1513265279,286751426,'',0.383972435439,0.370429756955,0.0693885289586,-0.0135426784833,0.001,-66.9367032603,-6500.0,0.0,-300.0,0.0
1513265281077798136,,520382,,1513265279,296751426,'',0.383972435439,0.37108818538,0.0560882132207,-0.0128842500583,0.001,-66.8335621569,-6500.0,0.0,-300.0,0.0
1513265281088115374,,520383,,1513265279,306751426,'',0.383972435439,0.371780936008,0.0611182577968,-0.0121914994309,0.001,-60.7609278412,-6500.0,0.0,-300.0,0.0
1513265281097991047,,520384,,1513265279,316751426,'',0.383972435439,0.372450205674,0.0666236963811,-0.0115222297652,0.001,-55.270643816,-6500.0,0.0,-300.0,0.0
1513265281107910239,,520385,,1513265279,326751426,'',0.383972435439,0.373101870142,0.072477633127,-0.0108705652968,0.001,-48.8062057829,-6500.0,0.0,-300.0,0.0
1513265281117784453,,520386,,1513265279,336751426,'',0.383972435439,0.373751250186,0.0593597717554,-0.0102211852529,0.001,-48.5189094973,-6500.0,0.0,-300.0,0.0
1513265281127581565,,520387,,1513265279,346751426,'',0.383972435439,0.374355328077,0.0661840320499,-0.0096171073621,0.001,-42.3995659648,-6500.0,0.0,-300.0,0.0
1513265281137553076,,520388,,1513265279,356751426,'',0.383972435439,0.374949092826,0.0541889800049,-0.00902334261304,0.001,-42.2790560456,-6500.0,0.0,-300.0,0.0
1513265281147997654,,520389,,1513265279,366751426,'',0.383972435439,0.375521119016,0.061652844596,-0.00845131642251,0.001,-36.7541781719,-6500.0,0.0,-300.0,0.0
1513265281157945407,,520390,,1513265279,376751426,'',0.383972435439,0.376111331453,0.0687513909317,-0.00786110398592,0.001,-30.3621657214,-6500.0,0.0,-300.0,0.0
1513265281167879577,,520391,,1513265279,386751426,'',0.383972435439,0.376731860163,0.0562171765209,-0.00724057527583,0.001,-29.9749725452,-6500.0,0.0,-300.0,0.0
1513265281177796713,,520392,,1513265279,396751426,'',0.383972435439,0.377358605839,0.0625833530285,-0.00661382959953,0.001,-24.0620498654,-6500.0,0.0,-300.0,0.0
1513265281187688031,,520393,,1513265279,406751426,'',0.383972435439,0.378008225427,0.0684858816585,-0.00596421001196,0.001,-18.5743394304,-6500.0,0.0,-300.0,0.0
1513265281197598837,,520394,,1513265279,416751426,'',0.383972435439,0.378589339881,0.0567390782062,-0.00538309555821,0.001,-17.9838005728,-6500.0,0.0,-300.0,0.0
1513265281207575806,,520395,,1513265279,426751426,'',0.383972435439,0.379135933421,0.0647237296329,-0.00483650201757,0.001,-11.9218627084,-6500.0,0.0,-300.0,0.0
1513265281218064270,,520396,,1513265279,436751426,'',0.383972435439,0.379716914767,0.0529880334016,-0.0042555206713,0.001,-11.6954992304,-6500.0,0.0,-300.0,0.0
1513265281228059189,,520397,,1513265279,446751426,'',0.383972435439,0.380210699353,0.0430134752858,-0.00376173608587,0.001,-11.4663212817,-6500.0,0.0,-300.0,0.0
1513265281238074438,,520398,,1513265279,456751426,'',0.383972435439,0.380732632548,0.0514877209867,-0.00323980289076,0.001,-5.88961778598,-6500.0,0.0,-300.0,0.0
1513265281247777347,,520399,,1513265279,466751426,'',0.383972435439,0.381213355703,0.0417719480944,-0.0027590797359,0.001,-5.18473662758,-6500.0,0.0,-300.0,0.0
1513265281257706056,,520400,,1513265279,476751426,'',0.383972435439,0.381708477313,0.0317687044223,-0.00226395812598,0.001,-5.13300849497,-6500.0,0.0,-300.0,0.0
1513265281267731003,,520401,,1513265279,486751426,'',0.383972435439,0.382181834654,0.0412301313585,-0.00179060078468,0.001,0.784534245526,-6500.0,0.0,-300.0,0.0
1513265281277727839,,520402,,1513265279,496751426,'',0.383972435439,0.382638923097,0.051018929124,-0.00133351234172,0.001,6.36535064359,-6500.0,0.0,-300.0,0.0
1513265281287574880,,520403,,1513265279,506751426,'',0.383972435439,0.383133306149,0.0410374092842,-0.000839129289437,0.001,7.13522639494,-6500.0,0.0,-300.0,0.0
1513265281298014376,,520404,,1513265279,516751426,'',0.383972435439,0.383621167188,0.0502097428831,0.0,0.001,0.0,-6500.0,0.0,-300.0,0.0
1513265281307989759,,520405,,1513265279,526751426,'',0.383972435439,0.384056354897,0.0414233714443,0.0,0.001,0.0,-6500.0,0.0,-300.0,0.0
1513265281317883694,,520406,,1513265279,536751426,'',0.383972435439,0.384445068715,0.0335696563643,0.0,0.001,0.0,-6500.0,0.0,-300.0,0.0
1513265281327797086,,520407,,1513265279,546751426,'',0.383972435439,0.384866806004,0.0250537762206,0.0,0.001,0.0,-6500.0,0.0,-300.0,0.0
1513265281337733508,,520408,,1513265279,556751426,'',0.383972435439,0.385262211579,0.0360901413674,0.0,0.001,0.0,-6500.0,0.0,-300.0,0.0
1513265281347664215,,520409,,1513265279,566751426,'',0.383972435439,0.385638961943,0.047504267946,0.0,0.001,0.0,-6500.0,0.0,-300.0,0.0
1513265281357833712,,520410,,1513265279,576751426,'',0.383972435439,0.385960872523,0.0219765844114,0.0,0.001,0.0,-6500.0,0.0,-300.0,0.0
1513265281368023688,,520411,,1513265279,586751426,'',0.383972435439,0.38631242147,0.033900245626,0.0,0.001,0.0,-6500.0,0.0,-300.0,0.0
1513265281377746987,,520412,,1513265279,596751426,'',0.383972435439,0.386616460335,0.0277579584338,0.0,0.001,0.0,-6500.0,0.0,-300.0,0.0
1513265281387941145,,520413,,1513265279,606751426,'',0.383972435439,0.386969212729,0.0396575416501,0.0,0.001,0.0,-6500.0,0.0,-300.0,0.0
1513265281397941655,,520414,,1513265279,616751426,'',0.383972435439,0.387273878081,0.0335010965295,0.0,0.001,0.0,-6500.0,0.0,-300.0,0.0
1513265281407922099,,520415,,1513265279,626751426,'',0.383972435439,0.387593342917,0.0270423092064,0.0,0.001,0.0,-6500.0,0.0,-300.0,0.0
1513265281417906753,,520416,,1513265279,636751426,'',0.383972435439,0.387888003312,0.040114272305,0.0,0.001,0.0,-6500.0,0.0,-300.0,0.0
1513265281427963826,,520417,,1513265279,646751426,'',0.383972435439,0.38821598956,0.0334866336052,0.0,0.001,0.0,-6500.0,0.0,-300.0,0.0
1513265281437820821,,520418,,1513265279,656751426,'',0.383972435439,0.388516629034,0.0274143197024,0.0,0.001,0.0,-6500.0,0.0,-300.0,0.0
1513265281447874970,,520419,,1513265279,666751426,'',0.383972435439,0.388763239259,0.0224332881748,0.0,0.001,0.0,-6500.0,0.0,-300.0,0.0
1513265281457856449,,520420,,1513265279,676751426,'',0.383972435439,0.388983087078,0.0370181154888,0.0,0.001,0.0,-6500.0,0.0,-300.0,0.0
1513265281467742875,,520421,,1513265279,686751426,'',0.383972435439,0.38919660433,0.0136869277738,0.0,0.001,0.0,-6500.0,0.0,-300.0,0.0
1513265281477644162,,520422,,1513265279,696751426,'',0.383972435439,0.389420532742,0.00917211562508,0.0,0.001,0.0,-6500.0,0.0,-300.0,0.0
1513265281487529039,,520423,,1513265279,706751426,'',0.383972435439,0.389603163446,0.0244943049349,0.0,0.001,0.0,-6500.0,0.0,-300.0,0.0
1513265281497883281,,520424,,1513265279,716751426,'',0.383972435439,0.389823008206,0.0200530015097,0.0,0.001,0.0,-6500.0,0.0,-300.0,0.0
1513265281507788858,,520425,,1513265279,726751426,'',0.383972435439,0.390003134111,0.0164140983154,0.0,0.001,0.0,-6500.0,0.0,-300.0,0.0
1513265281517731210,,520426,,1513265279,736751426,'',0.383972435439,0.390166308232,0.0131124236293,0.0,0.001,0.0,-6500.0,0.0,-300.0,0.0
1513265281527686018,,520427,,1513265279,746751426,'',0.383972435439,0.390301982894,0.0103721273726,0.0,0.001,0.0,-6500.0,0.0,-300.0,0.0
1513265281538079699,,520428,,1513265279,756751426,'',0.383972435439,0.390548887494,0.024406314181,0.0,0.001,0.0,-6500.0,0.0,-300.0,0.0
1513265281547939338,,520429,,1513265279,766751426,'',0.383972435439,0.39066437812,0.0220705875102,0.0,0.001,0.0,-6500.0,0.0,-300.0,0.0
1513265281557897764,,520430,,1513265279,776751426,'',0.383972435439,0.390844919148,0.018425416001,0.0,0.001,0.0,-6500.0,0.0,-300.0,0.0
1513265281567784097,,520431,,1513265279,786751426,'',0.383972435439,0.391010511871,0.0150815018406,0.0,0.001,0.0,-6500.0,0.0,-300.0,0.0
1513265281577697527,,520432,,1513265279,796751426,'',0.383972435439,0.391145830625,0.0123489282594,0.0,0.001,0.0,-6500.0,0.0,-300.0,0.0
1513265281587597020,,520433,,1513265279,806751426,'',0.383972435439,0.391256710153,0.0101098707841,0.0,0.001,0.0,-6500.0,0.0,-300.0,0.0
1513265281597998422,,520434,,1513265279,816751426,'',0.383972435439,0.39138299463,0.0075598052176,0.0,0.001,0.0,-6500.0,0.0,-300.0,0.0
1513265281607765428,,520435,,1513265279,826751426,'',0.383972435439,0.391552349672,0.0041312343814,0.0,0.001,0.0,-6500.0,0.0,-300.0,0.0
1513265281617792989,,520436,,1513265279,836751426,'',0.383972435439,0.391743962481,0.0192872742607,0.0,0.001,0.0,-6500.0,0.0,-300.0,0.0
1513265281627744271,,520437,,1513265279,846751426,'',0.383972435439,0.391917207927,0.0157888288676,0.0,0.001,0.0,-6500.0,0.0,-300.0,0.0
1513265281637750689,,520438,,1513265279,856751426,'',0.383972435439,0.39208959174,0.0122986426727,0.0,0.001,0.0,-6500.0,0.0,-300.0,0.0
1513265281647685458,,520439,,1513265279,866751426,'',0.383972435439,0.392231602582,0.00942835804088,0.0,0.001,0.0,-6500.0,0.0,-300.0,0.0
1513265281658025321,,520440,,1513265279,876751426,'',0.383972435439,0.392443625409,0.0228958289138,0.0,0.001,0.0,-6500.0,0.0,-300.0,0.0
1513265281667993675,,520441,,1513265279,886751426,'',0.383972435439,0.392634426397,0.0190467725915,0.0,0.001,0.0,-6500.0,0.0,-300.0,0.0
1513265281677858937,,520442,,1513265279,896751426,'',0.383972435439,0.392805781715,0.0155863757633,0.0,0.001,0.0,-6500.0,0.0,-300.0,0.0
1513265281687824814,,520443,,1513265279,906751426,'',0.383972435439,0.392945194722,0.0127710308457,0.0,0.001,0.0,-6500.0,0.0,-300.0,0.0
1513265281697738197,,520444,,1513265279,916751426,'',0.383972435439,0.39304467231,0.0107588794259,0.0,0.001,0.0,-6500.0,0.0,-300.0,0.0
1513265281707601268,,520445,,1513265279,926751426,'',0.383972435439,0.393141398931,0.00880614934395,0.0,0.001,0.0,-6500.0,0.0,-300.0,0.0
1513265281718233024,,520446,,1513265279,936751426,'',0.383972435439,0.393318903271,0.0229718884098,0.0,0.001,0.0,-6500.0,0.0,-300.0,0.0
1513265281727669243,,520447,,1513265279,946751426,'',0.383972435439,0.393460978141,0.00234984095148,0.0,0.001,0.0,-6500.0,0.0,-300.0,0.0
1513265281737499764,,520448,,1513265279,956751426,'',0.383972435439,0.393655924637,0.0161575787312,0.0,0.001,0.0,-6500.0,0.0,-300.0,0.0
1513265281747494495,,520449,,1513265279,966751426,'',0.383972435439,0.393833054298,0.0125833382992,0.0,0.001,0.0,-6500.0,0.0,-300.0,0.0
1513265281757951122,,520450,,1513265279,976751426,'',0.383972435439,0.39403926666,0.00840943933713,0.0,0.001,0.0,-6500.0,0.0,-300.0,0.0
1513265281767946393,,520451,,1513265279,986751426,'',0.383972435439,0.394208803589,0.00498220799008,0.0,0.001,0.0,-6500.0,0.0,-300.0,0.0
1513265281777752675,,520452,,1513265279,996751426,'',0.383972435439,0.394381275099,0.0192409739897,0.0,0.001,0.0,-6500.0,0.0,-300.0,0.0
1513265281787734047,,520453,,1513265280,6751426,'',0.383972435439,0.394553994997,0.0157551333396,0.0105815595583,0.001,73.4778125848,-6500.0,0.0,-300.0,0.0
1513265281797750491,,520454,,1513265280,16751426,'',0.383972435439,0.394727338616,0.0122527578723,0.0107549031772,0.001,73.5942186883,-6500.0,0.0,-300.0,0.0
1513265281807709441,,520455,,1513265280,26751426,'',0.383972435439,0.394982310634,0.0248539319276,0.0110098751953,0.001,79.1075662234,-6500.0,0.0,-300.0,0.0
1513265281817646895,,520456,,1513265280,36751426,'',0.383972435439,0.395320250074,0.0357783915414,0.0113478146356,0.001,84.5395913791,-6500.0,0.0,-300.0,0.0
1513265281827620047,,520457,,1513265280,46751426,'',0.383972435439,0.395739891701,0.0450468032155,0.0117674562625,0.001,90.0724606314,-6500.0,0.0,-300.0,0.0
1513265281837560989,,520458,,1513265280,56751426,'',0.383972435439,0.396113505131,0.0374993239634,0.0121410696924,0.001,90.2362551706,-6500.0,0.0,-300.0,0.0
1513265281848000852,,520459,,1513265280,66751426,'',0.383972435439,0.396597696892,0.063216122254,0.0126252614537,0.001,100.704956648,-6500.0,0.0,-300.0,0.0
1513265281858015998,,520460,,1513265280,76751426,'',0.383972435439,0.397053893994,0.0362473477996,0.0130814585552,0.001,95.9401757271,-6500.0,0.0,-300.0,0.0
1513265281867844688,,520461,,1513265280,86751426,'',0.383972435439,0.397509059277,0.0448000831215,0.0135366238382,0.001,102.0812164,-6500.0,0.0,-300.0,0.0
1513265281877834898,,520462,,1513265280,96751426,'',0.383972435439,0.397990017235,0.0350838854381,0.0140175817964,0.001,101.684961451,-6500.0,0.0,-300.0,0.0
1513265281887702101,,520463,,1513265280,106751426,'',0.383972435439,0.398465581977,0.0432273886063,0.0144931465383,0.001,107.606103463,-6500.0,0.0,-300.0,0.0
1513265281898074006,,520464,,1513265280,116751426,'',0.383972435439,0.398852697013,0.0354084793367,0.014880261574,0.001,107.388772838,-6500.0,0.0,-300.0,0.0
1513265281907919282,,520465,,1513265280,126751426,'',0.383972435439,0.399122223346,0.0299692330549,0.0151497879072,0.001,107.383778327,-6500.0,0.0,-300.0,0.0
1513265281917829218,,520466,,1513265280,136751426,'',0.383972435439,0.39934136032,0.00780158869674,0.015368924881,0.001,102.246080733,-6500.0,0.0,-300.0,0.0
1513265281927753303,,520467,,1513265280,146751426,'',0.383972435439,0.399521820188,0.00416102285244,0.0155493847496,0.001,102.334807143,-6500.0,0.0,-300.0,0.0
1513265281937739253,,520468,,1513265280,156751426,'',0.383972435439,0.399575629188,0.0030713895297,0.0156031937495,0.001,102.3480039,-6500.0,0.0,-300.0,0.0
1513265281947729398,,520469,,1513265280,166751426,'',0.383972435439,0.399635046862,0.0196134222174,0.015662611423,0.001,107.719295862,-6500.0,0.0,-300.0,0.0
1513265281957687394,,520470,,1513265280,176751426,'',0.383972435439,0.399684828776,0.000856065161259,0.0157123933374,0.001,102.383251644,-6500.0,0.0,-300.0,0.0
1513265281967600962,,520471,,1513265280,186751426,'',0.383972435439,0.399692522488,0.000700816829565,0.015720087049,0.001,102.387636948,-6500.0,0.0,-300.0,0.0
1513265281977962155,,520472,,1513265280,196751426,'',0.383972435439,0.399729913529,-5.33183567714e-05,0.0157574780906,0.001,102.407419997,-6500.0,0.0,-300.0,0.0
1513265281987965370,,520473,,1513265280,206751426,'',0.383972435439,0.399840446371,0.0154635905706,0.015868010932,0.001,107.855891567,-6500.0,0.0,-300.0,0.0
1513265281997730102,,520474,,1513265280,216751426,'',0.383972435439,0.399962483315,0.0129875491203,0.0159900478758,0.001,107.833629643,-6500.0,0.0,-300.0,0.0
1513265282007893352,,520475,,1513265280,226751426,'',0.383972435439,0.400145020656,0.0270427034378,0.016172585217,0.001,113.288578336,-6500.0,0.0,-300.0,0.0
1513265282017810122,,520476,,1513265280,236751426,'',0.383972435439,0.400353397674,0.00508886261961,0.0163809622356,0.001,108.015225215,-6500.0,0.0,-300.0,0.0
1513265282027811762,,520477,,1513265280,246751426,'',0.383972435439,0.400511520872,0.0196426870074,0.0165390854331,0.001,113.30392925,-6500.0,0.0,-300.0,0.0
1513265282037699813,,520478,,1513265280,256751426,'',0.383972435439,0.400657245369,0.0167033318903,0.0166848099306,0.001,113.48850553,-6500.0,0.0,-300.0,0.0
1513265282047622684,,520479,,1513265280,266751426,'',0.383972435439,0.400790998941,0.0140034351556,0.0168185635026,0.001,113.577670798,-6500.0,0.0,-300.0,0.0
1513265282058078141,,520480,,1513265280,276751426,'',0.383972435439,0.400867859566,0.0124509663236,0.0168954241274,0.001,113.567531794,-6500.0,0.0,-300.0,0.0
1513265282067810352,,520481,,1513265280,286751426,'',0.383972435439,0.40089938387,-0.00592646587708,0.0169269484313,0.001,108.249332896,-6500.0,0.0,-300.0,0.0
1513265282077931120,,520482,,1513265280,296751426,'',0.383972435439,0.401038483222,0.0267604842688,0.0170660477831,0.001,119.004975418,-6500.0,0.0,-300.0,0.0
1513265282087828969,,520483,,1513265280,306751426,'',0.383972435439,0.401233438412,0.0228163953615,0.0172610029735,0.001,119.22021255,-6500.0,0.0,-300.0,0.0
1513265282097931237,,520484,,1513265280,316751426,'',0.383972435439,0.401467026969,0.0180985809488,0.0174945915305,0.001,119.050493854,-6500.0,0.0,-300.0,0.0
1513265282107792413,,520485,,1513265280,326751426,'',0.383972435439,0.401629612405,0.0148136994979,0.017657176966,0.001,119.277984029,-6500.0,0.0,-300.0,0.0
1513265282117630762,,520486,,1513265280,336751426,'',0.383972435439,0.401762433943,0.0121301688057,0.0177899985039,0.001,119.288185587,-6500.0,0.0,-300.0,0.0
1513265282128040494,,520487,,1513265280,346751426,'',0.383972435439,0.401871393819,0.00992873990797,0.0178989583801,0.001,119.363556415,-6500.0,0.0,-300.0,0.0
1513265282138009682,,520488,,1513265280,356751426,'',0.383972435439,0.401960627192,0.00812586591356,0.0179881917536,0.001,119.427434394,-6500.0,0.0,-300.0,0.0
1513265282147895957,,520489,,1513265280,366751426,'',0.383972435439,0.401953050507,-0.00946898814872,0.0179806150682,0.001,114.153717289,-6500.0,0.0,-300.0,0.0
1513265282157835975,,520490,,1513265280,376751426,'',0.383972435439,0.401978758983,0.00776159338286,0.0180063235446,0.001,119.312445129,-6500.0,0.0,-300.0,0.0
1513265282167754189,,520491,,1513265280,386751426,'',0.383972435439,0.401970501623,0.00791564972881,0.0179980661842,0.001,119.266409962,-6500.0,0.0,-300.0,0.0
1513265282177698775,,520492,,1513265280,396751426,'',0.383972435439,0.401946320702,0.00841463402452,0.0179738852628,0.001,119.364541035,-6500.0,0.0,-300.0,0.0
1513265282187936453,,520493,,1513265280,406751426,'',0.383972435439,0.401941964416,-0.00924617115558,0.0179695289772,0.001,114.005775905,-6500.0,0.0,-300.0,0.0
1513265282197569848,,520494,,1513265280,416751426,'',0.383972435439,0.401908066338,0.00919387254287,0.0179356308996,0.001,119.351975289,-6500.0,0.0,-300.0,0.0
1513265282207988611,,520495,,1513265280,426751426,'',0.383972435439,0.401847767969,-0.00733861639688,0.0178753325302,0.001,114.024692653,-6500.0,0.0,-300.0,0.0
1513265282217967651,,520496,,1513265280,436751426,'',0.383972435439,0.401846803934,0.0104413801884,0.0178743684954,0.001,119.320206095,-6500.0,0.0,-300.0,0.0
1513265282227905898,,520497,,1513265280,446751426,'',0.383972435439,0.401813173927,-0.00662858355932,0.0178407384879,0.001,113.945412355,-6500.0,0.0,-300.0,0.0
1513265282237876141,,520498,,1513265280,456751426,'',0.383972435439,0.40178534739,-0.00607062951192,0.0178129119516,0.001,113.935401374,-6500.0,0.0,-300.0,0.0
1513265282247755980,,520499,,1513265280,466751426,'',0.383972435439,0.401778732527,-0.00593119246956,0.0178062970887,0.001,113.94204726,-6500.0,0.0,-300.0,0.0
1513265282257721595,,520500,,1513265280,476751426,'',0.383972435439,0.401739951471,-0.00515078089749,0.0177675160319,0.001,113.936235036,-6500.0,0.0,-300.0,0.0
1513265282267601576,,520501,,1513265280,486751426,'',0.383972435439,0.40169359208,-0.00421676170574,0.017721156641,0.001,113.913694686,-6500.0,0.0,-300.0,0.0
1513265282277554979,,520502,,1513265280,496751426,'',0.383972435439,0.401715863187,-0.00467295865842,0.0177434277485,0.001,113.954334987,-6500.0,0.0,-300.0,0.0
1513265282288099143,,520503,,1513265280,506751426,'',0.383972435439,0.401721368185,-0.00477802892117,0.0177489327463,0.001,113.98225759,-6500.0,0.0,-300.0,0.0
1513265282297936195,,520504,,1513265280,516751426,'',0.383972435439,0.401695275676,-0.00424677884104,0.017722840237,0.001,113.914699241,-6500.0,0.0,-300.0,0.0
1513265282307919845,,520505,,1513265280,526751426,'',0.383972435439,0.401673359027,-0.0038153658152,0.017700923588,0.001,113.899803694,-6500.0,0.0,-300.0,0.0
1513265282317857714,,520506,,1513265280,536751426,'',0.383972435439,0.401670391109,-0.00375965768749,0.0176979556705,0.001,113.904366402,-6500.0,0.0,-300.0,0.0
1513265282327784975,,520507,,1513265280,546751426,'',0.383972435439,0.401636630223,-0.00307759026199,0.0176641947844,0.001,113.881898321,-6500.0,0.0,-300.0,0.0
1513265282337690756,,520508,,1513265280,556751426,'',0.383972435439,0.401574988446,-0.0195797622141,0.0176025530073,0.001,108.519152112,-6500.0,0.0,-300.0,0.0
1513265282348090436,,520509,,1513265280,566751426,'',0.383972435439,0.4015934821,0.0155434529686,0.0176210466611,0.001,119.326974667,-6500.0,0.0,-300.0,0.0
1513265282357875300,,520510,,1513265280,576751426,'',0.383972435439,0.401573718609,-0.00180319350515,0.0176012831705,0.001,113.862006164,-6500.0,0.0,-300.0,0.0
1513265282367897049,,520511,,1513265280,586751426,'',0.383972435439,0.401557523728,-0.00147662595905,0.0175850882894,0.001,113.861988801,-6500.0,0.0,-300.0,0.0
1513265282377880069,,520512,,1513265280,596751426,'',0.383972435439,0.401559463946,-0.00151628383378,0.0175870285077,0.001,113.858306026,-6500.0,0.0,-300.0,0.0
1513265282387893970,,520513,,1513265280,606751426,'',0.383972435439,0.401545832169,-0.00124130414038,0.0175733967302,0.001,113.852286435,-6500.0,0.0,-300.0,0.0
1513265282397606113,,520514,,1513265280,616751426,'',0.383972435439,0.401549557796,-0.00131357819274,0.0175771223568,0.001,113.854192687,-6500.0,0.0,-300.0,0.0
1513265282407974584,,520515,,1513265280,626751426,'',0.383972435439,0.401569011468,-0.00170423719898,0.0175965760291,0.001,113.861775869,-6500.0,0.0,-300.0,0.0
1513265282418042463,,520516,,1513265280,636751426,'',0.383972435439,0.401586885111,0.0156721375465,0.0176144496718,0.001,119.105465845,-6500.0,0.0,-300.0,0.0
1513265282427810468,,520517,,1513265280,646751426,'',0.383972435439,0.401568266861,-0.0016998722745,0.017595831422,0.001,113.857303658,-6500.0,0.0,-300.0,0.0
1513265282437765064,,520518,,1513265280,656751426,'',0.383972435439,0.401567878872,-0.00168893169621,0.0175954434337,0.001,113.861312193,-6500.0,0.0,-300.0,0.0
1513265282447598643,,520519,,1513265280,666751426,'',0.383972435439,0.401552721039,-0.00138264212849,0.0175802856004,0.001,113.854207839,-6500.0,0.0,-300.0,0.0
1513265282457616267,,520520,,1513265280,676751426,'',0.383972435439,0.401539851094,-0.0011219531466,0.0175674156554,0.001,113.850567581,-6500.0,0.0,-300.0,0.0
1513265282468146960,,520521,,1513265280,686751426,'',0.383972435439,0.401547062527,0.0164783963306,0.0175746270883,0.001,119.143994433,-6500.0,0.0,-300.0,0.0
1513265282477988869,,520522,,1513265280,696751426,'',0.383972435439,0.401537253658,-0.00107466453233,0.0175648182197,0.001,113.848774456,-6500.0,0.0,-300.0,0.0
1513265282487824538,,520523,,1513265280,706751426,'',0.383972435439,0.401559167268,-0.00151800896599,0.0175867318294,0.001,113.851297384,-6500.0,0.0,-300.0,0.0
1513265282497689934,,520524,,1513265280,716751426,'',0.383972435439,0.401545608879,-0.0012431135056,0.0175731734399,0.001,113.852105532,-6500.0,0.0,-300.0,0.0
1513265282507744035,,520525,,1513265280,726751426,'',0.383972435439,0.401536085712,0.0167043259395,0.0175636502728,0.001,119.265400393,-6500.0,0.0,-300.0,0.0
1513265282518044831,,520526,,1513265280,736751426,'',0.383972435439,0.401526707958,-0.000852969078088,0.0175542725194,0.001,113.844457123,-6500.0,0.0,-300.0,0.0
1513265282527880220,,520527,,1513265280,746751426,'',0.383972435439,0.401519024131,-0.000698435405961,0.017546588692,0.001,113.843845493,-6500.0,0.0,-300.0,0.0
1513265282537779269,,520528,,1513265280,756751426,'',0.383972435439,0.401512731851,-0.00057188792026,0.0175402964125,0.001,113.838735408,-6500.0,0.0,-300.0,0.0
1513265282547732722,,520529,,1513265280,766751426,'',0.383972435439,0.401507571326,-0.000468101770323,0.0175351358876,0.001,113.835501579,-6500.0,0.0,-300.0,0.0
1513265282557646785,,520530,,1513265280,776751426,'',0.383972435439,0.401503354147,-0.000383287768081,0.0175309187086,0.001,113.834896245,-6500.0,0.0,-300.0,0.0
1513265282567663753,,520531,,1513265280,786751426,'',0.383972435439,0.401482434093,-0.0177089896471,0.0175099986547,0.001,108.480720693,-6500.0,0.0,-300.0,0.0
1513265282577713195,,520532,,1513265280,796751426,'',0.383972435439,0.401450184298,0.000688005271646,0.0174777488592,0.001,113.803723217,-6500.0,0.0,-300.0,0.0
1513265282588059887,,520533,,1513265280,806751426,'',0.383972435439,0.401425006885,0.00119655715247,0.017452571446,0.001,113.802475312,-6500.0,0.0,-300.0,0.0
1513265282597948918,,520534,,1513265280,816751426,'',0.383972435439,0.40140425997,0.00161568692303,0.0174318245313,0.001,113.794911909,-6500.0,0.0,-300.0,0.0
1513265282607946813,,520535,,1513265280,826751426,'',0.383972435439,0.401418775849,0.00132265514531,0.0174463404104,0.001,113.801131202,-6500.0,0.0,-300.0,0.0
1513265282617927501,,520536,,1513265280,836751426,'',0.383972435439,0.401384132731,0.00202688622949,0.0174116972918,0.001,113.772056485,-6500.0,0.0,-300.0,0.0
1513265282627646340,,520537,,1513265280,846751426,'',0.383972435439,0.401402313877,0.00165897596701,0.0174298784379,0.001,113.798078494,-6500.0,0.0,-300.0,0.0
1513265282637675509,,520538,,1513265280,856751426,'',0.383972435439,0.401386130378,0.00198127735373,0.0174136949392,0.001,113.788195226,-6500.0,0.0,-300.0,0.0
1513265282648015060,,520539,,1513265280,866751426,'',0.383972435439,0.401387153674,0.00196025213969,0.0174147182353,0.001,113.788033556,-6500.0,0.0,-300.0,0.0
1513265282658039727,,520540,,1513265280,876751426,'',0.383972435439,0.401404164871,0.00161917678877,0.0174317294317,0.001,113.793821065,-6500.0,0.0,-300.0,0.0
1513265282667903569,,520541,,1513265280,886751426,'',0.383972435439,0.401403958959,0.00162248275779,0.0174315235205,0.001,113.794673615,-6500.0,0.0,-300.0,0.0
1513265282677802580,,520542,,1513265280,896751426,'',0.383972435439,0.401402374074,0.00165490470172,0.017429938635,0.001,113.793555745,-6500.0,0.0,-300.0,0.0
1513265282687887381,,520543,,1513265280,906751426,'',0.383972435439,0.401400977641,0.00167987429483,0.0174285422022,0.001,113.802227916,-6500.0,0.0,-300.0,0.0
1513265282697873256,,520544,,1513265280,916751426,'',0.383972435439,0.401355070878,0.00260416457137,0.017382635439,0.001,113.776642184,-6500.0,0.0,-300.0,0.0
1513265282707721351,,520545,,1513265280,926751426,'',0.383972435439,0.401345556839,0.0027946703298,0.0173731214004,0.001,113.772927734,-6500.0,0.0,-300.0,0.0
1513265282717691800,,520546,,1513265280,936751426,'',0.383972435439,0.401340645999,0.00290208497018,0.01736821056,0.001,113.748161493,-6500.0,0.0,-300.0,0.0
1513265282727717533,,520547,,1513265280,946751426,'',0.383972435439,0.401317778358,-0.0143905170481,0.017345342919,0.001,108.372857841,-6500.0,0.0,-300.0,0.0
1513265282738081812,,520548,,1513265280,956751426,'',0.383972435439,0.401348014866,0.00274742509919,0.0173755794271,0.001,113.79060019,-6500.0,0.0,-300.0,0.0
1513265282747901437,,520549,,1513265280,966751426,'',0.383972435439,0.401341384997,0.00288701364191,0.0173689495582,0.001,113.76963021,-6500.0,0.0,-300.0,0.0
1513265282757774122,,520550,,1513265280,976751426,'',0.383972435439,0.401367252967,0.00236444258464,0.0173948175282,0.001,113.764318236,-6500.0,0.0,-300.0,0.0
1513265282767804481,,520551,,1513265280,986751426,'',0.383972435439,0.401388490278,0.00193541766201,0.0174160548388,0.001,113.792067131,-6500.0,0.0,-300.0,0.0
1513265282777741123,,520552,,1513265280,996751426,'',0.383972435439,0.401405852041,0.00158468449659,0.0174334166021,0.001,113.794521631,-6500.0,0.0,-300.0,0.0
1513265282787780280,,520553,,1513265281,6751426,'',0.383972435439,0.401420080702,0.00129724459702,0.0174476452637,0.001,113.802023181,-6500.0,0.0,-300.0,0.0
1513265282798073236,,520554,,1513265281,16751426,'',0.383972435439,0.401401913011,0.00166045750408,0.0174294775722,0.001,113.793366989,-6500.0,0.0,-300.0,0.0
1513265282808007231,,520555,,1513265281,26751426,'',0.383972435439,0.401386681003,0.00197334741521,0.0174142455644,0.001,113.779296052,-6500.0,0.0,-300.0,0.0
1513265282817948303,,520556,,1513265281,36751426,'',0.383972435439,0.401372809242,0.00225290603177,0.0174003738037,0.001,113.781614842,-6500.0,0.0,-300.0,0.0
1513265282827828607,,520557,,1513265281,46751426,'',0.383972435439,0.401393044031,0.0018440049552,0.0174206085924,0.001,113.795463732,-6500.0,0.0,-300.0,0.0
1513265282837765549,,520558,,1513265281,56751426,'',0.383972435439,0.401376932851,0.00216791065159,0.0174044974118,0.001,113.783140295,-6500.0,0.0,-300.0,0.0
1513265282847854606,,520559,,1513265281,66751426,'',0.383972435439,0.401380619503,0.00209700394616,0.0174081840638,0.001,113.785254875,-6500.0,0.0,-300.0,0.0
1513265282857781014,,520560,,1513265281,76751426,'',0.383972435439,0.40136610748,-0.0153549886469,0.0173936720411,0.001,108.525616575,-6500.0,0.0,-300.0,0.0
1513265282867602093,,520561,,1513265281,86751426,'',0.383972435439,0.401369948607,-0.0154337945466,0.017397513168,0.001,108.396088901,-6500.0,0.0,-300.0,0.0
1513265282878025019,,520562,,1513265281,96751426,'',0.383972435439,0.401360243214,0.002501588137,0.0173878077752,0.001,113.776307681,-6500.0,0.0,-300.0,0.0
1513265282887909697,,520563,,1513265281,106751426,'',0.383972435439,0.401382738392,0.00204796151682,0.0174103029533,0.001,113.785517041,-6500.0,0.0,-300.0,0.0
1513265282897832495,,520564,,1513265281,116751426,'',0.383972435439,0.401384186368,0.00202105972745,0.0174117509294,0.001,113.786109832,-6500.0,0.0,-300.0,0.0
1513265282907643104,,520565,,1513265281,126751426,'',0.383972435439,0.401402303842,0.00165529594732,0.0174298684035,0.001,113.78251958,-6500.0,0.0,-300.0,0.0
1513265282917608052,,520566,,1513265281,136751426,'',0.383972435439,0.401401646222,0.00166830198957,0.0174292107829,0.001,113.782162069,-6500.0,0.0,-300.0,0.0
1513265282927590999,,520567,,1513265281,146751426,'',0.383972435439,0.401416644213,0.00136556479405,0.0174442087741,0.001,113.802755318,-6500.0,0.0,-300.0,0.0
1513265282938022677,,520568,,1513265281,156751426,'',0.383972435439,0.401428931694,0.00111753974752,0.0174564962549,0.001,113.812591738,-6500.0,0.0,-300.0,0.0
1513265282947996613,,520569,,1513265281,166751426,'',0.383972435439,0.401407279476,0.0015507586015,0.0174348440374,0.001,113.795563981,-6500.0,0.0,-300.0,0.0
1513265282957905865,,520570,,1513265281,176751426,'',0.383972435439,0.401420623899,0.00127888131002,0.01744818846,0.001,113.792850707,-6500.0,0.0,-300.0,0.0
1513265282967831527,,520571,,1513265281,186751426,'',0.383972435439,0.401415377012,0.00138243906202,0.017442941573,0.001,113.801796394,-6500.0,0.0,-300.0,0.0
1513265282977637723,,520572,,1513265281,196751426,'',0.383972435439,0.401381309308,0.00207312368273,0.0174088738694,0.001,113.786886136,-6500.0,0.0,-300.0,0.0
1513265282987583295,,520573,,1513265281,206751426,'',0.383972435439,0.4013845096,0.00201000711999,0.0174120741615,0.001,113.791194448,-6500.0,0.0,-300.0,0.0
1513265282997575945,,520574,,1513265281,216751426,'',0.383972435439,0.40138805661,0.00194303839885,0.0174156211709,0.001,113.788396622,-6500.0,0.0,-300.0,0.0
1513265283008079918,,520575,,1513265281,226751426,'',0.383972435439,0.401390805789,0.00188759010086,0.0174183703498,0.001,113.775041232,-6500.0,0.0,-300.0,0.0
1513265283017963729,,520576,,1513265281,236751426,'',0.383972435439,0.40139308779,0.00184004246588,0.0174206523517,0.001,113.793082291,-6500.0,0.0,-300.0,0.0
1513265283027976766,,520577,,1513265281,246751426,'',0.383972435439,0.401378527845,0.00213215296103,0.0174060924059,0.001,113.791049683,-6500.0,0.0,-300.0,0.0
1513265283037815352,,520578,,1513265281,256751426,'',0.383972435439,0.401397684659,0.00174597587651,0.0174252492205,0.001,113.791130282,-6500.0,0.0,-300.0,0.0
1513265283047925331,,520579,,1513265281,266751426,'',0.383972435439,0.401398238333,0.0017391723486,0.0174258028945,0.001,113.796636059,-6500.0,0.0,-300.0,0.0
1513265283057827169,,520580,,1513265281,276751426,'',0.383972435439,0.401382022633,0.00206826788253,0.0174095871945,0.001,113.784626926,-6500.0,0.0,-300.0,0.0
1513265283067782771,,520581,,1513265281,286751426,'',0.383972435439,0.401370133424,0.00230848610145,0.0173976979848,0.001,113.783189425,-6500.0,0.0,-300.0,0.0
1513265283077597671,,520582,,1513265281,296751426,'',0.383972435439,0.40139078835,0.00189082218455,0.0174183529117,0.001,113.764802316,-6500.0,0.0,-300.0,0.0
1513265283087632788,,520583,,1513265281,306751426,'',0.383972435439,0.401407773444,0.00154736608086,0.0174353380052,0.001,113.804256099,-6500.0,0.0,-300.0,0.0
1513265283097589373,,520584,,1513265281,316751426,'',0.383972435439,0.40142054883,0.00128346591854,0.0174481133909,0.001,113.799786841,-6500.0,0.0,-300.0,0.0
1513265283107999254,,520585,,1513265281,326751426,'',0.383972435439,0.401397853891,-0.016005108391,0.0174254184525,0.001,108.445600388,-6500.0,0.0,-300.0,0.0
1513265283118028741,,520586,,1513265281,336751426,'',0.383972435439,0.401396549405,0.00176674484531,0.0174241139663,0.001,113.791171168,-6500.0,0.0,-300.0,0.0
1513265283127968141,,520587,,1513265281,346751426,'',0.383972435439,0.401396609138,0.00176816437979,0.0174241736991,0.001,113.791195623,-6500.0,0.0,-300.0,0.0
1513265283138025206,,520588,,1513265281,356751426,'',0.383972435439,0.401379394691,-0.0156373797128,0.0174069592519,0.001,108.427773274,-6500.0,0.0,-300.0,0.0
1513265283147951759,,520589,,1513265281,366751426,'',0.383972435439,0.401413448129,0.00142641996552,0.0174410126905,0.001,113.802019179,-6500.0,0.0,-300.0,0.0
1513265283157888549,,520590,,1513265281,376751426,'',0.383972435439,0.401394484671,0.00181203613095,0.0174220492322,0.001,113.789277225,-6500.0,0.0,-300.0,0.0
1513265283167662621,,520591,,1513265281,386751426,'',0.383972435439,0.401395654196,0.00179267651141,0.0174232187577,0.001,113.791322192,-6500.0,0.0,-300.0,0.0
1513265283177569832,,520592,,1513265281,396751426,'',0.383972435439,0.401365266824,0.00241005368449,0.0173928313848,0.001,113.77836431,-6500.0,0.0,-300.0,0.0
1513265283187640798,,520593,,1513265281,406751426,'',0.383972435439,0.401353334848,0.0026476165391,0.0173808994095,0.001,113.757426489,-6500.0,0.0,-300.0,0.0
1513265283198002492,,520594,,1513265281,416751426,'',0.383972435439,0.401360552211,0.00249366427958,0.0173881167724,0.001,113.776434182,-6500.0,0.0,-300.0,0.0
1513265283207918122,,520595,,1513265281,426751426,'',0.383972435439,0.401383011644,0.00204106572724,0.0174105762048,0.001,113.791986252,-6500.0,0.0,-300.0,0.0
1513265283217840703,,520596,,1513265281,436751426,'',0.383972435439,0.401368842665,0.00233099809715,0.0173964072266,0.001,113.779828233,-6500.0,0.0,-300.0,0.0
1513265283227926866,,520597,,1513265281,446751426,'',0.383972435439,0.401374272836,0.00222151844629,0.0174018373972,0.001,113.782854238,-6500.0,0.0,-300.0,0.0
1513265283237763664,,520598,,1513265281,456751426,'',0.383972435439,0.401394185713,0.00181945037433,0.017421750274,0.001,113.77863208,-6500.0,0.0,-300.0,0.0
1513265283247764934,,520599,,1513265281,466751426,'',0.383972435439,0.401380050556,0.00209975205534,0.017407615117,0.001,113.790807681,-6500.0,0.0,-300.0,0.0
1513265283258074823,,520600,,1513265281,476751426,'',0.383972435439,0.401349674309,0.00272309968631,0.0173772388699,0.001,113.79006168,-6500.0,0.0,-300.0,0.0
1513265283267947312,,520601,,1513265281,486751426,'',0.383972435439,0.401244645802,-0.0129026054232,0.0172722103635,0.001,108.362401259,-6500.0,0.0,-300.0,0.0
1513265283277691154,,520602,,1513265281,496751426,'',0.383972435439,0.401128880608,-0.0105646182589,0.017156445169,0.001,108.333914393,-6500.0,0.0,-300.0,0.0
1513265283287600472,,520603,,1513265281,506751426,'',0.383972435439,0.400920240087,-0.0240943585985,0.0169478046482,0.001,102.894715409,-6500.0,0.0,-300.0,0.0
1513265283298029582,,520604,,1513265281,516751426,'',0.383972435439,0.400671093774,-0.0368060979114,0.016698658335,0.001,97.6866388068,-6500.0,0.0,-300.0,0.0
1513265283308012465,,520605,,1513265281,526751426,'',0.383972435439,0.400401708611,-0.031362216723,0.0164292731726,0.001,97.2841012211,-6500.0,0.0,-300.0,0.0
1513265283317990687,,520606,,1513265281,536751426,'',0.383972435439,0.400007079287,-0.0411361745027,0.0160346438485,0.001,91.8431987677,-6500.0,0.0,-300.0,0.0
1513265283328100385,,520607,,1513265281,546751426,'',0.383972435439,0.399620178251,-0.0510704772068,0.0156477428124,0.001,86.3102923103,-6500.0,0.0,-300.0,0.0
1513265283337930473,,520608,,1513265281,556751426,'',0.383972435439,0.399207806923,-0.04274218724,0.0152353714842,0.001,86.4255582971,-6500.0,0.0,-300.0,0.0
1513265283347875620,,520609,,1513265281,566751426,'',0.383972435439,0.398807030676,-0.0346422465727,0.0148345952373,0.001,85.9022812918,-6500.0,0.0,-300.0,0.0
1513265283357800290,,520610,,1513265281,576751426,'',0.383972435439,0.398381330226,-0.0437913645557,0.0144088947875,0.001,80.1453555631,-6500.0,0.0,-300.0,0.0
1513265283367763986,,520611,,1513265281,586751426,'',0.383972435439,0.397988842681,-0.0358641160543,0.014016407242,0.001,80.2476458318,-6500.0,0.0,-300.0,0.0
1513265283377657169,,520612,,1513265281,596751426,'',0.383972435439,0.397618662381,-0.0283877050826,0.013646226942,0.001,80.1483628153,-6500.0,0.0,-300.0,0.0
1513265283388037662,,520613,,1513265281,606751426,'',0.383972435439,0.397238166297,-0.0207045929248,0.013265730858,0.001,80.1160089939,-6500.0,0.0,-300.0,0.0
1513265283397945319,,520614,,1513265281,616751426,'',0.383972435439,0.396924487021,-0.0321189438462,0.0129520515827,0.001,74.5145196544,-6500.0,0.0,-300.0,0.0
1513265283407792637,,520615,,1513265281,626751426,'',0.383972435439,0.396636136624,-0.0262935121672,0.0126637011854,0.001,74.3776912856,-6500.0,0.0,-300.0,0.0
1513265283417695030,,520616,,1513265281,636751426,'',0.383972435439,0.396400155636,-0.0215260794205,0.0124277201968,0.001,74.3030216052,-6500.0,0.0,-300.0,0.0
1513265283427620012,,520617,,1513265281,646751426,'',0.383972435439,0.396206886892,-0.0176215456662,0.0122344514536,0.001,74.2101846057,-6500.0,0.0,-300.0,0.0
1513265283438106087,,520618,,1513265281,656751426,'',0.383972435439,0.396032897921,-0.014106322143,0.0120604624823,0.001,74.1402278852,-6500.0,0.0,-300.0,0.0
1513265283447974756,,520619,,1513265281,666751426,'',0.383972435439,0.395906143821,-0.011545592803,0.0119337083823,0.001,74.0566358093,-6500.0,0.0,-300.0,0.0
1513265283457931425,,520620,,1513265281,676751426,'',0.383972435439,0.39575429451,-0.00847912710462,0.0117818590715,0.001,74.0261696967,-6500.0,0.0,-300.0,0.0
1513265283467934257,,520621,,1513265281,686751426,'',0.383972435439,0.395548499975,-0.0220707727854,0.0115760645358,0.001,68.5704622233,-6500.0,0.0,-300.0,0.0
1513265283477838758,,520622,,1513265281,696751426,'',0.383972435439,0.395412222476,-0.0193157975229,0.0114397870374,0.001,68.6637544677,-6500.0,0.0,-300.0,0.0
1513265283487948699,,520623,,1513265281,706751426,'',0.383972435439,0.395318499247,-0.0174187382681,0.0113460638079,0.001,68.5385624501,-6500.0,0.0,-300.0,0.0
1513265283497868697,,520624,,1513265281,716751426,'',0.383972435439,0.395241203355,0.00188353405304,0.0112687679165,0.001,73.8120227048,-6500.0,0.0,-300.0,0.0
1513265283507839718,,520625,,1513265281,726751426,'',0.383972435439,0.395162951382,-0.0142872777054,0.0111905159437,0.001,68.320869789,-6500.0,0.0,-300.0,0.0
1513265283518105844,,520626,,1513265281,736751426,'',0.383972435439,0.395096340901,-0.0129310541217,0.0111239054619,0.001,68.3434623913,-6500.0,0.0,-300.0,0.0
1513265283528003342,,520627,,1513265281,746751426,'',0.383972435439,0.39503056461,0.00614586080737,0.0110581291716,0.001,73.7449712052,-6500.0,0.0,-300.0,0.0
1513265283537931828,,520628,,1513265281,756751426,'',0.383972435439,0.394926957568,-0.00950923648106,0.0109545221292,0.001,68.3422324644,-6500.0,0.0,-300.0,0.0
1513265283547901797,,520629,,1513265281,766751426,'',0.383972435439,0.394856680422,-0.00809305931149,0.0108842449833,0.001,68.285745915,-6500.0,0.0,-300.0,0.0
1513265283557735115,,520630,,1513265281,776751426,'',0.383972435439,0.394784078283,-0.00662616421121,0.0108116428443,0.001,68.2777625246,-6500.0,0.0,-300.0,0.0
1513265283567675395,,520631,,1513265281,786751426,'',0.383972435439,0.394739645027,-0.00572454297055,0.0107672095882,0.001,68.3001811559,-6500.0,0.0,-300.0,0.0
1513265283578085550,,520632,,1513265281,796751426,'',0.383972435439,0.394688222755,-0.00468627925527,0.0107157873167,0.001,68.2403536695,-6500.0,0.0,-300.0,0.0
1513265283588021579,,520633,,1513265281,806751426,'',0.383972435439,0.394646117006,-0.00383612482081,0.0106736815669,0.001,68.2195423832,-6500.0,0.0,-300.0,0.0
1513265283598056398,,520634,,1513265281,816751426,'',0.383972435439,0.39462846399,-0.00347968239055,0.0106560285509,0.001,68.2145338439,-6500.0,0.0,-300.0,0.0
1513265283608283228,,520635,,1513265281,826751426,'',0.383972435439,0.394582903844,-0.00255357176647,0.0106104684056,0.001,68.2066127588,-6500.0,0.0,-300.0,0.0
1513265283618107446,,520636,,1513265281,836751426,'',0.383972435439,0.394543457551,-0.00176157259114,0.010571022112,0.001,68.1796053652,-6500.0,0.0,-300.0,0.0
1513265283627817881,,520637,,1513265281,846751426,'',0.383972435439,0.394527616894,-0.00144205450844,0.0105551814553,0.001,68.1727260436,-6500.0,0.0,-300.0,0.0
1513265283637762015,,520638,,1513265281,856751426,'',0.383972435439,0.394466256456,-0.0179507331302,0.0104938210173,0.001,62.916699418,-6500.0,0.0,-300.0,0.0
1513265283647817648,,520639,,1513265281,866751426,'',0.383972435439,0.394416577434,0.000801436984323,0.0104441419949,0.001,68.1296939938,-6500.0,0.0,-300.0,0.0
1513265283658241506,,520640,,1513265281,876751426,'',0.383972435439,0.394423744254,0.000656198779748,0.0104513088155,0.001,68.130723089,-6500.0,0.0,-300.0,0.0
1513265283667823887,,520641,,1513265281,886751426,'',0.383972435439,0.394414790724,0.00084025442316,0.0104423552855,0.001,68.1265749571,-6500.0,0.0,-300.0,0.0
1513265283677775308,,520642,,1513265281,896751426,'',0.383972435439,0.394422255506,0.000688506724019,0.0104498200673,0.001,68.1257643518,-6500.0,0.0,-300.0,0.0
1513265283688364916,,520643,,1513265281,906751426,'',0.383972435439,0.394427817426,0.000584051018466,0.0104553819877,0.001,68.1348285907,-6500.0,0.0,-300.0,0.0
1513265283697897310,,520644,,1513265281,916751426,'',0.383972435439,0.39436950995,0.00175619443759,0.0103970745112,0.001,68.1080142935,-6500.0,0.0,-300.0,0.0
1513265283707727984,,520645,,1513265281,926751426,'',0.383972435439,0.394352701757,-0.0156488630368,0.010380266318,0.001,62.8832346605,-6500.0,0.0,-300.0,0.0
1513265283717833466,,520646,,1513265281,936751426,'',0.383972435439,0.3943241857,0.00267629872744,0.0103517502608,0.001,68.0891942684,-6500.0,0.0,-300.0,0.0
1513265283728265026,,520647,,1513265281,946751426,'',0.383972435439,0.394348062984,0.00219196271215,0.0103756275455,0.001,68.0852325201,-6500.0,0.0,-300.0,0.0
1513265283738207259,,520648,,1513265281,956751426,'',0.383972435439,0.394321812865,0.00271740294269,0.0103493774264,0.001,68.0856606651,-6500.0,0.0,-300.0,0.0
1513265283748266269,,520649,,1513265281,966751426,'',0.383972435439,0.39426285734,-0.0138401988765,0.0102904219009,0.001,62.7101273563,-6500.0,0.0,-300.0,0.0
1513265283758089676,,520650,,1513265281,976751426,'',0.383972435439,0.394247316429,-0.0135334876531,0.01027488099,0.001,62.711675614,-6500.0,0.0,-300.0,0.0
1513265283767730557,,520651,,1513265281,986751426,'',0.383972435439,0.394235976393,-0.0133178606174,0.010263540954,0.001,62.6983184807,-6500.0,0.0,-300.0,0.0
1513265283777735244,,520652,,1513265281,996751426,'',0.383972435439,0.394192560247,-0.0124400482489,0.0102201248083,0.001,62.7598319273,-6500.0,0.0,-300.0,0.0
1513265283787681688,,520653,,1513265282,6751426,'',0.383972435439,0.394127674221,-0.0111312485271,0.0101552387825,0.001,62.5744638513,-6500.0,0.0,-300.0,0.0
1513265283797676428,,520654,,1513265282,16751426,'',0.383972435439,0.394141373922,0.00634829048434,0.0101689384831,0.001,68.013285186,-6500.0,0.0,-300.0,0.0
1513265283808111042,,520655,,1513265282,26751426,'',0.383972435439,0.394119455353,0.00679623095515,0.0101470199145,0.001,68.0061494496,-6500.0,0.0,-300.0,0.0
