rosbagTimestamp,header,seq,stamp,secs,nsecs,frame_id,set_point,process_value,process_value_dot,error,time_step,command,p,i,d,i_clamp
1513265279937584208,,520258,,1513265278,156751426,'',1.20427718388,1.19274444288,-0.0215778423285,-0.0115327409937,0.001,49.5907862731,4300.0,0.0,0.0,0.0
1513265279947614535,,520259,,1513265278,166751426,'',1.20427718388,1.19274444288,-0.0207508630351,-0.0115327409937,0.001,49.5907862731,4300.0,0.0,0.0,0.0
1513265279957953528,,520260,,1513265278,176751426,'',1.20427718388,1.19413207215,0.00738713898925,-0.0101451117298,0.001,43.6239804381,4300.0,0.0,0.0,0.0
1513265279967839584,,520261,,1513265278,186751426,'',1.20427718388,1.19274444288,-0.0209125874639,-0.0115327409937,0.001,49.5907862731,4300.0,0.0,0.0,0.0
1513265279977778046,,520262,,1513265278,196751426,'',1.20427718388,1.19274444288,-0.0206575485989,-0.0115327409937,0.001,49.5907862731,4300.0,0.0,0.0,0.0
1513265279987831170,,520263,,1513265278,206751426,'',1.20427718388,1.19413207215,0.00657409795053,-0.0101451117298,0.001,43.6239804381,4300.0,0.0,0.0,0.0
1513265279997797963,,520264,,1513265278,216751426,'',1.20427718388,1.19274444288,-0.0210477786676,-0.0115327409937,0.001,49.5907862731,4300.0,0.0,0.0,0.0
1513265280007741091,,520265,,1513265278,226751426,'',1.20427718388,1.19413207215,0.00618759716956,-0.0101451117298,0.001,43.6239804381,4300.0,0.0,0.0,0.0
1513265280017564901,,520266,,1513265278,236751426,'',1.20427718388,1.19413207215,0.0071146190418,-0.0101451117298,0.001,43.6239804381,4300.0,0.0,0.0,0.0
1513265280027987823,,520267,,1513265278,246751426,'',1.20427718388,1.19274444288,-0.020158746921,-0.0115327409937,0.001,49.5907862731,4300.0,0.0,0.0,0.0
1513265280037808352,,520268,,1513265278,256751426,'',1.20427718388,1.19274444288,-0.0195018409059,-0.0115327409937,0.001,49.5907862731,4300.0,0.0,0.0,0.0
1513265280047913783,,520269,,1513265278,266751426,'',1.20427718388,1.19413207215,0.00842287754388,-0.0101451117298,0.001,43.6239804381,4300.0,0.0,0.0,0.0
1513265280057845558,,520270,,1513265278,276751426,'',1.20427718388,1.19413207215,0.00844892663819,-0.0101451117298,0.001,43.6239804381,4300.0,0.0,0.0,0.0
1513265280067794062,,520271,,1513265278,286751426,'',1.20427718388,1.19413207215,0.00990283140341,-0.0101451117298,0.001,43.6239804381,4300.0,0.0,0.0,0.0
1513265280077719296,,520272,,1513265278,296751426,'',1.20427718388,1.19274444288,-0.0179280807784,-0.0115327409937,0.001,49.5907862731,4300.0,0.0,0.0,0.0
1513265280087577943,,520273,,1513265278,306751426,'',1.20427718388,1.19274444288,-0.016657601668,-0.0115327409937,0.001,49.5907862731,4300.0,0.0,0.0,0.0
1513265280097539643,,520274,,1513265278,316751426,'',1.20427718388,1.19274444288,-0.0166895444059,-0.0115327409937,0.001,49.5907862731,4300.0,0.0,0.0,0.0
1513265280107515406,,520275,,1513265278,326751426,'',1.20427718388,1.19274444288,-0.0150795097035,-0.0115327409937,0.001,49.5907862731,4300.0,0.0,0.0,0.0
1513265280117504143,,520276,,1513265278,336751426,'',1.20427718388,1.19274444288,-0.016345776335,-0.0115327409937,0.001,49.5907862731,4300.0,0.0,0.0,0.0
1513265280127964131,,520277,,1513265278,346751426,'',1.20427718388,1.19274444288,-0.017912676466,-0.0115327409937,0.001,49.5907862731,4300.0,0.0,0.0,0.0
1513265280137742183,,520278,,1513265278,356751426,'',1.20427718388,1.19274444288,-0.0176813652958,-0.0115327409937,0.001,49.5907862731,4300.0,0.0,0.0,0.0
1513265280147924953,,520279,,1513265278,366751426,'',1.20427718388,1.19274444288,-0.017529091712,-0.0115327409937,0.001,49.5907862731,4300.0,0.0,0.0,0.0
1513265280157796460,,520280,,1513265278,376751426,'',1.20427718388,1.19413207215,0.0099795460924,-0.0101451117298,0.001,43.6239804381,4300.0,0.0,0.0,0.0
1513265280167707673,,520281,,1513265278,386751426,'',1.20427718388,1.19274444288,-0.0183253059998,-0.0115327409937,0.001,49.5907862731,4300.0,0.0,0.0,0.0
1513265280177609065,,520282,,1513265278,396751426,'',1.20427718388,1.19274444288,-0.0185360970814,-0.0115327409937,0.001,49.5907862731,4300.0,0.0,0.0,0.0
1513265280187617214,,520283,,1513265278,406751426,'',1.20427718388,1.19413207215,0.00878627210325,-0.0101451117298,0.001,43.6239804381,4300.0,0.0,0.0,0.0
1513265280197516077,,520284,,1513265278,416751426,'',1.20427718388,1.19413207215,0.0112305776764,-0.0101451117298,0.001,43.6239804381,4300.0,0.0,0.0,0.0
1513265280207575839,,520285,,1513265278,426751426,'',1.20427718388,1.19274444288,-0.0162507348314,-0.0115327409937,0.001,49.5907862731,4300.0,0.0,0.0,0.0
1513265280217455943,,520286,,1513265278,436751426,'',1.20427718388,1.19413207215,0.0111114669169,-0.0101451117298,0.001,43.6239804381,4300.0,0.0,0.0,0.0
1513265280227943936,,520287,,1513265278,446751426,'',1.20427718388,1.19274444288,-0.0157870085692,-0.0115327409937,0.001,49.5907862731,4300.0,0.0,0.0,0.0
1513265280237903943,,520288,,1513265278,456751426,'',1.20427718388,1.19413207215,0.0131346353712,-0.0101451117298,0.001,43.6239804381,4300.0,0.0,0.0,0.0
1513265280247902326,,520289,,1513265278,466751426,'',1.20427718388,1.19274444288,-0.0148140199767,-0.0115327409937,0.001,49.5907862731,4300.0,0.0,0.0,0.0
1513265280257795453,,520290,,1513265278,476751426,'',1.20427718388,1.19274444288,-0.0156581870687,-0.0115327409937,0.001,49.5907862731,4300.0,0.0,0.0,0.0
1513265280267767744,,520291,,1513265278,486751426,'',1.20427718388,1.19274444288,-0.0158640732537,-0.0115327409937,0.001,49.5907862731,4300.0,0.0,0.0,0.0
1513265280277781743,,520292,,1513265278,496751426,'',1.20427718388,1.19413207215,0.0124487493814,-0.0101451117298,0.001,43.6239804381,4300.0,0.0,0.0,0.0
1513265280287765783,,520293,,1513265278,506751426,'',1.20427718388,1.19274444288,-0.0147315964085,-0.0115327409937,0.001,49.5907862731,4300.0,0.0,0.0,0.0
1513265280297668438,,520294,,1513265278,516751426,'',1.20427718388,1.19274444288,-0.0140433986613,-0.0115327409937,0.001,49.5907862731,4300.0,0.0,0.0,0.0
1513265280307606650,,520295,,1513265278,526751426,'',1.20427718388,1.19274444288,-0.0150654015972,-0.0115327409937,0.001,49.5907862731,4300.0,0.0,0.0,0.0
1513265280318101848,,520296,,1513265278,536751426,'',1.20427718388,1.19551970141,0.0400748847801,-0.00875748246584,0.001,37.6571746031,4300.0,0.0,0.0,0.0
1513265280327940296,,520297,,1513265278,546751426,'',1.20427718388,1.19413207215,0.0113788593158,-0.0101451117298,0.001,43.6239804381,4300.0,0.0,0.0,0.0
1513265280338047300,,520298,,1513265278,556751426,'',1.20427718388,1.19413207215,0.0128567692071,-0.0101451117298,0.001,43.6239804381,4300.0,0.0,0.0,0.0
1513265280347871804,,520299,,1513265278,566751426,'',1.20427718388,1.19413207215,0.0135706069968,-0.0101451117298,0.001,43.6239804381,4300.0,0.0,0.0,0.0
1513265280357813566,,520300,,1513265278,576751426,'',1.20427718388,1.19413207215,0.01260088434,-0.0101451117298,0.001,43.6239804381,4300.0,0.0,0.0,0.0
1513265280367762988,,520301,,1513265278,586751426,'',1.20427718388,1.19413207215,0.0122746699672,-0.0101451117298,0.001,43.6239804381,4300.0,0.0,0.0,0.0
1513265280377661262,,520302,,1513265278,596751426,'',1.20427718388,1.19413207215,0.0135898546935,-0.0101451117298,0.001,43.6239804381,4300.0,0.0,0.0,0.0
1513265280387975938,,520303,,1513265278,606751426,'',1.20427718388,1.19413207215,0.0130601228716,-0.0101451117298,0.001,43.6239804381,4300.0,0.0,0.0,0.0
1513265280397971533,,520304,,1513265278,616751426,'',1.20427718388,1.19274444288,-0.0152958840104,-0.0115327409937,0.001,49.5907862731,4300.0,0.0,0.0,0.0
1513265280407811054,,520305,,1513265278,626751426,'',1.20427718388,1.19274444288,-0.0140933194828,-0.0115327409937,0.001,49.5907862731,4300.0,0.0,0.0,0.0
1513265280417742072,,520306,,1513265278,636751426,'',1.20427718388,1.19413207215,0.0129405756634,-0.0101451117298,0.001,43.6239804381,4300.0,0.0,0.0,0.0
1513265280427738618,,520307,,1513265278,646751426,'',1.20427718388,1.19274444288,-0.0144714546361,-0.0115327409937,0.001,49.5907862731,4300.0,0.0,0.0,0.0
1513265280437737185,,520308,,1513265278,656751426,'',1.20427718388,1.19413207215,0.0146242894183,-0.0101451117298,0.001,43.6239804381,4300.0,0.0,0.0,0.0
1513265280447714781,,520309,,1513265278,666751426,'',1.20427718388,1.19274444288,-0.0124277243018,-0.0115327409937,0.001,49.5907862731,4300.0,0.0,0.0,0.0
1513265280457970557,,520310,,1513265278,676751426,'',1.20427718388,1.19413207215,0.0137259726789,-0.0101451117298,0.001,43.6239804381,4300.0,0.0,0.0,0.0
1513265280467966648,,520311,,1513265278,686751426,'',1.20427718388,1.19274444288,-0.0141881896645,-0.0115327409937,0.001,49.5907862731,4300.0,0.0,0.0,0.0
1513265280477941033,,520312,,1513265278,696751426,'',1.20427718388,1.19274444288,-0.0141514401897,-0.0115327409937,0.001,49.5907862731,4300.0,0.0,0.0,0.0
1513265280487859087,,520313,,1513265278,706751426,'',1.20427718388,1.19274444288,-0.0150512079067,-0.0115327409937,0.001,49.5907862731,4300.0,0.0,0.0,0.0
1513265280497679975,,520314,,1513265278,716751426,'',1.20427718388,1.19413207215,0.0130880992412,-0.0101451117298,0.001,43.6239804381,4300.0,0.0,0.0,0.0
1513265280507725593,,520315,,1513265278,726751426,'',1.20427718388,1.19274444288,-0.0147603246468,-0.0115327409937,0.001,49.5907862731,4300.0,0.0,0.0,0.0
1513265280517791614,,520316,,1513265278,736751426,'',1.20427718388,1.19274444288,-0.0140229246719,-0.0115327409937,0.001,49.5907862731,4300.0,0.0,0.0,0.0
1513265280527585365,,520317,,1513265278,746751426,'',1.20427718388,1.19413207215,0.0144828143749,-0.0101451117298,0.001,43.6239804381,4300.0,0.0,0.0,0.0
1513265280537519647,,520318,,1513265278,756751426,'',1.20427718388,1.19274444288,-0.0126154481562,-0.0115327409937,0.001,49.5907862731,4300.0,0.0,0.0,0.0
1513265280547465154,,520319,,1513265278,766751426,'',1.20427718388,1.19413207215,0.0151516338484,-0.0101451117298,0.001,43.6239804381,4300.0,0.0,0.0,0.0
1513265280557943173,,520320,,1513265278,776751426,'',1.20427718388,1.19274444288,-0.0131266072594,-0.0115327409937,0.001,49.5907862731,4300.0,0.0,0.0,0.0
1513265280567764211,,520321,,1513265278,786751426,'',1.20427718388,1.19413207215,0.0152297336626,-0.0101451117298,0.001,43.6239804381,4300.0,0.0,0.0,0.0
1513265280577763200,,520322,,1513265278,796751426,'',1.20427718388,1.19274444288,-0.0134866567497,-0.0115327409937,0.001,49.5907862731,4300.0,0.0,0.0,0.0
1513265280587647279,,520323,,1513265278,806751426,'',1.20427718388,1.19274444288,-0.013058882875,-0.0115327409937,0.001,49.5907862731,4300.0,0.0,0.0,0.0
1513265280597999607,,520324,,1513265278,816751426,'',1.20427718388,1.19274444288,-0.0142189523225,-0.0115327409937,0.001,49.5907862731,4300.0,0.0,0.0,0.0
1513265280607946651,,520325,,1513265278,826751426,'',1.20427718388,1.19274444288,-0.0161375157802,-0.0115327409937,0.001,49.5907862731,4300.0,0.0,0.0,0.0
1513265280617793454,,520326,,1513265278,836751426,'',1.20427718388,1.19413207215,0.0112246501937,-0.0101451117298,0.001,43.6239804381,4300.0,0.0,0.0,0.0
1513265280627775331,,520327,,1513265278,846751426,'',1.20427718388,1.19413207215,0.0117078045835,-0.0101451117298,0.001,43.6239804381,4300.0,0.0,0.0,0.0
1513265280637580804,,520328,,1513265278,856751426,'',1.20427718388,1.19274444288,-0.0174631923711,-0.0115327409937,0.001,49.5907862731,4300.0,0.0,0.0,0.0
1513265280647612725,,520329,,1513265278,866751426,'',1.20427718388,1.19413207215,0.0102170808583,-0.0101451117298,0.001,43.6239804381,4300.0,0.0,0.0,0.0
1513265280657486387,,520330,,1513265278,876751426,'',1.20427718388,1.19274444288,-0.0180811933884,-0.0115327409937,0.001,49.5907862731,4300.0,0.0,0.0,0.0
1513265280668049174,,520331,,1513265278,886751426,'',1.20427718388,1.19413207215,0.0101023854606,-0.0101451117298,0.001,43.6239804381,4300.0,0.0,0.0,0.0
1513265280677831753,,520332,,1513265278,896751426,'',1.20427718388,1.19413207215,0.00968455702147,-0.0101451117298,0.001,43.6239804381,4300.0,0.0,0.0,0.0
1513265280687915096,,520333,,1513265278,906751426,'',1.20427718388,1.19413207215,0.00936864944224,-0.0101451117298,0.001,43.6239804381,4300.0,0.0,0.0,0.0
1513265280697906462,,520334,,1513265278,916751426,'',1.20427718388,1.19274444288,-0.0187198752603,-0.0115327409937,0.001,49.5907862731,4300.0,0.0,0.0,0.0
1513265280707775809,,520335,,1513265278,926751426,'',1.20427718388,1.19413207215,0.00762466389238,-0.0101451117298,0.001,43.6239804381,4300.0,0.0,0.0,0.0
1513265280717573875,,520336,,1513265278,936751426,'',1.20427718388,1.19413207215,0.00872079022057,-0.0101451117298,0.001,43.6239804381,4300.0,0.0,0.0,0.0
1513265280728015757,,520337,,1513265278,946751426,'',1.20427718388,1.19413207215,0.0081803952278,-0.0101451117298,0.001,43.6239804381,4300.0,0.0,0.0,0.0
1513265280737896340,,520338,,1513265278,956751426,'',1.20427718388,1.19413207215,0.00779385123845,-0.0101451117298,0.001,43.6239804381,4300.0,0.0,0.0,0.0
1513265280747826587,,520339,,1513265278,966751426,'',1.20427718388,1.19274444288,-0.0191164383412,-0.0115327409937,0.001,49.5907862731,4300.0,0.0,0.0,0.0
1513265280757678119,,520340,,1513265278,976751426,'',1.20427718388,1.19413207215,0.00984898444608,-0.0101451117298,0.001,43.6239804381,4300.0,0.0,0.0,0.0
1513265280767528208,,520341,,1513265278,986751426,'',1.20427718388,1.19274444288,-0.0148908551836,-0.0115327409937,0.001,49.5907862731,4300.0,0.0,0.0,0.0
1513265280777919437,,520342,,1513265278,996751426,'',1.20427718388,1.19551970141,0.0402145517728,-0.00875748246584,0.001,37.6571746031,4300.0,0.0,0.0,0.0
1513265280787874937,,520343,,1513265279,6751426,'',1.20427718388,1.19413207215,0.0114599263585,-0.0101451117298,0.001,43.6239804381,4300.0,0.0,0.0,0.0
1513265280797815780,,520344,,1513265279,16751426,'',1.20427718388,1.19274444288,-0.0170623496827,-0.0115327409937,0.001,49.5907862731,4300.0,0.0,0.0,0.0
1513265280807740636,,520345,,1513265279,26751426,'',1.20427718388,1.19274444288,-0.016449721781,-0.0115327409937,0.001,49.5907862731,4300.0,0.0,0.0,0.0
1513265280817703118,,520346,,1513265279,36751426,'',1.20427718388,1.19413207215,0.0115460817932,-0.0101451117298,0.001,43.6239804381,4300.0,0.0,0.0,0.0
1513265280827652320,,520347,,1513265279,46751426,'',1.20427718388,1.19413207215,0.012431802707,-0.0101451117298,0.001,43.6239804381,4300.0,0.0,0.0,0.0
1513265280837597964,,520348,,1513265279,56751426,'',1.20427718388,1.19413207215,0.0121523391677,-0.0101451117298,0.001,43.6239804381,4300.0,0.0,0.0,0.0
1513265280847615760,,520349,,1513265279,66751426,'',1.20427718388,1.19413207215,0.0114348920513,-0.0101451117298,0.001,43.6239804381,4300.0,0.0,0.0,0.0
1513265280857965011,,520350,,1513265279,76751426,'',1.20427718388,1.19413207215,0.0113002012958,-0.0101451117298,0.001,43.6239804381,4300.0,0.0,0.0,0.0
1513265280867794500,,520351,,1513265279,86751426,'',1.20427718388,1.19413207215,0.0116549835123,-0.0101451117298,0.001,43.6239804381,4300.0,0.0,0.0,0.0
1513265280877759501,,520352,,1513265279,96751426,'',1.20427718388,1.19413207215,0.0120177544423,-0.0101451117298,0.001,43.6239804381,4300.0,0.0,0.0,0.0
1513265280887707138,,520353,,1513265279,106751426,'',1.20427718388,1.19274444288,-0.0161558216854,-0.0115327409937,0.001,49.5907862731,4300.0,0.0,0.0,0.0
1513265280897732856,,520354,,1513265279,116751426,'',1.20427718388,1.19274444288,-0.0147512746724,-0.0115327409937,0.001,49.5907862731,4300.0,0.0,0.0,0.0
1513265280907677385,,520355,,1513265279,126751426,'',1.20427718388,1.19274444288,-0.0140743261338,-0.0115327409937,0.001,49.5907862731,4300.0,0.0,0.0,0.0
1513265280917689298,,520356,,1513265279,136751426,'',1.20427718388,1.19274444288,-0.0134718715903,-0.0115327409937,0.001,49.5907862731,4300.0,0.0,0.0,0.0
1513265280927723317,,520357,,1513265279,146751426,'',1.20427718388,1.19274444288,-0.0145526998626,-0.0115327409937,0.001,49.5907862731,4300.0,0.0,0.0,0.0
1513265280937509150,,520358,,1513265279,156751426,'',1.20427718388,1.19274444288,-0.0149655613719,-0.0115327409937,0.001,49.5907862731,4300.0,0.0,0.0,0.0
1513265280947543863,,520359,,1513265279,166751426,'',1.20427718388,1.19413207215,0.0117263639989,-0.0101451117298,0.001,43.6239804381,4300.0,0.0,0.0,0.0
1513265280958117532,,520360,,1513265279,176751426,'',1.20427718388,1.19413207215,0.0115754354405,-0.0101451117298,0.001,43.6239804381,4300.0,0.0,0.0,0.0
1513265280967955908,,520361,,1513265279,186751426,'',1.20427718388,1.19413207215,0.00836959212329,-0.0101451117298,0.001,43.6239804381,4300.0,0.0,0.0,0.0
1513265280977780596,,520362,,1513265279,196751426,'',1.20427718388,1.19551970141,0.0338549484924,-0.00875748246584,0.001,37.6571746031,4300.0,0.0,0.0,0.0
1513265280987770811,,520363,,1513265279,206751426,'',1.20427718388,1.19551970141,0.0297565696435,-0.00875748246584,0.001,37.6571746031,4300.0,0.0,0.0,0.0
1513265280997669943,,520364,,1513265279,216751426,'',1.20427718388,1.19551970141,0.0218454905797,-0.00875748246584,0.001,37.6571746031,4300.0,0.0,0.0,0.0
1513265281007593516,,520365,,1513265279,226751426,'',1.20427718388,1.19551970141,0.013858254871,-0.00875748246584,0.001,37.6571746031,4300.0,0.0,0.0,0.0
1513265281018107798,,520366,,1513265279,236751426,'',1.20427718388,1.19551970141,0.00686471268059,-0.00875748246584,0.001,37.6571746031,4300.0,0.0,0.0,0.0
1513265281027962785,,520367,,1513265279,246751426,'',1.20427718388,1.19829495994,0.0575690052995,-0.00598222393793,0.001,25.7235629331,4300.0,0.0,0.0,0.0
1513265281037864691,,520368,,1513265279,256751426,'',1.20427718388,1.19690733067,0.0256698593861,-0.00736985320188,0.001,31.6903687681,4300.0,0.0,0.0,0.0
1513265281047692194,,520369,,1513265279,266751426,'',1.20427718388,1.19690733067,0.0219858857119,-0.00736985320188,0.001,31.6903687681,4300.0,0.0,0.0,0.0
1513265281057633870,,520370,,1513265279,276751426,'',1.20427718388,1.19690733067,0.0179504339216,-0.00736985320188,0.001,31.6903687681,4300.0,0.0,0.0,0.0
1513265281067844444,,520371,,1513265279,286751426,'',1.20427718388,1.19690733067,0.0126434103079,-0.00736985320188,0.001,31.6903687681,4300.0,0.0,0.0,0.0
1513265281077742181,,520372,,1513265279,296751426,'',1.20427718388,1.1996825892,0.0597128339807,-0.00459459467398,0.001,19.7567570981,4300.0,0.0,0.0,0.0
1513265281088101560,,520373,,1513265279,306751426,'',1.20427718388,1.1996825892,0.049342746248,-0.00459459467398,0.001,19.7567570981,4300.0,0.0,0.0,0.0
1513265281097945329,,520374,,1513265279,316751426,'',1.20427718388,1.20107021847,0.0663823292563,-0.00320696541002,0.001,13.7899512631,4300.0,0.0,0.0,0.0
1513265281107904994,,520375,,1513265279,326751426,'',1.20427718388,1.20107021847,0.0562939043021,-0.00320696541002,0.001,13.7899512631,4300.0,0.0,0.0,0.0
1513265281117886879,,520376,,1513265279,336751426,'',1.20427718388,1.20107021847,0.0481900639184,-0.00320696541002,0.001,13.7899512631,4300.0,0.0,0.0,0.0
1513265281127783678,,520377,,1513265279,346751426,'',1.20427718388,1.20107021847,0.0379898723087,-0.00320696541002,0.001,13.7899512631,4300.0,0.0,0.0,0.0
1513265281137747150,,520378,,1513265279,356751426,'',1.20427718388,1.20107021847,0.0296315859737,-0.00320696541002,0.001,13.7899512631,4300.0,0.0,0.0,0.0
1513265281147644342,,520379,,1513265279,366751426,'',1.20427718388,1.20245784773,0.0487461679935,-0.00181933614607,0.001,7.82314542811,4300.0,0.0,0.0,0.0
1513265281157581180,,520380,,1513265279,376751426,'',1.20427718388,1.20245784773,0.0393406126826,-0.00181933614607,0.001,7.82314542811,4300.0,0.0,0.0,0.0
1513265281167585278,,520381,,1513265279,386751426,'',1.20427718388,1.20384547699,0.0561028588156,-0.000431706882118,0.001,1.85633959311,4300.0,0.0,0.0,0.0
1513265281177516316,,520382,,1513265279,396751426,'',1.20427718388,1.20384547699,0.0464044813506,0.0,0.001,0.0,4300.0,0.0,0.0,0.0
1513265281188067844,,520383,,1513265279,406751426,'',1.20427718388,1.20384547699,0.0358532279594,0.0,0.001,0.0,4300.0,0.0,0.0,0.0
1513265281197892987,,520384,,1513265279,416751426,'',1.20427718388,1.20523310626,0.0537765547148,0.0,0.001,0.0,4300.0,0.0,0.0,0.0
1513265281207727963,,520385,,1513265279,426751426,'',1.20427718388,1.20662073552,0.0719519299316,0.0,0.001,0.0,4300.0,0.0,0.0,0.0
1513265281217745449,,520386,,1513265279,436751426,'',1.20427718388,1.20662073552,0.0624419995619,0.0,0.001,0.0,4300.0,0.0,0.0,0.0
1513265281227563152,,520387,,1513265279,446751426,'',1.20427718388,1.20662073552,0.0510603188122,0.0,0.001,0.0,4300.0,0.0,0.0,0.0
1513265281238071179,,520388,,1513265279,456751426,'',1.20427718388,1.20662073552,0.0403383893304,0.0,0.001,0.0,4300.0,0.0,0.0,0.0
1513265281247528896,,520389,,1513265279,466751426,'',1.20427718388,1.20800836479,0.0568926126846,0.0,0.001,0.0,4300.0,0.0,0.0,0.0
1513265281257950524,,520390,,1513265279,476751426,'',1.20427718388,1.20939599405,0.073948873354,0.0,0.001,0.0,4300.0,0.0,0.0,0.0
1513265281267995707,,520391,,1513265279,486751426,'',1.20427718388,1.20939599405,0.0640354233455,0.0,0.001,0.0,4300.0,0.0,0.0,0.0
1513265281277788470,,520392,,1513265279,496751426,'',1.20427718388,1.20939599405,0.0524445328853,0.0,0.001,0.0,4300.0,0.0,0.0,0.0
1513265281287585511,,520393,,1513265279,506751426,'',1.20427718388,1.20939599405,0.0383893522953,0.0,0.001,0.0,4300.0,0.0,0.0,0.0
1513265281297612485,,520394,,1513265279,516751426,'',1.20427718388,1.20939599405,0.0268800751317,0.0,0.001,0.0,4300.0,0.0,0.0,0.0
1513265281307633214,,520395,,1513265279,526751426,'',1.20427718388,1.21217125258,0.0688979308211,0.0,0.001,0.0,4300.0,0.0,0.0,0.0
1513265281317657864,,520396,,1513265279,536751426,'',1.20427718388,1.21355888184,0.0834055252051,0.0,0.001,0.0,4300.0,0.0,0.0,0.0
1513265281327998762,,520397,,1513265279,546751426,'',1.20427718388,1.21217125258,0.0443778952054,0.0,0.001,0.0,4300.0,0.0,0.0,0.0
1513265281337961443,,520398,,1513265279,556751426,'',1.20427718388,1.21217125258,0.0342828772657,0.0,0.001,0.0,4300.0,0.0,0.0,0.0
1513265281348002739,,520399,,1513265279,566751426,'',1.20427718388,1.21355888184,0.0510261384146,0.0,0.001,0.0,4300.0,0.0,0.0,0.0
1513265281357854024,,520400,,1513265279,576751426,'',1.20427718388,1.21355888184,0.0407259639421,0.0,0.001,0.0,4300.0,0.0,0.0,0.0
1513265281367794979,,520401,,1513265279,586751426,'',1.20427718388,1.21494651111,0.0577187853748,0.0,0.001,0.0,4300.0,0.0,0.0,0.0
1513265281377740001,,520402,,1513265279,596751426,'',1.20427718388,1.21494651111,0.048735643443,0.0,0.001,0.0,4300.0,0.0,0.0,0.0
1513265281388069103,,520403,,1513265279,606751426,'',1.20427718388,1.21355888184,0.0123678092605,0.0,0.001,0.0,4300.0,0.0,0.0,0.0
1513265281398096349,,520404,,1513265279,616751426,'',1.20427718388,1.21494651111,0.0315377186436,0.0106693272295,0.001,-45.8781070869,4300.0,0.0,0.0,0.0
1513265281407902950,,520405,,1513265279,626751426,'',1.20427718388,1.21633414037,0.0492668537244,0.0120569564935,0.001,-51.8449129219,4300.0,0.0,0.0,0.0
1513265281417818467,,520406,,1513265279,636751426,'',1.20427718388,1.21494651111,0.0122659084275,0.0106693272295,0.001,-45.8781070869,4300.0,0.0,0.0,0.0
1513265281427761762,,520407,,1513265279,646751426,'',1.20427718388,1.21633414037,0.0310676794454,0.0120569564935,0.001,-51.8449129219,4300.0,0.0,0.0,0.0
1513265281437746239,,520408,,1513265279,656751426,'',1.20427718388,1.21772176963,0.049430894187,0.0134445857574,0.001,-57.8117187569,4300.0,0.0,0.0,0.0
1513265281447641487,,520409,,1513265279,666751426,'',1.20427718388,1.2191093989,0.0689849377554,0.0148322150214,0.001,-63.7785245919,4300.0,0.0,0.0,0.0
1513265281457698643,,520410,,1513265279,676751426,'',1.20427718388,1.21772176963,0.0334798275976,0.0134445857574,0.001,-57.8117187569,4300.0,0.0,0.0,0.0
1513265281467733188,,520411,,1513265279,686751426,'',1.20427718388,1.21772176963,0.0258888612116,0.0134445857574,0.001,-57.8117187569,4300.0,0.0,0.0,0.0
1513265281477815221,,520412,,1513265279,696751426,'',1.20427718388,1.2191093989,0.0466520935411,0.0148322150214,0.001,-63.7785245919,4300.0,0.0,0.0,0.0
1513265281487647947,,520413,,1513265279,706751426,'',1.20427718388,1.21772176963,0.0107228072599,0.0134445857574,0.001,-57.8117187569,4300.0,0.0,0.0,0.0
1513265281497583596,,520414,,1513265279,716751426,'',1.20427718388,1.2191093989,0.0316984871198,0.0148322150214,0.001,-63.7785245919,4300.0,0.0,0.0,0.0
1513265281508052926,,520415,,1513265279,726751426,'',1.20427718388,1.2191093989,0.0253682839654,0.0148322150214,0.001,-63.7785245919,4300.0,0.0,0.0,0.0
1513265281517917810,,520416,,1513265279,736751426,'',1.20427718388,1.22049702816,0.0462279327356,0.0162198442853,0.001,-69.7453304269,4300.0,0.0,0.0,0.0
1513265281527780301,,520417,,1513265279,746751426,'',1.20427718388,1.2191093989,0.0138606358344,0.0148322150214,0.001,-63.7785245919,4300.0,0.0,0.0,0.0
1513265281537756732,,520418,,1513265279,756751426,'',1.20427718388,1.22049702816,0.035833165099,0.0162198442853,0.001,-69.7453304269,4300.0,0.0,0.0,0.0
1513265281547667382,,520419,,1513265279,766751426,'',1.20427718388,1.2191093989,0.00483577471554,0.0148322150214,0.001,-63.7785245919,4300.0,0.0,0.0,0.0
1513265281557834756,,520420,,1513265279,776751426,'',1.20427718388,1.22049702816,0.0283655527093,0.0162198442853,0.001,-69.7453304269,4300.0,0.0,0.0,0.0
1513265281567702591,,520421,,1513265279,786751426,'',1.20427718388,1.22049702816,0.0241147234325,0.0162198442853,0.001,-69.7453304269,4300.0,0.0,0.0,0.0
1513265281577685652,,520422,,1513265279,796751426,'',1.20427718388,1.22049702816,0.0207899910858,0.0162198442853,0.001,-69.7453304269,4300.0,0.0,0.0,0.0
1513265281587924495,,520423,,1513265279,806751426,'',1.20427718388,1.22049702816,0.0175005737563,0.0162198442853,0.001,-69.7453304269,4300.0,0.0,0.0,0.0
1513265281597941336,,520424,,1513265279,816751426,'',1.20427718388,1.22188465743,0.0413142684088,0.0176074735493,0.001,-75.7121362619,4300.0,0.0,0.0,0.0
1513265281607688774,,520425,,1513265279,826751426,'',1.20427718388,1.22049702816,0.0088731610332,0.0162198442853,0.001,-69.7453304269,4300.0,0.0,0.0,0.0
1513265281617787667,,520426,,1513265279,836751426,'',1.20427718388,1.22049702816,0.00523613415755,0.0162198442853,0.001,-69.7453304269,4300.0,0.0,0.0,0.0
1513265281627733091,,520427,,1513265279,846751426,'',1.20427718388,1.22049702816,0.00126801233219,0.0162198442853,0.001,-69.7453304269,4300.0,0.0,0.0,0.0
1513265281637734754,,520428,,1513265279,856751426,'',1.20427718388,1.22188465743,0.0259633193342,0.0176074735493,0.001,-75.7121362619,4300.0,0.0,0.0,0.0
1513265281647680238,,520429,,1513265279,866751426,'',1.20427718388,1.22188465743,0.0222812318987,0.0176074735493,0.001,-75.7121362619,4300.0,0.0,0.0,0.0
1513265281658020274,,520430,,1513265279,876751426,'',1.20427718388,1.22188465743,0.0191853116416,0.0176074735493,0.001,-75.7121362619,4300.0,0.0,0.0,0.0
1513265281667990660,,520431,,1513265279,886751426,'',1.20427718388,1.22188465743,0.0147034121086,0.0176074735493,0.001,-75.7121362619,4300.0,0.0,0.0,0.0
1513265281677853727,,520432,,1513265279,896751426,'',1.20427718388,1.22188465743,0.0121098540004,0.0176074735493,0.001,-75.7121362619,4300.0,0.0,0.0,0.0
1513265281687725368,,520433,,1513265279,906751426,'',1.20427718388,1.22188465743,0.00886680770138,0.0176074735493,0.001,-75.7121362619,4300.0,0.0,0.0,0.0
1513265281697537435,,520434,,1513265279,916751426,'',1.20427718388,1.22188465743,0.00567344519696,0.0176074735493,0.001,-75.7121362619,4300.0,0.0,0.0,0.0
1513265281707600849,,520435,,1513265279,926751426,'',1.20427718388,1.22188465743,0.00365361374357,0.0176074735493,0.001,-75.7121362619,4300.0,0.0,0.0,0.0
1513265281718216890,,520436,,1513265279,936751426,'',1.20427718388,1.22188465743,0.00152054635286,0.0176074735493,0.001,-75.7121362619,4300.0,0.0,0.0,0.0
1513265281727552451,,520437,,1513265279,946751426,'',1.20427718388,1.22327228669,0.0273365914724,0.0189951028132,0.001,-81.6789420969,4300.0,0.0,0.0,0.0
1513265281737497177,,520438,,1513265279,956751426,'',1.20427718388,1.22327228669,0.0268967399296,0.0189951028132,0.001,-81.6789420969,4300.0,0.0,0.0,0.0
1513265281747859603,,520439,,1513265279,966751426,'',1.20427718388,1.22188465743,-0.0024371054306,0.0176074735493,0.001,-75.7121362619,4300.0,0.0,0.0,0.0
1513265281757813479,,520440,,1513265279,976751426,'',1.20427718388,1.22188465743,-0.00292465110498,0.0176074735493,0.001,-75.7121362619,4300.0,0.0,0.0,0.0
1513265281767834220,,520441,,1513265279,986751426,'',1.20427718388,1.22327228669,0.0230239767219,0.0189951028132,0.001,-81.6789420969,4300.0,0.0,0.0,0.0
1513265281777615944,,520442,,1513265279,996751426,'',1.20427718388,1.22327228669,0.0207936024462,0.0189951028132,0.001,-81.6789420969,4300.0,0.0,0.0,0.0
1513265281787533175,,520443,,1513265280,6751426,'',1.20427718388,1.22188465743,-0.0099886526233,0.0176074735493,0.001,-75.7121362619,4300.0,0.0,0.0,0.0
1513265281797535206,,520444,,1513265280,16751426,'',1.20427718388,1.22327228669,0.0172273554207,0.0189951028132,0.001,-81.6789420969,4300.0,0.0,0.0,0.0
1513265281808088253,,520445,,1513265280,26751426,'',1.20427718388,1.22327228669,0.016543001688,0.0189951028132,0.001,-81.6789420969,4300.0,0.0,0.0,0.0
1513265281817966809,,520446,,1513265280,36751426,'',1.20427718388,1.22188465743,-0.0108616267254,0.0176074735493,0.001,-75.7121362619,4300.0,0.0,0.0,0.0
1513265281827880555,,520447,,1513265280,46751426,'',1.20427718388,1.22327228669,0.0155132281722,0.0189951028132,0.001,-81.6789420969,4300.0,0.0,0.0,0.0
1513265281837798577,,520448,,1513265280,56751426,'',1.20427718388,1.22188465743,-0.0138113133951,0.0176074735493,0.001,-75.7121362619,4300.0,0.0,0.0,0.0
1513265281847784131,,520449,,1513265280,66751426,'',1.20427718388,1.22327228669,0.0131539195436,0.0189951028132,0.001,-81.6789420969,4300.0,0.0,0.0,0.0
1513265281858007766,,520450,,1513265280,76751426,'',1.20427718388,1.22188465743,-0.0143097972248,0.0176074735493,0.001,-75.7121362619,4300.0,0.0,0.0,0.0
1513265281868001034,,520451,,1513265280,86751426,'',1.20427718388,1.22188465743,-0.0127867759327,0.0176074735493,0.001,-75.7121362619,4300.0,0.0,0.0,0.0
1513265281878034633,,520452,,1513265280,96751426,'',1.20427718388,1.22327228669,0.0160350447493,0.0189951028132,0.001,-81.6789420969,4300.0,0.0,0.0,0.0
1513265281887859902,,520453,,1513265280,106751426,'',1.20427718388,1.22188465743,-0.0104268715442,0.0176074735493,0.001,-75.7121362619,4300.0,0.0,0.0,0.0
1513265281897727144,,520454,,1513265280,116751426,'',1.20427718388,1.22188465743,-0.0110722838192,0.0176074735493,0.001,-75.7121362619,4300.0,0.0,0.0,0.0
1513265281907911687,,520455,,1513265280,126751426,'',1.20427718388,1.22049702816,-0.0390713182582,0.0162198442853,0.001,-69.7453304269,4300.0,0.0,0.0,0.0
1513265281917831334,,520456,,1513265280,136751426,'',1.20427718388,1.22188465743,-0.0120270577168,0.0176074735493,0.001,-75.7121362619,4300.0,0.0,0.0,0.0
1513265281927631476,,520457,,1513265280,146751426,'',1.20427718388,1.22327228669,0.0172068218496,0.0189951028132,0.001,-81.6789420969,4300.0,0.0,0.0,0.0
1513265281937731853,,520458,,1513265280,156751426,'',1.20427718388,1.22327228669,0.0181066594858,0.0189951028132,0.001,-81.6789420969,4300.0,0.0,0.0,0.0
1513265281947726912,,520459,,1513265280,166751426,'',1.20427718388,1.22188465743,-0.0086043927063,0.0176074735493,0.001,-75.7121362619,4300.0,0.0,0.0,0.0
1513265281957670722,,520460,,1513265280,176751426,'',1.20427718388,1.22188465743,-0.0085474162699,0.0176074735493,0.001,-75.7121362619,4300.0,0.0,0.0,0.0
1513265281968051476,,520461,,1513265280,186751426,'',1.20427718388,1.22049702816,-0.0370359549273,0.0162198442853,0.001,-69.7453304269,4300.0,0.0,0.0,0.0
1513265281977881145,,520462,,1513265280,196751426,'',1.20427718388,1.22327228669,0.0185522334534,0.0189951028132,0.001,-81.6789420969,4300.0,0.0,0.0,0.0
1513265281987895389,,520463,,1513265280,206751426,'',1.20427718388,1.22327228669,0.016725985777,0.0189951028132,0.001,-81.6789420969,4300.0,0.0,0.0,0.0
1513265281997840516,,520464,,1513265280,216751426,'',1.20427718388,1.22049702816,-0.0392331607736,0.0162198442853,0.001,-69.7453304269,4300.0,0.0,0.0,0.0
1513265282007854810,,520465,,1513265280,226751426,'',1.20427718388,1.22188465743,-0.0116736757424,0.0176074735493,0.001,-75.7121362619,4300.0,0.0,0.0,0.0
1513265282017778707,,520466,,1513265280,236751426,'',1.20427718388,1.22327228669,0.0139777691954,0.0189951028132,0.001,-81.6789420969,4300.0,0.0,0.0,0.0
1513265282027619001,,520467,,1513265280,246751426,'',1.20427718388,1.22188465743,-0.0124653690602,0.0176074735493,0.001,-75.7121362619,4300.0,0.0,0.0,0.0
1513265282037624373,,520468,,1513265280,256751426,'',1.20427718388,1.22188465743,-0.0111940550807,0.0176074735493,0.001,-75.7121362619,4300.0,0.0,0.0,0.0
1513265282047617412,,520469,,1513265280,266751426,'',1.20427718388,1.22465991595,0.0432601652153,0.0203827320772,0.001,-87.6457479319,4300.0,0.0,0.0,0.0
1513265282057572258,,520470,,1513265280,276751426,'',1.20427718388,1.22327228669,0.0134071355995,0.0189951028132,0.001,-81.6789420969,4300.0,0.0,0.0,0.0
1513265282067928881,,520471,,1513265280,286751426,'',1.20427718388,1.22327228669,0.0115226705183,0.0189951028132,0.001,-81.6789420969,4300.0,0.0,0.0,0.0
1513265282077906592,,520472,,1513265280,296751426,'',1.20427718388,1.22188465743,-0.0165187549839,0.0176074735493,0.001,-75.7121362619,4300.0,0.0,0.0,0.0
1513265282087865859,,520473,,1513265280,306751426,'',1.20427718388,1.22327228669,0.0103977819145,0.0189951028132,0.001,-81.6789420969,4300.0,0.0,0.0,0.0
1513265282097921455,,520474,,1513265280,316751426,'',1.20427718388,1.22327228669,0.0109736105171,0.0189951028132,0.001,-81.6789420969,4300.0,0.0,0.0,0.0
1513265282107691027,,520475,,1513265280,326751426,'',1.20427718388,1.22327228669,0.00951836650747,0.0189951028132,0.001,-81.6789420969,4300.0,0.0,0.0,0.0
1513265282117626370,,520476,,1513265280,336751426,'',1.20427718388,1.22327228669,0.00982585638416,0.0189951028132,0.001,-81.6789420969,4300.0,0.0,0.0,0.0
1513265282127551327,,520477,,1513265280,346751426,'',1.20427718388,1.22327228669,0.0115752925004,0.0189951028132,0.001,-81.6789420969,4300.0,0.0,0.0,0.0
1513265282138016613,,520478,,1513265280,356751426,'',1.20427718388,1.22327228669,0.0124830704988,0.0189951028132,0.001,-81.6789420969,4300.0,0.0,0.0,0.0
1513265282148019181,,520479,,1513265280,366751426,'',1.20427718388,1.22188465743,-0.0157267030359,0.0176074735493,0.001,-75.7121362619,4300.0,0.0,0.0,0.0
1513265282157972172,,520480,,1513265280,376751426,'',1.20427718388,1.22327228669,0.0106140270675,0.0189951028132,0.001,-81.6789420969,4300.0,0.0,0.0,0.0
1513265282167845229,,520481,,1513265280,386751426,'',1.20427718388,1.22188465743,-0.0162589782092,0.0176074735493,0.001,-75.7121362619,4300.0,0.0,0.0,0.0
1513265282177801796,,520482,,1513265280,396751426,'',1.20427718388,1.22327228669,0.0100729877335,0.0189951028132,0.001,-81.6789420969,4300.0,0.0,0.0,0.0
1513265282187876647,,520483,,1513265280,406751426,'',1.20427718388,1.22327228669,0.0107186573769,0.0189951028132,0.001,-81.6789420969,4300.0,0.0,0.0,0.0
1513265282197549199,,520484,,1513265280,416751426,'',1.20427718388,1.22327228669,0.00976880640545,0.0189951028132,0.001,-81.6789420969,4300.0,0.0,0.0,0.0
1513265282207992202,,520485,,1513265280,426751426,'',1.20427718388,1.22188465743,-0.0178563601954,0.0176074735493,0.001,-75.7121362619,4300.0,0.0,0.0,0.0
1513265282217958753,,520486,,1513265280,436751426,'',1.20427718388,1.22188465743,-0.0181559006759,0.0176074735493,0.001,-75.7121362619,4300.0,0.0,0.0,0.0
1513265282227896512,,520487,,1513265280,446751426,'',1.20427718388,1.22188465743,-0.0193576693132,0.0176074735493,0.001,-75.7121362619,4300.0,0.0,0.0,0.0
1513265282237782523,,520488,,1513265280,456751426,'',1.20427718388,1.22327228669,0.00957570126744,0.0189951028132,0.001,-81.6789420969,4300.0,0.0,0.0,0.0
1513265282247741146,,520489,,1513265280,466751426,'',1.20427718388,1.22327228669,0.0118950779879,0.0189951028132,0.001,-81.6789420969,4300.0,0.0,0.0,0.0
1513265282257716184,,520490,,1513265280,476751426,'',1.20427718388,1.22188465743,-0.0141592988527,0.0176074735493,0.001,-75.7121362619,4300.0,0.0,0.0,0.0
1513265282268054584,,520491,,1513265280,486751426,'',1.20427718388,1.22188465743,-0.0125771479833,0.0176074735493,0.001,-75.7121362619,4300.0,0.0,0.0,0.0
1513265282278062637,,520492,,1513265280,496751426,'',1.20427718388,1.22188465743,-0.00976326898727,0.0176074735493,0.001,-75.7121362619,4300.0,0.0,0.0,0.0
1513265282287902867,,520493,,1513265280,506751426,'',1.20427718388,1.22327228669,0.0200426751182,0.0189951028132,0.001,-81.6789420969,4300.0,0.0,0.0,0.0
1513265282297676734,,520494,,1513265280,516751426,'',1.20427718388,1.22188465743,-0.00849469795854,0.0176074735493,0.001,-75.7121362619,4300.0,0.0,0.0,0.0
1513265282307750938,,520495,,1513265280,526751426,'',1.20427718388,1.22327228669,0.018606052318,0.0189951028132,0.001,-81.6789420969,4300.0,0.0,0.0,0.0
1513265282317620777,,520496,,1513265280,536751426,'',1.20427718388,1.22327228669,0.0182936284811,0.0189951028132,0.001,-81.6789420969,4300.0,0.0,0.0,0.0
1513265282327970104,,520497,,1513265280,546751426,'',1.20427718388,1.22327228669,0.0174670696828,0.0189951028132,0.001,-81.6789420969,4300.0,0.0,0.0,0.0
1513265282337802853,,520498,,1513265280,556751426,'',1.20427718388,1.22188465743,-0.0102414414777,0.0176074735493,0.001,-75.7121362619,4300.0,0.0,0.0,0.0
1513265282347706813,,520499,,1513265280,566751426,'',1.20427718388,1.22327228669,0.018001996132,0.0189951028132,0.001,-81.6789420969,4300.0,0.0,0.0,0.0
1513265282358089602,,520500,,1513265280,576751426,'',1.20427718388,1.22327228669,0.0177336159603,0.0189951028132,0.001,-81.6789420969,4300.0,0.0,0.0,0.0
1513265282368040583,,520501,,1513265280,586751426,'',1.20427718388,1.22188465743,-0.0104366366,0.0176074735493,0.001,-75.7121362619,4300.0,0.0,0.0,0.0
1513265282377849820,,520502,,1513265280,596751426,'',1.20427718388,1.22188465743,-0.0100331034391,0.0176074735493,0.001,-75.7121362619,4300.0,0.0,0.0,0.0
1513265282387780865,,520503,,1513265280,606751426,'',1.20427718388,1.22188465743,-0.0117090414041,0.0176074735493,0.001,-75.7121362619,4300.0,0.0,0.0,0.0
1513265282397613072,,520504,,1513265280,616751426,'',1.20427718388,1.22327228669,0.0154061275304,0.0189951028132,0.001,-81.6789420969,4300.0,0.0,0.0,0.0
1513265282407629726,,520505,,1513265280,626751426,'',1.20427718388,1.22327228669,0.015603054931,0.0189951028132,0.001,-81.6789420969,4300.0,0.0,0.0,0.0
1513265282417549654,,520506,,1513265280,636751426,'',1.20427718388,1.22327228669,0.0157444701137,0.0189951028132,0.001,-81.6789420969,4300.0,0.0,0.0,0.0
1513265282428069937,,520507,,1513265280,646751426,'',1.20427718388,1.22188465743,-0.0120104518218,0.0176074735493,0.001,-75.7121362619,4300.0,0.0,0.0,0.0
1513265282437985110,,520508,,1513265280,656751426,'',1.20427718388,1.22327228669,0.0156549124863,0.0189951028132,0.001,-81.6789420969,4300.0,0.0,0.0,0.0
1513265282447860920,,520509,,1513265280,666751426,'',1.20427718388,1.22188465743,-0.0101648170556,0.0176074735493,0.001,-75.7121362619,4300.0,0.0,0.0,0.0
1513265282457833343,,520510,,1513265280,676751426,'',1.20427718388,1.22188465743,-0.00984781285532,0.0176074735493,0.001,-75.7121362619,4300.0,0.0,0.0,0.0
1513265282468013433,,520511,,1513265280,686751426,'',1.20427718388,1.22327228669,0.0184398928494,0.0189951028132,0.001,-81.6789420969,4300.0,0.0,0.0,0.0
1513265282477644077,,520512,,1513265280,696751426,'',1.20427718388,1.22327228669,0.0175433096296,0.0189951028132,0.001,-81.6789420969,4300.0,0.0,0.0,0.0
1513265282487779076,,520513,,1513265280,706751426,'',1.20427718388,1.22188465743,-0.00865610787269,0.0176074735493,0.001,-75.7121362619,4300.0,0.0,0.0,0.0
1513265282497942485,,520514,,1513265280,716751426,'',1.20427718388,1.22188465743,-0.00851476635744,0.0176074735493,0.001,-75.7121362619,4300.0,0.0,0.0,0.0
1513265282507943363,,520515,,1513265280,726751426,'',1.20427718388,1.22188465743,-0.00795698210125,0.0176074735493,0.001,-75.7121362619,4300.0,0.0,0.0,0.0
1513265282517731164,,520516,,1513265280,736751426,'',1.20427718388,1.22188465743,-0.00707809898821,0.0176074735493,0.001,-75.7121362619,4300.0,0.0,0.0,0.0
1513265282527696007,,520517,,1513265280,746751426,'',1.20427718388,1.22188465743,-0.00735565021558,0.0176074735493,0.001,-75.7121362619,4300.0,0.0,0.0,0.0
1513265282537996608,,520518,,1513265280,756751426,'',1.20427718388,1.22327228669,0.019453282194,0.0189951028132,0.001,-81.6789420969,4300.0,0.0,0.0,0.0
1513265282547979602,,520519,,1513265280,766751426,'',1.20427718388,1.22188465743,-0.00797546556582,0.0176074735493,0.001,-75.7121362619,4300.0,0.0,0.0,0.0
1513265282557881995,,520520,,1513265280,776751426,'',1.20427718388,1.22049702816,-0.0345355538028,0.0162198442853,0.001,-69.7453304269,4300.0,0.0,0.0,0.0
1513265282567663748,,520521,,1513265280,786751426,'',1.20427718388,1.22049702816,-0.031916447001,0.0162198442853,0.001,-69.7453304269,4300.0,0.0,0.0,0.0
1513265282577704982,,520522,,1513265280,796751426,'',1.20427718388,1.22327228669,0.0247932280745,0.0189951028132,0.001,-81.6789420969,4300.0,0.0,0.0,0.0
1513265282587707327,,520523,,1513265280,806751426,'',1.20427718388,1.22188465743,-0.00419719879673,0.0176074735493,0.001,-75.7121362619,4300.0,0.0,0.0,0.0
1513265282597642256,,520524,,1513265280,816751426,'',1.20427718388,1.22327228669,0.0220448768594,0.0189951028132,0.001,-81.6789420969,4300.0,0.0,0.0,0.0
1513265282607640582,,520525,,1513265280,826751426,'',1.20427718388,1.22188465743,-0.00683609535952,0.0176074735493,0.001,-75.7121362619,4300.0,0.0,0.0,0.0
1513265282618132325,,520526,,1513265280,836751426,'',1.20427718388,1.22188465743,-0.00657362842832,0.0176074735493,0.001,-75.7121362619,4300.0,0.0,0.0,0.0
1513265282627944060,,520527,,1513265280,846751426,'',1.20427718388,1.22188465743,-0.00680880734777,0.0176074735493,0.001,-75.7121362619,4300.0,0.0,0.0,0.0
1513265282637877653,,520528,,1513265280,856751426,'',1.20427718388,1.22188465743,-0.00658139033665,0.0176074735493,0.001,-75.7121362619,4300.0,0.0,0.0,0.0
1513265282647823824,,520529,,1513265280,866751426,'',1.20427718388,1.22327228669,0.020596042312,0.0189951028132,0.001,-81.6789420969,4300.0,0.0,0.0,0.0
1513265282657792976,,520530,,1513265280,876751426,'',1.20427718388,1.22188465743,-0.00717225240352,0.0176074735493,0.001,-75.7121362619,4300.0,0.0,0.0,0.0
1513265282667692435,,520531,,1513265280,886751426,'',1.20427718388,1.22049702816,-0.0343345986927,0.0162198442853,0.001,-69.7453304269,4300.0,0.0,0.0,0.0
1513265282677703341,,520532,,1513265280,896751426,'',1.20427718388,1.22327228669,0.0202409283738,0.0189951028132,0.001,-81.6789420969,4300.0,0.0,0.0,0.0
1513265282687811541,,520533,,1513265280,906751426,'',1.20427718388,1.22327228669,0.0185200479253,0.0189951028132,0.001,-81.6789420969,4300.0,0.0,0.0,0.0
1513265282697760325,,520534,,1513265280,916751426,'',1.20427718388,1.22327228669,0.0171935572676,0.0189951028132,0.001,-81.6789420969,4300.0,0.0,0.0,0.0
1513265282707556347,,520535,,1513265280,926751426,'',1.20427718388,1.22327228669,0.0176322950381,0.0189951028132,0.001,-81.6789420969,4300.0,0.0,0.0,0.0
1513265282717683758,,520536,,1513265280,936751426,'',1.20427718388,1.22188465743,-0.010538271404,0.0176074735493,0.001,-75.7121362619,4300.0,0.0,0.0,0.0
1513265282728127224,,520537,,1513265280,946751426,'',1.20427718388,1.22327228669,0.0148275581034,0.0189951028132,0.001,-81.6789420969,4300.0,0.0,0.0,0.0
1513265282738018017,,520538,,1513265280,956751426,'',1.20427718388,1.22327228669,0.0131514068299,0.0189951028132,0.001,-81.6789420969,4300.0,0.0,0.0,0.0
1513265282747891515,,520539,,1513265280,966751426,'',1.20427718388,1.22327228669,0.0117407462095,0.0189951028132,0.001,-81.6789420969,4300.0,0.0,0.0,0.0
1513265282757761705,,520540,,1513265280,976751426,'',1.20427718388,1.22327228669,0.0120820215416,0.0189951028132,0.001,-81.6789420969,4300.0,0.0,0.0,0.0
1513265282767669582,,520541,,1513265280,986751426,'',1.20427718388,1.22188465743,-0.0146443365193,0.0176074735493,0.001,-75.7121362619,4300.0,0.0,0.0,0.0
1513265282778066831,,520542,,1513265280,996751426,'',1.20427718388,1.22188465743,-0.0134395193934,0.0176074735493,0.001,-75.7121362619,4300.0,0.0,0.0,0.0
1513265282787913206,,520543,,1513265281,6751426,'',1.20427718388,1.22188465743,-0.0134509850192,0.0176074735493,0.001,-75.7121362619,4300.0,0.0,0.0,0.0
1513265282797833197,,520544,,1513265281,16751426,'',1.20427718388,1.22327228669,0.0144042270406,0.0189951028132,0.001,-81.6789420969,4300.0,0.0,0.0,0.0
1513265282807846223,,520545,,1513265281,26751426,'',1.20427718388,1.22188465743,-0.0151159738357,0.0176074735493,0.001,-75.7121362619,4300.0,0.0,0.0,0.0
1513265282817719977,,520546,,1513265281,36751426,'',1.20427718388,1.22327228669,0.012037131478,0.0189951028132,0.001,-81.6789420969,4300.0,0.0,0.0,0.0
1513265282827963395,,520547,,1513265281,46751426,'',1.20427718388,1.22327228669,0.0118564022605,0.0189951028132,0.001,-81.6789420969,4300.0,0.0,0.0,0.0
1513265282837904253,,520548,,1513265281,56751426,'',1.20427718388,1.22188465743,-0.0162278799751,0.0176074735493,0.001,-75.7121362619,4300.0,0.0,0.0,0.0
1513265282847901761,,520549,,1513265281,66751426,'',1.20427718388,1.22188465743,-0.0158006164745,0.0176074735493,0.001,-75.7121362619,4300.0,0.0,0.0,0.0
1513265282857874620,,520550,,1513265281,76751426,'',1.20427718388,1.22049702816,-0.0409373948894,0.0162198442853,0.001,-69.7453304269,4300.0,0.0,0.0,0.0
1513265282867599673,,520551,,1513265281,86751426,'',1.20427718388,1.22049702816,-0.0405647750128,0.0162198442853,0.001,-69.7453304269,4300.0,0.0,0.0,0.0
1513265282877622992,,520552,,1513265281,96751426,'',1.20427718388,1.22049702816,-0.0397141718552,0.0162198442853,0.001,-69.7453304269,4300.0,0.0,0.0,0.0
1513265282887593836,,520553,,1513265281,106751426,'',1.20427718388,1.22049702816,-0.0395181488555,0.0162198442853,0.001,-69.7453304269,4300.0,0.0,0.0,0.0
1513265282898089121,,520554,,1513265281,116751426,'',1.20427718388,1.22188465743,-0.0104251746603,0.0176074735493,0.001,-75.7121362619,4300.0,0.0,0.0,0.0
1513265282908014868,,520555,,1513265281,126751426,'',1.20427718388,1.22327228669,0.0174101192027,0.0189951028132,0.001,-81.6789420969,4300.0,0.0,0.0,0.0
1513265282917981226,,520556,,1513265281,136751426,'',1.20427718388,1.22327228669,0.0202982131397,0.0189951028132,0.001,-81.6789420969,4300.0,0.0,0.0,0.0
1513265282927789512,,520557,,1513265281,146751426,'',1.20427718388,1.22188465743,-0.00481788197414,0.0176074735493,0.001,-75.7121362619,4300.0,0.0,0.0,0.0
1513265282937880154,,520558,,1513265281,156751426,'',1.20427718388,1.22188465743,-0.00303374787734,0.0176074735493,0.001,-75.7121362619,4300.0,0.0,0.0,0.0
1513265282947742613,,520559,,1513265281,166751426,'',1.20427718388,1.22327228669,0.0245951457507,0.0189951028132,0.001,-81.6789420969,4300.0,0.0,0.0,0.0
1513265282957643996,,520560,,1513265281,176751426,'',1.20427718388,1.22188465743,-0.00182302069478,0.0176074735493,0.001,-75.7121362619,4300.0,0.0,0.0,0.0
1513265282968028878,,520561,,1513265281,186751426,'',1.20427718388,1.22188465743,-0.00290511209616,0.0176074735493,0.001,-75.7121362619,4300.0,0.0,0.0,0.0
1513265282977955489,,520562,,1513265281,196751426,'',1.20427718388,1.22188465743,0.000194896029413,0.0176074735493,0.001,-75.7121362619,4300.0,0.0,0.0,0.0
1513265282987846865,,520563,,1513265281,206751426,'',1.20427718388,1.2191093989,-0.0558650006215,0.0148322150214,0.001,-63.7785245919,4300.0,0.0,0.0,0.0
1513265282997869163,,520564,,1513265281,216751426,'',1.20427718388,1.22188465743,0.0011720927949,0.0176074735493,0.001,-75.7121362619,4300.0,0.0,0.0,0.0
1513265283007787743,,520565,,1513265281,226751426,'',1.20427718388,1.22188465743,0.00141428788357,0.0176074735493,0.001,-75.7121362619,4300.0,0.0,0.0,0.0
1513265283017629800,,520566,,1513265281,236751426,'',1.20427718388,1.22188465743,0.00120498534568,0.0176074735493,0.001,-75.7121362619,4300.0,0.0,0.0,0.0
1513265283027978395,,520567,,1513265281,246751426,'',1.20427718388,1.22188465743,0.000971175432412,0.0176074735493,0.001,-75.7121362619,4300.0,0.0,0.0,0.0
1513265283037983088,,520568,,1513265281,256751426,'',1.20427718388,1.22188465743,0.00122644085616,0.0176074735493,0.001,-75.7121362619,4300.0,0.0,0.0,0.0
1513265283047915814,,520569,,1513265281,266751426,'',1.20427718388,1.22327228669,0.0284058409085,0.0189951028132,0.001,-81.6789420969,4300.0,0.0,0.0,0.0
1513265283057638709,,520570,,1513265281,276751426,'',1.20427718388,1.22188465743,0.000786166890514,0.0176074735493,0.001,-75.7121362619,4300.0,0.0,0.0,0.0
1513265283067686302,,520571,,1513265281,286751426,'',1.20427718388,1.22188465743,0.00158256054796,0.0176074735493,0.001,-75.7121362619,4300.0,0.0,0.0,0.0
1513265283077570565,,520572,,1513265281,296751426,'',1.20427718388,1.22049702816,-0.0236030532516,0.0162198442853,0.001,-69.7453304269,4300.0,0.0,0.0,0.0
1513265283088051143,,520573,,1513265281,306751426,'',1.20427718388,1.22188465743,0.00416407515862,0.0176074735493,0.001,-75.7121362619,4300.0,0.0,0.0,0.0
1513265283097982790,,520574,,1513265281,316751426,'',1.20427718388,1.22188465743,0.00384880289925,0.0176074735493,0.001,-75.7121362619,4300.0,0.0,0.0,0.0
1513265283107860580,,520575,,1513265281,326751426,'',1.20427718388,1.22188465743,0.00264190812557,0.0176074735493,0.001,-75.7121362619,4300.0,0.0,0.0,0.0
1513265283117911329,,520576,,1513265281,336751426,'',1.20427718388,1.22049702816,-0.0253003998169,0.0162198442853,0.001,-69.7453304269,4300.0,0.0,0.0,0.0
1513265283127963378,,520577,,1513265281,346751426,'',1.20427718388,1.22049702816,-0.0232412312405,0.0162198442853,0.001,-69.7453304269,4300.0,0.0,0.0,0.0
1513265283137981766,,520578,,1513265281,356751426,'',1.20427718388,1.22049702816,-0.0224913942221,0.0162198442853,0.001,-69.7453304269,4300.0,0.0,0.0,0.0
1513265283147865313,,520579,,1513265281,366751426,'',1.20427718388,1.22049702816,-0.0229211293076,0.0162198442853,0.001,-69.7453304269,4300.0,0.0,0.0,0.0
1513265283157735123,,520580,,1513265281,376751426,'',1.20427718388,1.22049702816,-0.0218046637189,0.0162198442853,0.001,-69.7453304269,4300.0,0.0,0.0,0.0
1513265283167683947,,520581,,1513265281,386751426,'',1.20427718388,1.22188465743,0.00803260456699,0.0176074735493,0.001,-75.7121362619,4300.0,0.0,0.0,0.0
1513265283177681665,,520582,,1513265281,396751426,'',1.20427718388,1.22049702816,-0.0194119938399,0.0162198442853,0.001,-69.7453304269,4300.0,0.0,0.0,0.0
1513265283187628231,,520583,,1513265281,406751426,'',1.20427718388,1.22188465743,0.00912455162322,0.0176074735493,0.001,-75.7121362619,4300.0,0.0,0.0,0.0
1513265283197991036,,520584,,1513265281,416751426,'',1.20427718388,1.22049702816,-0.0194564693876,0.0162198442853,0.001,-69.7453304269,4300.0,0.0,0.0,0.0
1513265283207872390,,520585,,1513265281,426751426,'',1.20427718388,1.22049702816,-0.0199119337894,0.0162198442853,0.001,-69.7453304269,4300.0,0.0,0.0,0.0
1513265283217820090,,520586,,1513265281,436751426,'',1.20427718388,1.22188465743,0.00715056795854,0.0176074735493,0.001,-75.7121362619,4300.0,0.0,0.0,0.0
1513265283227669373,,520587,,1513265281,446751426,'',1.20427718388,1.22049702816,-0.0196030654198,0.0162198442853,0.001,-69.7453304269,4300.0,0.0,0.0,0.0
1513265283237655148,,520588,,1513265281,456751426,'',1.20427718388,1.22188465743,0.00800205069721,0.0176074735493,0.001,-75.7121362619,4300.0,0.0,0.0,0.0
1513265283247756006,,520589,,1513265281,466751426,'',1.20427718388,1.22188465743,0.00849322833323,0.0176074735493,0.001,-75.7121362619,4300.0,0.0,0.0,0.0
1513265283258081288,,520590,,1513265281,476751426,'',1.20427718388,1.22188465743,0.00844340793157,0.0176074735493,0.001,-75.7121362619,4300.0,0.0,0.0,0.0
1513265283267940947,,520591,,1513265281,486751426,'',1.20427718388,1.22188465743,0.00731188912885,0.0176074735493,0.001,-75.7121362619,4300.0,0.0,0.0,0.0
1513265283277898535,,520592,,1513265281,496751426,'',1.20427718388,1.22049702816,-0.0184569217689,0.0162198442853,0.001,-69.7453304269,4300.0,0.0,0.0,0.0
1513265283287865976,,520593,,1513265281,506751426,'',1.20427718388,1.22188465743,0.0098692753859,0.0176074735493,0.001,-75.7121362619,4300.0,0.0,0.0,0.0
1513265283297827481,,520594,,1513265281,516751426,'',1.20427718388,1.22188465743,0.00963639721429,0.0176074735493,0.001,-75.7121362619,4300.0,0.0,0.0,0.0
1513265283307894104,,520595,,1513265281,526751426,'',1.20427718388,1.22049702816,-0.0180905043525,0.0162198442853,0.001,-69.7453304269,4300.0,0.0,0.0,0.0
1513265283317856836,,520596,,1513265281,536751426,'',1.20427718388,1.22049702816,-0.0182522122625,0.0162198442853,0.001,-69.7453304269,4300.0,0.0,0.0,0.0
1513265283327789136,,520597,,1513265281,546751426,'',1.20427718388,1.22327228669,0.0364775216536,0.0189951028132,0.001,-81.6789420969,4300.0,0.0,0.0,0.0
1513265283337687728,,520598,,1513265281,556751426,'',1.20427718388,1.22049702816,-0.0211529610527,0.0162198442853,0.001,-69.7453304269,4300.0,0.0,0.0,0.0
1513265283348065342,,520599,,1513265281,566751426,'',1.20427718388,1.22327228669,0.0335542290313,0.0189951028132,0.001,-81.6789420969,4300.0,0.0,0.0,0.0
1513265283358069815,,520600,,1513265281,576751426,'',1.20427718388,1.22188465743,0.00657837833436,0.0176074735493,0.001,-75.7121362619,4300.0,0.0,0.0,0.0
1513265283368119187,,520601,,1513265281,586751426,'',1.20427718388,1.22188465743,0.00731276464099,0.0176074735493,0.001,-75.7121362619,4300.0,0.0,0.0,0.0
1513265283378001284,,520602,,1513265281,596751426,'',1.20427718388,1.22188465743,0.00691737037922,0.0176074735493,0.001,-75.7121362619,4300.0,0.0,0.0,0.0
1513265283387934097,,520603,,1513265281,606751426,'',1.20427718388,1.22188465743,0.00765682942937,0.0176074735493,0.001,-75.7121362619,4300.0,0.0,0.0,0.0
1513265283397853767,,520604,,1513265281,616751426,'',1.20427718388,1.22188465743,0.00519755521559,0.0176074735493,0.001,-75.7121362619,4300.0,0.0,0.0,0.0
1513265283407804745,,520605,,1513265281,626751426,'',1.20427718388,1.22188465743,0.00528547120428,0.0176074735493,0.001,-75.7121362619,4300.0,0.0,0.0,0.0
1513265283417648941,,520606,,1513265281,636751426,'',1.20427718388,1.22188465743,0.00333358430306,0.0176074735493,0.001,-75.7121362619,4300.0,0.0,0.0,0.0
1513265283427612248,,520607,,1513265281,646751426,'',1.20427718388,1.22327228669,0.0297465224802,0.0189951028132,0.001,-81.6789420969,4300.0,0.0,0.0,0.0
1513265283437914902,,520608,,1513265281,656751426,'',1.20427718388,1.22327228669,0.0278085150449,0.0189951028132,0.001,-81.6789420969,4300.0,0.0,0.0,0.0
1513265283447970762,,520609,,1513265281,666751426,'',1.20427718388,1.22188465743,-0.000700312726672,0.0176074735493,0.001,-75.7121362619,4300.0,0.0,0.0,0.0
1513265283457933053,,520610,,1513265281,676751426,'',1.20427718388,1.22188465743,-0.000573425094675,0.0176074735493,0.001,-75.7121362619,4300.0,0.0,0.0,0.0
1513265283467829244,,520611,,1513265281,686751426,'',1.20427718388,1.22188465743,-0.00298790281875,0.0176074735493,0.001,-75.7121362619,4300.0,0.0,0.0,0.0
1513265283477671172,,520612,,1513265281,696751426,'',1.20427718388,1.22327228669,0.0234440814349,0.0189951028132,0.001,-81.6789420969,4300.0,0.0,0.0,0.0
1513265283487667309,,520613,,1513265281,706751426,'',1.20427718388,1.22049702816,-0.0302909495916,0.0162198442853,0.001,-69.7453304269,4300.0,0.0,0.0,0.0
1513265283497946405,,520614,,1513265281,716751426,'',1.20427718388,1.22188465743,-0.00185124347817,0.0176074735493,0.001,-75.7121362619,4300.0,0.0,0.0,0.0
1513265283508047722,,520615,,1513265281,726751426,'',1.20427718388,1.22188465743,-0.00206951762531,0.0176074735493,0.001,-75.7121362619,4300.0,0.0,0.0,0.0
1513265283517860022,,520616,,1513265281,736751426,'',1.20427718388,1.22327228669,0.0252697992389,0.0189951028132,0.001,-81.6789420969,4300.0,0.0,0.0,0.0
1513265283527793178,,520617,,1513265281,746751426,'',1.20427718388,1.22188465743,-0.0017146012491,0.0176074735493,0.001,-75.7121362619,4300.0,0.0,0.0,0.0
1513265283537912145,,520618,,1513265281,756751426,'',1.20427718388,1.22188465743,8.51474813782e-05,0.0176074735493,0.001,-75.7121362619,4300.0,0.0,0.0,0.0
1513265283547779936,,520619,,1513265281,766751426,'',1.20427718388,1.22188465743,0.00106589214273,0.0176074735493,0.001,-75.7121362619,4300.0,0.0,0.0,0.0
1513265283557733812,,520620,,1513265281,776751426,'',1.20427718388,1.22327228669,0.0287796878956,0.0189951028132,0.001,-81.6789420969,4300.0,0.0,0.0,0.0
1513265283567692609,,520621,,1513265281,786751426,'',1.20427718388,1.22188465743,0.000569832625302,0.0176074735493,0.001,-75.7121362619,4300.0,0.0,0.0,0.0
1513265283578101350,,520622,,1513265281,796751426,'',1.20427718388,1.22049702816,-0.0280847953407,0.0162198442853,0.001,-69.7453304269,4300.0,0.0,0.0,0.0
1513265283588087142,,520623,,1513265281,806751426,'',1.20427718388,1.22188465743,0.000973222704968,0.0176074735493,0.001,-75.7121362619,4300.0,0.0,0.0,0.0
1513265283598241137,,520624,,1513265281,816751426,'',1.20427718388,1.22188465743,0.000272753957055,0.0176074735493,0.001,-75.7121362619,4300.0,0.0,0.0,0.0
1513265283608250778,,520625,,1513265281,826751426,'',1.20427718388,1.22188465743,0.00325617986581,0.0176074735493,0.001,-75.7121362619,4300.0,0.0,0.0,0.0
1513265283617973492,,520626,,1513265281,836751426,'',1.20427718388,1.22188465743,0.00420440989566,0.0176074735493,0.001,-75.7121362619,4300.0,0.0,0.0,0.0
1513265283628004474,,520627,,1513265281,846751426,'',1.20427718388,1.22049702816,-0.0234732612563,0.0162198442853,0.001,-69.7453304269,4300.0,0.0,0.0,0.0
1513265283637768809,,520628,,1513265281,856751426,'',1.20427718388,1.22049702816,-0.0212390140713,0.0162198442853,0.001,-69.7453304269,4300.0,0.0,0.0,0.0
1513265283647805067,,520629,,1513265281,866751426,'',1.20427718388,1.22049702816,-0.0209275661975,0.0162198442853,0.001,-69.7453304269,4300.0,0.0,0.0,0.0
1513265283657981987,,520630,,1513265281,876751426,'',1.20427718388,1.22188465743,0.00721645053642,0.0176074735493,0.001,-75.7121362619,4300.0,0.0,0.0,0.0
1513265283668219102,,520631,,1513265281,886751426,'',1.20427718388,1.22188465743,0.00841978130691,0.0176074735493,0.001,-75.7121362619,4300.0,0.0,0.0,0.0
1513265283678105571,,520632,,1513265281,896751426,'',1.20427718388,1.22049702816,-0.0206559952589,0.0162198442853,0.001,-69.7453304269,4300.0,0.0,0.0,0.0
1513265283687997733,,520633,,1513265281,906751426,'',1.20427718388,1.22188465743,0.00747208394482,0.0176074735493,0.001,-75.7121362619,4300.0,0.0,0.0,0.0
1513265283698096631,,520634,,1513265281,916751426,'',1.20427718388,1.22327228669,0.0355921996338,0.0189951028132,0.001,-81.6789420969,4300.0,0.0,0.0,0.0
1513265283708266281,,520635,,1513265281,926751426,'',1.20427718388,1.22327228669,0.0371410679813,0.0189951028132,0.001,-81.6789420969,4300.0,0.0,0.0,0.0
1513265283717800064,,520636,,1513265281,936751426,'',1.20427718388,1.22049702816,-0.017486992723,0.0162198442853,0.001,-69.7453304269,4300.0,0.0,0.0,0.0
1513265283727645532,,520637,,1513265281,946751426,'',1.20427718388,1.22049702816,-0.0173706228986,0.0162198442853,0.001,-69.7453304269,4300.0,0.0,0.0,0.0
1513265283737695301,,520638,,1513265281,956751426,'',1.20427718388,1.22049702816,-0.0152259867269,0.0162198442853,0.001,-69.7453304269,4300.0,0.0,0.0,0.0
1513265283748234416,,520639,,1513265281,966751426,'',1.20427718388,1.22188465743,0.0134604884651,0.0176074735493,0.001,-75.7121362619,4300.0,0.0,0.0,0.0
1513265283758254034,,520640,,1513265281,976751426,'',1.20427718388,1.22049702816,-0.014508520398,0.0162198442853,0.001,-69.7453304269,4300.0,0.0,0.0,0.0
1513265283768069571,,520641,,1513265281,986751426,'',1.20427718388,1.22327228669,0.0395142320797,0.0189951028132,0.001,-81.6789420969,4300.0,0.0,0.0,0.0
1513265283778099299,,520642,,1513265281,996751426,'',1.20427718388,1.22049702816,-0.0145440864858,0.0162198442853,0.001,-69.7453304269,4300.0,0.0,0.0,0.0
1513265283788044839,,520643,,1513265282,6751426,'',1.20427718388,1.22049702816,-0.0123986545926,0.0162198442853,0.001,-69.7453304269,4300.0,0.0,0.0,0.0
1513265283797694012,,520644,,1513265282,16751426,'',1.20427718388,1.22049702816,-0.0101283335777,0.0162198442853,0.001,-69.7453304269,4300.0,0.0,0.0,0.0
1513265283807671868,,520645,,1513265282,26751426,'',1.20427718388,1.22049702816,-0.0112798739522,0.0162198442853,0.001,-69.7453304269,4300.0,0.0,0.0,0.0
